-0.20072891343803,-0.886772308756739
-0.185927118888819,-0.890736169763028
-0.170807391532712,-0.893508877033839
-0.155419552328389,-0.895080798589306
-0.139814121437324,-0.895445983067196
-0.124042106061574,-0.894602189015896
-0.108154786631486,-0.892550900189776
-0.0922035022083318,-0.889297326778537
-0.0762394359696653,-0.884850392557289
-0.0603134016446435,-0.879222707999368
-0.0444756317624171,-0.872430529448957
-0.0287755685692108,-0.8644937045053
-0.0132616584587704,-0.855435603824387
0.00201884925343919,-0.845283039597312
0.0170200983995075,-0.834066171016785
0.0316978160798945,-0.821818397094346
0.0460094960678592,-0.808576237240472
0.0599145747566379,-0.794379200067776
0.0733745989385243,-0.779269640923722
0.0863533847378559,-0.763292608703466
0.0988171670554633,-0.746495682535496
0.110734738920256,-0.728928798972446
0.122077580184144,-0.710644070356656
0.132819975039261,-0.691695595064644
0.142939117881324,-0.672139260366446
0.152415207089696,-0.652032538664656
0.161231526343198,-0.631434277903911
0.169374513140707,-0.610404486964282
0.176833814246868,-0.589004116871615
0.183602327835707,-0.567294838674115
0.189676232158241,-0.545338818847359
0.195055000614231,-0.523198493099492
0.199741403162753,-0.500936339454347
0.203741494061029,-0.478614651492936
0.207064585975798,-0.456295312632805
0.209723210566187,-0.434039572320488
0.211733065691294,-0.411907825004451
0.213112949449389,-0.389959392744774
0.213884681308478,-0.368252312301169
0.214073010639821,-0.346843127523097
0.213705513016571,-0.325786687844556
0.212812474688893,-0.305135953661836
0.211426765694409,-0.28494180934513
0.209583702108574,-0.265252884604588
0.207320897983266,-0.246115384898203
0.204678107563417,-0.22757293153307
0.201697058410721,-0.209666412073077
0.198421276100124,-0.192433841625291
0.194895901188885,-0.175910235534147
0.191167499189258,-0.160127493967404
0.187283864304209,-0.145114298830733
0.183293817710976,-0.130896023399036
0.179247001199458,-0.117494655002243
0.175193666991518,-0.104928731051752
0.171184464582975,-0.0932132886408894
0.167270225462514,-0.0823598278991544
0.16350174657071,-0.0723762892256206
0.159929573367961,-0.0632670444720928
0.156603783382253,-0.0550329020914943
0.153573771106304,-0.0476711262118537
0.150888035108886,-0.0411754695412969
0.148593968216827,-0.0355362199548977
0.146737651612591,-0.0307402605602873
0.145363653677294,-0.0267711429857955
0.14451483439072,-0.0236091735828064
0.14423215607833,-0.0212315121831525
0.144554501270594,-0.0196122830029629
0.145518498412206,-0.0187226972366002
0.147158356128084,-0.0185311868383721
0.149505706719539,-0.0190035489457595
0.152589459527828,-0.0201031003561387
0.156435664763566,-0.0217908414295616
0.16106738835936,-0.0240256287532413
0.166504598359688,-0.0267643558691264
0.172764063316635,-0.0299621413344639
0.179859263112844,-0.0335725233566786
0.187800312584046,-0.0375476602183395
0.196593898263104,-0.0418385356855565
0.206243228515747,-0.0463951685739251
0.216747997285301,-0.0511668256302036
0.228104361610053,-0.0561022368753161
0.240304933022438,-0.0611498125450901
0.253338782884433,-0.0662578607593741
0.267191461658447,-0.0713748050478855
0.281845032057924,-0.0764494008623004
0.297278115966937,-0.0814309502087212
0.313465954963633,-0.0862695135427174
0.330380484228521,-0.0909161180806123
0.347990419565589,-0.0953229616955116
0.366261357212356,-0.0994436115847136
0.385155886064235,-0.103233196916496
0.404633711889444,-0.106648594688786
0.424651793063103,-0.109648608059781
0.445164487303505,-0.11219413644105
0.466123708849873,-0.114248336677006
0.487479095479447,-0.115776774670554
0.50917818472267,-0.116747566853308
0.531166598598664,-0.117131510939655
0.553388236159292,-0.116902205447062
0.575785473098993,-0.116036157510244
0.598299367659435,-0.114512878563829
0.620869872032864,-0.112314967516917
0.643436048446035,-0.109428181093151
0.665936289087885,-0.105841491061423
0.688308539028561,-0.101547128134971
0.71049052126538,-0.0965406123700686
0.732419963022551,-0.0908207699496577
0.754034822426245,-0.0843897362918846
0.775273514674834,-0.0772529454782843
0.796075136825741,-0.0694191060512139
0.816379690325578,-0.0609001632847493
0.836128300418756,-0.0517112480874659
0.855263431581824,-0.0418706127490844
0.873729098146142,-0.0313995537956789
0.891471069290152,-0.0203223222697935
0.908437067604462,-0.00866602180219776
0.924576960457978,0.00353950510906835
0.939842943421423,0.0162618021494558
0.954189715035623,0.029465935060156
0.96757464224579,0.0431146377801532
0.979957915859523,0.057168468265208
0.991302695425357,0.0715859733520953
1.00157524297007,0.0863238620001354
1.01074504507664,0.101337186208424
1.01878492283047,0.116579528876349
1.02567112920895,0.132003197847068
1.03138343353875,0.147559425348759
1.035905192696,0.163198572026711
1.03922340877628,0.17887033474079
1.04132877301461,0.194523957287595
1.04221569578959,0.210108443194737
1.04188232260007,0.225572769726183
1.04033053595825,0.240866102232569
1.03756594319791,0.255938007978815
1.03359785025182,0.270738668583175
1.02843922150755,0.285219090207263
1.02210662590518,0.29933131064529
1.01462016949457,0.3130286024729
1.0060034147227,0.326265671431529
0.996283286773742,0.338998849242963
0.985489967334954,0.351186280070786
0.973656776211062,0.362788099870545
0.960820041256906,0.373766607898596
0.947018957144097,0.384086429680691
0.932295433520897,0.3937146707752
0.916693933165969,0.402621060702413
0.900261300775664,0.410778086450373
0.883046583060981,0.418161115009104
0.865100840864147,0.424748504428676
0.846476954035736,0.43052170294215
0.82722941984132,0.435465335741906
0.807414145691643,0.439567279046945
0.787088237012153,0.442818721149315
0.766309781086395,0.445214210179617
0.745137627723074,0.44675168838443
0.723631167608552,0.447432512762156
0.701850109215129,0.447261461958165
0.679854255140547,0.446246729374816
0.657703278755787,0.444399902506898
0.635456502036454,0.441735928567932
0.613172675447705,0.438273066527442
0.590909760743987,0.434032825733521
0.568724717532708,0.429039891348566
0.546673294435477,0.423322036878659
0.524809825661765,0.416910024128686
0.503187033787857,0.409837490965495
0.481855839508787,0.402140827320143
0.460865179102857,0.393859039907379
0.440261830317166,0.385033606185622
0.420090247348786,0.375708318123873
0.400392405559617,0.365929116382814
0.381207656523918,0.355743915555893
0.362572593966121,0.345202421152077
0.344520931102875,0.334355939035242
0.327083389857679,0.32325717806556
0.310287602368964,0.311960046715731
0.294158025163372,0.300519444459337
0.27871586631538,0.288991048749839
0.26397902586261,0.277431098426805
0.249962049693244,0.265896174400644
0.236676097068255,0.254442978478506
0.224128921886816,0.243128111201937
0.212324867748466,0.232007849571367
0.201264876810661,0.221137925533557
0.190946512385424,0.210573306105685
0.181363995164086,0.20036797600386
0.172508252904907,0.190574723634509
0.164366983364798,0.181244931294366
0.156924730203709,0.172428370408692
0.150162971538666,0.164173002617998
0.144060220774195,0.156524787500936
0.138592139287073,0.149527497695361
0.133731660496311,0.14322254215079
0.129449124804056,0.137648798213889
0.125712424849983,0.132842453214186
0.12248716048085,0.128836856180145
0.119736802798381,0.125662380276185
0.11742286661269,0.123346296509295
0.115505090595187,0.12191265920984
0.113941624394462,0.121382203745033
0.112689221951141,0.121772256875663
0.111703440223248,0.123096660117091
0.110938842512303,0.125365706414574
0.110349205562314,0.128586090390733
0.109887729589039,0.132760872369763
0.109507250385504,0.137889456328868
0.10916045264173,0.143967581872805
0.108800083612092,0.150987330272289
0.108379166262592,0.158937144551839
0.107851211032709,0.167801863557439
0.107170425352265,0.177562769879467
0.106291920062991,0.188197651451946
0.105171911907098,0.1996808765954
0.103767921261113,0.211983482217823
0.102038964312469,0.225073274836522
0.0999457388987975,0.238914944033263
0.0974508032553907,0.253470187906281
0.0945187469448739,0.268697850035579
0.0911163532745737,0.284554067432731
0.087212752541286,0.300992428903241
0.0827795654799992,0.317964143208637
0.0777910363324731,0.335418216376988
0.0722241549932403,0.353301637474651
0.0660587677344329,0.371559572118807
0.0592776760566608,0.390135562980073
0.0518667232608054,0.408971736496977
0.0438148683848382,0.428009014999863
0.0351142472004524,0.447187333420541
0.0257602200161866,0.466445859746165
0.0157514060866357,0.485723218361159
0.0050897044810472,0.504957715409871
-0.00621969868107917,0.524087565304768
-0.018168336665109,0.543051117500718
-0.0307444822099761,0.561787082654979
-0.0439331811985737,0.58023475729514
-0.0577162997834411,0.598334246123344
-0.0720725847873431,0.616026681094585
-0.0869777371450579,0.6332544364198
-0.10240449810032,0.649961338660729
-0.118322747820625,0.666092871103044
-0.134699616042697,0.681596371616986
-0.151499604313065,0.696421223240623
-0.16868471934153,0.710519036749699
-0.186214616940592,0.723843824509826
-0.204046755981249,0.73635216494131
-0.222136561755201,0.748003356964084
-0.240437598095533,0.758759563829893
-0.258901747572557,0.768585945790873
-0.277479399048794,0.777450781097832
-0.296119641847283,0.785325574867703
-0.314770465760472,0.792185155407592
-0.333378966103186,0.798007757632433
-0.351891552992488,0.802775093264244
-0.370254164019892,0.806472407553223
-0.388412479467245,0.809088522314127
-0.40631213920695,0.81061586512541
-0.423898960419867,0.811050484593234
-0.441119155260393,0.810392051637412
-0.457919547597834,0.808643846811514
-0.47424778796625,0.805812733724426
-0.490052565861493,0.801909118685425
-0.505283818534105,0.79694689674915
-0.51989293544006,0.790943384390365
-0.533832957528053,0.783919239091117
-0.547058770561941,0.775898366174328
-0.559527291700088,0.766907813268071
-0.571197648579611,0.756977652833375
-0.582031350182733,0.746140853235304
-0.591992448794567,0.734433138882026
-0.601047692396519,0.721892839999466
-0.609166666876972,0.708560732649747
-0.61632192748086,0.694479869639818
-0.622489118961984,0.679695403002264
-0.627647083946351,0.664254398763201
-0.631777959061125,0.648205644742194
-0.634867258431991,0.631599452156222
-0.636903944201408,0.614487451823717
-0.637880483771415,0.596922385785551
-0.637792893526927,0.578957895177425
-0.636640768848832,0.56064830520239
-0.634427300280218,0.542048408063131
-0.631159275763771,0.523213244721121
-0.626847068923324,0.504197886353773
-0.621504613417686,0.48505721638132
-0.615149363449896,0.465845713932227
-0.607802240569737,0.446617239609601
-0.599487566961587,0.427424824411329
-0.590232985463059,0.408320462643467
-0.580069366612424,0.389354909649951
-0.569030703074118,0.370577485161929
-0.557153991841599,0.35203588304708
-0.544479104665211,0.333775988213208
-0.531048647199381,0.315841701391428
-0.516907807408141,0.29827477249229
-0.502104193810583,0.281114643193544
-0.486687664188144,0.264398299380998
-0.470710145413446,0.248160134024151
-0.454225445095724,0.232431821026255
-0.437289055770338,0.217242200544302
-0.419957952389545,0.202617176228243
-0.402290383898384,0.188579624780877
-0.384345659703081,0.175149318190316
-0.366183931859809,0.162342858936029
-0.347865973828735,0.15017362841741
-0.329452956652126,0.138651748800727
-0.31100622342567,0.12778405842647
-0.292587062939174,0.117574100864764
-0.2742564833663,0.108022127651727
-0.256074986883102,0.0991251146848493
-0.238102346091675,0.0908767922007011
-0.220397383118375,0.0832676882038146
-0.203017752245756,0.0762851851617147
-0.186019726923693,0.0699135897278831
-0.169457991988107,0.0641342152022349
-0.15338544189543,0.0589254763876599
-0.137852985757451,0.0542629964514862
-0.122909359934598,0.0501197253526264
-0.108600948916128,0.0464660693488015
-0.0949716151832722,0.0432700310538337
-0.0820625387161527,0.0404973594726929
-0.069912066767501,0.0381117094019738
-0.0585555744859512,0.0360748095459121
-0.0480253369291046,0.0343466386630732
-0.0383504129618851,0.0328856090266074
-0.0295565414890546,0.0316487564515838
-0.0216660504223438,0.030591936116514
-0.0146977787326707,0.0296700233828579
-0.00866701188653853,0.0288371187961621
-0.00358543091316919,0.0280467564355923
0.000538924704596169,0.0272521147650605
0.00370168017686083,0.0264062291289612
0.0059021345067537,0.0254622050287628
0.00714325551521509,0.0243734313133797
0.0074316608169243,0.0230937924163869
0.00677758482893991,0.021577878776731
0.0051948319484298,0.0197811945866362
0.00270071609012978,0.0176603620208556
-0.00068401317233388,0.0151733211152492
-0.0049352575645933,0.0122795244798234
-0.0100256698211462,0.00894012605177186
-0.0159247657484552,0.00511816311762549
-0.0225990481951639,0.000778730860289775
-0.0300121424364835,-0.00411085128364964
-0.0381249424350987,-0.00958088213846125
-0.0468957673984659,-0.0156591308225703
-0.0562805280121279,-0.0223706989097467
-0.0662329016908941,-0.0297378932870569
-0.0767045161546361,-0.0377801102359821
-0.0876451406029578,-0.0465137312184386
-0.0990028837335665,-0.0559520308029457
-0.110724397822526,-0.0661050971178288
-0.122755088061239,-0.0769797651685599
-0.135039326324648,-0.0885795633050735
-0.147520668528248,-0.100904673072574
-0.160142074717791,-0.113951902626028
-0.172846131025325,-0.127714673834487
-0.185575272618397,-0.142183023146862
-0.198272006765834,-0.157343616235836
-0.210879135143637,-0.173179776381747
-0.223339974508072,-0.189671526503363
-0.235598574870053,-0.206795644688085
-0.247599934315362,-0.224525733020161
-0.259290209629034,-0.242832299452401
-0.270616921899441,-0.261682852414766
-0.281529156297941,-0.281042007802255
-0.291977755253612,-0.300871607935025
-0.301915504269187,-0.321130852035699
-0.311297309654019,-0.341776437722772
-0.320080367482322,-0.362762712974742
-0.32822432312027,-0.384041837977712
-0.335691420703231,-0.405563956229377
-0.342446641984788,-0.42727737423521
-0.348457834021653,-0.449128749097936
-0.353695825203276,-0.471063283269651
-0.358134529181498,-0.49302492570689
-0.36175103630394,-0.514956578643036
-0.364525692204715,-0.536800309169627
-0.366442163257235,-0.558497564798393
-0.367487488646352,-0.579989392159549
-0.367652118870337,-0.601216657978764
-0.366929940537323,-0.622120271465629
-0.365318287375396,-0.642641407240183
-0.362817937430423,-0.662721727921321
-0.359433096480679,-0.682303605501597
-0.355171367752166,-0.701330340637139
-0.350043708073029,-0.719746378988948
-0.344064370659359,-0.737497523762981
-0.33725083477784,-0.754531143610772
-0.329623722582847,-0.770796375070094
-0.321206703476503,-0.786244318746209
-0.31202638638981,-0.80082822845831
-0.302112200430842,-0.814503692603132
-0.291496264392229,-0.827228807017734
-0.280213245654238,-0.838964338656685
-0.268300209061902,-0.849673879434489
-0.255796456394283,-0.85932398962251
-0.242743357081264,-0.867884330230405
-0.229184170857854,-0.87532778384506
-0.215163863077894,-0.88163056344519
-0.200728913438031,-0.886772308756739
