0.940033319111829,-0.169763185477445
0.940890975745514,-0.155258572301334
0.939259558799017,-0.140501044043934
0.935169350132207,-0.125605124618719
0.928681289167012,-0.110685295941868
0.919886207265876,-0.0958537174296241
0.908903636266279,-0.0812180039903464
0.895880207806744,-0.0668791020780402
0.880987666164069,-0.0529293015882266
0.864420523069474,-0.0394504189553949
0.846393388295004,-0.0265121837948302
0.827138014619889,-0.0141708578708086
0.806900100025843,-0.00246811112742414
0.785935893566076,0.00856982494496555
0.764508654250241,0.018932711141322
0.74288501444267,0.0286265511753053
0.721331300651407,0.0376735339676522
0.70010986517016,0.0461116677843376
0.679475481815743,0.053994111764312
0.65967185798391,0.0613882156362189
0.640928313442821,0.0683742835102183
0.623456673723918,0.0750440824601218
0.60744842269469,0.0814991211018906
0.593072154957253,0.0878487274519917
0.580471364172034,0.0942079589446841
0.569762598327122,0.100695380540311
0.5610340074395,0.10743074931524
0.554344303269469,0.114532645745946
0.549722144444976,0.12211609305298
0.547165954023193,0.130290206434178
0.546644170060149,0.139155913780651
0.548095923314319,0.148803788535436
0.5514321298752,0.159312033736273
0.556536980379663,0.170744654004945
0.56326980165022,0.183149849341143
0.571467261148834,0.196558661094176
0.58094587966938,0.210983896476085
0.591504813266191,0.226419353508433
0.602928861601193,0.242839363433626
0.614991656744482,0.260198662448053
0.627458984028668,0.278432599211778
0.640092184870829,0.297457679045372
0.652651590560454,0.317172440128482
0.664899935878471,0.337458651457921
0.676605702060257,0.358182816896221
0.687546340031222,0.379197964433514
0.69751132700203,0.40034569488213
0.706305012375311,0.421458459705501
0.713749212439327,0.442362033626099
0.719685517449063,0.462878144129258
0.723977279354948,0.482827217040739
0.726511253559055,0.502031195056356
0.727198873576622,0.520316384482481
0.725977143269712,0.537516284536543
0.722809137308332,0.553474353375326
0.717684106608116,0.568046665572859
0.710617191597167,0.581104417054233
0.701648752182473,0.592536235490285
0.690843329124968,0.602250256842858
0.6782882571012,0.610175932082186
0.66409195494303,0.616265532027541
0.648381923324802,0.620495322730277
0.631302484437363,0.622866388756935
0.613012301885717,0.623405087063326
0.593681722116898,0.622163119796166
0.57348998108185,0.619217220229321
0.552622321525596,0.614668452045434
0.531267067260876,0.608641128216722
0.509612701000664,0.601281361725873
0.48784499180506,0.592755266204985
0.466144216950471,0.583246830164482
0.444682521077516,0.572955493746237
0.423621452853852,0.562093461781168
0.403109716144414,0.550882791283672
0.383281168869891,0.539552295302692
0.364253098418433,0.528334308210131
0.346124797727744,0.517461359989468
0.328976461053139,0.507162808848735
0.312868413065886,0.497661482491871
0.297840679372885,0.489170378621715
0.283912900904015,0.481889474709304
0.271084588968786,0.476002695752779
0.259335712230486,0.47167508668208
0.248627601473185,0.469050233271479
0.238904152930965,0.468247971941353
0.230093306191046,0.469362424714266
0.222108768348771,0.472460390899747
0.21485195225122,0.477580121887182
0.20821409337781,0.484730499805286
0.202078507221906,0.493890634844752
0.196322946998302,0.505009889828474
0.190822020138227,0.518008334245812
0.185449621365754,0.532777623541145
0.180081340185436,0.549182293060844
0.174596801347379,0.567061449814817
0.16888189827824,0.586230839195135
0.162830881548937,0.606485258107633
0.156348267155851,0.627601280700561
0.149350532675399,0.649340258099099
0.141767573156176,0.671451549349737
0.133543892874249,0.693675937209758
0.124639513723997,0.715749179539901
0.115030585971356,0.737405644917946
0.104709692275834,0.758381979721277
0.0936858412059738,0.77842075334944
0.0819841518416628,0.797274028483171
0.0696452363867937,0.814706804301842
0.0567242929188731,0.830500282391965
0.043289925392073,0.844454907648354
0.0294227127043438,0.856393139758307
0.0152135529597946,0.866161914817977
0.000761812933093606,0.873634761199064
-0.0138266838910881,0.878713538893684
-0.0284417945293987,0.88132977713804
-0.0429712805982124,0.881445591066604
-0.0573030793941442,0.879054164387228
-0.0713275811844891,0.874179791498959
-0.0849398717571275,0.866877479000401
-0.0980418997936202,0.857232113057854
-0.11054452982806,0.845357205519921
-0.122369443418634,0.83139323788127
-0.13345085365885,0.815505628118331
-0.143737001250426,0.79788235095406
-0.153191403999799,0.778731247173884
-0.161793835725634,0.758277062133914
-0.169541015108432,0.736758257507681
-0.176446989900957,0.714423643550402
-0.182543207069728,0.691528881672253
-0.187878264768655,0.66833290886735
-0.192517347468495,0.645094336517998
-0.196541350990723,0.622067876271278
-0.200045709532155,0.599500845066307
-0.203138941928804,0.577629799987143
-0.205940939308318,0.556677351451794
-0.208581020838142,0.536849200357459
-0.211195788415046,0.518331441232282
-0.213926814791087,0.501288169251384
-0.216918202729428,0.485859424225878
-0.220314055277564,0.472159499442806
-0.224255899091902,0.460275637603155
-0.228880103912982,0.450267130162459
-0.234315341752895,0.442164830216235
-0.240680129104562,0.435971082786329
-0.248080494517206,0.431660070051432
-0.256607812215738,0.429178562822811
-0.266336840097404,0.428447063490773
-0.277323997451549,0.429361319851448
-0.289605914162813,0.431794183756012
-0.303198279029426,0.435597783488289
-0.318095010220351,0.440605974247938
-0.334267765879774,0.44663702716282
-0.351665807543437,0.453496513934344
-0.370216223442877,0.460980341582126
-0.389824513029362,0.468877889836733
-0.410375528240491,0.476975202558028
-0.431734761252005,0.485058184146084
-0.453749962797917,0.492915752264375
-0.47625306969499,0.50034289930149
-0.499062415060908,0.507143616836792
-0.521985189953012,0.513133639914533
-0.544820120854271,0.51814297112642
-0.567360323666087,0.52201814830088
-0.589396291696436,0.524624223935318
-0.610718972610388,0.525846429314222
-0.631122887481557,0.525591501452882
-0.650409243980427,0.523788656509503
-0.668388995380005,0.520390199028934
-0.684885797460511,0.515371762227585
-0.699738816550654,0.508732180407731
-0.712805343839091,0.500493000407204
-0.723963173700189,0.490697644655008
-0.733112707065802,0.479410243825702
-0.740178744791407,0.466714162180162
-0.745111940452499,0.452710243368248
-0.747889886998284,0.43751480867722
-0.748517817108897,0.421257443373738
-0.747028902867229,0.404078609851246
-0.743484146378751,0.386127128712486
-0.737971859159907,0.367557570653438
-0.730606734372381,0.348527603045778
-0.721528522209926,0.329195335427108
-0.710900324849695,0.309716707700316
-0.698906533266172,0.290242963725871
-0.685750433780634,0.270918251185129
-0.671651517395334,0.251877386131612
-0.656842529657597,0.233243817573758
-0.641566302940592,0.215127823799673
-0.626072416548661,0.197624968023696
-0.610613732899416,0.180814836375623
-0.595442860156137,0.164760076342481
-0.580808593047372,0.149505748591623
-0.566952384192609,0.135078999738292
-0.554104898042217,0.121489058159509
-0.542482698537354,0.108727549488874
-0.5322851198144,0.0967691230435231
-0.52369136674393,0.0855723752230938
-0.516857888843149,0.075081050966351
-0.511916067181147,0.0652254997347491
-0.508970249366652,0.055924358288732
-0.50809616263626,0.0470864288001499
-0.509339729523608,0.0386127176628859
-0.512716304670546,0.0303985977748828
-0.518210345129572,0.0223360551095948
-0.525775520097121,0.0143159791044602
-0.53533525950702,0.00623045578834903
-0.546783734401897,-0.00202497734213423
-0.559987255586569,-0.0105491549086577
-0.574786070849458,-0.0194332244545591
-0.590996535110616,-0.0287587411124715
-0.608413622308556,-0.0385959500582687
-0.626813742757384,-0.0490022873778973
-0.645957825168263,-0.0600211261624498
-0.665594618604219,-0.0716807903834568
-0.685464166384477,-0.083993854455764
-0.705301401423474,-0.0969567414466934
-0.724839810718668,-0.110549627719671
-0.743815115717087,-0.124736656493975
-0.761968915107733,-0.139466457447818
-0.779052237207863,-0.154672964178638
-0.794828950525568,-0.17027651615048
-0.809078983266973,-0.186185226790105
-0.821601305479387,-0.202296594723737
-0.832216631136703,-0.218499330853186
-0.840769801724157,-0.234675370125509
-0.847131817700563,-0.250702033519007
-0.851201489532897,-0.266454303006664
-0.852906685728813,-0.281807170113298
-0.852205161349041,-0.296638017191799
-0.84908495677068,-0.310828989733492
-0.843564362897676,-0.324269317913237
-0.835691455477859,-0.336857546155539
-0.825543207588033,-0.348503630786314
-0.813224195592034,-0.359130867787393
-0.79886491986655,-0.368677615267665
-0.782619767234699,-0.377098778465567
-0.764664647262751,-0.384367028852307
-0.745194339282298,-0.390473733154192
-0.724419591128123,-0.395429572788105
-0.702564014069797,-0.399264839231851
-0.679860821211107,-0.402029396149767
-0.656549458695638,-0.403792304578496
-0.632872180359879,-0.40464111305922
-0.609070617000293,-0.404680820190432
-0.585382391162584,-0.404032522578437
-0.562037827327302,-0.402831766491168
-0.53925680557494,-0.401226626587151
-0.51724580429683,-0.399375539811893
-0.496195174317333,-0.397444926850284
-0.476276682960769,-0.395606637324007
-0.457641362195284,-0.394035258163286
-0.440417690086343,-0.392905327207332
-0.424710129473176,-0.392388496051735
-0.410598042126778,-0.392650687428707
-0.398134990747713,-0.393849292953199
-0.387348435108907,-0.396130456881704
-0.378239822538052,-0.399626490609954
-0.370785066861706,-0.404453460991403
-0.364935403993444,-0.410708993212467
-0.360618606633562,-0.418470325946677
-0.3577405351463,-0.427792652872355
-0.356186996675243,-0.438707780431697
-0.355825880024977,-0.451223126996833
-0.356509529845947,-0.465321083462676
-0.35807732026956,-0.480958749786246
-0.360358385402141,-0.498068056222874
-0.363174462038933,-0.516556272060942
-0.366342798631493,-0.536306898621641
-0.369679083950641,-0.557180937263228
-0.373000349037765,-0.579018517205511
-0.376127796923301,-0.601640862263357
-0.37888951619446,-0.624852570139082
-0.381123036785166,-0.64844417285918
-0.38267768929944,-0.672194942332537
-0.383416732714683,-0.695875900929189
-0.383219219383538,-0.719252993497336
-0.381981570794319,-0.742090374408921
-0.379618842484845,-0.76415376109779
-0.376065661751732,-0.785213804165749
-0.371276827270622,-0.805049423505636
-0.365227565353242,-0.823451060040095
-0.357913443223336,-0.840223793601046
-0.349349945303933,-0.855190279167034
-0.339571723982534,-0.868193456110551
-0.328631541570741,-0.879098988250582
-0.316598925116557,-0.887797396311129
-0.303558560282301,-0.894205848798228
-0.289608454596653,-0.898269582260099
-0.274857903961094,-0.899962927313276
-0.259425299283227,-0.899289922619991
-0.243435812475652,-0.896284505100727
-0.227019002763487,-0.891010270967975
-0.210306385260768,-0.883559808576575
-0.193429004092295,-0.874053610504505
-0.176515051950097,-0.862638578607229
-0.159687576891928,-0.849486141931342
-0.14306231543295,-0.834790013234723
-0.126745688582424,-0.818763615350235
-0.110832994476309,-0.80163721366334
-0.0954068277053769,-0.783654795472749
-0.0805357513971203,-0.765070740897638
-0.0662732436462489,-0.746146333224257
-0.0526569350779025,-0.727146159098416
-0.0397081492501098,-0.70833445072892
-0.0274317523421856,-0.68997142324232
-0.0158163132211131,-0.672309660505665
-0.0048345696174189,-0.655590602107337
0.00555580913548149,-0.640041182765428
0.015411177451585,-0.62587067323911
0.024800606437406,-0.613267768884164
0.0338043384537724,-0.602397968363089
0.0425120314227695,-0.593401280748292
0.0510208246367223,-0.586390294408271
0.0594332609162489,-0.58144863571529
0.0678551024649567,-0.578629839840123
0.0763930796376513,-0.577956649792924
0.0851526130457437,-0.579420753522145
0.094235549947426,-0.582982962392364
0.103737955701973,-0.588573827825703
0.113748000209317,-0.596094686409772
0.124343977721359,-0.605419117446291
0.135592496224882,-0.616394790834999
0.14754686979269,-0.628845677449325
0.160245743925264,-0.64257458885061
0.17371198001457,-0.657366008386644
0.187951820718237,-0.672989171500285
0.202954353306935,-0.689201349498308
0.218691283017938,-0.705751288152695
0.235117023195867,-0.722382750368865
0.252169103613771,-0.738838110788903
0.269768892932798,-0.754861949621797
0.287822625866147,-0.770204593213995
0.306222720352194,-0.784625549886846
0.324849364999649,-0.7978967913551
0.343572352328393,-0.809805832573211
0.362253128972313,-0.820158566092741
0.38074703010825,-0.828781810903053
0.398905661994083,-0.835525540207096
0.416579393696628,-0.840264757583867
0.433619916915008,-0.842900996430488
0.449882831295761,-0.843363423374925
0.465230211820131,-0.841609532414594
0.479533114738081,-0.837625422772407
0.492673979133072,-0.83142565977352
0.504548882519776,-0.823052724335671
0.515069610886102,-0.812576062836737
0.524165506261812,-0.80009075508023
0.531785058188767,-0.785715823731974
0.537897209332465,-0.769592213862929
0.542492349851234,-0.751880476024689
0.545582979960539,-0.732758190533177
0.547204025319659,-0.712417174279606
0.547412795345084,-0.691060514371677
0.546288580232573,-0.66889947518964
0.543931888257959,-0.646150326988707
0.540463330733012,-0.623031144971346
0.536022167724149,-0.599758627781437
0.530764533206285,-0.57654498364069
0.524861363631775,-0.553594930871543
0.518496058859144,-0.531102857356808
0.511861908926946,-0.509250180612984
0.505159324200157,-0.488202946649947
0.498592909892859,-0.46810970171325
0.492368428823356,-0.449099666423452
0.486689698437637,-0.431281236815161
0.481755469606001,-0.414740831417514
0.477756335428706,-0.39954209789489
0.474871718264056,-0.385725486971661
0.473266982412764,-0.373308195490498
0.473090718364007,-0.362284474594047
0.474472242251294,-0.352626293267116
0.477519351211927,-0.344284341922292
0.482316371735021,-0.337189355442944
0.488922533873111,-0.3312537301968
0.4973706994441,-0.326373405076466
0.507666467135211,-0.322429972679626
0.519787671817907,-0.319292983371268
0.533684289477842,-0.316822402224235
0.549278753047386,-0.314871176753448
0.566466678194245,-0.313287871973083
0.585117991864531,-0.311919328633662
0.6050784501993,-0.310613300544426
0.626171526436106,-0.3092210276511
0.648200643665443,-0.30759970300419
0.670951721925734,-0.305614793891139
0.694196004174734,-0.303142180178975
0.717693121247518,-0.300070076274484
0.741194352072342,-0.296300706999002
0.764446032226434,-0.291751712028928
0.787193061425862,-0.28635725829792
0.809182458797714,-0.280068844813256
0.830166913807843,-0.272855789623202
0.849908280531301,-0.26470539409682
0.868180963559872,-0.255622785153253
0.884775145235538,-0.245630441513929
0.899499806060281,-0.234767415359394
0.912185493030871,-0.223088265865669
0.922686794239275,-0.210661725890074
0.930884482311863,-0.197569127495367
0.936687294070314,-0.183902615972039
0.940033319111829,-0.169763185477445
