0.443876911804329,-0.381959810146781
0.443620804118622,-0.381808339469254
0.442859170817262,-0.381343373155446
0.4416026954366,-0.380549502693304
0.43986290561482,-0.379411914054898
0.437652145205958,-0.37791642486507
0.434983544637665,-0.376049520194162
0.431870989579359,-0.373798386893942
0.428329087991201,-0.371150946399078
0.424373135627889,-0.368095885919905
0.420019080074737,-0.364622687955855
0.415283483396732,-0.360721658062612
0.410183483484343,-0.35638395080998
0.404736754182781,-0.351601593871469
0.398961464294049,-0.346367510190758
0.392876235543685,-0.340675538174501
0.386500099606324,-0.334520449865306
0.379852454286364,-0.327897967053267
0.372953018951813,-0.320804775288967
0.365821789321107,-0.313238535765596
0.358478991704066,-0.305197895042548
0.350945036799401,-0.296682492587688
0.343240473152106,-0.287692966120331
0.335385940374858,-0.278230954741897
0.327402122238032,-0.26829909984611
0.319309699733206,-0.257901043805593
0.311129304215102,-0.247041426436653
0.302881470726681,-0.235725879248989
0.294586591611713,-0.223961017492031
0.286264870518459,-0.211754430014509
0.277936276897239,-0.19911466695873
0.269620501093506,-0.186051225315871
0.261336910136726,-0.172574532373387
0.253104504323792,-0.158695927090294
0.24494187469388,-0.144427639440762
0.236867161489695,-0.129782767770933
0.228898013697788,-0.11477525421836
0.221051549758231,-0.0994198582477459
0.213344319531302,-0.083732128360892
0.205792267605997,-0.0677283720428298
0.198410698032195,-0.0514256240100436
0.191214240555079,-0.0348416128304878
0.184216818427084,-0.0179947259887323
0.177431617869061,-0.000903973473045563
0.170871059248683,0.0164110500354826
0.164546770040252,0.0339302042885452
0.15846955962608,0.051632843824789
0.15264939599548,0.0694978594636413
0.147095384393166,0.0875037208473384
0.141815747964475,0.105628519937359
0.136817810440372,0.123850015369334
0.132107980900612,0.142145677568576
0.127691740648777,0.160492734526691
0.1235736322282,0.178868218138224
0.119757250602961,0.197249010995071
0.116245236523317,0.215611893535332
0.11303927209002,0.233933591442504
0.110140078527064,0.252190823190341
0.107547416167448,0.270360347628379
0.105260086651598,0.288419011503027
0.10327593733312,0.306343796809253
0.101591867881635,0.324111867868291
0.100203839067507,0.341700618027367
0.0991068837084033,0.359087715878303
0.0982951197527814,0.37625115089291
0.0977617654706107,0.393169278374382
0.0974991567169222,0.409820863625424
0.0974987662291345,0.42618512523557
0.0977512249145534,0.442241777392123
0.0982463450799816,0.457971071121318
0.0989731455510307,0.473353834368668
0.0999198786244911,0.488371510830051
0.101074058793011,0.503006197447877
0.102422493177365,0.517240680489627
0.103951313597777,0.531058470129222
0.10564601021206,0.544443833455012
0.107491466644871,0.557381825831658
0.109471996528995,0.569858320546865
0.111571381376422,0.581860036677732
0.113772909694016,0.593374565115434
0.116059417255749,0.604390392691069
0.11841332844091,0.614896924349719
0.120816698545288,0.62488450332411
0.123251256970158,0.634344429263728
0.1256984511919,0.643268974279776
0.128139491413365,0.651651396871008
0.130555395796535,0.659485953700185
0.13292703617472,0.6667679091957
0.135235184141478,0.673493542957719
0.137460557412546,0.679660154953122
0.139583866356494,0.685266068488399
0.141585860589394,0.690310630954645
0.143447375528653,0.694794212343717
0.145149378801244,0.69871820153961
0.146673016401865,0.70208500039402
0.147999658497132,0.704898015600044
0.149110944772652,0.707161648382803
0.149988829220868,0.708881282030694
0.150615624268785,0.71006326729573
0.150974044146151,0.710714905696193
0.151047247396359,0.710844430759487
0.150818878434228,0.71046098724766
0.150273108056957,0.70957460841253
0.149394672816847,0.708196191331777
0.148168913166935,0.706337470381562
0.146581810293419,0.704010988905455
0.144620021551641,0.701230069143391
0.142270914425556,0.698008780488283
0.139522598933845,0.694361906141626
0.136363958409335,0.690304908242974
0.132784678581976,0.685853891551574
0.128775274899437,0.681025565761636
0.124327118023267,0.675837206535777
0.119432457442677,0.670306615343994
0.114084443152161,0.664452078198182
0.108277145343492,0.65829232337467
0.10200557206707,0.65184647821946
0.0952656848221119,0.64513402513292
0.0880544120397869,0.638174756832463
0.080369660428104,0.630988730993362
0.0722103241521283,0.623596224369202
0.0635762918279165,0.616017686494636
0.0544684513134474,0.608273693073996
0.0448886922847279,0.600384899160024
0.0348399065901979,0.59237199222742
0.0243259863815083,0.584255645246125
0.013351820023709,0.576056469859241
0.00192328579283005,0.567794969770241
-0.00995275662622089,0.559491494443627
-0.0222684768236178,0.551166193222496
-0.0350150865077387,0.542838969965497
-0.0481828544799412,0.534529438304514
-0.0617611237087244,0.526256877622999
-0.0757383304663344,0.518040189853219
-0.0901020254862544,0.509897857188908
-0.104838897095528,0.501847900807673
-0.119934796271451,0.493907840695286
-0.135374763567864,0.486094656661508
-0.151143057852127,0.478424750634385
-0.167223186789794,0.470913910317131
-0.183597939010123,0.463577274288609
-0.200249417881787,0.456429298625223
-0.21715907682458,0.44948372511858
-0.234307756079456,0.44275355115974
-0.25167572085601,0.436251001357113
-0.269242700773412,0.429987500951175
-0.286987930507931,0.42397365108516
-0.304890191557481,0.41821920598672
-0.322927855031127,0.412733052111253
-0.341078925369216,0.407523189293229
-0.359321084897681,0.402596713947308
-0.377631739118239,0.397959804356497
-0.395988062634529,0.393617708079878
-0.414367045612844,0.389574731507713
-0.432745540674859,0.385834231586936
-0.451100310118868,0.38239860973513
-0.469408073365217,0.379269307956256
-0.487645554521183,0.376446807166418
-0.505789529960245,0.373930627733016
-0.523816875810648,0.371719332225697
-0.541704615248387,0.369810530372526
-0.559429965490131,0.368200886209915
-0.576970384382309,0.366886127409878
-0.594303616483428,0.365861056763345
-0.611407738537864,0.365119565793427
-0.628261204240682,0.364654650467754
-0.644842888194629,0.364458428974309
-0.66113212896224,0.36452216152056
-0.677108771118002,0.364836272111166
-0.692753206207744,0.365390372255093
-0.708046412524859,0.366173286548662
-0.722969993615579,0.36717308007685
-0.737506215428367,0.368377087571088
-0.751638042025496,0.369771944257859
-0.76534916977808,0.371343618328641
-0.778624059969218,0.373077444958059
-0.791447969733411,0.374958161793681
-0.803806981264168,0.376969945837583
-0.815688029225519,0.37909645163668
-0.827078926307193,0.381320850695882
-0.837968386867309,0.383625872025418
-0.848346048610724,0.385993843731099
-0.858202492255521,0.38840673555395
-0.867529259144617,0.390846202263536
-0.876318866764036,0.393293627807356
-0.884564822134046,0.395730170117001
-0.89226163304411,0.398136806470286
-0.899404817107384,0.400494379307305
-0.905990908615336,0.402783642397352
-0.912017463178005,0.404985307252832
-0.917483060140276,0.407080089685743
-0.922387302769557,0.409048756401969
-0.926730816215172,0.410872171528522
-0.93051524324474,0.412531342969034
-0.933743237767785,0.414007468483143
-0.936418456161705,0.415281981386031
-0.93854554642015,0.416336595765226
-0.940130135148682,0.41715335111282
-0.941178812437402,0.417714656272568
-0.941699114644916,0.418003332602841
-0.941699505132704,0.418002656258153
-0.941189352993459,0.417696399493937
-0.940178909821482,0.417068870901408
-0.938679284577523,0.416104954481746
-0.936702416604721,0.414790147471388
-0.934261046856409,0.413110596833025
-0.931368687400494,0.411053134329845
-0.928039589268992,0.408605310103727
-0.924288708724946,0.405755424681422
-0.920131672022469,0.402492559336255
-0.915584738739031,0.398806604736537
-0.910664763762231,0.394688287815712
-0.905389158016328,0.3901291968032
-0.899775848016561,0.385121804359007
-0.893843234341913,0.379659488759408
-0.88761014911936,0.37373655308533
-0.881095812614832,0.367348242369526
-0.874319789028096,0.360490758663186
-0.867301941590524,0.353161273987247
-0.860062387066254,0.345357941138408
-0.852621449758553,0.337079902324608
-0.844999615124293,0.328327295609585
-0.837217483100304,0.319101259151022
-0.829295721245978,0.309403933221673
-0.821255017806908,0.299238460007854
-0.813116034804506,0.288608981184588
-0.804899361256447,0.277520633271707
-0.7966254666325,0.265979540780103
-0.788314654649749,0.253992807162302
-0.779987017510439,0.241568503586395
-0.771662390684664,0.228715655557241
-0.763360308338912,0.215444227413631
-0.755099959509969,0.201765104734871
-0.746900145122062,0.187690074694884
-0.73877923594318,0.173231804406519
-0.730755131574413,0.158403817303232
-0.722845220563821,0.143220467609702
-0.715066341733833,0.127696912957175
-0.707434746808425,0.11184908520351
-0.699966064423427,0.0956936595218771
-0.692675265600195,0.0792480218259335
-0.685576630759606,0.062530234603016
-0.678683718349881,0.045559001230447
-0.672009335158099,0.0283536288534211
-0.665565508371537,0.0109339899061747
-0.659363459450994,-0.00667951763884643
-0.653413579874233,-0.0244660112062671
-0.647725408803476,-0.0424041656472906
-0.642307612726561,-0.060472256270794
-0.637167967116976,-0.0786482027811148
-0.632313340153428,-0.0969096140256147
-0.627749678535025,-0.115233833453291
-0.623481995423426,-0.133597985184116
-0.619514360538584,-0.151979020587427
-0.615849892429839,-0.170353765266519
-0.612490752939294,-0.18869896634573
-0.609438143869465,-0.206991339955572
-0.606692305862271,-0.225207618811065
-0.60425251949148,-0.243324599778176
-0.602117108565773,-0.26131919132331
-0.600283445634628,-0.279168460741051
-0.598747959684305,-0.296849681055827
-0.597506146006302,-0.31434037749391
-0.59655257821579,-0.331618373423094
-0.595880922392731,-0.348661835658604
-0.595483953313601,-0.365449319035163
-0.595353572736998,-0.381959810146781
-0.595480829701787,-0.398172770157708
-0.595855942791936,-0.414068176590018
-0.596468324317797,-0.429626563995575
-0.597306606359282,-0.444829063422648
-0.598358668612241,-0.459657440590061
-0.59961166797526,-0.474094132684687
-0.601052069810262,-0.488122283701149
-0.602665680806488,-0.501725778245801
-0.604437683373874,-0.514889273730536
-0.606352671488404,-0.527598230885487
-0.608394687908764,-0.539838942523478
-0.610547262680544,-0.551598560492945
-0.612793452841355,-0.562865120760091
-0.615115883237534,-0.573627566565186
-0.617496788360606,-0.583875769602227
-0.61991805510939,-0.593600549175568
-0.622361266381567,-0.602793689291615
-0.624807745396628,-0.611447953648297
-0.627238600650539,-0.619557098489703
-0.629634771400953,-0.627115883297998
-0.63197707358069,-0.634120079299582
-0.634246246036157,-0.640566475767293
-0.636422996986722,-0.646452884105368
-0.638488050600464,-0.651778139708814
-0.640422193581541,-0.656542101593789
-0.642206321664301,-0.660745649800553
-0.643821485909504,-0.664390680575508
-0.645248938698449,-0.667480099343778
-0.646470179321433,-0.670017811488716
-0.64746699905791,-0.67200871095958
-0.648221525646798,-0.673458666733472
-0.648716267046761,-0.674374507162386
-0.648934154387855,-0.674764002240941
-0.648858584017718,-0.674635843834975
-0.648473458547519,-0.673999623915724
-0.647763226805058,-0.672865810848743
-0.64671292260489,-0.671245723791055
-0.645308202247941,-0.669151505254198
-0.643535380665926,-0.666596091894955
-0.641381466128885,-0.663593183599451
-0.638834193437361,-0.660157210930117
-0.635882055524119,-0.656303301008658
-0.632514333393823,-0.652047241911614
-0.628721124332828,-0.647405445658434
-0.624493368325062,-0.642394909875085
-0.619822872613981,-0.637033178219169
-0.61470233435473,-0.631338299655263
-0.609125361304855,-0.625328786671735
-0.603086490506325,-0.61902357253267
-0.59658120491608,-0.612441967660623
-0.589605947946886,-0.605603615247879
-0.582158135884949,-0.598528446195596
-0.574236168155473,-0.59123663348167
-0.565839435412131,-0.583748546059446
-0.55696832543128,-0.576084702390408
-0.547624226796653,-0.568265723714782
-0.537809530365163,-0.560312287164574
-0.527527628509424,-0.552245078823859
-0.516782912137547,-0.544084746841287
-0.505580765495714,-0.535851854699589
-0.493927558763997,-0.527566834746526
-0.481830638460796,-0.519249942091131
-0.469298315676153,-0.51092120896822
-0.456339852159071,-0.502600399673134
-0.442965444288714,-0.49430696616735
-0.429186204964118,-0.486060004454094
-0.415014143451664,-0.477878211821366
-0.400462143234135,-0.469779845047795
-0.385543937909631,-0.461782679664636
-0.370274085192968,-0.453903970364778
-0.354667939076419,-0.446160412647111
-0.338741620210777,-0.438568105781792
-0.322511984571662,-0.431142517178997
-0.305996590479848,-0.423898448240587
-0.289213664048075,-0.416850001770816
-0.272182063130242,-0.410010551018659
-0.254921239852357,-0.403392710420749
-0.237451201807635,-0.397008308110028
-0.219792472001236,-0.390868360251317
-0.201966047632889,-0.384983047260887
-0.183993357808187,-0.379361691962878
-0.165896220271863,-0.374012739731126
-0.14769679725838,-0.368943740660431
-0.129417550557297,-0.364161333806844
-0.111081195892504,-0.359671233531826
-0.0927106567160439,-0.355478217980496
-0.074329017518492,-0.351586119719351
-0.055959476758979,-0.347997818554045
-0.0376252995187934,-0.344715236542895
-0.0193497699830941,-0.341739335216895
-0.00115614385570514,-0.339070115012073
0.0169323991879346,-0.336706616915041
0.0348928029046323,-0.3346469263177
0.0527021816394236,-0.332888179072023
0.0703378671294929,-0.331426569731005
0.0877774548526818,-0.330257361956914
0.104998849818182,-0.329374901073141
0.121980311698302,-0.328772628731159
0.13870049920163,-0.328443099659342
0.155138513589583,-0.328378000455763
0.171273941240307,-0.328568170382481
0.187086895165889,-0.329003624114369
0.202558055391328,-0.329673576391149
0.217668708106058,-0.330566468517032
0.232400783501736,-0.331669996648238
0.246736892212758,-0.332971141804643
0.260660360279208,-0.334456201537967
0.274155262555141,-0.33611082318518
0.287206454488615,-0.337920038632257
0.299799602203481,-0.33986830051005
0.311921210816727,-0.341939519740787
0.323558650929097,-0.344117104350741
0.334700183230787,-0.346383999461717
0.34533498116817,-0.348722728371398
0.355453151621881,-0.351115434630125
0.365045753550955,-0.353543925019463
0.374104814562286,-0.355989713335878
0.382623345369266,-0.358434064881017
0.390595352108158,-0.360858041558544
0.398015846485552,-0.363242547476049
0.404880853735049,-0.365568374949484
0.411187418366202,-0.367816250806595
0.416933607693676,-0.369966882885203
0.422118513139491,-0.372001006621696
0.426742249306209,-0.373899431624899
0.430805950823848,-0.375643088130517
0.434311766978296,-0.377213073231577
0.437262854133894,-0.378590696780818
0.4396633659678,-0.37975752686166
0.441518441538606,-0.380695434725365
0.442834191216467,-0.381386639093176
0.443617680506808,-0.381813749723618
0.443876911804329,-0.381959810146781
