0.924153160639512,-0.411230906969956
0.923372277201882,-0.410858928614801
0.921081628591376,-0.409647281922915
0.917371036488621,-0.407459563053693
0.912345171569572,-0.404170258545332
0.906122268158858,-0.399666306587391
0.898832674834451,-0.393848507375333
0.890617258580843,-0.386632765417838
0.881625681865539,-0.377951148707524
0.872014573556038,-0.367752751888628
0.861945615882965,-0.356004352934432
0.851583570673945,-0.342690855353631
0.841094268819836,-0.327815510548198
0.830642587381102,-0.311399917613943
0.820390438891963,-0.293483800576432
0.810494797271762,-0.274124565756553
0.80110578430847,-0.2533966446289
0.792364839943815,-0.231390630139948
0.784402998572153,-0.208212216960055
0.777339292278159,-0.183980958523315
0.771279300397404,-0.158828855933178
0.766313863007567,-0.132898795852662
0.76251797396797,-0.106342856331092
0.759949866945504,-0.0793205011223264
0.758650305522257,-0.051996684403032
0.758642086002727,-0.0245398888871073
0.759929758956441,0.00287987885911265
0.762499572876537,0.0300931115767582
0.766319640638451,0.0569328184010545
0.771340326738286,0.0832365114000145
0.777494850610233,0.108848137461361
0.784700098699405,0.133619932087221
0.792857635432268,0.157414172604081
0.801854900812322,0.180104809516431
0.811566580103178,0.201578956211703
0.821856128972109,0.221738218943515
0.832577435579885,0.240499850959008
0.84357659944026,0.257797716770731
0.854693805454821,0.273583054878056
0.865765270373538,0.287825029689681
0.876625238051962,0.300511065957516
0.88710799928361,0.311646961672289
0.897049911687558,0.321256778060307
0.906291395130476,0.329382508026504
0.914678878459132,0.336083527078217
0.922066673910287,0.341435833404474
0.928318756442639,0.345531086344939
0.933310426389428,0.348475454929852
0.936929835246517,0.350388290477784
0.939079356071934,0.351400639373626
0.939676781858942,0.351653614089248
0.938656337332691,0.351296642229881
0.935969491885186,0.35048561486988
0.931585563777019,0.349380956663936
0.925492108267943,0.348145641169291
0.917695084961014,0.346943175479515
0.908218802324927,0.345935578642859
0.897105640063791,0.345281378413575
0.884415552700084,0.345133650662006
0.870225360392124,0.345638125251322
0.854627835589993,0.34693138138195
0.837730596611903,0.349139154318595
0.819654821566622,0.35237477406268
0.800533798228144,0.356737754931303
0.780511327460038,0.362312553171929
0.759739999564411,0.369167507702217
0.738379364472866,0.377353976841427
0.716594017985287,0.386905681520682
0.694551627281224,0.397838262952876
0.672420919665682,0.410149060139737
0.650369658957253,0.423817109924862
0.628562634076433,0.438803369600106
0.60715968424372,0.455051159371061
0.586313784752596,0.472486819318514
0.566169216547072,0.491020572888954
0.546859841816059,0.510547586440119
0.528507506529844,0.530949211987632
0.511220589302899,0.552094398074857
0.495092714190943,0.573841251647193
0.480201643040129,0.596038731978959
0.466608360826582,0.618528456097923
0.454356365081774,0.641146593799037
0.443471168021791,0.663725829251289
0.433960017416481,0.686097365393144
0.425811839579196,0.708092946792525
0.418997405161461,0.729546876423018
0.413469715732275,0.750298001881732
0.409164606441612,0.770191646945042
0.406001557444634,0.789081465021852
0.403884704228939,0.806831192011948
0.402704034572697,0.823316277297957
0.402336757595943,0.838425373078598
0.402648828278275,0.852061663970349
0.403496608928939,0.864144020743388
0.404728647432776,0.874607964192371
0.406187550677956,0.883406427447145
0.407711930415928,0.890510307475016
0.409138397924729,0.895908799085014
0.410303583254308,0.899609507384568
0.411046154534045,0.901638337328153
0.411208812821846,0.902039161703143
0.410640238270966,0.900873271587421
0.409196963981646,0.898218615953665
0.406745154782336,0.89416883965454
0.403162269339276,0.888832131470297
0.398338585409365,0.88232989620567
0.392178569712449,0.874795266958668
0.384602075785216,0.866371475623773
0.375545355266891,0.857210101412772
0.364961870331582,0.847469218656971
0.352822897395854,0.837311466377022
0.339117914763735,0.826902063056035
0.323854769493994,0.816406790716668
0.307059621454435,0.805989972775365
0.288776665232581,0.79581247022225
0.269067633268578,0.786029720452635
0.248011086231795,0.776789842558168
0.225701499245148,0.768231832078788
0.202248155039248,0.760483867130568
0.177773857462094,0.753661746472387
0.152413480950607,0.747867478472703
0.126312373561527,0.743188038105787
0.0996246329367138,0.739694307066971
0.0725112761203255,0.737440209873518
0.0451383254337962,0.736462056438527
0.0176748336334851,0.736778099098856
-0.00970912768712265,0.738388309474683
-0.0368444920426294,0.741274377869729
-0.0635652097904387,0.745399935219656
-0.0897102232452802,0.750710994894555
-0.115125381208372,0.757136608992577
-0.139665269681476,0.764589731157918
-0.163194936553484,0.772968275449364
-0.185591489334223,0.782156358405562
-0.20674554655115,0.79202570922935
-0.22656252520097,0.802437230972527
-0.244963748638251,0.813242693769366
-0.261887361462724,0.82428653956414
-0.27728904030975,0.835407776424337
-0.291142491925843,0.846441939443711
-0.303439732493194,0.857223094430761
-0.314191144822451,0.867585860058796
-0.323425312729369,0.877367423929446
-0.331188634615583,0.886409528075201
-0.337544720953896,0.894560399797418
-0.342573583001545,0.901676604399589
-0.346370622599057,0.907624797323615
-0.349045435326856,0.912283354417801
-0.350720441557276,0.915543860544422
-0.351529362028744,0.917312438454164
-0.351615556456106,0.917510901793488
-0.351130245353614,0.916077718245657
-0.350230636664618,0.912968771110691
-0.349077979947537,0.908157910076079
-0.34783557174694,0.901637284488847
-0.346666736371079,0.89341745507958
-0.345732806595686,0.883527282778162
-0.34519112881466,0.87201359596662
-0.34519311686147,0.858940640203827
-0.345882378134217,0.844389317097156
-0.347392934779567,0.8284562215555
-0.34984756153681,0.811252489105329
-0.353356260427106,0.792902467256878
-0.358014890811827,0.773542227043224
-0.363903971457798,0.753317932794959
-0.37108766915928,0.732384089933847
-0.379612986201866,0.710901692049424
-0.389509156539735,0.689036289744929
-0.40078725802408,0.666956004688407
-0.41344004539793,0.644829512969903
-0.427442006092615,0.622824022238039
-0.442749638156573,0.601103267164698
-0.459301946950692,0.579825547563937
-0.477021154588752,0.559141832973326
-0.495813613518996,0.539193956699079
-0.515570913164761,0.520112921240191
-0.53617116619852,0.502017335654755
-0.557480458843068,0.485012003829846
-0.579354447602414,0.46918668078454
-0.601640083047375,0.454615012095793
-0.624177439738462,0.441353669313933
-0.646801630080222,0.429441691855382
-0.669344778882201,0.418900043353726
-0.691638034664745,0.409731387846958
-0.713513593301649,0.401920088510043
-0.734806709441845,0.395432428940519
-0.755357671300499,0.390217054303201
-0.775013714854418,0.386205626971185
-0.793630854212129,0.383313688696569
-0.811075605946337,0.381441718837201
-0.827226586463524,0.380476375785839
-0.841975963026486,0.380291906524158
-0.855230740821907,0.380751707183181
-0.866913870455139,0.381710015658582
-0.87696516243399,0.383013715726257
-0.885341997546095,0.384504230750051
-0.892019824511846,0.386019483985859
-0.89699243887696,0.38739590167792
-0.90027203976402,0.38847043462355
-0.901889063798732,0.389082573658346
-0.901891798231245,0.389076334587593
-0.900345777953063,0.388302188460428
-0.897332973733096,0.386618913746721
-0.892950781530622,0.383895347924545
-0.887310825157392,0.38001201720708
-0.880537586826707,0.374862624616951
-0.872766882216313,0.368355378335414
-0.864144198559242,0.360414144192599
-0.854822915939227,0.350979408299643
-0.844962433384881,0.34000903812813
-0.83472622251234,0.327478832788783
-0.824279832345323,0.313382855820123
-0.813788869534125,0.29773354643783
-0.803416978493441,0.280561607884663
-0.793323845979835,0.261915674226458
-0.783663254332793,0.241861759629077
-0.77458120701246,0.220482496791488
-0.766214149189414,0.197876173769521
-0.758687304987876,0.174155580872073
-0.75211315156758,0.149446681616953
-0.746590048568339,0.123887123869233
-0.742201039555293,0.0976246092249025
-0.7390128400148,0.0708151404233329
-0.737075024186331,0.043621168052582
-0.736419420601942,0.0162096590340176
-0.737059723671326,-0.0112498896777725
-0.738991326027785,-0.0385874680788329
-0.742191373670578,-0.0656345763100355
-0.746619043234473,-0.0922262295128266
-0.752216038020868,-0.11820292002033
-0.758907296769217,-0.143412513075521
-0.766601906564948,-0.167712053075042
-0.775194208801984,-0.190969458423358
-0.784565084774362,-0.213065084434039
-0.794583405290879,-0.233893135316672
-0.80510762671548,-0.253362908119814
-0.815987514058558,-0.271399853540175
-0.827065970201941,-0.287946440731223
-0.838180949051881,-0.302962815623546
-0.849167429395401,-0.316427244775794
-0.859859425498382,-0.328336339378332
-0.870092010037594,-0.338705056700389
-0.879703324809004,-0.347566478972978
-0.888536554802939,-0.354971372401448
-0.896441841681174,-0.360987531670443
-0.903278113426477,-0.365698917907812
-0.908914807952501,-0.369204600581141
-0.91323346974897,-0.371617516180471
-0.916129200178134,-0.373063058764742
-0.917511943814758,-0.373677519490382
-0.917307595212011,-0.373606394073549
-0.915458912655246,-0.373002578740609
-0.911926227808382,-0.372024476574971
-0.906687942635115,-0.370834037256018
-0.899740807559143,-0.369594753994324
-0.891099977482989,-0.368469641986891
-0.880798844981295,-0.36761922294038
-0.868888652689151,-0.367199540136594
-0.855437889586147,-0.367360228143661
-0.840531478499892,-0.368242660612962
-0.824269764686939,-0.369978198653941
-0.806767317763549,-0.372686561057955
-0.788151561524283,-0.376474336163183
-0.768561248275464,-0.381433653433185
-0.748144796197817,-0.387641030882943
-0.727058509915077,-0.395156412351533
-0.705464705862972,-0.404022406316075
-0.683529765208416,-0.414263735495019
-0.661422137948088,-0.425886903930081
-0.639310322408052,-0.438880085596143
-0.61736084466453,-0.453213235899278
-0.595736262406791,-0.468838424717416
-0.574593217466291,-0.485690386948848
-0.554080560645331,-0.503687283893393
-0.534337571600769,-0.522731666231743
-0.515492295384351,-0.542711626921288
-0.497660015825065,-0.563502130021238
-0.480941884277731,-0.584966499324257
-0.465423720375974,-0.60695804873186
-0.451174999339728,-0.629321834590141
-0.438248038122789,-0.651896508721838
-0.426677390272169,-0.674516249668338
-0.41647945683741,-0.697012748705732
-0.407652318045391,-0.719217226534009
-0.400175787776221,-0.740962456166071
-0.394011690171223,-0.762084767467846
-0.389104355007549,-0.782426009023371
-0.38538132581831,-0.801835443516654
-0.382754272154574,-0.820171553628958
-0.381120094907501,-0.837303736536306
-0.38036221126528,-0.853113866444058
-0.380352003698939,-0.867497706197189
-0.380950415379907,-0.880366150836738
-0.382009672654652,-0.891646288012728
-0.383375113659324,-0.901282262386853
-0.384887100868863,-0.909235933537362
-0.386382994356089,-0.915487319385055
-0.38769916179929,-0.92003481976265
-0.388673000830671,-0.922895217418397
-0.389144949168138,-0.924103456446325
-0.388960458121127,-0.923712200837101
-0.387971905505712,-0.921791178512391
-0.386040424739638,-0.918426318809381
-0.383037627905328,-0.913718693889239
-0.378847201855931,-0.907783276923224
-0.373366357980529,-0.900747532134087
-0.366507118020892,-0.892749853811312
-0.358197420322296,-0.883937873251837
-0.34838203308048,-0.874466654180967
-0.337023263489639,-0.864496798561729
-0.324101454173747,-0.854192485788533
-0.309615260865555,-0.843719469069484
-0.293581707952948,-0.833243053321202
-0.27603602120865,-0.822926079124256
-0.257031239723979,-0.812926937213635
-0.236637611747415,-0.803397637607822
-0.214941781751879,-0.794481956816676
-0.192045778588724,-0.786313685620393
-0.168065817001023,-0.779014998690869
-0.143130927034203,-0.772694965847608
-0.117381427971208,-0.767448223020947
-0.090967265306568,-0.763353819056554
-0.0640462309362727,-0.76047425236053
-0.0367820881579513,-0.758854709079884
-0.00934262423128227,-0.758522512066633
0.0181023458720992,-0.759486787314973
0.0453830003074622,-0.761738351921002
0.0723315312644041,-0.765249824925322
0.09878414142179,-0.7699759596932
0.124582991726019,-0.775854193797632
0.149578076859239,-0.782805409730319
0.173629005641926,-0.790734897206236
0.196606664768183,-0.799533505380244
0.218394745688276,-0.809078970988745
0.238891116114156,-0.819237406293774
0.258009019509732,-0.829864928766928
0.275678088015686,-0.840809412729878
0.291845156523276,-0.851912341687656
0.306474868025306,-0.863010738868481
0.319550062906034,-0.873939152534397
0.331071947454488,-0.884531671962023
0.341060039565485,-0.894623949620231
0.349551892297355,-0.904055204996232
0.356602598651759,-0.91267018574411
0.362284083596698,-0.920321062347786
0.366684191936314,-0.92686923329726
0.369905583109177,-0.932187018863056
0.372064446340378,-0.936159222905965
0.37328905175332,-0.938684543760835
0.373718155038296,-0.9396768170651
0.373499275052535,-0.939066075442515
0.372786865268732,-0.936799412175561
0.371740401277622,-0.932841638379156
0.370522407569045,-0.927175725694745
0.369296447552977,-0.919803029127224
0.368225101228178,-0.910743287315751
0.367467955055951,-0.900034400231008
0.367179628448317,-0.887731986993086
0.367507860835368,-0.873908729173046
0.368591682541163,-0.858653507545025
0.37055969168012,-0.842070342762804
0.373528457998834,-0.824277152814789
0.377601073047257,-0.805404342335155
0.382865864286805,-0.785593240889961
0.389395288752958,-0.764994409189996
0.397245019710256,-0.743765833785264
0.406453237394833,-0.722071032149575
0.41704013246223,-0.700077091151219
0.429007628176151,-0.677952662714321
0.442339324718539,-0.655865940994834
0.457000666304982,-0.633982645619545
0.472939329084833,-0.612464035462593
0.490085825125268,-0.591464977063343
0.508354315155483,-0.571132091125912
0.52764362021302,-0.551601999592852
0.54783841991974,-0.532999694564462
0.568810622849402,-0.515437048856043
0.590420892359755,-0.499011486266062
0.6125203093748,-0.483804827689327
0.634952151940382,-0.469882327074694
0.657553769958707,-0.457291908922249
0.680158532351873,-0.446063616568364
0.70259782302528,-0.436209277948255
0.72470306140918,-0.427722392885709
0.746307723058314,-0.420578243270429
0.767249335788607,-0.414734224777885
0.787371427126825,-0.410130396097155
0.806525399439934,-0.406690238991933
0.824572309988592,-0.40432161996055
0.841384534303287,-0.402917941813607
0.856847292697672,-0.402359471182402
0.87086002139498,-0.402514825835665
0.883337571629332,-0.403242603742191
0.894211222171885,-0.404393134096258
0.903429492996304,-0.40581032904217
0.91095875021188,-0.407333613611842
0.916783594926154,-0.408799910439861
0.92090703132161,-0.410045655155445
0.923350411910879,-0.4109088179783
0.924153160639512,-0.411230906969956
