-0.490771349862259,-0.313733511722821
-0.490678558464372,-0.313712890057871
-0.49039724652947,-0.31366261749629
-0.489923051590948,-0.313600052644237
-0.48925167881421,-0.313542479657427
-0.488378911907514,-0.31350706542203
-0.487300623947181,-0.313510817023564
-0.486012788092672,-0.31357053959973
-0.484511488167231,-0.313702794672272
-0.482792929080111,-0.313923859051891
-0.480853447066689,-0.314249684408913
-0.478689519723203,-0.314695857600974
-0.476297775813233,-0.315277561847227
-0.473675004823583,-0.316009538836734
-0.470818166247725,-0.316906051856573
-0.467724398575569,-0.317980850022936
-0.464391027968952,-0.319247133695991
-0.460815576602914,-0.32071752115667
-0.45699577065357,-0.322404016620688
-0.452929547914137,-0.324317979662109
-0.448615065021489,-0.326470096115648
-0.444050704276474,-0.328870350523548
-0.439235080042088,-0.331528000189438
-0.434167044704556,-0.334451550897988
-0.428845694183289,-0.337648734355416
-0.423270372976705,-0.341126487402107
-0.417440678731891,-0.344890933044566
-0.411356466327152,-0.348947363349929
-0.405017851457539,-0.353300224242037
-0.398425213714548,-0.357953102233842
-0.391579199152292,-0.36290871312659
-0.384480722333569,-0.368168892701799
-0.377130967850407,-0.373734589427629
-0.36953139131479,-0.379605859196687
-0.361683719816479,-0.385781862107806
-0.353589951845959,-0.392260861299751
-0.345252356681776,-0.399040223840183
-0.336673473242652,-0.406116423668665
-0.327856108405987,-0.413485046587859
-0.318803334795499,-0.421140797292486
-0.309518488041945,-0.429077508421068
-0.300005163522007,-0.437288151610948
-0.290267212581583,-0.445764850532574
-0.280308738250867,-0.454498895874631
-0.270134090459691,-0.463480762247225
-0.259747860762748,-0.472700126966028
-0.249154876585344,-0.482145890676073
-0.238360195001415,-0.491806199769793
-0.227369096056571,-0.501668470549852
-0.216187075649907,-0.51171941508342
-0.204819837989321,-0.521945068690751
-0.193273287636008,-0.532330819007276
-0.181553521154672,-0.542861436554858
-0.169666818386933,-0.553521106754518
-0.157619633366148,-0.564293463309683
-0.145418584892728,-0.575161622885928
-0.133070446789739,-0.586108221010294
-0.120582137859272,-0.59711544911052
-0.107960711560751,-0.608165092611941
-0.0952133454329414,-0.619238570007484
-0.0823473302819669,-0.63031697281394
-0.0693700591581908,-0.641381106325749
-0.0562890161452425,-0.652411531075705
-0.0431117649849022,-0.663388604910414
-0.0298459375619032,-0.674292525586928
-0.0164992222730179,-0.685103373795833
-0.00307935230504058,-0.695801156515051
0.010405906153523,-0.706365850597917
0.0239487657421103,-0.71677744649849
0.0375414297740701,-0.7270159920368
0.0511761040738795,-0.737061636106568
0.064845008780579,-0.746894672228087
0.0785403900924688,-0.756495581849249
0.0922545319282563,-0.765845077298283
0.105979767480029,-0.774924144292489
0.119708490633682,-0.783714083908263
0.133433167232723,-0.792196553918859
0.14714634616174,-0.800353609407758
0.160840670226217,-0.808167742567084
0.174508886805849,-0.815621921592336
0.188143858259015,-0.822699628586675
0.201738572056616,-0.829384896390225
0.215286150624116,-0.8356623442522
0.228779860871251,-0.841517212266263
0.242213123389593,-0.846935394492242
0.255579521298893,-0.851903470690244
0.268872808723891,-0.8564087365963
0.282086918884153,-0.860439232671909
0.295215971780314,-0.863983771263202
0.308254281461036,-0.867031962109047
0.321196362855914,-0.869574236140999
0.334036938160535,-0.871601867521874
0.346770942760896,-0.873106993873566
0.359393530685406,-0.874082634648813
0.371900079573774,-0.87452270760569
0.384286195153117,-0.874422043347855
0.396547715212776,-0.873776397897864
0.4086807130704,-0.872582463275236
0.42068150052301,-0.870837876055395
0.432546630277899,-0.868541223890096
0.44427289785939,-0.865692049974471
0.455857342988618,-0.862290855450419
0.467297250434695,-0.858339099740604
0.478590150336795,-0.853839198811988
0.48973381799784,-0.848794521372372
0.500726273151689,-0.843209383008056
0.511565778706863,-0.837089038275273
0.522250838971025,-0.830439670762629
0.532780197361567,-0.82326838114628
0.543152833608826,-0.815583173264028
0.553367960459538,-0.80739293823895
0.563425019889283,-0.798707436687488
0.573323678833741,-0.789537279051188
0.583063824449655,-0.779893904095457
0.592645558917429,-0.769789555622779
0.602069193798311,-0.759237257451796
0.61133524396011,-0.748250786717502
0.620444421086307,-0.736844645551567
0.629397626784392,-0.725034031205361
0.638195945310116,-0.712834804681739
0.646840635925181,-0.700263457944949
0.655333124906746,-0.687337079781186
0.663674997227833,-0.674073320385311
0.671867987928494,-0.660490354752085
0.679913973198242,-0.646606844952904
0.687814961190907,-0.63244190138153
0.695573082593638,-0.61801504305456
0.70319058097234,-0.603346157054497
0.710669802916285,-0.588455457205171
0.718013188005112,-0.573363442070977
0.725223258621774,-0.558090852372868
0.732302609635348,-0.542658627915343
0.739253897977896,-0.52708786411976
0.746079832139777,-0.511399768260142
0.752783161607986,-0.495615615498314
0.759366666272214,-0.479756704815653
0.76583314582336,-0.463844314938921
0.772185409169263,-0.447899660357694
0.778426263892325,-0.431943847530639
0.784558505773623,-0.415997831377495
0.790584908407923,-0.400082372152954
0.796508212933806,-0.384217992797758
0.802331117902823,-0.368424936861282
0.808056269311287,-0.352723127088566
0.813686250817923,-0.337132124763266
0.819223574170166,-0.321671089896321
0.824670669861407,-0.306358742348201
0.83002987804098,-0.291213323970538
0.835303439698055,-0.276252561850638
0.840493488140027,-0.261493632739921
0.845602040785274,-0.246953128744667
0.850630991289454,-0.232647024354625
0.855582102023752,-0.218590644882073
0.860456996922672,-0.204798636380708
0.865257154718136,-0.191284937110499
0.869983902575768,-0.178062750611133
0.874638410148315,-0.165144520443098
0.879221684060221,-0.152541906651744
0.883734562836382,-0.140265764005757
0.888177712287097,-0.128326122057588
0.892551621360187,-0.116732167069236
0.89685659847021,-0.105492225842668
0.901092768313593,-0.094613751489872
0.905260069177411,-0.0841033111732217
0.909358250748417,-0.0739665758424269
0.91338687242778,-0.0642083119898765
0.917345302155869,-0.0548323754416797
0.921232715750218,-0.0458417071971664
0.925048096758671,-0.0372383313250203
0.928790236828538,-0.0290233549196419
0.932457736591388,-0.0211969701167257
0.936049007061979,-0.0137584581624396
0.939562271548604,-0.00670619552601699
0.942995568071019,-3.76620409986428e-05
0.946346752280928,0.00625054894416016
0.949613500878871,0.0121627184298899
0.952793315520239,0.0177039876719189
0.955883527201999,0.0228803421628749
0.958881301120659,0.0276985937259407
0.961783641990882,0.0321663607616559
0.964587399813146,0.0362920466930632
0.967289276077801,0.0400848166584325
0.969885830391887,0.0435545725046969
0.972373487514104,0.0467119261385298
0.974748544782397,0.0495681712956576
0.977007179917722,0.05213525379253
0.979145459186689,0.0544257403278553
0.981159345904959,0.0564527859047435
0.983044709262488,0.058230099947276
0.984797333450983,0.0597719111882324
0.9864129270732,0.0610929314074448
0.987887132813113,0.0622083181028114
0.989215537345339,0.063133636178383
0.990393681461661,0.0638848187361226
0.991417070391995,0.0644781270599382
0.992281184296663,0.0649301098823875
0.992981488906453,0.0652575620260467
0.99351344628659,0.0654774825129332
0.993872525700437,0.0656070322365488
0.994054214548491,0.0656634912920842
0.994054029358073,0.0656642160610839
0.993867526798964,0.0656265961474128
0.993490314700136,0.0655680112616905
0.992918063042741,0.0655057881514729
0.992146514904532,0.0654571576743485
0.991171497330958,0.0654392121107937
0.989988932108363,0.0654688628130909
0.988594846414858,0.0655627982858536
0.986985383324746,0.065737442792737
0.985156812142624,0.0660089155827273
0.983105538543693,0.0663929908280148
0.980828114497194,0.0669050583638612
0.978321247950358,0.0675600853190721
0.975581812250756,0.068372578723691
0.972606855285526,0.0693565491783437
0.969393608316534,0.0705254756672809
0.965939494491205,0.0718922715946091
0.962242137009452,0.0734692521204605
0.958299366927874,0.0752681028709407
0.954109230583206,0.0772998500926206
0.94966999661779,0.0795748323191032
0.944980162590755,0.0821026736138158
0.940038461159455,0.0848922584496434
0.93484386581668,0.0879517082823648
0.929395596170104,0.0912883598710565
0.923693122751474,0.0949087453947225
0.917736171344011,0.0988185744103875
0.911524726817623,0.103022717693774
0.905059036462549,0.107525192999467
0.898339612813189,0.112329152773176
0.89136723595497,0.117436873844339
0.884142955308264,0.122849749122881
0.876668090884485,0.128568281319451
0.868944234010673,0.134592078703934
0.860973247520057,0.140919852912488
0.852757265407209,0.147549418808743
0.844298691947651,0.154477696400235
0.835600200282887,0.161700714806516
0.826664730473061,0.169213618270831
0.817495487020567,0.177010674202619
0.808095935869149,0.185085283233615
0.798469800884134,0.193429991265785
0.788621059820629,0.202036503484853
0.778553939787599,0.210895700308842
0.768272912216883,0.219997655236625
0.757782687347283,0.229331654557327
0.747088208234914,0.238886218877174
0.736194644302078,0.248649126416349
0.725107384437915,0.258607438024457
0.713832029665062,0.268747523859327
0.702374385387542,0.279055091670169
0.690740453235999,0.289515216622506
0.678936422527269,0.30011237259883
0.66696866135616,0.310830464905661
0.654843707338097,0.321652864314471
0.64256825802206,0.332562442361012
0.630149160993961,0.34354160782471
0.617593403691306,0.354572344307159
0.604908102950593,0.365636248826293
0.5921004943095,0.376714571340487
0.579177921086453,0.387788255114811
0.566147823260638,0.398837977839692
0.553017726175973,0.409844193410618
0.539795229092922,0.420787174275951
0.526487993612374,0.431647054258701
0.513103731996091,0.442403871756987
0.499650195408433,0.453037613227073
0.486135162104247,0.463528256852211
0.472566425587926,0.473855816300103
0.458951782768685,0.484000384471558
0.445299022137106,0.493942177142946
0.431615911987965,0.503661576405246
0.417910188714213,0.513139173802943
0.404189545196858,0.522355813076674
0.390461619315236,0.531292632414373
0.3767339826019,0.539931106116775
0.363014129066049,0.548253085584411
0.349309464208998,0.556240839534704
0.335627294254785,0.563877093359518
0.321974815618521,0.57114506753538
0.308359104634549,0.578028515000695
0.294787107565894,0.58451175741658
0.281265630915865,0.590579720230388
0.267801332061991,0.59621796646368
0.254400710231726,0.601412729149184
0.241070097838642,0.606150942344354
0.227815652196967,0.610420270652192
0.214643347631535,0.614209137183428
0.201558967999272,0.617506749897517
0.188568099637483,0.620303126263557
0.17567612475321,0.622589116185977
0.16288821526695,0.624356423143641
0.150209327123044,0.625597623495059
0.137644195077958,0.626306183906399
0.12519732797665,0.626476476863214
0.112873004526107,0.626103794231039
0.10067526957404,0.62518435883434
0.088607930899594,0.623715334027728
0.0766745565217958,0.621694831237779
0.0648784725302977,0.619121915458348
0.0532227614418307,0.615996608686785
0.0417102610845956,0.61231989129305
0.0303435640116551,0.608093701318339
0.0191250174432089,0.603320931704391
0.0080567237364631,0.598005425459288
-0.0028594586193727,0.592151968770134
-0.0136219134865862,0.585766282077562
-0.0242292650457588,0.578855009131538
-0.0346803752517803,0.571425704052451
-0.0449743407861602,0.563486816425878
-0.0551104895138187,0.555047674463807
-0.0650883764536408,0.54611846626939
-0.0749077792731563,0.536710219246515
-0.0845686933187664,0.526834777699609
-0.094071326193955,0.51650477867312
-0.103416091898935,0.505733626084008
-0.112603604546138,0.494535463204406
-0.121634671666918,0.482925143555245
-0.130510287125694,0.470918200275195
-0.13923162365868,0.458530814032639
-0.147800025055146,0.445779779551649
-0.156216997999931,0.432682470825999
-0.164484203596711,0.419256805098179
-0.172603448592191,0.405521205683099
-0.180576676322068,0.391494563718734
-0.188405957400206,0.377196198928378
-0.196093480173042,0.362645819481296
-0.203641540961739,0.347863481040651
-0.211052534115061,0.332869545089301
-0.218328941896385,0.317684636625704
-0.225473324228563,0.302329601323563
-0.232488308320731,0.286825462249999
-0.239376578201324,0.271193376238044
-0.246140864181821,0.255454590009976
-0.252783932275861,0.239630396148582
-0.259308573598429,0.223742089013761
-0.265717593769886,0.207810920701978
-0.272013802349569,0.191858057145975
-0.278200002323592,0.175904534451834
-0.284278979671369,0.159971215569934
-0.290253493035178,0.144078747395579
-0.296126263516822,0.128247518394142
-0.301899964625184,0.112497616844329
-0.307577212398065,0.0968487897918457
-0.313160555721338,0.0813204028040964
-0.318652466867971,0.0659314006147741
-0.324055332278946,0.0507002687452283
-0.329371443607598,0.0356449961872335
-0.33460298904822,0.0207830392295131
-0.339752044969199,0.00613128650768949
-0.34482056787019,-0.00829397464528397
-0.349810386682141,-0.0224770904741776
-0.35472319542816,-0.0364030716309794
-0.359560546262423,-0.0500576224910726
-0.364323842903438,-0.0634271688916975
-0.369014334477079,-0.0764988842318338
-0.373633109783904,-0.0892607138763121
-0.378181092004246,-0.10170139781073
-0.382659033853632,-0.113810491497688
-0.387067513200005,-0.12557838488885
-0.391406929153229,-0.136996319551497
-0.39567749863622,-0.148056403872381
-0.399879253446009,-0.158751626306093
-0.404012037811886,-0.169075866639398
-0.408075506456681,-0.179023905247545
-0.412069123166052,-0.188591430322948
-0.415992159869539,-0.197775043061225
-0.419843696235942,-0.206572260794124
-0.423622619784445,-0.214981518063422
-0.427327626511704,-0.223002165634557
-0.430957222033978,-0.23063446745325
-0.43450972324217,-0.237879595553066
-0.437983260466523,-0.244739622926361
-0.441375780146523,-0.251217514375672
-0.444685048000428,-0.257317115367062
-0.447908652687696,-0.263043138911423
-0.451044009956478,-0.268401150504144
-0.454088367267217,-0.273397551157863
-0.45703880888232,-0.278039558567301
-0.459892261410817,-0.282335186449333
-0.462645499795863,-0.286293222105522
-0.465295153731935,-0.289923202258313
-0.467837714497622,-0.293235387215949
-0.470269542188888,-0.29624073342486
-0.47258687333687,-0.298950864471931
-0.474785828893289,-0.301378040602455
-0.476862422565786,-0.303535126822938
-0.47881256948466,-0.305435559661037
-0.480632095181711,-0.307093312657946
-0.482316744861201,-0.308522860671338
-0.48386219294226,-0.309739143069638
-0.48526405285141,-0.310757525900886
-0.486517887043347,-0.311593763121698
-0.487619217227546,-0.312263956973979
-0.488563534777798,-0.31278451759888
-0.489346311301344,-0.313172121979247
-0.489963009343891,-0.313443672303264
-0.49040909320649,-0.313616253843299
-0.490680039849947,-0.313707092445034
-0.490771349862259,-0.313733511722821
