0.891036628915417,0.0246135082296555
0.890956548576559,0.0246581482468272
0.890721623990343,0.0248023045182943
0.890339842345459,0.0250612814208703
0.889819191822563,0.0254502863227352
0.88916764199991,0.02598439173553
0.888393124381961,0.0266784977288629
0.887503513094812,0.0275472946920734
0.886506605791921,0.0286052265273382
0.885410104813136,0.0298664543572476
0.884221598639398,0.0313448208288426
0.882948543684854,0.0330538150947793
0.881598246467322,0.0350065385507874
0.880177846197184,0.0372156714069066
0.878694297823836,0.0396934401681337
0.877154355577779,0.0424515860980932
0.875564557045303,0.0455013347371541
0.873931207811521,0.0488533665440729
0.872260366706202,0.0525177887277408
0.870557831685495,0.0565041083329669
0.868829126381204,0.0608212066414314
0.867079487347752,0.0654773149460202
0.865313852035383,0.0704799917536904
0.863536847516551,0.0758361014688348
0.861752779990689,0.0815517946058137
0.859965625090836,0.0876324895759166
0.858179019013759,0.0940828560905085
0.856396250493382,0.10090680021851
0.854620253635384,0.108107451132678
0.852853601628939,0.115687149575384
0.851098501349541,0.123647438070757
0.849356788864895,0.131989052906164
0.847629925853773,0.140711917902058
0.845918996945717,0.149815139985221
0.844224707987363,0.159297006576441
0.84254738523909,0.169154984799571
0.840886975503596,0.179385722514894
0.839243047185897,0.189985051175634
0.837614792282158,0.200947990502365
0.836001029292655,0.212268754966067
0.834400207052098,0.223940762066487
0.832810409468469,0.235956642388483
0.831229361159492,0.248308251415075
0.829654433973809,0.260986683071978
0.828082654381956,0.273982284974542
0.826510711720277,0.287284675344233
0.82493496726897,0.300882761558049
0.823351464143593,0.314764760290619
0.821755937977524,0.328918219205197
0.820143828371074,0.343330040146274
0.818510291081219,0.357986503783213
0.81685021092427,0.372873295651037
0.815158215362151,0.387975533531413
0.813428688741448,0.403277796113846
0.811655787152878,0.418764152874282
0.809833453877464,0.434418195105545
0.807955435384341,0.450223068031504
0.806015297843877,0.46616150393443
0.80400644411864,0.482215856222712
0.801922131193628,0.498368134364056
0.799755488006218,0.514600039607277
0.797499533635327,0.530893001414111
0.795147195808526,0.547228214520816
0.792691329685054,0.563586676547962
0.790124736872089,0.579949226075564
0.787440184631081,0.596296581099672
0.784630425230506,0.612609377785666
0.781688215401067,0.628868209432852
0.778606335849106,0.645053665564456
0.775377610783866,0.661146371056845
0.771994927414169,0.677127025221692
0.768451255370155,0.69297644075491
0.76473966600586,0.708675582466467
0.760853351538646,0.724205605705675
0.756785643981905,0.739547894397207
0.752530033827814,0.754684098603974
0.748080188437547,0.76959617153403
0.743429970096931,0.784266405909891
0.738573453696288,0.798677469620103
0.733504943994026,0.812812440574444
0.72821899242445,0.826654840685945
0.72271041341128,0.84018866890483
0.716974300149431,0.853398433231599
0.711006039818813,0.866269181638724
0.704801328195127,0.878786531832878
0.698356183623995,0.890936699792163
0.69166696032616,0.902706527015558
0.68473036100296,0.914083506424639
0.677543448712853,0.925055806860636
0.670103657991362,0.935612296123019
0.662408805188495,0.94574256249902
0.654457097999437,0.955436934736891
0.646247144166086,0.96468650041913
0.637777959328846,0.97348312269546
0.629048974009994,0.981819455339035
0.620060039711833,0.989688956093008
0.610811434114848,0.997085898278475
0.601303865363035,1.00400538063859
0.591538475425649,1.01044333539767
0.581516842526621,1.01639653451795
0.571240982635006,1.02186259414077
0.560713350011889,1.02683997720301
0.549936836811266,1.0313279942235
0.538914771734554,1.03532680225835
0.527650917740444,1.03883740202829
0.516149468813944,1.04186163322478
0.504415045800539,1.04440216800635
0.492452691313476,1.04646250269986
0.480267863724248,1.04804694772617
0.46786643024837,1.04916061577292
0.455254659140593,1.0498094082417
0.442439211015648,1.05
0.429427129312565,1.04973982247287
0.416225829922537,1.0490370451122
0.402843090002141,1.04790055528566
0.389287035995546,1.04633993663055
0.375566130891108,1.04436544592127
0.36168916073945,1.04198798850264
0.347665220461766,1.03921909234405
0.333503698978678,1.03607088077299
0.319214263691487,1.03255604394894
0.304806844349087,1.02868780914188
0.290291616335217,1.02447990988189
0.275678983411961,1.01994655404913
0.26097955995668,1.01510239097565
0.246204152730644,1.00996247763282
0.2313637422187,1.00454224397993
0.216469463580258,0.998857457551854
0.201532587252748,0.992924187364637
0.186564499249487,0.986758767220151
0.171576681194553,0.980377758491651
0.156580690137884,0.973797912473591
0.141588138194279,0.967036132379828
0.126610672050397,0.960109435075201
0.111659952384141,0.95303491262598
0.0967476332410032,0.945829693755133
0.0818853414120478,0.938510905288484
0.0670846558582312,0.931095633677911
0.0523570872256219,0.923600886687476
0.03771405749591,0.916043555328037
0.0231668798162924,0.908440376125315
0.00872673855242062,0.900807893805611
-0.00559533039239435,0.893162424482435
-0.0197884589491073,0.885520019426164
-0.0338419659040788,0.877896429497523
-0.0477453755282753,0.870307070324203
-0.0614884357742535,0.862766988298231
-0.0750611360016139,0.855290827469863
-0.0884537241926374,0.847892797411771
-0.101656723620972,0.840586642125083
-0.11466094893743,0.833385610056518
-0.127457521638259,0.826302425293336
-0.140037884882618,0.81934926000021
-0.152393817627436,0.812537708159296
-0.164517448049337,0.805878760671895
-0.176401266224905,0.799382781877005
-0.188038136042208,0.793059487538917
-0.199421306318201,0.786917924352683
-0.210544421098392,0.780966451012904
-0.221401529116969,0.775212720887765
-0.231987092397458,0.769663666336646
-0.242295993975865,0.764325484705963
-0.252323544730236,0.759203626034124
-0.262065489302521,0.754302782492647
-0.271518011100657,0.749626879586611
-0.280677736370823,0.745179069133667
-0.289541737331886,0.74096172403682
-0.298107534366129,0.736976434862233
-0.306373097262445,0.733224008229193
-0.314336845510303,0.729704467015372
-0.321997647644856,0.726417052376419
-0.329354819645715,0.723360227574862
-0.336408122393966,0.720531683609249
-0.343157758194123,0.717928346630426
-0.349604366369768,0.715546387127833
-0.355749017943692,0.713381230864748
-0.361593209415365,0.711427571537485
-0.367138855650575,0.709679385129692
-0.372388281900043,0.708129945929091
-0.377344214965728,0.706771844170284
-0.38200977353545,0.705597005263608
-0.386388457708284,0.704596710566455
-0.39048413773497,0.703761619650031
-0.394301041999307,0.703081794011175
-0.397843744268209,0.702546722175601
-0.401117150239681,0.702145346135842
-0.404126483419537,0.701866089064145
-0.406877270359166,0.701696884237738
-0.40937532528806,0.701625205111156
-0.411626734176139,0.701638096467727
-0.413637838262174,0.701722206579948
-0.415415217085788,0.70186382030614
-0.416965671061583,0.702048893048746
-0.418296203634965,0.702263085497643
-0.419414003060146,0.702491799080117
-0.420326423841625,0.70272021203752
-0.421040967881186,0.702933316047258
-0.421565265373083,0.703115953307507
-0.421907055490633,0.703252854001008
-0.42207416690788,0.703328674053451
-0.422074498200338,0.703328033101275
-0.421915998169075,0.703235552583237
-0.421606646132558,0.703035893869831
-0.421154432230719,0.7027137963445
-0.420567337785655,0.702254115350752
-0.419853315763247,0.701641859919497
-0.419020271379714,0.700862230191481
-0.418076042896786,0.699900654450302
-0.417028382648746,0.698742825682397
-0.41588493834403,0.697374737581399
-0.414653234683471,0.695782719915539
-0.413340655336521,0.693953473178121
-0.411954425315976,0.691874102442754
-0.410501593790822,0.689532150346739
-0.408989017375809,0.686915629127979
-0.4074233439353,0.684013051642873
-0.405810996937733,0.680813461294915
-0.404158160395838,0.677306460806159
-0.402470764426359,0.673482239766278
-0.400754471461697,0.669331600896653
-0.399014663144355,0.66484598496982
-0.397256427933553,0.660017494327569
-0.395484549451764,0.654838914944114
-0.393703495597249,0.649303736984029
-0.391917408446931,0.643406173807934
-0.390130094972184,0.637141179382438
-0.388345018588249,0.630504464054371
-0.386565291556131,0.623492508652971
-0.3847936682539,0.616102576887461
-0.383032539332353,0.608332726011201
-0.381283926768001,0.600181815727498
-0.379549479824333,0.591649515316083
-0.377830471930239,0.582736308963184
-0.376127798482436,0.573443499282196
-0.374441975576616,0.56377320901593
-0.372773139669997,0.553728380915508
-0.371121048175797,0.543312775795032
-0.369485080988112,0.53253096876521
-0.367864242933523,0.521388343653209
-0.366257167143718,0.50989108562004
-0.364662119341308,0.498046171990783
-0.363077003028968,0.485861361316983
-0.361499365569998,0.473345180694467
-0.359926405146388,0.460506911363732
-0.358354978578493,0.447356572623886
-0.356781609988481,0.433904904094906
-0.355202500287807,0.420163346366611
-0.353613537467128,0.406144020076435
-0.352010307665229,0.391859703461495
-0.35038810699181,0.377323808433939
-0.348741954077251,0.362550355231806
-0.347066603320845,0.347553945700827
-0.345356558807415,0.33234973526566
-0.343606088860702,0.316953403651959
-0.341809241200493,0.301381124423503
-0.339959858669068,0.285649533401223
-0.338051595491281,0.269775696033471
-0.336077934031358,0.253777073789256
-0.334032202008383,0.237671489648287
-0.331907590131392,0.221477092763768
-0.329697170114036,0.205212322375658
-0.327393913027935,0.18889587105385
-0.324990707953031,0.172546647352193
-0.322480380882601,0.156183737955604
-0.31985571383999,0.139826369403664
-0.31710946416363,0.123493869475033
-0.314234383916533,0.107205628317799
-0.311223239376138,0.0909810594114181
-0.3080688305602,0.0748395604463257
-0.304764010744311,0.0588004742074657
-0.301301705926652,0.0428830495479741
-0.297674934195654,0.027106402539099
-0.293876824956494,0.0114894778820088
-0.289900637972574,-0.00394898933340371
-0.285739782178626,-0.0191905114383909
-0.281387834222484,-0.0342168854805247
-0.276838556693222,-0.0490102299219224
-0.272085915994012,-0.0635530206596204
-0.267124099818841,-0.077828126288675
-0.261947534193093,-0.0918188425302621
-0.256550900038959,-0.10550892574889
-0.250929149227697,-0.118882625484872
-0.245077520081879,-0.131924715930383
-0.238991552291978,-0.144620526279775
-0.232667101212958,-0.156955969887327
-0.226100351507882,-0.168917572168264
-0.219287830106998,-0.18049249718164
-0.212226418452297,-0.191668572836656
-0.204913363999096,-0.202434314667011
-0.197346290947855,-0.212778948121063
-0.189523210181155,-0.222692429318916
-0.181442528382494,-0.232165464230906
-0.173103056315407,-0.241189526235506
-0.164504016243271,-0.249756872018257
-0.155645048472031,-0.257860555777021
-0.14652621700009,-0.265494441702622
-0.137148014261516,-0.272653214707786
-0.127511364950806,-0.279332389381148
-0.11761762891943,-0.285528317147092
-0.107468603136464,-0.291238191616145
-0.097066522707707,-0.296460052114667
-0.0864140609497545,-0.301192785386666
-0.0755143285176064,-0.305436125464568
-0.0643708715864995,-0.309190651709914
-0.0529876690907457,-0.312457785028955
-0.0413691290244629,-0.315239782272239
-0.029520083811169,-0.317539728831266
-0.0174457847512739,-0.319361529449329
-0.0051518955585729,-0.320709897267613
0.00735551500114637,-0.321590341131551
0.0200699813542639,-0.322009151186307
0.0329846502291722,-0.321973382794037
0.0460922906127925,-0.321490838809341
0.0593853045328804,-0.320570050252933
0.0728557386433734,-0.319220255427138
0.0864952965882715,-0.317451377520269
0.10029535211779,-0.315274000750303
0.114246962928865,-0.312699345101515
0.128340885200457,-0.309739239710848
0.142567588792568,-0.306406094963789
0.156917273076409,-0.302712873362413
0.171379883361726,-0.298673059230922
0.185945127886004,-0.294300627326651
0.200602495328957,-0.289610010426885
0.215341272814603,-0.284616065964119
0.230150564362095,-0.279334041784512
0.245019309745485,-0.273779541106197
0.259936303721693,-0.267968486755894
0.274890215585136,-0.261917084763869
0.289869609006721,-0.255641787398684
0.304862962114293,-0.249159255724427
0.31985868777107,-0.242486321764139
0.33484515400818,-0.235639950354053
0.349810704567027,-0.228637200773882
0.364743679507011,-0.221495188238925
0.379632435833954,-0.214231045340011
0.394465368104522,-0.206861883517419
0.409230928962023,-0.19940475465482
0.423917649559075,-0.191876612878989
0.43851415982289,-0.18429427665057
0.453009208519301,-0.176674391230489
0.467391683072038,-0.169033391605796
0.481650629094384,-0.161387465957613
0.495775269590895,-0.153752519752701
0.509755023787664,-0.146144140538694
0.523579525550392,-0.138577563521496
0.537238641350453,-0.131067638001576
0.550722487740164,-0.123628794743906
0.564021448299504,-0.116275014354286
0.57712619001778,-0.109019796732415
0.590027679074897,-0.101876131669764
0.602717195988311,-0.0948564706576445
0.615186350093074,-0.0879726999681953
0.627427093323921,-0.0812361150681414
0.639431733269855,-0.0746573964221817
0.651192945473318,-0.0682465867397499
0.662703784947724,-0.0620130697156507
0.673957696888828,-0.0559655503117255
0.684948526557233,-0.0501120366232446
0.695670528311158,-0.0444598233701681
0.706118373770473,-0.0390154770497733
0.716287159094931,-0.0337848227834324
0.726172411361526,-0.028772932886505
0.735770094027842,-0.0239841171864795
0.745076611470354,-0.0194219151105439
0.754088812588652,-0.0150890895598285
0.762803993468623,-0.0109876225835539
0.771219899099769,-0.00711871286226706
0.77933472414386,-0.00348277500532584
0.787147112754301,-7.94406636935308e-05
0.794656157447616,0.00309243854492902
0.801861397030652,0.00603478630569693
0.808762813589086,0.00875029508202074
0.815360828545009,0.0112424178118947
0.821656297793331,0.0135153578442439
0.827650505928857,0.0155740571383365
0.833345159577868,0.0174241827531906
0.838742379850024,0.0190721116577389
0.84384469392836,0.020524913896278
0.848655025817061,0.0217903341474118
0.853176686268554,0.0228767717182984
0.85741336191326,0.0237932590195185
0.861369103617151,0.0245494385692852
0.86504831409391,0.0251555385790117
0.868455734800196,0.0256223471754363
0.871596432144034,0.0259611853175535
0.87447578303794,0.0261838784695361
0.877099459829762,0.0263027270936121
0.87947341464565,0.0263304760295163
0.881603863180813,0.0262802828296262
0.883497267974982,0.0261656851212421
0.885160321210586,0.0260005670696492
0.886599927072723,0.0257991250176237
0.887823183710962,0.0255758323788899
0.888837364843871,0.0253454038647176
0.889649901047963,0.0251227591243451
0.890268360773414,0.0249229858812343
0.890700431129521,0.0247613026483025
0.89095389848335,0.0246530211062235
0.891036628915417,0.0246135082296555
