0.865713991728515,-0.190137641828297
1.00661824736638,-0.126306896237865
0.906088306841462,-0.279367080798
0.852187080528626,-0.197494290130033
0.885269305519993,-0.239610233681868
0.978597315559539,-0.121508713393207
0.976524397792327,-0.0866058944895327
0.894398744249806,-0.194042934594383
0.86129387948981,-0.171039487700564
0.856912697365873,-0.174808817835488
0.819562761099141,-0.160734593963909
0.80956045932908,-0.146587961030564
0.830021562108918,-0.14508704305098
0.822277486444503,-0.16286514345102
0.816157259961147,-0.120981306485438
0.779136567431263,-0.0940475019500423
0.802793350510008,-0.0928411860560772
0.829259403531203,-0.0706186955057963
0.83926046942429,-0.0500426301001411
0.755965277882431,-0.0486341384883706
0.799312152457574,-0.0409639879293309
0.784814274759584,-0.0136673558876497
0.780075592301529,0.0419884601457477
0.769314761164125,0.0319688226450575
0.767090097655867,0.0522310437858721
0.813759496938884,0.05649812118424
0.760804294363066,0.0906005322705152
0.742993860351516,0.145117533910773
0.769477306450248,0.142388006186763
0.720793770983405,0.104650363779859
0.781264581800981,0.141604513990738
0.774908992001924,0.234038190645606
0.767462352686136,0.216883509795594
0.7950608322271,0.212177754168027
0.789201851829088,0.258839289043524
0.897940065930359,0.366722607412501
0.808349300999308,0.260052320681081
0.834771728205638,0.306930258794923
0.905980408528415,0.456872332538451
0.832318641489541,0.359378626632856
0.876934290181187,0.388143838456174
0.857842557244092,0.367366132083698
0.856328230748109,0.363939442076292
0.876262207003434,0.42074644040878
0.870936548121999,0.412483173138595
0.892275963373666,0.449164412733397
0.888397495164964,0.431757190401832
0.896860227716139,0.428401519635739
0.914566403658243,0.412987944886313
0.929027444768229,0.490147309036381
0.918602959846766,0.458304607636424
0.916209449415716,0.493058745718503
0.830030269673367,0.372909284639238
0.943876485064944,0.477717766902822
0.937978637835187,0.470681451977079
0.966964418825181,0.499599963638385
0.942179795474994,0.472693447697859
0.939890378679964,0.488971744122334
0.947659063792307,0.491356880804205
0.91339157826388,0.475455819948911
0.952310677845705,0.475744588257188
0.948694930209232,0.461465911861841
0.91650261442511,0.516991166844825
0.890892401374508,0.465668094171427
0.898145985795431,0.473753968260146
0.905105133278306,0.440227030711962
0.883864451084856,0.461988443089995
0.976364029656361,0.572353346230894
0.870133434545706,0.459949799240962
0.881006464406877,0.457408123036992
0.848911164073787,0.47075739587701
0.834771682181117,0.473188971101799
0.818156487727048,0.504717792507605
0.807975473980024,0.479661125804797
0.788412186128028,0.485039494522176
0.771054458186115,0.497613242121875
0.747680031216966,0.497978111464834
0.737973768115574,0.504483898089714
0.700749555920064,0.57813019429058
0.689437882924552,0.526045045289548
0.68688453128952,0.512837192279654
0.635585200745875,0.531837105853735
0.641723165517624,0.53814505446774
0.635005936868572,0.567069720697097
0.622671489762735,0.578166057247474
0.602776053767056,0.59430709907431
0.580424705004206,0.63850026534236
0.560717732375915,0.675526415030901
0.558631240607868,0.639752277102204
0.482818581285277,0.579057529449195
0.544043771516195,0.653360680210664
0.515273201168111,0.707554345457873
0.483327386351544,0.717156663082003
0.503434126913258,0.748587487356583
0.471129939096905,0.736325268296383
0.482821216659837,0.75622220750772
0.475518810392925,0.772725201247935
0.49235141814937,0.782712951539766
0.463565143410567,0.804680512380366
0.426112926541899,0.865240891952406
0.454975316872407,0.834625050006476
0.472200988899421,0.828188078629865
0.545658930680005,0.968547206847576
0.466027539040181,0.873871509689865
0.384372293388654,0.878398067750476
0.467868044425174,0.89949173053935
0.445604066543133,0.90595499222298
0.542817131201529,1.02864913866744
0.482071423728019,0.918604450303077
0.446751405944241,0.928174504798648
0.447445955551002,0.933328099730728
0.453015000667106,0.935729991567928
0.470692417588834,0.942217345382098
0.421904146711173,0.947450878761458
0.449356277815852,0.942427572768876
0.449162677861339,0.941876910468292
0.448525099754094,0.940247935012676
0.447361146812463,0.93758129198257
0.445592717636065,0.933925493287908
0.443146724757779,0.92933647828253
0.425871718065732,0.965346237220237
0.435958761153373,0.917616603790034
0.43361011380255,0.914481360160938
0.531909892102615,0.981024020428264
0.427401528236466,0.877761729161678
0.410939358108099,0.886133831838867
0.383915824679454,0.890628181539322
0.413438001724105,0.893825788048721
0.264286054715306,0.763937059081166
0.370106278523701,0.848560451261339
0.375884384682985,0.876156211484103
0.374894967922196,0.823311850565457
0.351381669226977,0.790365215975906
0.313444287029019,0.810821072381425
0.285381610960167,0.810995693591352
0.263602366035839,0.804173264005707
0.186159299136028,0.642537040824779
0.243144642158317,0.778498755928121
0.223885471406933,0.771821101006425
0.204104219749055,0.765823265100109
0.0865892607028547,0.637881309465954
0.163318843897399,0.756045983385366
0.137019520633734,0.792985377821497
0.121510793647498,0.749443556931644
0.117936245538679,0.718158421382667
0.100418716090432,0.741411947874492
0.0585507404984633,0.74576198602424
0.0470755160867603,0.74751963362437
0.0175369980283023,0.747403807639394
0.00179314029617037,0.747961245530403
-0.0179544674252944,0.691150171874042
0.0897718342872267,0.855697311766427
0.0428934807714356,0.853736395485659
0.00768758570917639,0.867362010240285
-0.105958743802104,0.77708700325528
-0.10877745881186,0.774662057945354
-0.103627676911915,0.78307345851932
-0.137544710302179,0.786616374960135
-0.154181401815781,0.769726085080999
-0.143513178679489,0.771594361578853
-0.173118597721312,0.805634556186356
-0.141734584891162,0.774117678082736
-0.186800206139187,0.880649120054449
-0.188670716191816,0.859913389631159
-0.217296754695818,0.855468446034243
-0.227080939281803,0.837966731206748
-0.247866196587462,0.813604117713866
-0.330432076752666,0.747332805719928
-0.245255910834288,0.838496333684499
-0.209254644853665,0.881560919605671
-0.213694043763146,0.840707539938852
-0.225331530035308,0.849437006881503
-0.208999257038842,0.833630711428519
-0.205559765790985,0.811749066640102
-0.258655277247407,0.852620704979839
-0.186061360746192,0.850013013816689
-0.303109381961397,0.758650282331168
-0.221717839872595,0.866631192238939
-0.205481546650693,0.831313374520855
-0.211852792665824,0.815339325728139
-0.201404289749517,0.802458161116117
-0.0926454492969807,0.914808621761849
-0.195908817831792,0.801130155192512
-0.203610948682867,0.771867829197671
-0.213675512574548,0.766580808325101
-0.197185845979811,0.731501514673832
-0.206436222613496,0.721417163084825
-0.21182648729959,0.728651293896935
-0.236817326264398,0.687903274878102
-0.222129333743512,0.6842609825129
-0.190619379208203,0.66207992693723
-0.210549466775097,0.642799051113209
-0.209395278560276,0.660802727813338
-0.199194902797052,0.600911096957075
-0.225737672002553,0.586006312542238
-0.232524767711457,0.566785436778568
-0.36857806978492,0.461213586859871
-0.248653634165356,0.528486182674661
-0.235995328082211,0.493289147985606
-0.279912825766935,0.455306829930254
-0.281374872183142,0.468546532104194
-0.265708634743276,0.497730628998176
-0.307858854021774,0.445758040439219
-0.315235449827619,0.42127394657209
-0.229477997138467,0.495611898992163
-0.342090727821148,0.390231770528602
-0.341485831831832,0.368097775035054
-0.36784090532442,0.351578325532447
-0.256558378688521,0.439086159565389
-0.403384258894545,0.348221857595522
-0.370024494087671,0.334458343737019
-0.428014969048054,0.317382323006273
-0.406317911955335,0.300764100701686
-0.455997460512582,0.300492400633874
-0.473878175742488,0.282560416296672
-0.45873237574119,0.267374905008386
-0.483118550724834,0.287004154920248
-0.538297671756053,0.293749153686045
-0.507087381531404,0.307251930393076
-0.476325406457916,0.270839015032475
-0.657696713947506,0.128137522091816
-0.563532776653604,0.267277602576778
-0.552543760291455,0.265415881426421
-0.567575444383276,0.256541077564885
-0.563993128740098,0.264128565107971
-0.568048850035586,0.263920405022575
-0.570958230185102,0.263884646863424
-0.671906531446093,0.156071681289789
-0.695909013139719,0.192046820956079
-0.541415303349638,0.253871017928957
-0.570979601480115,0.263640844703072
-0.592927754564018,0.24198253546754
-0.564163160161875,0.262188859164502
-0.566685994803202,0.214593249717951
-0.547160497157888,0.275861729488078
-0.4426823906337,0.369632715639282
-0.538227049789004,0.253244713119504
-0.503860503998987,0.267674302508177
-0.509785201349407,0.243642129655883
-0.501721844628254,0.246237146025777
-0.377723442940265,0.305752298481039
-0.487834779857114,0.22520705338368
-0.463751388323172,0.261720648645915
-0.460499191713226,0.189208242953682
-0.461296967287367,0.138861156524311
-0.540752848584574,0.0988530105522469
-0.553035519708105,0.0484409410445219
-0.414739431907623,0.160746976328932
-0.533827771726186,0.0552413580812189
-0.374801715629591,0.126168186294599
-0.426925381627653,0.133452498278827
-0.367584360777499,0.0994022823728352
-0.356788559943596,0.0821118972516487
-0.319167811456342,0.0481649424296629
-0.453518252628981,-0.0668863102805661
-0.355891154797304,0.021575084281805
-0.315410788089118,0.0303182912398316
-0.302768900646933,-0.0291490660054411
-0.29938186872512,-0.0415627382121825
-0.314836666905204,-0.0779010242367702
-0.184016116238466,0.00600793437592573
-0.290406146349425,-0.0935210700206917
-0.30115209821577,-0.124318201545453
-0.213499112981448,-0.0513423385659573
-0.181468326240687,-0.0661460563197744
-0.269432064866569,-0.188106818280794
-0.281857674241933,-0.190828330014534
-0.410824100236838,-0.300812797335833
-0.287688177089751,-0.17214833632481
-0.285533822235735,-0.242842651158227
-0.287925225679089,-0.258637081794394
-0.260365176804499,-0.265488500652337
-0.295064484335615,-0.294760605888194
-0.307597192696209,-0.260467960541631
-0.301412524958946,-0.312462652618167
-0.311802481074401,-0.340236644783672
-0.309343351009007,-0.333169326995725
-0.329289981532966,-0.32608149793717
-0.317108215624117,-0.349486709027674
-0.316988808563314,-0.364988126900019
-0.323967203414489,-0.361402100980507
-0.336601162743471,-0.35343998562476
-0.342745345227831,-0.365981355573135
-0.328828254226436,-0.348951601613765
-0.357954130474176,-0.363635555780249
-0.324693000285547,-0.363683340073632
-0.289784540603464,-0.384885414695278
-0.321645111401915,-0.371004835734247
-0.273791645915906,-0.370315602466759
-0.325418521710563,-0.367086298584618
-0.321223659286716,-0.364013015466321
-0.330953015178267,-0.369656746819874
-0.309662464888738,-0.356572513938179
-0.266619077900608,-0.360047744735047
-0.298648031306833,-0.357863056558627
-0.284148092193248,-0.343537711237748
-0.252704986485455,-0.321130933261691
-0.264227412475331,-0.326538546022823
-0.26491056614469,-0.346203143904342
-0.257507165910928,-0.322520624346302
-0.236186882563959,-0.344119289726327
-0.204712422545025,-0.319756946459746
-0.20324313741613,-0.320780103507544
-0.159644584661426,-0.321088030114051
-0.152943893346645,-0.313510103037023
-0.230558571334134,-0.418347461233302
-0.115173340391069,-0.3126627547935
-0.118756249543834,-0.309077120647013
-0.0632848191762243,-0.302298805022216
-0.07551443941751,-0.299990489193049
-0.133208395275688,-0.40763613317742
-0.0329191743734038,-0.35654191156857
0.116265900615805,-0.234641722118005
0.0493984994827054,-0.341112790972629
0.0311221677809445,-0.295054055204245
0.0406033925863729,-0.34856149526213
0.0815731603697804,-0.373640619764762
0.250997941966669,-0.199259573237427
0.151081397045783,-0.347118720580541
0.034915507715785,-0.488527991164761
0.158276934003577,-0.395200297140724
0.174614116162105,-0.406076103452777
0.306468159107445,-0.32490460826775
0.216447478415897,-0.429134913316821
0.233173815679827,-0.406382556328411
0.209505040300674,-0.446019726235747
0.243153563393723,-0.464127106558273
0.254011130853675,-0.475844447485385
0.254349183629155,-0.484254884270509
0.272779111963865,-0.498636900195872
0.280705205893553,-0.509524014223573
0.296637256806421,-0.513051357081765
0.293746408916335,-0.52982272564976
0.409881504828292,-0.445213726812918
0.399127336244531,-0.441776335095562
0.313388010224059,-0.578568607656615
0.309691781288024,-0.562164870143703
0.311884252592968,-0.568096141819692
0.346576109091488,-0.580678868014268
0.406840276355997,-0.477227644171897
0.335907140364939,-0.596924427389126
0.303999515317443,-0.58406337942393
0.313107852938882,-0.581165179687504
0.274189747974931,-0.622411800076783
0.315524674734335,-0.579743503473592
0.315416347049655,-0.576835920867186
0.286987627010262,-0.556426081828672
0.236347176732293,-0.68609822598874
0.323620518008761,-0.558670972411439
0.411856900284226,-0.518082145473014
0.347704539466263,-0.54664448737799
0.313811342059315,-0.533215117905763
0.283263600802988,-0.517044551083952
0.46068099782603,-0.413721781552928
0.354372293132633,-0.492948408954289
0.346359348013045,-0.472703978167444
0.317309951084657,-0.435431289675412
0.312125466111128,-0.442567076102774
0.436889586099178,-0.31398986407023
0.361879692991001,-0.434326896651662
0.382678412343296,-0.389471720442178
0.512156769550185,-0.341894124759707
0.382577145155346,-0.363036901306749
0.417621115756002,-0.386082690016065
0.416745116238522,-0.359576261475312
0.435765812996466,-0.352705243155327
0.535261913819594,-0.256170190085446
0.345687069119077,-0.39923730746345
0.478965140732101,-0.309850533365267
0.492564400667422,-0.290036922939697
0.509715656115123,-0.277659379119581
0.527367466893293,-0.265948509084636
0.567360962072651,-0.223016771207474
0.449480211313591,-0.37912930322782
0.585142052819569,-0.257072851003997
0.601337506917362,-0.220992978170388
0.712369432974458,-0.120002460532203
0.613427369243414,-0.203614965665347
0.626211940621153,-0.192625042080742
0.77378417430107,-0.0794861853259037
0.694263677116478,-0.19674156137277
0.710428884601148,-0.197336399063902
0.729182862801268,-0.19064426606335
0.833465798804524,-0.113634978328536
0.761722479129496,-0.187568119850985
0.776897092290463,-0.187040090167839
0.886480063086383,-0.0791698488927775
0.71728282086411,-0.270817994027741
0.832385069197357,-0.164991786392396
0.82869893701391,-0.190156734454358
0.841492318595076,-0.190496616661915
0.848523943307258,-0.193776202010854
0.897552465647187,-0.171218786117082
0.94878120472889,-0.0275732231727266
0.86445550854945,-0.201371306605138
0.910074711787485,-0.200828708752961
0.87854528689775,-0.203235166227701
0.843668367697237,-0.194414716441555
0.878740151096022,-0.166069329055638
0.972829057952161,-0.107748850107101
