-0.740301896154733,-0.78541180848473
-0.740208488959858,-0.785318847118667
-0.739916230266255,-0.785051364351715
-0.739407138400671,-0.784626459720364
-0.738663366120509,-0.784061195697033
-0.737667245145335,-0.783372555621094
-0.736401330374534,-0.782577401903764
-0.734848443691251,-0.781692434601082
-0.732991717253658,-0.780734150448368
-0.73081463617574,-0.779718802448476
-0.728301080501079,-0.778662360104925
-0.725435366374745,-0.777580470389497
-0.72220228632009,-0.77648841953225
-0.718587148529303,-0.775401095720023
-0.714575815078698,-0.774332952787453
-0.710154738982127,-0.773297974982298
-0.705310999998464,-0.772309642884421
-0.700032339111887,-0.771380900555204
-0.694307191606611,-0.770524123991369
-0.688124718660844,-0.769751090954271
-0.681474837388049,-0.769072952242614
-0.674348249257012,-0.768500204473295
-0.666736466825839,-0.7680426644317
-0.658631838728736,-0.767709445049228
-0.650027572858329,-0.76750893306219
-0.64091775769027,-0.767448768402402
-0.631297381701014,-0.76753582536597
-0.621162350833912,-0.767776195602686
-0.610509503973063,-0.768175172964447
-0.599336626388842,-0.768737240246856
-0.587642461123519,-0.76946605785398
-0.575426718289945,-0.770364454411866
-0.562690082260973,-0.771434419352073
-0.549434216731927,-0.772677097482041
-0.535661767643202,-0.774092785554658
-0.52137636395482,-0.775680930844896
-0.506582616269562,-0.77744013173688
-0.491286113306084,-0.779368140320244
-0.475493416228202,-0.781461866990111
-0.459212050841323,-0.78371738704053
-0.44245049767173,-0.786129949236741
-0.425218179949163,-0.788693986347181
-0.407525449517794,-0.791403127611747
-0.389383570705312,-0.794250213118485
-0.370804702184389,-0.797227310056582
-0.351801876865266,-0.80032573080933
-0.332388979862577,-0.803536052846591
-0.312580724583841,-0.806848140372248
-0.292392626991214,-0.810251167678177
-0.271840978092173,-0.81373364415247
-0.250942814718769,-0.817283440885859
-0.229715888658856,-0.820887818816759
-0.208178634206432,-0.824533458351855
-0.186350134201702,-0.828206490395827
-0.16425008463488,-0.83189252872067
-0.141898757890913,-0.83557670360201
-0.119316964715378,-0.839243696646991
-0.0965260149846131,-0.842877776735602
-0.0735476773658563,-0.846462836994818
-0.0504041379555977,-0.849982432722577
-0.0271179579866627,-0.853419820176481
-0.00371203069660532,-0.856757996140151
0.0197904625481326,-0.859979738178408
0.0433660967761802,-0.863067645490861
0.0669912484857479,-0.866004180272159
0.0906421411708971,-0.868771709485987
0.114294891199764,-0.871352546958926
0.137925553944144,-0.873728995699575
0.161510170059278,-0.875883390347801
0.185024811812357,-0.877798139658649
0.208445629358111,-0.87945576892537
0.231748896860027,-0.880838962246107
0.254911058355997,-0.881930604539111
0.277908773267848,-0.882713823211913
0.300718961454919,-0.883172029390596
0.323318847712922,-0.883288958616278
0.345686005620514,-0.883048710917097
0.367798400637472,-0.882435790165336
0.389634432360028,-0.881435142630901
0.411172975840793,-0.880032194644152
0.432393421882762,-0.87821288928302
0.453275716219199,-0.875963722001527
0.473800397493662,-0.873271775119142
0.493948633957084,-0.870124751092942
0.513702258801717,-0.866511004497225
0.533043804054735,-0.862419572638084
0.551956532957517,-0.857840204733509
0.570424470760002,-0.852763389592694
0.58843243386302,-0.847180381731632
0.605966057245187,-0.841083225865482
0.623011820114763,-0.834464779721845
0.639557069730817,-0.827318735122765
0.655590043342133,-0.819639637287159
0.671099888196444,-0.811422902309294
0.686076679576909,-0.802664832773001
0.700511436827106,-0.793362631465443
0.714396137330318,-0.783514413158491
0.7277237284134,-0.773119214430033
0.740488137150166,-0.762177001501919
0.752684278043895,-0.75068867607564
0.764308058573251,-0.738656079151283
0.775356382590707,-0.726081992819808
0.785827151567284,-0.712970140023167
0.795719263682252,-0.699325182281344
0.8050326107612,-0.685152715389862
0.813768073070684,-0.670459263095879
0.821927511982415,-0.65525226876542
0.829513760524683,-0.639540085058828
0.836530611843424,-0.623331961635889
0.842982805599967,-0.606638030916509
0.84887601233708,-0.589469291927118
0.854216815849468,-0.571837592267257
0.859012693599286,-0.553755608234958
0.863271995221582,-0.535236823153651
0.867003919168829,-0.51629550394732
0.87021848754783,-0.496946676014509
0.872926519206294,-0.477206096455603
0.875139601130269,-0.457090225711431
0.876870058217362,-0.436616197674805
0.878130921494265,-0.415801788339976
0.878935894850593,-0.39466538305827
0.87929932036428,-0.373225942471249
0.879236142296927,-0.351502967195678
0.87876186984044,-0.329516461337384
0.877892538699055,-0.30728689491366
0.876644671593407,-0.284835165266332
0.875035237775711,-0.262182557549817
0.873081611647278,-0.239350704380583
0.870801530571584,-0.216361544736276
0.868213051977879,-0.193237282194449
0.865334509851862,-0.170000342602287
0.862184470711324,-0.146673331270004
0.858781689165755,-0.123278989781638
0.855145063159835,-0.0998401525178026
0.851293589001383,-0.0763797029856224
0.847246316274831,-0.0529205300514907
0.843022302741479,-0.0294854841724899
0.838640569327824,-0.00609733372234181
0.834120055303002,0.0172212784924768
0.829479573745968,0.0404478784312463
0.824737767402335,0.0635602036375551
0.819913065029906,0.0865362455841719
0.815023638330836,0.109354291451567
0.810087359566992,0.131992965248669
0.805121759953545,0.154431268185938
0.800143988924073,0.176648618212455
0.795170774358457,0.198624888630639
0.790218383862697,0.220340445704246
0.785302587187402,0.241776185177517
0.780438619869111,0.262913567625824
0.775641148175885,0.283734652560713
0.77092423543564,0.304222131215065
0.766301309822597,0.324359357936996
0.761785133673935,0.344130380124249
0.757387774405287,0.363519966634068
0.753120577090137,0.382513634606946
0.748994138764418,0.401097674646148
0.745018284513752,0.419259174298629
0.741202045396741,0.436986039786684
0.737553638253626,0.45426701594361
0.734080447445372,0.471091704310639
0.730789008563895,0.4874505793565
0.727684994149763,0.503335002785158
0.724773201449129,0.518737235901509
0.722057542237147,0.533650450009176
0.719541034730423,0.548068734818879
0.717225797606395,0.561987104850344
0.715113046142818,0.575401503815114
0.713203090485715,0.588308806972178
0.71149533604946,0.600706821452821
0.709988286047797,0.612594284555594
0.70867954614986,0.623970860016885
0.707565831250483,0.634837132266994
0.706642974339334,0.645194598686176
0.705905937448695,0.655045659879498
0.705348824655058,0.664393607993819
0.704964897105096,0.673242613104515
0.704746590031994,0.681597707703883
0.704685531723701,0.689464769327381
0.704772564400251,0.696850501357988
0.70499776695302,0.703762412053033
0.705350479494608,0.710208791841771
0.705819329663981,0.716198688945857
0.706392260627527,0.721741883378558
0.707056560712914,0.726848859382178
0.707798894608941,0.731530776366604
0.708605336061058,0.735799438415252
0.709461401988874,0.739667262427814
0.710352087948764,0.743147244972279
0.711261904861668,0.746252927921545
0.712174916923327,0.748998362952616
0.713074780611517,0.751398074988922
0.713944784702406,0.753467024668621
0.714767891205848,0.75522056992391
0.715526777127375,0.756674426758304
0.716203876962763,0.757844629310665
0.716781425829407,0.758747489296266
0.717241503137284,0.75939955491661
0.717566076701049,0.759817569330827
0.71773704719382,0.760018428782481
0.717736292842412,0.760019140476328
0.71754571426321,0.75983678030012
0.717147279337557,0.759488450486858
0.716523068025392,0.758991237313035
0.715655317016028,0.758362168928271
0.71452646411526,0.757618173411442
0.713119192268595,0.756776037147888
0.711416473121161,0.75585236362152
0.70940161001588,0.754863532714706
0.707058280332727,0.753825660607669
0.704370577073324,0.752754560367748
0.701323049596808,0.751665703317327
0.697900743414777,0.750574181267452
0.694089238955189,0.749494669702229
0.68987468920738,0.748441391996917
0.685243856162857,0.74742808475032
0.680184145969159,0.746467964309557
0.674683642716962,0.745573694562616
0.66873114078363,0.744757356071216
0.662316175659603,0.744030416613515
0.655429053187398,0.743403703203015
0.648060877146525,0.742887375646681
0.640203575121275,0.742490901701853
0.631849922592183,0.742223033887928
0.622993565195884,0.742091788005051
0.613629039102191,0.742104423408245
0.603751789461362,0.742267425081445
0.593358186878864,0.742586487551872
0.582445541879304,0.743066500681031
0.571012117325654,0.743711537364413
0.559057138764501,0.744524843167706
0.546580802672593,0.745508827922936
0.533584282584706,0.746665059303595
0.520069733087491,0.747994258393341
0.506040291668778,0.749496297258397
0.491500078416542,0.751170198529269
0.476454193566553,0.753014136992879
0.460908712902502,0.755025443191727
0.444870681017192,0.757200609022146
0.428348102448136,0.759535295319266
0.41134993070564,0.762024341411807
0.393886055216157,0.764661776625422
0.375967286208314,0.767440833708927
0.357605337573624,0.770353964153413
0.338812807738389,0.773392855370036
0.319603158587754,0.776548449688038
0.29999069248716,0.779810965130521
0.279990527450771,0.783169917921458
0.259618570510474,0.786614146673561
0.238891489343158,0.790131838202837
0.217826682217793,0.793710554911991
0.196442246327599,0.797337263681334
0.174756944576212,0.80099836620244
0.152790170890151,0.804679730686562
0.130561914133249,0.808366724876695
0.108092720701746,0.812044250289287
0.0854036558817462,0.81569677760877
0.0625162640534787,0.819308383155524
0.0394525278293635,0.822862786345444
0.0162348262152841,0.826343388057045
-0.00711410811336984,0.829733309819992
-0.0305712323273425,0.833015433737074
-0.0541132376555217,0.836172443049974
-0.0777165941964483,0.83918686325774
-0.101357596231128,0.842041103695589
-0.125012407937808,0.844717499480619
-0.148657109408491,0.847198353730161
-0.172267742866296,0.849465979957886
-0.195820358982304,0.851502744552328
-0.219291063190295,0.853291109242292
-0.242656061897836,0.854813673453634
-0.265891708492318,0.856053216462064
-0.288974549041078,0.856992739247135
-0.31188136758537,0.857615505953128
-0.334589230928858,0.857905084863479
-0.357075532822447,0.857845388796397
-0.379318037448566,0.85742071483062
-0.40129492210962,0.856615783271704
-0.422984819027064,0.855415775770942
-0.444366856159544,0.853806372510836
-0.465420696950717,0.851773788373135
-0.48612657891976,0.849304808007692
-0.506465351010132,0.846386819722811
-0.526418509614936,0.843007848120379
-0.545968233200129,0.839156585401831
-0.565097415450023,0.834822421273982
-0.583789696862704,0.829995471386807
-0.602029494726538,0.824666604238548
-0.619802031412475,0.818827466486914
-0.637093360920632,0.812470506608649
-0.653890393623507,0.805588996853463
-0.670180919152207,0.798177053442038
-0.685953627376176,0.790229654961775
-0.701198127431161,0.781742658917926
-0.715904964754516,0.772712816401841
-0.73006563609133,0.763137784842274
-0.743672602439436,0.753016138809904
-0.756719299905877,0.742347378849609
-0.769200148452111,0.731131938319358
-0.781110558509888,0.719371188219058
-0.79244693545449,0.707067439997132
-0.803206681926786,0.694223946327118
-0.813388198000321,0.680844899851088
-0.822990879194477,0.666935429891188
-0.832015112339512,0.652501597135147
-0.840462269304052,0.63755038630609
-0.848334698600395,0.622089696831472
-0.855635714887668,0.606128331530401
-0.862369586397561,0.589675983343039
-0.868541520311986,0.572743220130097
-0.874157646126558,0.555341467574767
-0.87922499703825,0.537482990223615
-0.88375148939999,0.519180870707137
-0.887745900289246,0.500448987184698
-0.891217843241826,0.481301989062548
-0.894177742206216,0.461755271037438
-0.896636803777694,0.441824945522077
-0.898606987775311,0.421527813512284
-0.900100976228483,0.400881333959158
-0.901132140843464,0.379903591712897
-0.901714509023354,0.358613264108085
-0.901862728518486,0.337029586263298
-0.901592030787075,0.31517231517071
-0.90091819314887,0.293061692654119
-0.899857499817217,0.270718407276263
-0.898426701897411,0.248163555278717
-0.896642976441509,0.225418600639727
-0.894523884651858,0.202505334337358
-0.892087329327459,0.179445832907092
-0.889351511648947,0.156262416384537
-0.886334887399448,0.132977605725338
-0.883056122719761,0.109614079795499
-0.879534049497367,0.08619463202629
-0.87578762048955,0.0627421268286588
-0.871835864281452,0.0392794558625998
-0.867697840180276,0.0158294942572602
-0.863392593146922,-0.00758494312234928
-0.85893910886627,-0.0309411452662543
-0.854356269056947,-0.0542165483725849
-0.849662807120898,-0.0773887788678709
-0.844877264232255,-0.100435696000426
-0.840017945964024,-0.123335433913534
-0.835102879549864,-0.146066443106446
-0.83014977187679,-0.168607531192421
-0.825175968302979,-0.190937902864734
-0.820198412392988,-0.213037198983272
-0.815233606660621,-0.234885534696273
-0.810297574407384,-0.256463536514041
-0.805405822742045,-0.277752378253622
-0.800573306864085,-0.298733815776134
-0.795814395691049,-0.319390220440959
-0.791142838906711,-0.339704611204015
-0.786571735503831,-0.359660685290231
-0.782113503891862,-0.379242847373597
-0.777779853636508,-0.398436237201458
-0.773581758894286,-0.417226755603181
-0.769529433601521,-0.435601088826952
-0.765632308473183,-0.453546731152139
-0.761899009862965,-0.471052005728547
-0.758337340531793,-0.4881060835978
-0.754954262367659,-0.504699000856169
-0.751755881095333,-0.520821673922249
-0.748747433009986,-0.536465912877201
-0.745933273764256,-0.551624432849445
-0.743316869233647,-0.56629086342016
-0.740900788480504,-0.580459756030285
-0.738686698832101,-0.594126589374161
-0.736675363083601,-0.607287772769497
-0.734866638831929,-0.619940647497763
-0.733259479941756,-0.632083486113712
-0.73185194014007,-0.643715489727183
-0.730641178730971,-0.654836783264905
-0.729623468417626,-0.665448408724467
-0.728794205213536,-0.675552316437137
-0.728147920420623,-0.685151354360596
-0.727678294646976,-0.694249255427063
-0.727378173832532,-0.702850622976605
-0.727239587246458,-0.710960914309681
-0.727253767415555,-0.718586422397146
-0.727411171938703,-0.725734255790055
-0.727701507138108,-0.732412316775588
-0.72811375349398,-0.738629277829323
-0.728636192805291,-0.744394556417866
-0.729256437015354,-0.749718288209516
-0.729961458637254,-0.754611298754182
-0.730737622710535,-0.759085073697134
-0.731570720217131,-0.763151727594485
-0.732446002881227,-0.766823971401335
-0.733348219274631,-0.770115078706497
-0.734261652146311,-0.773038850790494
-0.735170156891961,-0.775609580586096
-0.736057201076938,-0.777842015623138
-0.736905904923488,-0.779751320041572
-0.737699082671041,-0.78135303575877
-0.738419284716368,-0.782663042878988
-0.739048840438614,-0.783697519434526
-0.739569901612705,-0.784472900549634
-0.739964486313246,-0.78500583711945
-0.740214523209954,-0.78531315409732
-0.740301896154733,-0.78541180848473
