0.853856749311295,0.736632024911695
0.844697917061719,0.735308215431558
0.835570292870699,0.733218505337167
0.826462141884239,0.730650888573016
0.817369097689611,0.727712524582696
0.808288549300607,0.72446749155733
0.799218678615671,0.720960408904949
0.790158110736864,0.717225019037749
0.78110575004231,0.713288210442443
0.772060691229753,0.709172200827744
0.763022166116641,0.704895842743777
0.753989509520755,0.700475460931436
0.744962136188499,0.695925418542724
0.735939524531249,0.691258516279343
0.726921204769273,0.686486283361664
0.717906750045856,0.681619195603825
0.708895769610683,0.676666842705385
0.699887903485879,0.67163805915619
0.690882818220195,0.666541028436001
0.681880203458612,0.661383367202561
0.672879769134176,0.656172194208765
0.663881243142358,0.650914187378072
0.654884369394945,0.645615631565363
0.645888906176314,0.64028245889695
0.636894624743381,0.634920283130151
0.627901308124002,0.629534429142809
0.618908750078492,0.624129958419307
0.60991675419642,0.618711691216848
0.600925133106464,0.613284225957077
0.591933707781444,0.607851956281653
0.582942306924049,0.602419086127704
0.573950766421374,0.596989643114398
0.564958928858499,0.591567490480586
0.555966643082989,0.586156337772681
0.546973763813548,0.580759750449076
0.537980151287122,0.575381158540819
0.528985670939644,0.570023864486593
0.519990193116351,0.564691050242262
0.510993592808154,0.559385783750534
0.501995749411114,0.554111024844132
0.492996546506406,0.548869630645645
0.483995871658575,0.543664360518733
0.474993616230144,0.538497880618106
0.465989675210871,0.533372768079653
0.45698394706021,0.528291514886864
0.447976333561661,0.523256531445288
0.438966739687883,0.518270149892949
0.429955073475553,0.513334627171395
0.420941245909101,0.508452147879208
0.411925170812509,0.503624826927368
0.402906764748481,0.498854712013741
0.393885946924364,0.494143785932095
0.384862639104237,0.48949396872943
0.375836765526687,0.484907119723981
0.366808252827807,0.480385039395012
0.357777029969006,0.47592947115439
0.348743028169276,0.471542103008982
0.339706180841567,0.467224569122026
0.330666423532983,0.462978451280874
0.321623693868519,0.458805280277813
0.312577931498087,0.454706537210059
0.303529078046617,0.450683654704474
0.29447707706701,0.446738018072068
0.285421873995772,0.442870966396898
0.276363416111145,0.439083793563594
0.26730165249358,0.435377749227377
0.258236533988413,0.431754039730108
0.249168013170604,0.428213828965623
0.240096044311424,0.424758239197342
0.231020583346969,0.421388351830894
0.221941587848412,0.418105208144296
0.212859016993883,0.414909809977997
0.203772831541898,0.411803120386955
0.194682993806261,0.408786064256712
0.185589467632347,0.405859528885304
0.176492218374716,0.403024364532692
0.16739121287599,0.40028138493927
0.158286419446919,0.397631367814899
0.149177807847607,0.395075055299795
0.140065349269827,0.392613154398506
0.130949016320385,0.390246337388111
0.121828783005502,0.387975242201701
0.112704624716147,0.385800472788105
0.103576518214318,0.383722599448766
0.0944444416202093,0.381742159152584
0.0853083744002484,0.3798596558295
0.0761682973559741,0.378075560643507
0.0670241926137223,0.376390312245741
0.0578760436151014,0.374804317008235
0.048723835108234,0.373317949238876
0.0395675531397432,0.371931551378054
0.0304071850474691,0.370645434177436
0.0212427194538949,0.369459876861277
0.0120741462602722,0.368375127270623
0.00290145664142875,0.367391401990706
-0.00627535695874861,0.36650888646183
-0.0154563008311698,0.365727735073977
-0.0246413800047404,0.365048071245335
-0.033830598248914,0.364469987484922
-0.0430239580756016,0.363993545439443
-0.0522214607404409,0.36361877592446
-0.0614231062434321,0.363345678939975
-0.070628893328937,0.363174223670422
-0.0798388194850452,0.363104348469099
-0.0890528809423029,0.363135960826987
-0.0982710726718041,0.363268937325898
-0.107493388382639,0.36350312357585
-0.116719820518695,0.363838334136539
-0.1259503602548,0.364274352422732
-0.135184997492204,0.364810930593386
-0.144423720853393,0.365447789424243
-0.153666517676203,0.366184618163636
-0.162913374007261,0.367021074371177
-0.172164274594688,0.367956783738978
-0.181419202880093,0.368991339895006
-0.190678140989811,0.370124304188125
-0.19994106972538,0.371355205454342
-0.20920796855323,0.372683539763716
-0.218478815593554,0.374108770147347
-0.227753587608349,0.375630326303791
-0.237032259988587,0.377247604284221
-0.246314806740485,0.378959966155545
-0.255601200470851,0.380766739640684
-0.26489141237146,0.38266721773509
-0.274185412202412,0.384660658298547
-0.28348316827446,0.386746283621194
-0.292784647430224,0.388923279962637
-0.302089815024266,0.391190797062915
-0.31139863490196,0.393547947623992
-0.320711069377109,0.395993806760326
-0.330027079208231,0.398527411416959
-0.339346623573455,0.401147759753441
-0.348669660043953,0.403853810491757
-0.357996144555823,0.406644482226277
-0.367326031380335,0.409518652693582
-0.376659273092449,0.412475157999833
-0.3859958205375,0.415512791803172
-0.395335622795941,0.418630304448377
-0.404678627146013,0.421826402050818
-0.414024779024221,0.425099745526437
-0.423374021983469,0.428448949564226
-0.432726297648683,0.431872581537322
-0.442081545669778,0.435369160348509
-0.451439703671748,0.4389371552055
-0.460800707201696,0.442574984320943
-0.470164489672574,0.4462810135316
-0.479530982303372,0.450053554830604
-0.488900114055501,0.453890864806088
-0.498271811565053,0.457791142978788
-0.507645999070614,0.461752530030469
-0.517022598336265,0.465773105914131
-0.526401528569351,0.469850887836006
-0.535782706332578,0.473983828098227
-0.545166045449928,0.478169811789816
-0.554551456905828,0.48240665431219
-0.563938848736958,0.486692098723801
-0.573328125915976,0.491023812886625
-0.582719190226381,0.495399386395113
-0.592111940127629,0.499816327265775
-0.601506270609477,0.504272058362722
-0.610902073034447,0.508763913531243
-0.620299234967085,0.513289133407681
-0.629697639988568,0.517844860869443
-0.639097167494953,0.522428136083809
-0.648497692477154,0.52703589110807
-0.657899085280407,0.531664943986362
-0.667301211340645,0.536311992280002
-0.676703930894814,0.540973605957941
-0.686107098661617,0.545646219561789
-0.69551056348862,0.55032612354513
-0.704914167960904,0.555009454669113
-0.714317747965563,0.559692185314573
-0.723721132205285,0.564370111544378
-0.733124141652893,0.569038839716872
-0.742526588937061,0.573693771410409
-0.751928277647361,0.578330086367786
-0.761329001544107,0.58294272310462
-0.770728543655154,0.587526356743068
-0.78012667523742,0.592075373525812
-0.789523154575281,0.596583841326539
-0.798917725580523,0.601045475290371
-0.808310116148618,0.605453597493846
-0.817700036212613,0.609801089184069
-0.827087175417488,0.614080333703299
-0.836471200311994,0.618283147571774
-0.845851750918255,0.622400696299648
-0.855228436485958,0.626423390187362
-0.864600830158387,0.630340753420777
-0.87396846215581,0.634141256779525
-0.883330810889603,0.637812099561901
-0.892687291106169,0.641338918615903
-0.902037237623291,0.644705389200636
-0.911379882258416,0.647892658765978
-0.920714319709287,0.650878509603212
-0.93003945435403,0.653636053225629
-0.939353911294704,0.656131547221029
-0.948655872429755,0.658320372181384
-0.957942726772974,0.66013844991557
-0.967210107911633,0.661478620979996
-0.976446280991736,0.662052891430168
0.853856749311295,0.736632024911695
0.844620576231192,0.737206295361868
0.835353195092533,0.738546466426293
0.826066340749314,0.740364544160479
0.816764379614263,0.742553369120834
0.807449922673589,0.745048863116235
0.798124788028847,0.747806406738651
0.788790350577975,0.750792257575886
0.77944770594285,0.753979527141228
0.770097759425728,0.757345997725961
0.760741279209162,0.760872816779963
0.751378930475369,0.764543659562338
0.742011298477946,0.768344162921086
0.732638904805517,0.772261526154501
0.723262219237814,0.776284220042215
0.713881668631553,0.780401768770089
0.704497643737047,0.784604582638564
0.695110504532172,0.788883827157794
0.685720584468177,0.793231318848018
0.676328193900082,0.797639441051493
0.66693362289484,0.802101075015324
0.657537143556979,0.806609542816052
0.648139011974713,0.811158559598796
0.638739469863666,0.815742193237244
0.62933874596692,0.820354829974078
0.61993705725662,0.824991144931455
0.610534609972452,0.829646076624991
0.601131600524844,0.834314804797486
0.591728216285122,0.838992731027291
0.582324636280463,0.84367546167275
0.572921031808179,0.848358792796734
0.563517566981176,0.853038696780075
0.554114399214373,0.857711310383922
0.544711679660204,0.862372924061862
0.535309553599966,0.867019972355501
0.525908160796714,0.871649025233794
0.541911416978962,0.899835460778829
0.506726483690515,0.882947888954286
0.537878772929403,0.894825405763547
0.469432411944026,0.908634395051163
0.502440028171743,0.881576285855524
0.469522408447188,0.898868589076089
0.46012965854594,0.90328552994675
0.405297152724951,0.919306675846631
0.436364820196961,0.957986477875711
0.455764932427413,0.892498570677355
0.422576513769487,0.920515104552048
0.413193174652138,0.924701088243636
0.403811996888911,0.928834028505858
0.409047243816457,0.931753059605282
0.385056467390173,0.936932386311395
0.375682279884612,0.940893773363076
0.366310582375061,0.944794051535776
0.357086676756423,0.902236753283401
0.378756124691709,0.993432597018844
0.38558373704118,0.951215887012724
0.351626281430354,0.955095060020355
0.368194039535792,0.941160312839784
0.286254928583779,1.00997719707385
0.300784490303028,0.970235966777637
0.293782000528425,1.00390908449932
0.324960542798915,0.936880095800438
0.283362332504306,0.935164871130098
0.220661642479599,1.00273763003403
0.215251314196101,0.963874365500252
0.291086985914034,0.98833083836396
0.235406612875383,0.992040434115586
0.226080128363513,0.994831105850106
0.195072156374166,1.00973817521576
0.25423431843681,1.00008398708605
0.210978262221207,1.01554271379587
0.172376780795211,1.04809021280737
0.138064886526079,1.0064339151001
0.164043631703659,0.9812424495862
0.187617927938657,0.963216291516001
0.121350079253135,0.979607375116255
0.142301880691019,1.01601769860677
0.133011668790411,1.01791817670118
0.123725275060044,1.01972495018632
0.114442728308146,1.02143731205764
0.106040811408096,1.05824192456608
0.139096617057896,1.05858660556712
0.134642295354318,1.00726321454061
0.0773515380449394,1.02732971088752
0.0551562987348933,0.990218579032993
0.0339798960150322,1.04739076189685
0.0272481950053051,1.02185975435844
0.0403238423268207,1.03166384197069
0.0310769859957628,1.03250029817823
0.0218341891729516,1.03323712691762
0.0125954658117636,1.03387398574848
0.00336082857435911,1.03441056391913
-0.00586971116174553,1.03484658220532
-0.0150961432978014,1.03518179276601
-0.0243184590086367,1.03541597901597
-0.0335366507381379,1.03554895551488
-0.0427507121953956,1.03558056787276
-0.0519606383515038,1.03551069267144
-0.0611664254370087,1.03533923740189
-0.0703680709399999,1.0350661404174
-0.0795655736048392,1.03469137090242
-0.0887589334315268,1.03421492885694
-0.0979481516757004,1.03363684509653
-0.107133230849271,1.03295718126789
-0.116314174721692,1.03217602988003
-0.12549098832187,1.03129351435116
-0.134663677940713,1.03030978907124
-0.143832251134336,1.02922503948059
-0.15299671672791,1.02803948216443
-0.162157084820184,1.02675336496381
-0.171313366788675,1.02536696710299
-0.180465575295542,1.02388059933363
-0.189613724294163,1.02229460409612
-0.198757829036415,1.02060935569836
-0.207897906080689,1.01882526051236
-0.21703397330065,1.01694275718928
-0.226166049894759,1.0149623168931
-0.235294156396588,1.01288444355376
-0.244418314685943,1.01070967414016
-0.253538548000826,1.00843857895375
-0.262654880950267,1.00607176194336
-0.271767339528048,1.00360986104207
-0.28087595112736,1.00105354852696
-0.289980744556431,0.998403531402593
-0.299081750055157,0.995660551809171
-0.308178999312787,0.992825387456559
-0.317272525486702,0.989898852085152
-0.326362363222339,0.986881795954909
-0.335448548674324,0.983775106363866
-0.344531119528853,0.980579708197567
-0.35361011502741,0.977296564510969
-0.362685575991865,0.973926677144522
-0.371757544851045,0.970471087376241
-0.380826065668854,0.966930876611755
-0.389891184174021,0.963307167114486
-0.398952947791586,0.959601122778269
-0.408011405676213,0.955813949944965
-0.417066608747451,0.951946898269795
-0.426118609727058,0.948001261637389
-0.435167463178528,0.943978379131805
-0.44421322554896,0.939879636064051
-0.453255955213423,0.93570646506099
-0.462295712522007,0.931460347219838
-0.471332559849717,0.927142813332881
-0.480366561649447,0.922755445187473
-0.489397784508248,0.918299876946851
-0.498426297207128,0.913777796617882
-0.507452170784678,0.909190947612434
-0.516475478604805,0.904541130409768
-0.525496296428922,0.899830204328122
-0.53451470249295,0.895060089414495
-0.543530777589542,0.890232768462655
-0.552544605155994,0.885350289170468
-0.561556271368324,0.880414766448915
-0.570565865242102,0.875428384896576
-0.579573478740651,0.870393401454999
-0.588579206891312,0.86531214826221
-0.597583147910585,0.860187035723757
-0.606585403339016,0.855020555823131
-0.615586078186847,0.849815285696218
-0.624585281091555,0.844573891497732
-0.633583124488595,0.839299132591329
-0.642579724796791,0.833993866099601
-0.651575202620085,0.82866105185527
-0.660569682967562,0.823303757801045
-0.669563295493989,0.817925165892787
-0.678556174763429,0.812528578569183
-0.687548460538939,0.807117425861278
-0.696540298101815,0.801695273227466
-0.70553183860449,0.796265830214159
-0.714523239461885,0.790832960060211
-0.723514664786905,0.785400690384786
-0.732506285876861,0.779973225125016
-0.741498281758933,0.774554957922557
-0.750490839804443,0.769150487199055
-0.759484156423822,0.763764633211713
-0.768478437856755,0.758402457444913
-0.777473901075386,0.753069284776501
-0.786470774822799,0.747770728963791
-0.795469300814617,0.742512722133099
-0.804469735139053,0.737301549139302
-0.813472349900636,0.732143887905862
-0.82247743516632,0.727046857185674
-0.831485301291124,0.722018073636478
-0.840496281726297,0.717065720738038
-0.849510736449714,0.712198632980199
-0.85852905621169,0.70742640006252
-0.86755166786894,0.70275949779914
-0.876579041201196,0.698209455410427
-0.885611697797081,0.693789073598086
-0.894650222910194,0.68951271551412
-0.903695281722751,0.685396705899421
-0.912747642417305,0.681459897304114
-0.921808210296112,0.677724507436914
-0.930878080981048,0.674217424784533
-0.939958629370052,0.670972391759167
-0.94905167356468,0.668034027768847
-0.95815982455114,0.665466411004696
-0.96728744874216,0.663376700910305
-0.976446280991736,0.662052891430168
