-0.152602181469105,0.0711889942768261
-0.151104979992753,0.0694521383797371
-0.149493117192481,0.0677758700333717
-0.147768984049606,0.0661656753369931
-0.145935202906494,0.064626948011162
-0.143994623960806,0.0631649802824059
-0.141950321415604,0.061784953898915
-0.139805589290173,0.0604919312898784
-0.137563936896841,0.0592908468809015
-0.13522908398952,0.0581864985777509
-0.132804955590145,0.0571835394304662
-0.130295676499618,0.0562864694896547
-0.127705565500281,0.0554996278665465
-0.125039129257355,0.0548271850081317
-0.122301055927204,0.0542731351984365
-0.119496208480667,0.0538412892967097
-0.11662961775008,0.0535352677229954
-0.113706475209014,0.0533584937012572
-0.110732125494091,0.0533141867698962
-0.107712058678603,0.0534053565691675
-0.104651902308014,0.0536347969146523
-0.101557413207734,0.0540050801655812
-0.0984344690738798,0.0545185518964311
-0.0952890598580506,0.0551773258798357
-0.092127278957409,0.0559832793884536
-0.088955314221668,0.0569380488230352
-0.0857794387888171,0.0580430256735126
-0.0826060017616853,0.0592993528195162
-0.079441418737661,0.0607079211762867
-0.0762921622041118,0.0622693666915117
-0.0731647518122427,0.0639840676981679
-0.0700657445423202,0.0658521426279944
-0.0670017247733575,0.0678734480897605
-0.0639792942705092,0.0700475773160237
-0.0610050621035585,0.0723738589815999
-0.0580856345100028,0.0748513563964897
-0.055227604716343,0.0774788670755228
-0.052437542731269,0.0802549226864941
-0.0497219851245036,0.0831777893780794
-0.0470874248051149,0.0862454684883227
-0.0445403008131457,0.0894556976339968
-0.0420869881384204,0.0928059521806413
-0.0397337875803926,0.0962934470925885
-0.0374869156628771,0.0999151391617904
-0.0353524946174717,0.103667729613765
-0.0333365424494254,0.107547667088486
-0.0314449630996355,0.111551150993553
-0.0296835367163668,0.11567413522647
-0.0280579100501871,0.119912332262409
-0.026573586985481,0.12426121760331
-0.0252359192217733,0.128716034583718
-0.0240500971179307,0.133271799528281
-0.0230211407121402,0.137923307255346
-0.0221538909303711,0.142665136920639
-0.0214530009958215,0.147491658194575
-0.0209229280516288,0.152397037766253
-0.0205679250088837,0.157375246166783
-0.0203920326317336,0.162420064904162
-0.0203990718710935,0.167525093901449
-0.0205926364581946,0.172683759229625
-0.0209760857689061,0.177889321126088
-0.0215525379694479,0.183134882289334
-0.0223248634537868,0.188413396440019
-0.023295678582667,0.193717677138188
-0.0244673397338703,0.199040406846116
-0.0258419376729348,0.204374146225866
-0.0274212922531809,0.209711343660299
-0.0292069474535002,0.21504434498598
-0.0312001667619624,0.220365403426101
-0.0334019289128759,0.22566668971125
-0.0358129239845185,0.230940302375552
-0.0384335498643134,0.236178278215492
-0.0412639090877857,0.241372602898416
-0.0443038060571769,0.246515221707515
-0.0475527446451351,0.251598050409858
-0.0510099261884251,0.256612986233844
-0.0546742478761292,0.26155191894224
-0.0585443015363177,0.266406741986819
-0.0626183728246845,0.27116936373045
-0.0668944408181397,0.275831718722343
-0.0713701780158542,0.280385779012056
-0.0760429507497403,0.284823565487753
-0.0809098200058447,0.289137159224105
-0.0859675426576153,0.293318712825191
-0.0912125731114863,0.297360461747679
-0.0966410653647081,0.301254735589546
-0.102248875474827,0.304993969329587
-0.108031564439702,0.308570714502956
-0.113984401486416,0.311977650298014
-0.120102367766933,0.315207594559808
-0.126380160457821,0.318253514685545
-0.132812197260834,0.321108538397512
-0.139392621300664,0.323765964379003
-0.146115306415622,0.326219272758902
-0.152973862836516,0.328462135430724
-0.159961643248496,0.330488426192057
-0.16707174923012,0.332292230690515
-0.174297038063414,0.333867856162495
-0.181630129908187,0.335209840951255
-0.189063415333423,0.336312963791011
-0.196589063198045,0.337172252844018
-0.204199028872913,0.337782994477851
-0.211885062795461,0.338140741770358
-0.219638719347893,0.33824132273005
-0.227451366049468,0.338080848220006
-0.235314193052928,0.337655719573663
-0.243218222934735,0.336962635891229
-0.251154320768359,0.335998601005765
-0.259113204469462,0.334760930108383
-0.267085455401455,0.333247256022353
-0.275061529229508,0.331455535116322
-0.283031767010753,0.329384052847233
-0.290986406508075,0.327031428923978
-0.298915593714536,0.324396622083207
-0.3068093945752,0.321478934469196
-0.314657806892763,0.318278015610093
-0.322450772403185,0.314793865983356
-0.330178189007178,0.311026840163649
-0.337829923143194,0.306977649546946
-0.345395822287313,0.3026473646451
-0.352865727565191,0.298037416945618
-0.36022948646104,0.293149600331904
-0.367476965608441,0.287986072059747
-0.374598063647572,0.282549353286339
-0.38158272413335,0.27684232914867
-0.388420948478791,0.270868248388652
-0.395102808917822,0.26463072252288
-0.401618461471663,0.258133724555481
-0.407958158902815,0.251381587233058
-0.414112263640663,0.244379000841267
-0.420071260662615,0.237131010543154
-0.425825770314732,0.229643013259904
-0.431366561055754,0.221920754095234
-0.436684562108494,0.213970322305208
-0.441770876002559,0.205798146815823
-0.446616790992464,0.197410991291262
-0.451213793335239,0.188815948756281
-0.455553579411761,0.180020435776725
-0.45962806767613,0.171032186202771
-0.463429410417555,0.161859244479972
-0.466950005319382,0.152509958533807
-0.470182506800028,0.142992972233901
-0.473119837120837,0.133317217444669
-0.475755197246016,0.123491905669658
-0.478082077440095,0.113526519297349
-0.480094267588574,0.103430802456744
-0.481785867227673,0.0932147514915537
-0.483151295269417,0.0828886050622672
-0.484185299408561,0.0724628338859393
-0.48488296519818,0.0619481301239503
-0.485239724781102,0.0513553964285033
-0.48525136526468,0.0406957346590624
-0.484914036726806,0.0299804342803913
-0.484224259841402,0.0192209604542856
-0.483178933112079,0.00842894183751501
-0.481775339703014,-0.00238384190110034
-0.480011153856562,-0.0132054728311538
-0.477884446887527,-0.0240239077649528
-0.475393692744517,-0.0348269915015874
-0.472537773129216,-0.0456024702963354
-0.469315982164944,-0.0563380055406508
-0.465728030606335,-0.0670211876376457
-0.461774049582476,-0.0776395500576856
-0.457454593866367,-0.0881805835584195
-0.452770644664089,-0.0986317505533047
-0.447723611917601,-0.108980499612425
-0.442315336115632,-0.119214280079178
-0.436548089607693,-0.129320556786175
-0.430424577416782,-0.139286824853518
-0.423947937546941,-0.149100624552424
-0.417121740782403,-0.158749556217015
-0.409949989975621,-0.168221295186952
-0.402437118822089,-0.177503606763468
-0.394587990120457,-0.186584361161257
-0.386407893517009,-0.1954515484386
-0.377902542734209,-0.204093293388033
-0.369078072283614,-0.212497870369841
-0.35994103366403,-0.220653718070643
-0.350498391046445,-0.228549454169304
-0.340757516447841,-0.236173889892481
-0.330726184396601,-0.243516044442109
-0.320412566092859,-0.250565159277224
-0.309825223067707,-0.257310712232586
-0.298973100345826,-0.263742431456689
-0.287865519116645,-0.269850309151855
-0.276512168919809,-0.275624615099259
-0.26492309935125,-0.281055909951908
-0.253108711296808,-0.286135058278767
-0.24107974770089,-0.290853241343455
-0.228847283878253,-0.295201969601138
-0.216422717377561,-0.299173094897511
-0.203817757405935,-0.302758822354017
-0.191044413824236,-0.305951721923752
-0.178114985723434,-0.308744739602785
-0.165042049592868,-0.311131208281982
-0.151838447091791,-0.313104858224728
-0.138517272436087,-0.314659827156334
-0.125091859412534,-0.315790669951281
-0.111575768033495,-0.316492367904847
-0.0979827708454083,-0.316760337576081
-0.0843268389048725,-0.316590439189532
-0.070622127436614,-0.315978984583559
-0.0568829611880398,-0.314922744693535
-0.0431238194954943,-0.313418956558733
-0.0293593210777635,-0.31146532984217
-0.0156042085727386,-0.30906005285318
-0.00187333283353652,-0.306201798063048
0.0118183629992763,-0.302889727104517
0.025455859632368,-0.299123495246586
0.039024077943931,-0.294903255336522
0.0525078954799695,-0.290229661201615
0.065892163104692,-0.285103870503791
0.0791617217868597,-0.279527547040751
0.0923014195036974,-0.27350286248795
0.105296128243741,-0.26703249757633
0.118130761089805,-0.260119642701309
0.130790289363059,-0.252767997959206
0.143259759809061,-0.244981772607882
0.155524311806413,-0.236765683949022
0.167569194578644,-0.228124955630144
0.179379784389777,-0.219065315365052
0.190941601703983,-0.209592992072126
0.202240328289677,-0.199714712430487
0.213261824248358,-0.189437696854743
0.223992144948518,-0.178769654889672
0.234417557844914,-0.167718780026896
0.244524559163579,-0.156293743946225
0.254299890432974,-0.144503690185042
0.263730554841768,-0.132358227239753
0.272803833403854,-0.119867421104001
0.281507300911304,-0.107041787248975
0.289828841656148,-0.0938922820518432
0.297756664901992,-0.0804302936789468
0.305279320086728,-0.0666676324310774
0.31238571173775,-0.0526165205587813
0.31906511408138,-0.03828958155627
0.32530718532842,-0.0236998289431615
0.331101981618054,-0.00886065454387829
0.336439970602607,0.00621418372484481
0.341312044656,0.0215105745472941
0.345709533689074,0.0370140663713029
0.349624217555323,0.0527098810277494
0.35304833803096,0.0685829277942141
0.355974610353624,0.0846178178894508
0.358396234304495,0.100798879384754
0.360306904818968,0.117110172517782
0.361700822111565,0.133535505393889
0.362572701301168,0.150058450059478
0.362917781523207,0.16666235893144
0.362731834515925,0.183330381566235
0.362011172668353,0.200045481751734
0.36075265651822,0.216790454904496
0.358953701688522,0.233547945754723
0.356612285252098,0.250300466300738
0.353726951514124,0.267030414014446
0.350296817203046,0.283720090278865
0.346321576061079,0.300351719038473
0.341801502826055,0.316907465642782
0.336737456596991,0.333369455863246
0.331130883576468,0.349719795063329
0.324983819183501,0.365940587501283
0.318298889531312,0.38201395574496
0.311079312265056,0.397922060177733
0.303328896755268,0.413647118574436
0.295052043643464,0.429171425726034
0.286253743737073,0.444477373091585
0.276939576251542,0.459547468455928
0.267115706398207,0.474364355571429
0.256788882317215,0.488910833762032
0.245966431355521,0.503169877467787
0.23465625569071,0.517124655708027
0.222866827302108,0.530758551441318
0.210607182291383,0.544055180800337
0.197886914555584,0.55699841217988
0.184716168816258,0.569572385156241
0.171105633009047,0.58176152921631
0.157066530038882,0.593550582274833
0.142610608906615,0.604924608958428
0.127750135213641,0.615869018635085
0.1124978810518,0.626369583168107
0.0968671142865416,0.636412454373591
0.0808715872420513,0.645984181160848
0.0645255247977209,0.655071726335361
0.047843611906059,0.663662483044201
0.0308409805428058,0.671744290844082
0.013533196100682,0.679305451372609
-0.00406375676110704,0.686334743603567
-0.0219334887988655,0.692821438667528
-0.0400592213844982,0.698755314219383
-0.0584238022096676,0.704126668334883
-0.0770097214793667,0.708926332918657
-0.0957991285796734,0.713145686606666
-0.114773849203827,0.716776667146514
-0.133915402920231,0.719811783239539
-0.153205021165403,0.722244125829123
-0.172623665644366,0.724067378820202
-0.192152047120439,0.725275829215501
-0.211770644575881,0.725864376654616
-0.231459724724367,0.725828542342618
-0.251199361855778,0.725164477355508
-0.270969457993363,0.723868970310437
-0.290749763342882,0.72193945438927
-0.310519897012944,0.71937401370472
-0.330259367985358,0.716171388998948
-0.34994759631393,0.712330982665208
-0.369563934529848,0.707852863083817
-0.389087689231398,0.702737768264435
-0.408498142835532,0.696987108787368
-0.427774575468471,0.690602970037318
-0.446896286972311,0.683588113723789
-0.465842619004366,0.675945978683046
-0.48459297720576,0.667680680957353
-0.503126853415625,0.658797013147931
-0.521423847907101,0.64930044303887
-0.539463691621193,0.639197111490019
-0.55722626837446,0.62849382959765
-0.574691637016408,0.617198075122491
-0.591840053512449,0.605317988185502
-0.608651992928203,0.592862366232595
-0.625108171290989,0.579840658270258
-0.641189567304319,0.566262958374881
-0.656877443891315,0.552139998479352
-0.672153369543005,0.537483140441306
-0.686999239447603,0.522304367398209
-0.701397296376966,0.506616274415238
-0.715330151306637,0.490432058432728
-0.72878080374601,0.473765507520735
-0.741732661755413,0.456630989449046
-0.754169561627121,0.439043439581753
-0.76607578720758,0.421018348106255
-0.777436088838413,0.402571746607344
-0.788235701894097,0.383720193997766
-0.79846036489454,0.364480761817385
-0.808096337171155,0.344871018913843
-0.817130416065409,0.324909015518277
-0.825549953639265,0.304613266730443
-0.833342872877331,0.284002735428206
-0.84049768336105,0.263096814617119
-0.847003496395689,0.241915309236424
-0.85285003957144,0.220478417438509
-0.85802767074047,0.198806711359446
-0.862527391392265,0.17692111739893
-0.866340859410266,0.154842896028438
-0.869460401193301,0.132593621147146
-0.871879023126011,0.110195159005575
-0.873590422383042,0.0876696467175896
-0.874588997052453,0.0650394703818715
-0.874869855564478,0.0423272428344403
-0.87442882541242,0.0195557810544054
-0.873262461153214,-0.00325191675455906
-0.871368051675885,-0.026072694383917
-0.868743626726863,-0.0488832611177887
-0.865387962681894,-0.0716602154843986
-0.861300587555027,-0.0943800692372786
-0.856481785235941,-0.117019271541668
-0.850932598947681,-0.139554233341234
-0.844654833917653,-0.161961351879961
-0.837651059255569,-0.184217035353748
-0.829924609032819,-0.206297727666054
-0.821479582558624,-0.228179933261671
-0.812320843849129,-0.24984024201257
-0.80245402028646,-0.271255354129512
-0.791885500465617,-0.292402105073108
-0.780622431227949,-0.313257490437761
-0.768672713880798,-0.333798690781977
-0.756044999603778,-0.35400309637839
-0.742748684043059,-0.37384833185684
-0.728793901095815,-0.39331228071391
-0.714191515887984,-0.412373109662252
-0.698953116949244,-0.431009292793228
-0.683091007590091,-0.449199635526334
-0.666618196486671,-0.46692329831916
-0.649548387479992,-0.484159820111624
-0.631895968596911,-0.500889141478539
-0.613676000301219,-0.517091627464669
-0.594904202983971,-0.532748090076738
-0.575596943703044,-0.547839810407074
-0.555771222182797,-0.562348560363893
-0.535444656085467,-0.576256623983514
-0.514635465566818,-0.589546818300175
-0.493362457129342,-0.602202513749474
-0.471645006787118,-0.614207654081862
-0.449503042557214,-0.625546775763055
-0.42695702629333,-0.636205026838653
-0.404027934878074,-0.646168185240796
-0.380737240791093,-0.65542267651511
-0.357106892070939,-0.663955590946797
-0.333159291689292,-0.671754700065249
-0.308917276356913,-0.678808472507126
-0.284404094781249,-0.685106089218488
-0.259643385396447,-0.690637457977143
-0.234659153586993,-0.695393227217072
-0.209475748426979,-0.699364799137406
-0.184117838957469,-0.702544342079185
-0.158610390025103,-0.704924802153773
-0.132978637705585,-0.706499914107591
-0.107248064336243,-0.707264211408541
-0.0814443731823861,-0.707213035540279
-0.0555934627626078,-0.706342544491288
-0.0297214008587157,-0.704649720426473
