0.540143340380806,-0.488426456233072
0.538077774613182,-0.486827796151531
0.532255587602936,-0.481631891842538
0.523319454832938,-0.472327629169795
0.512000781047196,-0.458536797934937
0.499093250342832,-0.440028260878226
0.485424181306523,-0.416726899034133
0.471824707416073,-0.388717014252054
0.459099844728989,-0.356240067020876
0.447999512869936,-0.31968682940395
0.439191541365603,-0.279584231718161
0.433237622668094,-0.236577370498656
0.430573068273851,-0.191407317553509
0.43149108892027,-0.144885519397373
0.436132158748164,-0.0978656977377698
0.444478842290375,-0.051214250650599
0.456356268630396,-0.0057802074552485
0.471438235995018,0.0376341938157012
0.489258729560966,0.0783012596275009
0.509228442504855,0.115592937546053
0.530655712171243,0.149002363528798
0.552771126017759,0.178161093567045
0.574754921316674,0.202851406993126
0.595766203101399,0.223013244228325
0.614972940086405,0.238745532775635
0.631581670565684,0.250301855054
0.644865860595065,0.258080613114577
0.654191904720889,0.262610041202741
0.659041843424228,0.264528600556707
0.659031988318831,0.264561455234187
0.653926791811394,0.263493867279366
0.643647467218319,0.26214245921632
0.62827505220695,0.261325367777158
0.608047806237994,0.261832352240568
0.583353034387072,0.264395922364026
0.554713628335924,0.269664514583326
0.522769803383767,0.278178672219208
0.488256681341118,0.290351078469215
0.451978517043777,0.306451153781702
0.414780485698648,0.326594766692231
0.37751903509225,0.35073942513633
0.341031857766037,0.378685120119065
0.30610855177178,0.410080792368135
0.273463014084213,0.444436192388664
0.243708549040573,0.481138712302358
0.217336577494521,0.519474590828378
0.194699704157341,0.558653737050619
0.175999745417197,0.597837289759979
0.161281143302369,0.636166931748325
0.150429999475306,0.672794915931255
0.143178763038737,0.706913734814721
0.139116404627473,0.737784377499007
0.137703713916842,0.764762168681104
0.138293175255919,0.787319270183591
0.140152713125345,0.805063044340419
0.142492461329382,0.817749625877939
0.144493602165481,0.825292219498478
0.145338248105341,0.827763828131124
0.144239301393516,0.825394315075397
0.140469227744841,0.818561904969581
0.13338671897285,0.807779426485433
0.122460294531748,0.793675786836418
0.107288000928914,0.776973337923365
0.0876125068835318,0.758461940186326
0.063331056023903,0.738970647777821
0.0344999219953682,0.719338023335571
0.00133320657451313,0.700382139398053
-0.0358039772149562,0.682871334637661
-0.0764076950839116,0.667496766187505
-0.119852321362481,0.65484773536682
-0.16541199972142,0.645390665343942
-0.212285671475838,0.639452479231386
-0.259624781202045,0.637208970414586
-0.306562674078646,0.638678579153115
-0.352244639132231,0.643721796989534
-0.395857529570547,0.652046220110129
-0.436657906440551,0.663217071658151
-0.473997704419401,0.676672818265135
-0.507346506761419,0.691745324672465
-0.536309637142842,0.707683828721823
-0.560641425070661,0.723681882952617
-0.580253173350088,0.738906303400417
-0.595215544719513,0.752527094704089
-0.605755283447071,0.763747285845801
-0.612246389365438,0.771831614005839
-0.615196059320695,0.7761330350008
-0.615225897295558,0.776116116129954
-0.613049062904829,0.771376478226467
-0.609444172554527,0.761655594346646
-0.605226883158189,0.74685041782459
-0.601220170798234,0.727017496486589
-0.598224363170323,0.702371426106028
-0.596987993400367,0.673277697697182
-0.598180513565814,0.640240192820485
-0.602367840026683,0.603883771597322
-0.609991601835392,0.564932572825824
-0.621352831637798,0.524184798231139
-0.636600680295544,0.48248487803954
-0.655726557583473,0.44069400827987
-0.67856390811412,0.399660108169353
-0.704793630992562,0.360188266570549
-0.73395495075295,0.323012729077721
-0.765461353027282,0.288771422424564
-0.798621018057957,0.257983922554639
-0.832661025008959,0.231033650077611
-0.866754465758211,0.208154926314109
-0.900049503246211,0.189425350068682
-0.931699340202176,0.174763765825407
-0.960892031634338,0.163933894979039
-0.986879080010456,0.156553500084047
-1.00900179537085,0.152108755102984
-1.02671448216723,0.149973309278359
-1.03960362757391,0.149431365137511
-1.04740240835264,0.149703948217935
-1.05,0.149977432459305
-1.04744535693501,0.149433304894128
-1.03994532930599,0.147278109140972
-1.0278571836026,0.142772500833542
-1.01167579347398,0.135258379732449
-0.992015956884091,0.124183131738718
-0.969590469225722,0.109120116921191
-0.945184733089074,0.0897846733206231
-0.919628808659891,0.066045065943252
-0.893767899817415,0.0379279903218134
-0.868432326670402,0.00561843389524312
-0.844408053528296,-0.0305461006628537
-0.822408821504272,-0.0700868053042785
-0.80305087779233,-0.112399811352454
-0.786831201186714,-0.156776891572512
-0.774109998911054,-0.202429883305175
-0.765098097729389,-0.24851796391862
-0.759849678036644,-0.294176808275782
-0.758260609376855,-0.338548590902466
-0.760072446386979,-0.380811765460124
-0.764881942613379,-0.420209562047001
-0.772155743172954,-0.45607618849089
-0.781249732826323,-0.48785980353083
-0.791432350261998,-0.51514144470387
-0.801911038159695,-0.537649237765156
-0.811860886936323,-0.555267382447755
-0.820454451955081,-0.568039595332376
-0.826891682178176,-0.576166887925703
-0.830428894254902,-0.579999759713944
-0.830405760001437,-0.58002508478554
-0.826269345937387,-0.576848159524922
-0.81759434847943,-0.571170551142239
-0.804098803818536,-0.563764536288924
-0.785654712602443,-0.555445040393906
-0.762293200574152,-0.547040077318493
-0.734204030834857,-0.539360742302177
-0.701729484480746,-0.533171827056563
-0.665352826848392,-0.529164103694794
-0.625681769355182,-0.527929264748578
-0.583427515077006,-0.529938411940205
-0.539380133422316,-0.535524860010427
-0.494381139942416,-0.544871868253625
-0.449294256809823,-0.558005736949772
-0.404975394257603,-0.574794514855217
-0.362242920997002,-0.594952364122447
-0.321849281331575,-0.618049427575777
-0.284454968729787,-0.643526847347546
-0.25060578171241,-0.670716400452975
-0.220714171042967,-0.698864052482155
-0.195045341540023,-0.727156591067608
-0.173708602545441,-0.75475039111289
-0.156654274209811,-0.780801287846455
-0.143676258948336,-0.804494494298552
-0.134420185720123,-0.825073498192271
-0.128396836371939,-0.841866909550483
-0.125000375228389,-0.854312303255255
-0.123530732099278,-0.861976207759067
-0.123219341000325,-0.864569528329337
-0.123257317409993,-0.861957855725621
-0.122825070066734,-0.854166293276103
-0.121122292238181,-0.841378630454734
-0.117397263885341,-0.823930892315167
-0.110974420681328,-0.802299494347388
-0.101279207552279,-0.77708442435956
-0.0878593310906863,-0.74898805001414
-0.070401653406348,-0.718790306361152
-0.0487441251626675,-0.687321146568829
-0.0228823321711821,-0.655431236464927
0.00702957830336712,-0.623961936002845
0.0406836252693214,-0.593715636129959
0.0776282081997501,-0.565427506858404
0.117283444780665,-0.539739662072205
0.158961086884019,-0.5171786605389
0.201888306425288,-0.498137143792712
0.245234504975225,-0.482860264249689
0.288140193328946,-0.471437386347491
0.32974691352629,-0.463799355746455
0.369227138689455,-0.459721433368774
0.40581308681933,-0.458831789347791
0.438823423342867,-0.460625253990758
0.467686902354498,-0.46448183567418
0.49196210546919,-0.469689345855394
0.511352576123614,-0.475469325140368
0.525716811079148,-0.481005346802529
0.535072753960186,-0.485472689485762
0.539596631385271,-0.488068322060614
