-0.866549331700847,-0.262717236005371
-0.866475291542013,-0.262714827785276
-0.866252593365608,-0.262716905108008
-0.86588040009718,-0.262737391570749
-0.865357915719654,-0.262790143995943
-0.864684387452894,-0.262888918063847
-0.863859107909225,-0.263047334178002
-0.862881417219981,-0.263278843640629
-0.861750705128209,-0.263596695214304
-0.860466413042701,-0.264013902145337
-0.859028036048599,-0.264543209723327
-0.857435124869887,-0.265197063450089
-0.85568728777921,-0.265987577889843
-0.853784192450499,-0.266926506271002
-0.851725567750055,-0.26802521090822
-0.849511205461821,-0.26929463451155
-0.84714096194271,-0.270745272447529
-0.844614759704018,-0.272387146014939
-0.841932588915054,-0.274229776795683
-0.839094508825337,-0.276282162138823
-0.836100649101798,-0.278552751833295
-0.832951211077676,-0.281049426022174
-0.829646468909917,-0.283779474408545
-0.826186770642104,-0.286749576800205
-0.822572539170128,-0.28996578503738
-0.818804273108011,-0.293433506344573
-0.814882547551511,-0.297157488144474
-0.810808014737326,-0.301141804368593
-0.806581404595951,-0.305389843295924
-0.802203525196457,-0.309904296947546
-0.797675263081688,-0.314687152061569
-0.792997583492585,-0.319739682669327
-0.788171530480608,-0.325062444290118
-0.783198226907433,-0.330655269758167
-0.77807887433134,-0.33651726669188
-0.772814752779977,-0.342646816611725
-0.767407220409365,-0.349041575709442
-0.761857713049311,-0.355698477267564
-0.756167743635587,-0.362613735724538
-0.750338901529497,-0.369782852377084
-0.744372851725671,-0.377200622707729
-0.738271333949188,-0.384861145321846
-0.732036161643331,-0.392757832474922
-0.72566922084952,-0.400883422167215
-0.719172468981216,-0.409229991779458
-0.712547933493763,-0.417788973219823
-0.70579771045241,-0.426551169548973
-0.698923963000922,-0.435506773046726
-0.691928919733435,-0.444645384680616
-0.684814872972371,-0.453956034933523
-0.677584176955476,-0.463427205944477
-0.670239245935189,-0.473046854913807
-0.662782552193757,-0.482802438720996
-0.655216623977688,-0.492680939700844
-0.64754404335528,-0.502668892520997
-0.639767444001157,-0.512752412101378
-0.631889508911863,-0.522917222513775
-0.623912968056726,-0.533148686797605
-0.615840595968335,-0.543431837625813
-0.60767520927708,-0.553751408753009
-0.599419664194352,-0.56409186717612
-0.59107685394907,-0.574437445936283
-0.582649706182316,-0.58477217748924
-0.574141180304933,-0.595079927570229
-0.565554264823026,-0.605344429478233
-0.556891974636347,-0.615549318703517
-0.548157348314623,-0.625678167821604
-0.539353445356896,-0.635714521576215
-0.530483343439005,-0.645641932073299
-0.521550135654328,-0.655443994007985
-0.512556927752927,-0.665104379846216
-0.503506835384241,-0.674606874882932
-0.494402981348418,-0.683935412098889
-0.485248492861407,-0.693074106738682
-0.476046498838846,-0.702007290533126
-0.466800127203746,-0.710719545489931
-0.457512502222933,-0.719195737177564
-0.448186741877101,-0.727421047428305
-0.438825955269286,-0.735381006387795
-0.429433240076442,-0.7430615238398
-0.420011680048736,-0.750448919736544
-0.410564342561036,-0.757529953866706
-0.401094276220959,-0.764291854595095
-0.391604508537716,-0.770722346610069
-0.38209804365584,-0.776809677616973
-0.372577860157748,-0.782542643918204
-0.363046908938921,-0.787910614822988
-0.353508111159317,-0.792903555832536
-0.343964356274468,-0.797512050548986
-0.33441850014953,-0.801727321259369
-0.324873363259351,-0.805541248148753
-0.315331728977455,-0.808946387099812
-0.305796341956612,-0.811935986039159
-0.296269906603469,-0.814503999794046
-0.286755085649517,-0.816645103426331
-0.277254498820428,-0.818354704013988
-0.267770721605593,-0.819628950853914
-0.258306284129459,-0.82046474406325
-0.24886367012605,-0.820859741560056
-0.239445316017793,-0.820812364407715
-0.230053610099583,-0.82032180051113
-0.220690891828743,-0.81938800665642
-0.211359451221326,-0.818011708889504
-0.202061528354961,-0.816194401232662
-0.192799312978212,-0.813938342741844
-0.183574944226165,-0.811246552911219
-0.174390510441756,-0.808122805435077
-0.165248049102087,-0.804571620340903
-0.156149546848755,-0.800598254511031
-0.147096939621003,-0.796208690613881
-0.138092112890254,-0.791409624469304
-0.129136901994378,-0.786208450876068
-0.120233092569821,-0.780613247932896
-0.111382421079507,-0.774632759887865
-0.102586575434218,-0.768276378554192
-0.0938471957049523,-0.761554123333668
-0.0851658749235527,-0.754476619892053
-0.0765441599687243,-0.747055077533777
-0.0679835525343538,-0.739301265326154
-0.0594855101768765,-0.731227487026101
-0.0510514474382658,-0.722846554865025
-0.0426827370410512,-0.714171762250064
-0.0343807111516209,-0.705216855442263
-0.0261466627079159,-0.695996004274575
-0.0179818468074883,-0.686523771974654
-0.00988748215176588,-0.676815084159445
-0.00186475254224783,-0.666885197070366
0.00608519157575282,-0.656749665119591
0.0139612315263011,-0.646424307819452
0.0217622787775399,-0.635925176168358
0.0294872732825429,-0.625268518567798
0.0371351817910392,-0.614470746346076
0.0447049961367806,-0.603548398965246
0.0521957315053719,-0.59251810898844
0.0596064246874125,-0.5813965668853
0.066936132321829,-0.570200485753561
0.074183929134286,-0.558946566035026
0.081348906175565,-0.54765146030416
0.0884301690647888,-0.536331738207376
0.0954268362423551,-0.525003851630706
0.102338037237399,-0.513684100173079
0.109162910954576,-0.502388597001682
0.115900603984885,-0.491133235165052
0.122550268945203,-0.479933654438512
0.129111062851126,-0.468805208775343
0.135582145527597,-0.457762934435758
0.141962678061756,-0.446821518864181
0.148251821302297,-0.435995270383696
0.154448734409517,-0.425298088774667
0.160552573460122,-0.414743436802549
0.166562490110706,-0.404344312757819
0.172477630323703,-0.394113224068629
0.178297133159408,-0.384062162044438
0.184020129637569,-0.37420257780631
0.189645741671822,-0.364545359456917
0.195173081080112,-0.355100810540525
0.200601248674021,-0.345878629840344
0.205929333429769,-0.336887892557612
0.211156411743431,-0.328137032913737
0.216281546772719,-0.319633828213593
0.221303787867485,-0.311385384404819
0.226222170090857,-0.303398123164625
0.231035713832736,-0.29567777054219
0.235743424517145,-0.288229347181256
0.240344292404682,-0.281057160143986
0.24483729249114,-0.274164796353594
0.249221384503087,-0.267555117669608
0.253495512990993,-0.261230257605999
0.25765860752024,-0.255191619698722
0.261709582960144,-0.249439877525548
0.265647339870833,-0.243974976377354
0.269470764987657,-0.238796136576347
0.273178731802516,-0.233901858433041
0.276770101241283,-0.229289928830116
0.28024372243627,-0.224957429417675
0.283598433592459,-0.22090074640079
0.286833062945964,-0.217115581896699
0.289946429813019,-0.213596966835494
0.292937345727516,-0.210339275374677
0.295804615664947,-0.207336240794618
0.298547039350349,-0.204580972838597
0.30116341264769,-0.202065976457918
0.303652529027912,-0.199783171919423
0.306013181112649,-0.197723916229709
0.308244162290462,-0.195879025827389
0.310344268402266,-0.194238800491927
0.312312299492415,-0.192793048414844
0.314147061621791,-0.191531112376501
0.315847368739051,-0.190441896969202
0.317412044606057,-0.189513896805014
0.318839924773382,-0.188735225644508
0.320129858601623,-0.188093646380559
0.321280711324176,-0.187576601809456
0.322291366146984,-0.187171246119783
0.323160726380675,-0.186864477027966
0.32388771760044,-0.186642968487896
0.32447128982888,-0.186493203900797
0.324910419737022,-0.186401509750367
0.325204112858618,-0.186354089587275
0.325351405812806,-0.186337058286321
0.325351368530178,-0.186336476498961
0.325203106477256,-0.186338385223452
0.324905762874391,-0.18632884041463
0.324458520902066,-0.186293947555217
0.323860605890616,-0.186219896110676
0.323111287488391,-0.186092993789865
0.322209881803403,-0.18589970053419
0.32115575351356,-0.185626662158561
0.319948317940632,-0.185260743568238
0.318587043083158,-0.184789061476594
0.317071451603574,-0.184199016549951
0.31540112276494,-0.183478324906909
0.313575694312709,-0.182615048901053
0.311594864297127,-0.181597627117507
0.309458392831934,-0.18041490351556
0.30716610378517,-0.179056155651528
0.304717886398035,-0.177511121918026
0.302113696827884,-0.175770027738062
0.299353559611588,-0.17382361065468
0.296437569045662,-0.171663144259361
0.293365890479729,-0.169280460904967
0.290138761520041,-0.166667973151757
0.286756493140013,-0.163818693897816
0.283219470694855,-0.160726255148178
0.279528154837631,-0.157384925379989
0.275683082334257,-0.153789625464163
0.271684866775164,-0.149935943107235
0.267534199181558,-0.145820145780419
0.263231848504441,-0.141439192106245
0.258778662014774,-0.136790741676617
0.25417556558338,-0.131873163279632
0.249423563849436,-0.126685541516052
0.24452374027662,-0.121227681789939
0.239477257096206,-0.115500113661565
0.234285355136675,-0.109504092554417
0.228949353539589,-0.103241599811754
0.223470649361776,-0.0967153411018828
0.217850717064058,-0.0899287431750215
0.212091107887035,-0.0828859489782785
0.206193449114645,-0.0755918111389766
0.200159443226472,-0.0680518838301788
0.193990866940004,-0.0602724130359012
0.187689570144274,-0.0522603252370776
0.181257474726536,-0.0440232145428679
0.174696573293881,-0.0355693282953867
0.168008927791875,-0.0269075511793417
0.161196668022561,-0.0180473878714119
0.154261990064347,-0.00899894426747397
0.147207154596526,0.000227092671042539
0.14003448513136,0.00961947640729138
0.132746366156867,0.0191664236082719
0.125345241193629,0.0288556381629587
0.117833610769115,0.0386743363862726
0.11021403031319,0.0486092733532053
0.102489107978656,0.058646770304878
0.0946615023907935,0.0687727430659137
0.0867339203300576,0.0789727314102396
0.0787091143521993,0.0892319293102955
0.0705898803502071,0.0995352160026582
0.0623790550626004,0.109867187801248
0.0540795135326995,0.120212190587608
0.0456941665236045,0.130554352906223
0.0372259578937003,0.140877619591492
0.0286778619375868,0.151165785851742
0.0200528806973915,0.161402531734696
0.0113540412494939,0.171571456897868
0.0025843929717223,0.18165611560674
-0.00625299520387623,0.191640051883003
-0.0151550375475671,0.201506834724826
-0.024118634292623,0.211240093320924
-0.0331406743950509,0.220823552180234
-0.0422180382872156,0.230241066099113
-0.0513476006202606,0.239476654888422
-0.0605262329902505,0.248514537783278
-0.0697508066430027,0.257339167459034
-0.0790181951526416,0.265935263577877
-0.0883252770689536,0.274287845791456
-0.097668938528718,0.282382266126184
-0.107046075826263,0.290204240679208
-0.116453597938598,0.297739880554558
-0.125888429000575,0.304975721970683
-0.135347510725661,0.311898755472411
-0.144827804768008,0.31849645418235
-0.154326295021672,0.324756801028895
-0.163839989852949,0.330668314890248
-0.173365924261969,0.336220075596295
-0.182901161969842,0.341401747732696
-0.19244279742782,0.346203603194211
-0.201987957745122,0.350616542437065
-0.211533804532245,0.354632114383048
-0.22107753565679,0.35824253493102
-0.230616386909006,0.361440704034619
-0.240147633574483,0.364220221308126
-0.249668591911624,0.36657540012572
-0.259176620531739,0.368501280182725
-0.268669121679816,0.369993638490826
-0.278143542414272,0.371048998782758
-0.287597375684183,0.371664639305483
-0.297028161302734,0.371838598984447
-0.306433486815877,0.371569681945147
-0.315810988265389,0.370857460381889
-0.325158350845776,0.369702275767267
-0.334473309454713,0.36810523839962
-0.343753649136922,0.366068225289393
-0.352997205421649,0.363593876389024
-0.362201864554133,0.360685589174671
-0.371365563621668,0.357347511591751
-0.380486290575155,0.353584533379904
-0.389562084147189,0.349402275796584
-0.39859103366803,0.344807079762073
-0.407571278780975,0.339805992452174
-0.416501009058923,0.334406752368333
-0.425378463524073,0.328617772918308
-0.434201930072991,0.322448124543796
-0.442969744809416,0.3159075154347
-0.451680291287413,0.309006270872806
-0.460331999667676,0.30175531125074
-0.46892334578997,0.294166128814962
-0.477452850164862,0.286250763184447
-0.48591907688811,0.278021775699369
-0.494320632481198,0.269492222656732
-0.502656164661695,0.260675627492366
-0.510924361047269,0.251585951971018
-0.519123947797292,0.242237566448497
-0.527253688196154,0.232645219271876
-0.535312381182492,0.222824005385665
-0.543298859828665,0.212789334213633
-0.551211989774914,0.202556896887562
-0.559050667622731,0.192142632895652
-0.566813819292049,0.181562696224587
-0.574500398346938,0.170833421070401
-0.582109384294554,0.159971287194195
-0.589639780862127,0.14899288499959
-0.597090614256844,0.137914880409371
-0.604460931413474,0.12675397961921
-0.611749798234628,0.115526893806674
-0.618956297828542,0.104250303873732
-0.626079528749273,0.0929408253009527
-0.63311860324417,0.0816149731913004
-0.640072645513468,0.0702891275810027
-0.646940789986824,0.0589794990943473
-0.653722179621525,0.0477020950185262
-0.660415964227094,0.0364726858736346
-0.667021298820904,0.0253067725518879
-0.673537342019358,0.0142195540987775
-0.679963254469086,0.00322589620747871
-0.686298197322513,-0.00765969950376919
-0.69254133076205,-0.0184231253633983
-0.69869181257702,-0.0290506966012819
-0.704748796797322,-0.0395291793225989
-0.710711432387679,-0.0498458174389654
-0.716578862006184,-0.0599883584974213
-0.722350220830682,-0.0699450783502633
-0.728024635456382,-0.079704804611354
-0.733601222867909,-0.0892569388472308
-0.739079089488816,-0.0985914774541778
-0.744457330311424,-0.107699031175368
-0.74973502810962,-0.116570843215211
-0.754911252737078,-0.125198805911201
-0.759985060513145,-0.133575475926765
-0.764955493698433,-0.141694087931936
-0.769821580061938,-0.149548566742045
-0.774582332541287,-0.157133537888084
-0.779236748997492,-0.164444336595888
-0.783783812065379,-0.171477015154852
-0.788222489100595,-0.178228348660497
-0.792551732223906,-0.184695839118817
-0.796770478463236,-0.190877717904038
-0.800877649993684,-0.196772946565052
-0.804872154475506,-0.202381215979529
-0.808752885489814,-0.207702943858364
-0.812518723071542,-0.212739270606818
-0.816168534338929,-0.217492053552395
-0.819701174218616,-0.221963859553117
-0.82311548626517,-0.226157956003516
-0.826410303573628,-0.230078300259209
-0.829584449783459,-0.233729527504467
-0.832636740172082,-0.237116937090681
-0.835565982835886,-0.240246477377023
-0.838370979956488,-0.243124729107954
-0.841050529149737,-0.245758887365508
-0.843603424894779,-0.248156742137451
-0.84602846004033,-0.250326657545516
-0.848324427385051,-0.252277549780907
-0.850490121328816,-0.254018863797138
-0.85252433959141,-0.255560548813078
-0.854425884995089,-0.256913032681696
-0.856193567307234,-0.258087195182561
-0.857826205139199,-0.259094340298543
-0.859322627897299,-0.259946167539423
-0.860681677781758,-0.26065474237727
-0.861902211829312,-0.261232465860401
-0.862983103995026,-0.26169204347459
-0.863923247268827,-0.262046453321872
-0.86472155582209,-0.262308913688802
-0.865376967179607,-0.262492850077404
-0.865888444412119,-0.262611861773233
-0.86625497834459,-0.262679688026016
-0.866475589775303,-0.26271017391919
-0.866549331700847,-0.262717236005371
