0.824220446443742,-0.474178970369787
0.866687874604259,-0.470716889509357
0.866345570405168,-0.470517654872556
0.852290702823515,-0.485396795176478
0.837664146129715,-0.441242018934708
0.864073651551246,-0.468871470832039
0.895963546286527,-0.437737259560673
0.861630766533593,-0.466681903638109
0.899778730294738,-0.487396196976251
0.858545907849685,-0.463420279059368
0.841754593027318,-0.502242954799027
0.854903144638236,-0.458923738035515
0.847304075308683,-0.459628872224008
0.844808144764346,-0.47802138721518
0.881321848473479,-0.40782038386158
0.826988216413261,-0.433448031057369
0.843879377307804,-0.441288976987373
0.841420887236367,-0.436528183065228
0.886343701242738,-0.440543935965443
0.827534334268357,-0.461386931255329
0.833691260857009,-0.419506213565124
0.869027282266485,-0.386345435724655
0.822407807258309,-0.451434176713875
0.825586521232624,-0.398113315353538
0.845829785451433,-0.346439902290137
0.820061804070079,-0.38128646115877
0.82199504837517,-0.408202513120664
0.832914952944319,-0.328317756052331
0.81511868119525,-0.302831405913091
0.808906882716638,-0.34122195529318
0.774280848192984,-0.314280106775801
0.803338411603022,-0.317920153472553
0.800566001752965,-0.305446942297592
0.785235667388222,-0.328441453914191
0.780221595773318,-0.291543613065785
0.792313574869379,-0.264756606597439
0.763482182688214,-0.272268197039118
0.773359499603835,-0.269214701500253
0.752391568947419,-0.24347413923429
0.781467748636045,-0.203039815780611
0.778777795712601,-0.186325759753714
0.811507428792832,-0.134521687139882
0.820613797434342,-0.158863413496618
0.772864225248182,-0.137265733888561
0.727841230221656,-0.118767094891256
0.748741588683064,-0.0818929529772658
0.807676488700868,-0.116885236600471
0.778553819173837,-0.0937302457998455
0.718062558865136,-0.0213716088719115
0.754305652934457,-0.0152921381508608
0.751468913301946,0.00570818593745818
0.748586341805121,0.0270385037044343
0.70268929492369,0.0235218038576782
0.783707712272681,0.0395142976907335
0.766820638488258,0.0972508670160386
0.749379186588379,0.0893593767043685
0.759349830170646,0.105936467027869
0.738815718178378,0.167085118759726
0.683385039527271,0.225170424918895
0.739382653678081,0.158929480056357
0.691705173209491,0.203003816238531
0.682210792175958,0.245400336701437
0.712519182654192,0.288154208064793
0.737202240561001,0.298056196833488
0.683671940129952,0.33183899632298
0.703607659111271,0.363497730462868
0.68796803587708,0.361903632675384
0.715383748099345,0.401688643351908
0.72893922001326,0.438153484542175
0.670584575203736,0.485081608137455
0.673975722842143,0.462618569403792
0.668355064946833,0.485268776873005
0.65392070517929,0.479419088277209
0.630254448351208,0.553211835564673
0.681206140251506,0.523336254792569
0.630556553127076,0.592398157347973
0.661821962771387,0.607196451818321
0.629357987711631,0.615576005809234
0.628598561859553,0.621766261920143
0.626865291991082,0.669276393186853
0.644508555345617,0.631106102138387
0.591836776694373,0.694138984489465
0.568882039763502,0.698336516197625
0.594309551133583,0.714628434568352
0.536549878617553,0.785778553311363
0.574104337399292,0.800253303505373
0.568232467593893,0.779883309065865
0.54069164451052,0.800103837382717
0.52038228094065,0.857022805182356
0.506030987350208,0.860984637233323
0.504838855266483,0.88037948136412
0.477717851231334,0.908098595170134
0.449416336615231,0.838522393927133
0.471255419664939,0.883865251234042
0.462465816587476,0.861466616499584
0.445260634856656,0.906553539981581
0.425722452697985,0.950442000007234
0.434508345346739,0.923920408709081
0.40359363929169,0.935414869791286
0.402986964191865,0.910645553912451
0.385892163318163,0.975861499150945
0.334223598520957,0.908667775579636
0.391920179894488,0.98718549072885
0.327164323296957,0.96940200834668
0.330112329647897,1.00237909530763
0.294242014259728,0.978028519743207
0.254650529078563,0.998389115980101
0.251708321693424,1.02523133016723
0.276887038402873,0.96765077265566
0.224636301931733,0.986899562570753
0.20649699604436,0.987409902168157
0.229906605998097,0.971682705572444
0.16939643084302,0.986446358383712
0.150455421641003,0.984995370123234
0.108652559855296,1.01720263907444
0.111846309647928,0.980220065918507
0.0914926400194525,1.02591310185878
0.0681442200416476,0.955612744681717
0.00837059165543583,1.01584253612948
0.0741817573629534,0.96609869414605
-0.0271681863308944,0.988510185175755
-0.00892464388139838,0.952036947532883
0.0164472952324272,0.928962108039977
-0.0504763956340465,0.938505647187658
-0.068575094522951,0.952807492105712
-0.0924850360672231,0.923177353423095
-0.160085267070371,0.89234392295782
-0.134829499434032,0.906230063946923
-0.156088886663773,0.897207108111471
-0.216811842699349,0.85278752763047
-0.230788708184668,0.881075138852863
-0.185714380435917,0.842304168805956
-0.261734931551957,0.813535218578949
-0.262621783730257,0.847561507561148
-0.248323662276808,0.84431280868042
-0.329703263515367,0.819762796203479
-0.294387681997514,0.799950302022067
-0.347164581179637,0.803890998405065
-0.373904960443589,0.766141867421715
-0.347548880138048,0.774833657797816
-0.360868350597994,0.726839753149629
-0.40400698364688,0.727610286532286
-0.450305661760398,0.74696737046011
-0.512050816235647,0.7756721730091
-0.518283458011145,0.721252984380497
-0.460580063206923,0.678633655947912
-0.563225633433792,0.687451744441811
-0.524084067857715,0.697486848303692
-0.569530873244329,0.661438092945881
-0.586546028132659,0.668226963513252
-0.637138342000218,0.706754489156115
-0.578938681746595,0.619537576073016
-0.640972909874103,0.636434783670294
-0.702699376973614,0.642254519204598
-0.660094531209891,0.566563590646539
-0.709357333824337,0.646493308763217
-0.711597234848952,0.615360338387531
-0.691161909404783,0.539927259426639
-0.724262483034334,0.600166386750882
-0.738672048058848,0.53552011460819
-0.771402496988754,0.561983813547574
-0.796059030866023,0.533506460625716
-0.791531117640222,0.500392351529888
-0.814098417714225,0.538911212315995
-0.827521222115193,0.531877921702768
-0.867325447898602,0.478422147860232
-0.892354272684636,0.562924973953642
-0.865295780907531,0.512815694274946
-0.899315334958608,0.517158193935936
-0.888367071865015,0.501826399615567
-0.933255090944539,0.538861497915714
-0.905580577477216,0.481918903361804
-0.905853099563368,0.502025467693435
-0.975664887159626,0.451775564531383
-0.969560225076545,0.47208323114809
-0.947312505548154,0.476992357436524
-0.986875110566673,0.453520105298049
-0.963550956622321,0.471293585147248
-0.986240448359449,0.467861127032788
-0.938484320319033,0.449493498299308
-1.02104028637771,0.482579527999641
-0.970547366132333,0.430753101742531
-1.03054830650855,0.416345167121147
-1.04531276501681,0.481605343874759
-1.04812480310446,0.494635365526124
-1.00993377538751,0.447092323192471
-1.01642479172362,0.458832554819078
-0.976191439797888,0.459125614213859
-1.0334443195646,0.477969060612248
-1.0497850356154,0.44871814541693
-1.03736177753845,0.421588259126185
-1.00006088455078,0.488264095466683
-1.03487521497635,0.458665868285699
-1.03984274977793,0.437043982389136
-1.07981431253608,0.460059491894447
-0.99547763707244,0.427526122232104
-1.03676904248502,0.479628960473719
-1.04151850385882,0.460044974487328
-1.06200389947792,0.507776073989308
-1.0422566859464,0.460333545559031
-0.996083953533083,0.499372013219757
-1.04202635283131,0.460205059226767
-1.04157527305721,0.459928580381783
-1.03482786919419,0.431475588687193
-1.07191835207269,0.460839844464338
-1.00651172007739,0.461666273413856
-1.0377871014946,0.456892453076545
-1.01266103280691,0.41457779453266
-1.04352654643471,0.454114975298011
-1.08079835069143,0.408119139380327
-1.00357042517643,0.455054858080271
-1.02939696733477,0.447157489380514
-1.0074553478338,0.425580500233143
-0.986258545639663,0.426701223648787
-1.02291024208241,0.437192681138011
-1.02291080014559,0.411035227797407
-1.02188172422077,0.465203221202651
-0.985768923906829,0.392852926332287
-1.01004432854049,0.426255923846239
-1.04425320403434,0.394722159133055
-1.01103260063933,0.361280738906999
-0.982869559597374,0.445143515237235
-1.00243768406122,0.391563978492831
-0.999694010363686,0.383671894757423
-1.00951819464291,0.36037984632451
-1.02958318982447,0.335791951750174
-0.991367636940698,0.356844709751416
-0.988576491199614,0.346831096781726
-0.943428524208621,0.368932755895618
-1.00254848770897,0.360099596096231
-0.980210048789735,0.313520391204735
-0.995814300457146,0.350930643297283
-0.974665626127327,0.288574280467867
-0.981866477372681,0.260132077319279
-0.939680049348297,0.27058935805083
-0.983548869984116,0.263284534658788
-0.963708930808237,0.232164202578694
-0.960998255007324,0.216730150782149
-0.958297248715282,0.200777254961617
-0.932704381581987,0.13511441562188
-0.983439339695202,0.188336987472726
-0.950197358837398,0.12670690507484
-0.941577176454581,0.08951996024155
-0.944858383671779,0.113582611776757
-0.942161229429492,0.09474385528992
-0.939451209967967,0.0754722842994826
-0.938740181055297,0.0702264991953024
-0.887167781739113,-0.000664268295632736
-0.946257413310484,0.0317197104583383
-0.928374667968682,-0.00559628835505151
-0.934615345030827,0.0150937484279775
-0.922607719573924,-0.0482515335148067
-0.919642757764681,-0.0700361726466237
-0.948948758828299,-0.0827719318694177
-0.9572372531793,-0.0876815882660204
-0.894147884631096,-0.106953022996732
-0.867056971969061,-0.131235866186844
-0.949745549138766,-0.209786996900388
-0.902827962177093,-0.191831002675926
-0.896615276453531,-0.228862101580445
-0.892896032059671,-0.252153571894728
-0.894732601174943,-0.240412690008219
-0.934717963077826,-0.314730044227965
-0.8808893156595,-0.322344953310635
-0.834299310645231,-0.369913277976122
-0.83133577755733,-0.349937075307436
-0.91297382801708,-0.422649149747007
-0.86253757249154,-0.415636356480145
-0.857466349804802,-0.438719175963569
-0.882277323895209,-0.494264105688025
-0.805327121271349,-0.456614767860536
-0.806400777787775,-0.549207706631434
-0.832115488703803,-0.500054510236166
-0.824718212165104,-0.56841142710971
-0.822245223088059,-0.573052761457351
-0.822252786474569,-0.612662362763387
-0.815651999667709,-0.644725170543198
-0.775130513216538,-0.674231014293269
-0.795904477351193,-0.701454305876004
-0.785637713910003,-0.676592458824891
-0.777427358183899,-0.696078691501225
-0.816779116877638,-0.673242061667093
-0.748615294615932,-0.686798966877701
-0.716567167625078,-0.797570631665106
-0.741396556191073,-0.769187059711325
-0.779777977633353,-0.803815278210788
-0.72541345409616,-0.835140509109173
-0.710871549088615,-0.818370462489365
-0.712407344623386,-0.839408353376375
-0.708156077058708,-0.862599829360388
-0.677219618330306,-0.862179095293538
-0.66529446005747,-0.875517524569831
-0.607610797466058,-0.869800635321651
-0.640373015134379,-0.900222339767506
-0.614582686393473,-0.942510691704718
-0.575946758353794,-0.877645188444673
-0.597921870736229,-0.916061509043594
-0.582273419008797,-0.928063094672701
-0.57182166488525,-0.950042587861175
-0.557051025223749,-0.957905839476348
-0.539539522303426,-0.935883887735396
-0.538511664304307,-0.990612759900158
-0.510671946466796,-0.977233640274531
-0.492785271857759,-0.982287797044525
-0.433687686387572,-0.982691276222283
-0.50894462031193,-1.03774009704166
-0.444193583139377,-0.993083355985583
-0.426787168928035,-0.995296767639726
-0.409081129386655,-0.996822720616113
-0.424645455632073,-1.0088140848562
-0.372804854120638,-0.997845853090371
-0.314023369854121,-0.967573659363843
-0.383864538593709,-1.04119449766887
-0.325876951051474,-0.96233009727584
-0.297068001754856,-0.99207446143241
-0.277533052775295,-0.989077298038581
-0.278438865430696,-0.976616019330427
-0.238901855415783,-1.01421147832514
-0.248540765414701,-1.00138579156068
-0.197350947420544,-0.971335190919145
-0.200487804864352,-0.919401517861338
-0.156218815641046,-0.959262813311924
-0.182366819284777,-0.988754941757515
-0.114541707618156,-0.945266067668574
-0.0935354943317947,-0.937599136784897
-0.0756438352815266,-0.941678905595986
-0.0776091596101677,-0.905903176895426
-0.0175933557275712,-0.888482208318087
-0.0125918236541416,-0.859909471035753
0.012560412996551,-0.893483781251986
0.00714211052394405,-0.836286177614034
0.0311250623304683,-0.873697120855209
0.0834099643775297,-0.826741597805037
0.0778021422062942,-0.90258003522686
0.147451780278782,-0.871682920623287
0.0949380449012373,-0.861720672467546
0.161187860085919,-0.81991103714919
0.228793442652837,-0.794875208567914
0.220944675909427,-0.756532946032589
0.205843438945068,-0.82024508426638
0.244280455475292,-0.774587286675743
0.241551861518601,-0.751467493030416
0.330282106733964,-0.7084973148056
0.325220853626844,-0.732214851918287
0.310231759744736,-0.722539931846511
0.363529659455862,-0.709365706223353
0.322828018168852,-0.710346069650226
0.342598657864854,-0.744503851795837
0.401710539751985,-0.674292640352845
0.420320280568768,-0.673247127889109
0.446711728413777,-0.638099661026715
0.497067197256522,-0.643518706409375
0.474292386112949,-0.641739038209834
0.491651746451495,-0.631652218576871
0.548525473100703,-0.637321255762017
0.507840158944244,-0.623362424883621
0.541686211945649,-0.602857564089171
0.517905708031355,-0.614958382832752
0.551652779395638,-0.56062344435526
0.588458121665379,-0.576538918580851
0.554730743296025,-0.604702153367608
0.613071222648009,-0.51430601344558
0.661291033906561,-0.571500037550783
0.628223045819765,-0.57343183676252
0.693198089367118,-0.531025311215049
0.642743218420517,-0.558833899205138
0.65264338475295,-0.489552128004844
0.700509535620893,-0.507829756422783
0.707276944044184,-0.514875349436181
0.718056202636804,-0.483643198876394
0.729067307598369,-0.504917342868226
0.770540440921211,-0.478885556494727
0.710132908276511,-0.484065558986689
0.778197051527053,-0.467430431018781
0.75574040505732,-0.523255426344251
0.776048450758616,-0.485883490689957
0.784167321969894,-0.483035258717052
0.791865671916147,-0.480487440297896
0.750646280605584,-0.515610347544074
0.823199727568325,-0.493147003868869
0.821236920226737,-0.514126150413397
0.836914019180784,-0.482875878300293
0.785498494188769,-0.436307735769737
0.829452414390606,-0.470868634478826
0.819083997806659,-0.448959972425496
0.838832265187085,-0.469492326178845
0.842961190115122,-0.469076138176427
0.878051784056032,-0.516133110227225
0.871839338750432,-0.497275237399414
0.882918902946242,-0.422236725560181
0.85592173624598,-0.468800628179407
0.855353924839508,-0.473433497625934
0.869868240059744,-0.516225216478813
0.835278313525746,-0.469184340098318
0.857722100862495,-0.424008019794999
0.864795257280474,-0.470093135964639
0.88181746070161,-0.439018807962254
0.883332354190802,-0.422816534661655
0.866684239009624,-0.470724343583004
0.864265339658956,-0.428104077164258
