0.152232596059968,-0.124630850516223
0.154368588641915,-0.127127027148985
0.156639506639733,-0.129567909897814
0.159043929337357,-0.131947463996628
0.161580189394825,-0.134259691110914
0.164246373790418,-0.136498638895562
0.167040325120454,-0.138658410527711
0.169959643256043,-0.140733174201539
0.173001687355645,-0.142717172571976
0.176163578231787,-0.144604732134326
0.179442201069849,-0.146390272526875
0.182834208496366,-0.148068315743605
0.186336023993805,-0.149633495244219
0.189943845658355,-0.151080564948816
0.193653650296783,-0.152404408104629
0.197461197857971,-0.15360004601242
0.201362036194303,-0.154662646600236
0.205351506147634,-0.155587532832431
0.209424746954111,-0.156370190942018
0.213576701961738,-0.157006278474628
0.217802124654097,-0.157491632132553
0.222095584973272,-0.157822275407587
0.226451475934577,-0.157994425991629
0.230864020525324,-0.158004502954243
0.235327278879446,-0.157849133676667
0.239835155719445,-0.157525160532049
0.244381408056726,-0.157029647301951
0.248959653141051,-0.156359885319523
0.253563376649486,-0.155513399330039
0.25818594110486,-0.154487953059836
0.262820594513476,-0.153281554485041
0.267460479211426,-0.151892460791838
0.27209864090865,-0.150319183020398
0.276728037919507,-0.148560490384967
0.281341550568416,-0.146615414263012
0.28593199075881,-0.144483251846722
0.290492111693461,-0.14216356945057
0.295014617733922,-0.139656205469077
0.299492174386699,-0.136961272979321
0.303917418403486,-0.134079161983202
0.308282967982668,-0.131010541284897
0.312581433059085,-0.127756359999394
0.316805425668912,-0.124317848688467
0.320947570376364,-0.120696520120889
0.325000514748808,-0.116894169654177
0.328956939866764,-0.112912875235617
0.332809570855178,-0.108754997020805
0.336551187422265,-0.104423176608408
0.340174634392195,-0.0999203358903562
0.343672832217813,-0.095249675517133
0.34703878745958,-0.0904146729783429
0.350265603216927,-0.0854190802992126
0.353346489498189,-0.0802669213541728
0.356274773515349,-0.074962488799162
0.359043909889847,-0.0695103406247754
0.361647490755764,-0.0639152963328762
0.364079255746789,-0.0581824327397693
0.36633310185346,-0.0523170794095193
0.368403093137281,-0.0463248137214807
0.370283470288451,-0.0402114555765794
0.371968660014081,-0.0339830617473601
0.373453284243952,-0.0276459198772831
0.374732169141024,-0.021206542135215
0.375800353904116,-0.0146716585315142
0.376653099350395,-0.00804820990256615
0.377285896265507,-0.00134334057106159
0.377694473509477,0.00543560931024924
0.377874805866708,0.0122811117231666
0.377823121628727,0.0191854590484391
0.377535909898589,0.0261407726209589
0.377009927606155,0.0331390115663669
0.376242206223793,0.0401719819092905
0.375230058172365,0.0472313459430536
0.373971082907709,0.0543086318503365
0.372463172678192,0.0613952435639004
0.370704517944272,0.0684824708561531
0.368693612451396,0.0755614996459955
0.366429257947939,0.0826234225110729
0.363910568540327,0.0896592493932498
0.36113697467786,0.0966599184848326
0.358108226760227,0.103616307282793
0.354824398361091,0.110519243797972
0.351285889061619,0.117359517906015
0.347493426888249,0.124127892826528
0.343448070349467,0.13081511671676
0.339151210066844,0.137411934365891
0.33460456999605,0.143909098975831
0.329810208234061,0.150297384014268
0.324770517409248,0.156567595125548
0.319488224651572,0.162710582084831
0.31396639114057,0.168717250780866
0.308208411229359,0.174578575212602
0.30221801114337,0.180285609484799
0.295999247253078,0.185829499787711
0.289556503920459,0.191201496345884
0.282894490919481,0.196392965321075
0.276018240431419,0.201395400654283
0.26893310361632,0.20620043583191
0.261644746762486,0.210799855561055
0.254159147016319,0.215185607339039
0.246482587695458,0.21934981290227
0.238621653188598,0.22328477953967
0.230583223445942,0.226983011255973
0.222374468064737,0.230437219770312
0.214002839974849,0.233640335335651
0.20547606872986,0.23658551736478
0.196802153409659,0.239266164848734
0.187989355141,0.241675926553708
0.179046189243001,0.243808710982739
0.16998141700503,0.245658696088629
0.160804037104921,0.24722033872484
0.151523276675912,0.248488383821352
0.142148582031187,0.249457873272716
0.13268960905533,0.250124154525851
0.123156213272472,0.250482888855433
0.113558439601326,0.25053005931502
0.103906511807735,0.250261978352431
0.0942108216657832,0.249675295078199
0.0844819178389036,0.248767002176336
0.0747304944928251,0.247534442446967
0.0649673796525612,0.24597531497084
0.0552035233160226,0.244087680886084
0.0454499853371763,0.241869968768015
0.035717923092018,0.23932097960324
0.0260185789409414,0.236439891349729
0.0163632675014025,0.233226263074982
0.00676336274506409,0.22968003866491
-0.00276971506611653,0.22580155009649
-0.012224512590127,0.221591520267757
-0.021589556746501,0.217051065379213
-0.0308533681740786,0.212181696861189
-0.0400044747895203,0.206985322842261
-0.0490314254309673,0.201464249154309
-0.0579228035710758,0.195621179870355
-0.0666672410834805,0.189459217371837
-0.0752534320466145,0.182981861942536
-0.0836701465686877,0.176193010886897
-0.0919062446175168,0.169096957171058
-0.0999506898388246,0.161698387585452
-0.107792563346556,0.154002380428392
-0.115421077468709,0.146014402710633
-0.12282558943216,0.137740306881458
-0.129995614969943,0.129186327077403
-0.136920841834466,0.120359074895308
-0.143591143200172,0.111265534691938
-0.149996590939195,0.10191305841301
-0.156127468753652,0.0923093599549928
-0.161974285148275,0.0824625090636476
-0.167527786227213,0.0723809247738174
-0.17277896829896,0.062073368395538
-0.1777190902735,0.0515489360521074
-0.182339685835948,0.0408170507762929
-0.186632575381117,0.029887454171407
-0.190589877693684,0.0187701976445242
-0.19420402135883,0.00747563321964775
-0.197467755888456,-0.00398559606084355
-0.20037416254837,-0.0156025661376043
-0.202916664872097,-0.0273640823292219
-0.205089038847257,-0.0392586901107348
-0.206885422760767,-0.0512746862653944
-0.20830032668949,-0.063400130398826
-0.209328641623226,-0.0756228568042533
-0.209965648207398,-0.0879304866670015
-0.210207025093069,-0.100310440596035
-0.210048856882408,-0.112749951469849
-0.209487641658072,-0.125236077583605
-0.208520298085425,-0.137755716084003
-0.207144172076954,-0.150295616677943
-0.205357043008696,-0.162842395600711
-0.203157129478937,-0.175382549828981
-0.200543094599977,-0.187902471523624
-0.197514050814178,-0.200388462686953
-0.194069564226093,-0.212826750018717
-0.190209658442925,-0.225203499954851
-0.185934817916148,-0.237504833872683
-0.181245990777625,-0.24971684344608
-0.176144591164119,-0.261825606133685
-0.170632501024669,-0.273817200783236
-0.164712071405835,-0.28567772333469
-0.158386123210421,-0.297393302604708
-0.151657947425862,-0.308950116134855
-0.144531304819039,-0.320334406085747
-0.13701042509489,-0.331532495159179
-0.129100005516799,-0.342530802530217
-0.120805208987314,-0.353315859771087
-0.112131661588416,-0.363874326748636
-0.103085449581097,-0.374193007477078
-0.0936731158647052,-0.38425886590771
-0.0839016558970642,-0.394059041637247
-0.0737785130770347,-0.403580865516448
-0.0633115735917976,-0.412811875140713
-0.052509160731756,-0.421739830204395
-0.0413800286765698,-0.430352727700629
-0.0299333557564713,-0.438638816948555
-0.0181787371936095,-0.446586614429949
-0.00612617732879706,-0.454184918417385
0.00621391866036272,-0.461422823376202
0.0188307535433773,-0.468289734122737
0.0317131473156143,-0.474775379721456
0.0448495469641035,-0.480869827103849
0.0582280367120295,-0.486563494392167
0.0718363487329486,-0.491847163911359
0.0856618743252022,-0.496711994872795
0.0996916755364329,-0.50114953571372
0.113912497227539,-0.505151736076626
0.128310779564871,-0.508710958413109
0.142872670928927,-0.51181998919711
0.157584041227278,-0.514472049732814
0.172430495598946,-0.516660806542848
0.187397388496942,-0.51838038132286
0.202469838135199,-0.519625360448954
0.217632741285644,-0.520390804024897
0.232870788410692,-0.520672254456487
0.248168479116016,-0.520465744540936
0.263510137907982,-0.519767805059589
0.278879930239756,-0.518575471862839
0.29426187882966,-0.516886292436589
0.309639880234998,-0.514698331940147
0.324997721664176,-0.512010178705995
0.340319098009619,-0.50882094919243
0.355587629083652,-0.505130292380627
0.370786877039172,-0.500938393608289
0.385900363956697,-0.496245977832605
0.400911589579046,-0.49105431231588
0.415804049174713,-0.485365208727787
0.430561251510695,-0.479181024658816
0.445166736915394,-0.472504664540159
0.459604095411956,-0.46533957996586
0.473856984902289,-0.457689769413752
0.487909149381821,-0.449559777362336
0.501744437164942,-0.440954692801413
0.515346819100978,-0.43188014713496
0.528700406760442,-0.422342311475402
0.541789470571253,-0.412347893329105
0.554598457884594,-0.401904132673604
0.567112010950019,-0.391018797427727
0.57931498477948,-0.379700178316506
0.591192464879924,-0.367957083133404
0.602729784834198,-0.355798830403078
0.613912543710046,-0.343235242448605
0.624726623277103,-0.330276637867741
0.635158205011899,-0.316933823423469
0.645193786871021,-0.303218085354796
0.654820199812762,-0.28914118011438
0.664024624047765,-0.274715324540268
0.672794604999376,-0.259953185469684
0.681118068954665,-0.244867868803431
0.688983338387315,-0.229472908030156
0.696379146933861,-0.21378225222035
0.703294654005064,-0.19781025350057
0.709719459014506,-0.181571654019022
0.715643615206869,-0.16508157241424
0.721057643068671,-0.148355489799195
0.725952543304661,-0.131409235273767
0.73031980936345,-0.114258970979089
0.734151439496388,-0.0969211767078448
0.737439948334124,-0.079412634085135
0.740178377965779,-0.061750410335094
0.742360308506085,-0.0439518416489423
0.74397986813641,-0.0260345161706807
0.745031742606033,-0.00801625661712004
0.745511184180626,0.0100848974505765
0.745414020025397,0.028250707686207
0.74473666001095,0.0464627553306166
0.74347610393048,0.0647024598780668
0.74162994811751,0.0829510980179616
0.739196391454009,0.101189822832647
0.736174240759317,0.119399683231618
0.732562915550983,0.137561643602121
0.72836245216923,0.155656603655808
0.723573507257432,0.173665418450823
0.718197360591681,0.191568918568358
0.712235917253175,0.209347930422515
0.705691709137851,0.226983296682038
0.698567895798413,0.244455896782255
0.690868264614575,0.261746667505407
0.682597230288085,0.278836623607333
0.673759833659807,0.295706878468347
0.664361739846849,0.312338664746035
0.654409235698498,0.328713355007566
0.64390922657041,0.344812482319062
0.632869232417293,0.3606177607695
0.62129738320502,0.376111105906611
0.609202413643891,0.391274655062218
0.596593657245486,0.406090787544485
0.583481039706302,0.420542144674604
0.56987507162213,0.434611649645491
0.555786840537847,0.448282527180191
0.541228002338061,0.461538322967783
0.526210771984775,0.474362922854747
0.510747913608986,0.486740571769888
0.494852729963844,0.498655892361155
0.478539051247749,0.510093903322864
0.461821223306464,0.521040037392109
0.444714095224044,0.531480158993389
0.427233006313082,0.541400581510794
0.409393772515475,0.550788084167383
0.39121267222559,0.559629928491735
0.372706431548403,0.567913874352025
0.353892209005833,0.57562819553833
0.334787579705156,0.582761694874325
0.315410518984028,0.589303718839897
0.295779385547261,0.595244171686706
0.275912904111134,0.60057352902917
0.255830147571595,0.605282850893834
0.235550518713309,0.609363794210623
0.215093731477086,0.612808624729981
0.194479791803728,0.615610228350475
0.173728978072941,0.617762121841997
0.152861821156408,0.619258462950282
0.131899084104651,0.620094059869102
0.110861741487776,0.620264380067058
0.0897709584106681,0.619765558456603
0.0686480692236054,0.618594404893521
0.0475145559497352,0.616748410995809
0.0263920264511895,0.614225756271564
0.0053021923560379,0.611025313546183
-0.015733153231413,0.607146653679912
-0.0366921582140933,0.602590049567487
-0.0575529341562737,0.597356479412362
-0.0782935790848498,0.591447629268744
-0.098892200414111,0.584865894845461
-0.119326937970065,0.577614382566387
-0.139575987090182,0.569696909883
-0.159617621774235,0.561118004835372
-0.179430217861779,0.551882904858722
-0.198992276211642,0.541997554833432
-0.21828244585874,0.531468604377253
-0.237279547123414,0.520303404379222
-0.255962594648474,0.508510002775615
-0.274310820339058,0.496097139569097
-0.292303696180467,0.483074241093021
-0.309920956909134,0.469451413523669
-0.327142622511952,0.455239435644013
-0.343949020529266,0.440449750863425
-0.360320808136941,0.425094458498559
-0.376238993983057,0.409186304321434
-0.391684959754933,0.392738670381582
-0.406640481452401,0.375765564109892
-0.421087750343418,0.358281606712622
-0.435009393578413,0.340302020864791
-0.448388494439944,0.321842617713031
-0.46120861220465,0.302919783198633
-0.473453801594671,0.283550463712448
-0.485108631796185,0.263752151093899
-0.496158205022995,0.243542866987244
-0.506588174603498,0.222941146568908
-0.516384762569875,0.201966021660399
-0.525534776728649,0.180637003242127
-0.534025627192373,0.158974063384035
-0.541845342352574,0.136997616609749
-0.5489825842747,0.114728500711506
-0.55542666349627,0.0921879570338903
-0.561167553210053,0.0693976102449538
-0.566195902814645,0.046379447613963
-0.570503050815429,0.023155797815615
-0.574081037059526,-0.000250690718886025
-0.576922614288993,-0.023817071882883
-0.579021258997163,-0.0475201243859532
-0.580371181573751,-0.0713363746341661
-0.580967335724987,-0.0952421199764009
-0.580805427155809,-0.119213452293645
-0.579881921501841,-0.143226281907873
-0.578194051499663,-0.167256361786523
-0.575739823384609,-0.191279312018308
-0.572518022506131,-0.215270644535648
-0.568528218151562,-0.23920578805864
-0.563770767569883,-0.263060113235226
-0.558246819187956,-0.286808957951799
-0.55195831501248,-0.310427652788336
-0.544907992211776,-0.333891546591748
-0.537099383872361,-0.357176032141072
-0.528536818926109,-0.380256571877758
-0.519225421244669,-0.403108723674283
-0.509171107898684,-0.425708166614089
-0.498380586580221,-0.44803072675573
-0.486861352187691,-0.470052402854101
-0.474621682573463,-0.49174939201144
-0.461670633455206,-0.513098115230889
-0.448018032492926,-0.534075242845301
-0.433674472534535,-0.554657719794069
-0.418651304033684,-0.574822790720764
-0.40296062664447,-0.594548024864522
-0.386615279998547,-0.613811340718108
-0.369628833671001,-0.632591030425915
-0.352015576342305,-0.65086578389512
-0.333790504164456,-0.668614712593592
-0.314969308340346,-0.685817373008299
-0.295568361926264,-0.702453789738179
-0.275604705868226,-0.718504478195858
-0.255096034283785,-0.733950466892751
-0.234060679001691,-0.748773319282582
-0.212517593372729,-0.762955155138589
-0.190486335365753,-0.776478671440196
-0.167987049963841,-0.789327162745284
-0.14504045087625,-0.80148454102467
-0.121667801582605,-0.812935354935905
-0.0978908957265844,-0.823664808513943
-0.0737320368770337,-0.833658779256861
-0.0492140176752603,-0.842903835585253
