-0.626144980502685,-0.341999693869934
-0.626127243974205,-0.34207025417911
-0.626109081716294,-0.342142187499651
-0.626090481359166,-0.342215527073924
-0.626071430111721,-0.34229030710505
-0.626051914745097,-0.342366562789106
-0.62603192157551,-0.342444330348548
-0.626011436446327,-0.342523647066909
-0.625990444709346,-0.342604551324834
-0.625968931205243,-0.342687082637497
-0.625946880243145,-0.342771281693468
-0.625924275579278,-0.342857190395088
-0.625901100394649,-0.342944851900425
-0.625877337271726,-0.343034310666861
-0.625852968170035,-0.343125612496412
-0.625827974400654,-0.343218804582821
-0.625802336599517,-0.343313935560532
-0.625776034699494,-0.343411055555613
-0.62574904790116,-0.343510216238714
-0.625721354642205,-0.343611470880158
-0.625692932565399,-0.343714874407256
-0.62566375848505,-0.343820483463946
-0.625633808351865,-0.34392835647286
-0.625603057216131,-0.344038553699932
-0.625571479189141,-0.344151137321663
-0.625539047402748,-0.344266171495152
-0.62550573396697,-0.344383722431046
-0.625471509925521,-0.34450385846951
-0.625436345209177,-0.344626650159389
-0.625400208586838,-0.344752170340681
-0.625363067614176,-0.344880494230502
-0.625324888579729,-0.345011699512683
-0.625285636448304,-0.345145866431187
-0.625245274801536,-0.345283077887515
-0.62520376577545,-0.345423419542299
-0.62516106999485,-0.345566979921268
-0.625117146504366,-0.345713850525814
-0.625071952695965,-0.345864125948362
-0.625025444232725,-0.346017903992781
-0.624977574968657,-0.346175285800087
-0.624928296864355,-0.346336375979679
-0.624877559898223,-0.346501282746393
-0.624825311973035,-0.34667011806365
-0.62477149881754,-0.346842997792996
-0.624716063882834,-0.347020041850356
-0.624658948233192,-0.347201374369327
-0.624600090431014,-0.347387123871865
-0.624539426415563,-0.347577423446728
-0.624476889375088,-0.347772410936072
-0.624412409611972,-0.3479722291306
-0.624345914400448,-0.348177025973703
-0.624277327836456,-0.34838695477504
-0.624206570679147,-0.348602174434048
-0.624133560183525,-0.34882284967387
-0.624058209923674,-0.349049151286259
-0.623980429605997,-0.34928125638799
-0.623900124871825,-0.349519348689405
-0.623817197088744,-0.349763618775691
-0.623731543129915,-0.350014264401567
-0.623643055140632,-0.350271490800073
-0.623551620291304,-0.350535511006195
-0.623457120515976,-0.350806546196105
-0.623359432235469,-0.351084826042833
-0.62325842606414,-0.35137058908924
-0.62315396649918,-0.351664083139201
-0.623045911591312,-0.351965565667967
-0.622934112595664,-0.352275304252718
-0.622818413601497,-0.352593577024386
-0.622698651139369,-0.352920673141885
-0.622574653764239,-0.353256893289937
-0.622446241612863,-0.35360255020177
-0.622313225933766,-0.353957969208009
-0.622175408587885,-0.354323488813182
-0.622032581517901,-0.354699461301327
-0.621884526184079,-0.355086253372255
-0.621731012964305,-0.355484246810146
-0.62157180051581,-0.35589383918621
-0.621406635095902,-0.356315444597263
-0.621235249838814,-0.356749494442165
-0.621057363985551,-0.357196438238157
-0.620872682063383,-0.357656744479276
-0.620680893011382,-0.358130901539105
-0.6204816692481,-0.358619418620273
-0.620274665677204,-0.359122826753218
-0.620059518626539,-0.35964167984687
-0.619835844715748,-0.360176555794055
-0.619603239647169,-0.360728057634549
-0.619361276914356,-0.361296814778865
-0.619109506422049,-0.361883484296021
-0.618847453011011,-0.362488752268661
-0.618574614880531,-0.363113335219107
-0.618290461900884,-0.363757981610042
-0.617994433807367,-0.364423473423725
-0.617685938266867,-0.365110627823775
-0.617364348807173,-0.36582029890377
-0.617029002598443,-0.36655337952703
-0.616679198075352,-0.367310803262169
-0.616314192387523,-0.368093546419105
-0.615933198664789,-0.368902630190425
-0.615535383082727,-0.369739122903104
-0.615119861712689,-0.370604142385727
-0.614685697139234,-0.371498858456465
-0.614231894826428,-0.372424495537132
-0.613757399212918,-0.373382335398733
-0.613261089514007,-0.374373720043882
-0.612741775207101,-0.375400054731497
-0.612198191174903,-0.376462811149048
-0.611628992478584,-0.377563530737501
-0.61103274873078,-0.378703828173858
-0.610407938035722,-0.37988539501588
-0.609752940461054,-0.381110003513093
-0.60906603100287,-0.382379510587628
-0.608345372002271,-0.383695861987676
-0.607589004968229,-0.385061096615392
-0.606794841757737,-0.386477351029924
-0.605960655060121,-0.387946864124804
-0.605084068127989,-0.389471981977178
-0.604162543692488,-0.391055162864254
-0.603193371995449,-0.392698982439802
-0.602173657865488,-0.394406139060499
-0.601100306759235,-0.396179459248319
-0.599970009682591,-0.39802190327086
-0.598779226900205,-0.399936570816455
-0.597524170334262,-0.401926706734955
-0.596200784546166,-0.403995706808037
-0.59480472618681,-0.406147123504714
-0.593331341792887,-0.408384671668069
-0.591775643798116,-0.410712234068064
-0.590132284619472,-0.413133866742175
-0.588395528669565,-0.415653804030413
-0.586559222137294,-0.418276463193683
-0.584616760370103,-0.421006448483948
-0.582561052682632,-0.423848554511085
-0.580384484408712,-0.42680776872396
-0.578078876006728,-0.429889272791856
-0.575635439022892,-0.433098442636115
-0.5730447287134,-0.436440846820352
-0.570296593125555,-0.439922242959894
-0.567380118440436,-0.443548571756639
-0.564283570386715,-0.447325948203339
-0.56099433154798,-0.45126064943054
-0.55749883440586,-0.45535909858909
-0.553782489990294,-0.459627844070229
-0.549829612048615,-0.464073533262788
-0.545623336699277,-0.468702879931851
-0.541145537607376,-0.473522624174534
-0.536376736811091,-0.478539483765183
-0.531296011445447,-0.483760095543877
-0.525880896757326,-0.489190945327974
-0.520107285989601,-0.494838284636771
-0.513949327939507,-0.500708032314703
-0.507379323274906,-0.506805658920386
-0.500367621031021,-0.51313605151989
-0.492882517119661,-0.519703356286951
-0.484890157174222,-0.526510796076601
-0.476354446639019,-0.533560459910448
-0.46723697170384,-0.540853061103386
-0.457496935497316,-0.548387660588652
-0.447091114899038,-0.556161351881363
-0.435973844422275,-0.564168904086689
-0.424097034866637,-0.572402359440861
-0.411410235848573,-0.580850582113313
-0.397860752886893,-0.589498755447142
-0.383393831440448,-0.598327825534433
-0.367952922142879,-0.607313890085172
-0.351480043414032,-0.616427533037336
-0.333916259584714,-0.625633107365639
-0.315202294556249,-0.634887971180237
-0.29527930269581,-0.644141685571794
-0.274089819963971,-0.653335186861416
-0.251578918948897,-0.662399951046611
-0.22769559124751,-0.671257174365705
-0.202394379126986,-0.679817001055865
-0.175637275192745,-0.687977837507369
-0.147395903395334,-0.69562580097224
-0.117653986599837,-0.702634360485956
-0.0864100945797208,-0.708864237248938
-0.0536806511852415,-0.71416364071779
-0.0195031601917578,-0.718368924155067
0.016060414215745,-0.721305748193754
0.0529202040564736,-0.722790841640457
0.0909550541961872,-0.722634443604483
0.130009355389098,-0.720643498314896
0.169890283758906,-0.716625651937461
0.210365667788483,-0.710394067879091
0.251162728553253,-0.70177303262395
0.29196795276759,-0.690604268213979
0.332428356295322,-0.676753801566232
0.372154373218492,-0.660119168121557
0.410724558204517,-0.640636652980144
0.447692215188958,-0.618288203737868
0.482593963243327,-0.593107594278822
0.514960124228902,-0.565185387183075
0.544326673673889,-0.534672243190309
0.570248347456482,-0.501780166503126
0.592312356889228,-0.466781358382018
0.610152050201136,-0.430004477409374
0.623459785596905,-0.391828266188326
0.631998263772447,-0.352672688514431
0.635609614509713,-0.312987910827282
0.634221644037273,-0.273241636829279
0.627850820216121,-0.233905444358911
0.616601786318329,-0.195440861832944
0.600663430021448,-0.15828594663843
0.580301767773868,-0.122843086397551
0.555850111719391,-0.089468641108677
0.527697146547495,-0.0584648924237738
0.496273643213216,-0.0300745838515031
0.462038569862932,-0.0044781431078646
0.425465330190077,0.0182065047803329
0.387028775547271,0.0379217809296673
0.34719351403741,0.0546663175470996
0.306403894323716,0.0684892830042972
0.265075890592387,0.0794836355350532
0.223590972232054,0.0877787648447312
0.182291918037432,0.0935329405932073
0.141480436679313,0.0969259247626668
0.10141638545127,0.0981520309355428
0.0623183372503838,0.0974138360467105
0.0243652283184955,0.0949166760797976
-0.0123011780447251,0.0908639912838511
-0.0475732588834444,0.0854535316565142
-0.0813741494829437,0.0788743908252065
-0.113654197899356,0.07130480587805
-0.144387407133978,0.0629106410483845
-0.173567981717281,0.0538444627953501
-0.201207063989766,0.0442451108748103
-0.227329717789972,0.0342376725926825
-0.251972194103638,0.0239337738711444
-0.275179494553213,0.0134321095811685
-0.297003234159927,0.00281914563032115
-0.317499794145484,-0.00783006434805839
-0.336728748114087,-0.0184509948150651
-0.354751540199615,-0.0289887344567147
-0.371630391130345,-0.0393970720941621
-0.387427407159227,-0.0496376046026832
-0.402203867001908,-0.0596788829358167
-0.416019662959085,-0.0694956072781597
-0.428932873985169,-0.0790678782488657
-0.440999450375426,-0.0883805078380944
-0.452272991807676,-0.0974223912627679
-0.462804602567144,-0.106185939059498
-0.472642809816885,-0.114666567382275
-0.481833532693575,-0.122862243541788
-0.490420091774414,-0.130773083225675
-0.498443250057626,-0.138400995500573
-0.505941278020981,-0.145749371555724
-0.512950036572859,-0.152822813152909
-0.519503072797328,-0.159626896857683
-0.525631724330552,-0.166167970309305
-0.531365229004554,-0.172452977015944
-0.536730837070411,-0.178489306417947
-0.541753923880942,-0.184284666230487
-0.546458101386483,-0.189846974346845
-0.550865327189394,-0.195184267847214
-0.554996010225043,-0.200304626909947
-0.558869112399663,-0.205216111659161
-0.562502245727913,-0.209926710202639
-0.565911764683189,-0.214444296315981
-0.569112853608834,-0.218776595412985
-0.572119609144228,-0.222931157608446
-0.574945117701596,-0.226915336828979
-0.577601528091467,-0.230736275060832
-0.580100119440739,-0.234400890942332
-0.582451364580406,-0.237915872013647
-0.584664989102575,-0.241287670029266
-0.586750026300766,-0.244522498820085
-0.588714868215221,-0.24762633426352
-0.590567313007625,-0.250604915982545
-0.592314608888357,-0.253463750449114
-0.593963494815145,-0.25620811521488
-0.595520238175563,-0.258843064033356
-0.596990669657793,-0.26137343267338
-0.598380215504996,-0.263803845254678
-0.599693927338878,-0.266138720962956
-0.600936509727922,-0.268382281024979
-0.602112345665478,-0.270538555843852
-0.603225520112759,-0.272611392211668
-0.604279841751762,-0.274604460531247
-0.605278863083452,-0.276521261991099
-0.606225898997235,-0.27836513564833
-0.607124043928838,-0.280139265383234
-0.607976187715271,-0.281846686696952
-0.608785030247582,-0.283490293330047
-0.609553095014578,-0.285072843685301
-0.610282741623705,-0.286596967042609
-0.610976177378649,-0.288065169557709
-0.611635467987148,-0.289479840039639
-0.612262547466766,-0.29084325550449
-0.612859227311122,-0.292157586505181
-0.613427204974135,-0.293424902238763
-0.61396807172535,-0.294647175434188
-0.614483319925172,-0.295826287024641
-0.614974349765002,-0.296964030609413
-0.615442475513681,-0.298062116711015
-0.615888931308347,-0.299122176833729
-0.616314876524806,-0.30014576733019
-0.616721400759693,-0.301134373082834
-0.617109528454159,-0.302089411007214
-0.617480223186437,-0.30301223338424
-0.617834391658474,-0.303904131028419
-0.618172887399823,-0.304766336299096
-0.618496514210146,-0.30560002596163
-0.618806029359989,-0.306406323905256
-0.61910214656795,-0.307186303724275
-0.619385538770922,-0.307940991168986
-0.619656840702795,-0.308671366472599
-0.619916651295799,-0.309378366560138
-0.62016553591753,-0.310062887145143
-0.620404028455757,-0.310725784719734
-0.62063263326208,-0.311367878443389
-0.620851826964738,-0.311989951935555
-0.621062060160009,-0.312592754976989
-0.621263758990963,-0.313177005124506
-0.621457326621628,-0.313743389243594
-0.621643144614049,-0.31429256496314
-0.621821574215107,-0.314825162056324
-0.6219929575595,-0.315341783751516
-0.622157618794762,-0.31584300797684
-0.622315865133777,-0.316329388541873
-0.622467987839841,-0.316801456259778
-0.622614263148936,-0.317259720012999
-0.622754953133542,-0.31770466776548
-0.578838690750539,-0.332323498032715
-0.591405822251997,-0.360224485370768
-0.623145936057633,-0.318964200739588
-0.645519554337788,-0.309571878082243
-0.623382902120585,-0.319745398173295
-0.585870414347837,-0.353115976196221
-0.644775872647639,-0.368878927388965
-0.623706772813142,-0.320837245459114
-0.62443288004464,-0.353942927408889
-0.590586205826736,-0.316150617921512
-0.624138684473888,-0.370652181142693
-0.624086804218477,-0.32215830075614
-0.65284999676641,-0.329246538115594
-0.603588991429074,-0.350839621377463
-0.624338123851567,-0.323058765038395
-0.623730624875638,-0.296390435293984
-0.576498030663026,-0.35416034498172
-0.624564320467081,-0.323889903571119
-0.653522341014703,-0.348443625783465
-0.624702610852625,-0.324408685973006
-0.598466342801039,-0.322376916009994
-0.638587444655807,-0.323028324441662
-0.641032822493308,-0.32072843848694
-0.633264306915611,-0.355414536234303
-0.60095719297777,-0.317863577517151
-0.625065589518746,-0.325814093587764
-0.625119365116397,-0.326028295369943
-0.625171412443319,-0.326237231809706
-0.625221796524333,-0.326441061138058
-0.636219189980429,-0.279067663524417
-0.672999180814378,-0.356180288508665
-0.625363578398933,-0.327023406472382
-0.619714023857157,-0.344051393472381
-0.637741904589863,-0.280691208842612
-0.627100083132381,-0.371195009738484
-0.625532821614022,-0.32773704228618
-0.633035171238505,-0.307742803902542
-0.625609852655345,-0.328069221818945
-0.623927624767991,-0.295077978725058
-0.655531338210999,-0.343136056617457
-0.625716896104213,-0.328539269078247
-0.672510426649445,-0.351779431717835
-0.63782152953813,-0.282172313133202
-0.662112065033664,-0.364962968944054
-0.675292597697639,-0.357256614315847
-0.612663739545414,-0.313199718894835
-0.67549564379631,-0.37599516760797
-0.618137214366439,-0.374621729180202
-0.659682628104426,-0.358727428586326
-0.625985991534779,-0.3297710327974
-0.603346528597905,-0.345857641767305
-0.62603678428892,-0.330012851954491
-0.626061112694808,-0.330129868237572
-0.626084760362858,-0.330244380383068
-0.626107749620394,-0.330356454266027
-0.626130101955846,-0.330466153717392
-0.626151838054211,-0.330573540596698
-0.626172977830843,-0.330678674861855
-0.626193540463675,-0.330781614636173
-0.626213544423937,-0.330882416272723
-0.626233007505467,-0.330981134416175
-0.62625194685266,-0.331077822062208
-0.626270378987146,-0.331172530614596
-0.626288319833254,-0.331265309940081
-0.626305784742312,-0.331356208421119
-0.62632278851586,-0.331445273006592
-0.626339345427814,-0.331532549260575
-0.626355469245639,-0.331618081409235
-0.626371173250582,-0.331701912385953
-0.626386470257004,-0.331784083874722
-0.62640137263086,-0.331864636351919
-0.626415892307372,-0.331943609126504
-0.626430040807921,-0.332021040378706
-0.626443829256207,-0.332096967197277
-0.626457268393713,-0.332171425615356
-0.626470368594491,-0.332244450645011
-0.626483139879324,-0.332316076310503
