0.419577604684777,0.376925355094746
0.419511217811932,0.376915895102102
0.41944353137217,0.37690617714974
0.419374513702619,0.37689619310172
0.419304132219153,0.376885934528471
0.419232353385296,0.376875392694817
0.419159142679927,0.376864558547468
0.419084464563745,0.376853422701929
0.419008282444444,0.376841975428817
0.418930558640521,0.376830206639537
0.418851254343689,0.376818105871305
0.418770329579803,0.376805662271465
0.418687743168263,0.376792864581078
0.418603452679798,0.376779701117737
0.418517414392591,0.376766159757572
0.418429583246638,0.376752227916405
0.418339912796297,0.376737892529995
0.418248355160912,0.376723140033355
0.418154860973461,0.376707956339061
0.418059379327102,0.376692326814514
0.417961857719558,0.376676236258105
0.417862241995214,0.376659668874206
0.417760476284837,0.376642608246949
0.41765650294281,0.376625037312697
0.417550262481762,0.376606938331162
0.417441693504465,0.376588292855086
0.417330732632899,0.376569081698402
0.417217314434314,0.376549284902794
0.417101371344188,0.376528881702576
0.416982833585904,0.37650785048778
0.416861629087012,0.376486168765369
0.416737683391904,0.376463813118451
0.416610919570731,0.376440759163408
0.416481258124392,0.376416981504789
0.416348616885398,0.376392453687863
0.416212910914411,0.376367148148695
0.41607405239226,0.376341036161586
0.415931950507199,0.376314087783745
0.415786511337195,0.376286271797017
0.415637637726977,0.376257555646499
0.415485229159612,0.37622790537587
0.415329181622329,0.376197285559215
0.4151693874663,0.376165659229172
0.415005735260082,0.376132987801143
0.414838109636414,0.376099230993364
0.414666391132011,0.376064346742559
0.414490456020029,0.376028291114937
0.414310176134806,0.375991018212215
0.414125418688513,0.375952480072391
0.413936046079271,0.375912626564927
0.413741915690328,0.375871405279995
0.413542879679812,0.375828761411434
0.413338784760591,0.375784637632991
0.413129471969715,0.375738973967456
0.412914776426904,0.375691707648223
0.412694527081515,0.375642772972797
0.412468546447369,0.375592101147733
0.412236650324817,0.375539620124457
0.411998647509355,0.375485254425372
0.411754339486094,0.375428924959633
0.411503520109309,0.375370548827891
0.411245975266289,0.3753100391153
0.410981482524648,0.375247304672006
0.410709810762183,0.37518224988028
0.410430719778378,0.375114774407408
0.41014395988652,0.375044772943379
0.409849271485403,0.374972134922336
0.409546384609502,0.374896744226709
0.409235018456427,0.374818478872811
0.408914880890432,0.374737210676657
0.408585667920656,0.374652804898624
0.408247063152698,0.374565119865475
0.407898737212068,0.374474006568182
0.40754034713794,0.37437930823384
0.407171535745574,0.374280859869836
0.406791930955658,0.374178487778314
0.406401145088732,0.374072009038808
0.405998774122738,0.373961230956755
0.405584396911642,0.373845950475434
0.405157574362949,0.373725953548659
0.404717848571805,0.373601014471379
0.404264741909246,0.373470895165087
0.403797756062043,0.373335344414694
0.403316371021393,0.373194097053286
0.402820044017613,0.373046873090856
0.402308208397795,0.372893376782815
0.401780272443218,0.372733295633747
0.401235618123156,0.372566299331485
0.400673599781515,0.372392038606201
0.400093542752552,0.372210144008768
0.399494741901732,0.372020224602167
0.398876460087563,0.371821866559198
0.398237926540042,0.371614631659221
0.397578335151134,0.371398055675999
0.396896842672448,0.371171646648101
0.396192566815085,0.370934883022554
0.39546458424636,0.370687211661708
0.394711928477888,0.370428045702355
0.393933587639263,0.370156762255277
0.393128502131335,0.369872699932346
0.392295562152859,0.369575156187214
0.391433605094043,0.369263384454426
0.390541412790329,0.368936591070487
0.389617708629518,0.36859393195898
0.388661154505203,0.368234509060298
0.387670347609286,0.367857366484843
0.386643817056264,0.367461486366739
0.385580020331908,0.367045784393054
0.384477339558912,0.366609104981412
0.383334077572203,0.366150216076437
0.382148453796687,0.365667803532953
0.380918599920508,0.365160465051007
0.379642555357237,0.36462670362477
0.378318262490957,0.36406492046404
0.376943561698899,0.363473407343487
0.375516186147218,0.362850338330866
0.374033756356674,0.362193760841222
0.372493774536441,0.361501585959517
0.37089361868614,0.360771577969183
0.369230536468395,0.360001343018766
0.367501638856998,0.359188316853082
0.36570389356906,0.35832975152912
0.363834118293532,0.357422701030327
0.361888973733265,0.356464005685783
0.359864956483462,0.355450275293261
0.357758391776176,0.354377870837116
0.355565426128482,0.353242884683457
0.353282019941445,0.352041119126153
0.350903940108114,0.350768063147884
0.348426752701848,0.349418867250767
0.345845815831562,0.347988316201172
0.343156272768403,0.346470799523263
0.340353045469156,0.344860279565728
0.337430828645998,0.343150256956311
0.334384084560361,0.341333733249424
0.331207038751312,0.339403170563555
0.327893676946668,0.337350447997969
0.324437743448578,0.335166814612717
0.320832741335577,0.332842838753083
0.317071934880726,0.330368353500006
0.313148354651587,0.327732398032881
0.309054805833306,0.324923154701701
0.304783880402224,0.321927881623371
0.30032797387525,0.318732840644088
0.295679307470983,0.315323220548278
0.2908299566435,0.311683055447492
0.285771887089892,0.307795138353235
0.280496999489207,0.303640930029874
0.27499718440427,0.299200463342253
0.269264388969438,0.29445224346299
0.263290697196821,0.289373144492978
0.257068425960275,0.283938303282953
0.250590238958976,0.278121011532583
0.243849281217814,0.271892607596153
0.236839336945779,0.265222369851452
0.22955501383906,0.258077414002978
0.221991957173371,0.25042259730511
0.214147097266807,0.242220433419175
0.206018934092661,0.233431022474556
0.197607862958099,0.224012001901617
0.18891654520945,0.213918524755571
0.17995032784059,0.203103273564731
0.170717715620544,0.191516519218268
0.16123089886279,0.179106236054486
0.151506339163131,0.165818286106679
0.141565414254623,0.151596687380494
0.131435121474273,0.136383983024284
0.121148837103582,0.120121730235336
0.110747125922166,0.102751129608572
0.100278591586792,0.0842138172266423
0.0898007538086348,0.064452842906248
0.0793809326589159,0.043413858391712
0.0690971136314395,0.0210465385945165
0.0590387593316,-0.00269374317923582
0.049307524932902,-0.0278439691528245
0.0400178250522081,-0.0544312498112383
0.0312971898116379,-0.0824703145895186
0.0232863381464082,-0.111960732649409
0.0161388876901559,-0.142883892794617
0.0100206138938679,-0.175199792697708
0.00510816775460643,-0.208843712929756
0.00158716323334818,-0.243722880373792
-0.000350446116246128,-0.279713257482114
-0.000509764818019787,-0.316656626823686
0.00130283614603804,-0.354358171973378
0.00527470219535514,-0.392584782685888
0.0115811211370669,-0.431064330366714
0.020378904775339,-0.469486164445176
0.0317995074506559,-0.507503066581839
0.0459419355199908,-0.544734863398326
0.0628657721820766,-0.580773836565807
0.0825847022700938,-0.615191980750938
0.105060962761451,-0.647550047219984
0.130201157830551,-0.677408179597602
0.157853854631532,-0.704337807944461
0.187809312791366,-0.727934330939839
0.219801596206737,-0.74782999877793
0.253513174819113,-0.763706327091311
0.288581956798682,-0.775305338603893
0.324610513115298,-0.782438953779872
0.361177085193461,-0.784995937589001
0.39784782142176,-0.782945952171236
0.434189586826065,-0.77634045257635
0.469782644516005,-0.765310376532494
0.504232523017076,-0.750060797255854
0.537180457994426,-0.730862908002988
0.568311920535764,-0.708043868511717
0.597362901826497,-0.681975152332411
0.624123797347375,-0.653060083212466
0.648440904018821,-0.621721238688552
0.670215694717017,-0.588388337158965
0.68940215426582,-0.553487123199237
0.706002542580226,-0.517429639629984
0.720061992586176,-0.480606139030111
0.731662355866542,-0.443378755542241
0.740915683940552,-0.40607694049211
0.747957685746098,-0.368994569485121
0.752941440794157,-0.33238855759667
0.756031580512446,-0.296478773262699
0.757399084057241,-0.261449018360861
0.757216774213265,-0.227448838085276
0.755655547036811,-0.194595935161843
0.752881327165965,-0.162978984241507
0.749052709488467,-0.132660669835377
0.744319226463801,-0.103680801459298
0.738820167599085,-0.0760593900492156
0.732683871843205,-0.0497995982784998
0.726027413388104,-0.0248905029365617
0.718956605036818,-0.00130962937430179
0.711566249586192,0.0209747640100472
0.70394057747919,0.0420016590616985
0.696153817448003,0.0618155059797722
0.68827085535954,0.0804646955157272
0.680347944550484,0.0980002592716529
0.672433438322342,0.114474778894687
0.664568521807022,0.129941483345612
0.656787926053517,0.144453513006835
0.649120611936007,0.158063329854386
0.641590415395882,0.170822253976666
0.634216648683995,0.182780108161481
0.627014654756106,0.193984953924292
0.619996313888777,0.204482904088686
0.613170503016674,0.214317998764245
0.606543509330041,0.223532133234866
0.60011940038905,0.232165027831735
0.593900353475725,0.240254231296203
0.587886947170542,0.247835150427592
0.582078418256598,0.254941099957341
0.576472887057962,0.261603367597857
0.571067554241787,0.26785129008983
0.565858871980599,0.273712336825986
0.560842692201495,0.279212198273619
0.556014394457525,0.284374876964758
0.551368995754762,0.289222779282887
0.546901244464634,0.293776806659891
0.542605700251135,0.298056445116451
0.538476801750587,0.302079852342682
0.534508923560408,0.305863941731734
0.530696423924566,0.309424462954578
0.527033684347738,0.312776078805743
0.523515142228028,0.315932438162816
0.520135317469024,0.318906244991942
0.516888833915714,0.321709323401298
0.513770436354447,0.324352678798192
0.510775003723983,0.326846555245833
0.507897559101943,0.329200489145489
0.505133276957564,0.331423359390762
0.502477488096916,0.33352343415465
0.499925682669695,0.3355084144786
0.497473511556566,0.337385474836781
0.495116786412138,0.33916130084952
0.492851478600228,0.340842124317902
0.490673717224554,0.342433755747637
0.488579786428801,0.34394161452495
0.486566122114594,0.345370756900871
0.484629308203876,0.346725901933254
0.482766072553079,0.348011455528332
0.480973282609936,0.349231532715954
0.479247940889503,0.350389978284839
0.47758718033364,0.351490385896545
0.47598825960759,0.352536115789294
0.474448558378183,0.353530311175516
0.47296557261036,0.354475913429976
0.471536909912034,0.355375676158658
0.470160284951561,0.356232178232212
0.468833514967228,0.357047835861794
0.467554515384025,0.357824913789443
0.466321295549432,0.35856553565985
0.465131954596995,0.359271693635412
0.463984677443966,0.359945257311803
0.46287773092715,0.360587981986986
0.461809460079408,0.361201516332582
0.460778284547739,0.361787409512755
0.459782695152729,0.362347117792328
0.458821250588129,0.362882010672631
0.457892574258544,0.363393376590624
0.456995351252578,0.36388242821408
0.456128325448283,0.364350307363099
0.455290296747354,0.364798089585851
0.454480118434226,0.365226788414336
0.453696694656045,0.365637359323913
0.452938978019285,0.36603070341852
0.452205967298766,0.366407670861855
0.45149670525472,0.36676906407316
0.45081027655362,0.367115640704882
0.450145805788449,0.367448116418101
0.449502455594217,0.367767167470444
0.448879424854543,0.368073433130045
0.44827594699527,0.368367517928097
0.447691288361155,0.368649993761572
0.447124746671802,0.36892140185683
0.446575649553143,0.369182254603998
0.446043353140882,0.369433037271286
0.445527240752457,0.369674209607689
0.44502672162422,0.369906207341925
0.444541229710645,0.370129443584839
0.444070222542536,0.370344310141994
0.443613180141299,0.370551178742653
0.443169603986529,0.37075040219092
0.442739016034215,0.370942315444362
0.442320957783058,0.371127236625056
0.441914989386474,0.371305467967651
0.441520688807978,0.371477296708687
0.441137651017763,0.371642995921134
0.440765487228394,0.371802825297778
0.440403824167628,0.371957031886894
0.440052303386482,0.372105850783332
0.439710580600765,0.372249505777965
0.439378325064368,0.372388209968214
0.439055218972707,0.372522166332204
0.43874095689479,0.372651568268888
0.438435245232448,0.372776600106336
0.43813780170537,0.372897437580248
0.437848354860619,0.373014248284567
0.437566643605401,0.373127192095982
0.437292416761919,0.373236421573957
0.437025432643181,0.373342082337831
0.43676545864873,0.373444313422421
0.436512270879279,0.373543247613461
0.436265653769308,0.373639011764128
0.436025399736732,0.373731727093817
0.435791308848781,0.373821509470254
0.435563188503287,0.373908469675958
0.435340853124609,0.37399271366
0.435124123873486,0.374074342775957
0.434912828370109,0.374153454006867
0.434706800429781,0.374230140177986
0.434505879810531,0.374304490158043
0.434309911972106,0.374376589049706
0.434118747845787,0.374446518369856
0.433932243614494,0.374514356220296
0.433750260502686,0.37458017744943
0.433572664575584,0.374644053805453
0.433399326547265,0.374706054081515
0.433230121597201,0.37476624425335
0.433064929194838,0.374824687609773
0.432903632931834,0.374881444876467
0.432746120361589,0.374936574333422
0.432592282845725,0.374990131926405
0.432442015407183,0.375042171372769
0.432295216589627,0.375092744261937
0.432151788322865,0.375141900150836
0.432011635793995,0.375189686654585
0.431874667324022,0.375236149532661
0.43174079424968,0.375281332770829
0.431609930810232,0.37532527865903
0.431481994038999,0.375368027865474
0.431356903659427,0.375409619507116
0.43123458198546,0.375450091216736
0.431114953826042,0.375489479206773
0.430997946393544,0.375527818330113
0.430883489215955,0.375565142137973
0.430771514052656,0.375601482935037
0.430661954813617,0.375636871831993
0.430554747481874,0.375671338795603
0.430449830039125,0.375704912696426
0.430347142394325,0.375737621354328
0.430246626315123,0.375769491581883
0.430148225362043,0.375800549225773
0.430051884825272,0.375830819206291
0.429957551663941,0.375860325555045
0.429865174447799,0.375889091450941
0.429774703301171,0.375917139254556
0.429686089849105,0.375944490540945
0.429599287165602,0.375971166130999
0.429514249723862,0.375997186121389
0.429430933348436,0.376022569913199
0.429349295169224,0.376047336239281
0.42926929357722,0.376071503190416
0.42919088818195,0.376095088240332
0.429114039770522,0.376118108269629
0.429038710268215,0.376140579588671
0.428964862700558,0.376162517959489
0.428892461156825,0.376183938616747
0.42882147075489,0.376204856287809
0.42875185760739,0.376225285211954
0.428683588789134,0.376245239158778
0.428616632305722,0.376264731445821
0.428550957063304,0.376283774955453
0.428486532839453,0.376302382151056
