-0.987373737373737,-0.258912524002122
-0.987259730290859,-0.258875048601778
-0.986912573101371,-0.258776820248317
-0.98632462110087,-0.25863910347106
-0.985488323835052,-0.258483077695158
-0.98439624414537,-0.258329784806277
-0.983041077071205,-0.258200077066432
-0.981415668565798,-0.258114565498454
-0.979513033983589,-0.258093568855527
-0.977326376297077,-0.258157063290905
-0.974849104001904,-0.258324632841375
-0.972074848669531,-0.258615420836155
-0.968997482107627,-0.259048082340892
-0.96561113308916,-0.259640737744051
-0.961910203612092,-0.26041092759047
-0.957889384652619,-0.261375568764028
-0.953543671375992,-0.262550912118356
-0.948868377770152,-0.263952501651295
-0.94385915066865,-0.265595135315313
-0.938511983130694,-0.267492827552452
-0.932823227147547,-0.269658773638507
-0.926789605645997,-0.272105315917096
-0.920408223761144,-0.274843912000013
-0.913676579352386,-0.277885105005901
-0.906592572738113,-0.281238495904688
-0.89915451562638,-0.284912718030509
-0.891361139220551,-0.288915413821016
-0.883211601480782,-0.293253213835943
-0.874705493524011,-0.297931718102743
-0.865842845147083,-0.302955479831862
-0.85662412945951,-0.30832799153894
-0.847050266614396,-0.314051673605811
-0.837122626627989,-0.320127865306752
-0.826843031280374,-0.326556818320873
-0.816213755091834,-0.333337692746002
-0.805237525371445,-0.340468555623803
-0.793917521336532,-0.347946381980257
-0.782257372303661,-0.355767058379984
-0.770261154953886,-0.363925388987277
-0.757933389677028,-0.372415104121095
-0.745279036001793,-0.381228871285669
-0.732303487120562,-0.390358308652861
-0.719012563519679,-0.399794000966886
-0.705412505728041,-0.409525517836608
-0.691509966198767,-0.419541434375278
-0.677312000340594,-0.429829354142289
-0.662826056717581,-0.440375934336411
-0.6480599664375,-0.451166913184885
-0.633021931751109,-0.462187139467866
-0.617720513886234,-0.473420604112895
-0.602164620142299,-0.484850473789445
-0.586363490272543,-0.496459126429125
-0.570326682182783,-0.508228188592767
-0.554064056977047,-0.520138574601513
-0.537585763381878,-0.532170527345048
-0.520902221582472,-0.54430366067635
-0.504024106505096,-0.556517003298795
-0.486962330581488,-0.568789044048069
-0.469728026032055,-0.581097778468229
-0.452332526705753,-0.593420756578332
-0.43478734951553,-0.605735131723385
-0.417104175509071,-0.618017710400905
-0.399294830615422,-0.630245002952211
-0.381371266108752,-0.642393275005575
-0.363345538831151,-0.654438599556712
-0.345229791216895,-0.66635690957059
-0.327036231161018,-0.678124050987394
-0.308777111775397,-0.689715836014536
-0.290464711075783,-0.701108096585948
-0.272111311643363,-0.712276737869494
-0.253729180304483,-0.723197791703209
-0.23533054787212,-0.733847469841212
-0.21692758899254,-0.744202216890538
-0.198532402140346,-0.754238762820801
-0.18015698980478,-0.763934174929532
-0.161813238909698,-0.773265909147231
-0.143512901509147,-0.782211860567605
-0.125267575799795,-0.790750413090206
-0.107088687490829,-0.79886048806459
-0.0889874715710538,-0.806521591827378
-0.0709749545121078,-0.813713862026
-0.0530619369456831,-0.820418112625623
-0.03525897685161,-0.826615877498655
-0.017576373292507,-0.832289452499367
-2.41507294826415e-05,-0.837421935929547
0.0173879560479219,-0.841997267304628
0.0346505163457299,-0.846000264333551
0.0517544173130949,-0.849416658029546
0.0686908769845635,-0.852233125873191
0.0854514565897436,-0.854437322953414
0.102028072104717,-0.856017911016602
0.118413005021223,-0.856964585358624
0.134598912311393,-0.857268099499366
0.150578835567588,-0.856920287584308
0.166346209298753,-0.855914084462709
0.181894868366564,-0.854243543397144
0.197219054546559,-0.85190385136439
0.212313422201413,-0.848891341913013
0.227173043055451,-0.845203505548458
0.241793410061545,-0.840838997621889
0.256170440353519,-0.835797643704641
0.270300477279238,-0.830080442435686
0.284180291511608,-0.823689565835152
0.297807081236744,-0.816628357082566
0.31117847142063,-0.808901325764129
0.324292512157648,-0.800514140598957
0.337147676106371,-0.791473619659821
0.34974285502007,-0.781787718109506
0.362077355381367,-0.771465513479413
0.374150893152487,-0.760517188522508
0.385963587654499,-0.748954011678104
0.397515954590876,-0.736788315191286
0.408808898232619,-0.724033470934975
0.419843702784016,-0.71070386398778
0.430622022949961,-0.696814864025721
0.441145873727499,-0.682382794590817
0.451417619445995,-0.667424900304214
0.461439962081985,-0.651959312096115
0.471215928876375,-0.636005010529187
0.480748859283189,-0.619581787296329
0.490042391280554,-0.602710204977777
0.499100447076016,-0.585411555146367
0.507927218239607,-0.567707814913437
0.516527150299367,-0.549621602011352
0.52490492683518,-0.531176128511826
0.533065453107911,-0.51239515328231
0.541013839261845,-0.493302933285448
0.548755383139343,-0.473924173829219
0.556295552747524,-0.454283977877693
0.563639968417484,-0.434407794534395
0.570794384697282,-0.414321366812124
0.577764672020466,-0.394050678804647
0.584556798192409,-0.373621902376991
0.591176809737107,-0.353061343492145
0.597630813147387,-0.332395388292753
0.603924956081668,-0.311650449056934
0.610065408550505,-0.290852910147619
0.616058344136182,-0.270029074074808
0.621909921288481,-0.24920510778987
0.627626264739596,-0.228406989330496
0.633213447080866,-0.207660454934108
0.638677470543606,-0.186990946736478
0.644024249025866,-0.166423561170992
0.649259590406332,-0.145982998182409
0.654389179185974,-0.12569351136716
0.659418559497248,-0.105578859150125
0.664353118519841,-0.0856622571055358
0.669198070341005,-0.0659663315270549
0.673958440297515,-0.0465130743493145
0.678639049835196,-0.0273237995201526
0.68324450192077,-0.00841910091955499
0.687779167039519,0.0101811880821639
0.692247169810949,0.0284580333380598
0.69665237625321,0.0463932368251323
0.700998381725565,0.0639694716508073
0.705288499576677,0.0811703150886168
0.709525750524852,0.0979802795707403
0.713712852794746,0.114384841569663
0.717852213033316,0.130370468305913
0.72194591802604,0.145924642223689
0.725995727232595,0.161035883181191
0.730003066159369,0.175693768307547
0.733969020584249,0.189888949483481
0.737894331647216,0.203613168408122
0.741779391818328,0.216859269219786
0.74562424175267,0.229621208644002
0.749428568039847,0.241894063647594
0.753191701853597,0.253674036583158
0.756912618505019,0.264958457813938
0.760589937900916,0.275745785814669
0.764221925906665,0.286035604749616
0.767806496611022,0.295828619534686
0.771341215488178,0.305126648396061
0.774823303450406,0.313932612943434
0.778249641782579,0.32225052578143
0.781616777947874,0.33008547568834
0.784920932251989,0.33744361039667
0.788158005351261,0.344332117015393
0.791323586588156,0.350759200139048
0.794412963135746,0.35673405769397
0.797421129930925,0.362266854577015
0.800342800374353,0.367368694147033
0.803172417773367,0.372051587634162
0.805904167502414,0.37632842153663
0.808531989853922,0.38021292307927
0.811049593550982,0.383719623812247
0.813450469891672,0.386863821432653
0.815727907493446,0.389661539915602
0.817875007604631,0.392129488045185
0.819884699948781,0.394285016439265
0.821749759066427,0.396146073165391
0.823462821117604,0.397731158048288
0.825016401107512,0.399059275772288
0.826402910496665,0.400149887884719
0.827614675156006,0.401022863808762
0.828643953626685,0.401698430976441
0.829482955643447,0.402197124194418
0.83012386088002,0.402539734356911
0.830558837874308,0.402747256621554
0.830780063090808,0.402840838165177
0.830779740077327,0.402841725637421
0.830550118672813,0.402771212430775
0.830083514223008,0.402650585886001
0.829372326760562,0.402501074552083
0.828409060106306,0.402343795619659
0.827186340848525,0.402199702646544
0.82569693715734,0.402089533693252
0.823933777391602,0.402033759985517
0.8218899684562,0.402052535219625
0.81955881386815,0.40216564562492
0.816933831490512,0.402392460896142
0.814008770893854,0.40275188610631
0.810777630305816,0.403262314708657
0.807234673110196,0.403941582733677
0.803374443857992,0.404806924284672
0.799191783753847,0.405874928432278
0.794681845582553,0.407161497605298
0.789840108041432,0.408681807571831
0.784662389445756,0.410450269101125
0.779144860775726,0.412480491392799
0.773284058034971,0.41478524735615
0.767076893892041,0.417376440818078
0.760520668577965,0.420265075733885
0.75361308001454,0.423461227470685
0.746352233149745,0.426974016228544
0.73873664847842,0.430811582659669
0.730765269728097,0.434981065741049
0.722437470691791,0.439488582950908
0.713753061191357,0.444339212794163
0.704712292156997,0.449536979716842
0.695315859810416,0.455084841444033
0.685564908941122,0.460984678770552
0.675461035267362,0.467237287827995
0.665006286875202,0.473842374846305
0.654203164731311,0.480798553422408
0.643054622267026,0.488103344302852
0.631564064033366,0.495753177681743
0.619735343428682,0.503743398009671
0.607572759502693,0.512068271303669
0.595081052842713,0.520720994942645
0.58226540054987,0.529693709927203
0.569131410315169,0.538977515577188
0.555685113607209,0.548562486634884
0.541932957985345,0.558437692736381
0.527881798554015,0.56859122020832
0.513538888575863,0.579010196142023
0.498911869263115,0.589680814691926
0.484008758768533,0.600588365540209
0.468837940398991,0.611717264464713
0.453408150076474,0.623051085942477
0.437728463072946,0.634572597716693
0.42180828004714,0.646263797250453
0.405657312412868,0.658105949986457
0.389285567069931,0.670079629327765
0.372703330530111,0.682164758250845
0.355921152472064,0.694340652458486
0.338949828760193,0.706586064976703
0.321800383963778,0.718879232096488
0.304484053413715,0.731197920558278
0.28701226483526,0.743519475874188
0.269396619596105,0.755820871680491
0.25164887360994,0.768078760010536
0.23378091793645,0.780269522376187
0.215804759119326,0.792369321544061
0.197732499304456,0.804354153891254
0.179576316180969,0.816199902223943
0.161348442788146,0.82788238894118
0.143061147231538,0.839377429425423
0.124726712351804,0.850660885540797
0.106357415389908,0.861708719119825
0.0879655076922692,0.872497045319388
0.0695631944994103,0.883002185726898
0.051162614861432,0.893200721098259
0.0327758217233519,0.903069543609941
0.0144147622229747,0.91258590850859
-0.00390874175653991,0.921727485042883
-0.0221830127377877,0.930472406563949
-0.0403965364629812,0.938799319682499
-0.0585379803303692,0.946687432372862
-0.076596211413881,0.954116560916503
-0.0945603140275821,0.961067175580121
-0.112419606797559,0.967520444926251
-0.130163659204941,0.9734582786573
-0.147782307564957,0.978863368897233
-0.165265670408171,0.983719229818546
-0.182604163231409,0.98801023552587
-0.199788512587237,0.991721656111381
-0.216809769482387,0.99483969180129
-0.233659322057038,0.997351505116884
-0.250328907518456,0.999245250978027
-0.266810623304181,1.00051010468158
-0.283096937451655,1.00113628769192
-0.299180698152948,1.00111509118562
-0.315055142475063,1.00043889729733
-0.330713904228155,0.999101198018925
-0.346151020965902,0.997096611709436
-0.361360940104195,0.994420897178244
-0.376338524146258,0.991070965309745
-0.391079055004348,0.987044888202925
-0.405578237410129,0.982341905804935
-0.4198322014079,0.97696243002327
-0.433837503926856,0.97090804630678
-0.447591129430635,0.964181512691364
-0.461090489644438,0.956786756311841
-0.474333422362082,0.948728867387113
-0.487318189337347,0.940014090691362
-0.500043473266078,0.930649814529621
-0.512508373867454,0.920644557241578
-0.524712403074894,0.910007951262998
-0.536655479349002,0.898750724779574
-0.548337921126931,0.886884681013346
-0.559760439424458,0.874422675187127
-0.570924129608919,0.861378589217504
-0.58183046236303,0.847767304192052
-0.592481273861369,0.833604670691327
-0.602878755183082,0.818907477020963
-0.613025440986033,0.8036934154239
-0.622924197469274,0.787981046347195
-0.632578209652273,0.771789760842238
-0.641990968000854,0.755139741181324
-0.651166254431253,0.738051919777502
-0.66010812772505,0.720547936498368
-0.668820908389051,0.702650094468084
-0.67730916299541,0.6843813144552
-0.685577688038431,0.665765087947052
-0.693631493345542,0.646825429014387
-0.701475785080926,0.627586825072561
-0.709115948381162,0.608074186648116
-0.716557529663066,0.588312796261712
-0.723806218644608,0.568328256540389
-0.730867830120408,0.548146437673806
-0.737748285533859,0.527793424330569
-0.744453594388343,0.507295462151947
-0.750989835540347,0.486678903941211
-0.757363138417553,0.465970155667468
-0.763579664205076,0.445195622403316
-0.769645587043135,0.424381654315722
-0.775567075279351,0.403554492829439
-0.781350272818729,0.382740217081849
-0.787001280614172,0.361964690787481
-0.792526138340009,0.3412535096295
-0.797930806290589,0.320631949294322
-0.803221147545502,0.300124914263991
-0.808402910442321,0.279756887479336
-0.813481711397103,0.259551880984904
-0.818463018112046,0.239533387664491
-0.82335213320883,0.219724334173687
-0.828154178325205,0.20014703517306
-0.832874078711311,0.180823148962863
-0.837516548361097,0.16177363461681
-0.84208607571297,0.143018710709312
-0.846586909952523,0.124577815726837
-0.851023047948821,0.106469570250397
-0.855398221854281,0.0887117409921606
-0.859715887396679,0.071321206765054
-0.863979212890241,0.054313926459895
-0.868191068991172,0.0377049091001086
-0.872354019221239,0.0215081860394539
-0.876470311281346,0.00573678536337609
-0.88054186917519,-0.00959729145030029
-0.884570286161316,-0.0244830905607001
-0.888556818549943,-0.0389107244377119
-0.892502380359091,-0.0528713881400992
-0.896407538842548,-0.0663573731629701
-0.900272510900261,-0.079362078825183
-0.904097160379739,-0.091880021172706
-0.907880996275033,-0.103906839379492
-0.911623171827851,-0.115439299633071
-0.915322484533278,-0.126475296497593
-0.918977377050592,-0.137013851752778
-0.922585939017545,-0.147055110712771
-0.926145909764514,-0.156600336034615
-0.929654681922803,-0.165651899031573
-0.933109305919449,-0.174213268512166
-0.936506495348787,-0.18228899717127
-0.939842633209117,-0.189884705565104
-0.943113778990823,-0.197007063707317
-0.946315676600355,-0.203663770328695
-0.949443763102632,-0.209863529848222
-0.952493178262526,-0.215616027108326
-0.95545877486431,-0.220931899932141
-0.958335129786157,-0.225822709565467
-0.961116555805099,-0.23030090907082
-0.963797114106162,-0.234379809745543
-0.966370627467821,-0.238073545640349
-0.968830694094357,-0.241397036258898
-0.971170702064255,-0.244365947523077
-0.973383844362349,-0.246996651092496
-0.975463134462102,-0.249306182130407
-0.977401422423169,-0.251312195611691
-0.979191411468177,-0.25303292127182
-0.980825675001587,-0.254487117298727
-0.982296674032494,-0.255694022872293
-0.98359677496224,-0.256673309658777
-0.984718267696954,-0.257445032369767
-0.985653384044304,-0.258029578497387
-0.986394316353121,-0.258447617339257
-0.986933236353992,-0.258720048428328
-0.987262314158413,-0.258867949484019
-0.987373737373737,-0.258912524002122
