0.766365892889475,0.0120099351519657
0.762749994327098,0.0409203004941949
0.74617037126228,0.0700135122622327
0.717496419568495,0.0981127816629449
0.678210274107598,0.124163869335379
0.630326069361417,0.147320176408313
0.576279132497853,0.167011950309695
0.518791523084223,0.18299463077494
0.460721723877587,0.195372799026486
0.404907208945082,0.204597871255305
0.354009013397376,0.211439485457262
0.201976631659511,0.0987816387841453
0.375698792441642,0.331495510650844
0.251884560395903,0.228874593599249
0.123951643773991,0.146788144244394
0.237706771313578,0.250830531040384
0.247070860680092,0.268457673023324
0.266082531144204,0.291587729563142
0.397077728249647,0.420352634661781
0.325987073682381,0.355421008518264
0.362430537682561,0.395611587121117
0.399888093848892,0.440265980209769
0.435829993840575,0.488102625133212
0.46786271194181,0.537517345827662
0.493860580884917,0.586671354593124
0.512078607775248,0.633598102296647
0.521240133372746,0.676322523463972
0.520594627490083,0.712985286761505
0.509942810509801,0.741964187070382
0.48962833578923,0.761984838296847
0.55271955502591,0.882322334856542
0.423829055097063,0.772324672206543
0.381242636226214,0.762541694995433
0.334586274971452,0.743641956683166
0.285816228400242,0.71693075445002
0.236873415298866,0.684181545360524
0.189565460785709,0.647546559181671
0.145461500988045,0.609442437800438
0.105806108319921,0.572417331330619
0.0714573466613444,0.539007118855549
-0.0479135903515976,0.405626309923181
0.0200016798913356,0.492242581832589
-0.113231047591499,0.386949787644775
-0.0103606906142809,0.483858602013227
-0.0196473264339057,0.496479110962378
0.0668043722491583,0.638073907996216
-0.0324402999270421,0.554781645439281
-0.038568367991802,0.598338725546066
-0.0461507583251422,0.649131848621279
0.0549533033874752,0.808421799853154
-0.0694108115319318,0.76268935357367
-0.0862292948610352,0.819938021064336
-0.106706353117215,0.873692345810261
-0.0176556489922961,1.03541931815023
-0.157178453034232,0.960136575130775
-0.185692472292839,0.988398124138413
-0.215024134152867,1.00455214792446
-0.243984109052384,1.00774648673772
-0.271365018050706,0.997788084804673
-0.296039489049356,0.975150298850915
-0.21371130764583,1.03361718899773
-0.333709639323957,0.896844515190243
-0.22894432796487,0.951349341355659
-0.352801616619011,0.787934405117704
-0.355591381378425,0.728331649111498
-0.354737457154423,0.668963379450153
-0.351311339571092,0.612495479249393
-0.242365853746937,0.68120147056883
-0.342299452775739,0.517581184191388
-0.339859480351701,0.482759878020339
-0.34092865112886,0.457907349053436
-0.346964106210371,0.443447330625335
-0.359179252510305,0.439199371038763
-0.378448151152953,0.444406275037319
-0.519486520151046,0.360147425918389
-0.439510770830005,0.47766231274318
-0.480791643684966,0.501992731182645
-0.640411998845544,0.424810805937646
-0.579953898823068,0.555161116139398
-0.634589004338378,0.579557222752436
-0.588799681047415,0.692895046775629
-0.743599430384284,0.614199256083955
-0.793403518906842,0.621518335277698
-0.934419118778938,0.519600356157088
-0.872695293571694,0.612155530167099
-0.898577380084369,0.595322364515811
-0.913575675897454,0.571062202080089
-0.91706547958428,0.5403855148678
-0.909014551190065,0.50461181723327
-0.890000483941719,0.465270046022101
-0.861192584446745,0.423989044574771
-0.824298731509599,0.382385566562107
-0.781479812984603,0.341957236561803
-0.735236332174613,0.303987442578692
-0.688273506345538,0.269468225811542
-0.643352541583691,0.239045937902352
-0.695654803879299,0.110042683913581
-0.570040962430968,0.191206058293343
-0.54609465889436,0.173233365776533
-0.532824320214876,0.15832362347552
-0.531164619911258,0.145497854310276
-0.541402235475831,0.133635726401087
-0.563156242011733,0.121571128528079
-0.595396299278535,0.108189965039006
-0.636497689018662,0.0925231782891496
-0.684330081872977,0.0738283611268643
-0.736374920064719,0.0516541226422381
-0.78986461432534,0.0258825639569759
-0.841935473579085,-0.00325327183890896
-0.88978549104653,-0.0351783900388862
-0.930827848287326,-0.0690108675353552
-0.962831284245876,-0.103620699677951
-0.984039291018642,-0.137708599221888
-0.993261390910129,-0.169899463539933
-0.989931440318149,-0.198844158661657
-0.869061633028149,-0.106489953625551
-0.9465690951422,-0.242341067427948
-0.818515654587913,-0.143078617348776
-0.861844203944761,-0.261642072272387
-0.808654881107228,-0.261729006240745
-0.751416333097479,-0.25602059442545
-0.692687161564283,-0.245477553024953
-0.634997394389352,-0.231434355651673
-0.580707645225821,-0.215528848098041
-0.531881490453385,-0.199609030101629
-0.490178383175122,-0.185622490537716
-0.456773064792961,-0.175495223745806
-0.432305727734928,-0.171007380222457
-0.41686523705712,-0.173673857038495
-0.410005656923276,-0.184637484183072
-0.410794279645247,-0.204581916447571
-0.417887447442735,-0.23367023197061
-0.429628807892906,-0.271513733331667
-0.444163353562386,-0.317173635951896
-0.459559741543567,-0.369196322482847
-0.473933018475808,-0.425680764998452
-0.485560009055353,-0.484374698778757
-0.492980247036503,-0.542794299244414
-0.495076392470274,-0.598360583460821
-0.491129514774841,-0.648544627840127
-0.480846332512965,-0.691013038193301
-0.464357374982722,-0.723764972029662
-0.442186945875363,-0.745252408854207
-0.415197601570631,-0.754476272074415
-0.384513488578383,-0.751052374007572
-0.351428212338022,-0.735242902588368
-0.317303849471993,-0.70795119003045
-0.283468209619114,-0.670679677724758
-0.251117472273545,-0.625453185925194
-0.221230870654533,-0.574711677335775
-0.194503201219835,-0.521178543118421
-0.171299665151599,-0.467711925028255
-0.151635982549524,-0.417147626721155
-0.135184965557541,-0.37214269626863
-0.121308909666158,-0.335028747228082
-0.109115383902226,-0.307683527192115
0.0136625177850653,-0.171473032946186
-0.0853975058336575,-0.286956083542298
-0.181941089936892,-0.389217460457879
0.0579483202302103,-0.213483689739489
-0.034732109956118,-0.341275554239188
-0.010312202627608,-0.377860258306627
0.0185576051683471,-0.420333405031651
0.051756955200417,-0.466139138212398
0.192492970960604,-0.404782268316602
0.128777139622229,-0.556835023557865
0.170549459031773,-0.596381334066741
0.212666469346334,-0.62886623923196
0.253529995197386,-0.652365870061232
0.291482465404849,-0.665456876582618
0.324918347826661,-0.667284617982845
0.352396355294666,-0.65759735561297
0.372744913210676,-0.636745014320604
0.385153676197461,-0.605643222200388
0.285195389280303,-0.666192507996088
0.38511770263486,-0.518747683291155
0.373366719192817,-0.466872583198963
0.355064654018424,-0.412339366220046
0.331717478577744,-0.357428705052198
0.305189192610766,-0.304310246181321
0.277601863651189,-0.254920962772328
0.251216347168174,-0.210861474409147
0.228300664972041,-0.173316248945435
0.21099392725699,-0.143002000504307
0.312243156326691,-0.0214250544751525
0.200337898915766,-0.104500037550879
0.209500244859838,-0.0953728048607858
0.22912011363175,-0.0917036014698919
0.145260060736032,-0.183876623814772
0.298564886941393,-0.0951721783668694
0.346314241150363,-0.0991820284555191
0.520136860501038,0.00737561875339141
0.458725243568666,-0.104060198019556
0.518534846689698,-0.102335046707867
0.577140904087919,-0.0965696597737485
0.729124516865469,0.0239318532628068
0.679828024486914,-0.0712336673485734
0.605157353961318,-0.144066269006809
0.747205076050664,-0.0283946597548319
0.763220393380975,-0.00199868508249471
