0.790683907533547,-0.286965461269281
0.789940392593782,-0.286836975145102
0.787730979164641,-0.286358875613557
0.784098979103977,-0.285395433675594
0.779102741832629,-0.283816569576392
0.772814942514932,-0.281499466953701
0.765321696898143,-0.278330098869762
0.756721513556172,-0.274204647194129
0.747124096256559,-0.269030798099252
0.736649010988811,-0.262728897934517
0.725424233834881,-0.255232955439238
0.713584597308879,-0.246491478120347
0.701270154025389,-0.236468132633502
0.688624477559156,-0.225142221142748
0.675792921121175,-0.212508967867591
0.662920855188142,-0.198579612330446
0.650151905477548,-0.183381308163815
0.637626212656377,-0.166956828696793
0.625478734907405,-0.14936408288596
0.613837613956749,-0.130675447457896
0.6028226243958,-0.110976923361487
0.59254372511951,-0.0903671267608856
0.583099730463271,-0.0689561268084353
0.574577117167528,-0.0468641442967776
0.56704898165036,-0.0242201269781376
0.560574160243603,-0.00116021883588513
0.555196523069785,0.0221738581192182
0.55094445012925,0.0456364898938115
0.547830495954922,0.0690799039399695
0.545851246903094,0.0923559289334697
0.544987372810121,0.115317759549397
0.54520387238544,0.137821704821488
0.546450509359529,0.159728898870844
0.54866243408974,0.18090695324639
0.551760983075649,0.201231530828165
0.555654646675807,0.22058782219659
0.560240193275959,0.238871906554776
0.565403936259526,0.255991980692196
0.571023128397601,0.271869441079857
0.576967466728894,0.286439805969786
0.583100689658716,0.299653466313742
0.589282246886582,0.311476256393899
0.59536902188782,0.321889837246659
0.601217086036527,0.330891888233083
0.606683463073021,0.338496104438258
0.611627882493224,0.344731999938783
0.615914500571786,0.349644519334006
0.61941356812351,0.353293462263992
0.62200302475406,0.355752727907198
0.623570000243114,0.357109388635996
0.624012204830329,0.357462604081854
0.623239191522905,0.356922388799165
0.621173475096933,0.35560824849371
0.617751494204138,0.353647701377128
0.61292440489999,0.351174702603098
0.606658695955396,0.348327990917287
0.598936618477338,0.345249377597292
0.589756424617812,0.342081998459188
0.57913241246767,0.338968550155562
0.567094776584558,0.3360495321805
0.553689265963359,0.333461515927584
0.538976653594853,0.331335461818543
0.523032024045243,0.329795104936527
0.505943887698117,0.328955428766364
0.487813132404371,0.328921245574545
0.468751825259193,0.329785900667124
0.448881879044347,0.331630116259892
0.428333599516724,0.334520989000413
0.407244131170345,0.338511153316229
0.385755820331375,0.343638120750578
0.364014515449027,0.349923803310578
0.342167825207545,0.357374226619063
0.320363355596358,0.365979436357215
0.298746947330822,0.375713599138684
0.277460935011664,0.386535296595699
0.256642449147243,0.398388009112181
0.236421781642413,0.41120078333671
0.216920834587277,0.424889075377257
0.19825167116791,0.439355759446914
0.180515186281426,0.454492289721397
0.163799912984669,0.470180001309191
0.148180979256884,0.486291534546447
0.133719227732067,0.502692365331612
0.120460509078388,0.519242422927499
0.108435157594191,0.535797775596604
0.0976576553781537,0.55221236361199
0.0881264891420807,0.568339758610816
0.0798242013963623,0.58403492793774
0.0727176353786258,0.59915598256468
0.0667583707442947,0.613565887372702
0.0618833447221261,0.627134113038495
0.0580156511864572,0.639738209476648
0.0550655079381819,0.651265281740987
0.0529313804446064,0.661613350472138
0.0515012483890994,0.670692580379782
0.0506539996478924,0.678426361849828
0.0502609347645589,0.684752232549469
0.0501873636513777,0.689622627845124
0.0502942751272394,0.693005450926169
0.0504400590175945,0.69488445571571
0.0504822599038786,0.695259437922039
0.0502793412256444,0.694146231913198
0.0496924383129394,0.691576513453985
0.0485870790608205,0.687597410701149
0.0468348513506553,0.682270928179886
0.0443149969692695,0.675673190734777
0.0409159126691978,0.667893516633388
0.0365365401404693,0.659033331074543
0.0310876280128071,0.649204933290345
0.0244928505604952,0.638530132208099
0.0166897695215931,0.627138767233652
0.00763062734755644,0.61516713211197
-0.00271703775447549,0.602756320997191
-0.0143699624612656,0.590050516808474
-0.0273289198755498,0.577195242648452
-0.0415786748739018,0.564335597509286
-0.0570881338111551,0.551614497681923
-0.0738106867729082,0.539170945214807
-0.0916847382303539,0.527138344439779
-0.110634419664716,0.515642886999336
-0.130570475519692,0.504802024977721
-0.151391311736304,0.494723050668768
-0.172984194151049,0.48550180021881
-0.195226582219014,0.477221496879203
-0.21798758188101,0.469951747908166
-0.241129499947438,0.46374770729642
-0.264509481139346,0.458649414478127
-0.287981207923729,0.454681317052218
-0.311396642517862,0.451851983305478
-0.334607789925562,0.450154008024653
-0.357468460612895,0.449564112738475
-0.379836011435243,0.45004343917021
-0.401573043691543,0.45153803233594
-0.422549037701937,0.453979507421574
-0.442641904075493,0.457285892340646
-0.461739432845933,0.461362635742308
-0.479740622892962,0.466103768230441
-0.496556875519916,0.471393202694918
-0.51211303770737,0.47710615796727
-0.526348282386995,0.483110688515931
-0.539216815058278,0.489269301608882
-0.55068839817859,0.495440642309696
-0.56074868696904,0.501481225849442
-0.569399372567621,0.507247196341693
-0.576658130799658,0.512596090488025
-0.582558377195009,0.517388584860646
-0.587148831233343,0.521490205548081
-0.590492895114422,0.52477297940654
-0.592667854601685,0.527117006868325
-0.593763911647134,0.528411937210714
-0.593883060547389,0.528558328372616
-0.59313782128003,0.527468874807651
-0.59164984540289,0.525069488464012
-0.589548411445817,0.521300219764236
-0.586968828065711,0.516116007400056
-0.584050764355232,0.509487247835373
-0.580936527579703,0.501400177598759
-0.57776930925483,0.491857063719297
-0.574691420862036,0.480876199988325
-0.57184254062392,0.468491709086565
-0.569357992628007,0.454753152972551
-0.567367079194179,0.439724956255612
-0.565991486734776,0.423485649546683
-0.565343784464179,0.40612694196535
-0.565526034187495,0.387752634055245
-0.56662852804951,0.368477384297055
-0.568728669571743,0.34842534418541
-0.571890011565963,0.327728678431325
-0.576161462608193,0.30652598824617
-0.581576671711,0.284960656839526
-0.588153598668673,0.263179137207417
-0.595894275296005,0.24132920298784
-0.604784760464022,0.219558183608743
-0.614795289483533,0.198011205144201
-0.625880616028089,0.176829458225157
-0.63798054245068,0.15614851402261
-0.651020632061529,0.13609670873756
-0.664913094725484,0.1167936162003
-0.679557835033487,0.0983486271121281
-0.69484365032909,0.0808596521679034
-0.710649564051804,0.0644119647941419
-0.726846278216404,0.0490771975424595
-0.743297727401012,0.0349125043130039
-0.759862715384511,0.0219598985694589
-0.776396614570441,0.0102457755708709
-0.792753107572278,-0.000219375588235843
-0.808785949823076,-0.00944106664205788
-0.824350731817121,-0.0174407103810255
-0.839306619595595,-0.0242553276618874
-0.853518052352188,-0.0299370647650648
-0.866856376554993,-0.0345525269661501
-0.879201396751478,-0.0381819364193842
-0.890442824234569,-0.0409181245836021
-0.900481605987551,-0.0428653714296079
-0.909231117778645,-0.0441381055278482
-0.916618206924995,-0.0448594808040123
-0.922584072070503,-0.0451598472473072
-0.927084969300219,-0.0451751341434624
-0.930092736021923,-0.045045165466377
-0.931595126257442,-0.0449119278858568
-0.931595953275357,-0.0449178124240891
-0.93011503783521,-0.0452038511133992
-0.927187962672828,-0.04590797006853
-0.922865636208182,-0.0471632801874568
-0.917213670772877,-0.0490964262380102
-0.910311582905683,-0.051826014378868
-0.902251825424241,-0.0554611372114078
-0.893138663022971,-0.0601000142750259
-0.88308690504641,-0.0658287644972164
-0.87222051082081,-0.0727203255079536
-0.860671084473627,-0.0808335329451989
-0.848576277511879,-0.0902123709362734
-0.836078118549882,-0.100885402862
-0.823321290461063,-0.112865389322128
-0.810451375866586,-0.126149097948185
-0.797613092257758,-0.140717307381105
-0.784948538174864,-0.156535005374112
-0.772595471730739,-0.173551778624884
-0.760685642374625,-0.191702389613681
-0.749343196145456,-0.210907533454107
-0.738683173771513,-0.231074765578073
-0.728810119846238,-0.252099589002767
-0.719816819961528,-0.273866687990353
-0.711783181126476,-0.296251293134052
-0.704775269060092,-0.319120661308935
-0.698844514042173,-0.342335652531384
-0.694027094960273,-0.36575238459483
-0.69034350902755,-0.389223945405269
-0.687798332392323,-0.412602142239569
-0.686380174542884,-0.435739266701413
-0.686061827058559,-0.458489853959103
-0.686800604898779,-0.480712414918819
-0.68853887608465,-0.502271120315438
-0.691204773340529,-0.523037416286598
-0.694713079054268,-0.542891551827371
-0.698966272810765,-0.561723999592493
-0.703855728779955,-0.579436752807686
-0.709263048421171,-0.595944482555392
-0.715061512323168,-0.611175541395088
-0.721117633552791,-0.625072801143547
-0.727292793652992,-0.637594314653453
-0.733444941427509,-0.648713793565139
-0.739430333887267,-0.658420896239951
-0.745105298221636,-0.666721322387891
-0.750327993402361,-0.673636713248516
-0.754960150032309,-0.679204358544369
-0.75886876731514,-0.683476713771663
-0.761927746542388,-0.686520733695106
-0.764019441264907,-0.688417030144709
-0.765036105326862,-0.689258864345107
-0.764881221180151,-0.689150986016361
-0.763470692350254,-0.688208333345147
-0.760733885573402,-0.686554609613983
-0.75661450994966,-0.684320753773283
-0.751071322434794,-0.68164332352831
-0.744078651101708,-0.678662810574992
-0.735626729814134,-0.675521908442088
-0.725721840244409,-0.672363753972373
-0.714386259505586,-0.669330163795456
-0.701658014027639,-0.666559887205495
-0.687590442659363,-0.664186896657895
-0.672251574293174,-0.662338736642275
-0.655723327561398,-0.661134950980364
-0.638100542312329,-0.660685607645331
-0.619489854616207,-0.661089939015242
-0.600008428950524,-0.662435114071979
-0.579782562947612,-0.664795157455238
-0.558946181634292,-0.668230028498488
-0.537639239434709,-0.672784871431696
-0.516006049327017,-0.678489445857793
-0.494193559428715,-0.685357744421471
-0.472349597923564,-0.693387802316514
-0.45062110762715,-0.702561700949115
-0.429152391613895,-0.712845765717699
-0.408083391193971,-0.72419095551339
-0.387548017135774,-0.73653343921787
-0.367672554383262,-0.7497953522054
-0.348574159625223,-0.763885723670624
-0.330359469946382,-0.77870156353009
-0.313123339441815,-0.794129095708279
-0.296947719122755,-0.810045122841894
-0.28190069370246,-0.826318505840824
-0.268035686946417,-0.842811740349843
-0.25539084522499,-0.859382610978769
-0.243988606743378,-0.875885903224637
-0.233835461669862,-0.892175152309062
-0.224921906065985,-0.908104407705695
-0.217222590169801,-0.923529991942116
-0.210696659224042,-0.938312232329883
-0.205288282703828,-0.952317144604927
-0.200927365511532,-0.965418048044105
-0.197530432497569,-0.977497092455386
-0.195001675561868,-0.988446678508729
-0.193234150617244,-0.998170754169308
-0.192111109876745,-1.00658597149853
-0.191507453284321,-1.0136226897831
-0.191291281461944,-1.01922581281769
-0.191325531313947,-1.02335545017968
-0.191469674426021,-1.02598739447084
-0.191581457634,-1.02711340873475
-0.191518664625689,-1.02674132056244
-0.191140877183616,-1.02489492174571
-0.190311214680962,-1.02161367469725
-0.188898030706855,-1.01695222920256
-0.186776546217599,-1.01097975537064
-0.183830399380875,-1.00377910088147
-0.179953093291185,-0.995445782760888
-0.175049323974495,-0.986086825922001
-0.169036172553143,-0.975819462572215
-0.161844147091001,-0.964769708273588
-0.15341806146354,-0.953070831941504
-0.14371774057574,-0.940861738353855
-0.132718543358699,-0.928285282804855
-0.120411697187708,-0.915486538361079
-0.106804439653658,-0.902611036752603
-0.0919199659581033,-0.889803004251944
-0.0757971825618202,-0.877203613954257
-0.0584902700684661,-0.864949275672981
-0.0400680606406569,-0.853169984208418
-0.0206132374970635,-0.841987746038015
-0.000221366198870948,-0.831515103525017
0.0210002305241972,-0.821853774558345
0.0429337407588473,-0.813093424135173
0.0654522588211772,-0.805310582795983
0.0884212911678046,-0.798567725039123
0.111700354534008,-0.792912518899843
0.135144646908189,-0.788377255800922
0.15860677106779,-0.78497846759364
0.18193848976375,-0.78271673543546
0.204992491256384,-0.781576692822001
0.227624143779845,-0.781527222734028
0.249693217646727,-0.782521846503692
0.271065554097093,-0.784499299676981
0.291614660642631,-0.787384287879269
0.311223213548864,-0.791088413505775
0.329784449225451,-0.795511261984993
0.347203427643153,-0.800541634426066
0.36339815244933,-0.806058911683999
0.378300534193323,-0.811934533281293
0.391857184977416,-0.818033573230221
0.404030034895304,-0.824216393623619
0.414796762783164,-0.83034035591791
0.424151036062395,-0.836261569131703
0.432102556770348,-0.841836653735004
0.438676913227966,-0.846924499813586
0.443915239152453,-0.851387998162343
0.44787368436039,-0.855095723290008
0.450622703493699,-0.857923547901207
0.452246171409688,-0.859756169253453
0.452840335980473,-0.860488528856332
0.452512621020544,-0.860027108274665
0.451380293880469,-0.858291085301255
0.449569013887373,-0.855213336459655
0.447211279259148,-0.850741273662613
0.44444479135161,-0.844837504864858
0.441410756101231,-0.837480310685294
0.438252143288347,-0.828663931207389
0.435111924757632,-0.818398659470658
0.432131312987989,-0.806710740512548
0.429448021399665,-0.793642077180253
0.427194567522448,-0.779249746277457
0.425496639628428,-0.763605330913205
0.424471546662322,-0.746794077151001
0.424226770291178,-0.728913885188965
0.424858636655537,-0.710074147310296
0.426451123951053,-0.690394446703217
0.429074820320648,-0.670003132938387
0.432786044712621,-0.649035791388773
0.437626141381823,-0.627633625164439
0.443620956603132,-0.605941769196408
0.450780503954512,-0.584107556927441
0.459098822237895,-0.562278760642634
0.46855402776759,-0.540601826792787
0.47910856039652,-0.519220127724036
0.4907096202987,-0.498272251028151
0.50328979021077,-0.477890347271093
0.516767835584041,-0.458198556148705
0.531049672938802,-0.439311530166399
0.546029494670782,-0.421333073755767
0.561591036660403,-0.404354914339756
0.577608973301936,-0.388455620256291
0.593950423022806,-0.373699678667523
0.610476546022015,-0.360136744639761
0.627044214837056,-0.347801070501392
0.643507737464606,-0.336711122397578
0.659720612122117,-0.326869388688297
0.675537292353349,-0.318262382507383
0.690814941055097,-0.310860838443403
0.705415152136754,-0.304620100946763
0.719205618917146,-0.299480699740061
0.732061729009417,-0.295369105238738
0.743868066337022,-0.29219865480391
0.754519802050983,-0.289870638575577
0.763923957467089,-0.288275531697269
0.772000523695034,-0.287294357966148
0.778683424370958,-0.286800168347235
0.783921309809222,-0.286659616396089
0.787678172935447,-0.286734611457913
0.789933779526065,-0.286884029566907
0.790683907533547,-0.286965461269282
