-0.439929599020508,0.340183416823237
-0.439864946997093,0.340186273061531
-0.439670391737315,0.340186722061855
-0.439345060503214,0.340172609614844
-0.438888117100521,0.340131839423721
-0.438298764131906,0.340052403103242
-0.437576245226852,0.33992240997541
-0.436719847243082,0.339730116594757
-0.435728902434481,0.33946395593655
-0.434602790580552,0.339112566182063
-0.433340941072482,0.338664819035935
-0.431942834951,0.338109847511707
-0.430408006891271,0.337437073122786
-0.428736047130221,0.336636232417449
-0.426926603331746,0.335697402797944
-0.424979382385419,0.334611027565347
-0.422894152134428,0.333367940133584
-0.420670743028628,0.331959387357852
-0.418309049698723,0.330377051924691
-0.415809032447789,0.328613073753017
-0.41317071865648,0.326660070357676
-0.410394204098461,0.324511156129372
-0.407479654162805,0.322159960487242
-0.404427304980241,0.319600644862898
-0.401237464450398,0.316827918477343
-0.397910513167353,0.313837052874874
-0.394446905241018,0.310623895180866
-0.390847169012124,0.307184880053182
-0.387111907658774,0.30351704029988
-0.383241799692769,0.299618016138857
-0.379237599344147,0.295486063078114
-0.3751001368326,0.291120058398422
-0.370830318524685,0.286519506223264
-0.366429126975973,0.281684541164116
-0.361897620857532,0.276615930532295
-0.357236934766392,0.271315075111831
-0.352448278919862,0.265784008490999
-0.347532938733833,0.260025394953412
-0.342492274285454,0.254042525932771
-0.337327719660785,0.247839315038592
-0.332040782188302,0.241420291663412
-0.326633041559365,0.234790593185169
-0.321106148836979,0.227955955781585
-0.31546182535445,0.220922703876465
-0.309701861505746,0.213697738240929
-0.303828115429601,0.206288522775564
-0.297842511589649,0.198703070002449
-0.29174703925307,0.190949925298905
-0.285543750870463,0.183038149907612
-0.279234760359844,0.174977302760502
-0.272822241297921,0.166777421156468
-0.266308425021923,0.158449000335516
-0.259695598645516,0.150002971994445
-0.252986102992471,0.141450681791514
-0.246182330451961,0.132803865889825
-0.239286722759483,0.124074626591297
-0.232301768707616,0.115275407115154
-0.225230001790904,0.106418965576762
-0.218073997789356,0.0975183482244443
-0.210836372295141,0.0885868619935715
-0.203519778187177,0.0796380464387609
-0.19612690305844,0.0706856451064047
-0.188660466600902,0.0617435764110191
-0.181123217953089,0.0528259040800146
-0.173517933015333,0.0439468072324662
-0.165847411737856,0.0351205501582864
-0.158114475386872,0.026361451864883
-0.150321963793933,0.0176838554589157
-0.142472732593784,0.00910209743114115
-0.134569650455997,0.000630476912562905
-0.126615596315677,-0.00771677502981744
-0.118613456608506,-0.0159255259894392
-0.1105661225154,-0.0239817726408191
-0.102476487222004,-0.0318716709167866
-0.0943474431982257,-0.0395815658752448
-0.0861818795029527,-0.0470980211890644
-0.0779826791190264,-0.0544078481935545
-0.0697527163234927,-0.0614981344269205
-0.061494854098049,-0.0683562716002484
-0.0532119415845161,-0.0749699829348109
-0.0449068115900639,-0.0813273498058936
-0.0365822781467963,-0.0874168376338726
-0.0282411341301795,-0.0932273209649478
-0.019886148940664,-0.0987481076857272
-0.011520066252698,-0.103968962317783
-0.00314560183518441,-0.108880128340343
0.00523455855273165,-0.113472349491422
0.0136177611868355,-0.117736890000004
0.0220013863204354,-0.121665553704199
0.0303828500410293,-0.125250702012843
0.0387596060378929,-0.128485270670515
0.047129147277634,-0.131362785288648
0.0554890075849693,-0.133877375608126
0.063836763126192,-0.136023788461597
0.0721700337930138,-0.137797399406598
0.080486484484696,-0.139194223003568
0.0887838262866038,-0.140210921715826
0.0970598175435558,-0.140844813411635
0.105312264826574,-0.141093877451623
0.113539023791875,-0.140956759347937
0.121737999931193,-0.140432773984693
0.129907149212752,-0.139521907392504
0.138044478612462,-0.138224817073048
0.146148046535158,-0.136542830872886
0.154215963125925,-0.134477944408963
0.16224639047183,-0.132032817051427
0.170237542694592,-0.129210766472643
0.178187685934988,-0.126015761774417
0.186095138230009,-0.122452415208668
0.193958269284048,-0.118525972509844
0.201775500135599,-0.114242301860531
0.209545302721206,-0.109607881514689
0.217266199338619,-0.104629786105966
0.224936762011328,-0.0993156716714407
0.232555611756862,-0.0936737594240322
0.240121417761478,-0.0877128183095457
0.247632896464027,-0.0814421463870786
0.255088810552017,-0.0748715510740825
0.262487967873066,-0.0680113282999255
0.269829220265142,-0.0608722406142096
0.277111462309127,-0.053465494298424
0.284333630007452,-0.0458027155317303
0.291494699392689,-0.0378959256637689
0.298593685070127,-0.0297575156493643
0.305629638698522,-0.021400219701861
0.312601647413332,-0.0128370882235586
0.319508832196871,-0.00408146007331478
0.326350346199918,0.00485306576714778
0.333125373019451,0.0139526590653607
0.339833124937217,0.0232032876845926
0.346472841123982,0.0325907473395943
0.353043785814334,0.0421006916955876
0.359545246456985,0.0517186627437358
0.365976531845582,0.0614301213857218
0.372336970235027,0.0712204781596019
0.378625907448391,0.0810751240387995
0.384842704979459,0.0909794612359521
0.390986738095997,0.100918933943318
0.397057393948771,0.110879058941605
0.403054069691379,0.120845456009386
0.408976170615876,0.130803878065714
0.414823108309158,0.140740240979167
0.420594298835008,0.150640652977296
0.426289160946619,0.16049144359134
0.431907114334376,0.170279192072158
0.437447577913543,0.179990755214458
0.442909968156422,0.189613294527777
0.448293697473457,0.199134302694133
0.4535981726476,0.208541629253815
0.458822793326158,0.217823505462592
0.463966950574185,0.226968568265401
0.469030025493339,0.235965883333602
0.47401138790996,0.244804967114968
0.478910395135979,0.253475807847787
0.483726390806051,0.261968885492776
0.488458703794189,0.27027519053893
0.493106647212908,0.278386241641948
0.497669517497766,0.286294102056485
0.502146593579929,0.293991394826183
0.50653713614921,0.301471316698214
0.51084038700981,0.308727650731916
0.515055568530763,0.315754777574021
0.519181883192865,0.322547685375965
0.523218513233652,0.329101978331798
0.527164620391732,0.335413883818302
0.531019345751572,0.34148025812204
0.534781809689583,0.347298590741228
0.538451111922106,0.352867007253506
0.542026331655679,0.35818427074388
0.545506527839698,0.363249781790342
0.548890739521368,0.368063577007876
0.552177986302573,0.372626326154798
0.555367268898066,0.376939327808592
0.558457569794149,0.381004503621569
0.561447854006746,0.384824391169907
0.564337069937565,0.388402135412699
0.56712415032679,0.391741478780824
0.569808013300535,0.394846749918432
0.572387563511035,0.397722851102916
0.574861693367369,0.400375244372157
0.577229284354245,0.402809936390721
0.579489208436212,0.405033462089511
0.58164032954442,0.407052867116115
0.583681505142877,0.40887568913575
0.585611587870939,0.410509938025246
0.587429427258604,0.411964075005041
0.58913387151098,0.413246990756449
0.590723769358149,0.41436798257382
0.592197971966472,0.415336730603287
0.593555334907233,0.416163273221879
0.594794720178383,0.416857981612702
0.595914998275001,0.417431533593644
0.596915050303957,0.417894886758777
0.597793770138184,0.418259250993126
0.598550066605816,0.418536060422897
0.599182865709377,0.418736944864497
0.599691112870139,0.418873700836821
0.600073775192662,0.418958262202224
0.600329843744489,0.419002670502459
0.600458335845926,0.419019045056521
0.600458297364768,0.419019552887861
0.600328805010846,0.419016378548847
0.600068968625221,0.419021693910537
0.59967793345886,0.419047627985929
0.599154882435651,0.419106236854783
0.598499038394594,0.41920947375785
0.59770966630609,0.419369159428009
0.596786075457242,0.419596952725236
0.595727621601159,0.419904321641688
0.59453370906533,0.420302514742322
0.59320379281418,0.420802533105536
0.591737380461033,0.421415102827152
0.5901340342248,0.422150648149846
0.588393372826794,0.423019265278701
0.586515073323236,0.424030696942039
0.584498872869101,0.425194307755023
0.582344570409115,0.42651906044171
0.580052028291864,0.428013492969337
0.577621173803111,0.429685696646574
0.5750520006146,0.431543295235309
0.572344570144802,0.433593425123294
0.569499012828227,0.435842716602583
0.566515529290116,0.438297276296236
0.56339439142354,0.440962670773178
0.560135943366111,0.443843911388483
0.556740602373752,0.446945440383566
0.553208859589144,0.450271118277983
0.549541280702732,0.453824212581643
0.545738506504382,0.457607387853277
0.541801253323988,0.461622697128011
0.537730313359603,0.465871574733811
0.533526554891874,0.470354830513498
0.529190922383814,0.475072645465829
0.524724436465177,0.480024568816046
0.520128193800966,0.485209516523017
0.515403366843815,0.490625771226945
0.510551203470275,0.496270983638369
0.505573026501239,0.502142175365951
0.500470233107011,0.508235743177357
0.495244294097765,0.514547464684304
0.489896753100377,0.521072505439669
0.484429225622854,0.527805427431412
0.478843398007836,0.534740198954917
0.473141026276854,0.541870205842287
0.467323934867301,0.549188264024093
0.461394015264249,0.556686633396082
0.455353224529512,0.564357032960452
0.44920358373056,0.57219065720842
0.44294717627207,0.580178193708061
0.436586146133165,0.588309841858675
0.43012269601354,0.596575332770342
0.423559085391879,0.604963950224793
0.416897628500186,0.613464552671309
0.410140692217764,0.622065596209055
0.403290693888818,0.630755158505012
0.396350099067761,0.639520963594612
0.389321419196487,0.648350407510166
0.382207209217994,0.657230584680353
0.375010065130903,0.666148315042278
0.367732621489502,0.675090171806016
0.360377548854089,0.684042509810117
0.352947551196475,0.692991494405171
0.345445363265603,0.701923130801387
0.337873747918316,0.71082329381508
0.330235493420374,0.71967775794804
0.322533410722905,0.728472227733044
0.314770330719463,0.737192368278124
0.306949101488978,0.745823835941784
0.299072585529837,0.754352309071036
0.291143656990394,0.762763518733988
0.283165198901181,0.771043279378702
0.275140100414112,0.77917751935021
0.267071254053897,0.787152311197871
0.258961552986919,0.794953901705713
0.250813888312714,0.802568741579012
0.242631146383183,0.809983514721111
0.234416206154594,0.817185167035391
0.226171936577308,0.82416093468835
0.217901194028151,0.830898371770939
0.209606819790175,0.837385377296636
0.201291637584494,0.843610221476203
0.192958451158739,0.849561571210686
0.184610041936553,0.855228514745927
0.176249166732383,0.860600585433749
0.167878555535731,0.865667784546923
0.159500909368793,0.870420603097156
0.151118898221312,0.874850042607524
0.142735159066274,0.878947634793119
0.134352293959863,0.882705460106096
0.125972868228953,0.886116165103811
0.117599408749188,0.889172978601383
0.109234402316476,0.891869726572705
0.100880294114571,0.894200845766683
0.0925394862811396,0.896161396008392
0.0842143365745295,0.897747071157694
0.0759071571432074,0.89895420870091
0.0676202133996171,0.899779797954133
0.0593557229999716,0.900221486859865
0.0511158549312521,0.900277587361812
0.0429027287064521,0.899947079345787
0.0347184136688606,0.899229613137904
0.0265649284059387,0.89812551055443
0.0184442402730951,0.89663576450087
0.0103582650274264,0.894762037121128
0.00230886657124081,0.892506656500756
-0.00570214319505928,0.889872611931565
-0.0136730044113998,0.88686354774804
-0.0216020091886764,0.883483755749191
-0.0294875014327514,0.879738166222613
-0.037327876563195,0.87563233759063
-0.0451215811283809,0.871172444701469
-0.0528671123187806,0.866365265791427
-0.0605630173805185,0.861218168146919
-0.0682078929314812,0.855739092498228
-0.0758003841824712,0.849936536179565
-0.0833391840661196,0.843819535092786
-0.0908230322764618,0.837397644514809
-0.0982507142222877,0.830680918791288
-0.105621059897551,0.823679889961626
-0.112932942672314,0.816405545362742
-0.120185278007876,0.808869304261314
-0.127377022099887,0.801082993566333
-0.134507170453419,0.793058822675879
-0.141574756394098,0.78480935751394
-0.148578849519549,0.776347493814886
-0.155518554095531,0.767686429714886
-0.162393007401241,0.758839637711082
-0.169201378028401,0.749820836050744
-0.175942864138811,0.740643959613901
-0.182616691685153,0.731323130354019
-0.1892221125999,0.72187262736234
-0.19575840295725,0.712306856622259
-0.202224861113057,0.702640320520847
-0.208620805827759,0.69288758718514
-0.214945574377372,0.683063259711175
-0.22119852065758,0.673181945354038
-0.227379013286007,0.663258224747201
-0.233486433707734,0.653306621219408
-0.239520174309095,0.643341570277092
-0.24547963654478,0.633377389319978
-0.251364229083228,0.623428247656942
-0.257173365975229,0.613508136888571
-0.262906464850613,0.603630841721996
-0.268562945147811,0.59380991128264
-0.274142226381012,0.584058630986347
-0.279643726449524,0.574389995034172
-0.285066859993853,0.564816679590656
-0.290411036802905,0.55535101670489
-0.295675660276576,0.546004969032042
-0.300860125947872,0.536790105411158
-0.30596382006855,0.52771757735321
-0.310986118262132,0.518798096491248
-0.315926384247952,0.510041913042427
-0.320783968639767,0.501458795329354
-0.325558207822244,0.493058010405877
-0.330248422908481,0.484848305829945
-0.334853918781505,0.476837892623586
-0.339373983222507,0.469034429457435
-0.343807886128354,0.461445008094461
-0.34815487882071,0.454076140124761
-0.352414193448896,0.446933745020373
-0.356585042488365,0.440023139536133
-0.360666618336481,0.433349028479568
-0.364658093007017,0.42691549686978
-0.368558617924601,0.420726003502153
-0.372367323820052,0.41478337593257
-0.37608332072736,0.409089806891684
-0.379705698082784,0.403646852136537
-0.383233524926308,0.39845542974368
-0.386665850205483,0.39351582084464
-0.390001703181396,0.388827671801448
-0.393240093936287,0.384389997816642
-0.39638001398211,0.380201187969016
-0.399420436969054,0.376259011663152
-0.402360319492842,0.372560626477661
-0.405198601999368,0.369102587393883
-0.407934209785001,0.365880857383755
-0.410566054090681,0.362890819332496
-0.41309303328766,0.360127289268783
-0.415514034152579,0.357584530872169
-0.417827933229312,0.355256271224639
-0.420033598274822,0.353135717770436
-0.42212988978606,0.351215576445569
-0.424115662604766,0.349488070935804
-0.425989767596794,0.347944963019452
-0.427751053402461,0.346577573948788
-0.429398368254194,0.345376806821674
-0.430930561857621,0.344333169892702
-0.432346487332062,0.343436800771108
-0.433645003206271,0.342677491450699
-0.434824975465082,0.342044714115206
-0.435885279642554,0.341527647660719
-0.436824802957013,0.341115204875282
-0.437642446483358,0.340796060214235
-0.43833712735783,0.340558678108578
-0.438907781010404,0.340391341742446
-0.439353363419864,0.340282182234709
-0.439672853386548,0.340219208158849
-0.439865254817729,0.340190335334471
-0.439929599020508,0.340183416823237
