-0.484680134680135,0.0812963757335317
-0.484597446615365,0.081294734533988
-0.484349281853051,0.0812794064022376
-0.483935520686805,0.081234819013621
-0.48335608528349,0.0811454768895763
-0.482610940105138,0.0809959998412479
-0.481700092317687,0.0807711611520135
-0.480623592185513,0.0804559254127723
-0.479381533450804,0.0800354859246107
-0.477974053696797,0.0794953015844323
-0.476401334693918,0.0788211331702901
-0.474663602727903,0.0779990789445036
-0.472761128908977,0.0770156094941662
-0.470694229461208,0.0758576017303527
-0.468463265991156,0.0745123719692167
-0.466068645734987,0.0729677080202198
-0.463510821783236,0.071211900208951
-0.460790293282438,0.0692337712643778
-0.457907605612862,0.0670227050029069
-0.454863350541663,0.0645686737443205
-0.451658166350732,0.0618622643974881
-0.448292737938631,0.0588947031567273
-0.444767796895988,0.0556578787527902
-0.441084121553795,0.0521443642056818
-0.43724253700408,0.0483474370298673
-0.43324391509248,0.0442610978458802
-0.429089174382255,0.0398800873559056
-0.424779280089386,0.0351999016445723
-0.420315243988365,0.0302168057699236
-0.41569812428842,0.024927845613366
-0.410929025479892,0.0193308579612787
-0.406009098150566,0.0134244787949249
-0.400939538771816,0.0072081497693072
-0.395721589454431,0.00068212286565783
-0.39035653767409,-0.00615253679366133
-0.384845715966463,-0.0132939499749683
-0.379190501591991,-0.0207394242107749
-0.373392316170432,-0.0284854565238689
-0.367452625285322,-0.0365277379927001
-0.361372938058542,-0.044861160148691
-0.35515480669524,-0.0534798231919908
-0.348799825999394,-0.0623770460081361
-0.342309632860359,-0.071545377964041
-0.335685905710798,-0.0809766124577714
-0.328930363956424,-0.0906618021926307
-0.322044767378041,-0.100591276142225
-0.315030915506426,-0.110754658169399
-0.307890646970604,-0.121140887258233
-0.300625838820168,-0.131738239314667
-0.293238405822273,-0.142534350487843
-0.285730299734041,-0.153516241960809
-0.278103508551095,-0.16467034615597
-0.270360055733021,-0.1759825342975
-0.262501999406572,-0.187438145269872
-0.25453143154747,-0.199022015708784
-0.246450477141702,-0.210718511257984
-0.238261293327219,-0.222511558922885
-0.229966068517008,-0.234384680449405
-0.221567021504497,-0.246321026654169
-0.213066400552324,-0.258303412630075
-0.204466482465472,-0.270314353749255
-0.19576957164986,-0.282336102383676
-0.186977999157427,-0.294350685262023
-0.17809412171883,-0.30633994138004
-0.169120320764851,-0.31828556038031
-0.160059001437638,-0.330169121316335
-0.150912591592912,-0.341972131714961
-0.141683540794292,-0.353676066850483
-0.132374319300867,-0.365262409143278
-0.122987417049202,-0.376712687595552
-0.113525342630899,-0.388008517176652
-0.103990622266902,-0.399131638070524
-0.0943857987796803,-0.410063954698184
-0.0847134305644457,-0.420787574428541
-0.0749760905605562,-0.431284845891624
-0.0651763652242262,-0.441538396809102
-0.0553168535036795,-0.451531171258092
-0.0454001658178453,-0.461246466285446
-0.0354289230396991,-0.470667967791209
-0.0254057554853187,-0.479779785601492
-0.0153333019097147,-0.488566487652848
-0.00521420851046883,-0.497013133212181
0.00494887205980818,-0.505105305058354
0.0151532816712174,-0.512829140554
0.0253963576835528,-0.520171361538435
0.0356754339015973,-0.527119302975271
0.0459878415178367,-0.53366094029101
0.056330910041732,-0.539784915343877
0.0667019682147206,-0.545480560965131
0.0770983449101559,-0.550737924018315
0.0875173700174337,-0.555547786925164
0.0979563753095888,-0.559901687610302
0.10841269529369,-0.563791937820394
0.118883668043403,-0.567211639777003
0.129366636013122,-0.57015470112612
0.139858946833145,-0.57261584815112
0.150357954085366,-0.574590637219762
0.160861018059049,-0.57607546443975
0.171365506486268,-0.5770675735014
0.181868795256637,-0.577565061689938
0.192368269111044,-0.577566884054067
0.20286132231409,-0.577072855721509
0.21334535930503,-0.576083652356362
0.22381779532704,-0.574600808757242
0.234276057034689,-0.572626715599306
0.244717583079532,-0.570164614327397
0.255139824673805,-0.567218590211632
0.265540246132235,-0.563793563580878
0.275916325392036,-0.559895279253571
0.286265554511206,-0.555530294189371
0.296585440145278,-0.550705963389093
0.306873504002737,-0.545430424074236
0.317127283279355,-0.539712578181271
0.327344331071728,-0.533562073209588
0.337522216770369,-0.526989281465658
0.347658526432718,-0.52000527774954
0.357750863136503,-0.512621815533306
0.367796847313908,-0.504851301684333
0.377794117067035,-0.496706769789611
0.387740328465219,-0.488201852140357
0.397633155824737,-0.479350750439177
0.407470291971535,-0.470168205294856
0.417249448487598,-0.460669464572558
0.426968355941638,-0.45087025066975
0.436624764104782,-0.440786726790544
0.446216442151989,-0.430435462293381
0.455741178849946,-0.419833397189022
0.465196782732198,-0.408997805867712
0.474581082262311,-0.397946260136059
0.483891925985882,-0.386696591645739
0.4931271826722,-0.375266853797429
0.502284741446419,-0.36367528320458
0.511362511913086,-0.351940260802576
0.520358424271876,-0.340080272689603
0.529270429426427,-0.328113870786166
0.538096499087123,-0.316059633400554
0.546834625868728,-0.303936125787753
0.555482823383734,-0.291761860789341
0.564039126332313,-0.279555259641643
0.572501590589741,-0.267334613039115
0.580868293292174,-0.255118042539263
0.589137332921629,-0.2429234623947
0.597306829391032,-0.230768541896924
0.605374924130168,-0.218670668315278
0.613339780173362,-0.206646910513203
0.621199582249707,-0.194713983322364
0.628952536876623,-0.182888212753548
0.636596872457523,-0.171185502121324
0.644130839384342,-0.159621299157435
0.651552710145647,-0.148210564185647
0.65886077944103,-0.136967739428424
0.666053364302462,-0.125906719513248
0.673128804223239,-0.115040823243717
0.680085461295146,-0.104382766697719
0.686921720354406,-0.0939446377120217
0.693635989136965,-0.0837378718094925
0.700226698443617,-0.0737732296219548
0.706692302315445,-0.0640607758583255
0.713031278220012,-0.0546098598642215
0.719242127248685,-0.0454290978156768
0.725323374325465,-0.036526356585933
0.731273568427612,-0.0279087393205443
0.737091282818353,-0.0195825727522054
0.742775115291887,-0.0115533962828223
0.748323688430877,-0.00382595285639699
0.753735649876556,0.00359581835771053
0.759009672611554,0.0107087874556286
0.76414445525548,0.0175106374524895
0.769138722373269,0.0239998660912931
0.773991224796241,0.0301757858039125
0.778700739955791,0.0360385218251701
0.783266072229572,0.0415890084650418
0.787686053299981,0.0468289835481605
0.791959542524728,0.0517609810338907
0.79608542731922,0.0563883218343076
0.800062623550431,0.0607151028514474
0.803890075941904,0.0647461842591674
0.807566758489484,0.0684871750588881
0.81109167488733,0.0719444169423331
0.814463858963715,0.0751249664981808
0.817682375126096,0.078036575803229
0.820746318814868,0.0806876714422939
0.823654816965218,0.0830873320045676
0.826407028476403,0.0852452641075698
0.829002144687805,0.0871717770031127
0.831439389861029,0.0888777558228707
0.833718021667289,0.0903746335241847
0.83583733167933,0.0916743615996332
0.837796645867047,0.0927893796166679
0.839595325095986,0.0937325836562202
0.841232765627851,0.0945172937216504
0.842708399622137,0.0951572201917076
0.844021695637976,0.0956664293933047
0.845172159135265,0.0960593083718821
0.846159332974136,0.096350528938921
0.846982797911784,0.0965550110777876
0.847642173095701,0.0966878857905182
0.8481371165523,0.0967644574694072
0.848467325669945,0.096800165878319
0.84863253767537,0.0968105478295195
0.848632530102475,0.0968111986424989
0.848467121252489,0.0968177334717479
0.848136170644466,0.0968457485907402
0.847639579455118,0.0969107827194724
0.846977290946954,0.0970282784828138
0.846149290883733,0.097213544086628
0.845155607932217,0.0974817152981394
0.843996314049254,0.0978477178163395
0.842671524853198,0.0983262301173551
0.841181399978718,0.0989316468586388
0.839526143414041,0.0996780429245962
0.83770600381972,0.100579138194826
0.835721274828007,0.101648263114541
0.83357229532196,0.102898325144935
0.831259449693431,0.104341776169316
0.828783168079104,0.105990580928652
0.826143926573785,0.107856186557927
0.82334224742018,0.109949493292192
0.820378699174423,0.112280826408628
0.817253896846661,0.114859909468138
0.813968502016023,0.117695838917113
0.81052322291936,0.120797060106956
0.80691881451316,0.124171344785782
0.803156078508096,0.127825770113445
0.799235863375702,0.131766699247597
0.795159064326724,0.135999763545017
0.790926623260719,0.140529846418809
0.786539528686542,0.145361068888381
0.781998815613384,0.150496776855325
0.777305565412107,0.155939530134469
0.772460905646615,0.161691093265446
0.767466009875114,0.167752428126143
0.762322097421102,0.17412368836537
0.757030433114027,0.180804215668017
0.751592326999575,0.187792537861875
0.746009134019595,0.195086368871185
0.740282253661752,0.202682610517832
0.734413129579009,0.210577356167
0.728403249179112,0.218765896209945
0.722254143184306,0.227242725372467
0.715967385161527,0.236001551833567
0.709544591023423,0.245035308134713
0.702987418500534,0.25433616385617
0.696297566585073,0.263895540032848
0.689476774946755,0.27370412527829
0.682526823321186,0.283751893581537
0.675449530871371,0.29402812373793
0.668246755522927,0.304521420371192
0.660920393273657,0.315219736500621
0.653472377478161,0.326110397603733
0.645904678108203,0.337180127121373
0.638219300989617,0.348415073349061
0.630418287016529,0.359800837655251
0.622503711343756,0.371322503964206
0.614477682558235,0.382964669438347
0.606342341830411,0.394711476292271
0.598099862046496,0.406546644668071
0.589752446922586,0.418453506499228
0.581302330101618,0.430415040288121
0.572751774234197,0.442413906720154
0.564103070044318,0.454432485035609
0.555358535381074,0.466452910078654
0.546520514257408,0.478457109941389
0.537591375877027,0.490426844119478
0.52857351365058,0.502343742094784
0.519469344202247,0.514189342259411
0.510281306367855,0.525945131094835
0.501011860185687,0.537592582519194
0.491663485881124,0.549113197315412
0.482238682846286,0.560488542552668
0.472739968615816,0.571700290913702
0.463169877839986,0.582730259840641
0.45353096125625,0.593560450412439
0.44382578466041,0.604173085867597
0.434056927878539,0.614550649686613
0.424226983740766,0.624675923149576
0.414338557058065,0.634532022285471
0.40439426360314,0.644102434131129
0.394396729096485,0.653371052219245
0.384348588198702,0.662322211216628
0.374252483510105,0.670940720635706
0.364111064578642,0.679211897544376
0.353926986917137,0.687121598201504
0.343702911030803,0.694656248547754
0.333441501456001,0.701802873483994
0.323145425811114,0.708549124872176
0.312817353860456,0.714883308196464
0.302459956592028,0.720794407825323
0.292075905309956,0.726272110818421
0.281667870742365,0.731306829225403
0.27123852216543,0.735889720826959
0.260790526544298,0.740012708272072
0.250326547691533,0.743668496568883
0.2398492454437,0.746850588890277
0.229361274856641,0.74955330065905
0.21886528541999,0.751771771881307
0.208363920291375,0.753501977700685
0.197859815550773,0.754740737149895
0.187355599475375,0.755485720080138
0.17685389183532,0.755735452252955
0.166357303210582,0.755489318583179
0.155868434329247,0.754747564525775
0.1453898754274,0.75351129560346
0.134924205630735,0.75178247507614
0.124473992358021,0.749563919757335
0.114041790746455,0.746859293986866
0.103630143098917,0.743673101773211
0.0932415783530773,0.740010677122964
0.0828786115722646,0.735878172578887
0.0725437434579695,0.731282545992031
0.0622394598837857,0.726231545557309
0.051968231450569,0.720733693145769
0.0417325130625422,0.714798265970626
0.0315347435240222,0.708435276627765
0.0213773451564208,0.701655451555096
0.011262723435112,0.694470207958605
0.00119326664573199,0.686891629256397
-0.00882865444057787,0.678932439095269
-0.0188006868734866,0.670605973997584
-0.0287204958119114,0.661926154699189
-0.0385857647951606,0.652907456242086
-0.0483941959974,0.643564876888294
-0.0581435104660964,0.633913905923967
-0.0678314483451163,0.623970490425299
-0.0774557690831893,0.613751001060038
-0.0870142516284675,0.603272197000583
-0.0965046946099413,0.592551190026591
-0.105924916506489,0.581605407896829
-0.115272755804356,0.570452557071621
-0.124546071143889,0.559110584868654
-0.133742741456351,0.547597641136201
-0.142860666091658,0.535932039528834
-0.151897764937905,0.524132218471605
-0.160851978533543,0.512216701899349
-0.169721268173079,0.500204059858241
-0.17850361600717,0.488112869057043
-0.187197025138008,0.475961673455577
-0.195799519710861,0.463768944977854
-0.204309145002647,0.45155304443701
-0.212723967508429,0.439332182758713
-0.22104207502669,0.427124382589001
-0.229261576744229,0.414947440371701
-0.237380603321573,0.402818888979439
-0.245397306979675,0.390755960981077
-0.253309861588774,0.378775552626935
-0.261116462760196,0.366894188631545
-0.268815327941858,0.355127987831941
-0.276404696518291,0.343492629797439
-0.283882829915852,0.33200332246482
-0.291248011713904,0.320674770870444
-0.298498547762598,0.309521147048442
-0.30563276630795,0.298556061161449
-0.312649018124819,0.287792533927641
-0.319545676658394,0.277242970404886
-0.326321138174746,0.266919135189827
-0.33297382192097,0.256832129086496
-0.339502170295412,0.246992367295821
-0.345904649028435,0.237409559173941
-0.352179747374126,0.228092689603771
-0.358325978313334,0.219050002020613
-0.364341878768365,0.210288983128932
-0.370226009829607,0.201816349343648
-0.375976956994374,0.19363803498538
-0.381593330418122,0.185759182255236
-0.387073765178242,0.178184133010686
-0.392416921550518,0.170916422360089
-0.397621485298322,0.163958774089337
-0.402686167974588,0.157313097930006
-0.407609707236516,0.150980488674284
-0.41239086717297,0.144961227137797
-0.417028438644428,0.139254782967366
-0.421521239635341,0.133859819286551
-0.425868115618698,0.128774199167777
-0.430067939932532,0.123994993915729
-0.434119614168097,0.119518493142656
-0.438022068569343,0.115340216612229
-0.441774262443346,0.111454927824644
-0.445375184581233,0.107856649311756
-0.448823853689151,0.104538679607235
-0.452119318828776,0.101493611852954
-0.455260659866794,0.0987133539992147
-0.458246987932784,0.0961891505527943
-0.461077445884868,0.093911605823393
-0.463751208782464,0.0918707086156804
-0.466267484365457,0.0900558583109177
-0.468625513539028,0.0884558922790365
-0.470824570863417,0.0870591145590674
-0.472863965047793,0.0858533257429904
-0.474743039447416,0.0848258539953861
-0.476461172563257,0.0839635871387251
-0.478017778543177,0.083253005731761
-0.47941230768378,0.082680217066264
-0.480644246932022,0.0822309900052904
-0.481713120385627,0.0818907905842939
-0.482618489791354,0.0816448182946882
-0.483359955040159,0.0814780429679417
-0.483937154658242,0.0813752421769438
-0.484349766293002,0.0813210390702293
-0.484597507192888,0.0812999405536779
-0.484680134680135,0.0812963757335317
