0.959940680007028,-0.359488869690287
0.961810244115514,-0.345514655931392
0.958236445676732,-0.329908484557388
0.949269172374272,-0.312958221896963
0.935049815398976,-0.294969064734677
0.915809479980919,-0.276255955690672
0.891865556562817,-0.257135928859622
0.863616706603179,-0.237920555921744
0.831536347037172,-0.218908659197414
0.796164745978461,-0.200379450855203
0.758099868762316,-0.182586246869972
0.717987137393551,-0.165750890600743
0.676508287405098,-0.150059004319591
0.634369523644579,-0.135656168032248
0.592289190243084,-0.122645103898457
0.550985179710944,-0.111083921936539
0.511162311555899,-0.100985458965808
0.473499911917753,-0.0923177184078473
0.438639822432373,-0.0850053941505354
0.407175058933532,-0.0789324376950978
0.379639328813803,-0.0739456047645203
0.356497600116846,-0.0698588959392709
0.338137896020891,-0.066458786160683
0.324864465666009,-0.0635101205209678
0.316892456708429,-0.0607625390104406
0.314344187041965,-0.0579572811297384
0.317247083343399,-0.0548342127474972
0.325533323045052,-0.0511389124741765
0.339041184607574,-0.0466296532408597
0.357518079166096,-0.04108411675437
0.380625205361129,-0.034305684008588
0.407943739039021,-0.02612915395416
0.438982441090188,-0.0164257545807958
0.47318654052777,-0.00510732579608758
0.509947726492048,0.00787042872257428
0.548615062640216,0.0225057034420344
0.588506620728189,0.038749427436204
0.628921617422498,0.0565052128125593
0.669152829732105,0.0756304282281027
0.70849906007785,0.0959383859216427
0.746277421994389,0.117201606101675
0.781835221774348,0.139156098573409
0.814561219921853,0.161506578673479
0.843896068905484,0.183932513393503
0.869341740133611,0.206094874468426
0.890469772989513,0.227643458595605
0.906928201764662,0.248224621198292
0.918447041962301,0.267489259557385
0.924842245206615,0.285100873948115
0.926018061342358,0.300743531804556
0.921967776673639,0.314129559991651
0.912772828079005,0.325006794013757
0.898600323357089,0.33316522037596
0.879699028012707,0.3384428592096
0.856393907214127,0.340730748473633
0.829079338293599,0.33997690827638
0.798211133419068,0.336189183791875
0.764297533478145,0.329436887478019
0.727889352386153,0.319851185397466
0.689569465623908,0.307624197913094
0.64994184756477,0.293006811363979
0.609620368877922,0.276305223990064
0.569217567889041,0.257876275819766
0.529333608215358,0.238121637921256
0.490545629326363,0.21748096081433
0.453397687050996,0.196424104437806
0.418391467671576,0.17544259239327
0.385977942401033,0.15504045080888
0.356550109087117,0.135724606708417
0.330436945338657,0.117995031912494
0.307898672388973,0.102334825989318
0.289123402406306,0.0892004354325567
0.274225214168057,0.0790122059705752
0.263243673592555,0.0721454606803047
0.256144787136443,0.0689222884453841
0.252823348082748,0.0696042153957644
0.25310660881639,0.0743859165050116
0.256759186838067,0.0833901057848054
0.26348908899731,0.0966637218536042
0.272954717679737,0.114175501478596
0.284772704857958,0.135815007459859
0.298526405344778,0.161393149449694
0.31377486953908,0.190644207518428
0.330062108624049,0.223229339053843
0.346926461683655,0.258741520489641
0.363909874587674,0.296711846974494
0.380566904720964,0.336617085981697
0.396473273584536,0.377888355562509
0.411233800785029,0.419920774972893
0.42448956769567,0.46208391521956
0.43592417679089,0.503732860089855
0.445268992945597,0.544219674803109
0.452307275415715,0.582905069832281
0.456877133304768,0.619170041903389
0.458873262566743,0.652427272817368
0.458247448471789,0.682132069603922
0.455007843432181,0.707792636576434
0.449217055615776,0.728979480995425
0.440989108339267,0.745333769069519
0.430485353332488,0.756574467654602
0.417909442129189,0.762504128909721
0.403501478642385,0.763013199922767
0.3875314920476,0.758082766463657
0.370292382107149,0.747785669042768
0.352092498769817,0.732285959794689
0.333248024088825,0.711836699791498
0.314075327106153,0.686776127618786
0.294883461317298,0.65752226082044
0.275966969697212,0.624566021540294
0.257599154150021,0.588463005785148
0.24002595482859,0.549824041658821
0.223460570309493,0.509304705166641
0.208078932421671,0.467593982310306
0.194016129985764,0.425402282790464
0.181363854246986,0.383449023382138
0.170168915837668,0.342450007693725
0.160432859176261,0.303104833390176
0.152112675807167,0.266084557963977
0.145122593828632,0.232019849766945
0.139336896760722,0.201489842349358
0.134593702476143,0.175011897351457
0.130699611634527,0.153032464496733
0.127435115873838,0.13591920696302
0.12456063922699,0.123954536941763
0.121823072202745,0.11733067998534
0.118962646995248,0.116146358287475
0.115719994599237,0.120405152886402
0.111843220372723,0.130015573501325
0.107094833897664,0.144792832907949
0.101258371859654,0.16446229103674
0.0941445590430668,0.188664502944305
0.085596862287751,0.216961775056458
0.0754963051760327,0.248846106178496
0.0637654270460515,0.283748364245081
0.0503712883298891,0.321048527123368
0.0353274448083632,0.360086796417403
0.0186948357279947,0.400175377513616
0.000581554370898685,0.440610707349624
-0.0188585058916148,0.48068590379796
-0.0394281123108321,0.519703207268033
-0.0608902180087648,0.556986186195478
-0.0829724858159946,0.591891483475807
-0.10537272229996,0.623819890492781
-0.127765112876411,0.652226548994205
-0.14980713037848,0.67663009840468
-0.171146973530379,0.696620606890382
-0.191431378784926,0.711866148194742
-0.210313639225086,0.722117912478941
-0.227461657922667,0.727213767613123
-0.242565860444983,0.727080217021873
-0.255346792181161,0.72173273071323
-0.265562230826657,0.711274456921966
-0.273013652643849,0.695893352279452
-0.277551902859862,0.675857797997202
-0.279081935549218,0.651510797651862
-0.277566506289929,0.623262878250091
-0.273028721426034,0.591583839837715
-0.265553370511075,0.556993519555131
-0.255286992991657,0.520051753346095
-0.242436655926183,0.481347732182654
-0.227267446000662,0.441488959430651
-0.210098705762905,0.401090021681171
-0.191299070303195,0.36076138692709
-0.171280386022509,0.321098441365812
-0.150490617122453,0.282670969436429
-0.129405867523977,0.246013271108608
-0.108521665610546,0.211615096164408
-0.0883436760772734,0.179913557557725
-0.0693780168863457,0.151286165268217
-0.052121369578865,0.126045098814887
-0.0370510777399819,0.104432811234301
-0.0246154310976051,0.0866190303748817
-0.0152243314714584,0.0726991953552649
-0.00924053157431165,0.0626943375427012
-0.00697162857580541,0.0565523869948377
-0.00866298152459452,0.0541508575378722
-0.0144917054153933,0.0553008370730929
-0.0245618751840253,0.0597521848322491
-0.0389010505815427,0.0671998146230092
-0.0574582081422777,0.0772909230552245
-0.0801031397950691,0.0896330046979381
-0.106627349587806,0.103802482404618
-0.136746451049698,0.119353770909797
-0.170104038470506,0.135828585420685
-0.2062769764075,0.152765304402293
-0.244782023612878,0.169708197105799
-0.285083680866795,0.186216331560579
-0.326603127438857,0.201871987607122
-0.368728088583266,0.216288411883391
-0.41082345705307,0.229116767214709
-0.452242475495793,0.240052147256757
-0.492338274101575,0.248838548106662
-0.530475549281376,0.255272711484229
-0.566042164646958,0.259206778511272
-0.598460455257041,0.260549718570052
-0.627198020013951,0.259267523672283
-0.651777795188347,0.255382184680652
-0.671787214180201,0.248969491061851
-0.686886274576758,0.240155720094554
-0.69681435305133,0.229113304113476
-0.701395631299629,0.216055584982599
-0.7005430216081,0.201230783142091
-0.694260508312226,0.184915323902155
-0.682643850806432,0.167406675860879
-0.66587962435029,0.149015865165565
-0.644242606092394,0.130059834652271
-0.618091544904527,0.110853818594023
-0.587863384184031,0.0917039018476647
-0.554066036150913,0.0728999266711883
-0.517269833769489,0.0547089015204204
-0.478097811726156,0.0373690539299935
-0.437214990402683,0.0210846544093422
-0.395316856058537,0.00602172047165178
-0.353117246098621,-0.00769531015194821
-0.311335860045699,-0.0199858699474147
-0.270685624426536,-0.0308144717757878
-0.231860143064218,-0.0401908189237919
-0.195521463176062,-0.0481688196565022
-0.162288382221353,-0.0548445351463075
-0.132725510724643,-0.0603531132276601
-0.107333292499711,-0.0648647828135707
-0.0865391660767264,-0.0685800045336803
-0.0706900300250332,-0.0717238917765559
-0.0600461506679039,-0.0745400324464952
-0.0547766238652541,-0.0772838550360136
-0.0549564736078885,-0.0802156927873437
-0.0605654396754328,-0.0835937065531779
-0.0714884751428883,-0.0876668303219103
-0.0875179426795128,-0.0926679031721972
-0.10835746697731,-0.0988071476666743
-0.133627369878756,-0.106266147460655
-0.162871585431784,-0.115192466337113
-0.195565924743874,-0.125695037202844
-0.231127535656626,-0.137840433076425
-0.268925380388951,-0.151650113110505
-0.308291535814254,-0.167098715615421
-0.348533106291843,-0.184113447329389
-0.388944528239798,-0.202574594289182
-0.428820039112027,-0.222317155096352
-0.467466081240883,-0.24313357266549
-0.504213413159404,-0.264777516204745
-0.538428707470493,-0.286968641731
-0.569525424947635,-0.309398237361796
-0.596973769116302,-0.331735639425418
-0.620309543784224,-0.353635287524228
-0.639141757499719,-0.374744271463367
-0.653158843294616,-0.394710210751691
-0.66213338883246,-0.413189298467518
-0.66592530070899,-0.429854335864485
-0.664483356581444,-0.444402582306788
-0.657845129453795,-0.456563247028247
-0.646135299222179,-0.466104454789443
-0.629562396894151,-0.472839526669298
-0.608414056153743,-0.476632429804937
-0.583050874591334,-0.477402265648437
-0.553899012426355,-0.475126684936048
-0.521441679439065,-0.46984413869931
-0.4862096806657,-0.461654897868903
-0.448771207830986,-0.450720798866999
-0.409721076194135,-0.437263698552187
-0.369669615243434,-0.421562648446923
-0.329231426343641,-0.403949824799876
-0.289014220953421,-0.384805277169182
-0.249607949402953,-0.364550583319144
-0.211574422551675,-0.343641521781591
-0.175437617109222,-0.32255989495186
-0.141674840250193,-0.301804654614495
-0.11070891070698,-0.281882497919705
-0.0829014921690758,-0.263298114708932
-0.0585476909920842,-0.246544276431046
-0.0378720044115912,-0.232091962483676
-0.021025678189216,-0.220380721515669
-0.00808550443944217,-0.211809462972559
0.000945938139534086,-0.206727867972782
0.00613862771213973,-0.205428598562783
0.00763208003355732,-0.208140470686496
0.00563104626535987,-0.215022739066174
0.000400032051450727,-0.226160621944205
-0.00774323591198917,-0.241562170660563
-0.01843525024734,-0.261156563775704
-0.0312749084059891,-0.284793878379993
-0.0458322686786538,-0.3122463628827
-0.0616576928566314,-0.343211206499335
-0.0782911862727323,-0.377314771425947
-0.0952717443957074,-0.414118224879706
-0.112146517466427,-0.45312448036801
-0.128479610771729,-0.493786331278079
-0.143860347900526,-0.535515635682764
-0.157910837491175,-0.577693389624541
-0.170292700266319,-0.619680507509074
-0.180712832206551,-0.660829112995705
-0.188928101128421,-0.700494132233483
-0.194748897250576,-0.738044973704845
-0.198041483063464,-0.772877075475734
-0.198729113445522,-0.804423101400893
-0.196791922959662,-0.832163572804641
-0.192265603080631,-0.85563673127597
-0.185238917215617,-0.874447441326062
-0.175850125273277,-0.888274958521705
-0.164282411724168,-0.896879409020088
-0.150758431129281,-0.900106849811621
-0.135534102590902,-0.897892804988535
-0.118891799153357,-0.890264201506369
-0.10113308956414,-0.877339657657745
-0.082571197779311,-0.859328108264877
-0.0635233500130589,-0.836525781829058
-0.0443031799166933,-0.80931157595119
-0.0252133596289418,-0.778140907658295
-0.00653861804485006,-0.743538144250445
0.011460702144474,-0.706087747359185
0.0285544100633783,-0.666424287556081
0.0445474322037556,-0.625221508588311
0.0592838736211149,-0.583180638722434
0.0726500910410617,-0.541018161386315
0.0845767164126477,-0.499453268022694
0.0950395929458267,-0.459195222592168
0.104059609900608,-0.420930869355983
0.111701446840241,-0.385312513380737
0.11807126220094,-0.352946396673664
0.123313384354755,-0.32438198209787
0.127606085356158,-0.300102242433486
0.131156537801099,-0.280515133422097
0.134195073261295,-0.26594640771008
0.136968876204794,-0.256633901708931
0.139735259849014,-0.252723399992477
0.142754679748465,-0.254266152475496
0.146283646896678,-0.261218088827302
0.150567704592078,-0.273440742956228
0.155834632225423,-0.290703868561326
0.162288034511732,-0.312689695294715
0.17010146660626,-0.338998744612677
0.179413234178445,-0.369157095497294
0.190321993105297,-0.402624963453603
0.202883256286043,-0.438806432039022
0.217106895530834,-0.477060155119907
0.232955704946316,-0.516710830471876
0.250345069180886,-0.557061231575743
0.269143755786347,-0.597404574764712
0.289175826307544,-0.637036993427275
0.310223636047129,-0.675269889857815
0.332031868290592,-0.711441938583074
0.35431252562977,-0.744930522502795
0.376750779384791,-0.775162394810508
0.399011558458072,-0.801623375168646
0.420746741684159,-0.82386690769104
0.441602803241511,-0.84152133055539
0.461228749286735,-0.854295732089347
0.479284175915251,-0.861984295454258
0.495447274033025,-0.864469063056141
0.509422605858334,-0.861721081978666
0.520948480600668,-0.853799922470907
0.529803763351056,-0.840851592238423
0.535813961252418,-0.823104899386787
0.538856444415462,-0.80086634577357
0.538864675549463,-0.774513659685176
0.535831341567493,-0.744488101652061
0.529810302122582,-0.711285699379515
0.520917293703684,-0.675447586786625
0.509329353094148,-0.637549637661585
0.495282950163172,-0.598191596175968
0.479070846591812,-0.557985914247747
0.461037723686381,-0.517546509376009
0.441574648358889,-0.477477656043425
0.421112471121668,-0.438363219132675
0.400114273036735,-0.400756429146417
0.37906699949666,-0.365170386553303
0.358472437050035,-0.332069466573963
0.338837704828685,-0.301861776508575
0.320665444151849,-0.274892795691475
0.304443898305415,-0.251440303789905
0.290637079124844,-0.231710676940995
0.279675217725757,-0.215836603673021
0.271945693482643,-0.203876244238597
0.267784628188543,-0.195813828464061
0.267469321351681,-0.191561659058256
0.271211687989814,-0.190963460081284
0.279152842335056,-0.193798984484594
0.291358949894581,-0.199789770800767
0.307818446722104,-0.208605917645179
0.328440698991961,-0.219873726102209
0.353056148528601,-0.233184044656368
0.381417961361971,-0.248101139378612
0.413205167212161,-0.264171903803821
0.448027248627593,-0.280935218475459
0.485430109886846,-0.297931269548769
0.524903328292492,-0.314710639116667
0.565888564685727,-0.330842986957729
0.607788986410669,-0.345925154032024
0.649979535035062,-0.359588532025687
0.691817853316751,-0.371505560259892
0.732655671560205,-0.381395230964957
0.771850442936644,-0.389027505854826
0.808777010772479,-0.394226570655957
0.842839088395714,-0.396872879249555
0.873480333937583,-0.396903964854723
0.900194808505361,-0.394314021677791
0.922536616276179,-0.389152286142896
0.940128539135054,-0.38152027167319
0.952669496239083,-0.371567934502921
0.959940680007028,-0.359488869690288
