0.562275976395751,-0.604326423717806
0.613494439006282,-0.594290944096813
0.443544783414038,-0.692902327104643
0.668776674010851,-0.711015643199156
0.663742760760568,-0.725125425170082
0.452797846828364,-0.516018901038038
0.554104565974163,-0.610455625370914
0.551910975483534,-0.608500332196701
0.426349806604257,-0.504773174740186
0.433351465058028,-0.515263889972937
0.543457194713337,-0.60071345604174
0.436206611349312,-0.517619462800026
0.638182612953072,-0.685297776745704
0.639811092628219,-0.478074598510593
0.448694455655351,-0.702257885857182
0.433450444272406,-0.695651125913567
0.604269017557423,-0.489090821289139
0.419789890065561,-0.688700106470111
0.411270626320232,-0.46270793075786
0.639330286876677,-0.420777321929714
0.466827430114252,-0.560324578379584
0.491102156813614,-0.546407733427418
0.484907648046251,-0.539412140471383
0.450241916811486,-0.539337484967449
0.488191808837441,-0.533564894225103
0.44470091472922,-0.533919517430233
0.463243397322958,-0.474073362566757
0.43320629517413,-0.506005227445758
0.433842561022099,-0.498387783630464
0.463620542505497,-0.467485268483015
0.395041010858427,-0.454297480511329
0.437181802514308,-0.423064278350652
0.412912229396616,-0.470400764087797
0.405262413634806,-0.439919189877048
0.397207825793851,-0.428878315872192
0.399263670102232,-0.383485332908551
0.407084988204901,-0.394143990198807
0.383145361772286,-0.448002467778119
0.349797130593215,-0.390730473931549
0.346323065190921,-0.364355248088647
0.338625336265286,-0.342910883505847
0.310209474549827,-0.332808137733005
0.315471820549253,-0.322063373456449
0.297465506664198,-0.297733018569812
0.297999275763991,-0.239074674810944
0.287572657131254,-0.245490817838907
0.286955798282089,-0.258119232602588
0.278353345567373,-0.243096270234996
0.291732002786771,-0.218853280390678
0.261229567294385,-0.212354281422009
0.230077354705535,-0.202652203063401
0.244265810794549,-0.180738801777496
0.248781431689228,-0.187681670209989
0.225618712591177,-0.156008625541316
0.219250924244241,-0.131829019008472
0.230642560397609,-0.0972686303491717
0.20294420907366,-0.0983378565690192
0.197046662748369,-0.0691808812292238
0.141596418312149,-0.0712564426465373
0.168542948423328,-0.0461947342298934
0.121588839203282,-0.00373204440117986
0.156369437762119,0.00552490861990784
0.12611030977788,0.00395959260780723
0.122775942040034,0.0649465996839807
0.166010056343426,0.0456988252767958
0.127770604428642,0.0740496057853181
0.130865647037249,0.0718530050747449
0.114250469241346,0.11272156883351
0.107735490668808,0.130746510533401
0.101375090213325,0.148786840973072
0.123245919842297,0.169937915378465
0.101706366167531,0.206012652445118
0.087964567545942,0.185776763303184
0.0724156106293528,0.243060798173997
0.0666258135569774,0.256710084408183
0.0912508852380761,0.273348576646262
0.0601016194457979,0.309075343973436
0.0438953298398025,0.324421200622683
0.066479142156374,0.337389256195945
0.0267573073323323,0.342305919553431
0.0681400838333798,0.353074607533271
0.0226431901493812,0.379581817625998
0.0299343129060393,0.396527512633568
0.026141886776502,0.41341860777447
0.0153211005781171,0.437926548931962
0.00407200042505595,0.459892930316213
0.0158150787680946,0.463040730271956
0.0163970396625143,0.475996221219192
-0.0188012648378082,0.505911073454986
0.00703617305348031,0.51085749591176
-0.00209721518394713,0.494905508126397
-0.023062658754649,0.554567406139807
-0.00024769655288262,0.556583618279646
-0.00235543828311588,0.571313492570001
-0.00430815917315674,0.585770850738496
0.0242253186380221,0.637069413498076
-0.0118731544378511,0.653641442819184
-0.0204750062712795,0.688988539800841
-0.0139497542627341,0.678562412115124
-0.0148028696671205,0.690511998475457
-0.010217892563291,0.672692691720657
-0.0166825259506267,0.724224285900673
-0.0291847832993732,0.743217244454809
-0.0221524651838875,0.781508273482038
-0.0178828229844209,0.772868986929623
-0.0178864165993179,0.781409687162382
-0.00531868441619178,0.791814478371432
-0.0177075679977712,0.797258696995945
-0.00489550909771707,0.821171620138371
-0.0167915653227444,0.823898257189024
-0.0158319306168191,0.839331705669439
-0.0154975806698667,0.843594225461188
-0.00821961254587703,0.82703529146552
-0.0301639430869094,0.822214610120297
-0.0276487007998263,0.873517188772862
-0.0138410422513639,0.859779541624435
-0.0135948523615735,0.86157740561598
0.000371676762332606,0.854044962764587
-0.0306536639379278,0.869213272033321
-0.0139045798935334,0.859789349015106
-0.0313642686062376,0.856886359795413
-0.00446579661051279,0.831524233141328
-0.00593587638520056,0.83919367984263
-0.0274206405077487,0.851102285168242
0.0242417429961604,0.826319932965335
-0.019274261693545,0.835106650145557
-0.0473054409838061,0.851594382081443
-0.0261778137332174,0.830195487697526
-0.00852780293859151,0.762707559633579
-0.047118813999744,0.744757439157303
-0.0512071157438843,0.760287416442415
-0.0451442096415172,0.749125390605347
-0.0485040868524484,0.739572588551771
-0.0507056942057527,0.727135660152255
-0.0737216812693112,0.693233929202536
-0.0801679365417772,0.665000296740902
-0.0830190212234299,0.651858493007051
-0.114160870909946,0.601372799584801
-0.0919158677086216,0.595842776189412
-0.118287050401657,0.574803653179687
-0.124968201438349,0.561192066477743
-0.127410403675364,0.561568455371422
-0.154248328961059,0.548374339716868
-0.154113694281477,0.55102801934374
-0.149516160493175,0.483225204671232
-0.207198513406653,0.498583496368125
-0.169855416461797,0.475849971795311
-0.188260047122608,0.440647764945315
-0.174291605041028,0.437904380351563
-0.233209623046886,0.397802204084573
-0.228475028023497,0.35255087265401
-0.262134627882204,0.324479812739041
-0.30380765044993,0.298101553792006
-0.284613652499191,0.26078302629446
-0.326787169597002,0.231963000970506
-0.382392743221806,0.178542143820768
-0.408043281479419,0.104440732841011
-0.434594217497089,0.179478942754123
-0.43970727430579,0.139075270522578
-0.459956093488647,0.0946775720032922
-0.458742749076192,0.0676947241516581
-0.466533664899514,0.0642953820740708
-0.531408424719875,0.0179042480160919
-0.507036262382934,0.0136449447134765
-0.524069099757509,-0.00240732272268793
-0.556797951244953,-0.0306548498345911
-0.610381077675251,-0.0555666973544561
-0.59945016113217,-0.0795035483539507
-0.595035057602035,-0.0617528856367179
-0.646199977080523,-0.134918751272446
-0.71248980370689,-0.155450051870199
-0.72472773952287,-0.1906346233081
-0.773467247429997,-0.221182343653771
-0.76537062620196,-0.211556008846807
-0.787800582637981,-0.270814852438412
-0.826809962406203,-0.268414741739752
-0.837195393569435,-0.275682846455146
-0.822466195478078,-0.273075769535801
-0.876374001197987,-0.301985132583742
-0.930146158205409,-0.329807645054247
-0.915715155994186,-0.323485291202484
-0.952961504839468,-0.374528694961319
-0.962487623514262,-0.336752767038311
-0.943409072950847,-0.363721416327538
-0.957603025427622,-0.369385618563558
-0.953415175909535,-0.370933486039415
-0.989501684577715,-0.366529978251822
-0.989351704622453,-0.33250763080814
-1.03935960763686,-0.363546827150355
-1.00623803850272,-0.373957022348763
-1.00538862596025,-0.373637345667028
-1.004323573381,-0.373247960888229
-1.02148782454797,-0.375847294482916
-0.994823748525493,-0.361508455185298
-0.975624922607365,-0.365833904536538
-1.00281636820458,-0.362049012567274
-0.979919390458095,-0.40426989795556
-0.964107299103588,-0.361058341797477
-0.968397516665263,-0.376987166291355
-0.965837702110765,-0.359360483665723
-0.931082044651433,-0.32363352989582
-0.920328378230341,-0.350563435315581
-0.835858045392402,-0.331890353533076
-0.827391735240875,-0.334071635151232
-0.776385168579087,-0.326298185198085
-0.758494620106425,-0.320376758525614
-0.753064844484036,-0.307757195958013
-0.736055464410015,-0.304559962602293
-0.720165370133263,-0.322270553317758
-0.685838257818093,-0.341885837031631
-0.65374685582908,-0.349324416112959
-0.615794114128724,-0.321574421127241
-0.471481449730235,-0.317775356131856
-0.379272684069518,-0.312883881851253
-0.351339749551713,-0.338704759402749
-0.325203638641882,-0.359043134914668
-0.26462734353943,-0.373154043221122
-0.111287052600645,-0.358654239156176
-0.101592054803003,-0.331997635062408
-0.0772892741855141,-0.366228057223222
0.126437121984935,-0.426791649228679
0.151144238012357,-0.426975303762104
0.188905456723899,-0.445140991630816
0.247075648438526,-0.42914036240821
0.277504557630828,-0.513114391310399
0.318141979183838,-0.529558751961909
0.489419023103323,-0.514620724659516
0.436555258876726,-0.591029461883037
0.50350862203065,-0.569065949898425
0.505057383818405,-0.598801692734495
0.545498669526091,-0.604980173769811
