0.391693401875088,-0.836285879678494
0.391421430857628,-0.83596287816047
0.390626457064273,-0.834977474116293
0.389341110690032,-0.83330670369332
0.387599540111694,-0.830929860603448
0.385437269239943,-0.827828585029251
0.382891049523258,-0.823986943335811
0.379998707192362,-0.819391498270356
0.376798986352824,-0.814031369369532
0.373331388549877,-0.80789828333297
0.36963600944347,-0.800986614161531
0.365753373242992,-0.79329341289923
0.361724265559998,-0.784818426859028
0.357589565343472,-0.775564108254362
0.3533900765658,-0.76553561220029
0.349166360328577,-0.754740784090265
0.344958568055665,-0.743190136396664
0.340806276436595,-0.730896814985119
0.336748324776421,-0.717876555074287
0.332822655398555,-0.704147627013716
0.329066157734983,-0.689730772092842
0.325514516723588,-0.674649128633681
0.322202066115209,-0.658928148658262
0.319161647273543,-0.642595505459255
0.316424474029182,-0.625680992438276
0.314020004125038,-0.608216413610981
0.311975817764218,-0.590235466211086
0.310317503743217,-0.571773615856797
0.309068553623179,-0.552867964772561
0.308250264360043,-0.533557113586647
0.30788164978082,-0.513881017250468
0.307979361258135,-0.493880835648891
0.308557617898608,-0.473598779491817
0.309628146522934,-0.453077952095996
0.311200131676601,-0.432362187682358
0.313280175870387,-0.411495886827924
0.315872270209169,-0.390523849722635
0.318977775526315,-0.369491107890158
0.322595414099261,-0.348442755037765
0.326721271979818,-0.32742377770386
0.331348811930679,-0.306478886372504
0.336468896917427,-0.28565234772243
0.34206982406349,-0.264987818673521
0.348137368933922,-0.244528182886607
0.354654839972909,-0.224315390362671
0.361603142879549,-0.204390300775276
0.368960854667049,-0.184792531155191
0.376704307111992,-0.165560308528938
0.384807679263077,-0.146730328093327
0.393243098642729,-0.128337617486073
0.401980750740512,-0.110415407688403
0.410988996364277,-0.0929950110692807
0.42023449638386,-0.0761057070524992
0.429682343372695,-0.0597746358577008
0.439296199625388,-0.0440267007343201
0.449038441003918,-0.0288844790737824
0.458870306041991,-0.0143681427500643
0.468752049716187,-0.00049538800211571
0.478643101273975,0.0127186248661928
0.488502225492562,0.0252613217318829
0.498287686728866,0.0371227546475985
0.507957415109828,0.048295631429072
0.517469174203721,0.0587753347204173
0.526780729507222,0.0685599304640769
0.535850017079728,0.0776501657442684
0.544635311655771,0.0860494560149207
0.553095393568437,0.0937638617651919
0.561189713821352,0.100802054717547
0.568878556654107,0.107175273694887
0.576123198955912,0.112897270334194
0.582886065894713,0.117984244864408
0.589130882143992,0.122454772205679
0.594822818106889,0.12632971868548
0.599928630557086,0.129632149704322
0.604416797138008,0.13238722871965
0.608257644186215,0.134622107950961
0.611423467371296,0.136365811242001
0.613888644673044,0.137649109546974
0.61562974124703,0.138504389536981
0.616625605761842,0.138965515850136
0.616857457825053,0.139067687534047
0.61630896615026,0.138847289252329
0.614966317154266,0.138341737847616
0.612818273711363,0.1375893248719
0.6098562238307,0.136629055711032
0.606074219062645,0.135500485943696
0.601469002480751,0.134243555586142
0.596040026127259,0.132898421882297
0.589789457851813,0.131505291304668
0.582722177515111,0.13010425143453
0.574845762571357,0.128735103390362
0.566170463085471,0.127437195471313
0.556709166282898,0.126249258677622
0.546477350771319,0.125209244762461
0.535493030614535,0.124354167459621
0.523776689478961,0.123719947518801
0.511351205112573,0.123341262165203
0.498241764454398,0.123251399582501
0.484475769709829,0.123482118998337
0.470082735762804,0.124063516929259
0.455094179330239,0.125023900117542
0.43954350029683,0.126389665665768
0.423465855699307,0.128185188846495
0.406898026858376,0.130432719033833
0.389878280183697,0.133152284171552
0.372446222202361,0.13636160415843
0.354642649384154,0.140076013496159
0.336509393357566,0.144308393508379
0.318089162128711,0.149069114401402
0.299425377931169,0.154365987398126
0.28056201234811,0.160204227136678
0.261543419358819,0.166586424484546
0.242414166969993,0.173512529877658
0.223218868097721,0.180979847252065
0.204002011369048,0.188983038593863
0.184807792512289,0.197514139090804
0.165679947002913,0.20656258282703
0.146661584626816,0.216115238920442
0.127795026615166,0.226156457960829
0.109121645994785,0.23666812856595
0.090681711785255,0.247629743832621
0.0725142376586685,0.259018477420583
0.0546568356601975,0.270809268968655
0.0371455755675911,0.282974918505688
0.0200148504453017,0.295486189483054
0.00329724892436861,0.308311920021234
-0.0129765652875198,0.321419141930425
-0.0287779661900531,0.33477320703423
-0.0440804701232684,0.348337920296468
-0.0588598318366577,0.36207567922418
-0.073094131615599,0.375947618994905
-0.0867638531217764,0.389913762733626
-0.0998519516411044,0.403933176344271
-0.112343912470737,0.417964127282607
-0.12422779921586,0.431964246641647
-0.135494291807001,0.445890693907539
-0.146136714089395,0.459700323733295
-0.156151050877284,0.473349854069627
-0.165535954407852,0.486796034986793
-0.174292740171558,0.499995817518548
-0.182425372137737,0.512906521859175
-0.189940437436464,0.525486004247091
-0.196847110599478,0.537692821873731
-0.203157107504365,0.549486395164156
-0.208884629207105,0.560827166786254
-0.214046295888138,0.571676756758339
-0.218661071176366,0.581998113040364
-0.22275017715367,0.591755657011879
-0.226337000379481,0.600915423260061
-0.22944698931058,0.609445193123727
-0.232107543525422,0.617314621463912
-0.234347895194811,0.62449535615847
-0.23619898327149,0.630961149846946
-0.237693320900095,0.636687963482674
-0.238864856575826,0.641654061281524
-0.239748829604983,0.645840096690793
-0.240381620443101,0.649229189037315
-0.240800596506749,0.651806990550801
-0.241043954073019,0.65356174349656
-0.241150556896228,0.654484327190925
-0.241159772184386,0.654568294712823
-0.241111304588458,0.65380989916574
-0.241045028865323,0.652208109385742
-0.241000821880577,0.649764615033047
-0.241018394619977,0.646483821046693
-0.241137124878238,0.642372831484028
-0.241395891291246,0.637441422808772
-0.241832909372391,0.631702006733258
-0.242485570205771,0.625169582761814
-0.243390282438492,0.61786168062309
-0.244582318201163,0.609798292819171
-0.24609566357014,0.601001797558511
-0.247962874167,0.591496872377794
-0.250214936470395,0.58131039879474
-0.252881135392715,0.570471358369422
-0.255988928649184,0.559010720585665
-0.259563828420007,0.546961322996539
-0.263629290777304,0.534357744108582
-0.2682066133177,0.521236169508172
-0.27331484140893,0.507634251760219
-0.278970683424613,0.493590964634013
-0.285188435305684,0.47914645223354
-0.291979914749982,0.464341873629749
-0.299354405293269,0.449219243610045
-0.307318610505731,0.433821270175666
-0.315876618487845,0.418191189430457
-0.325029876808657,0.402372598514863
-0.334777177988058,0.386409287246693
-0.345114655582825,0.37034506913528
-0.356035790894108,0.354223612438147
-0.367531430271889,0.33808827192905
-0.379589812949912,0.321981922043442
-0.392196609302773,0.305946792061886
-0.405334969375508,0.290024303983843
-0.418985581495266,0.274254913733556
-0.433126740734611,0.25867795632648
-0.447734426956947,0.243331495609012
-0.462782392136478,0.228252179166053
-0.478242256608362,0.213475098970444
-0.494083613869215,0.199033658325497
-0.510274143514251,0.184959445626846
-0.526779731864979,0.171282115442784
-0.543564599810898,0.158029277383164
-0.560591437359984,0.145226393196063
-0.577821544366103,0.1328966824987
-0.595214976876988,0.121061037514853
-0.612730698524082,0.109737947155262
-0.630326736355539,0.0989434307404235
-0.647960340495995,0.0886909816268883
-0.665588147001555,0.0789915209589034
-0.68316634326571,0.0698533617270162
-0.700650835321757,0.06128218327438
-0.717997416379758,0.0532810163500147
-0.735161935931138,0.0458502387664293
-0.752100468751731,0.0389875816769281
-0.768769483134476,0.0326881464457718
-0.785126007685973,0.0269444320423287
-0.801127796026789,0.0217463728485891
-0.816733488743667,0.0170813867280832
-0.831902771952687,0.0129344331635303
-0.846596531845802,0.00928808123057923
-0.860777004609116,0.00612258713597155
-0.874407921119554,0.00341598101050453
-0.887454645847265,0.0011441626104344
-0.899884309414075,-0.000718994454384309
-0.911665934283388,-0.00220153038116985
-0.922770553084174,-0.00333327917143386
-0.933171319100871,-0.00414574144290061
-0.942843608492024,-0.00467195056279365
-0.951765113833316,-0.00494633263566277
-0.959915928614963,-0.00500456090331944
-0.967278622359335,-0.00488340513662336
-0.973838306061794,-0.00462057661874624
-0.979582687696127,-0.00425456933703708
-0.98450211756527,-0.00382449801566534
-0.988589623318327,-0.00336993363376384
-0.991840934495767,-0.00293073708378019
-0.994254496506241,-0.00254689163212815
-0.995831473980302,-0.00225833484900598
-0.996575743488433,-0.00210479067634842
-0.996493875652915,-0.00212560230235756
-0.995595106725121,-0.00235956650785898
-0.993891299741546,-0.00284477014390358
-0.991396895413193,-0.0036184293915926
-0.988128852943615,-0.00471673244407836
-0.984106581010827,-0.00617468623711839
-0.979351859187255,-0.00802596783852308
-0.973888750109815,-0.0103027810883533
-0.967743502748828,-0.0130357190609102
-0.960944447159772,-0.0162536328964718
-0.953521881135589,-0.0199835075254721
-0.945507949209378,-0.0242503447804811
-0.936936514487599,-0.0290770543620516
-0.927843023822282,-0.0344843530933458
-0.918264366857183,-0.0404906728655787
-0.908238729507011,-0.0471120776418527
-0.897805442450943,-0.0543621898510281
-0.887004825241374,-0.062252126466024
-0.875878026646174,-0.0707904450225439
-0.864466861857665,-0.0799830997947807
-0.85281364721388,-0.0898334083043774
-0.840961033087527,-0.100342028297929
-0.828951835605296,-0.111506945286784
-0.816828867864736,-0.123323470701009
-0.804634771317916,-0.135784250667289
-0.792411847990342,-0.148879285378361
-0.780201894200292,-0.162595958979605
-0.76804603643771,-0.176919079856668
-0.755984570053212,-0.191830931166738
-0.744056801396578,-0.207311331415467
-0.732300894030352,-0.223337704841671
-0.720753719628032,-0.239885161333033
-0.709450714147642,-0.256926585558229
-0.698425739850566,-0.274432734964312
-0.6877109537123,-0.292372346253051
-0.677336682746341,-0.310712249916253
-0.667331306735046,-0.329417492378117
-0.657721148831828,-0.348451465262516
-0.648530374467801,-0.367776041274802
-0.639780898963048,-0.387351716161494
-0.631492304208072,-0.40713775618708
-0.623681764745038,-0.427092350545287
-0.616363983541027,-0.447172768102554
-0.609551137707115,-0.467335517854285
-0.603252834377551,-0.487536512459675
-0.597476076923006,-0.507731234208722
-0.59222524163083,-0.527874902765323
-0.587502064943704,-0.547922644023334
-0.583305641306168,-0.567829659408022
-0.579632431626384,-0.587551394953552
-0.576476282318375,-0.607043709488017
-0.57382845484796,-0.626263041261072
-0.571677665663931,-0.64516657235533
-0.570010136354772,-0.663712390231518
-0.568809653830662,-0.681859645768671
-0.568057640290661,-0.699568707174587
-0.567733232696184,-0.716801309158071
-0.567813371434099,-0.733520696773294
-0.568272897816311,-0.749691763367703
-0.569084660027629,-0.765281182088268
-0.570219627100152,-0.780257530426391
-0.571647010460558,-0.794591407309382
-0.573334392566618,-0.808255542275946
-0.575247862121093,-0.821224896304504
-0.577352155325062,-0.833476753896238
-0.579610802608759,-0.844990806049426
-0.581986280256226,-0.855749223797727
-0.584440166320653,-0.865736722022483
-0.586933300210247,-0.874940613287636
-0.589425945309856,-0.883350851485424
-0.591877953991546,-0.890960065121402
-0.594248934357791,-0.897763580108388
-0.59649841805406,-0.90375943198052
-0.598586028483321,-0.908948367480567
-0.600471648753333,-0.913333835515704
-0.602115588688689,-0.916921967519167
-0.603478750243184,-0.919721547297133
-0.604522790654488,-0.921743970481876
-0.605210282691956,-0.923003193753449
-0.605504871359979,-0.923515674032654
-0.605371426433272,-0.923300297887864
-0.604776190217035,-0.922378301436989
-0.603686919943825,-0.920773181063575
-0.602073024240239,-0.918510595302427
-0.599905693120004,-0.915618258285127
-0.59715802098573,-0.912125825169261
-0.593805122149299,-0.908064770006934
-0.589824238410503,-0.903468256538119
-0.585194838265051,-0.898371002422389
-0.579898707346217,-0.892809137448581
-0.573920029739191,-0.886820056285813
-0.56724545984335,-0.880442266360857
-0.559864184495163,-0.873715231466181
-0.551767975103042,-0.866679211719885
-0.54295122958507,-0.859375100513163
-0.533411003940956,-0.85184425909285
-0.52314703333067,-0.844128349435964
-0.51216174257383,-0.836269166079871
-0.500460246025842,-0.828308467575824
-0.488050336828946,-0.820287808235076
-0.474942465578411,-0.812248370835565
-0.461149708486163,-0.804230800953342
-0.446687725165682,-0.796275043576396
-0.431574706203275,-0.788420182649482
-0.415831310721215,-0.780704284186853
-0.399480594178026,-0.773164243575643
-0.382547926689857,-0.765835637675969
-0.36506090219447,-0.758752582304749
-0.347049238815732,-0.75194759566888
-0.328544670821331,-0.745451468289721
-0.309580832599853,-0.739293139935113
-0.290193135114919,-0.733499584047272
-0.270418635324007,-0.728095700125164
-0.250295899077399,-0.723104214488368
-0.229864858038637,-0.718545589816132
-0.209166661191498,-0.714437943820527
-0.188243521520033,-0.710796977376289
-0.167138558467338,-0.707635912392421
-0.145895636795451,-0.704965439671943
-0.124559202483087,-0.702793676966519
-0.103174116309604,-0.701126137392212
-0.0817854857828791,-0.699965708331499
-0.060438496075198,-0.699312640905033
-0.0391782406353748,-0.699164550054673
-0.0180495521464358,-0.699516425237205
0.00290316550305,-0.700360651686005
0.0236361035699457,-0.701687042155997
0.0441062124724996,-0.703482879025595
0.0642713628230779,-0.705732966588223
0.0840905028414503,-0.708419693325545
0.103523811526601,-0.711523103914916
0.122532846982,-0.715020980684916
0.141080689308338,-0.718888934195303
0.159132077499407,-0.723100502581513
0.176653539800469,-0.727627259269034
0.193613517014436,-0.732438928629715
0.209982478269141,-0.737503509120578
0.225733028788855,-0.74278740341596
0.240840009244893,-0.748255555016031
0.255280586293592,-0.753871590789034
0.269034333944825,-0.759597968881002
0.282083305440597,-0.765396131405386
0.294412095360918,-0.77122666130605
0.306007891712831,-0.777049442770461
0.316860517798271,-0.78282382455584
0.326962463696873,-0.78850878557939
0.336308907241085,-0.794063102114767
0.344897724402574,-0.799445515930496
0.352729489050872,-0.804614902702294
0.35980746208741,-0.809530440030152
0.36613757000013,-0.814151774392522
0.371728372925864,-0.818439186374181
0.376591022349243,-0.822353753511136
0.380739208607991,-0.825857510105343
0.384189098414854,-0.82891360337403
0.386959262646012,-0.831486445312887
0.389070594684394,-0.833541859669388
0.390546219643751,-0.835047223441829
0.391411394835505,-0.835971602341402
0.391693401875088,-0.836285879678494
