0.607689538287727,0.0856949901824309
0.607641953116485,0.0857508171031869
0.60759336916859,0.0858076942945579
0.607543760398818,0.0858656462625656
0.60749309995154,0.0859246981929543
0.60744136013146,0.0859848759729318
0.607388512373155,0.0860462062136957
0.607334527209359,0.086108716273772
0.607279374237936,0.086172434283202
0.607223022087469,0.0862373891686092
0.607165438381423,0.0863036106791827
0.60710658970079,0.0863711294136137
0.607046441545164,0.0864399768480229
0.606984958292163,0.0865101853649205
0.606922103155124,0.0865817882832387
0.606857838138974,0.0866548198894829
0.606792123994222,0.0867293154700446
0.606724920168941,0.0868053113447263
0.606656184758677,0.0868828449015254
0.606585874454164,0.0869619546327327
0.606513944486743,0.0870426801723957
0.60644034857138,0.0871250623352066
0.606365038847153,0.0872091431568726
0.606287965815088,0.087294965936031
0.606209078273217,0.0873825752777731
0.606128323248708,0.0874720171388451
0.60604564592693,0.0875633388745959
0.605960989577295,0.0876565892877455
0.605874295475709,0.087751818679052
0.605785502823467,0.0878490788999549
0.605694548662401,0.0879484234072823
0.605601367786102,0.088049907320107
0.605505892646991,0.0881535874788434
0.605408053259044,0.0882595225066833
0.605307777095937,0.0883677728734677
0.605204988984363,0.0884784009621008
0.605099610992276,0.0885914711376158
0.604991562311785,0.0887070498190053
0.604880759136425,0.0888252055539369
0.604767114532488,0.0889460090964781
0.6046505383041,0.0890695334879607
0.604530936851714,0.0891958541411206
0.604408213023647,0.0893250489276553
0.604282265960293,0.0894571982693485
0.604152990930593,0.0895923852329138
0.604020279160357,0.0897306956287236
0.603884017651964,0.0898722181135878
0.603744088994968,0.0900170442977632
0.603600371167105,0.0901652688563729
0.603452737325144,0.0903169896454325
0.603301055585027,0.0904723078226801
0.603145188790662,0.0906313279734204
0.602984994270748,0.0907941582416021
0.602820323582913,0.0909609104663534
0.602651022244456,0.0911317003242143
0.602476929448897,0.0913066474773116
0.602297877767511,0.0914858757277333
0.602113692834957,0.0916695131783703
0.60192419301808,0.0918576924005013
0.601729189066853,0.0920505506084137
0.601528483746428,0.0922482298413561
0.601321871449138,0.0924508771531369
0.601109137785242,0.0926586448096914
0.600890059151137,0.0928716904949527
0.600664402273644,0.0930901775253715
0.600431923728914,0.0933142750734464
0.600192369434385,0.0935441584006328
0.59994547411211,0.0937800091000136
0.5996909607217,0.0940220153491263
0.599428539860942,0.0942703721733503
0.599157909132085,0.0945252817202718
0.598878752471619,0.0947869535454516
0.598590739441205,0.0950556049100314
0.598293524477299,0.0953314610906244
0.597986746096793,0.0956147557019398
0.597670026055849,0.0959057310325993
0.597342968458877,0.096204638394609
0.597005158814408,0.0965117384869474
0.596656163034379,0.096827301773735
0.596295526373096,0.0971516088774454
0.595922772301893,0.097484950987609
0.595537401315183,0.0978276302854534
0.595138889663342,0.0981799603849059
0.59472668800748,0.0985422667903635
0.594300219990842,0.0989148873716077
0.593858880721173,0.0992981728562072
0.593402035157983,0.0996924873397058
0.59292901639819,0.100098208813843
0.592439123853161,0.100515729712986
0.591931621309635,0.100945457478874
0.591405734866475,0.101387815143692
0.590860650738591,0.10184324193136
0.590295512918735,0.102312193876823
0.589709420687184,0.10279514446294
0.589101425958562,0.103292585274439
0.588470530454294,0.103805026668136
0.58781568268826,0.104332998458437
0.587135774752346,0.104877050616824
0.586429638887567,0.105437753983719
0.585696043825339,0.106015700990732
0.584933690882373,0.106611506390909
0.584141209791379,0.107225807994052
0.583317154248441,0.10785926740366
0.582459997156522,0.108512570751373
0.581568125542966,0.109186429424059
0.580639835127274,0.109881580777845
0.579673324513619,0.110598788832414
0.578666688980706,0.111338844937778
0.577617913839533,0.112102568404497
0.576524867327489,0.112890807086827
0.575385293004889,0.113704437906691
0.574196801617622,0.114544367304449
0.572956862386983,0.115411531600335
0.571662793684999,0.116306897248008
0.570311753050674,0.117231460958891
0.568900726499478,0.118186249672849
0.567426517075219,0.11917232034721
0.565885732590059,0.120190759532063
0.564274772494957,0.12124268269521
0.562589813819174,0.122329233254935
0.560826796113831,0.123451581272855
0.558981405330668,0.124610921752427
0.557049056563435,0.125808472481151
0.555024875575552,0.127045471345891
0.552903679034032,0.128323173041089
0.55067995336622,0.129642845078671
0.548347832152734,0.131005762996083
0.545901071967276,0.132413204644923
0.543333026571877,0.133866443426892
0.54063661937485,0.135366740326065
0.537804314058477,0.136915334566507
0.53482808328463,0.13851343270186
0.531699375389406,0.140162195918348
0.528409078982943,0.141862725304468
0.524947485378435,0.143616044809135
0.52130424878559,0.145423081574835
0.517468344219117,0.147284643293238
0.513428023093378,0.149201392187222
0.509170766500927,0.151173815175149
0.504683236206857,0.153202189720209
0.499951223434003,0.155286544809378
0.494959595568035,0.157426616442866
0.489692240978357,0.159621796945834
0.484132012233001,0.161871077339502
0.478260668086167,0.164172981929033
0.472058814739056,0.166525494181053
0.465505847021886,0.168925972875392
0.458579890321781,0.171371057424829
0.451257744292444,0.173856561165319
0.443514829632542,0.176377351330017
0.435325139516626,0.178927214337149
0.426661197611648,0.181498704949258
0.417494025020753,0.184082977806052
0.407793118971468,0.1866695998033
0.397526446614902,0.189246341796414
0.386660457933593,0.19179894816292
0.375160122474425,0.194310882879278
0.362988995434738,0.196763050974798
0.350109319537107,0.199133494543126
0.336482170130186,0.201397062949426
0.322067652043485,0.203525057503475
0.30682515788946,0.205484851715789
0.290713698723479,0.207239489361424
0.273692319204748,0.208747263995354
0.255720610595851,0.20996128534954
0.236759336020897,0.210829040252473
0.216771183271814,0.211291958403461
0.195721660977448,0.211284996556829
0.173580153962745,0.210736258463196
0.150321152916491,0.209566672291417
0.125925671803167,0.207689752196025
0.100382863500707,0.205011476130613
0.0736918395851799,0.201430317796909
0.0458636936502972,0.196837476529084
0.0169237186704274,0.191117354592735
-0.0130862026605982,0.184148336336317
-0.0441050702374838,0.175803927215083
-0.0760501548028645,0.165954312084413
-0.108814376206489,0.154468390328207
-0.142263769142015,0.141216339199771
-0.176235159159903,0.126072744971332
-0.210534197646406,0.108920322894324
-0.24493392898507,0.0896542205175751
-0.27917408367877,0.0681868639272505
-0.312961304568833,0.044453262933687
-0.34597051569869,0.0184166400386111
-0.377847630855055,-0.00992580871175106
-0.408213767603367,-0.0405372715910942
-0.436671079737267,-0.0733361039809426
-0.462810245023739,-0.108191388282975
-0.486219546770424,-0.14491965203376
-0.506495370858758,-0.183283129275769
-0.52325381165665,-0.222989922316039
-0.536142951208658,-0.263696356267514
-0.544855259637255,-0.305011715738022
-0.549139475614387,-0.346505414818402
-0.548811278529024,-0.387716486478375
-0.543762070358548,-0.428165099077788
-0.533965252034861,-0.467365633451611
-0.519479506208963,-0.504840703454372
-0.500448777884956,-0.540135394764599
-0.477098861051184,-0.572830946261712
-0.449730732006376,-0.602557114145368
-0.418710994412828,-0.629002541802973
-0.384459993590639,-0.651922600340609
-0.347438298615117,-0.671144350288293
-0.308132327652127,-0.686568483748197
-0.267039900336148,-0.698168315674475
-0.224656445043796,-0.705986081915579
-0.181462480030356,-0.710126953197922
-0.137912841852045,-0.710751277594888
-0.0944279706501706,-0.70806561525471
-0.0513873974505349,-0.702313130689724
-0.00912542855280105,-0.693763867240891
0.0320711028971416,-0.682705356113578
0.071963241851224,-0.669433920589714
0.110358757425435,-0.654246936182463
0.147109744614628,-0.637436209456814
0.182109299537655,-0.619282549435936
0.215287568706735,-0.600051530764255
0.246607440917953,-0.579990389456343
0.276060109841072,-0.559325950432478
0.303660691292017,-0.538263459925768
0.329444035454708,-0.516986183081683
0.35346083379203,-0.495655625026177
0.375774084805378,-0.474412239632885
0.396455953039576,-0.453376501634292
0.415585031972882,-0.432650232403001
0.433244003386916,-0.41231808590371
0.44951767288251,-0.392449117641443
0.464491352641334,-0.373098374961246
0.478249557528128,-0.354308461183481
0.490874978409613,-0.336111038455443
0.502447696432475,-0.318528244739664
0.513044603350314,-0.301574009065065
0.522738995320222,-0.285255256158911
0.531600310507867,-0.269572997032217
0.539693984043554,-0.254523306212632
0.547081397138707,-0.24009818931584
0.55381990034727,-0.226286346719781
0.559962893937815,-0.213073840438216
0.565559951068667,-0.200444672042691
0.570656971900077,-0.188381279792465
0.575296358926283,-0.176864963115421
0.57951720567334,-0.165876242333159
0.583355492502784,-0.155395161115099
0.586844284609226,-0.145401538638029
0.590013928427296,-0.135875177863827
0.5928922435963,-0.126796035762423
0.59550470839499,-0.118144360723645
0.597874637178072,-0.109900801837278
0.60002334884239,-0.102046494186785
0.601970325743856,-0.0945631238054606
0.603733362793363,-0.0874329754880919
0.60532870669628,-0.0806389662376068
0.606771185478433,-0.0741646667544183
0.608074328572874,-0.0679943130445182
0.609250477835215,-0.0621128099285865
0.610310889918844,-0.0565057279756539
0.611265830481052,-0.0511592951582114
0.612124660712424,-0.046060384328056
0.612895916689002,-0.0411964974406132
0.613587382043142,-0.0365557473071443
0.614206154437562,-0.0321268375264435
0.614758706309942,-0.0278990411379166
0.61525094033443,-0.0238621784440446
0.615688240022877,-0.0200065943701728
0.61607551586369,-0.0163231356614898
0.616417247370596,-0.0128031281593861
0.616717521388105,-0.00943835435067045
0.616980066975376,-0.00622103134212876
0.617208287165918,-0.00314378937853946
0.617405287877375,-0.000199650993556316
0.61757390422359,0.00261798914099273
0.617716724460396,0.00531538362158943
0.617836111777162,0.00789845094573272
0.617934224128021,0.0103727933545918
0.618013032279881,0.0127437138800999
0.618074336238842,0.0150162325996507
0.618119780202279,0.0171951021084434
0.618150866170728,0.0192848222249294
0.618168966341614,0.0212896539489771
0.618175334395835,0.023213632695498
0.618171115778092,0.0250605808285583
0.618157357062659,0.0268341195225708
0.618135014487851,0.0285376799781557
0.618104961734833,0.0301745140207862
0.618067997019425,0.0317477041104775
0.618024849559218,0.0332601727906217
0.617976185472607,0.0347146916036655
0.617922613161069,0.0361138895007472
0.617864688221315,0.0374602607716704
0.617802917929633,0.0387561725207587
0.61773776533682,0.0400038717132171
0.617669653008585,0.0412054918156568
0.617598966443089,0.0423630590534429
0.617526057194381,0.043478498306506
0.617451245727838,0.0445536386642426
0.617374824031359,0.0455902186591171
0.617297058003854,0.0465898911975886
0.617218189640651,0.0475542282060115
0.617138439033612,0.0484847250082188
0.617058006202187,0.0493828044505864
0.616977072770127,0.0502498207894977
0.616895803501267,0.051087063355289
0.61681434770659,0.0518957600059516
0.61673284053368,0.0526770803830955
0.616651404148679,0.0534321389819571
0.616570148819965,0.0541619980465299
0.616489173911953,0.0548676703002493
0.616408568796675,0.0555501215220327
0.616328413690111,0.0562102729768917
0.61624878041965,0.0568490037097767
0.616169733128482,0.057467152710788
0.616091328922221,0.0580655209593973
0.616013618462604,0.058644873354855
0.615936646512696,0.0592059405395213
0.615860452437611,0.0597494206214496
0.615785070664477,0.0602759808021625
0.615710531104989,0.0607862589151953
0.615636859543656,0.0612808648806445
0.615564077994548,0.0617603820806358
0.615492205029142,0.0622253686603241
0.615421256077624,0.0626763587587617
0.615351243705806,0.0631138636736975
0.615282177869652,0.0635383729641311
0.615214066149225,0.063950355494206
0.61514691396372,0.0643502604218114
0.615080724769108,0.0647385181350576
0.615015500239794,0.0651155411395961
0.614951240435577,0.0654817248995789
0.614887943955077,0.0658374486348797
0.614825608076727,0.0661830760770453
0.614764228888314,0.0665189561862943
0.614703801405982,0.0668454238317433
0.614644319683536,0.0671628004369106
0.614585776912815,0.0674713945924245
0.614528165515849,0.0677715026377508
0.614471477229441,0.0680634092136425
0.614415703182773,0.0683473877869222
0.614360833968601,0.0686237011491026
0.614306859708517,0.0688926018902726
0.614253770112782,0.0691543328495861
0.61420155453512,0.0694091275436151
0.614150202022892,0.0696572105737574
0.614099701363015,0.0698987980138163
0.614050041123941,0.0701340977788108
0.614001209694025,0.0703633099760082
0.613953195316561,0.0705866272391195
0.613905986121735,0.0708042350465412
0.613859570155758,0.0710163120244783
0.613813935407385,0.0712230302357365
0.613769069832034,0.0714245554549257
0.613724961373691,0.0716210474307771
0.613681597984774,0.0718126601362363
0.613638967644123,0.0719995420069572
0.613597058373263,0.0721818361687887
0.613555858251067,0.0723596806548112
0.613515355426964,0.0725332086124514
0.613475538132796,0.0727025485011746
0.613436394693429,0.0728678242812239
0.613397913536233,0.0730291555938556
0.613360083199508,0.0731866579334897
0.613322892339947,0.073340442812176
0.613286329739213,0.073490617916754
0.613250384309709,0.0736372872590629
0.613215045099593,0.0737805513195411
0.613180301297117,0.0739205071845369
0.613146142234332,0.0740572486776312
0.613112557390223,0.0741908664852628
0.613079536393318,0.0743214482769287
0.613047069023813,0.0744490788202158
0.613015145215255,0.0745738400909114
0.612983755055834,0.0746958113784246
0.612952888789297,0.0748150693867381
0.612922536815534,0.0749316883311003
0.612892689690858,0.075045740030656
0.612863338128017,0.0751572939972052
0.61283447299594,0.075266417520267
0.612806085319275,0.0753731757486199
0.612778166277707,0.0754776317684799
0.6127507072051,0.0755798466784688
0.61272369958847,0.0756798796615195
0.612697135066808,0.0757777880538557
0.612671005429772,0.0758736274111789
0.612645302616257,0.0759674515721862
0.612620018712862,0.0760593127195397
0.612595145952262,0.0761492614383995
0.612570676711497,0.076237346772629
0.612546603510193,0.0763236162787737
0.612522919008719,0.0764081160779129
0.612499616006284,0.0764908909054755
0.612476687439003,0.0765719841591096
0.612454126377906,0.0766514379446895
0.612431926026937,0.076729293120541
0.612410079720905,0.0768055893399608
0.612388580923437,0.076880365092103
0.6123674232249,0.0769536577413036
0.612346600340321,0.0770255035649063
0.612326106107301,0.0770959377896562
