-0.54664332910926,0.0791230362921069
-0.454191225362289,0.101186529997174
-0.383736049272542,0.151461148385513
-0.28119991897558,0.106413830507577
-0.229510073934293,0.135753004938363
-0.143021080699676,0.161152120795775
-0.115562429307038,0.150769246661929
-0.0393875924513507,0.130785428387116
0.00777083566711971,0.149744247260306
0.00706198549695139,0.121859348842351
0.0532967455166748,0.106912907210694
0.0788855648093811,0.0819247156386915
0.110327291709313,0.087947038311373
0.175714613131927,0.0622714281910317
0.198016243820806,0.0377141184141614
0.318460341174232,-0.0619423601779343
0.342775703596492,0.162851580765591
0.240315394804958,0.0381999981480503
0.358511037803902,-0.0869578696878602
0.327462140360593,-0.0786633526928011
0.356228274851913,0.105242270772991
0.345295732710005,-0.0975720578509472
0.126337136228817,0.148428342304239
0.328129998060982,0.15106091064639
0.216538196687635,0.0197738723974003
0.161101091011858,0.172824511537075
0.277269781300777,-0.0297562463622665
0.330373456995488,0.00893861033902912
0.325609425738905,0.0322430358604915
0.0816922157945473,0.281222589377908
0.0891766362490196,0.304170403250156
0.320895904633482,0.384201185716606
0.186793986526042,0.285274309916124
0.29093736169628,0.240312056250347
0.176808886102542,0.399080089398166
0.0942623668955748,0.341282895640982
0.207941568563022,0.5151129258473
0.304065002778458,0.469258720412791
0.11678906792235,0.771263445153471
0.272193687094292,0.745995229642505
