0.780352384891732,-0.576573428565745
0.82260106079001,-0.541405771985095
0.825365327098695,-0.524127060521859
0.823338703541886,-0.503605430652492
0.816507254653509,-0.480158032767713
0.824526664866371,-0.444887456852068
0.769914220282305,-0.390383303175065
0.786322788946113,-0.341226847537524
0.777293170093356,-0.379642498976174
0.682947385653415,-0.313330331142792
0.682161147972586,-0.299175057792393
0.646799137591742,-0.266104517410136
0.608813870710011,-0.233292610148306
0.572842868875287,-0.190850649832978
0.52706222705958,-0.169936297214729
0.494072882741902,-0.165620086412545
0.39925819894256,-0.11549120765002
0.398581902093228,-0.0854020101297455
0.348416826897674,-0.0875056984259212
0.345661513091028,-0.0700486058795163
0.311561476670794,0.0204997442056732
0.222861285220595,0.0135418225736231
0.24728241999583,0.00094951647220843
0.176540268972937,0.0409178477276789
0.154676895743821,0.0357125345453579
0.0884242563206974,0.0589220237555529
0.102484465821364,0.0364725206267826
0.131457912201496,-0.00523581670969639
0.128654060394535,0.0373185575170172
0.104275549734131,0.0466921516721954
0.0928647959172239,0.0237092138758603
0.104941633342667,0.0463833934372285
0.0927173023825549,0.0306276323373292
0.158063242016331,0.0496117928302199
0.171038934955468,0.0654523763966955
0.216583935684304,0.0447776179933045
0.2525448006566,0.0429413562732723
0.292414438292138,0.0418301752443992
0.3357033547324,0.0416699523472727
0.381873176683897,0.0426592303242744
0.418213643005017,0.0596110499074789
0.471625237052124,0.0771587198671121
0.520943076569095,0.0158450908963014
0.588583029886327,0.0531314430264731
0.605579343155529,0.065069734080533
0.685041315865812,0.0795829387040693
0.725653410750466,0.0820551442748016
0.810523868318603,0.12837032276424
0.824271278230753,0.118743297937215
0.894985011324515,0.109113100545319
0.880342074562266,0.188625412129921
0.927664890325257,0.168554979169902
0.955607213319301,0.203358298291725
0.983009742401774,0.203251428654592
1.01110034202372,0.243924109248584
1.01934627081285,0.225127828066298
1.016592609497,0.254832540218168
1.01628242458525,0.270487282601458
1.01610578499973,0.292511788475824
0.998401916266628,0.297844424781526
0.996676259497566,0.313845780010574
0.957299564587301,0.338565854185013
0.936407597617555,0.311194093204023
0.88108691314876,0.298636500086829
0.868976463578145,0.318476644515658
0.771679942013813,0.291180124544145
0.80593343560192,0.369189289869681
0.700608066660958,0.292497010281221
0.68533757076106,0.319110180400453
0.640110069652326,0.306817236642569
0.59877741886612,0.30683383903969
0.501611843907129,0.301605022021695
0.523079110755841,0.232104548907629
0.428844342507536,0.253024892494884
0.38711436050232,0.24685510138138
0.364764617109108,0.217380651355793
0.301525867894505,0.202162282681864
0.238579998491332,0.237090477824515
0.226100502838336,0.167119795754357
0.210683851022346,0.158511961522026
0.166075306899583,0.135797233241922
0.142534298536529,0.122533372422321
0.144093485892965,0.094158188868381
0.104924008898196,0.1040688073109
0.0929967645337536,0.109764955364453
0.104757448729133,0.0969264884584609
0.0455483151269071,0.128165142477552
0.0885776212845645,0.0937306653409996
0.0856990199843257,0.0721752761927062
0.112066193578824,0.142132331510044
0.133778773192941,0.133846970342719
0.134098788536479,0.0873502761356018
0.183731885698387,0.175499644153625
0.186872866963126,0.178066342204841
0.287724639115724,0.207092567051439
0.236936994654487,0.253467821353986
0.249925837715774,0.268576776637411
0.298784160195935,0.358509984401863
0.335512189373695,0.385384817795286
0.418797960756946,0.411830666056926
0.362950853375398,0.491004732618592
0.417214502393716,0.533706129141949
0.438911842631434,0.56454172285097
0.490881767270056,0.619220394561418
0.504000690272067,0.673800277537233
0.495103502565919,0.697812175349712
0.478358261583792,0.719843995606876
0.500078566573028,0.785871029074909
0.524694599496601,0.804601937089908
0.528027946193271,0.846124353622131
0.530632732596041,0.859886268060832
0.535727203829941,0.887325860208628
0.513639951936586,0.900184829310669
0.52746813719054,0.943822048924674
0.528947000039875,0.968485320960352
0.469417071902197,0.940077102144549
0.463645280060059,0.945620716317239
0.445830862234955,0.946536075620595
0.404836775900993,0.946828969814808
0.417712075073313,0.903292142625479
0.376052576421795,0.888026712720387
0.351382927091739,0.861199785801583
0.326293865915651,0.829970904013409
0.312418559889063,0.801757249857064
0.271458278480362,0.762779724075184
0.243465322938114,0.704672123027011
0.228289888892033,0.669781903536491
0.219931047353912,0.630569367080586
0.18471350309772,0.575981838348937
0.177432420056882,0.506417579913623
0.164924804587328,0.497342618745918
0.12616539563552,0.405929501037593
0.112667150903737,0.382470051769778
0.0909453852978383,0.364761924089703
0.119228313528346,0.283624187683664
0.0843278553338286,0.260305684294237
0.0444272896216122,0.220334521973682
0.077078018578848,0.224487136636181
0.0670842486232417,0.167171814651848
0.0714448990216006,0.134499992112037
0.0618241582685302,0.128760163690923
0.0604136120964264,0.117554860728134
0.093112753607413,0.11228422449963
0.056071386214525,0.141298076668153
0.0733431831535071,0.108233217696758
0.0569178916502094,0.128831700748428
0.0307155075241927,0.123696382644664
0.0762718871008664,0.164752166952294
0.0917806525687457,0.221948960681508
0.0444708333975539,0.225509545015151
0.0817063647605054,0.31276044512777
0.0304705033403478,0.300094686315573
0.0209940189986833,0.34233391219
0.0128709122372225,0.378273445690363
0.0114694762423215,0.400550219192323
-0.0181015396603866,0.481933200722495
-0.0346654587750313,0.53067630863108
-0.0528803274092447,0.579446135102052
-0.0726159510301496,0.627592742327838
-0.0953973444267116,0.658992886638857
-0.115937562449193,0.719478415053698
-0.147976324117191,0.768213067400854
-0.202479561127211,0.801265332800884
-0.181464699290193,0.791164839253416
-0.197641744962303,0.857768980671424
-0.2078205846872,0.848935133642673
-0.255315490275519,0.91893931284352
-0.331023363861959,0.919561695800078
-0.343801549067989,0.965763102401157
-0.346887387152042,0.941090457463449
-0.338336250640601,0.958718713627114
-0.365992447802409,0.97012264015919
-0.366234457586507,0.945781265234543
-0.380183293263912,0.954044269889705
-0.376346813647611,0.88436722026818
-0.418670677223714,0.889908740607061
-0.388172737702494,0.859483248706448
-0.401882291348216,0.796618843498265
-0.374870080636035,0.820887155726848
-0.351248210731836,0.799084668268518
-0.373322944272014,0.723935058604515
-0.327168903144476,0.667723381137204
-0.298589164709509,0.593483704011804
-0.302886765821932,0.543985454451415
-0.294311169283483,0.533420694536888
-0.261137733820603,0.482869338856979
-0.22128044715491,0.426902235922092
-0.209171822655974,0.393326720370461
-0.182059013452003,0.350961054123643
-0.154018939449321,0.299534342744508
-0.129540346170225,0.236710835441721
-0.101749127188346,0.238779468109378
-0.100028281921388,0.268095078157271
-0.0730090617004743,0.210254527203183
-0.0533232515944106,0.157816977265137
-0.0148578275108006,0.136014203776826
-0.00227885154065232,0.100905805484792
0.0118939978110061,0.107952426890192
0.0191938086293618,0.0676063560789696
0.0273572008360409,0.0898465776076227
0.0460082886358189,0.0464325313217989
0.0210347402819269,0.0953022935258722
-0.0188950304088777,0.0859156941613337
-0.0306490782448526,0.140262635472966
-0.0689576753855403,0.111935051707845
-0.0618570274667736,0.137068982404583
-0.074567335502974,0.154707303772365
-0.10617023120477,0.171964552971516
-0.141915640662334,0.199951080196837
-0.193624918860395,0.204127518286497
-0.230767074678263,0.234828947389672
-0.278854324365208,0.240216681151105
-0.320999044506003,0.285605517621292
-0.369242776774258,0.294094274673252
-0.409792217849222,0.296806047003564
-0.461931053756542,0.313859942549052
-0.511734313676811,0.326604833104974
-0.55045570486426,0.319810140558576
-0.603635858570232,0.320860641718616
-0.626587621103658,0.371021161704757
-0.697322414842526,0.35528151512965
-0.737368096224209,0.356304965721529
-0.773782724496183,0.354804814466238
-0.811361772076405,0.345513123039748
-0.838331508787548,0.34461019624944
-0.856704493245662,0.335851456202536
-0.874332017895193,0.325150294103658
-0.886489659735086,0.312565113018431
-0.912362676598374,0.316933873813379
-0.908068216094484,0.264796832197477
-0.885180856334356,0.275022894893217
-0.906215047196016,0.254096374285502
-0.855934680088976,0.237890614904523
-0.839976790526312,0.211729078097086
-0.798512913344542,0.203812483768942
-0.794348615102695,0.200774026592853
-0.745448773740573,0.15774687489979
-0.697664906830777,0.138017805019421
-0.631563335758651,0.138486150505398
-0.595015509152269,0.106834705284708
-0.578278616793331,0.0955578739432974
-0.513224138541839,0.100610636835669
-0.447402393720519,0.0962379649188202
-0.382366622032652,0.0492122648903393
-0.336071794115774,0.036014729992477
-0.316717122313177,0.0779897280592348
-0.249784534015551,0.0833716088633767
-0.212831548745878,0.105306593162296
-0.16719274799813,0.0593974903982835
-0.125400240674604,0.0430794143423065
-0.100224633222192,0.0493969252130267
-0.0971621124732575,0.0506733999927033
-0.0415878752229267,0.0525228562855809
-0.00274981954172842,0.0711360780797363
-0.00296880432971005,0.0559420438248032
0.00119763160369368,0.0724210108296186
0.000833166916308217,0.0449023991230593
-0.0212091522062512,0.0602012787068037
0.0205684539912417,0.0363902415795233
0.00660906377186961,0.0777164813936327
-0.0450238734519561,0.0292498559700355
-0.0150623732853577,0.0190728313168547
-0.0627644079804537,0.0134353998535976
-0.0976567821565728,-0.0184162924486492
-0.141871321352287,0.00304238085184374
-0.143337876203341,-0.0355777637510373
-0.221157055023641,-0.00509366809110575
-0.220484126651661,-0.0388352987911981
-0.285940658032778,-0.0754211563448655
-0.332089728981153,-0.097075662149562
-0.373337112686764,-0.127563133010905
-0.416830988205202,-0.156173624194333
-0.441512528831016,-0.171871395527249
-0.496791301307439,-0.246097082095333
-0.53932081170273,-0.248809996418662
-0.559408665045715,-0.293027741817279
-0.624782643833694,-0.29335619803464
-0.638527672645745,-0.344338511250445
-0.658991868540728,-0.346396185346482
-0.704397354119624,-0.383362908259923
-0.694306863839974,-0.426332712609746
-0.715197580498995,-0.457824624211481
-0.75751910117159,-0.505435080821256
-0.717109833759738,-0.519950430124822
-0.718002414845961,-0.526109340340509
-0.716002687584691,-0.53283851118068
-0.702472977906271,-0.577371439931674
-0.689169236669301,-0.553520248621194
-0.647969371581382,-0.556952956143611
-0.626530191117685,-0.555737852876179
-0.615237406418042,-0.545373673793623
-0.578025659518886,-0.527354847003376
-0.550249333052838,-0.522376562067165
-0.494064480892913,-0.537610524970747
-0.445116632927444,-0.485199885640203
-0.447511288051633,-0.442918468502471
-0.396734992592818,-0.43305463774582
-0.367334990653775,-0.393842142331075
-0.316003774649191,-0.371392580388276
-0.276333941298808,-0.337719223724397
-0.256822053204905,-0.307826798094828
-0.189518308934655,-0.273141938703552
-0.205077393156438,-0.217420705489938
-0.132256120582166,-0.195761871913078
-0.0911250589111648,-0.159227873041079
-0.0622456602396769,-0.120198757374462
-0.0721443805013216,-0.143313579479413
-0.0270930926943535,-0.0682245898266019
-0.00843236551890008,-0.0425959266456785
-0.00162685923406614,-0.0142557576707713
0.0120871814695767,-0.0105774116797051
0.025331688830681,0.0181648455999666
0.0345604019394963,0.0213775098389988
0.00665515637050173,0.038196346066159
0.070236716312856,0.0261390578653328
0.0187968739698745,-0.0233058057767277
0.0488110786439397,0.0320969529144952
0.0270779969281473,-0.00603920721673891
0.0566010788015259,-0.00313778574256045
0.0131095871464967,-0.0536989701621912
0.0206166733161617,-0.0622636995951722
0.0270414881952454,-0.129135988796466
-0.0274877646684401,-0.173430404648049
-0.0193588423680601,-0.203276421167679
-0.0142954659546934,-0.206638623178461
-0.0452984344622748,-0.291246025761247
-0.0527977272791827,-0.340982478255508
-0.0474860767002414,-0.383541811225354
-0.0637723988350035,-0.443928546819754
-0.0216511412916655,-0.509482291385807
-0.0643292044139305,-0.509074140452308
-0.0677175223905812,-0.59745278047513
-0.0646865200996304,-0.662768762352189
-0.061027381954709,-0.691713876591591
-0.0802510489414888,-0.748644054550264
-0.0469715762208585,-0.773846274144442
-0.0506335878215121,-0.80317789282474
-0.0181323642574335,-0.856565291617524
-0.0195357911215879,-0.863564097090481
0.0300098850731984,-0.911785363889126
0.00361749548692137,-0.875181272920724
0.0254567175562852,-0.902415899216552
0.039187867756129,-0.957591220221698
0.074301308577018,-0.910427730211878
0.07407476245288,-0.896747818526892
0.0924850639924287,-0.920378598357163
0.110253718874502,-0.842706430953297
0.113638210721309,-0.874323793382697
0.149856670768492,-0.802983627030871
0.163794028363242,-0.764694864877283
0.14840636861873,-0.73754102039025
0.15579603527149,-0.694875325096772
0.158419147071287,-0.634478265421731
0.13773170385996,-0.610446245869327
0.167201498355204,-0.550693385980742
0.196524475146312,-0.467130949504403
0.198541452930808,-0.443058745316297
0.162528261476857,-0.395315700104979
0.157795560286333,-0.344053086784294
0.133268217257871,-0.297061025463703
0.153805741157192,-0.2761575399635
0.147785130715763,-0.220360635137749
0.173193414971503,-0.20377482124917
0.122439991774421,-0.127520824871581
0.11046388049254,-0.0843838641869342
0.0968848802236156,-0.0627135096603194
0.0943684168841843,-0.0279128372353485
0.0802859200428662,-0.000503134279668162
0.08094548147749,0.03085632939993
0.0822119380992112,0.0284875768101607
0.0158745049019179,-0.00837250562995953
0.0778919062326929,0.0254692077391407
0.097484255143367,0.0318064645664841
0.08689283603826,0.011041428760129
0.0956205125540343,-0.00325924899853273
0.0887077703477481,-0.0733307351363284
0.122148609713397,-0.044499895480015
0.167028069590252,-0.061553807606868
0.161039777934614,-0.0999219497925354
0.18283470706492,-0.139559327388595
0.211894264721914,-0.165730632787421
0.241454126529636,-0.201210848399179
0.265630134516411,-0.25405315557911
0.307688007233615,-0.274542318562635
0.343760424601954,-0.311271526153179
0.394233355439021,-0.336530281397712
0.420003101279674,-0.382124114221083
0.436516752246599,-0.403923874980753
0.530188995049789,-0.464254472292455
0.521224647713431,-0.453782623268687
0.576769750579788,-0.499653971732001
0.616167422703718,-0.51616704457721
0.649747096249153,-0.539873412574234
0.705389800775346,-0.546177673486284
0.714037054948108,-0.564755495243639
0.741812681272508,-0.5710707428231
0.761366987693706,-0.556479705948581
0.80357142770645,-0.57029033003491
0.805271830669647,-0.590563094402013
0.815124966660675,-0.555163504005162
