0.579211228515865,-0.733379575085402
0.588875657519096,-0.721914576521177
0.597001431670994,-0.709084573610892
0.603554102645564,-0.694978804018591
0.608519184066177,-0.679700827514557
0.611902720602607,-0.663366684978214
0.613731552833466,-0.646102896234872
0.614053270181817,-0.628044330232937
0.612935849022987,-0.609331982753064
0.610466977933482,-0.590110697954992
0.606753076922177,-0.570526870596814
0.601918022283317,-0.550726165700173
0.596101593359556,-0.530851291787481
0.589457661928946,-0.511039862597349
0.582152149061939,-0.49142238041464
0.574360778067335,-0.472120371863191
0.566266655498957,-0.453244704241878
0.558057715073503,-0.434894107285161
0.549924061707538,-0.41715392165146
0.542055254678875,-0.400095091546064
0.534637570124316,-0.383773414734385
0.527851283680529,-0.368229058864406
0.521868014045993,-0.353486348565314
0.516848167587223,-0.339553823294993
0.512938522839586,-0.326424561445533
0.510269991879109,-0.314076761855251
0.508955593093415,-0.302474569688487
0.509088666892973,-0.29156912969779
0.510741362422272,-0.281299846240375
0.513963419406195,-0.271595826139918
0.518781264958773,-0.262377477617933
0.525197440554438,-0.253558236111294
0.53319036948618,-0.245046385881499
0.542714470084514,-0.236746944936375
0.553700614822983,-0.228563579946969
0.566056930268667,-0.220400517563004
0.579669927728856,-0.212164418812296
0.594405949476099,-0.203766184106451
0.610112910679491,-0.195122657751369
0.626622312703527,-0.186158202752441
0.643751499325886,-0.17680611907808
0.661306123735626,-0.167009881361003
0.679082790960462,-0.156724175226776
0.696871837685855,-0.14591571498965
0.714460209311328,-0.134563829287125
0.731634392573685,-0.122660805272983
0.748183361176529,-0.110211986186314
0.763901491614791,-0.0972356213914098
0.77859140677622,-0.0837624722692967
0.792066705933592,-0.0698351815649091
0.804154541396159,-0.0555074178844316
0.814698004341924,-0.0408428109272103
0.823558285169337,-0.0259136966613619
0.830616577045337,-0.0107996949515526
0.835775695135371,0.0044138549334744
0.83896138822214,0.019637573015762
0.840123323988995,0.0347798015677054
0.839235734091389,0.0497484208831208
0.836297710191729,0.0644526854210428
0.831333147312228,0.0788050474448026
0.824390336088106,0.0927229353951445
0.815541210699996,0.106130454906099
0.804880264350643,0.118959981585878
0.792523149049673,0.131153616423033
0.77860498110691,0.14266447691283
0.763278378039353,0.153457799694218
0.746711256504326,0.163511833600508
0.729084424322822,0.172818505506287
0.71058900260081,0.181383845142842
0.691423716348584,0.1892281590925
0.671792093803819,0.196385948392984
0.651899615856694,0.202905568517047
0.631950857538671,0.208848634869096
0.612146663463348,0.214289181287347
0.592681398401168,0.219312583285556
0.57374031284238,0.224014261842256
0.555497061476743,0.228498187380136
0.538111410025531,0.232875207109681
0.521727162841502,0.237261222080278
0.506470340193861,0.241775243035144
0.492447630233303,0.246537356456705
0.479745136348787,0.251666633976808
0.468427436050097,0.257279019579903
0.458536962710021,0.263485229723913
0.450093716552048,0.270388701628881
0.443095306250748,0.278083624532715
0.437517317500192,0.286653087690719
0.433313999978303,0.296167377314831
0.430419259367756,0.306682452532083
0.428747936559973,0.318238627821275
0.428197351937128,0.330859486301659
0.428649088762064,0.344551044744927
0.429970986265863,0.359301187316007
0.432019310059,0.375079380879308
0.434641065048189,0.391836680300347
0.437676414152751,0.409506027597553
0.440961164808193,0.42800284412772
0.444329284538078,0.447225910295244
0.44761540677606,0.467058522634862
0.450657288626628,0.487369913604202
0.45329818335431,0.508016915108853
0.455389092066482,0.528845842738386
0.456790861274984,0.549694573982668
0.457376095748632,0.57039479038447
0.457030859256528,0.590774350721464
0.455656139398194,0.610659759946013
0.453169056661636,0.629878696784628
0.449503802080334,0.648262561642377
0.444612292306119,0.665649005793705
0.438464535505212,0.681884402783624
0.431048706145636,0.696826223516071
0.422370931401145,0.710345277664014
0.412454796475647,0.722327785783409
0.40134058058006,0.732677248826092
0.389084239500799,0.741316084591691
0.375756154619458,0.74818700399392
0.361439671815449,0.753254103792433
0.346229456851939,0.756503656601033
0.330229696561615,0.757944583463604
0.313552177371216,0.757608599022294
0.296314274399261,0.755550024216064
0.278636885505171,0.751845266466141
0.260642345244483,0.746591972350999
0.242452353687501,0.739907862769154
0.224185954490321,0.731929265455973
0.205957595479679,0.722809364385029
0.187875303347507,0.712716189972717
0.170039001876915,0.701830378047996
0.152539000476458,0.690342729183979
0.135454676728998,0.678451603157074
0.118853373217385,0.666360185952398
0.102789525129347,0.654273668828721
0.0873040311312359,0.642396380458461
0.0724238758014586,0.63092891404339
0.058162007599015,0.620065291559522
0.0445174719820518,0.609990206899477
0.0314757949574456,0.600876388661856
0.0190096081065543,0.592882121698812
0.00707950206385348,0.586148964298726
-0.00436490840912292,0.580799695083702
-0.0153837281496149,0.576936520382902
-0.026045357697332,0.574639569052537
-0.0364249281307975,0.573965697508382
-0.0466026233164297,0.574947623180764
-0.0566619200867505,0.577593399763906
-0.0666877781818202,0.581886242584736
-0.0767648125660966,0.587784707237547
-0.0869754809592383,0.595223219398867
-0.0973983190907641,0.604112948531322
-0.108106255311006,0.614343013085418
-0.119165034779343,0.625781999891653
-0.130631781529122,0.638279775777229
-0.142553724308965,0.651669565112765
-0.154967109262367,0.665770263060658
-0.167896319278681,0.680388950818111
-0.181353216282335,0.695323576176972
-0.195336718882594,0.710365760304644
-0.209832623747002,0.725303689821742
-0.224813674855163,0.739925052040551
-0.240239880505397,0.754019970651417
-0.256059073656212,0.767383899210332
-0.272207706958586,0.779820430488388
-0.288611869744182,0.791143981080863
-0.305188510346799,0.801182312619363
-0.321846843514682,0.809778853453997
-0.338489919380279,0.816794787734655
-0.355016327547037,0.822110882373492
-0.371322007379078,0.825629026359446
-0.387302133581147,0.827273461258455
-0.402853044667722,0.826991686402433
-0.417874180967686,0.824755027174144
-0.432269998412123,0.820558859858294
-0.44595182451611,0.814422491673739
-0.45883962369018,0.806388699748726
-0.470863640293714,0.796522937871911
-0.481965889652008,0.784912224769031
-0.492101469573689,0.771663732343772
-0.501239667689607,0.756903096710521
-0.509364843144756,0.740772478869857
-0.516477064760549,0.723428405474556
-0.522592491688871,0.705039423250694
-0.527743486739614,0.685783603229103
-0.531978456913111,0.66584593296916
-0.535361420138164,0.645415636390586
-0.537971301732983,0.62468346165007
-0.539900968597255,0.60383897769791
-0.541256013535621,0.583067919725077
-0.542153306334402,0.562549622672557
-0.542719332195222,0.542454580341141
-0.543088341805568,0.522942165439256
-0.543400340636311,0.504158543175467
-0.543798947944452,0.486234807786052
-0.544429158376973,0.469285367738652
-0.545435040977287,0.453406601329485
-0.546957411755921,0.438675800058335
-0.549131516776839,0.425150412591706
-0.552084762914521,0.412867597382681
-0.555934533047878,0.401844087181177
-0.5607861214783,0.392076363816512
-0.56673082380288,0.383541136841591
-0.573844213361661,0.376196114969414
-0.582184633740103,0.369981054780474
-0.591791933683874,0.364819067002762
-0.602686467219243,0.360618156828873
-0.614868377822968,0.357272971295659
-0.628317181210765,0.354666723763136
-0.642991656779113,0.352673263035727
-0.658830053011277,0.351159252706993
-0.675750607318435,0.349986424907101
-0.693652375906146,0.349013871809381
-0.712416364411574,0.348100338018418
-0.731906945323982,0.347106477317551
-0.751973543654847,0.345897038189596
-0.772452568036468,0.344342944022824
-0.793169560467497,0.342323235947764
-0.813941534353793,0.339726848783652
-0.834579467370888,0.336454193563176
-0.854890913050868,0.332418523499879
-0.874682692914738,0.327547064007616
-0.893763629466105,0.321781891413546
-0.911947279459165,0.315080549258794
-0.929054626570144,0.307416395484358
-0.944916692943449,0.298778678282032
-0.9593770300492,0.289172342878174
-0.972294050864926,0.278617575939154
-0.983543167559246,0.267149098569917
-0.993018701577931,0.254815222952222
-1.00063553627306,0.241676691471395
-1.00633048592585,0.227805320649146
-1.01006335913779,0.213282475279876
-1.01181769904066,0.198197400810361
-1.01160118753651,0.18264544416624
-1.00944570575136,0.166726194879762
-1.00540704799515,0.150541579486768
-0.999564291688475,0.134193942720429
-0.992018830863582,0.117784149027683
-0.982893085894906,0.101409737373507
-0.972328906985567,0.0851631611890726
-0.960485693555511,0.0691301436824758
-0.947538255973573,0.0533881765936258
-0.933674449983169,0.0380051878745573
-0.919092617629433,0.0230384007571487
-0.903998871450693,0.00853340328280566
-0.888604261103495,-0.00547655633004496
-0.873121863410525,-0.0189710370528786
-0.857763838026106,-0.0319426278523162
-0.842738491485672,-0.0443969228839796
-0.828247392334215,-0.0563522503157864
-0.814482579314917,-0.0678391602849476
-0.801623903253357,-0.0788996816584418
-0.789836541315076,-0.0895863612652477
-0.779268719774437,-0.0999611030337429
-0.770049678349161,-0.110093827936919
-0.762287905574632,-0.120060978763779
-0.756069670669437,-0.129943896445626
-0.751457872940086,-0.139827096925753
-0.748491225055544,-0.149796479332424
-0.747183781563009,-0.159937497468269
-0.747524818891035,-0.170333327342896
-0.749479067872643,-0.181063063637172
-0.752987294598988,-0.192199977593871
-0.757967220263002,-0.203809867885759
-0.764314765650466,-0.21594953453351
-0.771905601159204,-0.228665403955497
-0.78059697874797,-0.24199233076148
-0.790229818102809,-0.255952598992195
-0.800631015622313,-0.27055514220412
-0.811615941619569,-0.28579499815665
-0.822991088465633,-0.30165300993702
-0.834556830296558,-0.31809578122038
-0.846110253404214,-0.335075889076272
-0.857448015551667,-0.352532353368434
-0.86836919220867,-0.370391357424245
-0.878678068093642,-0.388567210345044
-0.888186833427778,-0.406963537160224
-0.896718145936915,-0.425474679065467
-0.904107521850699,-0.443987282294658
-0.910205521910566,-0.462382050817666
-0.914879701663788,-0.480535635088776
-0.918016299038516,-0.498322626543413
-0.919521636305508,-0.51561762549733
-0.919323217971471,-0.532297348578234
-0.917370510847057,-0.548242740842377
-0.913635397416114,-0.56334105731641
-0.908112298625862,-0.577487878867511
-0.900817967242655,-0.590589028042607
-0.891790957897221,-0.602562351821475
-0.881090784800009,-0.613339340080505
-0.868796782766838,-0.622866550936809
-0.855006691586281,-0.63110681700066
-0.839834987816205,-0.638040209864475
-0.823410991756371,-0.643664743847831
-0.805876780551931,-0.647996804043233
-0.787384941091473,-0.651071288003564
-0.768096198533181,-0.652941454911934
-0.748176957892686,-0.653678480707114
-0.727796797134107,-0.653370722329358
-0.707125950609124,-0.652122698927678
-0.68633282148437,-0.650053802455752
-0.66558156099152,-0.647296754506071
-0.645029750943021,-0.643995830419369
-0.624826224004464,-0.64030487559098
-0.605109053735899,-0.636385142414232
-0.586003743450845,-0.632402979395511
-0.567621639542788,-0.62852740659495
-0.550058591150596,-0.624927613646818
-0.5333938739385,-0.621770418158646
-0.517689391419515,-0.619217723250628
-0.502989162723978,-0.617424013358627
-0.489319101079914,-0.61653392717634
-0.476687082603704,-0.616679945755585
-0.465083300372444,-0.617980232328563
-0.454480894237053,-0.620536658382067
-0.444836842509037,-0.624433047929924
-0.436093097582051,-0.629733668834076
-0.428177943795764,-0.636481996462512
-0.421007552472644,-0.644699770997029
-0.414487706110244,-0.654386365375501
-0.408515661237573,-0.665518476237668
-0.402982117481613,-0.678050145410819
-0.397773258967836,-0.691913114496163
-0.392772833317071,-0.707017510074725
-0.387864233211286,-0.723252852020959
-0.382932545784633,-0.740489372470912
-0.377866535946128,-0.758579628216347
-0.372560531140053,-0.777360384761112
-0.366916176974214,-0.796654746052098
-0.360844035560957,-0.816274500050547
-0.354265001279603,-0.836022646900835
-0.347111511933185,-0.855696073537027
-0.339328536881903,-0.875088336188955
-0.330874327630126,-0.893992510447508
-0.32172092045809,-0.912204067352604
-0.311854384955414,-0.92952373339705
-0.301274816660475,-0.945760292405593
-0.289996076365874,-0.960733287951597
-0.278045282943928,-0.974275586304701
-0.265462070706832,-0.986235761842691
-0.252297626275559,-0.996480269381215
-0.238613523625061,-1.00489537093864
-0.224480379340417,-1.01138878801453
-0.20997635310453,-1.01589105446536
-0.195185520994121,-1.01835654944972
-0.180196151245857,-1.0187641946214
-0.165098913734524,-1.0171178047004
-0.149985055455242,-1.0134460856744
-0.134944574804832,-1.00780228009875
-0.120064427406118,-1.0002634641915
-0.105426795614645,-0.990929506582819
-0.091107452700327,-0.979921703595815
-0.0771742510265927,-0.967381110732128
-0.0636857613843863,-0.953466594537978
-0.0506900880142053,-0.938352633165384
-0.0382238808097121,-0.9222268976566
-0.0263115627918875,-0.905287649210674
-0.0149647872295905,-0.887740990390571
-0.0041821348223194,-0.869798010356504
0.00605094278043676,-0.851671865734116
0.0157619311030042,-0.833574839622039
0.0249908148865106,-0.815715421499183
0.0337894005942325,-0.798295450404495
0.0422204100895379,-0.781507362737667
0.0503563601944051,-0.765531584384579
0.0582782465980485,-0.750534104632385
0.0660740540478799,-0.736664266540769
0.0738371178605579,-0.724052805121961
0.0816643644869894,-0.712810160903923
0.0896544611060767,-0.703025092267145
0.0979059059692406,-0.69476360542079
0.106515092441053,-0.688068216087793
0.115574380358542,-0.682957551975439
0.125170208450066,-0.679426299994109
0.13538128110988,-0.677445497031345
0.146276861822091,-0.67696315796956
0.157915203981721,-0.6779052296323
0.170342147794441,-0.680176854531856
0.183589909381864,-0.68366392374356
0.197676085215932,-0.688234894017962
0.212602891601108,-0.693742840424927
0.228356655170667,-0.700027712460544
0.244907566323119,-0.70691875868877
0.26220970326122,-0.71423708267683
0.280201329877688,-0.721798291250167
0.298805466229571,-0.729415194963421
0.317930725830447,-0.736900520173549
0.337472409538908,-0.744069592214913
0.357313841506304,-0.750742949909665
0.377327928536466,-0.756748852985754
0.397378920373126,-0.76192564589611
0.417324344930314,-0.766123944003461
0.437017089375288,-0.769208611074891
0.45630759531508,-0.771060500470092
0.475046134171297,-0.771577936251401
0.493085127191432,-0.770677914630541
0.51028147346733,-0.76829701062938
0.526498848833363,-0.764391979499143
0.541609938609298,-0.758940047240318
0.5554985678377,-0.751938889418357
0.568061693935384,-0.743406302301939
0.579211228515865,-0.733379575085403
