0.813199254628448,0.77038567493113
0.809235929935377,0.762487235270466
0.805836853575654,0.754236214119427
0.802789856894274,0.745765189167962
0.800015994220839,0.737123491145967
0.797468058369624,0.728340618376993
0.795113177677978,0.719437111355576
0.792926493698875,0.710428503363399
0.790888197355876,0.701327172485219
0.788981920591716,0.69214334661837
0.78719377450255,0.682885704513198
0.785511732452452,0.673561761245897
0.783925212931985,0.664178128877413
0.78242478550792,0.654740700196447
0.781001956462851,0.645254782666687
0.779649008136604,0.635725198817447
0.778358875680434,0.626156363256181
0.777125050617813,0.616552342930402
0.775941504079287,0.606916905095855
0.774802624780107,0.597253556072408
0.773703168248104,0.587565572969984
0.772638214775532,0.577856029963174
0.771603134233072,0.568127820277885
0.770593556350844,0.558383674761826
0.769605345405294,0.548626177701892
0.768634578493904,0.538857780399638
0.767677526759333,0.529080812903734
0.76673063905925,0.519297494214187
0.765790527680286,0.509509941209253
0.764853955772992,0.499720176496951
0.763917826245558,0.489930135355032
0.762979171901771,0.480141671893472
0.762035146646403,0.470356564549951
0.761083017611321,0.460576521010007
0.760120158079798,0.45080318262842
0.759144041106084,0.441038128416144
0.75815223374328,0.431282878647128
0.757142391805655,0.421538898131194
0.756112255102358,0.411807599192331
0.755059643088488,0.402090344386221
0.753982450886947,0.39238844898605
0.752878645640842,0.382703183261789
0.750583404841284,0.363387409306626
0.749388234805696,0.353759234639156
0.748158977279486,0.344152360199859
0.746893914148097,0.334567859585865
0.745591382695137,0.325006771777689
0.744249773500158,0.315470102452841
0.742867528482422,0.305958825208225
0.741443139077909,0.29647388269926
0.739975144538244,0.287016187702837
0.73846213034136,0.277586624110445
0.736902726704811,0.268186047857151
0.735295607193544,0.258815287791568
0.733639487414749,0.249475146491398
0.731933123793161,0.240166401028712
0.730175312420769,0.230889803688728
0.72836488797552,0.221646082645482
0.726500722704047,0.21243594259749
0.724581725463947,0.203260065366198
0.72260684082152,0.194119110459778
0.720575048201233,0.185013715604601
0.718485361083512,0.175944497246516
0.716336826247753,0.166912051023862
0.714128523057697,0.157916952214022
0.711859562786569,0.14895975615512
0.709529087979568,0.140040998644383
0.707136271851532,0.131161196314518
0.702160458455935,0.113520430020187
0.793243485553779,-0.0147042403325308
0.598056455023091,-0.0168114262299507
0.57822347715217,0.202396176325221
0.791660440174107,-0.0377173389945804
0.685659938824588,0.0615811002702185
0.565634431001972,-0.0398129353322961
0.679618322834936,0.0446063213520989
0.559337459761515,0.131989341697467
0.563612797855819,-0.0667381947078496
0.761663893295827,-0.0980481032902211
0.666696655806489,0.0111806758816353
0.767046120519283,-0.0964103841425228
0.567328089239445,-0.0963662667389385
0.656257554292756,-0.0134212489000512
0.548177248253041,0.0943140246621573
0.551255618347225,-0.146606697094139
0.645166110224505,-0.0376155448124722
0.736909226671447,0.0494800171476318
0.517431783328838,0.0529353364728378
0.521747360554035,-0.178324641656639
0.725880596807081,-0.189009128398197
0.71656095331378,-0.199633883456469
0.616707316090669,-0.0924575151171464
0.505632240304318,0.019330313144817
0.607906333896879,-0.107708050663606
0.499787001908519,-0.0203043089132802
0.491382671985603,-0.0262534218689014
0.475812374434227,-0.0358115410140606
0.46939384652638,-0.245611515187911
0.688437598744261,-0.040961292474488
0.569708313181548,-0.166839276559233
0.564597194012657,-0.174020494629666
0.554151837706503,-0.188243511190236
0.548817942717748,-0.19528552347849
0.537928747714712,-0.209231198840187
0.532373928914992,-0.216135162609861
0.526745989100333,-0.22299343529832
0.521045227649974,-0.229806203978474
0.515271967723562,-0.236573670582882
0.509426556433363,-0.243296052011361
0.503509365030716,-0.249973580247495
0.497520789107168,-0.256606502484317
0.491461248810752,-0.263195081259456
0.485331189077945,-0.269739594600081
0.479131079881844,-0.276240336177976
0.466522719782837,-0.289111757960328
0.46011553648257,-0.295483105276956
0.453640439544732,-0.301812015442888
0.433813796734657,-0.320547953378707
0.406466976538848,-0.344959762738288
0.399472463301519,-0.350964105577787
0.392416435528318,-0.356930009869121
0.385299750674043,-0.362858011409517
0.378123297465473,-0.368748665537099
0.363594801114821,-0.380420253024309
0.356244697712918,-0.386202398468125
0.348838706908688,-0.391949621587069
0.341377884135832,-0.397662581889313
0.333863320536751,-0.403341961196303
0.326296143864813,-0.408988464206555
0.318677519442072,-0.414602819094106
0.311008651176536,-0.420185778144171
0.303290782643473,-0.425738118428825
0.279856230883582,-0.442219584637424
0.271955632243765,-0.447657742478695
0.264012889217171,-0.453069565584314
0.248007053776451,-0.463818009151762
0.23994712886351,-0.469156608888004
0.23185139834539,-0.474472834798944
0.223721580336648,-0.47976776048171
0.199145662249322,-0.495536021852994
0.182625490376073,-0.505963072347184
0.157682312246809,-0.52150184417408
0.149333441176193,-0.52665989031204
0.124217490865177,-0.542090702097696
0.0990538825107026,-0.557491733832623
0.065568748058391,-0.578067898740928
0.0572319709596113,-0.58323350203123
0.0323666187238812,-0.59882090487378
0.0241410872115548,-0.604056022121593
0.00781353696060094,-0.614603435964071
-0.00831248160926751,-0.625276780777498
-0.047392655464971,-0.652731776832927
-0.0549294974201343,-0.658397235077991
-0.0623482087003043,-0.664136509561378
-0.0696349004016353,-0.669958279033433
-0.0767732044668624,-0.675872771391492
-0.103349480746505,-0.700766070028586
-0.109275392431112,-0.707438149227783
-0.114637055782371,-0.714462809917355
0.813199254628448,0.77038567493113
0.77533540331294,0.731795636405266
0.768197099247713,0.725881144047207
0.760910407546382,0.720059374575152
0.753491696266212,0.714320100091765
0.745954854311049,0.708654641846701
0.738311908316816,0.703055484763766
0.722748879172689,0.692030345112744
0.714846720173428,0.686593162292267
0.698839824867185,0.675845381002301
0.690748661885477,0.670526300977845
0.682607220379673,0.665238638462155
0.674421111634523,0.659978887135367
0.641330227886466,0.639156367045004
0.632993450787686,0.633990763754702
0.624639229654747,0.62883606070672
0.616271293344988,0.623689927852388
0.607893193000741,0.6185501461917
0.582731041681443,0.603148204000146
0.574344707980901,0.59801356711147
0.549228757669884,0.582582755325814
0.540879886599269,0.577424709187854
0.532546705917742,0.572256858606634
0.524231559811038,0.567077738772332
0.515936708470005,0.561885937360958
0.491195353798531,0.546221052240793
0.483002748233598,0.540965360577572
0.474840618509429,0.535690625495484
0.466710800500688,0.530395699812718
0.458615069982568,0.525079473901779
0.426606566602313,0.503580607492469
0.387553547669542,0.476108643157946
0.357184314710246,0.453585446903087
0.349723491937389,0.447872486600843
0.320438901380605,0.424671530550873
0.313262448172034,0.418780876423291
0.30614576331776,0.412852874882895
0.292095222307229,0.400882627752062
0.278294016480408,0.388756578706577
0.264748402111421,0.376470818392481
0.258073269215397,0.370266904566098
0.219431118964234,0.33216320119175
0.20104140973891,0.312529367498091
0.189135642412715,0.299218917025135
0.160633451131366,0.265154063853961
0.155152029103775,0.258204236690853
0.149744256128329,0.251208388492264
0.128853885664529,0.222762141573007
0.118855448445496,0.208259858972112
0.0951685748845061,0.171186061337779
0.0692131395129573,0.125154818658747
0.0651479627627712,0.117320023227004
0.057239654638312,0.101511683013375
0.0285291309188079,0.0364520110187245
0.00163609799632669,-0.0401183550653924
-0.00359825960985777,-0.0575975650064131
-0.00611811887165248,-0.0663979819756222
-0.0109668891334907,-0.0841181336306085
-0.0132973639404915,-0.0930368911413463
-0.01556632421162,-0.101994087200248
-0.0177746274016753,-0.110989186010088
-0.0260195266178692,-0.147337200352424
-0.0279385238579692,-0.156513077583716
-0.0333709249470836,-0.184243536014938
-0.0367334083474662,-0.202892422777794
-0.0428809402318316,-0.240551017685486
-0.05542025204087,-0.336465583972276
-0.05649744424241,-0.346167479372447
-0.0605818422600061,-0.38511526340237
-0.0720313575047665,-0.502460809748052
-0.0824397576167734,-0.589331917652913
-0.0853630140859076,-0.608255263863639
-0.0869495336063749,-0.617638896232122
-0.0923259985097988,-0.645404307471445
-0.101453795374762,-0.681200626132193
