0.986703909670312,-0.163317715255359
0.988972173436997,-0.156969650304061
0.980837829818431,-0.1618977858772
0.991462533348315,-0.173286983644241
0.976807937635755,-0.161273441100715
0.973801778865118,-0.160739221301963
0.97409139158152,-0.151038519128815
0.966725456408556,-0.199881358790508
0.960910949394956,-0.158006872725261
0.96430733594992,-0.131636870887743
0.954262443824169,-0.13389106679907
0.959382024514676,-0.154868595214702
0.938653093520696,-0.164454996006212
0.927160038648778,-0.14855409479019
0.930989551129637,-0.160217521678356
0.934654041621577,-0.15922854168465
0.900154443507067,-0.13918879354719
0.910737986590637,-0.156387994196586
0.87961553626409,-0.131158569964442
0.890573301067048,-0.123998103742973
0.835422450126633,-0.127052112864286
0.835212612752352,-0.116146072289771
0.811326743043481,-0.123553147633464
0.830043654962793,-0.114822893641961
0.842155162480904,-0.0961168309364102
0.795085290800736,-0.117925534436719
0.780686478456162,-0.0828383387856703
0.755958596183897,-0.0584615869501496
0.741610343911937,-0.0683444259628087
0.762440761826174,-0.0515442949680507
0.738556892977164,-0.0411986494119453
0.711962918073345,-0.0186911439257026
0.712845573323368,-0.0423776757913286
0.678942627886809,-0.0175116008044378
0.678357223745432,-0.0178127011793539
0.595449994847364,0.0322871543627563
0.63321035995526,0.0171244411167379
0.617865895873369,0.0295206349296667
0.589035387198871,0.065816152745095
0.559127382056822,0.0813441293392352
0.573098872655432,0.0632632365778952
0.553184329586635,0.0840444227977219
0.52479050929077,0.118776277712164
0.526443619764708,0.112178165766331
0.502092021281193,0.145091839481122
0.496770711880197,0.142586208432771
0.521613186339362,0.17116111790791
0.467788480339627,0.174220218648049
0.474259781435288,0.203272940239653
0.463049368317608,0.226749299034055
0.401647175489835,0.224097197927359
0.400151764359788,0.257384923244426
0.399368432559011,0.257701211345052
0.368042401636039,0.288241958497193
0.340656203552638,0.254471141768829
0.372766808555144,0.344365225234817
0.348723479715804,0.314515442932204
0.380868701316252,0.363241458475024
0.359916632392462,0.366064102663557
0.313809013434525,0.41824824094633
0.302185311207078,0.378302474208515
0.290305422297215,0.417608653386854
0.283061058622164,0.4067736465692
0.295566976687505,0.429567971175242
0.258314279217792,0.437847920250351
0.259830168505926,0.486931774202704
0.22857411258532,0.535393379975356
0.27446934837062,0.530585973888402
0.253879408731439,0.50946435287511
0.230185461687195,0.554877747186769
0.245233855846294,0.582293906394719
0.201012311479395,0.562990099199035
0.212186500673856,0.603256968784148
0.206972619681613,0.618759984351851
0.198512314899679,0.636462319904528
0.231549688574608,0.674081793776347
0.18802779342517,0.675239214067734
0.185406048841057,0.664991232024122
0.194829116747138,0.694171795838684
0.183410534832458,0.703604132930617
0.166018163398623,0.703219079821316
0.171155669801054,0.722512472332142
0.139039696469398,0.756258352517783
0.210701225520752,0.786346254051748
0.172658236391612,0.761294558695792
0.156250610785935,0.81987910721091
0.150617328740765,0.798300932776169
0.197131288370875,0.801394288931939
0.168120522859728,0.797458918351377
0.168017951534616,0.804797518451193
0.180382081323774,0.814548372732378
0.139074743212112,0.803144739475382
0.174083369455488,0.849158132550797
0.16718571499126,0.828291422322502
0.167211467063405,0.832518785197659
0.187021726485718,0.87847875538944
0.167397128001674,0.838958413002819
0.167514438223217,0.841163963938265
0.167619507969844,0.842690823069459
0.167690875643665,0.843538578020773
0.169536974542472,0.836483594866796
0.197023706613011,0.826373147124859
0.173953448942699,0.855525770892282
0.137961049344013,0.806699874346032
0.128048897411488,0.795300032158719
0.166674926699793,0.829192960326284
0.15608852794353,0.805397978519241
0.164507683640607,0.826210750634829
0.163332407509353,0.821120876825812
0.142785369296158,0.81358304231785
0.174548659755718,0.809174024957702
0.132536806645589,0.758224129766732
0.164813313235068,0.763382440887293
0.153529888717025,0.786634537804812
0.139988857092824,0.744924314759444
0.178475548457949,0.787394214534
0.143907256115359,0.75923452705896
0.111759760006911,0.767740938921974
0.140092681426635,0.738069787535086
0.131001585014292,0.727370531876751
0.0890333244419769,0.719032994042192
0.120417590951482,0.703911528707653
0.122886789043837,0.679402700315921
0.108161945652896,0.678879625691437
0.101388818164173,0.665830292526533
0.123375950853605,0.661072845210683
0.0865242144914004,0.638781887259498
0.0927075587648988,0.61378745399392
0.0605774397852032,0.609731460419363
0.0608805561893918,0.596197051289592
0.0396960402087216,0.590317814436376
0.030524450939747,0.554579940151355
0.0311989932246079,0.551790583792553
0.00495500323203243,0.524395279417563
0.0237581290771454,0.525808464878049
-0.00246197128846636,0.506238895581077
-0.0145434317847897,0.490917358900623
-0.0270434906133317,0.475568324151228
-0.00133837552691404,0.456458822064943
-0.0178840004632692,0.426348545415336
-0.0669617343446708,0.429599365687038
-0.0810373815286046,0.414381806104559
-0.0954770114728246,0.39925563844326
-0.110266648903534,0.384243360197308
-0.173236297287657,0.312101127393515
-0.107200056184314,0.341295266692294
-0.162460773591075,0.336012487931478
-0.136728967804103,0.327587219600742
-0.19302760269431,0.332370672145097
-0.205454804027623,0.297747489831427
-0.227511633921085,0.301737260582478
-0.238759283514613,0.277065503580508
-0.257834374597228,0.263463882796472
-0.263794868552342,0.223828783352781
-0.291158658976724,0.232430815225718
-0.29662980100831,0.200945691310004
-0.310371264366653,0.213919994502336
-0.34416360416962,0.197076583199016
-0.337691592799386,0.18154171150264
-0.379764495495147,0.175306312567794
-0.424718132714679,0.15799593738031
-0.415344551582944,0.155059261453084
-0.405589900028568,0.129561757602207
-0.450700253350842,0.136387960110608
-0.444387490998915,0.143303864856038
-0.475010611780793,0.0891300020182231
-0.50286322850142,0.111407140166087
-0.510367461056006,0.133062937323115
-0.53675819098639,0.0967892648347416
-0.546717282364617,0.0710953877289268
-0.594796149678463,0.0727720415523024
-0.590491872084552,0.0649736840860063
-0.616638653432084,0.0842868965880484
-0.6169407874902,0.0672701094328007
-0.63160740773387,0.068605899598001
-0.653920518498958,0.0635397341942327
-0.658549905968624,0.0230769287221549
-0.674808550059199,0.0505190416047951
-0.688459774152345,0.0208403872566697
-0.706773172657868,0.0609296480810721
-0.731215956996801,0.0510400176987095
-0.741247165202137,0.0641327596097896
-0.73697540270544,0.0371616957200538
-0.747857293235614,0.0353714601695615
-0.79448745658723,0.0578793743539708
-0.767932571503983,0.0325490630531326
-0.738131064369274,0.049921294111013
-0.774176158472382,0.00257310790840211
-0.793605556748105,0.029951054371112
-0.777116503147884,0.00130243977631556
-0.817158459918496,0.0449871927952393
-0.80503321178487,0.00302464340985578
-0.778779579710511,0.035221667948682
-0.801831760701326,0.0299421899527387
-0.827830113511017,0.0287677476082144
-0.786461581270855,0.0235867327413593
-0.833932422365593,0.0289673521614699
-0.814343287979907,0.0552306111855903
-0.837325479206079,0.0291822699314335
-0.826850616494329,0.0495078230049917
-0.838003625461295,0.0292409726452995
-0.816201328102781,0.0317756973222219
-0.836166370613842,0.00691548849550766
-0.817773235815412,0.0151006498084565
-0.88672891640595,0.0187422407373266
-0.849340806135671,0.00197550934918687
-0.835938383168854,0.0175851306360844
-0.817794597583248,0.00994744939792109
-0.801146185192621,-0.00736838702934357
-0.808247793419998,0.0230674170885492
-0.797206065209567,0.0464727507945372
-0.794723301979956,0.0193164188683183
-0.764161239295317,-0.00129161519421638
-0.784480249613557,0.0152487474244079
-0.770151489437582,0.0114374691388694
-0.805119932405504,-0.00668151874914453
-0.730263601694596,-0.0180627706117282
-0.741214433911973,0.00581060021416378
-0.719233711957055,-0.0320136856230515
-0.728547484386906,0.035829405410913
-0.71233934764262,-0.00949550862948477
-0.717872875257258,-0.0400964403442201
-0.70417094863198,0.0143408484827739
-0.695858087275412,-0.0280180030138762
-0.64266342413151,-0.032738669224841
-0.602752926668406,-0.0472802559302422
-0.629678149633742,-0.0539177961862654
-0.593563086100275,-0.0597143925268557
-0.60139938166388,-0.070788763971159
-0.60310535952399,-0.112682479055743
-0.563139056622928,-0.0663065640205989
-0.557385112754062,-0.0994627864316278
-0.542388062049058,-0.109914633317946
-0.526763568077499,-0.134310265136764
-0.515160714663745,-0.117137042144
-0.510421371220239,-0.112042242540933
-0.481440779220735,-0.156088606530002
-0.477498817646906,-0.147725909599098
-0.463247572063468,-0.15922848719226
-0.435417759711493,-0.195110791230532
-0.414191219241234,-0.213949027616661
-0.398460528808008,-0.211169391922145
-0.389850085673615,-0.237601252461093
-0.382732274284871,-0.255355560459644
-0.360030626252383,-0.267682128476851
-0.289384620131064,-0.296925017265004
-0.330860381393692,-0.299022493761331
-0.331858970813182,-0.296617352473769
-0.334230494341253,-0.333080452008835
-0.264962253233112,-0.419962670730271
-0.267592009718436,-0.35193027729976
-0.280980167217903,-0.388685959877556
-0.260041377504261,-0.359585080382835
-0.245728216265562,-0.410874943761481
-0.223725845486043,-0.434003415004711
-0.250991814433452,-0.476846226480279
-0.208627065274269,-0.46965239377883
-0.188633280916348,-0.487067060238175
-0.177654098624979,-0.504864852720857
-0.190364271309331,-0.541148762432169
-0.147111956568057,-0.547030939827652
-0.159775424482225,-0.559105289499387
-0.137561496194255,-0.575940259699487
-0.143977854792651,-0.595679619583465
-0.119893912408574,-0.611051390802431
-0.107188209791083,-0.607856819506814
-0.103849860125873,-0.645603760938526
-0.0973342502751541,-0.651865412389111
-0.0876836138023183,-0.677393246063142
-0.0828363349761396,-0.695936129673531
-0.0692962749019497,-0.692611336490037
-0.0708389931870848,-0.728199159388449
-0.0654312944728499,-0.743869087429428
-0.0604095257954489,-0.759199268451675
-0.0768330477556908,-0.763830705088466
-0.069840656777946,-0.807954411713161
-0.04802110781578,-0.778969228337707
-0.0775373999593006,-0.804995652979654
-0.0407980148060926,-0.829952500178179
-0.0224289001953813,-0.838395072114688
-0.0353227074211613,-0.855099403944843
-0.013601853090943,-0.851546143161001
-0.0424704005736174,-0.886252706502353
-0.0293239533123345,-0.888950334281875
-0.027853949275696,-0.899132695037089
-0.0266212521096549,-0.908738114290821
-0.0252601213502441,-0.968407174026449
-0.0254033108735095,-0.894063047774141
-0.024169239780822,-0.933954299050806
0.0114830501557016,-0.969180625956067
-0.00898795635850744,-0.92695358817335
-0.0101805591396944,-0.980830454518547
-0.0223283765097122,-0.966740182078969
-0.0107657612977349,-0.974346060175682
0.00158222939312793,-0.935582238382987
-0.0403244066536829,-0.954249436742582
0.0137839519767956,-0.970509986207961
-0.0184049233313204,-0.939758538882856
-0.023560728961927,-0.976017707034678
-0.0247577620871598,-0.989515186046574
0.00564992938348963,-0.994500643486276
-0.0371519903755579,-0.967787584014015
-0.0033526090619906,-0.996009499830894
-0.0283338958584411,-0.977306243520018
0.0191061579303257,-0.999787469035937
-0.0103234149708136,-1.00802487462375
-0.0327915147015425,-0.95984469416133
-0.0198486134669325,-0.956562103066807
-0.0185566645630102,-0.951161033750793
-0.0170175260645598,-0.945146338319752
-0.035596697481855,-0.926938124521323
0.0021960460479564,-0.930047188069666
-0.0107402084233217,-0.923550922502426
-0.00803876273907925,-0.915217048343979
-0.0182452155619508,-0.883868894204285
-0.00162955559712448,-0.896943014206781
-0.046427124625274,-0.900510377004828
0.0356484188795017,-0.875465619287222
0.0282937836935499,-0.874851899718413
-0.00209112914746396,-0.857968613443722
0.0211283734534953,-0.858683934131141
0.0265871146780127,-0.830612194731376
0.0136904294762794,-0.811002301018378
0.0402043847473482,-0.810039710470003
0.0472887606172359,-0.77991041215386
0.0536934990657606,-0.778473388555649
0.0615595397112464,-0.793535808300211
0.0698927838030182,-0.750577313070966
0.0738149567869082,-0.725490862737
0.0798035710323893,-0.724460595457283
0.0975570300966744,-0.706997487957368
0.115882309671617,-0.666430827621878
0.118237745553135,-0.677077997651888
0.100723578428903,-0.691486799038391
0.132771530705383,-0.613635465794936
0.151978187792197,-0.656528395591916
0.16799997289561,-0.622910037673406
0.12399299042481,-0.636352778413434
0.20360543911971,-0.583297740967114
0.204164518697575,-0.570053389788854
0.227122927155309,-0.564959719193713
0.23231256565368,-0.539624018913645
0.246929006931963,-0.52455201642887
0.238841762348513,-0.499545447019663
0.291907038949195,-0.500252650289768
0.292771740500634,-0.480171711839728
0.308662747775928,-0.465727004989875
0.339837032591268,-0.464715987308025
0.344911028698042,-0.4359620926033
0.3579135180051,-0.423714768704793
0.364433664861294,-0.421577925077978
0.381513588658458,-0.370505039101204
0.413546878277091,-0.397947580659189
0.431688953182515,-0.379786933707196
0.464537822786776,-0.358165889323328
0.476919061967323,-0.325890307461351
0.459073410175094,-0.346193046858137
0.483959220079345,-0.314222028933819
0.514958362719143,-0.313426651230055
0.532769377360168,-0.302917537054977
0.542523047463699,-0.276377775243864
0.559686444998501,-0.280877018500617
0.578780075785867,-0.30720537711271
0.609247682549197,-0.274501903572059
0.655986767055149,-0.257584743694649
0.640156636096137,-0.244123788756653
0.641166205334492,-0.209745295942006
0.672464872923643,-0.233109291865619
0.672262048152059,-0.21742594708702
0.717463198021684,-0.203759694703911
0.721879061940004,-0.21361094150455
0.737623892571192,-0.210426441019739
0.790547510832217,-0.202015766608487
0.782440892298103,-0.191329501364494
0.771782331035403,-0.193686512392582
0.774434622484768,-0.201455242210746
0.797067602429013,-0.177086542601227
0.803877458571602,-0.177352080782644
0.827048854072418,-0.186431110694804
0.861829229330525,-0.161039357330757
0.851278408081829,-0.171226831737896
0.884881271054668,-0.179771740007389
0.894679098322458,-0.157529810106456
0.897190130253883,-0.167392350194456
0.92040767142066,-0.186385946733753
0.916688557945678,-0.164807199594314
0.925552743964586,-0.163846482200918
0.953795736519409,-0.175126042739074
0.96489780318156,-0.169484730387968
0.951245844480632,-0.162864126099584
0.954816164073979,-0.161784889318439
0.977648701302256,-0.173675309481022
0.979807460009967,-0.133185363877503
0.981419592427769,-0.152954756889176
0.955628265356034,-0.15570760100469
0.976760218037691,-0.161727462748308
0.976660350538152,-0.166329094706527
0.980831855985523,-0.161954623100672
0.972948698018384,-0.130198759178503
0.993739224375776,-0.176721271164698
