0.0721192788176647,-0.617238036935007
0.0721386555095831,-0.617139610162703
0.0722092351784258,-0.616846401179579
0.0723496444726895,-0.616361546929009
0.0725784094271681,-0.615688218186975
0.0729139094524703,-0.614829611968842
0.0733743316391826,-0.613788943975364
0.0739776254798044,-0.612569441094871
0.0747414581106535,-0.611174333978475
0.0756831701747795,-0.609606849704883
0.0768197324055441,-0.607870204551245
0.0781677030289162,-0.60596759688616
0.0797431860807083,-0.603902200200685
0.0815617907329372,-0.601677156292853
0.0836385917212451,-0.599295568620852
0.0859880909628564,-0.596760495839591
0.0886241804518953,-0.594074945534974
0.091560106516032,-0.591241868169722
0.0948084355153954,-0.588264151254078
0.0983810210614649,-0.585144613754238
0.102288972830265,-0.58188600075075
0.10654262704063,-0.578490978358576
0.11115151866458,-0.5749621289199
0.116124355432996,-0.571301946480111
0.121468993695768,-0.567512832556756
0.127192416191441,-0.563597092210579
0.133300711777139,-0.559556930427047
0.139799057165155,-0.555394448816066
0.146691700708118,-0.551111642636848
0.15398194827008,-0.546710398154144
0.161672151216198,-0.542192490331296
0.169763696548966,-0.537559580864771
0.178256999214144,-0.532813216564085
0.187151496594697,-0.527954828080207
0.19644564520617,-0.522985728984739
0.206136919601994,-0.517907115201361
0.216221813492298,-0.512720064790228
0.226695843074857,-0.507425538085198
0.237553552571833,-0.502024378182936
0.248788521961097,-0.49651731178217
0.260393376885951,-0.490904950370538
0.272359800722253,-0.485187791755687
0.284678548777098,-0.479366221936491
0.297339464588449,-0.473440517309465
0.310331498290432,-0.467410847204703
0.323642727004374,-0.46127727674489
0.337260377211138,-0.455039770020207
0.351170849055891,-0.448698193571229
0.365359742532106,-0.442252320171187
0.379811885487405,-0.435701832898304
0.394511363389782,-0.429046329488222
0.40944155078878,-0.422285326955919
0.424585144402451,-0.415418266475861
0.439924197757242,-0.408444518508567
0.455440157304503,-0.401363388161189
0.47111389993401,-0.394174120769157
0.486925771801746,-0.386875907685436
0.502855628386256,-0.379467892263461
0.518882875685151,-0.371949176019363
0.534986512460743,-0.364318824958684
0.551145173441483,-0.356575876052381
0.567337173383703,-0.348719343846602
0.583540551896233,-0.340748227190346
0.599733118928773,-0.332661516064909
0.615892500823363,-0.324458198498704
0.63199618682708,-0.316137267550894
0.648021575962995,-0.307697728347069
0.663946024155652,-0.299138605150083
0.679746891506726,-0.290458948449076
0.695401589616173,-0.281657842049639
0.710887628844088,-0.272734410148065
0.726182665408569,-0.263687824372665
0.741264548215274,-0.254517310775166
0.756111365314925,-0.245222156755311
0.77070148988582,-0.235801717901942
0.785013625639482,-0.226255424733969
0.799026851548834,-0.216582789324892
0.812720665799775,-0.206783411794755
0.826075028868773,-0.19685698665371
0.839070405631012,-0.186803308981683
0.85168780640577,-0.176622280428989
0.863908826848088,-0.166313915023131
0.875715686598316,-0.155878344767445
0.887091266603901,-0.145315825017698
0.89801914503072,-0.13462673962323
0.908483631684391,-0.123811605819766
0.918469800865311,-0.112871078861544
0.927963522584633,-0.101805956380987
0.936951492072057,-0.0906171824647549
0.945421257510085,-0.0793058514356262
0.953361245933342,-0.0678732113303024
0.960760787235637,-0.0563206670639205
0.967610136231641,-0.0446497832727261
0.973900492724406,-0.0328622868270874
0.979624019534335,-0.0209600690077514
0.984773858449791,-0.00894518733899188
0.989344144064133,0.00318013292694311
0.993330015468655,0.0154134976789025
0.996727625775698,0.0277523431734575
0.999534149450999,0.0401939356223231
1.00174778743924,0.0527353711430185
1.00336777007163,0.0653735760744001
1.00439435774935,0.078105307657891
1.00482883940153,0.0909271550844214
1.00467352872149,0.103835540906276
1.00393175818985,0.116826722812233
1.00260787089802,0.129896795763583
1.00070721019056,0.143041694487788
0.998236107149583,0.15625719632577
0.995201865949414,0.169538924428015
0.991612747114189,0.182882351293901
0.987477948715933,0.196282802647908
0.982807585555138,0.209735461645589
0.977612666370377,0.223235373401473
0.971905069127859,0.236777449830332
0.965697514446107,0.250356474792552
0.959003537215066,0.263967109533671
0.951837456472981,0.277603898407475
0.944214343608228,0.29126127487142
0.936149988957027,0.30493356774254
0.92766086687151,0.3186150077014
0.918764099336009,0.332299734031112
0.90947741821267,0.345981801577902
0.899819126200509,0.359655187919201
0.889808056594913,0.373313800724791
0.879463531937217,0.386951485296078
0.868805321646464,0.400562032268174
0.8578535987277,0.414139185459098
0.846628895653203,0.427676649850063
0.835152059514873,0.441168099680547
0.823444206547606,0.454607186641524
0.811526676124881,0.467987548150079
0.799420984328935,0.481302815688377
0.787148777198821,0.494546623189846
0.774731783760384,0.507712615455299
0.762191768942613,0.520794456581652
0.749550486485087,0.533785838385856
0.736829631941242,0.54668048880667
0.72405079588193,0.559472180266918
0.711235417403301,0.572154737978987
0.698404738042328,0.584722048176408
0.685579756202373,0.597168066254523
0.672781182190031,0.609486824803457
0.660029393963133,0.621672441516796
0.64734439368813,0.633719126959689
0.63474576520333,0.645621192180354
0.622252632482362,0.657373056149323
0.609883619190011,0.668969253011134
0.597656809420146,0.680404439133569
0.585589709702748,0.691673399939999
0.573699212364246,0.702771056510836
0.562001560322324,0.713692471940626
0.550512313393119,0.724432857437816
0.539246316185382,0.73498757815482
0.528217667652573,0.74535215873656
0.517439692370185,0.755522288576316
0.506924913601691,0.765493826768295
0.496685028212552,0.775262806747059
0.486730883487506,0.784825440604578
0.477072455902198,0.794178123076408
0.467718831895736,0.803317435189208
0.458678190686357,0.812240147562542
0.449957789167758,0.820943223358679
0.441563948919033,0.82942382087485
0.433502045356395,0.837679295773238
0.425776499050087,0.845707202944719
0.418390769225028,0.853505298003217
0.411347349458885,0.861071538408309
0.404647765586291,0.868404084214541
0.398292575813051,0.875501298446731
0.392281373039197,0.882361747101343
0.386612789384822,0.888984198774834
0.381284502907709,0.895367623920691
0.376293246496842,0.901511193737683
0.371634818921038,0.907414278692644
0.367304098007124,0.91307644668193
0.363295055917294,0.918497460836426
0.359600776490612,0.923677276975815
0.356213474609005,0.928616040718527
0.35312451754354,0.93331408425458
0.35032444823239,0.937771922789209
0.34780301043753,0.941990250665943
0.345549175723042,0.945969937178436
0.343551172193798,0.949712022081065
0.341796514929384,0.953217710808935
0.340272038044309,0.956488369418581
0.338963928301932,0.959525519261222
0.337857760206042,0.962330831401043
0.336938532490723,0.964906120791488
0.336190705926036,0.967253340223071
0.335598242354059,0.969374574056729
0.335144644867117,0.971272031757158
0.334812999037454,0.972948041241004
0.334586015105244,0.974405042055205
0.334446071029721,0.975645578401085
0.334375256306226,0.976672292020152
0.334355416450316,0.977487914957847
0.334368198048523,0.97809526222169
0.334395094274136,0.978497224350554
0.334417490765291,0.978696759911903
0.334416711761876,0.978696887944008
0.334374066397153,0.978500680360244
0.334270895039655,0.978111254332627
0.33408861558081,0.977531764671776
0.333808769563847,0.976765396220465
0.33341306804989,0.975815356277885
0.332883437117755,0.974684867071636
0.33220206289473,0.973377158294322
0.331351436016721,0.971895459721507
0.330314395417361,0.970242993927503
0.329074171347222,0.968422969115301
0.327614427525958,0.966438572076619
0.325919302332138,0.964292961297745
0.323973448937701,0.961989260226522
0.321762074296291,0.959530550715399
0.319270976897299,0.956919866655098
0.316486583200189,0.954160187812954
0.313395982666643,0.951254433889546
0.309986961311161,0.948205458806701
0.30624803369409,0.9450160452394
0.302168473284515,0.941688899403597
0.297738341124078,0.938226646111304
0.292948512726602,0.93463182410372
0.287790703152325,0.930906881672519
0.282257490199612,0.92705417257875
0.27634233566125,0.923075952278113
0.270039604596712,0.918974374460662
0.263344582576233,0.914751487912273
0.256253490857058,0.910409233704468
0.248763499456854,0.90594944271842
0.240872738093943,0.901373833508209
0.232580304968819,0.896684010507621
0.223886273366194,0.89188146258397
0.214791696061715,0.886967561941651
0.205298607522375,0.881943563377322
0.195410023894593,0.876810603887787
0.185129940778856,0.871569702630875
0.174463328794769,0.866221761238775
0.163416126945317,0.860767564482482
0.151995233794015,0.855207781285221
0.140208496473558,0.849542966081883
0.128064697549387,0.843773560520752
0.115573539766413,0.837899895502983
0.102745628711851,0.831922193554537
0.0895924534317786,0.825840571524506
0.0761263650436173,0.819655043603019
0.0623605533911961,0.813365524651169
0.0483090217934547,0.806971833834721
0.033986559942086,0.800473698552613
0.0194087150075736,0.793870758650625
0.00459176101707248,0.787162570909919
-0.0104473334285388,0.780348613799509
-0.0256909390274054,0.773428292481147
-0.0411208011646467,0.766400944054469
-0.0567180767375206,0.759265843029765
-0.0724633723366041,0.752022207015136
-0.0883367836987549,0.744669202604368
-0.104317936344756,0.737205951451334
-0.120386027311913,0.729631536516339
-0.136519867889398,0.721945008469406
-0.152697927261898,0.71414539223512
-0.168898376965092,0.706231693663355
-0.185099136054631,0.698202906309855
-0.20127791688872,0.690058018310432
-0.217412271423018,0.681796019332271
-0.233479637915382,0.673415907585695
-0.249457387937098,0.664916696879535
-0.265322873586517,0.656297423703191
-0.281053474800564,0.64755715431835
-0.296626646659328,0.638694991843335
-0.312019966579003,0.629710083313007
-0.327211181288605,0.620601626697238
-0.342178253486419,0.61136887786102
-0.356899408072822,0.602011157449379
-0.371353177857018,0.59252785768047
-0.385518448636443,0.582918449030341
-0.399374503548922,0.573182486793178
-0.412901066599319,0.563319617501018
-0.426078345264203,0.553329585187281
-0.438887072080136,0.543212237478783
-0.451308545123412,0.532967531501263
-0.463324667291545,0.522595539583866
-0.47491798429946,0.512096454748478
-0.486071721306203,0.501470595970232
-0.496769818091001,0.490718413196073
-0.50699696270076,0.479840492108723
-0.516738623494442,0.468837558624025
-0.52598107951336,0.457710483110162
-0.534711449110126,0.446460284317897
-0.542917716772859,0.435088133011617
-0.550588758085284,0.423595355291602
-0.557714362767475,0.411983435598635
-0.564285255746275,0.400254019392789
-0.570293116208809,0.388408915498891
-0.57573059459696,0.376450098111981
-0.580591327505308,0.364379708456755
-0.584869950449628,0.352200056095808
-0.588562108477838,0.339913619882242
-0.59166446460004,0.327523048552996
-0.594174706019167,0.31503116096006
-0.59609154814864,0.302440945937535
-0.597414736408344,0.289755561803301
-0.598145045795187,0.276978335494884
-0.598284278229447,0.264112761339911
-0.597835257683056,0.251162499462363
-0.596801823100905,0.238131373826645
-0.595188819131153,0.225023369922295
-0.593002084685409,0.211842632092954
-0.590248439354454,0.198593460514024
-0.586935667709967,0.1852803078242
-0.583072501527404,0.171907775416865
-0.578668599969778,0.158480609398062
-0.573734527776666,0.145003696218533
-0.568281731507163,0.131482057988017
-0.562322513889836,0.117920847480733
-0.55587000633695,0.104325342841638
-0.5489381396843,0.0907009420037496
-0.54154161322193,0.0770531568274392
-0.533695862084812,0.0633876069732507
-0.525417023076215,0.0497100135203815
-0.516721898999938,0.0360261923435394
-0.507627921580935,0.0223420472614308
-0.498153113056947,0.00866356297064921
-0.48831604652674,-0.00500320222078141
-0.478135805143277,-0.0186521238455068
-0.467631940242731,-0.0322770188994587
-0.456824428502581,-0.0458716536194794
-0.445733628224211,-0.0594297514000915
-0.434380234837332,-0.0729450008332282
-0.422785235725293,-0.0864110638544786
-0.410969864471835,-0.0998215839791234
-0.398955554631105,-0.113170194611061
-0.386763893123816,-0.126450527407541
-0.374416573363225,-0.139656220682471
-0.361935348215216,-0.152780927831018
-0.349341982897106,-0.165818325758102
-0.336658207919921,-0.178762123293422
-0.32390567217877,-0.191606069575629
-0.311105896295604,-0.204343962388363
-0.298280226318054,-0.21696965643092
-0.285449787877243,-0.229477071506493
-0.272635440906421,-0.241860200611076
-0.259857735020996,-0.254113117906349
-0.247136865659058,-0.266229986560082
-0.234492631079757,-0.278205066437921
-0.221944390314982,-0.290032721630708
-0.209511022167656,-0.301707427801821
-0.197210885347552,-0.313223779339492
-0.185061779833075,-0.324576496299359
-0.173080909544597,-0.3357604311231
-0.161284846412087,-0.346770575119339
-0.149689495916579,-0.357602064693674
-0.138310064181745,-0.368250187315104
-0.127161026688386,-0.378710387206768
-0.116256098680961,-0.388978270749502
-0.105608207331554,-0.399049611587323
-0.095229465722669,-0.40892035542463
-0.085131148706244,-0.418586624505544
-0.0753236706919995,-0.42804472176655
-0.065816565413984,-0.437291134654265
-0.0566184677196944,-0.44632253860094
-0.0477370974216744,-0.455135800150988
-0.0391792452468196,-0.46372797973267
-0.0309507609139867,-0.47209633406975
-0.023056543365684,-0.480238318228811
-0.0155005331748343,-0.488151587298649
-0.00828570714273735,-0.495833997698991
-0.00141407509942054,-0.503283608116605
0.00511332108730844,-0.51049868006764
0.0112964062927889,-0.517477678085911
0.0171360687099884,-0.524219269537592
0.0226341542260952,-0.530722324063643
0.0277934586146532,-0.536985912652088
0.0326177175615933,-0.543009306343071
0.0371115945483311,-0.548791974570408
0.0412806666199111,-0.554333583144154
0.0451314080709055,-0.559633991879492
0.0486711720864236,-0.564693251877979
0.0519081703801747,-0.569511602468006
0.0548514508759954,-0.574089467811989
0.057510873483637,-0.578427453188606
0.0598970840238636,-0.582526340959038
0.0620214863620592,-0.586387086226896
0.0638962128135374,-0.590010812202147
0.0655340928876272,-0.593398805280025
0.0669486204413092,-0.596552509846483
0.0681539193167484,-0.599473522822374
0.0691647075404491,-0.602163587959079
0.0699962601649812,-0.604624589898837
0.0706643708372658,-0.60685854801355
0.0711853121802497,-0.608867610036292
0.0715757950774623,-0.610654045500188
0.0718529269523963,-0.612220238999748
0.0720341691369077,-0.613568683290112
0.0721372934248676,-0.614701972239984
0.0721803379091248,-0.615622793654356
0.0721815622014396,-0.616333921983391
0.0721594021364358,-0.616838210934025
0.0721324240617725,-0.617138586001109
0.0721192788176647,-0.617238036935007
