0.268609502413869,0.143108493599706
0.26633660283019,0.144082791353577
0.263983628878594,0.144962849091127
0.261554311467552,0.145744612158442
0.259052556725203,0.14642416896691
0.25648244064071,0.14699775798345
0.253848203439914,0.14746177452363
0.251154243702459,0.147812777337892
0.248405112227865,0.148047494981364
0.245605505658403,0.148162831958019
0.242760259866942,0.148155874630192
0.239874343118261,0.148023896884803
0.236952849012636,0.147764365547889
0.234000989220818,0.147374945539401
0.231024086019789,0.146853504760525
0.228027564638992,0.146198118706135
0.225016945426971,0.145407074795321
0.221997835848621,0.144478876413292
0.218975922323507,0.143412246658339
0.215956961915907,0.142206131787865
0.21294677388748,0.140859704357941
0.209951231123654,0.139372366051164
0.206976251445008,0.137743750188039
0.204027788815114,0.135973723917487
0.201111824456453,0.1340623900825
0.198234357886173,0.132010088757357
0.19540139788359,0.129817398453274
0.19261895340144,0.127485136989742
0.189893024433006,0.125014362029261
0.18722959284733,0.122406371273613
0.184634613204768,0.119662702320236
0.182114003565248,0.116785132177701
0.179673636301592,0.113775676439764
0.177319328930299,0.110636588117852
0.175056834972216,0.10737035613234
0.172891834855488,0.103979703463393
0.170829926873188,0.100467584962571
0.16887661820796,0.0968371848268942
0.167037316035982,0.0930919137374388
0.165317318722476,0.0892354056650308
0.163721807120914,0.0852715143460063
0.162255835987959,0.0812043094314587
0.16092432552608,0.0770380723138203
0.159732053065646,0.0727772916350524
0.158683644898159,0.068426658481144
0.157783568272121,0.0639910612680339
0.157036123562864,0.0594755803244878
0.15644543662749,0.0548854821778664
0.156015451355835,0.0502262135491224
0.155749922428203,0.0455033950637573
0.155652408290327,0.0407228146858541
0.155726264355818,0.0358904208826845
0.155974636446086,0.0310123155277518
0.15640045447743,0.0260947465504991
0.157006426404737,0.0211441003412592
0.157795032430925,0.0161668939203662
0.158768519490937,0.0111697668806802
0.159928896018805,0.00615947311309727
0.161277927005944,0.00114287232492737
0.162817129358501,-0.00387307863867967
0.164547767561245,-0.00888133465979218
0.166470849655095,-0.0138747713884981
0.16858712353502,-0.0188461944484447
0.170897073574675,-0.0237883487958672
0.173400917583726,-0.028693928220614
0.176098604103417,-0.0335555849774643
0.178989810045544,-0.0383659395358147
0.18207393867955,-0.0431175904356269
0.18535011797208,-0.0478031242373427
0.188817199282843,-0.052415125553312
0.192473756420256,-0.0569461871481247
0.196318085059851,-0.0613889200951095
0.200348202528019,-0.0657359639761356
0.204561847953183,-0.0699799971117561
0.208956482786059,-0.0741137468086369
0.213529291690189,-0.0781299996111512
0.218277183803492,-0.0820216115439533
0.223196794371079,-0.085781518332313
0.228284486749153,-0.0894027455869641
0.233536354779311,-0.0928784189402119
0.238948225532138,-0.0962017741200554
0.244515662418468,-0.0993661669491027
0.250233968666268,-0.102365083255098
0.256098191160592,-0.10519214867994
0.262103124643624,-0.107841138374138
0.268243316271352,-0.11030598656375
0.274513070522931,-0.112580795976948
0.280906454458395,-0.114659847117472
0.287417303319864,-0.116537607372391
0.294039226470983,-0.11820873994172
0.30076561366888,-0.119668112577624
0.307589641662471,-0.120910806121129
0.314504281110548,-0.121932122824452
0.321502303812624,-0.122727594447274
0.328576290245108,-0.123292990115524
0.335718637394982,-0.123624323931487
0.34292156688272,-0.12371786232428
0.350177133365836,-0.123570131130064
0.357477233214033,-0.123177922391596
0.364813613446553,-0.122538300867065
0.37217788092199,-0.121648610238454
0.379561511770437,-0.120506479009996
0.386955861057526,-0.119109826087638
0.394352172669563,-0.117456866030784
0.401741589408672,-0.115546113967935
0.409115163286516,-0.113376390168242
0.416463866004906,-0.110946824261365
0.423778599611297,-0.108256859098409
0.431050207316924,-0.105306254247168
0.438269484465066,-0.102095089115254
0.445427189636687,-0.0986237656951823
0.452514055880483,-0.0948930109258747
0.45952080205414,-0.0909038786655013
0.466438144263437,-0.086657751271038
0.473256807385621,-0.0821563407803661
0.479967536663327,-0.0774016896932094
0.48656110935518,-0.0723961713476755
0.493028346429067,-0.067142489889646
0.499360124283945,-0.0616436798327415
0.505547386485985,-0.0559031052070725
0.511581155504725,-0.049924458295482
0.517452544434874,-0.0437117579564759
0.523152768689342,-0.0372693475335358
0.528673157649042,-0.0306018923510086
0.534005166254997,-0.0237143767972665
0.539140386528292,-0.0166121009963353
0.54407055900341,-0.00930067706968969
0.548787584060572,-0.00178602499041584
0.553283533142688,0.00592563196755423
0.557550659842672,0.0138277721819336
0.561581410846907,0.0219135810325941
0.565368436720774,0.0301759566459056
0.568904602522284,0.0386075160282082
0.572182998229998,0.0472006015832392
0.575196948971544,0.0559472880078478
0.577940025039267,0.06483938955985
0.580406051679688,0.0738684676914088
0.58258911864369,0.0830258390408434
0.584483589484563,0.0923025837753191
0.586084110591267,0.101689554276413
0.587385619944545,0.111177384160095
0.588383355583789,0.120756497622236
0.589072863772832,0.130417119100317
0.589450006853159,0.140149283241589
0.589510970773341,0.149942845167539
0.589252272283823,0.159787491024088
0.588670765786547,0.169672748806584
0.587763649829248,0.179587999448263
0.586528473234644,0.189522488160474
0.5849631408551,0.199465336012631
0.583065918943776,0.209405551739494
0.580835440133668,0.219332043763058
0.578270708016355,0.229233632416025
0.575371101312728,0.239099062353512
0.572136377628405,0.24891701513937
0.568566676786991,0.258676121993241
0.56466252373481,0.268364976684165
0.56042483101121,0.277972148556387
0.555854900779029,0.287486195672704
0.550954426410288,0.296895678060556
0.545725493622687,0.30618917104583
0.540170581162991,0.315355278659172
0.534292561033888,0.324382647099469
0.52809469826144,0.333259978238992
0.521580650200754,0.341976043154585
0.514754465378047,0.350519695669172
0.507620581867798,0.358879885887765
0.500183825204226,0.367045673712087
0.492449405826874,0.375006242317877
0.484422916060606,0.382750911578898
0.476110326630906,0.390269151421657
0.467517982715864,0.397550595094868
0.458652599536827,0.404585052337678
0.449521257490205,0.411362522430738
0.440131396823493,0.417873207114256
0.430490811859102,0.424107523357251
0.420607644770138,0.430056115962298
0.410490378912801,0.435709869990212
0.400147831720636,0.441059922989209
0.389589147166366,0.44609767701326
0.378823787797611,0.45081481041451
0.367861526353269,0.455203289394846
0.356712436967903,0.459255379301853
0.345386885971955,0.462963655654691
0.333895522296131,0.466321014885596
0.322249267488793,0.469320684783032
0.310459305355683,0.471956234622742
0.29853707123179,0.474221584973272
0.286494240895635,0.476111017162855
0.274342719136716,0.477619182394832
0.26209462798731,0.478741110499177
0.249762294630257,0.479472218308013
0.237358238994797,0.479808317643401
0.224895161052931,0.479745622906065
0.212385927829193,0.479280758254116
0.199843560137111,0.478410764361257
0.187281219056008,0.4771331047444
0.174712192162149,0.475445671651031
0.16214987952862,0.473346791497151
0.149607779508623,0.470835229847091
0.137099474317212,0.467910195926942
0.124638615426786,0.464571346663886
0.112238908791971,0.460818790244186
0.0999140999197285,0.4566530891831
0.0876779588008686,0.452075262900552
0.0755442647193065,0.447086789796867
0.0635267909556615,0.44168960882347
0.0516392894019842,0.435886120543972
0.0398954751045825,0.429679187681629
0.028309010752079,0.423072135149732
0.0168934911259781,0.41606874956204
0.00566242753114959,0.408673278220977
-0.00537076777626133,0.400890427581851
-0.0161927971459025,0.392725361191981
-0.02679049305759,0.384183697104183
-0.0371508335952807,0.375271504764664
-0.047260957852898,0.365995301375981
-0.0571081812542628,0.356362047736294
-0.0666800107693895,0.346379143556765
-0.0759641600094423,0.336054422259549
-0.084948564182699,0.325396145259405
-0.0936213948939413,0.314412995732562
-0.10197107476978,0.303114071877099
-0.109986291892542,0.291508879669631
-0.117656014025478,0.279607325123746
-0.124969502612197,0.267419706056185
-0.131916326533412,0.254956703367358
-0.138486375604269,0.242229371843363
-0.144669873795752,0.229249130487238
-0.150457392163884,0.216027752387768
-0.155839861470678,0.202577354134693
-0.160808584481105,0.188910384789736
-0.165355247920578,0.175039614423422
-0.169471934077812,0.160978122228165
-0.173151132038208,0.146739284218647
-0.176385748533275,0.132336760531019
-0.179169118391945,0.117784482332967
-0.181495014580044,0.103096638357156
-0.183357657814547,0.0882876610710793
-0.184751725739675,0.0733722124967727
-0.185672361652324,0.0583651696943368
-0.186115182764738,0.0432816099236309
-0.186076287992834,0.0281367954989481
-0.185552265259018,0.0129461583518693
-0.184540198298868,-0.0022747156820829
-0.183037672961512,-0.017510102837007
-0.181042782994098,-0.0327441576340525
-0.178554135301236,-0.0479609293260051
-0.175570854670861,-0.0631443785520027
-0.172092587958524,-0.0782783941850318
-0.168119507722653,-0.0933468103545644
-0.163652315303928,-0.108333423626417
-0.158692243342504,-0.123222010321653
-0.153241057727372,-0.137996343956126
-0.14730105897281,-0.152640212782001
-0.140875083017429,-0.167137437412456
-0.133966501441982,-0.181471888510524
-0.126579221102712,-0.195627504522908
-0.118717683177642,-0.209588309439472
-0.110386861623865,-0.223338430558958
-0.10159226104452,-0.236862116241418
-0.0923399139647917,-0.250143753627761
-0.0826363775169253,-0.263167886306753
-0.0724887295348993,-0.275919231909785
-0.0619045640600427,-0.288382699613722
-0.0508919862595637,-0.300543407532129
-0.0394596067605878,-0.312386699975242
-0.0276165354029775,-0.323898164559066
-0.0153723744148522,-0.335063649144092
-0.00273721101538915,-0.345869278584201
0.010278390549878,-0.356301471266466
0.0236633975353724,-0.366346955422676
0.0374063177768879,-0.375992785193594
0.0514952093209411,-0.385226356427141
0.0659176905942591,-0.394035422191897
0.0806609511049902,-0.402408107987551
0.0957117626665753,-0.41033292663417
0.111056491134628,-0.417798792822433
0.126681108646553,-0.424795037307275
0.142571206353027,-0.431311420727677
0.158712007629903,-0.437338147035699
0.17508838175849,-0.442865876518178
0.191684858061613,-0.447885738394906
0.208485640482295,-0.452389342977477
0.225474622591364,-0.456368793373417
0.242635403009752,-0.45981669672063
0.259951301230737,-0.462726174937643
0.277405373826875,-0.465090874975601
0.29498043102589,-0.466904978558434
0.312659053639296,-0.468163211398134
0.330423610327087,-0.468860851872579
0.348256275181397,-0.468993739153882
0.366139045611564,-0.468558280775785
0.384053760512683,-0.467551459629176
0.401982118699305,-0.465970840375392
0.419905697585582,-0.463814575267556
0.437805972092817,-0.461081409370786
0.455664333765013,-0.457770685172744
0.473462110072752,-0.453882346576626
0.491180583885398,-0.449416942269289
0.508801013091374,-0.444375628457925
0.526304650346011,-0.438760170969287
0.543672762926221,-0.432572946706173
0.560886652671055,-0.42581694445655
0.577927675987032,-0.418495765051363
0.59477726389693,-0.410613620867782
0.611416942110614,-0.402175334675328
0.627828351096368,-0.393186337823028
0.643993266131072,-0.383652667766441
0.659893617307522,-0.373580964934125
0.675511509477128,-0.362978468933826
0.690829242106217,-0.351853014099367
0.705829329024132,-0.340213024379962
0.720494518041408,-0.328067507574384
0.734807810416264,-0.315426048913132
0.748752480147799,-0.302298803992472
0.762312093074332,-0.288696491064937
0.775470525755454,-0.274630382691588
0.788211984116512,-0.260112296762051
0.800521021834387,-0.245154586889061
0.812382558443646,-0.229770132184926
0.823781897142337,-0.213972326428059
0.834704742276949,-0.197775066628379
0.845137216486304,-0.181192741001098
0.855065877484439,-0.164240216359082
0.864477734462839,-0.146932824934625
0.873360264092706,-0.129286350642179
0.881701426108299,-0.111317014794174
0.889489678452763,-0.0930414612827737
0.896713991968228,-0.0744767412409621
0.90336386461241,-0.0556402971970542
0.909429335184355,-0.0365499467372639
0.914900996542428,-0.017223865691587
0.91977000829813,0.00231942914117038
0.924028108969817,0.0220610977128462
0.927667627580907,0.041981994872904
0.930681494687692,0.0620626889254947
0.933063252822434,0.0822834805786131
0.934807066337972,0.102624422266881
0.935907730640681,0.123065337828993
0.93636068079919,0.143585842520448
0.936161999516913,0.164165363341657
0.935308424457068,0.184783159661228
0.933797354909503,0.20541834411369
0.931626857789323,0.226049903750654
0.928795672957958,0.246656721423984
0.925303217858042,0.267217597379206
0.921149591454133,0.28771127103716
0.916335577472037,0.308116442941462
0.9108626469302,0.328411796849225
0.904732959957405,0.348576021942117
0.897949366891684,0.368587835134709
0.890515408656164,0.388426003456795
0.882435316408298,0.408069366486233
0.873714010459681,0.427496858808699
0.864357098464435,0.446687532480607
0.854370872874928,0.465620579471373
0.84376230766434,0.484275354061101
0.832539054316399,0.502631395169731
0.820709437083384,0.520668448593667
0.808282447514254,0.538366489125924
0.795267738255603,0.555705742535788
0.781675616128856,0.572666707384155
0.767517034487968,0.589230176650661
0.752803584862641,0.605377259148946
0.737547487892848,0.621089400706425
0.72176158356127,0.636348405085138
0.705459320730961,0.651136454620475
0.688654745996418,0.665436130554662
0.671362491856879,0.679230433042285
0.653597764221546,0.69250280080522
0.635376329257081,0.705237130414783
0.61671449958855,0.717417795179067
0.597629119865629,0.72902966361391
0.578137551706696,0.740058117476175
0.558257658034094,0.750489069338476
0.538007786814539,0.760308979684877
0.517406754219387,0.769504873507491
0.496473827220088,0.778064356384386
0.475228705634863,0.785975630019671
0.453691503643236,0.793227507227124
0.431882730785754,0.799809426339241
0.409823272466737,0.80571146502415
0.387534369978633,0.810924353493338
0.365037600066977,0.815439487083781
0.342354854055677,0.819248938198625
0.319508316552731,0.8223454675912
0.296520443757132,0.824722534977773
0.273413941388171,0.826374308965124
0.250211742258771,0.827295676279676
0.226936983515096,0.827482250285607
0.203612983564915,0.826930378780084
0.180263218717835,0.82563715105447
0.156911299560711,0.823600404211077
0.133580947092061,0.82081872872582
0.110295968639575,0.817291473247847
0.0870802335851608,0.813018748628019
0.0639576489222624,0.808001431168887
0.0409521346704429,0.802241165089609
0.018087599172505,0.795740364200064
