0.953338355718202,-0.329067847943161
0.957244400864258,-0.313786006963258
0.95834645951984,-0.297639186809197
0.956653080447902,-0.280766784315275
0.95220833528814,-0.263315278376556
0.945091462073191,-0.245435409835367
0.93541600177607,-0.227279330065757
0.923328437956728,-0.208997767966199
0.909006357040066,-0.190737264417213
0.892656153980398,-0.172637521792234
0.874510314936898,-0.154828913853954
0.854824314995203,-0.137430198363882
0.833873174823058,-0.120546471032031
0.811947725352132,-0.104267395099208
0.789350634053226,-0.0886657359497629
0.766392250048461,-0.073796224780058
0.743386328124312,-0.0596947695872512
0.720645693629318,-0.0463780256905331
0.698477911229471,-0.0338433317534066
0.677181020536565,-0.0220690109448558
0.65703940071858,-0.0110150305644119
0.638319824359371,-0.000624007265949739
0.621267758085129,0.00917746094982123
0.606103963858344,0.0184771604448794
0.59302145041133,0.0273753550490896
0.582182819117683,0.0359826409733518
0.573718042760185,0.0444176020788925
0.567722709236426,0.0528043075353623
0.564256755346503,0.0612696966753249
0.563343708535845,0.0699408978716616
0.564970446931055,0.0789425294932965
0.569087480322766,0.0883940314123689
0.575609747033707,0.0984070751347232
0.584417913980045,0.109083099410973
0.595360159805663,0.120511016176396
0.608254413855139,0.13276512889655
0.622891017059802,0.145903301906339
0.639035764643628,0.15996541517967
0.656433285004929,0.174972134222206
0.674810704279497,0.190924019518151
0.693881542013446,0.207800994269268
0.71334978013027,0.225562183133538
0.732914045014153,0.244146128400571
0.75227184108436,0.263471383634086
0.771123773723532,0.283437478373786
0.789177699851173,0.303926241125755
0.80615274579358,0.324803461687464
0.821783134369389,0.345920867952868
0.83582176624835,0.367118386823222
0.848043504599295,0.388226653802391
0.858248116757928,0.409069731366366
0.866262832041583,0.429467992341472
0.87194448083091,0.449241121370444
0.875181186533676,0.468211185144758
0.87589358894168,0.486205720478393
0.874035584680578,0.503060788522276
0.869594577822476,0.518623943486943
0.86259124116807,0.53275706515638
0.853078796094078,0.545339006228104
0.841141826088689,0.556268008079069
0.826894646052034,0.565463841896691
0.810479256013693,0.572869636179111
0.792062914015159,0.578453356336935
0.771835368429533,0.582208907447363
0.750005794860729,0.584156837038181
0.726799486907478,0.584344621022679
0.702454353432678,0.582846522468827
0.677217277497808,0.579763019663639
0.651340393770127,0.57521980681886
0.625077341966035,0.569366377647449
0.598679553749975,0.562374208811616
0.572392629471665,0.554434566793682
0.546452859216152,0.545755967965102
0.521083939895738,0.536561327425683
0.496493936577895,0.527084837459767
0.47287253197862,0.517568621122284
0.45038860312749,0.508259210447835
0.429188158710045,0.499403902003385
0.409392664605166,0.491247044924759
0.391097778757057,0.484026318146201
0.374372509856444,0.477969054221553
0.359258807460852,0.473288666929546
0.345771584268964,0.470181238752769
0.333899164389344,0.468822322332806
0.323604144718484,0.469364007159337
0.314824650073439,0.471932299088945
0.307475956612263,0.476624855863187
0.301452452416595,0.48350911667048
0.296629898993301,0.492620858049282
0.29286795295511,0.503963202147402
0.290012903332456,0.517506096629522
0.287900576907928,0.533186278464626
0.286359361696023,0.55090772653529
0.285213297246819,0.570542600603748
0.284285179851796,0.591932656759786
0.28339963097869,0.614891122177511
0.282386078351777,0.639205004935324
0.281081601002555,0.664637807916313
0.279333592308405,0.690932609509991
0.277002198466141,0.71781546807985
0.273962493954083,0.744999102035147
0.270106360250498,0.772186792930967
0.265344039318286,0.799076455388263
0.259605339047887,0.82536481483376
0.252840473877632,0.850751632153724
0.245020530083161,0.874943913367849
0.236137551641305,0.897660042377528
0.226204249023099,0.918633775730011
0.215253339649322,0.937618040155422
0.203336534945457,0.954388476351645
0.190523194859565,0.968746676073446
0.176898676259556,0.980523063973918
0.1625624067151,0.989579380783025
0.147625719711184,0.995810730212721
0.132209491261461,0.999147158363307
0.116441621126654,0.999554741275019
0.100454404344165,0.997036163518102
0.0843818404999038,0.99163077823393
0.0683569290947879,0.983414146714715
0.0525089994624807,0.9724970633232
0.0369611229810603,0.959024079189011
0.021827653802253,0.943171545558682
0.00721194202362387,0.925145204808268
-0.00679573980956204,0.905177363842278
-0.0201200197143137,0.883523690797924
-0.032701965988805,0.860459681555064
-0.0445003157477379,0.836276847434659
-0.0554923697654926,0.811278679577804
-0.0656745368861047,0.785776448771177
-0.0750625173150812,0.760084901873386
-0.0836911203518422,0.734517917464411
-0.0916137184495446,0.709384183865362
-0.098901345796151,0.684982962250831
-0.105641455792039,0.661599996208613
-0.111936357752354,0.639503626813313
-0.117901358787438,0.618941169107366
-0.123662642018127,0.600135601874716
-0.129354916977097,0.583282617811288
-0.135118882154041,0.568548075716446
-0.141098543091464,0.556065890235726
-0.147438432170622,0.545936388071336
-0.154280778196295,0.538225152545193
-0.161762675059691,0.532962371057843
-0.17001329910909,0.530142692448272
-0.179151224379205,0.529725593640003
-0.189281883527602,0.531636247374646
-0.200495220218453,0.535766875400992
-0.212863575811842,0.541978564319244
-0.226439849605239,0.550103514484777
-0.2412559675889,0.559947686057079
-0.257321689786267,0.571293800532218
-0.274623780831541,0.583904651007839
-0.293125562575701,0.597526670073857
-0.312766861303324,0.611893700664084
-0.333464355685263,0.626730912495626
-0.355112324990813,0.641758804902468
-0.377583790444232,0.656697235961671
-0.400732036042303,0.671269417825333
-0.424392488759053,0.685205819104895
-0.448384931955519,0.698247916988023
-0.472516020086962,0.710151744470042
-0.496582057551977,0.720691181605932
-0.52037199984486,0.72966094397699
-0.543670631133061,0.736879226548305
-0.566261869054151,0.742189966688687
-0.587932144969065,0.745464696243647
-0.608473806165595,0.74660395909681
-0.627688485610964,0.745538277521684
-0.645390384823649,0.742228657705402
-0.66140941627788,0.736666632007279
-0.675594153460772,0.72887384268508
-0.687814539249419,0.718901178868692
-0.697964306627597,0.706827485374698
-0.705963069870182,0.69275786843048
-0.711758049126767,0.676821629413261
-0.715325396761986,0.659169863215119
-0.716671099776089,0.639972762735992
-0.715831439043912,0.619416675209021
-0.712872992874568,0.597700959513938
-0.70789217940308,0.575034696284013
-0.701014339469627,0.551633304423001
-0.692392368810205,0.527715118596311
-0.682204915461884,0.503497982335295
-0.670654165164706,0.479195910598478
-0.657963244111747,0.455015873986506
-0.644373274554483,0.431154754339282
-0.630140124414002,0.407796518198365
-0.615530897089004,0.385109650651229
-0.600820212007446,0.363244887453863
-0.586286330068883,0.342333278132237
-0.572207180909438,0.322484607077621
-0.558856350843906,0.303786193569925
-0.546499091365931,0.286302085286932
-0.53538840819773,0.270072653290038
-0.525761290069704,0.255114589825816
-0.517835134686301,0.24142130365544
-0.511804426720524,0.22896370112794
-0.507837719212446,0.217691334953096
-0.506074965477177,0.207533896706003
-0.506625243617904,0.198403023602849
-0.50956491006427,0.190194385113434
-0.51493621230073,0.182790010599494
-0.5227463842077,0.176060815457558
-0.532967240312617,0.169869280258836
-0.545535277846444,0.164072235162413
-0.560352287936767,0.15852370046495
-0.577286469656757,0.153077733560442
-0.596174033106661,0.147591232823925
-0.616821270346759,0.141926649996517
-0.639007065941051,0.135954564515568
-0.662485812218006,0.129556075869752
-0.686990688211119,0.122624973418731
-0.712237255702892,0.115069647143246
-0.737927320946683,0.106814707415753
-0.763753006557262,0.0978022870261039
-0.789400974806185,0.0879930042751206
-0.814556741183316,0.0773665718677712
-0.838909015628335,0.065922042498523
-0.862154008319255,0.0536776883216783
-0.883999637337626,0.0406705178344544
-0.90416957690669,0.0269554399650741
-0.922407087198811,0.0126040912482902
-0.938478569897862,-0.00229665221439501
-0.952176797732544,-0.0176464508694504
-0.963323771006997,-0.0333335337794915
-0.971773159672267,-0.0492369500869254
-0.977412295622546,-0.0652289994969438
-0.98016368656979,-0.0811777982674896
-0.979986029948069,-0.0969499347918424
-0.976874712716327,-0.112413167232103
-0.970861790552306,-0.127439114836742
-0.962015447644972,-0.141905894567009
-0.950438945980344,-0.155700655466467
-0.936269080559284,-0.168721964822938
-0.919674164270797,-0.180882002567112
-0.900851573060121,-0.192108523488679
-0.880024888472625,-0.202346550678473
-0.857440680524791,-0.211559768061765
-0.83336497906389,-0.219731584901216
-0.808079486250218,-0.226865850636292
-0.781877586463071,-0.232987204299776
-0.755060212739887,-0.238141048915191
-0.727931630766225,-0.242393147630516
-0.700795202415421,-0.245828844779263
-0.673949190878316,-0.248551921473806
-0.6476826685272,-0.250683101621985
-0.622271586840367,-0.252358230312431
-0.597975065004955,-0.253726152236215
-0.575031950260225,-0.254946323106888
-0.553657698698262,-0.256186191819021
-0.534041620173459,-0.257618395266417
-0.516344525266262,-0.259417811253985
-0.500696805990317,-0.26175851772147
-0.487196975223595,-0.26481070850376
-0.47591068278795,-0.268737617045036
-0.46687021880802,-0.273692499839036
-0.460074507562483,-0.279815730875453
-0.455489587613435,-0.287232057036473
-0.453049566677587,-0.296048062225372
-0.45265803259871,-0.306349885051444
-0.454189895003221,-0.318201231186295
-0.457493625873269,-0.331641717101615
-0.462393861450581,-0.346685576865405
-0.468694322677394,-0.363320758090149
-0.476181006865976,-0.381508427079504
-0.484625599532219,-0.401182896804472
-0.493789052386387,-0.422251984656891
-0.503425271386984,-0.444597800083067
-0.513284857560083,-0.468077955302309
-0.52311884298065,-0.492527185474111
-0.532682364904409,-0.517759358003415
-0.54173822251475,-0.543569844273097
-0.550060263081201,-0.569738221070233
-0.557436547472899,-0.596031263425609
-0.563672248878526,-0.622206185605226
-0.568592243187648,-0.648014082660334
-0.572043354711051,-0.673203521331036
-0.573896226673687,-0.697524226268864
-0.57404679210946,-0.720730805544912
-0.57241732732176,-0.742586458278067
-0.568957076842155,-0.762866606975254
-0.563642445713211,-0.781362397830774
-0.556476761830001,-0.79788401377929
-0.547489617888357,-0.812263747517103
-0.53673580909853,-0.824358784965568
-0.524293889126132,-0.834053653702096
-0.510264372619277,-0.841262295668648
-0.494767618079418,-0.845929728913943
-0.477941429649897,-0.84803326915184
-0.459938420556484,-0.847583288433481
-0.440923184374898,-0.844623495135569
-0.421069322969933,-0.839230726656018
-0.400556381810453,-0.831514253570836
-0.379566744388277,-0.821614601428889
-0.358282537644665,-0.809701903729457
-0.336882599637152,-0.795973806826878
-0.315539559176881,-0.780652954425
-0.294417074860838,-0.76398408585369
-0.273667277855718,-0.74623078835787
-0.253428459014049,-0.727671949081648
-0.233823036483336,-0.70859795720977
-0.2149558349804,-0.689306710760088
-0.196912702429528,-0.670099485739349
-0.179759483796213,-0.651276727728311
-0.163541365785622,-0.633133827412132
-0.148282599718725,-0.615956942093214
-0.133986603454205,-0.600018924805538
-0.120636436797058,-0.585575421295921
-0.108195638530757,-0.572861192866801
-0.0966094071323615,-0.562086719919667
-0.0858061014783981,-0.553435137044338
-0.0756990325176364,-0.547059545726128
-0.0661885120617898,-0.543080745261965
-0.0571641206051244,-0.541585416370073
-0.0485071524976179,-0.542624785337965
-0.0400931939215118,-0.54621378948085
-0.031794787004021,-0.552330757284136
-0.0234841320732316,-0.56091760899217
-0.0150357795505274,-0.571880575696204
-0.00632926327852244,-0.585091427285371
0.00274837179761935,-0.600389192072262
0.0123001927648869,-0.617582343604637
0.0224171951884773,-0.636451423238219
0.0331763519739958,-0.656752060578168
0.0446389297002511,-0.67821834799723
0.0568491028344151,-0.700566520196722
0.0698328910834856,-0.723498885272069
0.0835974395486451,-0.746707950046099
0.098130655424959,-0.769880679596773
0.113401208826209,-0.792702828974211
0.129358899015673,-0.814863284103694
0.145935380993004,-0.83605834882132
0.163045241130041,-0.855995915887037
0.180587404468574,-0.87439946165127
0.198446850491931,-0.891011806787393
0.216496608756619,-0.905598589099893
0.234600000810907,-0.917951398821385
0.252613090417411,-0.927890531952079
0.270387300310939,-0.935267322993495
0.287772150625259,-0.939966024794314
0.30461807176644,-0.941905210062236
0.320779242936875,-0.941038676296125
0.336116406751821,-0.93735584334694
0.350499610454145,-0.930881640409472
0.363810825125144,-0.921675886863428
0.37594639599773,-0.909832178905417
0.386819279478126,-0.895476301228101
0.396361025735375,-0.878764189997913
0.404523469673913,-0.85987947995217
0.411280097701365,-0.839030674480745
0.416627062868748,-0.816447982986046
0.420583826611502,-0.79237987454631
0.423193411366787,-0.767089400871486
0.424522254688391,-0.740850344679704
0.424659662023193,-0.713943251890747
0.42371686194667,-0.686651407399316
0.421825674271904,-0.659256814637872
0.419136807939161,-0.632036238663421
0.415817811855444,-0.605257371115836
0.412050707782437,-0.579175173122785
0.408029339869455,-0.554028449106863
0.403956480403932,-0.530036700536526
0.400040735722517,-0.507397304017769
0.396493299917231,-0.486283052824206
0.393524606920121,-0.466840095094098
0.391340933704965,-0.44918629557841
0.390141008666771,-0.433410041105045
0.390112679703267,-0.419569502937348
0.391429696115058,-0.407692362060627
0.394248657164306,-0.397775996240553
0.398706178001192,-0.389788120575097
0.404916320712238,-0.383667866317776
0.412968334507317,-0.379327276092712
0.422924744597899,-0.376653187353934
0.434819824194639,-0.375509470159147
0.448658478345515,-0.375739580119991
0.464415562133451,-0.377169382835632
0.482035649150203,-0.379610202282609
0.501433259263328,-0.382862042577748
0.522493547602548,-0.386716930296779
0.545073449521458,-0.390962323149742
0.569003269152719,-0.395384530302672
0.594088692181982,-0.399772089996564
0.620113196728125,-0.403919051338721
0.646840829842319,-0.407628109203989
0.674019311226848,-0.410713544046459
0.701383420422134,-0.413003922035982
0.728658619002538,-0.414344515236168
0.755564855335284,-0.414599406458903
0.781820496257752,-0.413653248882491
0.807146327669384,-0.411412656415869
0.83126956455684,-0.407807207032701
0.85392781040071,-0.402790047784207
0.874872906262807,-0.396338096822355
0.893874611122448,-0.388451844417776
0.910724057202925,-0.379154761531788
0.925236927075356,-0.368492330892843
0.937256303202597,-0.356530721631958
0.94665514523449,-0.34335513425122
0.953338355718202,-0.329067847943161
