0.759239129399403,-0.902128812500913
0.759320059119153,-0.902051267115919
0.759402502167487,-0.901972104906052
0.759486493611488,-0.901891283965216
0.759572069483078,-0.901808761090748
0.759659266809579,-0.901724491736852
0.759748123645369,-0.901638429966137
0.759838679104663,-0.901550528399161
0.759930973395475,-0.901460738161903
0.760025047854797,-0.901369008831051
0.760120944985047,-0.901275288377023
0.760218708491844,-0.901179523104595
0.760318383323144,-0.901081657591048
0.760420015709815,-0.900981634621694
0.760523653207683,-0.900879395122672
0.760629344741138,-0.900774878090881
0.760737140648327,-0.900668020520914
0.760847092728033,-0.900558757328846
0.760959254288278,-0.900447021272728
0.761073680196746,-0.900332742869625
0.761190426933078,-0.900215850309039
0.761309552643128,-0.900096269362527
0.761431117195257,-0.899973923289335
0.761555182238746,-0.899848732737854
0.761681811264416,-0.89972061564269
0.761811069667548,-0.899589487117119
0.761943024813195,-0.899455259340717
0.762077746103983,-0.899317841441903
0.762215305050506,-0.899177139375149
0.762355775344424,-0.899033055792587
0.762499232934373,-0.898885489909717
0.762645756104805,-0.898734337364931
0.762795425557876,-0.898579490072518
0.762948324498521,-0.898420836068821
0.763104538722827,-0.898258259351191
0.763264156709867,-0.898091639709357
0.76342726971712,-0.897920852548823
0.763593971879637,-0.897745768705851
0.763764360313108,-0.897566254253615
0.763938535220988,-0.897382170299026
0.764116600005862,-0.89719337276974
0.764298661385216,-0.896999712190832
0.764484829511807,-0.896801033450551
0.764675218098822,-0.896597175554588
0.764869944550022,-0.896387971368213
0.765069130095087,-0.89617324734562
0.765272899930379,-0.895952823245772
0.76548138336534,-0.895726511834001
0.765694713974775,-0.895494118568559
0.76591302975725,-0.89525544127129
0.766136473299875,-0.895010269781511
0.766365191949721,-0.894758385592166
0.766599337992157,-0.894499561467237
0.76683906883639,-0.89423356103933
0.767084547208502,-0.893960138386319
0.767335941352285,-0.893679037585808
0.767593425238214,-0.893389992246143
0.76785717878085,-0.893092725012593
0.768127388065058,-0.892786947047242
0.768404245581351,-0.89247235748105
0.768687950470752,-0.892148642836407
0.768978708779527,-0.891815476418452
0.769276733724198,-0.89147251767325
0.769582245967208,-0.891119411510858
0.76989547390366,-0.890755787591133
0.770216653959546,-0.890381259570014
0.770546030901881,-0.889995424303875
0.770883858161192,-0.88959786100934
0.771230398166796,-0.88918813037583
0.771585922695315,-0.888765773627889
0.771950713232885,-0.888330311534152
0.772325061351517,-0.887881243359604
0.772709269100063,-0.887418045757547
0.773103649410254,-0.886940171597454
0.773508526518249,-0.886447048724609
0.773924236402152,-0.88593807864717
0.774351127235928,-0.885412635145974
0.774789559860137,-0.884870062802079
0.775239908269876,-0.884309675436696
0.775702560120313,-0.883730754457769
0.776177917250134,-0.883132547107086
0.77666639622321,-0.882514264601334
0.777168428888717,-0.881875080160073
0.777684462959897,-0.881214126913086
0.778214962611561,-0.880530495679025
0.77876040909636,-0.879823232606693
0.779321301379735,-0.87909133666968
0.779898156793347,-0.878333757004387
0.780491511706633,-0.877549390080771
0.781101922215988,-0.876737076694341
0.781729964850863,-0.875895598767113
0.782376237295857,-0.875023675944335
0.783041359127634,-0.874119961972815
0.783725972565181,-0.873183040845648
0.784430743231608,-0.872211422697021
0.785156360925291,-0.871203539429568
0.785903540397716,-0.870157740055448
0.786673022134878,-0.869072285730944
0.787465573138509,-0.867945344462858
0.788281987702737,-0.866774985463407
0.789123088181042,-0.865559173128558
0.789989725737489,-0.864295760612934
0.790882781075257,-0.862982482972396
0.791803165134363,-0.861616949843317
0.7927518197492,-0.860196637625242
0.793729718255093,-0.858718881131235
0.794737866031406,-0.857180864667569
0.7957773009669,-0.85557961250165
0.796849093830933,-0.853911978674085
0.797954348531676,-0.852174636107659
0.79909420223985,-0.850364064962601
0.800269825353369,-0.848476540183968
0.801482421274837,-0.846508118183206
0.802733225969864,-0.844454622591949
0.804023507269748,-0.842311629021924
0.805354563876965,-0.840074448760457
0.806727724026255,-0.837738111326455
0.808144343747569,-0.835297345806991
0.809605804669898,-0.832746560889681
0.811113511296684,-0.830079823501022
0.81266888767426,-0.827290835955682
0.814273373364165,-0.824372911516644
0.815928418618357,-0.821318948260944
0.817635478642915,-0.818121401140822
0.819396006820725,-0.81477225212537
0.821211446746628,-0.811262978303493
0.82308322290936,-0.807584517825251
0.82501272983306,-0.803727233555774
0.827001319466942,-0.799680874314115
0.82905028658454,-0.795434533568995
0.831160851923474,-0.79097660546484
0.83333414276261,-0.786294738055235
0.83557117059534,-0.781375783627576
0.837872805515178,-0.776205746012986
0.84023974688249,-0.770769724790293
0.842672489788513,-0.765051856313124
0.845171286774477,-0.759035251516115
0.847736104199141,-0.752701930491336
0.850366572577053,-0.74603275387095
0.853061930131948,-0.739007351108962
0.855820958724675,-0.73160404582588
0.858641911222742,-0.723799778468123
0.861522429279046,-0.715570026642168
0.864459450380864,-0.70688872361554
0.867449102917404,-0.697728175637128
0.870486587896168,-0.688058978922836
0.873566045816796,-0.677849937385089
0.876680407088241,-0.667067982462423
0.879821224254651,-0.655678096735721
0.882978484181591,-0.643643243408466
0.886140398253634,-0.630924304188651
0.889293168554719,-0.617480028649136
0.892420727954681,-0.603266998771532
0.89550445202209,-0.58823961310643
0.89852284074188,-0.572350095820577
0.901451168157001,-0.555548536859107
0.904261098302209,-0.537782970536629
0.906920266186358,-0.518999501090722
0.909391823144884,-0.49914248508718
0.911633946671222,-0.478154782054038
0.913599315896992,-0.455978086328616
0.915234555286193,-0.432553354804436
0.91647965090614,-0.407821347023139
0.917267345912337,-0.381723295810493
0.917522524715238,-0.354201728319075
0.917161598765112,-0.325201458794796
0.916091911074065,-0.294670775471666
0.91421118155701,-0.262562844513931
0.911407021058822,-0.228837353607002
0.907556548547564,-0.193462416328667
0.902526153341523,-0.15641675542588
0.896171452266681,-0.117692178134
0.888337500067007,-0.0772963492040045
0.878859319824177,-0.0352558568127096
0.867562828018522,0.00838044751780319
0.854266235397813,0.0535378719642911
0.838782008991799,0.100112129902723
0.820919481139631,0.14796549445178
0.800488186761055,0.196922980125831
0.777301998581315,0.246768704852811
0.751184109799131,0.297242623189352
0.721972883023924,0.348037859408043
0.689528541775438,0.398798904193453
0.653740625649341,0.449120966939828
0.614536062652408,0.498550792152094
0.571887633909895,0.546589247581283
0.525822520527772,0.59269596759631
0.476430535612285,0.636296282461415
0.423871564333821,0.676790578560611
0.368381671517643,0.713566114536995
0.310277300933736,0.746011165720154
0.249956994777516,0.773531190570734
0.187900115818038,0.79556651975241
0.124662164900093,0.811610877394671
0.0608664539938378,0.821229875610763
-0.00280788627249751,0.8240784997421
-0.0656413297115235,0.819916544414278
-0.126892301859433,0.80862098607479
-0.185817685131397,0.790194395033038
-0.241694497150864,0.764768697296191
-0.293841608636244,0.732603880005591
-0.341640309463439,0.694081569248101
-0.384552576373695,0.649693762366135
-0.422136042083002,0.600027331725891
-0.454054899116118,0.54574519790402
-0.48008626732368,0.48756526891612
-0.5001218793056,0.426238340823922
-0.514165258152984,0.362526149219787
-0.522324845158781,0.297180658952815
-0.524803756642143,0.230925499905278
-0.52188699377203,0.164440225433488
-0.513926992863457,0.0983478156072705
-0.501328391344249,0.0332055964389
-0.484532809190957,-0.0305004790198821
-0.464004324369014,-0.0923584260628223
-0.440216172463247,-0.152030073460355
-0.413639042981226,-0.209248615636747
-0.384731192601138,-0.263814366122753
-0.353930459878441,-0.315589203742003
-0.321648153449844,-0.364490169825255
-0.288264699613303,-0.410482620908295
-0.25412687526374,-0.453573275864359
-0.21954641624478,-0.493803426840301
-0.184799775590809,-0.531242515547134
-0.150128806615242,-0.565982214454919
-0.115742158044556,-0.598131098697416
-0.0818171884532426,-0.627809950106607
-0.0485022317598877,-0.655147699862906
-0.0159190718200657,-0.680277990158568
0.0158344897978767,-0.70333631700075
0.0466820643184044,-0.72445770459375
0.0765661740132808,-0.743774855360637
0.105445868565905,-0.761416717381412
0.133294493817556,-0.777507411757236
0.160097634007669,-0.792165465239289
0.185851238162212,-0.805503297637149
0.210559933222953,-0.817626918457739
0.234235520508435,-0.828635792478647
0.256895647816038,-0.838622839209296
0.278562646594163,-0.847674536220832
0.299262521846238,-0.85587110099152
0.319024081522597,-0.863286730140313
0.337878191899591,-0.869989878673372
0.355857145661393,-0.876043565144641
0.37299412994658,-0.88150569145118
0.389322782386132,-0.886429368379471
0.404876824054721,-0.890863240029954
0.419689759217203,-0.894851801916621
0.433794632728452,-0.898435708909497
0.447223836902552,-0.901652070301529
0.460008960583066,-0.904534730175727
0.472180674004696,-0.907114531958132
0.483768643829074,-0.909419566597661
0.494801473459937,-0.911475404241989
0.505306664394725,-0.913305309602388
0.515310594952665,-0.914930441439442
0.524838513236906,-0.916370036772463
0.533914541644766,-0.917641580531982
0.542561690640424,-0.91876096144857
0.550801879853642,-0.919742615011722
0.558655964871448,-0.920599654347497
0.566143768351963,-0.921343989859259
0.573284114315572,-0.921986438457259
0.580094864662515,-0.922536823173976
0.586592957131836,-0.923004063926265
0.592794444057972,-0.923396260144975
0.598714531401294,-0.92372076594971
0.604367617630535,-0.923984258502269
0.609767332120769,-0.924192800128206
0.6149265728026,-0.924351894752676
0.619857542858561,-0.924466539154807
0.624571786312971,-0.924541269504834
0.629080222403234,-0.92458020361024
0.633393178654992,-0.924587079261434
0.637520422611841,-0.924565289034072
0.641471192193352,-0.924517911874096
0.645254224673788,-0.9244477417627
0.648877784288876,-0.924357313731927
0.652349688489793,-0.924248927477089
0.655677332872788,-0.924124668789786
0.658867714819918,-0.923986429014733
0.66192745589168,-0.923835922714845
0.664862823016068,-0.923674703711852
0.667679748521219,-0.923504179654156
0.670383849060337,-0.923325625249412
0.672980443478391,-0.923140194286391
0.675474569670184,-0.922948930559018
0.677871000479011,-0.922752777794773
0.680174258684292,-0.922552588680057
0.68238863112547,-0.922349133066356
0.684518182008099,-0.922143105433135
0.686566765436486,-0.92193513167622
0.688538037215628,-0.92172577528394
0.690435465963404,-0.921515542957448
0.69226234357222,-0.921304889726294
0.694021795057479,-0.92109422360555
0.695716787828433,-0.920883909836439
0.697350140415218,-0.920674274748457
0.698924530684073,-0.920465609277461
0.700442503571092,-0.920258172170957
0.701906478363151,-0.92005219290891
0.703318755553086,-0.919847874365774
0.704681523294671,-0.91964539523706
0.705996863481446,-0.919444912251581
0.707266757472076,-0.919246562188602
0.708493091483572,-0.919050463717301
0.709677661672437,-0.918856719074411
0.710822178922607,-0.9186654155944
0.711928273357909,-0.918476627105286
0.712997498595686,-0.918290415201959
0.714031335757232,-0.918106830407817
0.715031197249702,-0.917925913234556
0.715998430333285,-0.917747695149043
0.716934320486559,-0.917572199455412
0.717840094582154,-0.917399442099806
0.718716923884106,-0.917229432404489
0.719565926877571,-0.917062173737487
0.720388171940908,-0.91689766412336
0.721184679869519,-0.916735896800189
0.721956426260261,-0.916576860727451
0.722704343764679,-0.916420541049009
0.72342932421881,-0.916266919515096
0.724132220656837,-0.916115974866814
0.724813849215397,-0.915967683186377
0.725474990934945,-0.915822018216039
0.726116393464189,-0.915678951648379
0.726738772673204,-0.915538453390427
0.727342814180531,-0.915400491803828
0.727929174799223,-0.915265033923135
0.728498483906481,-0.915132045654073
0.729051344741274,-0.915001491953497
0.729588335634035,-0.914873336992605
0.730110011172302,-0.914747544304842
0.730616903305921,-0.914624076919796
0.731109522395228,-0.914502897484291
0.731588358205394,-0.914383968371771
0.732053880849959,-0.91426725178097
0.732506541686375,-0.914152709824803
0.73294677416622,-0.914040304610303
0.733374994642579,-0.913929998310385
0.733791603136964,-0.913821753228132
0.734196984067963,-0.91371553185426
0.734591506943727,-0.913611296918346
0.734975527020237,-0.913509011434363
0.735349385927214,-0.913408638741023
0.735713412263409,-0.913310142537375
0.736067922162904,-0.913213486914082
0.736413219833982,-0.91311863638076
0.736749598072015,-0.913025555889721
0.737077338747742,-0.912934210856452
0.737396713272236,-0.912844567177114
0.73770798303978,-0.912756591243343
0.738011399849796,-0.912670249954587
0.738307206308929,-0.912585510728212
0.738595636214295,-0.91250234150759
0.738876914918879,-0.912420710768348
0.739151259679977,-0.912340587522961
0.739418879991569,-0.912261941323845
0.739679977901416,-0.912184742265096
0.739934748313673,-0.912108960983015
0.740183379277729,-0.912034568655526
0.740426052263979,-0.911961537000627
0.740662942427163,-0.911889838273942
0.740894218857911,-0.911819445265496
0.741120044823048,-0.91175033129579
0.741340577995238,-0.911682470211249
0.741555970672473,-0.911615836379118
0.74176636998791,-0.911550404681882
0.741971918110516,-0.911486150511249
0.742172752436974,-0.911423049761772
0.742369005775268,-0.911361078824149
0.742560806520333,-0.911300214578243
0.742748278822174,-0.911240434385873
0.74293154274678,-0.911181716083412
0.743110714430201,-0.911124037974212
0.743285906226088,-0.911067378820914
0.743457226847021,-0.911011717837642
0.743624781499893,-0.910957034682131
0.74378867201565,-0.910903309447792
0.743948996973625,-0.910850522655751
0.744105851820733,-0.910798655246876
0.744259328985744,-0.910747688573798
0.74440951798888,-0.910697604392958
0.744556505546931,-0.910648384856688
0.744700375674094,-0.910600012505329
0.744841209778741,-0.910552470259413
0.744979086756279,-0.910505741411901
0.745114083078296,-0.910459809620507
0.745246272878137,-0.910414658900088
0.745375728033092,-0.910370273615139
0.745502518243318,-0.910326638472369
0.745626711107663,-0.910283738513385
0.745748372196513,-0.910241559107471
0.745867565121792,-0.910200085944484
0.745984351604245,-0.91015930502785
0.746098791538114,-0.910119202667684
0.746210943053327,-0.910079765474016
0.746320862575291,-0.910040980350139
0.746428604882414,-0.910002834486072
0.746534223161429,-0.909965315352144
