0.207932992810418,0.971016792037614
0.207846537300824,0.971028773455761
0.207758363258425,0.97104089836498
0.207668428148523,0.97105316794543
0.207576688178428,0.971065583340405
0.207483098254248,0.971078145652509
0.207387611936002,0.971090855939587
0.207290181390963,0.97110371521038
0.207190757345173,0.971116724419899
0.207089289033029,0.971129884464489
0.206985724144871,0.971143196176573
0.20688000877248,0.971156660319047
0.206772087352385,0.971170277579319
0.206661902606887,0.971184048562944
0.206549395482698,0.971197973786859
0.206434505087085,0.971212053672168
0.206317168621405,0.971226288536464
0.206197321311916,0.97124067858565
0.206074896337731,0.971255223905235
0.205949824755795,0.971269924451055
0.205822035422738,0.971284780039409
0.205691454913461,0.971299790336541
0.205421614744662,0.971330272903998
0.205282196044779,0.971345743652169
0.205139667899722,0.97136136603862
0.204993944129168,0.971377138796273
0.204844935704918,0.971393060429003
0.204692550641889,0.971409129195335
0.204536693884382,0.971425343091082
0.204377267187392,0.971441699830854
0.204214168992717,0.971458196828365
0.204047294299619,0.971474831175457
0.203876534529761,0.971491599619764
0.203701777386153,0.971508498540913
0.20352290670579,0.971525523925168
0.203339802305686,0.971542671338422
0.203152339821974,0.971559935897413
0.202960390541708,0.97157731223905
0.202763821227017,0.971594794487722
0.202562493931221,0.971612376220454
0.20235626580649,0.971630050429755
0.202144988902629,0.971647809484013
0.201928509956522,0.971665645085256
0.201706670171764,0.971683548224109
0.201479304987963,0.97170150913174
0.201246243839183,0.971719517228606
0.201007309900962,0.971737561069749
0.200762319825296,0.971755628286427
0.200511083462967,0.971773705523812
0.200253403572535,0.971791778374465
0.199989075515296,0.971809831307321
0.199717886935445,0.971827847591833
0.199439617424659,0.971845809216946
0.199154038170256,0.971863696804537
0.198860911586047,0.971881489516904
0.19855999092493,0.971899164957897
0.19825101987224,0.971916699067209
0.197607850912529,0.971951238042778
0.197273088587484,0.971968185410519
0.196929146068992,0.971984876181841
0.196575712353625,0.972001276114109
0.196212463962548,0.972017348492225
0.195839064366783,0.972033053958842
0.195455163382766,0.972048350332487
0.194654384394807,0.972077531771332
0.19423673186086,0.972091316528497
0.192909730148395,0.972128767455883
0.191958841732796,0.972149832135389
0.191462074152069,0.972158973968169
0.190423251909013,0.97217405704568
0.189880071931092,0.972179812368043
0.189320254726429,0.97218424186598
0.188743174120662,0.972187235262923
0.188148176219049,0.972188674444315
0.187534578009343,0.972188432890631
0.186901665886675,0.972186375067058
0.186248694095757,0.9721823557663
0.184879417770104,0.972167799239311
0.18416144569297,0.972156916585967
0.183420075084115,0.972143379892446
0.181863362193597,0.972107508119106
0.180201277681724,0.972058356215409
0.179328011436,0.972028154925572
0.177491152431576,0.971955042043279
0.176525037107574,0.971911481435898
0.174490662912146,0.971808545922615
0.173419494747579,0.971748367178174
0.172310279676616,0.971681794975433
0.171161377092738,0.971608348468064
0.169971064524046,0.971527510680197
0.16873753309264,0.971438725639397
0.16745888270586,0.97134139526704
0.166133116963586,0.971234876004295
0.164758137765014,0.971118475149856
0.163331739597493,0.970991446883302
0.16185160348922,0.970852987945487
0.160315290606806,0.970702232944648
0.158720235477922,0.970538249253914
0.157063738818513,0.970360031462638
0.155342959943366,0.970166495340349
0.151696437170851,0.969728697088516
0.149764230318954,0.969481810317936
0.145664459216694,0.968924695788133
0.143489342687475,0.968611161218127
0.141225364618449,0.968271879374842
0.138868222516764,0.967904842584383
0.136413381732492,0.967507879007702
0.133856062475194,0.967078638376216
0.131191226180472,0.966614576422153
0.125517467908629,0.965570737928089
0.122497042922807,0.96498474191233
0.119346062941443,0.964351443209723
0.116057967716594,0.963667039038326
0.112625842481831,0.962927404033806
0.105299960716003,0.961264151278074
0.101390435830247,0.960330396481043
0.0930356000527544,0.958229927387244
0.0839042162611636,0.955774568309425
0.0790221702560662,0.954394984078604
0.0739147755043066,0.952902757803594
0.0685705194427137,0.951288419729423
0.0629773269311031,0.949541665833012
0.0571225455960501,0.947651282628088
0.0509929336679923,0.945605065445402
0.0445746510302193,0.943389729731442
0.030813697157928,0.938392580340716
0.0157169466108625,0.932528106382576
0.00762674263792563,0.929222930463703
-0.000847585354235028,0.925640292279624
-0.00972382457298503,0.92175618716518
-0.0190201761449125,0.917544520592441
-0.0287551731165826,0.91297694088693
-0.038947576577676,0.90802266333821
-0.0607799809561421,0.896817602518473
-0.0724573254262186,0.890491401764411
-0.0846663362350108,0.883627276944178
-0.097424303008218,0.876179427412132
-0.110747417358254,0.868098469630163
-0.124650383042999,0.85933125880784
-0.139145959925506,0.849820728784404
-0.123023932889068,0.846510121933754
-0.236438062426041,0.787942266344372
-0.256534744723165,0.827245817007655
-0.238882203489393,0.77343401262763
-0.272921943336979,0.756340418889862
-0.314477597584967,0.760419137696145
-0.316780690614667,0.698372704909475
-0.337365830271537,0.675787567828361
-0.379359394371096,0.625397044002538
-0.400557975833186,0.597420983220725
-0.380328467362072,0.577829831505593
-0.460247142480114,0.487561446158152
-0.483324927900222,0.459679386316861
-0.520796093186113,0.386816057886782
-0.520503409742426,0.308037256546488
-0.52512363051201,0.267546694761131
-0.566504985954705,0.253938827120854
-0.585817939623926,0.0113093614647046
-0.594550141982743,0.00356507968396202
-0.582543263716921,-0.0638092128099764
-0.58651935809156,-0.0966848187341709
-0.616781532017336,-0.124331783809722
-0.548577833425392,-0.1775337111538
-0.532389111552952,-0.244319278071801
-0.507452265323678,-0.287933859132664
-0.49228340665432,-0.316606058600644
-0.427894975004918,-0.442855519023061
-0.369349513587851,-0.423627750303884
-0.0904760787647092,-0.469411057043953
-0.0423648646787393,-0.457211829299661
0.0385456655749378,-0.484166883673567
0.125868973775224,-0.389611521986093
0.1731486937571,-0.32173995562101
0.188240139964365,-0.342006911480508
0.223251966924973,-0.324418787361551
0.210934101797706,-0.202718309454231
0.333921397996901,-0.121518992899205
0.351421643963989,-0.145619474455145
0.387299428162093,0.00776162923097223
0.413548079500859,0.0937049133259213
0.425142459404803,0.0907839093412286
0.437340420133172,0.215230461218918
0.428998681467722,0.457792268685346
0.463091736813478,0.532004305775227
0.428085222297011,0.546793359860581
0.418708554850451,0.61177980927618
0.422693888028887,0.606159846543047
0.449497564336038,0.632821666334887
0.415351821579579,0.740251357499976
0.416204166238411,0.730796201226647
0.420836643130675,0.684238397713977
0.377007874093617,0.737475854357113
0.358341013797177,0.780196279886246
0.341362097234747,0.814002964622348
0.326237530032862,0.840872825676757
0.316094650722143,0.857414494195953
0.312932808441114,0.86234782015685
0.306923240486473,0.871445778157325
0.301314487967112,0.879618238259846
0.296083969918727,0.88697154761388
0.29360336449183,0.890370611807094
0.28666586793738,0.899582015197055
0.284512135689797,0.902354736058
0.282433235135748,0.90499256694035
0.276619395419627,0.912170425685248
0.26976247436569,0.92026323107483
0.263796691946574,0.926978543937092
0.262429303456645,0.928475077254392
0.261107842891917,0.929906202116825
0.259830581495578,0.931275289757911
0.25624767133051,0.935041165579266
0.254051214397326,0.937295073964011
0.253006364046202,0.938352552814972
0.251995331852118,0.939366733181247
0.251016857704638,0.940339721001383
0.250069731487177,0.941273505283174
0.249152791221089,0.942169965299809
0.246572150511261,0.944652684450701
0.243491098613082,0.947537828341854
0.242088533673795,0.948822206994769
0.24076934423813,0.950013382841823
0.237799032924298,0.952634431395907
0.235718838018633,0.954418377489976
0.234765433716439,0.955221380312142
0.233864720282528,0.955971382302264
0.231079364318355,0.958236156765188
0.230723161542871,0.958519679843345
0.230038749038416,0.959060447949179
0.229389707457461,0.959568345074638
0.228773840668342,0.960045775712859
0.228477704703598,0.96027376126105
0.22818910916663,0.960494940670128
0.227907821559701,0.960709560406231
0.227633617683656,0.960917856522939
0.227366281306789,0.961120055160784
0.225028160440936,0.962850219272618
0.224824082397456,0.962997862926181
0.22462479572835,0.963141499220375
0.223872888841017,0.96367854436184
0.22352232904561,0.963926233434119
0.223025643193703,0.964274157530692
0.222712730178542,0.964491502242116
0.222268741172888,0.964797383859193
0.221988627268294,0.964988823085848
0.220981442246084,0.965666958843163
0.220755138867573,0.965817057758851
0.220645459961047,0.965889494737573
0.22053801866444,0.965960256096604
0.220228568312239,0.96616295313202
0.220129533370336,0.966227471019631
0.219844077197042,0.966412462373234
0.219575122418508,0.966585412762168
0.219488934068231,0.966640554156961
0.219160421045744,0.966849449375011
0.21900538266391,0.966947318077169
0.218856113417456,0.967041101271353
