0.666688926190332,-1.01644219977553
0.66661341888217,-1.01632824864684
0.666400946585544,-1.01597647682365
0.666072566157326,-1.0153720814018
0.665649269354662,-1.01450038864677
0.665151930970468,-1.01334689070963
0.664601257311428,-1.01189728207963
0.664017735134705,-1.01013749569104
0.663421581158513,-1.00805373860264
0.662832692260379,-1.00563252716913
0.662270596475401,-1.00286072162508
0.661754404904987,-0.999725560002843
0.661302764644485,-0.99621469130786
0.660933812835869,-0.992316207876047
0.660665131949056,-0.988018676839874
0.660513706392708,-0.983311170631743
0.660495880552363,-0.978183296455345
0.660627318350533,-0.972625224657969
0.660922964420003,-0.966627715939179
0.661397006977906,-0.960182147333822
0.66206284248438,-0.953280536910084
0.662933042165558,-0.945915567126096
0.664019320476499,-0.93808060679163
0.66533250557528,-0.929769731584456
0.66688251187498,-0.920977743074179
0.66867831473562,-0.911700186209665
0.670727927353319,-0.901933365229561
0.673038379898995,-0.891674357958947
0.67561570095391,-0.880921028458701
0.678464901284186,-0.869672037997841
0.681589959991193,-0.857926854322816
0.684993813069372,-0.845685759201513
0.688678344397662,-0.832949854223555
0.692644379185237,-0.819721064842377
0.696891679886769,-0.806002142648416
0.701418944596878,-0.79179666586675
0.706223807927894,-0.777109038076399
0.711302844369463,-0.7619444851525
0.71665157412298,-0.746309050436498
0.722264471398283,-0.730209588143436
0.728134975154513,-0.713653755019337
0.734255502261566,-0.696650000265589
0.740617463053132,-0.679207553751056
0.74721127923697,-0.661336412536484
0.754026404122745,-0.643047325739492
0.761051345122592,-0.624351777772151
0.768273688474445,-0.605261969986762
0.7756801261332,-0.585790800768975
0.783256484769899,-0.565951844120875
0.790987756814403,-0.545759326779973
0.798858133472442,-0.525228103923344
0.806851039643461,-0.504373633509263
0.814949170661453,-0.483211949311739
0.823134530776856,-0.461759632706265
0.831388473293669,-0.440033783267838
0.839691742272236,-0.418051988244996
0.848024515704622,-0.39583229097609
0.856366450066182,-0.373393158316361
0.864696726143835,-0.350753447146597
0.872994096038672,-0.327932370036201
0.881236931237891,-0.304949460135361
0.889403271648607,-0.281824535372736
0.897470875483959,-0.258577662036619
0.905417269889957,-0.235229117818905
0.913219802199864,-0.211799354402396
0.920855691701469,-0.188308959672967
0.928302081801432,-0.164778619638982
0.935536092469975,-0.141229080140976
0.942534872848537,-0.117681108435096
0.949275653902613,-0.0941554547340592
0.955735801001883,-0.070672813789517
0.961892866309864,-0.0472537865995598
0.967724640865712,-0.0239188423248859
0.973209206241463,-0.00068828049663533
0.978324985658935,0.022417806401725
0.983050794451676,0.0453795698969254
0.987365889758772,0.0681774419523078
0.991250019339056,0.0907921707787875
0.994683469396133,0.113204855952409
0.997647111306879,0.135396982762081
1.00012244714846,0.157350455712779
1.00209165392154,0.179047631111403
1.00353762637035,0.200471348664508
1.00444401830323,0.221604962019318
1.0047952823207,0.242432368181818
1.00457670786158,0.262938035748174
1.00377445748149,0.283107031888408
1.00237560128187,0.302925048024018
1.00036814941177,0.322378424144134
0.997741082569136,0.341454171707855
0.994484380432399,0.360139995083522
0.990589047958163,0.378424311478974
0.986047139485194,0.396296269320167
0.980851780590001,0.413745765039002
0.974997187644187,0.430763458234745
0.968478685028896,0.447340785177029
0.961292719966875,0.463469970622142
0.95343687493795,0.479144037918032
0.944909877649124,0.494356817377278
0.935711608535888,0.509102952901135
0.925843105776873,0.523377906841637
0.915306567809462,0.537177963092663
0.904105353339556,0.550500228404828
0.892243978844257,0.563342631922975
0.879728113571786,0.575703922949036
0.866564572048559,0.587583666936934
0.852761304108832,0.598982239730169
0.838327382467898,0.609900820056595
0.823272987865208,0.620341380298809
0.807609391809275,0.630306675562365
0.791348936961472,0.639800231067833
0.774505015201145,0.64882632789645
0.757092043419589,0.65738998712272
0.739125437095491,0.665496952370985
0.720621581709384,0.673153670836391
0.70159780205945,0.68036727281415
0.682072329545688,0.687145549784286
0.662064267493974,0.693496931102249
0.641593554595891,0.699430459348874
0.620680926544426,0.704955764396151
0.599347875949592,0.71008303624809
0.57761661062191,0.714822996718696
0.555510010315276,0.719186870011637
0.533051582024173,0.723186352268612
0.510265413933415,0.72683358015571
0.487176128121579,0.730141098559182
0.463808832122071,0.733121827463989
0.440189069448287,0.73578902809032
0.416342769191661,0.738156268364881
0.392296194803413,0.740237387805232
0.368075892172652,0.742046461896725
0.343708637115023,0.743597766042713
0.31922138238742,0.744905739169617
0.294641204345299,0.745984947069187
0.269995249359948,0.746850045560868
0.245310680113586,0.747515743557523
0.220614621890406,0.747996766118008
0.195934108981715,0.748307817570027
0.171296031323035,0.748463544786593
0.146727081480508,0.748478500698977
0.122253702103178,0.74836710812852
0.0979020339566524,0.748143624018931
0.0736978646523657,0.747822104149762
0.0496665781850931,0.747416368410674
0.0258331053895595,0.746939966714795
0.00222187542494014,0.746406145628055
-0.0211432316062559,0.745827815789727
-0.0442389308009708,0.745217520197627
-0.0670425772588429,0.744587403429454
-0.0895322094477308,0.74394918186965
-0.111686591036514,0.743314115008876
-0.133485251103608,0.742692977880774
-0.154908522633257,0.742096034698131
-0.175937579215474,0.741533013747849
-0.196554469869531,0.741013083601281
-0.216742151915071,0.740544830693531
-0.236484521819268,0.740136238322252
-0.255766443952995,0.73979466711323
-0.274573777193607,0.739526836996803
-0.29289339931676,0.739338810735698
-0.310713229124605,0.739235979041435
-0.328022246262774,0.739223047312831
-0.34481050868368,0.739304024026495
-0.36106916771896,0.739482210805511
-0.376790480729176,0.739760194188713
-0.391967821304304,0.740139839119104
-0.406595686994022,0.740622284166178
-0.420669704552277,0.741207938492921
-0.434186632686183,0.741896480574397
-0.447144362304862,0.742686858670869
-0.459541914269378,0.743577293054455
-0.471379434650548,0.74456527998439
-0.482658187506891,0.745647597422006
-0.493380545200567,0.746820312472666
-0.503549976274605,0.748078790537967
-0.513171030920172,0.749417706157706
-0.522249324067979,0.750831055517285
-0.530791516143252,0.752312170592505
-0.53880529152886,0.753853734899979
-0.546299334786317,0.755447800817823
-0.553283304689365,0.757085808437724
-0.559767806129707,0.758758605906029
-0.565764359959212,0.760456471208174
-0.571285370837482,0.762169135347501
-0.57634409315814,0.763885806866372
-0.580954595131436,0.765595197654456
-0.585131721104918,0.767285549986199
-0.588891052207767,0.768944664726651
-0.5922488654082,0.77055993064226
-0.595222091076795,0.772118354750677
-0.597828269151974,0.773606593641329
-0.600085504006941,0.775010985696282
-0.602012418120282,0.776317584138884
-0.603628104655071,0.777512190835822
-0.604952079053745,0.778580390776496
-0.606004229758219,0.779507587152073
-0.6068047681666,0.780279036955232
-0.607374177939585,0.780879887020413
-0.607733163771044,0.781295210423358
-0.607902599738473,0.781510043157935
-0.607903477349915,0.781509421007547
-0.607756853404607,0.781278416528008
-0.607483797785019,0.780802176058462
-0.607105341298069,0.780065956676836
-0.606642423683179,0.779055163016432
-0.60611584190444,0.777755383860532
-0.605546198843508,0.776152428432352
-0.60495385250892,0.774232362298344
-0.604358865876374,0.771981542803694
-0.603780957473064,0.769386653959856
-0.603239452817484,0.766434740705172
-0.602753236824201,0.763113242461011
-0.6023407072809,0.759410025907388
-0.602019729502597,0.755313416903752
-0.601807592265279,0.750812231482521
-0.601720965118337,0.745895805844969
-0.601775857172055,0.740554025291291
-0.60198757745313,0.734777352019008
-0.602370696917642,0.728556851726404
-0.602939012207196,0.721884218960289
-0.603705511230029,0.714751801150211
-0.60468234064479,0.707152621274097
-0.605880775320427,0.699080399103388
-0.607311189841172,0.690529570978829
-0.608983032121041,0.681495308071377
-0.610904799187531,0.671973533086012
-0.61308401518932,0.661960935369734
-0.615527211677795,0.651454984388511
-0.618239910207143,0.640453941541621
-0.621226607292524,0.628956870285492
-0.624490761760566,0.616963644542885
-0.628034784521057,0.604474955377112
-0.631860030783283,0.591492315914796
-0.63596679473497,0.578018064504584
-0.640354306696283,0.564055366103157
-0.645020732755763,0.549608211883796
-0.64996317688954,0.534681417066723
-0.655177685559579,0.519280616974396
-0.660659254781161,0.503412261318867
-0.666401839644266,0.487083606732249
-0.672398366268012,0.47030270755525
-0.678640746161868,0.45307840490258
-0.685119892961936,0.435420314027917
-0.691825741505291,0.417338810014824
-0.69874726920011,0.398845011823812
-0.705872519644178,0.379950764729345
-0.713188628439303,0.360668621184175
-0.720681851144271,0.341011820151905
-0.72833759330413,0.320994264952078
-0.736140442488968,0.300630499665391
-0.744074202270834,0.279935684149838
-0.752121928063057,0.258925567721696
-0.76026596474211,0.237616461558194
-0.768487985968075,0.216025209881595
-0.776769035116018,0.194169159987103
-0.785089567726913,0.172066131179589
-0.793429495383362,0.149734382686547
-0.801768230912142,0.127192580616989
-0.810084734812607,0.104459764038079
-0.818357562807248,0.0815553102433073
-0.826564914408134,0.0584988992877637
-0.834684682390699,0.0353104778677263
-0.842694503064268,0.012010222623235
-0.850571807226922,-0.0113814970564055
-0.858293871690733,-0.0348441566431427
-0.865837871262118,-0.0583571144147232
-0.87318093106099,-0.0818996496505562
-0.880300179061634,-0.105451000995611
-0.887172798737693,-0.128990404908699
-0.893776081693388,-0.152497134111289
-0.900087480163106,-0.175950535953039
-0.906084659261769,-0.199330070610365
-0.911745548868885,-0.222615349034784
-0.917048395030036,-0.245786170568303
-0.921971810760533,-0.26882256014387
-0.926494826137352,-0.291704804989841
-0.930596937566958,-0.314413490758502
-0.934258156118484,-0.336929536999982
-0.937459054813771,-0.359234231904342
-0.940180814768085,-0.381309266236277
-0.942405270077842,-0.403136766388615
-0.944114951354487,-0.424699326482831
-0.945293127806626,-0.445980039446847
-0.945923847775742,-0.466962527002713
-0.945991977634254,-0.487630968499156
-0.945483238958301,-0.507970128526609
-0.944384243891457,-0.527965383254956
-0.942682528619606,-0.547602745437165
-0.940366584881378,-0.566868888024885
-0.937425889442924,-0.5857511663452
-0.933850931470321,-0.604237638790937
-0.929633237737553,-0.622317085980213
-0.92476539561284,-0.639979028344338
-0.919241073771015,-0.65721374210666
-0.91305504058468,-0.674012273618555
-0.906203180152071,-0.69036645202237
-0.898682505924766,-0.706268900214907
-0.89049117190373,-0.721713044088767
-0.881628481377609,-0.736693120032724
-0.872094893182596,-0.751204180676182
-0.861892025468769,-0.76524209886665
-0.851022656963278,-0.77880356987312
-0.839490725726379,-0.791886111812159
-0.827301325401843,-0.804488064297498
-0.814460698968869,-0.816608585317828
-0.800976230008172,-0.828247646351474
-0.786856431500439,-0.839406025730516
-0.77211093218085,-0.850085300270835
-0.756750460478774,-0.86028783518839
-0.740786826077153,-0.870016772325879
-0.724232899131327,-0.879276016717637
-0.707102587192318,-0.888070221524371
-0.689410809884657,-0.896404771372897
-0.671173471393827,-0.904285764139635
-0.652407430823313,-0.911719991220035
-0.633130470485918,-0.918714916329473
-0.613361262198667,-0.925278652884438
-0.593119331654992,-0.931419940015946
-0.572425020952238,-0.937148117270168
-0.551299449356564,-0.94247309805416
-0.529764472391279,-0.94740534188737
-0.507842639338349,-0.951955825522231
-0.485557149246365,-0.956136012999655
-0.462931805541558,-0.9599578247076
-0.43999096934156,-0.963433605513083
-0.416759511574496,-0.966576092040051
-0.39326276400864,-0.969398379167409
-0.36952646930029,-0.971913885823227
-0.345576730169694,-0.974136320152688
-0.321439957816787,-0.976079644138704
-0.297142819690207,-0.977758037755345
-0.272712186724463,-0.979185862735225
-0.248175080161325,-0.980377626032841
-0.223558618072411,-0.981347943066488
-0.198889961700611,-0.982111500821884
-0.174196261738385,-0.982683020900881
-0.149504604661103,-0.983077222598747
-0.12484195923345,-0.983308786093443
-0.100235123306561,-0.983392315829985
-0.0757106710228544,-0.983342304182574
-0.0512949005446279,-0.983173095476505
-0.027013782421355,-0.982898850451027
-0.0028929087090772,-0.982533511243337
0.0210425570462486,-0.982090766972696
0.0447679288516628,-0.981584020002259
0.0682590462286804,-0.981026352954718
0.0914923209880475,-0.98043049655611
0.114444782715247,-0.979808798380279
0.13709412286694,-0.979173192564446
0.159418737381813,-0.978535170564133
0.181397767712442,-0.977905753013359
0.203011140188469,-0.977295462753502
0.224239603624977,-0.976714299091617
0.245064765093969,-0.976171713346199
0.265469123780885,-0.975676585735493
0.285436102852407,-0.975237203660424
0.304950079266217,-0.974861241431079
0.323996411457974,-0.974555741482415
0.342561464845509,-0.974327097121527
0.360632635095093,-0.974181036845354
0.378198369099671,-0.974122610264156
0.395248183623965,-0.974156175662518
0.411772681576688,-0.974285389225896
0.427763565875244,-0.974513195957032
0.443213650873798,-0.974841822302722
0.458116871330954,-0.975272770507591
0.47246828889876,-0.975806814707645
0.486264096120355,-0.97644399877245
0.499501617929023,-0.977183635900862
0.512179310647099,-0.978024309971292
0.52429675848864,-0.978963878643521
0.535854667575428,-0.979999478205181
0.54685485748134,-0.981127530152051
0.557300250325678,-0.982343749487447
0.567194857441483,-0.983643154722119
0.57654376365028,-0.985020079552201
0.585353109180013,-0.986468186189059
0.593630069268197,-0.987980480311083
0.60138283149745,-0.989549327603889
0.608620570915645,-0.991166471851774
0.615353422997822,-0.9928230545398
0.621592454511822,-0.994509635922472
0.627349632354286,-0.996216217511676
0.632637790428137,-0.997932265933349
0.63747059463707,-0.999646738099256
0.641862506076724,-1.00134810763729
0.645828742506239,-1.00302439252089
0.649385238187737,-1.00466318383546
0.652548602184857,-1.006251675617
0.655336075214936,-1.00777669569605
0.657765485152617,-1.00922473747729
0.659855201285678,-1.01058199258349
0.661624087426613,-1.01183438429028
0.66309145398608,-1.01296760167645
0.664277009116587,-1.01396713441301
0.665200809036867,-1.01481830811249
0.665883207649209,-1.01550632015904
0.666344805563556,-1.01601627593855
0.666606398643497,-1.01633322538712
0.666688926190332,-1.01644219977553
