0.853109311677022,-0.203650891267269
0.852667450954961,-0.20361568906558
0.851346343564747,-0.203473129308168
0.849156122326936,-0.2031683065549
0.846111426587297,-0.202647297049129
0.842231311242758,-0.20185750668328
0.837539128625409,-0.20074801072804
0.832062383976474,-0.19926988321668
0.825832565405709,-0.197376513940105
0.818884949389763,-0.195023911085031
0.81125838301451,-0.192170987636641
0.802995044310467,-0.188779829767643
0.794140182166021,-0.184815945547338
0.784741837429755,-0.180248492426166
0.774850546929604,-0.175050482082816
0.764519032242408,-0.169198961361158
0.753801875141849,-0.1626751681725
0.742755181735256,-0.155464661393758
0.731436237369786,-0.147557423953258
0.719903154445654,-0.138947938462072
0.70821451531795,-0.129635234918882
0.69642901249898,-0.11962291018943
0.684605088389748,-0.108919119136507
0.672800576772044,-0.097536537452136
0.661072348281645,-0.0854922964189103
0.649475962058433,-0.0728078900014428
0.63806532573088,-0.0595090548403214
0.62689236584069,-0.0456256238888917
0.616006710748604,-0.0311913545965224
0.605455387985046,-0.0162437326997414
0.595282537919656,-0.000823752833789049
0.585529145522676,0.0150243226792178
0.576232791878918,0.031253225374074
0.567427426992679,0.0478129609007877
0.559143165289925,0.0646511062639743
0.551406105083439,0.0817131222046777
0.544238173118045,0.0989426787921091
0.537656995157616,0.116281992210911
0.531675793414134,0.133672170660166
0.526303311452701,0.151053567223878
0.521543767036135,0.168366137529437
0.517396833199584,0.185549799980881
0.51385764767063,0.202544796337784
0.510916850574703,0.219292050408436
0.508560650190269,0.235733522637628
0.506770916344446,0.251812558394765
0.505525300868373,0.267474227807046
0.504797384363946,0.282665655034781
0.504556848370454,0.297336334951337
0.504769671862249,0.311438435268178
0.50539835085772,0.324927082235657
0.506402139776673,0.337760628151913
0.507737313048352,0.349900899024947
0.509357445346857,0.361313420855868
0.511213708715235,0.371967623143748
0.513255184734842,0.381837018353619
0.515429189803314,0.390899356238048
0.517681611503207,0.399136752058514
0.519957253974622,0.406535787914473
0.522200190149303,0.413087586554613
0.524354118661122,0.418787857215256
0.526362723218894,0.423636913204153
0.52817003221212,0.427639661122948
0.529720776318829,0.43080556179729
0.530960741896993,0.433148563158819
0.531837117967119,0.434687005497026
0.532298834633257,0.435443499670124
0.532296890842734,0.435444779031592
0.531784669450896,0.434721525991872
0.530718237635815,0.433308174291813
0.529056630798644,0.431242688214923
0.52676211818759,0.428566320108328
0.523800448596731,0.425323347716679
0.520141074614279,0.421560792958338
0.515757354027835,0.417328123888046
0.510626727135652,0.41267694169447
0.504730868862218,0.407660654673669
0.498055814732545,0.402334141200194
0.490592059921524,0.396753403785635
0.482334630761492,0.390975216369644
0.47328312826182,0.385056767030309
0.463441743367692,0.379055298329105
0.452819243860382,0.373027747520258
0.441428932976987,0.367030388855138
0.429288580002822,0.361118480199271
0.416420323263303,0.355345916152788
0.402850546113169,0.349764889824784
0.388609726688175,0.344425565358364
0.373732262346959,0.339375763236533
0.358256269887581,0.334660660319792
0.342223362773342,0.330322506475
0.325678406744923,0.326400359552195
0.30866925532979,0.322929840352335
0.291246466884383,0.319942909104973
0.273463004918984,0.317467664841592
0.255373923558786,0.315528168908346
0.237036040086717,0.314144293712384
0.218507596593661,0.313331597639487
0.199847912829166,0.313101226918544
0.181117032400271,0.313459845041377
0.162375364507271,0.314409590175616
0.143683323432919,0.315948060834827
0.125100968015439,0.318068329894966
0.106687643335864,0.320758986870497
0.088501626836448,0.324004208188415
0.0705997810594883,0.327783855024808
0.0530372151548148,0.332073598097823
0.0358669572499313,0.336845068643757
0.0191396397094346,0.342066034640746
0.00290319923050608,0.347700601188016
-0.01279740637067,0.353709433798912
-0.0279204629301232,0.360050003223929
-0.0424277446277792,0.366676850286473
-0.0562847370868498,0.373541869090033
-0.0694608375019624,0.380594606841566
-0.0819295305593868,0.387782578432883
-0.0936685390627126,0.395051593830301
-0.104659948334049,0.402346096243458
-0.114890303623303,0.409609508977294
-0.124350679925345,0.416784588817373
-0.133036723775799,0.423813783758186
-0.140948666769848,0.430639592857092
-0.148091310723613,0.43720492598336
-0.154473984573379,0.443453461232338
-0.160110473283033,0.449329997789227
-0.165018919203533,0.454780802055045
-0.169221696498875,0.459753944889096
-0.172745259419914,0.464199627877228
-0.175619965369423,0.468070496603122
-0.177879873857954,0.471321938980342
-0.179562522599428,0.473912366795374
-0.180708682137006,0.475803478715882
-0.181362090522835,0.476960503133188
-0.181569169698782,0.477352419332895
-0.181378725338682,0.476952155621812
-0.180841632015052,0.475736763182053
-0.180010505644128,0.473687564573566
-0.178939365241919,0.470790275963359
-0.177683286090139,0.46703510232245
-0.176298046464098,0.46241680499901
-0.174839770114501,0.456934741247312
-0.173364566721378,0.450592875465774
-0.171928172550914,0.443399762072688
-0.170585593544647,0.435368500123876
-0.16939075305542,0.4265166599516
-0.168396146415642,0.416866182277348
-0.167652504481038,0.406443250421632
-0.167208468237438,0.395278136400615
-0.167110276489568,0.383405021861102
-0.167401468569701,0.370861794961341
-0.168122603910955,0.357689824454041
-0.169311000225449,0.343933712369271
-0.171000491912264,0.329641026827428
-0.173221210194727,0.314862016635572
-0.175999386351887,0.299649309433245
-0.179357179265903,0.28405759525577
-0.183312528356367,0.268143297473384
-0.187879032815244,0.251964233142697
-0.193065857893091,0.235579264872565
-0.198877668819588,0.219047946358999
-0.205314592770118,0.202430163782914
-0.212372209116333,0.185785775290149
-0.22004156802333,0.169174250784987
-0.228309237280395,0.152654314266494
-0.237157377077263,0.136283590921127
-0.246563842264675,0.120118261155641
-0.256502311467641,0.104212723711209
-0.266942442253399,0.0886192699434327
-0.27785005139458,0.0733877712836542
-0.28918731911254,0.0585653818153083
-0.300913016037189,0.0441962578053502
-0.312982751478847,0.0303212959257073
-0.325349241475556,0.0169778917838766
-0.337962594956692,0.00419972025591123
-0.350770616251423,-0.00798346102007755
-0.363719122069248,-0.0195459837753097
-0.376752270990102,-0.030466415803084
-0.389812903423982,-0.0407276813070066
-0.40284288993511,-0.0503171541620704
-0.415783485773782,-0.059226723513837
-0.428575689420529,-0.067452831312373
-0.441160602922311,-0.0749964815515386
-0.45347979178931,-0.0818632211595432
-0.465475642223562,-0.0880630926623794
-0.47709171346715,-0.0936105589166569
-0.488273083087861,-0.0985244003814453
-0.498966683063936,-0.102827585568909
-0.509121624586487,-0.106547115479719
-0.518689509568027,-0.109713842990458
-0.527624726927857,-0.11236226831542
-0.535884731819355,-0.11453031181351
-0.543430306069835,-0.116259065551313
-0.550225798220017,-0.117592525165043
-0.556239341676491,-0.118577303686193
-0.561443049626134,-0.119262329107454
-0.56581318550537,-0.11969852756623
-0.569330307968562,-0.119938494112222
-0.57197938945783,-0.120036153102477
-0.573749907640037,-0.120046410331584
-0.574635909144824,-0.120024799055907
-0.574636045209095,-0.120027122108613
-0.573753579007414,-0.120109092326447
-0.57199636462314,-0.120325973519681
-0.569376797790805,-0.120732224213329
-0.565911738715088,-0.121381146370507
-0.561622407444719,-0.122324541277982
-0.55653425244964,-0.123612374729563
-0.550676793215732,-0.12529245358537
-0.544083437832374,-0.127410115714552
-0.53679127670297,-0.130007935246059
-0.528840853656503,-0.133125444957254
-0.520275915878134,-0.136798877523937
-0.511143144208043,-0.141060927238479
-0.501491865479331,-0.145940533675946
-0.491373748677007,-0.15146268865208
-0.48084248680029,-0.157648267672675
-0.469953466398992,-0.164513886922137
-0.458763426831075,-0.17207178668074
-0.447330111352089,-0.180329741896342
-0.43571191219778,-0.18929100046805
-0.423967511858315,-0.198954249627592
-0.412155522766117,-0.209313610630066
-0.400334127629073,-0.220358661790294
-0.388560722636839,-0.232074489725345
-0.376891565750105,-0.24444176848905
-0.365381432251138,-0.25743686611144
-0.354083279688862,-0.271031977886245
-0.343047924293503,-0.285195285583823
-0.332323730864676,-0.299891141606256
-0.321956318053271,-0.315080276946725
-0.311988280862058,-0.330720031667848
-0.302458932083186,-0.346764606474013
-0.293404064273369,-0.363165333822102
-0.28485573374024,-0.37987096689385
-0.276842067876919,-0.396827984642427
-0.269387097037117,-0.413980911026184
-0.262510611991009,-0.431272646454594
-0.256228047843521,-0.448644809395689
-0.250550395132691,-0.466038086031364
-0.245484138657294,-0.483392585796958
-0.24103122441104,-0.500648200605084
-0.237189054826479,-0.517744965530818
-0.233950512356264,-0.534623418726239
-0.2313040112438,-0.551224958337105
-0.229233577160598,-0.56749219421297
-0.227718954214927,-0.583369292234269
-0.226735738666732,-0.598802309125653
-0.226255538518234,-0.613739515683722
-0.226246157989282,-0.6281317064191
-0.226671805732283,-0.641932493696931
-0.227493325494377,-0.655098584555879
-0.228668447795422,-0.667590038493032
-0.230152061060092,-0.67937050462
-0.231896500521762,-0.690407436723285
-0.233851853105773,-0.700672284898879
-0.235966276400546,-0.710140662576161
-0.238186329737721,-0.718792487898617
-0.240457315327427,-0.726612098587766
-0.242723627332432,-0.733588339580931
-0.244929106715698,-0.739714622902171
-0.247017399660073,-0.744988959397689
-0.248932317336657,-0.749413962141321
-0.250618194790005,-0.752996821491228
-0.252020246713756,-0.755749251954506
-0.253084917909527,-0.757687411191093
-0.253760226254798,-0.758831791660919
-0.253996096051926,-0.759207085587737
-0.253744679689964,-0.758842024078342
-0.252960665623381,-0.757769191395995
-0.251601570756494,-0.756024815540776
-0.249628015419064,-0.753648536436341
-0.247003979226304,-0.75068315316128
-0.243697036234996,-0.74717435179308
-0.239678567935658,-0.743170415552741
-0.234923952758017,-0.738721919047779
-0.229412730912534,-0.733881408509766
-0.223128743543549,-0.728703070009345
-0.216060245328732,-0.723242387706067
-0.208199989824064,-0.717555794252121
-0.199545287022403,-0.711700315517577
-0.190098032765852,-0.705733211839909
-0.179864709826526,-0.699711618022055
-0.168856360645834,-0.693692184310951
-0.157088531897986,-0.687730720582393
-0.144581191218022,-0.681881845938124
-0.131358616607076,-0.676198645887467
-0.117449259196909,-0.670732339238801
-0.102885580220778,-0.665531956765926
-0.087703863197531,-0.660644033641373
-0.0719440024893616,-0.656112317543358
-0.0556492695400859,-0.651977494245897
-0.0388660582390268,-0.648276932393233
-0.0216436109849779,-0.645044449040788
-0.00403372714425734,-0.642310097416133
0.0139095442940435,-0.640099978215736
0.0321302259645995,-0.638436075607356
0.0505707452870535,-0.637336118954815
0.0691722774809017,-0.636813471122455
0.0878750963120716,-0.636877044051825
0.106618930401277,-0.637531242134107
0.125343322889788,-0.638775933729517
0.143987992237455,-0.640606451010442
0.162493191920809,-0.643013618129528
0.180800066805886,-0.645983807538372
0.198851003991027,-0.649499024107984
0.216589975949171,-0.653537016529865
0.233962873846871,-0.658071415307458
0.250917828978154,-0.663071896482913
0.267405520324933,-0.668504370084585
0.283379466341714,-0.674331192127463
0.298796299160027,-0.680511398852732
0.313616019516978,-0.687000961754805
0.327802230831723,-0.69375306181532
0.341322350982898,-0.700718381244519
0.354147800478171,-0.707845410921908
0.366254165853376,-0.715080771630745
0.377621337292157,-0.722369547095389
0.388233619616793,-0.729655626757367
0.398079815965824,-0.736882056165612
0.407153283643393,-0.74399139280907
0.415451961797567,-0.750926065186139
0.4229783707595,-0.757628732885271
0.429739583050858,-0.764042645444739
0.435747166242463,-0.770111997767114
0.441017098021527,-0.77578227988527
0.445569653997029,-0.78100061891168
0.449429268941683,-0.785716111051173
0.452624372333555,-0.78988014161881
0.455187199219564,-0.793446691078829
0.457153577576048,-0.796372625207179
0.458562693487151,-0.798617967578452
0.459456835599233,-0.800146152687553
0.459881120437882,-0.800924258136328
0.459883200292676,-0.80092321444509
0.459512955482833,-0.800117991187536
0.458822172913639,-0.798487758294243
0.457864212918476,-0.796016021523706
0.456693666453813,-0.792690731259932
0.455366004774303,-0.788504363960807
0.453937223761675,-0.783453975750886
0.452463485114211,-0.777541227824786
0.451000756623036,-0.770772383502029
0.449604453767066,-0.763158276949721
0.448329084850273,-0.75471425376505
0.447227901882925,-0.745460083783808
0.446352559372865,-0.735419846653275
0.445752783143826,-0.724621790876474
0.44547605123563,-0.713098167199136
0.445567288866223,-0.700885037369695
0.446068579348319,-0.688022059455112
0.447018892754567,-0.674552251040642
0.448453834015101,-0.660521731778557
0.450405412010926,-0.645979446878844
0.452901831096455,-0.630976873252883
0.455967306345473,-0.615567710128577
0.459621903667807,-0.599807556051609
0.463881405789811,-0.583753574271766
0.468757204931497,-0.567464148585256
0.474256222847662,-0.550998531763004
0.480380858730793,-0.53441648874084
0.487128965300833,-0.517777936779878
0.494493853232204,-0.501142584824202
0.502464323892868,-0.484569574287769
0.511024730194712,-0.468117123493749
0.520155065180334,-0.451842177966642
0.529831077799413,-0.435800068741385
0.540024415159284,-0.420044180803877
0.550702790370315,-0.404625633714511
0.561830174947992,-0.389592976390892
0.57336701458146,-0.374991897938014
0.585270466933387,-0.360864956314837
0.597494659999517,-0.347251326515554
0.609990969428793,-0.334186569822976
0.622708313087423,-0.321702425560783
0.635593461043359,-0.309826626632038
0.648591359052073,-0.298582739983887
0.661645463540784,-0.287990032983916
0.674698086017035,-0.27806336653307
0.687690744769021,-0.268813115574315
0.700564521679896,-0.26024511748649
0.713260421946511,-0.252360648679954
0.725719734474983,-0.245156429535893
0.737884390721311,-0.23862465765548
0.749697319754739,-0.23275306920969
0.761102797345041,-0.227525028006373
0.772046786911752,-0.222919641719484
0.782477270223876,-0.218911904557012
0.792344565801936,-0.215472865480324
0.801601633050474,-0.21256982092931
0.810204360237414,-0.210166530855831
0.818111834536774,-0.208223456723571
0.82528659246228,-0.206698019996225
0.831694849140888,-0.205544879509036
0.837306705006301,-0.204716226001649
0.842096328632395,-0.204162091983911
0.846042114574274,-0.203830675011225
0.849126815239499,-0.203668672362979
0.851337645972848,-0.2036216250469
0.852666362703948,-0.20363426899438
0.853109311677022,-0.203650891267269
