0.0996414244442776,-0.0565471197435162
0.101269953174545,-0.0531797171661348
0.102779657908303,-0.0496972653475291
0.104164920076809,-0.046103972700072
-0.0100662294034074,-0.136684614023707
0.204602919493997,0.0782492586566039
0.10752016062143,-0.0347046918539103
0.108354592519127,-0.0307148252546141
0.109038914240895,-0.0266386388073788
0.109568540933728,-0.0224816905274117
0.109939090823606,-0.0182497407823282
0.110146393386447,-0.0139487449548367
0.202066463973468,0.0932683868149828
0.0158257883663074,-0.122825470383544
0.109750444767106,-0.000693797256951775
0.109267548738168,0.00382020284459403
0.108603988475703,0.00837082507569248
0.107757017049828,0.0129511149029364
0.106724148000646,0.017553982354417
-0.00323104232763714,-0.0849030914119933
0.104092107790411,0.0267984706275363
0.102489316214108,0.0314253214631488
0.100693395954907,0.0360452301555462
0.0987032423543478,0.040650577278863
0.193826884930962,0.161490992401338
-0.000593027169067395,-0.0501984185078075
0.0915607017675878,0.0543019956174313
0.0887884138754947,0.0587715655386988
0.0858207807449399,0.0631875696648806
0.0826584817666649,0.067542102771821
0.0793025015394386,0.0718272510603246
0.0757541310277939,0.0760351035707856
0.0720149683025685,0.0801577636604402
0.0680869188615089,0.0841873605282578
0.0639721955277325,0.0881160607723765
0.0596733179243717,0.0919360799649011
0.0551931115242676,0.0956396942288078
0.0505347062741188,0.0992192518016495
0.0457015347930349,0.102667184570721
0.142567573559507,0.222061660149762
0.0355261231932115,0.10913839038382
0.0301922395171049,0.112147048561032
0.0247002959288184,0.114994874825903
0.0190551965571502,0.117674890268995
0.0132621285229971,0.120180267383811
0.00732655720310706,0.12250434097386
0.00125422108742706,0.124640618909547
-0.00494887376512935,0.126582792720117
-0.0112764596671409,0.128324748006012
-0.0177220136334898,0.129860574657212
-0.0242787640961318,0.131184576863291
-0.0309396979959223,0.132291282901146
-0.0376975682440924,0.133175454686597
0.0668920719423241,0.227960528390086
-0.0514740065750729,0.134256466906566
-0.167342451421916,0.018958074281909
-0.0655457278314733,0.134390728421481
-0.0726719496148212,0.134092471087292
0.035662878458264,0.229393961910198
-0.0870627506357755,0.132746934945802
-0.0943098735856556,0.131693240560685
-0.195334586071322,0.0297462539831193
-0.108862770582606,0.128810250840837
-0.116150210593712,0.126976399689907
-0.123432549817197,0.124878478637837
-0.130700329531875,0.122515025266585
-0.137943994992411,0.119884912684835
-0.145153907233186,0.116987354088364
-0.152320355062949,0.113821906908122
-0.159433567235946,0.110388476538556
-0.16648372478493,0.106687319639223
-0.173460973501208,0.102719047003231
-0.180355436546622,0.0984846259865732
-0.277394771296344,-0.00750239079766313
-0.193856461597544,0.0892230025090459
-0.200443271826423,0.0841995331863502
-0.206907818730695,0.0789173834649863
-0.213240305038481,0.0733793242370278
-0.219430988419235,0.067588488046172
-0.225470194579785,0.0615483683217827
-0.231348330364921,0.0552628181457233
-0.237055896846031,0.0487360485509874
-0.143222328372027,0.13909854606873
-0.247921875630783,0.0349774715047378
-0.253061878510104,0.0277558540034495
-0.257994519065671,0.0203133903052311
-0.262710964255386,0.0126560392944272
-0.267202552618025,0.00479009778329731
-0.271460806814954,-0.00327780444597198
-0.275477446027807,-0.0115407100545598
-0.279244398195868,-0.0199913400113906
-0.282753812077037,-0.0286220999038124
-0.285998069116385,-0.0374250866892159
-0.288969795106492,-0.0463920958816722
-0.291661871623914,-0.0555146291671073
-0.402061498753856,-0.173755396858449
-0.296179948395415,-0.0741908542538809
-0.297993090209659,-0.0837261546779256
-0.408462199553707,-0.20491689940672
-0.300697661109069,-0.103143195119759
-0.301578055330932,-0.11300501806542
-0.208491935732007,-0.00951045298852396
-0.302369921934579,-0.132983742638118
-0.302272355925896,-0.14307938504164
-0.301840350133019,-0.153231373891803
-0.301070275595314,-0.163428595814637
-0.189246449959656,-0.0711728719546238
-0.298503262685649,-0.183913437176614
-0.296700945887747,-0.194178019011383
-0.412539695881171,-0.30326529500188
-0.292048165181042,-0.214692885298052
-0.289194683545067,-0.224919366876171
-0.285988471090774,-0.235109179724629
-0.282429038858227,-0.245250194408078
-0.174043892710877,-0.158755129401538
-0.274250642128772,-0.265336995096648
-0.386480902619018,-0.392697549566949
-0.264663960970545,-0.285081667838173
-0.259345767699502,-0.294794936424688
-0.253680264330691,-0.304385744383883
-0.247669932269913,-0.313841803015612
-0.241317683913157,-0.323150859836908
-0.234626862781937,-0.332300713584574
-0.227601243139766,-0.341279229260785
-0.220245029087251,-0.350074353203853
-0.212562853133888,-0.3586741281662
-0.204559774245254,-0.36706670838148
-0.196241275364904,-0.375240374602742
-0.187613260410935,-0.383183549093432
-0.178682050747754,-0.39088481055305
-0.169454381134257,-0.398332908959222
-0.059006584928666,-0.311831315893138
-0.150138640103465,-0.412425561234196
-0.140066061420508,-0.419048603493663
-0.129727996525022,-0.425375488289446
-0.119133168207799,-0.431396040423882
-0.108290677493558,-0.437100342258823
-0.0972099960100249,-0.442478747466295
-0.0859009578654958,-0.447521894552071
-0.0743737510416784,-0.452220720134828
-0.0626389083092065,-0.456566471963752
-0.0507072976738292,-0.460550721657675
-0.0385901123618637,-0.464165377149108
0.091438406845062,-0.363760160647325
-0.013845353477821,-0.470255291290389
-0.00124169606750438,-0.472716154912358
0.0114997267953272,-0.474778656840143
0.0243662614512862,-0.476436561774935
0.0373449982296084,-0.477684038301427
0.0504227843993996,-0.478515668824448
0.0635862374926502,-0.478926459088466
0.0768217589855357,-0.478911847266413
0.0901155483240259,-0.478467712604711
0.103453617279358,-0.47759038361183
0.116821804618471,-0.476276645778205
0.0116456822297948,-0.570292646429391
0.143591114598536,-0.472329413406098
0.156963185885543,-0.46969183744592
0.170307304142775,-0.466609701780785
0.183608673098843,-0.463082175416355
0.289082451065354,-0.344186755991122
0.210023598168705,-0.454690094955877
0.123207411024373,-0.543527268279461
0.236088302685296,-0.444518875618272
0.135873985690716,-0.551576995507352
0.359006753371359,-0.315164945380661
0.27426591945058,-0.425953171991846
0.286686608273654,-0.418892475301729
0.298929819061341,-0.41140146704383
0.310980719890669,-0.40348436391196
0.322824569731571,-0.395145891474061
0.334446735833291,-0.386391282586562
0.345832711099686,-0.377226275216964
0.356968131433351,-0.36765710967381
0.36783879302842,-0.357690525243918
0.378430669591896,-0.347333756237371
0.388729929473291,-0.336594527441519
0.398722952682426,-0.325481048985862
0.408396347775207,-0.314002010620425
0.417736968587312,-0.302166575410875
0.426731930795744,-0.28998437285437
0.435368628288343,-0.277465491420742
0.443634749321451,-0.264620470524377
0.451518292446096,-0.251460291932762
0.459007582183189,-0.237996370618387
0.46609128442847,-0.224240545061351
0.588981605008252,-0.109504101263462
0.584223695275811,-0.0968637336073436
0.484800961045296,-0.181346161617675
0.49015632222233,-0.166549204569393
0.594572424038582,-0.0422771477574284
0.499488206164033,-0.136289228610152
0.503447209286744,-0.120854843119926
0.506923986116476,-0.105237169486715
0.509910914319965,-0.0894513352179689
0.512400848063311,-0.0735127662236115
0.514387129248576,-0.0574371717452299
0.630018107717749,0.0738552020384051
0.51682460428757,-0.0249390666689485
0.517265014966041,-0.0085492499023122
0.46967126490652,-0.00498939002565875
0.487828692435637,0.0360514065056379
0.515419319599916,0.0409824959397163
0.48098492445946,0.0869181822348851
0.52991196853996,0.0519883633633432
0.501748689368183,0.0520472385177048
0.528238852521049,0.0640824189014627
0.542142867108097,0.152629688104564
0.497222698908199,0.140123654577811
0.458847408190219,0.161249736583677
0.466240860975323,0.162852269797524
0.480819032246175,0.188780482542926
0.486803059087571,0.214018078552675
0.426231090748763,0.192305367955724
0.499287118199696,0.204922565090028
0.474567649414194,0.237895624199661
0.442797441981069,0.266854565930037
0.408671342956322,0.310547159613277
0.458352209450069,0.276246724285307
0.521995394182453,0.423369814980126
0.403066995715013,0.325319116298392
0.391216168077966,0.35355988165979
0.380234885963714,0.352838307048314
0.368105121804014,0.366110710356694
0.382953653605719,0.380406648823342
0.342464625563343,0.391599481474695
0.328974152199261,0.403783977581186
0.351206956103398,0.398134027484002
0.281374426070283,0.466493508519711
0.285954845783023,0.437912919314386
0.163527243271951,0.368643647452595
0.250386690110605,0.489130986425606
0.20068405005266,0.469009271620143
0.223113624881424,0.477216926478387
0.238093650666137,0.479961623575985
0.189589273375414,0.493966128652773
0.13142984109313,0.473498691828971
0.154821931198078,0.508647261757613
0.131751859074726,0.481332577441964
0.0942666596886016,0.525878199861728
0.134210593311456,0.477327416877538
0.0489495738971377,0.572044122913468
0.0717722788716143,0.580497433889576
-0.0979895527509009,0.45247435353769
0.0252584352085477,0.542514373000898
0.00598458194079092,0.545007155874331
-0.0298332975708101,0.591136178064687
0.013692022376147,0.548845385413489
-0.121810285848797,0.475958578047472
-0.0489734084791503,0.550978406484713
-0.0920269733618746,0.548225042053874
-0.220235722386658,0.438038164542347
-0.131628236287667,0.545110486632105
-0.151432907604897,0.542597108008085
-0.0773146883470059,0.642391009552195
-0.190947315607326,0.53565023276007
-0.21061554950807,0.531215573022789
-0.230196687072026,0.526140447045924
-0.249669838217917,0.520425964758442
-0.269014097140751,0.514073918423515
-0.288208564625587,0.507086784704776
-0.421799580634559,0.379748370473611
-0.326064696026385,0.491220591052194
-0.344684796734821,0.482349914788554
-0.363072024797409,0.472860917459185
-0.381205851794373,0.462759502997459
-0.399065891322473,0.452052256645375
-0.416631921595975,0.440746441827718
-0.433883907990412,0.428849996276909
-0.450802025504295,0.416371527409093
-0.55948033828299,0.292703984543728
-0.372227650579731,0.488239183670505
-0.499358527597097,0.375539982309497
-0.5147478915128,0.360832684385461
-0.438738177125326,0.44323002997593
-0.544221299289242,0.329843110326838
-0.558269499045897,0.31358642428292
-0.571835425018395,0.296839882742509
-0.58490212378317,0.279617789979592
-0.597453066202676,0.261935033238092
-0.609472167359529,0.24380707014247
-0.620943806116831,0.225249915430065
-0.631852844281694,0.206280127016272
-0.642184645349327,0.186914791404438
-0.651925092805383,0.167171508453152
-0.661060607964669,0.147068375514304
-0.669578167324719,0.126623970956101
-0.677465319413158,0.105857337085889
-0.799300826425931,-0.0175055862395632
-0.691301553412516,0.0634357637957626
-0.69722873665978,0.0418210669060986
-0.814247463279566,-0.0991021924254221
-0.707051221099397,-0.00211258794639164
-0.7109284681697,-0.024389024174701
-0.714105464089532,-0.0468429562609442
-0.71657487282079,-0.0694523117188383
-0.622259050661826,0.00120758185872077
-0.719365083538195,-0.115047594738763
-0.719674743935871,-0.137988035986003
-0.719254553324381,-0.160992973351399
-0.718100764194966,-0.184039129089429
-0.716210373218065,-0.207103053670845
-0.713581128335922,-0.230161149627444
-0.710211535089554,-0.253189695672828
-0.706100862169718,-0.276164871074509
-0.701249146182352,-0.299062780252348
-0.695657195619761,-0.321859477577966
-0.689326594029614,-0.344530992349461
-0.682259702374697,-0.367053353915402
-0.674459660577152,-0.389402616921888
-0.665930388241854,-0.411554886656144
-0.656676584554362,-0.433486344459944
-0.740246932054829,-0.566913424790662
-0.636018071350058,-0.476592082669943
-0.524768784534967,-0.394805408083716
-0.612537249870593,-0.518531770896938
-0.59975845072407,-0.539006333154136
-0.586299576082148,-0.559120193816685
-0.461851762736274,-0.474711712985939
-0.557382683166521,-0.598175790900681
-0.54194707072403,-0.617073238963331
-0.525876178449359,-0.63552145814677
-0.628976368988321,-0.765353827322202
-0.491881387490402,-0.670985338571769
-0.473985678341943,-0.687959529420692
-0.45551104595611,-0.704401597981543
-0.436473306137369,-0.720291880344042
-0.416888940124909,-0.735611182568225
-0.303616575998632,-0.636234554912829
-0.376149497103269,-0.764462554933683
-0.355030580298531,-0.777958786928967
-0.333437326055905,-0.79081240520281
-0.311389318408693,-0.803006893626289
-0.288906711974601,-0.814526333969561
-0.26601021366505,-0.825355425482192
-0.242721063726449,-0.835479503912671
-0.219061016130676,-0.844884559944453
-0.195052318332755,-0.853557257026361
-0.280057929500645,-0.957460054275392
-0.146080303633589,-0.868655694533634
-0.225304894023554,-0.987921141482433
-0.0959920616888267,-0.880682216685708
-0.0705896039465597,-0.88551778489554
-0.0449811354539318,-0.889556019800017
-0.0191917422272947,-0.892788738202629
0.00675317855347108,-0.89520854805073
0.152477985624395,-0.779866899429048
0.0590066087126986,-0.897583897699048
0.0852629950485899,-0.897528708485301
0.111570714844768,-0.896639171635169
0.137903198160582,-0.894912006998459
0.164233719658364,-0.892344782298921
0.190535425713441,-0.888935919658133
0.216781361780559,-0.884684701250936
0.242944499988849,-0.87959127408276
0.268997766937105,-0.873656653880067
0.409025305588178,-0.772486218955401
0.320666333742242,-0.859272257954655
0.252545476018601,-0.959825928931152
0.371570630467444,-0.841557104954334
0.396668811415895,-0.831462319755923
0.421495299082838,-0.82055078335444
0.446023490385684,-0.808829625540953
0.470226962804735,-0.796306843275706
0.494079502667459,-0.782991296355299
0.517555133337916,-0.768892702156867
0.430442597731079,-0.859011873418221
0.5632731139727,-0.738389491355995
0.585464947622476,-0.722008537227353
0.607178894684094,-0.704891843836829
0.628390581118706,-0.687053305497036
0.544481049725788,-0.771174376772688
0.669211715120466,-0.649270293743288
0.68877453349984,-0.62935759575457
0.707741885216306,-0.608786577803588
0.726091672081888,-0.587575043432637
0.74380232820334,-0.56574153622464
0.760852844710387,-0.543305323885346
0.777222794007739,-0.520286381500974
0.792892353523467,-0.496705373985535
0.807842328926694,-0.47258363773303
0.822054176788074,-0.447943161490579
0.835510026656976,-0.422806566469413
0.848192702529816,-0.397197085711603
0.860085743684547,-0.371138542731132
0.871173424856858,-0.344655329448896
0.881440775734265,-0.317772383441912
0.890873599744889,-0.290515164527884
0.791678744634543,-0.37643833447499
0.907182857197074,-0.234982213484111
0.914034924976415,-0.206759792593167
0.920003766853895,-0.178269670150661
0.925079310567191,-0.149539544260306
0.824334058195653,-0.210746280325075
0.932514579954382,-0.0914718924885399
1.03634675324684,0.0441008213513919
0.936277796621362,-0.0327853068169675
0.936766677103046,-0.00328258357684771
0.936320538756109,0.0262871793202189
0.934935650087685,0.0558942914093677
