0.499290150433869,0.521460446390913
0.519387595166911,0.539722872272094
0.536995272758478,0.539522157979558
0.500415124894086,0.556430048745221
0.497790778065235,0.522873574939831
0.523459282038379,0.51743275384211
0.48215100403831,0.519812974754662
0.507503439191344,0.485352741670747
0.50638809591514,0.4757847083056
0.505440771217759,0.466118361638175
0.475817205734157,0.479558952547782
0.503981843150193,0.446530713149856
0.489902276709085,0.452057000710329
0.459155920568349,0.427851702694095
0.491336459505717,0.373957176118007
0.501148165564919,0.412290521568454
0.499340032335388,0.415442365302094
0.498727456780611,0.375891200961215
0.528532876566869,0.375054305123563
0.528113523973757,0.373888053003336
0.498865708001003,0.360736002630116
0.502385526190814,0.345258190697652
0.502546954849063,0.334943075277587
0.502740840213854,0.324608968350609
0.547403795120601,0.338854173014093
0.503205198117752,0.303895940773839
0.539219242382422,0.326070992074415
0.491286146289026,0.31832703519435
0.464888770962884,0.269380092528408
0.518046982195289,0.258119470102914
0.502524907664657,0.270843683459706
0.504880204618942,0.241591889718301
0.502241175123541,0.203894147074048
0.505424516772438,0.220832078230108
0.508677040915986,0.233902101974559
0.490474893759447,0.237941684738572
0.502993668189283,0.190949638227994
0.494166210898541,0.22591944974247
0.489870425247434,0.182030191426651
0.52993913062093,0.129554811688697
0.484624324726698,0.149405787153277
0.501210758402864,0.0921142700917799
0.50685061080214,0.128011699901317
0.506849419333863,0.117791738968141
0.506807105415772,0.107595840158732
0.506721409055619,0.0974253258703087
0.477712296340733,0.0739112924015843
0.518309175350829,0.0929262074907247
0.489470927919018,0.0675648979111513
0.505902108713916,0.0570220935575259
0.498061839806182,0.027044131697361
0.480935405332157,0.0313970148179424
0.509713136792244,0.0121099674528623
0.504225846004715,0.0171202986504547
0.496120621449588,0.0159930320037639
0.508306513912109,0.024112435882766
0.5246378451942,-0.00296006179157166
0.523141184501758,-0.0281655263227455
0.488477928654099,0.00464586357591797
0.499859956467156,-0.0416490216482514
0.494252675237441,-0.0356824860353093
0.500272830465386,-0.0713003719649896
0.530927953141531,-0.0824131052441097
0.495573988791232,-0.0800237907046936
0.461615479973755,-0.0863114474047825
0.475532994013341,-0.0975515313163458
0.513121201000432,-0.103255867752579
0.49732571865703,-0.129406182893868
0.467478391110843,-0.12352282562758
0.494041556939195,-0.162320527423669
0.485148903249252,-0.14546833042446
0.472806609972769,-0.158371739085694
0.481444753304427,-0.163742224334889
0.479467051641123,-0.172805662902387
0.477404477864339,-0.181819439951463
0.463422614299009,-0.185666783734059
0.473021559401697,-0.199696163650501
0.470699722574717,-0.208558237198679
0.451453719588098,-0.21060129713133
0.47529281089033,-0.204435693849593
0.442686209436881,-0.258888991478521
0.460527335982718,-0.243488665240679
0.457759907689659,-0.252090008286291
0.429076274414116,-0.249910628326535
0.453701971598345,-0.244185552941249
0.426844646775397,-0.270450959157842
0.445776818549761,-0.285960933574646
0.485180868747609,-0.295302835274215
0.439230954178569,-0.302572045122892
0.435818081644639,-0.31079571710855
0.470407468096287,-0.325173543480743
0.428710850354789,-0.327078354056254
0.428007020489697,-0.337271853434533
0.443983592909249,-0.352054506068493
0.375097868699425,-0.367688565340677
0.434739797208196,-0.313396019327584
0.409951573785198,-0.382308212790918
0.405119997616099,-0.374598503985183
0.435587600865806,-0.398678139733038
0.414809083024158,-0.397377629712269
0.417775422502221,-0.425515012200488
0.373690191810005,-0.3850667177047
0.38284447154022,-0.412667637531703
0.381404955887505,-0.438294843113369
0.36542861546989,-0.420317359715397
0.357073307519335,-0.460130100130808
0.373622545785236,-0.426484735157022
0.355720753074693,-0.440592746059654
0.38419876829401,-0.472136455394875
0.34167002351099,-0.426192828704353
0.331574226664391,-0.460260213528751
0.2949661346278,-0.478427761378329
0.263538622449303,-0.484408007047307
0.347979538375236,-0.48956068298753
0.319712491111124,-0.498374896878665
0.313843737175974,-0.505161550337876
0.307883157697142,-0.511894473593581
0.330769011024014,-0.503113997167998
0.30476896309543,-0.533007205073593
0.289455345998951,-0.531773717591471
0.276400907140192,-0.547477119387083
0.300807078254616,-0.540867240274042
0.24823939576297,-0.555525838782443
0.25957961954307,-0.576839573780114
0.250353337424745,-0.553155301345135
0.250194111890369,-0.570124602125972
0.231017864370523,-0.590472023850254
0.236413966469754,-0.582502693346615
0.214827273496536,-0.594724915687793
0.212189070616619,-0.591283146208666
0.216180542490479,-0.604060100286229
0.226899268152969,-0.613088837261504
0.196852920414863,-0.59819523457448
0.193085685920953,-0.618473812685771
0.218090869876504,-0.603920041103737
0.178005876995051,-0.6300914272261
0.1725496295856,-0.634521608502371
0.162621844901969,-0.641531030594068
0.154818700594867,-0.647185807407893
0.146943130685078,-0.652798205573956
0.158396264862129,-0.615869864936276
0.130979953881933,-0.663898931959736
0.138669142409697,-0.673651877875516
0.114743244334755,-0.67483960516845
0.115725147828048,-0.687089048014326
0.107424067055144,-0.724934064404478
0.0899010609933584,-0.690965585314826
0.0814967170278593,-0.696268580056936
0.0879089606307065,-0.70599835434147
0.0587793756129131,-0.695393644267277
0.0559364819811522,-0.711974404082188
0.0473066719172083,-0.717145471052708
0.0616199860347217,-0.703214484592529
0.0196597491107416,-0.760249019958777
0.0466763073740851,-0.758956997289894
0.00905690740364846,-0.75152991883554
-0.00663041497421107,-0.754868628311431
-0.00280492202343178,-0.755429717755485
-0.0418375847419975,-0.773588872351051
-0.0368138112285418,-0.731402768114057
0.0026410340672084,-0.77671526629726
-0.0428113126006257,-0.795953368100474
-0.0336813925316554,-0.781072607431034
-0.0852326087290305,-0.751175876040986
-0.0436690812177295,-0.794748075121445
-0.0556683147131172,-0.820363183042767
-0.0634687907505239,-0.787861699300261
-0.0962816865969023,-0.796657639172721
-0.105469209860154,-0.80150236945636
-0.114663568571137,-0.806343100090413
-0.146156844041121,-0.778253423022231
-0.159354438226054,-0.805552609667258
-0.133182162929381,-0.791754343124797
-0.149689676878191,-0.822439172509648
-0.160605478943454,-0.830564238912471
-0.171384686595191,-0.842000384266789
-0.195706939858236,-0.844381732321828
-0.212050300467888,-0.860363382378196
-0.182930400262477,-0.863847642095633
-0.215399568645273,-0.824423906491759
-0.240645266103113,-0.877703850027755
-0.226290219936853,-0.865570201231762
-0.202749846034104,-0.8663071930253
-0.246898589440617,-0.888874535224654
-0.231512168283097,-0.881008720059789
-0.252365682074921,-0.933897277725892
-0.292735302862894,-0.900669473598418
-0.287363802706238,-0.904726416336297
-0.284571779935937,-0.901116614396969
-0.272461182648129,-0.885935621146747
-0.300933272729075,-0.911984272745866
-0.330802786608712,-0.877012653035201
-0.313195819879044,-0.930066116919585
-0.331245152843577,-0.900428609077606
-0.331688999726814,-0.934870698384279
-0.358234706972828,-0.923235777230014
-0.345693986400001,-0.947117227451597
-0.34596604859239,-0.940460640069837
-0.304853241190783,-0.975514314806654
-0.339090583333079,-0.976832157131461
0.522601948997453,0.53252469545793
0.524252607301406,0.546022492704169
0.511544927909046,0.534091221661528
0.50503381274687,0.527680435287532
0.498175085599811,0.521473048337482
0.513642897592454,0.549234670611454
0.459390862404963,0.469006259697138
0.476030851963062,0.503768407386445
0.468369451496989,0.493722044473011
0.414947131967611,0.516977013363594
0.452159870883904,0.487074144242742
0.431292026942677,0.468165080711044
0.458208591322061,0.507458155690438
0.427062370372687,0.471097558730394
0.465070903266623,0.441295755270966
0.379219461268878,0.441449239526583
0.401070075593053,0.455644547337071
0.392251374531677,0.450584006820578
0.421629586500061,0.441703189882606
0.374429148471315,0.440571072468595
0.365439439368923,0.435610594488913
0.312587598793015,0.436755648497063
0.305780578616305,0.416989241552027
0.338230084054924,0.420869726008852
0.329098795002795,0.415992091203374
0.318147008538556,0.398430919525862
0.304631728194729,0.392440608187019
0.301590480267624,0.401426153901449
0.283150467626946,0.387293290118233
0.287626060285139,0.39149219695426
0.274003394918006,0.386906307926348
0.270096713559471,0.409292818611285
0.22375566922586,0.389144434450459
0.231806853096388,0.380896662469204
0.237280749922057,0.36751132601358
0.243180533576173,0.356853331220476
0.17208641281107,0.352783588218302
0.201902557900531,0.337190514168198
0.212496614154553,0.344709689723184
0.191776339260264,0.34303419144636
0.212040361462956,0.341258346387109
0.173774120222252,0.333126577018777
0.154470290287988,0.31182594244575
0.125441858518371,0.327767555901411
0.160640052578298,0.306894783878942
0.129219912023853,0.320039818094212
0.128538858798203,0.315314704353639
0.137277483046268,0.304015556298951
0.11203315442966,0.297708678888643
0.101934773547296,0.297505996444977
0.096120316076097,0.305451935729443
0.0907303192872479,0.274780213646975
0.085515183414612,0.295643875235499
0.0363378104364113,0.293856509391711
0.061095148391749,0.266190265003259
0.0451136650148087,0.254572950513
0.0445965820121134,0.255402813004385
0.0364447474554242,0.249952066543328
0.0131485874696003,0.253954917064311
0.0203433923089592,0.238932192937818
0.0181852353932796,0.202788436725748
0.00452112575200186,0.227749015243828
0.00543926305006006,0.217224859698002
-0.011011481736524,0.216396348319827
-0.0118971388674116,0.178291681385925
-0.0331434579681122,0.147778375790212
-0.0225026032092873,0.177517365929576
-0.0630035658683003,0.193593364657948
-0.0373457768325356,0.162918605542053
-0.0726650606212922,0.207077671760397
-0.0629578692070068,0.175247314109337
-0.0763492329139607,0.192203681799522
-0.086261358399305,0.150151393628197
-0.101376952415166,0.194076986856526
-0.121085632248083,0.137497641851982
-0.0975092940087236,0.128694472690747
-0.109531193224479,0.174947036881411
-0.0995607662151314,0.121992740195446
-0.117380677861936,0.125326658839728
-0.123213175872319,0.171427555225247
-0.116533362805831,0.147004800874872
-0.141601577020492,0.142563091650918
-0.11390746141928,0.114897252915694
-0.163770652320726,0.119554021959323
-0.138661632965309,0.0897642207787489
-0.152889118952802,0.0985896121388959
-0.148899760236052,0.0577200402984785
-0.170572655197608,0.0563685448087803
-0.152938236006177,0.0207277496727086
-0.181766087918916,0.0232974664435568
-0.181531540223591,0.0440550950745629
-0.214394481492262,0.0409521103645361
-0.223291900087671,0.0367943840257102
-0.214557211611981,0.012182622721754
-0.208996376352777,0.0154035452705249
-0.192707929524751,0.0477257214539767
-0.22890132248376,0.026656967812971
-0.223504645193351,-0.00676915463236177
-0.228150377508125,-0.0142714390360687
-0.221760573446794,-0.0175415982883395
-0.259804268568175,-0.0123174614426985
-0.210863824059068,-0.0422805140793756
-0.263230830491599,-0.0325957523822459
-0.258549272361435,-0.0379968618079174
-0.266530849605481,-0.0510699785128116
-0.258002533719711,-0.0683485485318201
-0.24194347084622,-0.0902957827546371
-0.305645628972036,-0.0432664710553685
-0.265763245966623,-0.0551601188581782
-0.27297165114326,-0.100472248582845
-0.278702655384307,-0.0933685237993837
-0.264541156984446,-0.0951911848040428
-0.283210589816589,-0.125143076670099
-0.28705516813113,-0.153515595679125
-0.276388546059971,-0.142312406232733
-0.302689945098215,-0.127970737475327
-0.295561803451077,-0.158798599977519
-0.29842008134279,-0.167346783877774
-0.281499319270469,-0.159481867391922
-0.2828505717901,-0.186768477142509
-0.306451987828488,-0.193309020475438
-0.299616452944206,-0.2001394450448
-0.304856874778949,-0.190862536276903
-0.331636830269962,-0.216056833650171
-0.315916408424877,-0.228653703151753
-0.295069507063734,-0.249443318181584
-0.320127225294255,-0.246631129261678
-0.314993802833567,-0.259657054485528
-0.325591765671837,-0.243590377372844
-0.338154805061801,-0.298607414017107
-0.3255072981876,-0.290113071989179
-0.329184182994714,-0.292434890237337
-0.349223670842791,-0.309989688981251
-0.328026982517536,-0.321466139866371
-0.333646813462548,-0.320485629871477
-0.33497852092567,-0.329927061298556
-0.336234162444363,-0.339413001459372
-0.337414909693292,-0.348942764767805
-0.32111739274959,-0.347875830177584
-0.339556616337104,-0.368130896625133
-0.310902382600536,-0.376078644855225
-0.330534967302402,-0.414314552264415
-0.342239195834526,-0.39722320374752
-0.342997571708188,-0.407000110705071
-0.341323901470626,-0.416227136276399
-0.344319426189256,-0.426667965543414
-0.320960101871098,-0.408856778410358
-0.35736301477319,-0.489368683848733
-0.325096437522566,-0.45522111488311
-0.325893164935776,-0.469876335103436
-0.346562282367047,-0.476458885721591
-0.326241575460284,-0.484425604143066
-0.308383190944534,-0.50940120332359
-0.347250317297787,-0.506718267725006
-0.354487842454754,-0.524343024249563
-0.359609980522471,-0.503487773553062
-0.347509592986995,-0.537228531132206
-0.347510784455272,-0.547448492065382
-0.347473189953326,-0.557691147969802
-0.360921993305936,-0.53250330253139
-0.349228233971443,-0.562427179574084
-0.342777643921731,-0.58460790666265
-0.333183528579698,-0.596924372380652
-0.354322483366148,-0.576817439505151
-0.369067528529857,-0.621204066059064
-0.346338033265983,-0.629899972905256
-0.346084690425569,-0.640268870394173
-0.345817691104973,-0.650645758747396
-0.343185128159718,-0.640514866208211
-0.319926448596285,-0.677197570743443
-0.362059603484043,-0.678769589533513
-0.344682069875072,-0.692192881198664
-0.343066301748443,-0.70592312694015
-0.344126106073977,-0.712959510456419
-0.352154579598823,-0.756085925869358
-0.322807860967647,-0.736932502427168
-0.392929249300611,-0.730872001852938
-0.355300399722861,-0.721466355644863
-0.331325282949239,-0.77598282637642
-0.342990437944145,-0.798337337264137
-0.342842791172001,-0.785255027729364
-0.345213079019979,-0.789373719107462
-0.368459212268653,-0.842048099087099
-0.311841460064787,-0.819273688961179
-0.323596416003416,-0.840344983546892
-0.363183565961958,-0.8341398401271
-0.346192190288424,-0.832797086275085
-0.325219317333439,-0.858632220767455
-0.344642016803325,-0.865967505313921
-0.353063838023844,-0.869658823656247
-0.346100944870891,-0.88555515380224
-0.34569623178133,-0.892227733329775
-0.348163612844475,-0.904789533834813
-0.349467805986377,-0.914247064813489
-0.350986059594559,-0.92357934183826
-0.352995537304737,-0.969345604701671
-0.333728524822995,-0.949563500777366
-0.377554199678637,-0.956313924255807
-0.347667722347965,-0.951530756833204
-0.389972775774641,-0.99965665642961
