-0.35158502538891,0.769528619528619
-0.349944256348599,0.760864591718046
-0.347596484092999,0.752262418673886
-0.344807555966988,0.743698841767236
-0.45753152449141,0.639083433903293
-0.338262139509455,0.726656338503196
-0.334605989982557,0.71816863363789
-0.330739089958864,0.709699367051886
-0.326686260213035,0.701246367208781
-0.322468009922379,0.692807839788064
-0.318101741884734,0.684382262242208
-0.313602525476056,0.675968316171652
-0.210346690999468,0.772753397937381
-0.299432829447723,0.650785274436544
-0.294521258571796,0.642407404707227
-0.289530979404695,0.634036421061112
-0.284470147068129,0.625671610017502
-0.279346315736095,0.617312310671809
-0.274166516348917,0.608957907896461
-0.268937320230722,0.600607826775091
-0.26366489177578,0.592261527993085
-0.258355032536571,0.583918503980369
-0.253013218461669,0.575578275653521
-0.247644631613079,0.567240389640862
-0.24225418738803,0.558904415900857
-0.236846558045124,0.550569945663847
-0.231426193166038,0.542236589641876
-0.225997337555946,0.533903976462613
-0.220564046987516,0.525571751291927
-0.215130202117079,0.517239574616384
-0.209699520841773,0.508907121162131
-0.204275569319188,0.500574078930806
-0.296598156719307,0.392207221058698
-0.19346141966058,0.483905041429477
-0.188077679064131,0.475568481197965
-0.177372115313237,0.458889943660692
-0.16676816913922,0.442202515737427
-0.161511075812839,0.433854875305518
-0.156287328633827,0.425504317463743
-0.151099388730843,0.417150626891242
-0.145949635059233,0.408793595456394
-0.140840367970122,0.400433021904552
-0.135773812509999,0.392068711569373
-0.130752121476566,0.383700476105463
-0.0254116024110848,0.474133159789219
-0.120851599445139,0.366951506544071
-0.115976737326431,0.358570425214645
-0.111154682128358,0.350184723878308
-0.101676255843963,0.333398825724128
-0.0970233734914569,0.324998323681627
-0.092430279134507,0.3165925908673
0.015347629691969,0.414789819831039
-0.0834298406401339,0.29976487420019
-0.0790255631994883,0.291342622046204
-0.0746872099441313,0.282914602273353
0.0213802859870418,0.377641274901215
-0.0662138824160449,0.266040769372273
-0.0620815978033753,0.257594720929279
-0.0580206188923708,0.249142434045745
-0.0540321817921511,0.240683800576135
-0.0425138619159379,0.215268793484974
-0.0352185153917627,0.198291900600202
-0.0282395795346585,0.181287325369043
-0.0248711461026626,0.172774448607119
-0.0215845995979821,0.164254407667364
0.0727596211192755,0.269537834026428
0.100873983995315,0.240757285119141
-0.0122246462925592,0.138650567969525
-0.00927384065681769,0.130101153509856
-0.00640884871974295,0.121544231324378
-0.00363035555131591,0.112979741477235
0.0016645559916233,0.0958278332094839
-0.0996708640052488,-0.00945384008017024
-0.101664056891537,-0.0407683767327835
0.00894290120493663,0.0700418764016818
0.0111898064586959,0.0614308786383374
0.0133463060467759,0.0528119714041275
0.13058350358536,0.161123045731519
0.0192691713473049,0.0269074254703196
0.0210599980204368,0.0182565260014933
0.0227585424242354,0.00959755288025591
0.134809535930169,0.1120686242803
0.0258776661067613,-0.00774471215951807
0.027297758851263,-0.0164280466442838
0.0298580063947403,-0.0338192070105398
0.03099784749622,-0.0425270603370045
0.0320440053843186,-0.0512431098826028
-0.0562710051690022,-0.167945084723683
0.0352905240775249,-0.0861893823052828
0.0363508161279722,-0.103711771772972
0.0367403946355645,-0.11248526457107
0.0370364038571628,-0.121266943620946
0.0372389863102312,-0.130056796453938
0.0373483131748015,-0.138854808093735
0.0372880287104197,-0.156475235303085
0.0368574968516333,-0.174128054962146
0.0365041236251224,-0.182966547614524
-0.0678607183107895,-0.292577623972751
0.0341783247546253,-0.218400334653594
0.0333708986222223,-0.22727855178788
0.0324740276783471,-0.23616459432918
0.0304140881982118,-0.253959968683371
0.029252166043733,-0.262869200200853
0.0280030924843779,-0.271786056478271
0.0266675201563751,-0.280710480417356
0.0252461341297057,-0.289642412082249
0.0237396523087062,-0.298581788664459
0.022148825857515,-0.307528544445641
0.0204744396514989,-0.316482610758096
0.0187173127558904,-0.325443915942904
0.0129582022940065,-0.352370502323507
-0.0877433536991521,-0.465795693890879
0.00648730677507803,-0.37935936182747
-0.000667383552169443,-0.406408045625338
-0.00319894285410183,-0.415437104866366
-0.113903314367997,-0.540084354738672
-0.00847469978172172,-0.433513826791181
-0.0112162961676417,-0.442561261895978
0.100443951775249,-0.350090843831876
-0.113803258355774,-0.569620077353601
-0.0228416869217293,-0.47880865780028
-0.0259053616696072,-0.487884271110515
-0.0290288244130407,-0.496965115192576
-0.0322104131287805,-0.506051044638271
-0.0387410470682935,-0.524237554075746
-0.0420864895779287,-0.533337818870882
-0.0489281723912117,-0.551551541558615
-0.0524204438155727,-0.560664652219267
-0.0559575796666238,-0.56978168800865
-0.0631577612092011,-0.588026775271084
-0.0668162815031125,-0.597154430823146
-0.0705106090730532,-0.606285219105933
-0.0779967554851561,-0.624555325052617
-0.0817833897462342,-0.633694189124445
-0.0855954533506269,-0.642835277975535
-0.206638345525266,-0.761180159740945
-0.093284435266361,-0.661123129729348
0.000872073441308546,-0.572044291753372
-0.101039745706825,-0.679416784477143
-0.104934277620338,-0.68856508837038
-0.116643835507295,-0.716012271443585
-0.120543271508315,-0.725161004388884
-0.128312426512164,-0.743455870379027
-0.230041266112181,-0.855142477080347
-0.136012618367658,-0.761744702875487
-0.262304047706897,-0.897723088580367
-0.147348461309495,-0.789159190127604
-0.151048237818618,-0.798290455130797
-0.154698617596724,-0.807417398480011
-0.158293029319686,-0.81653944525888
-0.16182444204718,-0.825655980339831
-0.175159403534873,-0.86205294430282
-0.18405553530136,-0.889253984484816
-0.1892677761197,-0.907325149470118
-0.191605256534322,-0.916337229008676
-0.193731986452147,-0.925330870267933
-0.195616818236694,-0.934303348182799
-0.0827246121042973,-0.853014501159251
-0.199407774286242,-0.96986531986532
-0.352514727466677,0.751832128134228
-0.353774235983615,0.742914358916316
-0.355375981438457,0.733966647846098
-0.258507242580038,0.799093874766174
-0.372743909601971,0.670794115515402
-0.382325346803088,0.643533118876824
-0.389168357627971,0.625319280003131
-0.392699770355465,0.616202744922179
-0.396294182078427,0.60708069814331
-0.399944561856533,0.597953754794096
-0.411167786841663,0.570549120336501
-0.418819348547011,0.552264542426884
-0.434348964167856,0.515675571106884
-0.438252835127214,0.506526450153007
-0.329183885669504,0.589060361965876
-0.45770836440879,0.460786429392647
-0.461562685396167,0.451641643499596
-0.469209409928917,0.433357488787745
-0.472996044189995,0.424218624715917
-0.476754516884789,0.415082224461885
-0.480482190602098,0.405948518769232
-0.48783503846595,0.387690074934384
-0.491455372528488,0.37856576024467
-0.50206462728394,0.351214841221914
-0.505509950897812,0.342105837962457
-0.512251752606858,0.323900853739046
-0.396960430675496,0.418123151273865
-0.61560802944288,0.208936800514302
-0.521963975262111,0.296628414855876
-0.525087438005544,0.287547570773815
-0.528151112753422,0.27847195746358
-0.53977650350751,0.242224561559277
-0.437717775147687,0.346269574121017
-0.54779385682105,0.215100404529665
-0.550325416122982,0.206071345288637
-0.561871805156732,0.161023284638199
-0.57146723932665,0.116145910421396
-0.577660319831527,0.0803737800806553
-0.677716904278129,-0.0751151895875571
-0.585171124429777,0.0180636343168941
-0.587850296526785,-0.0262086453745547
-0.588280828385571,-0.0438614650336155
-0.682803317423031,-0.163691478988779
-0.588231785985383,-0.0702799038827623
-0.587733194310716,-0.0878514357656308
-0.587343615803124,-0.0966249285637283
-0.58686035408215,-0.105390225142692
-0.695473049613082,-0.219051056721951
-0.585612467908602,-0.122896202251266
-0.580850806069892,-0.166517493326161
-0.579617395682418,-0.175217160400847
-0.475829169121522,-0.0759370902112131
-0.576870465781913,-0.192591988177182
-0.575357317378842,-0.201267181346746
-0.566404764712625,-0.244521816984159
-0.552657355666775,-0.296164533546184
-0.550053785887386,-0.304744327206855
-0.500875318786928,-0.432555416361959
-0.484778917259106,-0.466377469708974
-0.463094217557728,-0.508518186818465
-0.42521542142153,-0.575664833577058
-0.420240678198586,-0.584037176442164
-0.410152431705029,-0.600769722241253
-0.276506849136224,-0.537625790693197
-0.384224630535931,-0.642539216074128
-0.373620684361915,-0.659226643997393
-0.357531380014572,-0.684241741766177
-0.352131027841798,-0.692576848673077
-0.346717230355964,-0.700910779267506
-0.448878499113078,-0.800873142228595
-0.43968670474164,-0.82336922875413
-0.319566606509113,-0.742573289978576
-0.314146241630027,-0.750906646000547
-0.29263776713858,-0.78425520431707
-0.276826283326234,-0.809294608233161
-0.271646483939056,-0.81764901100851
-0.266522652607022,-0.826008310354203
-0.242009180346475,-0.867901541933073
-0.237390274199095,-0.876305016508352
-0.232891057790417,-0.884718962578908
