-0.87560650812025,-0.973891714905443
-0.875527145520485,-0.973808967131984
-0.875278357159687,-0.973570396879477
-0.874844156601301,-0.973190513107628
-0.874208675085438,-0.972683795259707
-0.873356201113569,-0.972064657572933
-0.87227121975468,-0.971347413620708
-0.87093845158414,-0.970546241166637
-0.869342891167301,-0.969675147409558
-0.867469845000901,-0.968747934697897
-0.865304968826471,-0.967778166790622
-0.862834304231384,-0.966779135740788
-0.860044314454726,-0.965763829476294
-0.856921919316941,-0.964744900150866
-0.853454529194133,-0.963734633336553
-0.849630077960034,-0.962744918127119
-0.845437054820918,-0.96178721821965
-0.840864534971225,-0.960872544039512
-0.835902209000234,-0.96001142597141
-0.830540410982946,-0.959213888756842
-0.824770145191211,-0.958489427115592
-0.818583111364238,-0.957846982646157
-0.8119717284808,-0.957294922057126
-0.804929156978787,-0.956841016778548
-0.797449319371227,-0.956492423999192
-0.789526919211418,-0.956255669172424
-0.781157458363534,-0.956136630030116
-0.772337252538812,-0.956140522140613
-0.763063445061281,-0.956271886043303
-0.753334018830944,-0.956534575988813
-0.743147806456341,-0.956931750310229
-0.732504498532474,-0.957465863447087
-0.72140465004423,-0.958138659640154
-0.709849684879578,-0.958951168311285
-0.697841898441067,-0.959903701138829
-0.685384458348337,-0.960995850835291
-0.672481403228658,-0.96222649163008
-0.65913763959671,-0.963593781456393
-0.645358936829143,-0.965095165837423
-0.63115192024363,-0.966727383463282
-0.616524062296398,-0.968486473446225
-0.60148367191639,-0.97036778423798
-0.586039881998373,-0.972365984189289
-0.57020263508139,-0.974475073728028
-0.553982667243026,-0.976688399128676
-0.537391490243916,-0.978998667842317
-0.520441371960811,-0.981397965352829
-0.50314531515037,-0.983877773521531
-0.485517034589512,-0.986428990379155
-0.467570932641843,-0.989041951320803
-0.449322073303122,-0.991706451656371
-0.43078615478216,-0.994411770465879
-0.411979480676805,-0.9971466957062
-0.392918929807773,-0.999899550512875
-0.373621924776116,-1.00265822063802
-0.354106399312933,-1.00541018296271
-0.334390764492639,-1.00814253501996
-0.314493873883645,-1.01084202546187
-0.294434987712652,-1.01349508540266
-0.274233736120987,-1.01608786056722
-0.253910081593425,-1.01860624417287
-0.233484280641782,-1.02103591047059
-0.212976844827235,-1.02336234887026
-0.192408501206808,-1.02557089857332
-0.171800152290728,-1.02764678363495
-0.151172835598479,-1.02957514837697
-0.130547682902246,-1.03134109307186
-0.109945879247174,-1.03292970981755
-0.0893886218383434,-1.03432611852246
-0.0688970788846782,-1.03551550291961
-0.0484923484900992,-1.03648314652888
-0.0281954176821255,-1.03721446848642
-0.00802712166784714,-1.03769505916048
0.0119918965933374,-1.0379107154735
0.031841226411508,-1.03784747585081
0.0515007288947249,-1.03749165471707
0.0709505758975435,-1.03682987646284
0.0901712883041059,-1.03584910880447
0.10914377356187,-1.03453669546204
0.127849362383697,-1.03288038808158
0.146269844537853,-1.0308683773294
0.164387503647536,-1.02848932308821
0.182185150923702,-1.02573238368669
0.199646157757374,-1.02258724409632
0.216754487100135,-1.01904414303163
0.23349472356419,-1.0150938988922
0.249852102176259,-1.01072793448774
0.265812535722522,-1.00593830048982
0.281362640625004,-1.00071769755693
0.296489761293026,-0.995059497082453
0.311181992896756,-0.988957760518104
0.325428202513397,-0.98240725722855
0.339218048600179,-0.975403480836324
0.352541998752015,-0.967942664019334
0.365391345705535,-0.960021791726795
0.377758221555085,-0.951638612782898
0.38963561015026,-0.942791649851115
0.40101735764859,-0.933480207735681
0.411898181201096,-0.923704380000488
0.422273675752589,-0.913465053889365
0.432140318942765,-0.902763913535487
0.441495474098399,-0.891603441451481
0.450337391311152,-0.879986918295583
0.458665206599788,-0.867918420913064
0.466478939159835,-0.855402818655963
0.473779486708006,-0.842445767987999
0.480568618932891,-0.829053705385333
0.486848969067677,-0.81523383854767
0.492624023604806,-0.800994135937909
0.497898110176608,-0.786343314672309
0.502676383630041,-0.771290826786768
0.50696481032766,-0.755846843908456
0.510770150710895,-0.740022240365571
0.514099940165548,-0.723828574771466
0.516962468233246,-0.707278070122788
0.519366756216178,-0.690383592454588
0.521322533226101,-0.673158628098544
0.522840210731966,-0.655617259593577
0.523930855663915,-0.63777414030112
0.524606162134559,-0.619644467780177
0.524878421841529,-0.601243955980092
0.524760493218217,-0.582588806311552
0.524265769402387,-0.563695677658859
0.523408145094955,-0.544581655398855
0.52220198238371,-0.525264219494095
0.520662075609011,-0.50576121172993
0.518803615350626,-0.486090802167047
0.516642151616821,-0.466271454882778
0.514193556318555,-0.446321893076066
0.511473985113225,-0.42626106361238
0.508499838703773,-0.406108101086134
0.50528772368018,-0.385882291479223
0.501854412991343,-0.365603035495196
0.498216806136174,-0.345289811649293
0.494391889163323,-0.324962139195144
0.49039669456935,-0.304639540969249
0.486248261185389,-0.284341506234569
0.481963594142318,-0.264087453604557
0.477559625004281,-0.243896694128758
0.47305317215998,-0.223788394620763
0.468460901560597,-0.203781541308759
0.46379928789236,-0.18389490388818
0.459084576270814,-0.164147000055101
0.45433274454265,-0.144556060597902
0.449559466279575,-0.12513999512352
0.444780074547119,-0.105916358493171
0.440009526529563,-0.0869023180408605
0.435262369090185,-0.0681146216462318
0.43055270534395,-0.0495695667314254
0.425894162317477,-0.0312829702495395
0.421299859768648,-0.0132701397300935
0.41678238023564,0.00445415455547682
0.412353740382372,0.021875706247745
0.408025363704455,0.0389808983147333
0.403808054656663,0.0557567271737053
0.399711974259752,0.072190825467051
0.395746617241134,0.0882714834429775
0.391920790760453,0.103987668894843
0.388242594767561,0.119329045616184
0.384719404036717,0.134285990331766
0.381357851917075,0.148849608068419
0.378163815835666,0.163011745932859
0.375142404585148,0.176765005267256
0.372297947424584,0.190102752156934
0.369633985017464,0.203019126268236
0.367153262227014,0.215509047998307
0.364857722784718,0.227568223922325
0.362748505843752,0.239193150527472
0.360825944424783,0.25038111622677
0.359089565757376,0.261130201649729
0.357538093515965,0.271439278210571
0.356169451945113,0.281308004958671
0.354980771864532,0.29073682371962
0.353968398540135,0.29972695253916
0.353127901403178,0.308280377446001
0.352454085595424,0.316399842553265
0.351941005314163,0.324088838521998
0.351581978926857,0.33135158941385
0.351369605821247,0.338193037963563
0.351295784952822,0.34461882930547
0.351351735047771,0.3506352931916
0.351528016415813,0.356249424742366
0.351814554323663,0.361468863774044
0.352200663876428,0.36630187275045
0.352675076350808,0.370757313409229
0.35322596692072,0.374844622116153
0.353840983712846,0.378573784003622
0.354507278126607,0.381955305952274
0.35521153635022,0.385000188477155
0.355940012001809,0.387719896582355
0.356678559822014,0.390126329650275
0.357412670342155,0.392231790433837
0.358127505449835,0.394048953221936
0.358807934771827,0.395590831250257
0.359438572792242,0.396870743431239
0.360003816622334,0.397902280478475
0.360487884336793,0.39869927050218
0.360874853790128,0.399275744153484
0.36114870182562,0.399645899396346
0.361293343788443,0.39982406598665
0.361292673253858,0.399824669738703
0.361130601880875,0.399662196659796
0.360791099301482,0.399351157033789
0.360258232955446,0.398906049534723
0.359516207780792,0.398341325451435
0.358549405670363,0.397671353103836
0.35734242460538,0.396910382531086
0.355880117377618,0.396072510531268
0.3541476298127,0.395171646131355
0.352130438408147,0.394221476565278
0.349814387301058,0.393235433836762
0.347185724481814,0.39222666194224
0.344231137171854,0.391207984827708
0.340937786285406,0.390191875151662
0.33729333989711,0.3891904239245
0.333286005639646,0.388215311092736
0.328904561957878,0.387277777134287
0.324138388148534,0.386388595728788
0.318977493117166,0.385558047564478
0.313412542786956,0.384795895340632
0.307434886096952,0.384111360021834
0.301036579530424,0.38351309839757
0.29421041011733,0.38300918199766
0.286949916858241,0.38260707741103
0.279249410520604,0.382313628052143
0.271103991761842,0.382135037416181
0.262509567537493,0.382076853860692
0.253462865756426,0.382143956948007
0.243961448149063,0.382340545379221
0.234003721318505,0.382670126546958
0.223588945948523,0.383135507730484
0.212717244146453,0.383738788953076
0.201389604903208,0.384481357517792
0.189607887656803,0.385363884234029
0.177374823949996,0.386386321343462
0.164694017176926,0.387547902150126
0.151569940417849,0.388847142355601
0.13800793236536,0.390281843096387
0.124014191349708,0.391849095676794
0.109595767475087,0.393545287986797
0.094760552882951,0.395366112590572
0.0795172701625976,0.397306576467656
0.0638754589333972,0.399361012384951
0.0478454606270944,0.401523091874155
0.0314384015026433,0.403785839785567
0.0146661739299666,0.406141650385691
-0.0024585840171224,0.408582304962585
-0.0199225106148075,0.411098990899514
-0.0377115441422863,0.413682322174159
-0.0558109480826652,0.416322361237439
-0.0742053378170286,0.419008642222898
-0.0928787087536526,0.421730195434593
-0.111814465831136,0.424475573058587
-0.130995454331153,0.427232876040339
-0.150403991933614,0.429989782067715
-0.170021901944247,0.432733574596799
-0.189830547622012,0.435451172855371
-0.209810867531282,0.438129162756705
-0.229943411841456,0.44075382865425
-0.25020837949456,0.443311185865926
-0.270585656159432,0.445787013894943
-0.291054852889359,0.448166890272548
-0.311595345398433,0.450436224946641
-0.332186313870547,0.45258029513898
-0.352806783213725,0.454584280592637
-0.373435663671514,0.456433299130441
-0.394051791702338,0.458112442444467
-0.414633971037148,0.45960681203605
-0.435161013825267,0.460901555225478
-0.455611781778144,0.461981901150329
-0.475965227220745,0.4628331966714
-0.49620043396047,0.4634409421054
-0.51629665788394,0.463790826703903
-0.536233367192557,0.463868763798625
-0.555990282188559,0.463660925533806
-0.575547414524293,0.463153777107385
-0.594885105828606,0.462334110443699
-0.613984065625654,0.461189077221738
-0.632825408462978,0.459706221184358
-0.651390690167483,0.457873509655451
-0.66966194314987,0.455679364193841
-0.687621710680193,0.453112690314542
-0.705253080059503,0.450162906210105
-0.722539714614992,0.446819970406979
-0.739465884448674,0.443074408294175
-0.756016495872401,0.438917337464011
-0.772177119464929,0.43434049180735
-0.787934016689838,0.429336244308508
-0.803274165016289,0.423897628487895
-0.818185281487926,0.418018358443428
-0.832655844688702,0.411692847444902
-0.846675115057977,0.404916225038675
-0.860233153510864,0.397684352623368
-0.873320838323622,0.389993837460639
-0.885929880247728,0.381842045088599
-0.898052835820192,0.373227110108963
-0.909683118841713,0.36414794532264
-0.920815009998325,0.354604249192165
-0.931443664606329,0.344596511613049
-0.94156511846447,0.334126017979921
-0.951176291801531,0.323194851537102
-0.96027499131175,0.311805894007077
-0.968859910274717,0.299962824494142
-0.97693062676067,0.287670116664367
-0.984487599926353,0.274933034206824
-0.991532164410874,0.261757624584841
-0.998066522845176,0.248150711089903
-1.00409373649298,0.234119883214506
-1.00961771404516,0.219673485364093
-1.01464319859369,0.20482060393185
-1.01917575281519,0.189571052763785
-1.02322174239835,0.173935357045101
-1.02678831775303,0.157924735642403
-1.02988339404309,0.141551081939657
-1.03251562958831,0.124826943209247
-1.0346944026847,0.107765498562674
-1.03642978689576,0.0903805355286325
-1.03773252487094,0.0726864253092274
-1.0386140007504,0.0546980967680761
-1.03908621121879,0.0364310092068162
-1.03916173527332,0.0179011239892639
-1.03885370277459,-0.000875124924976434
-1.03817576185105,-0.0198808614732311
-1.0371420452308,-0.0390987989422856
-1.03576713557651,-0.0585112723120902
-1.03406602990167,-0.0781002714200048
-1.03205410314831,-0.0978474748731391
-1.02974707100816,-0.117734284634671
-1.027160952071,-0.137741861208519
-1.02431202938526,-0.157851159345448
-1.02121681151739,-0.178042964192476
-1.01789199319749,-0.198297927806506
-1.01435441563963,-0.218596605952293
-1.01062102662608,-0.238919495104192
-1.00670884044501,-0.259247069570738
-1.00263489777164,-0.279559818660771
-0.998416225582898,-0.299838283809789
-0.994069797195592,-0.320063095585251
-0.989612492517641,-0.340215010489874
-0.985061058601635,-0.360274947482362
-0.980432070589127,-0.380224024135707
-0.975741893133246,-0.40004359235391
-0.971006642386091,-0.419715273569095
-0.966242148636116,-0.43922099334199
-0.961463919679213,-0.458543015290205
-0.956687105005546,-0.477663974270188
-0.951926460882369,-0.496566908740358
-0.947196316410985,-0.515235292234852
-0.942510540633884,-0.533653063879159
-0.937882510765625,-0.551804657881211
-0.933325081618622,-0.569675031933612
-0.928850556292177,-0.587249694465271
-0.92447065819036,-0.604514730683149
-0.920196504431287,-0.621456827347593
-0.916038580707242,-0.638063296227528
-0.912006717651824,-0.654322096184701
-0.908110068766909,-0.670221853839282
-0.904357089958719,-0.685751882772198
-0.900755520728659,-0.700902201222922
-0.897312367060898,-0.715663548244734
-0.894033886044817,-0.730027398282927
-0.890925572266592,-0.74398597414493
-0.887992146000179,-0.757532258334924
-0.885237543223942,-0.77066000272913
-0.882664907485073,-0.78336373657168
-0.880276583629779,-0.795638772774709
-0.878074113413066,-0.807481212510039
-0.876058232997677,-0.818887948083719
-0.874228872347572,-0.829856664088394
-0.872585156516996,-0.840385836832419
-0.871125408832035,-0.850474732048366
-0.8698471559572,-0.860123400887487
-0.868747134835447,-0.869332674210445
-0.867821301485776,-0.878104155188456
-0.867064841638398,-0.886440210232718
-0.866472183183357,-0.894343958273732
-0.866037010404384,-0.901819258415781
-0.865752279965795,-0.908870695995468
-0.865610238616276,-0.915503567076712
-0.86560244256957,-0.921723861418146
-0.865719778518291,-0.927538243952177
-0.865952486233451,-0.932954034818349
-0.866290182698695,-0.937979187996805
-0.866721887724821,-0.942622268590772
-0.867236050986813,-0.946892428810008
-0.867820580422432,-0.950799382710002
-0.868462871928343,-0.954353379744509
-0.869149840286848,-0.957565177191593
-0.869867951253505,-0.960446011515906
-0.870603254733344,-0.963007568732228
-0.871341418970876,-0.965261953837533
-0.872067765676883,-0.967221659380926
-0.872767306012795,-0.968899533242644
-0.873424777351575,-0.970308745695133
-0.874024680732265,-0.971462755820728
-0.874551318923754,-0.972375277361934
-0.874988835011997,-0.973060244081515
-0.875321251423678,-0.973531774710702
-0.875532509298347,-0.973804137564704
-0.87560650812025,-0.973891714905443
