0.756850897956582,-0.634197217946714
0.756854345199361,-0.634108429062413
0.756857765057545,-0.634017884779801
0.756861154451053,-0.633925541890107
0.756864510136002,-0.633831355913844
0.75686782869649,-0.633735281057425
0.756871106535962,-0.633637270168092
0.756874339868114,-0.633537274687093
0.756877524707337,-0.633435244601021
0.756880656858648,-0.633331128391246
0.756883731907095,-0.633224872981344
0.756886745206605,-0.633116423682444
0.756889691868238,-0.633005724136396
0.756892566747819,-0.632892716256665
0.756895364432911,-0.63277734016685
0.75689807922909,-0.632659534136714
0.756900705145484,-0.632539234515632
0.756903235879533,-0.632416375663309
0.756905664800927,-0.632290889877679
0.756907984934669,-0.63216270731983
0.756910188943222,-0.632031755935826
0.756912269107673,-0.631897961375293
0.756914217307872,-0.631761246906603
0.756916025001474,-0.631621533328509
0.756917683201822,-0.631478738878068
0.756919182454609,-0.631332779134658
0.756920512813235,-0.631183566919934
0.756921663812793,-0.631031012193508
0.75692262444259,-0.630875021944161
0.756923383117129,-0.630715500076365
0.756923927645443,-0.630552347291909
0.756924245198691,-0.630385460966363
0.75692432227591,-0.630214735020162
0.756924144667809,-0.630040059784026
0.756923697418478,-0.62986132185845
0.756922964784891,-0.629678403966976
0.756921930194066,-0.629491184802923
0.756920576197733,-0.629299538869283
0.756918884424352,-0.629103336311409
0.756916835528317,-0.628902442742161
0.756914409136175,-0.628696719059118
0.756911583789652,-0.628486021253468
0.756908336885305,-0.628270200210139
0.756904644610569,-0.628049101498743
0.756900481875969,-0.627822565154858
0.756895822243255,-0.627590425451145
0.756890637849187,-0.627352510657796
0.756884899324699,-0.627108642791737
0.756878575709119,-0.626858637354028
0.756871634359141,-0.626602303054821
0.756864040852188,-0.626339441525243
0.756855758883796,-0.626069847015509
0.75684675015862,-0.625793306078531
0.756836974274639,-0.625509597238266
0.756826388600089,-0.625218490641986
0.756814948142645,-0.624919747695603
0.756802605410309,-0.624613120681146
0.756789310263456,-0.624298352355428
0.756775009757407,-0.623975175528873
0.75675964797489,-0.623643312623443
0.756743165847681,-0.6233024752085
0.756706587379539,-0.622592665915612
0.756686355375174,-0.622223058402752
0.756664731253887,-0.621843204007527
0.756616990432582,-0.621051338331191
0.756562685819458,-0.620214090699435
0.756532837921347,-0.619777450620392
0.756501057018435,-0.619328234302129
0.756467233630517,-0.618865995626784
0.756431251799772,-0.618390269812349
0.756392988676815,-0.617900572520638
0.756352314078032,-0.617396398917808
0.75630909001205,-0.6168772226847
0.756263170173013,-0.616342494974099
0.756214399398146,-0.615791643311813
0.756162613086888,-0.615224070438313
0.756107636578648,-0.614639153087462
0.756049284485996,-0.614036240698641
0.755987359979844,-0.613414654058373
0.755921654022874,-0.612773683867293
0.755851944547168,-0.61211258922807
0.755777995571654,-0.611430596049607
0.755699556254603,-0.610726895362574
0.755616359876023,-0.610000641541032
0.75552812274435,-0.609250950424568
0.755434543021348,-0.608476897335049
0.755335299458628,-0.607677514981744
0.755230050038608,-0.606851791248183
0.75511843051213,-0.605998666853746
0.755000052824248,-0.605117032882541
0.754874503418995,-0.604205728171723
0.75474134141309,-0.603263536550933
0.754600096627697,-0.602289183924084
0.75445026746635,-0.601281335184193
0.754291318626128,-0.600238590951486
0.754122678627994,-0.599159484124438
0.753943737150959,-0.598042476232877
0.75375384215334,-0.596885953581699
0.753552296762886,-0.595688223173173
0.753338355915883,-0.594447508395222
0.752870044541977,-0.59182957359609
0.75234183799651,-0.589016084117239
0.75107210850266,-0.582729703055293
0.750703069842848,-0.581005907814745
0.750310565610277,-0.579215619157165
0.749893000720421,-0.57735577481559
0.749448661676995,-0.575423153538335
0.748472156985863,-0.571325847285267
0.747364591383123,-0.56689440655305
0.746755818214216,-0.564543378638993
0.74610690664237,-0.56209638452253
0.745414995236277,-0.559548818248485
0.744677000019744,-0.556895831209597
0.743889595814695,-0.554132319372993
0.743049195933443,-0.551252909985341
0.742151930071069,-0.548251947769377
0.741193620235714,-0.545123480632953
0.740169754540749,-0.54186124492196
0.737905464795273,-0.534908764038507
0.735315138256532,-0.527337580359096
0.733881982692562,-0.523300563592903
0.732347399621547,-0.519084784673415
0.730703582260612,-0.514681361316325
0.72705372680134,-0.505273853761994
0.725028611330636,-0.500249764554331
0.722855979807315,-0.494997995826477
0.720524179841624,-0.489507350529862
0.718020579679995,-0.483766138265426
0.715331484195486,-0.477762171176477
0.712442044128414,-0.471482763797182
0.709336158198726,-0.464914737764493
0.702403743509059,-0.450857722782845
0.698537764507139,-0.44334004559689
0.679866687718386,-0.409655478047071
0.654671348599403,-0.369433850536301
0.647088712834008,-0.358239935749961
0.630080127184673,-0.334385586072899
0.620554384564667,-0.321700800781857
0.599183299224063,-0.294768719510371
0.587215909640712,-0.280509957046892
0.574306123993915,-0.265720554735174
0.560383225391102,-0.250404037940292
0.545372728173735,-0.234568997912351
0.529196574366052,-0.218229996169662
0.511773447714535,-0.201408569267475
0.451171017020585,-0.148393640976202
0.427901476099852,-0.130038113204176
0.317210053404333,-0.0553146330266185
0.250281168484375,-0.0188529879527706
0.175130298666208,0.0152663429203947
0.0471376222683967,0.0582034102371306
-0.0474387251465309,0.0782720733143631
-0.0970164169984958,0.0848702476747469
-0.147791794144815,0.0887784532561925
-0.199451779052769,0.0897035084027152
-0.251628686385282,0.087367160308204
-0.355797071372042,0.0719291641302375
-0.406799165672778,0.0584335134098505
-0.503876201706399,0.0193004449852854
-0.548773987949129,-0.00637494593729238
-0.590451424230256,-0.0360216336781109
-0.661870805627647,-0.106437902671655
-0.743922104044935,-0.281898001057104
-0.715188649421009,-0.524198479745139
-0.665764076932101,-0.614270746159296
-0.634431684671071,-0.656028271419347
-0.599358866043032,-0.695176221475699
-0.561082373777107,-0.73148402161898
-0.520146261647687,-0.764790495018436
-0.47708819633469,-0.795000651823302
-0.38665608557202,-0.846050874946726
-0.293563705839351,-0.884972993498588
-0.247029508338926,-0.900170350797676
-0.200952815728168,-0.912733752869883
-0.0680513164681999,-0.936459444760518
-0.0261768005274781,-0.940357866546939
0.0142554558238199,-0.942573135015124
0.0531580164029426,-0.943290715167492
0.160214899811815,-0.938173091110468
0.192634998958688,-0.934560535212795
0.223440987499615,-0.930223272987467
0.25266366107508,-0.925280370646419
0.280343320988526,-0.919839156139757
0.30652762600263,-0.913995714878185
0.354626682147459,-0.90143406192638
0.416988790380693,-0.881404282167249
0.452751441315508,-0.867850591808047
0.46906961619704,-0.861125446482471
0.484422646928262,-0.854471689562946
0.49886583328031,-0.847911360429249
0.525232842660466,-0.835140189744732
0.548567507334944,-0.822918776600778
0.56922837325553,-0.811312150127065
0.603775436954532,-0.790055344643362
0.611199185931757,-0.785151976748201
0.618197622423285,-0.780410336674391
0.647686829558642,-0.759027258222212
0.65731760179782,-0.751491745980826
0.661743266203288,-0.74792595054682
0.6551082155391,-0.703842784767203
0.697864093623308,-0.732057262628599
0.658489674829303,-0.704251909153617
0.705577316911161,-0.748663702394196
0.689668121023593,-0.723692459596098
0.692397630334315,-0.721138960668002
0.70772090045606,-0.75197180483698
0.729569441753747,-0.720817203094036
0.716173685582582,-0.685831613647339
0.746694104728317,-0.653175302548899
0.709550317390954,-0.73401733270329
0.708985443669348,-0.65078350017514
0.717853075075409,-0.695217206539198
0.719231699059601,-0.693681528179316
0.728290952489306,-0.683142640276168
0.729216746146355,-0.682016458544777
0.759416442973066,-0.650540050146711
0.723827668917996,-0.630254449185483
0.732553752352661,-0.677869008953086
0.752763840328549,-0.710032272872827
0.737799848894054,-0.671029813611516
0.769277256455492,-0.703793887716617
0.767201569967853,-0.644408731867209
0.739797055244827,-0.65545533166311
0.776969650611601,-0.634519625133248
0.765916381407654,-0.71209906426058
0.713430927321637,-0.645683683260403
0.744533423078485,-0.661506803080644
0.748392258755388,-0.68405603771336
0.746230073375682,-0.658930576173976
0.775633013655474,-0.617411930198442
0.747624000449353,-0.656744553869225
0.747451943805009,-0.696360724239587
0.768381541493023,-0.631402530079861
0.703339652004575,-0.680310899720694
0.724282391691168,-0.648756202737475
0.75079135130215,-0.651481139441128
0.767151115769959,-0.686139219879211
0.712062850842258,-0.651920089725953
0.752390532242003,-0.648612008422609
0.703082513545338,-0.63162073430014
0.752675807601742,-0.648079921473632
0.756227698127795,-0.660242175471871
0.716994294758359,-0.660767055003637
0.745023947175121,-0.642943859425005
0.710115275849072,-0.678391694472081
0.762335966752239,-0.606467989480423
0.753841295485672,-0.645823266850807
0.753950945924246,-0.656185614437333
