0.944145597552196,-0.324355023588573
0.919219052123623,-0.262583752438049
0.93171272477224,-0.280325537111476
0.993794731679029,-0.257680042515386
0.937794499007224,-0.259321962932802
0.921913338279683,-0.212407975888452
0.938318604200488,-0.223855935725248
0.934845873191998,-0.197366391617377
0.937986392999989,-0.199930838974056
0.948314692079599,-0.152273280456579
0.948003780491312,-0.132089453617133
0.967363128349686,-0.139993238697481
0.907456541348389,-0.143214828641738
0.858213344641244,-0.0990867473944572
0.869165307056323,-0.0935745726293793
0.848056728079306,-0.0963496999036942
0.828698454489917,-0.0336239551445616
0.828064806690705,-0.073217568582134
0.838561994215504,-0.0330516135152918
0.827541114576858,-0.0186929813983059
0.839216671638312,-0.0272426901046037
0.849571812704915,-0.0528953693420888
0.823455280636482,0.00528718883224217
0.816147585181808,0.00386392666092523
0.774676041737881,-0.0240535752182516
0.804679787369238,0.0344951852039911
0.799944592704152,0.0465993772803187
0.825152857963762,0.0726522188688397
0.778742503013381,0.0660333035639957
0.817989452910415,0.0919525920209115
0.746997534708347,0.105001485129127
0.787318401400773,0.128062409002553
0.789303322798564,0.121536314589423
0.806304315824331,0.14769951329552
0.792082538654669,0.148431399131258
0.794424914720546,0.162383443870512
0.787972311615705,0.206927882908
0.787803097828442,0.237684161202766
0.769318917349675,0.185939744372014
0.808094352142065,0.221807874018914
0.805515067237406,0.278543910525885
0.776405173461587,0.254515970142965
0.815454535822784,0.237383478466302
0.861372879588299,0.258416060311614
0.778939621032369,0.287588676007122
0.864699392200797,0.330830458088926
0.876150162495924,0.348452207233713
0.795236805713199,0.339781494830386
0.864573913188574,0.337325116756554
0.834221698123615,0.387447110675021
0.79939323528172,0.441841759375069
0.823169395697086,0.422013901307997
0.828418959924515,0.435843733352689
0.874126585565019,0.455029968573137
0.866687047293064,0.501115987139116
0.844719428157767,0.4909077369573
0.805780928366261,0.493646912431502
0.81826755435402,0.55358494038534
0.764463556475957,0.489303827607543
0.758270905780786,0.498290560476108
0.753377337419225,0.524591215154889
0.787463800320928,0.574922087646527
0.718013519869603,0.592798598161357
0.683474612647258,0.516553421204436
0.75600466896594,0.554482796401013
0.695564842318297,0.552339901205436
0.690663831372847,0.601466562335001
0.664206596655567,0.589120132605881
0.605280443278108,0.642823058412278
0.592409591313228,0.575995680899051
0.596597891152949,0.622334554148604
0.580001544995067,0.639005240282593
0.580261307910463,0.602996764035714
0.537298878019571,0.650858402134146
0.519354729138802,0.605833009767916
0.524250601818067,0.637426425313487
0.548579706811004,0.624681783201054
0.499663701222412,0.609660350948122
0.484698618023321,0.611194061478377
0.486266664570477,0.574747880520869
0.433988288428137,0.576437782684976
0.422389151736362,0.57947460412766
0.429861691515724,0.62115126316354
0.41993245551486,0.632776785667761
0.439849249357624,0.600271573913075
0.383631024161924,0.619276322943442
0.372238063274689,0.628214187854241
0.360710940253122,0.618713575818815
0.386331844796105,0.691754663226414
0.352223127444163,0.663398715587216
0.386004886940015,0.69025482704599
0.332928516369163,0.682340404972056
0.323480816136404,0.69287070593414
0.31408119423452,0.704036472725494
0.293348511422594,0.690415737013093
0.3080625301632,0.719874368243854
0.325580771872515,0.715778510492321
0.23713056755475,0.781708045423977
0.265655053836418,0.766636405398614
0.269163025385916,0.80876717797409
0.274470637503811,0.835445312027263
0.233570069481011,0.805972270596081
0.268116287616478,0.815443845489995
0.215462306861873,0.785379339223755
0.152580002060295,0.887347805182951
0.185398279581175,0.853920340278343
0.129949639041579,0.908819688134599
0.157011812658515,0.903254441286277
0.115062728599739,0.918518359132954
0.130875893123016,0.889948022396518
0.161059887776514,0.893558288463137
0.123294303067849,0.871148305811419
0.117382825550264,0.890388816447676
0.0715689661217356,0.908288589293824
0.0123235042182653,0.8744194824746
0.00665478057873936,0.897142082947488
0.0499933264915589,0.873039966026639
0.0103978526835487,0.906111500148808
-0.00169889022839288,0.8779036376259
0.0229904159464067,0.928126149565249
-0.0275500725829371,0.924746501965277
-0.0356963545253799,0.916285655431852
-0.0636147960055568,0.876009785984162
-0.0776449801443767,0.866963771415875
-0.0913451551697794,0.857127898782371
-0.121061806514539,0.829385885430398
-0.133440729450189,0.879615697744302
-0.169204333645049,0.787319388929835
-0.169092824063499,0.784621108482022
-0.154533373938887,0.800148767417233
-0.166143048051002,0.788047821958621
-0.181536483534649,0.727412834322866
-0.177493705389907,0.73478524392705
-0.215199369332869,0.721551493540045
-0.220711504546502,0.765970421958847
-0.2552407838132,0.773294235097958
-0.230982782370725,0.720364692181656
-0.250005200441223,0.745915062540859
-0.271102706023033,0.661015757726161
-0.226650063216967,0.665376671248235
-0.295811523605716,0.71248325369891
-0.326392475039603,0.726766650983307
-0.288913992733553,0.645497290327127
-0.312771301483904,0.713701259024739
-0.31889530535511,0.665434653862724
-0.331201766307053,0.662118901089294
-0.325680942493834,0.68405657445924
-0.357123730310173,0.65758602273504
-0.362580052297843,0.620772662162545
-0.344295588571404,0.609801412330005
-0.419799240465622,0.704163503004493
-0.438073199210834,0.6246062388839
-0.448741891312908,0.643913240100372
-0.426560500292968,0.688067043602433
-0.5092656460976,0.617473545187742
-0.478625788352325,0.656207340970397
-0.534779872188735,0.701087038444908
-0.536572454490149,0.644589601579691
-0.558209866975755,0.623849302641486
-0.546450469080059,0.654636511750969
-0.518775749205498,0.673086995818328
-0.580301142803859,0.650831088502267
-0.627966037715616,0.642872890412938
-0.649521515352547,0.642781861412005
-0.588593739696197,0.606527506873876
-0.644345081341965,0.63409828998075
-0.653528008103836,0.610954376506095
-0.673106078734476,0.620396682857912
-0.686382808684884,0.612130791167814
-0.675250336039017,0.600658380108838
-0.688575477541861,0.578412722313061
-0.7039898378439,0.574071436036017
-0.775085261771108,0.533814645220037
-0.784090303340209,0.537735227932672
-0.746822070218055,0.543600524172436
-0.709883236787679,0.536892101378685
-0.758871582727929,0.51455213633532
-0.763363466307776,0.499146910824848
-0.766869984198072,0.48325792500559
-0.769433734074091,0.466966993526323
-0.771108951822495,0.450357656030978
-0.803706359252061,0.482524880529683
-0.772064942951215,0.416518671408909
-0.814680887031445,0.379921462715338
-0.770376271909082,0.38239441663972
-0.744561535989309,0.401884492006051
-0.766810007607305,0.348585415521726
-0.76458762089194,0.331963790713387
-0.762220493922793,0.315605127204089
-0.711810003538096,0.348725251770082
-0.803489798980865,0.300488009830634
-0.706028188540761,0.220094736799375
-0.801817912502585,0.281768638899387
-0.748313736863978,0.228606156697456
-0.751147123153611,0.224954971125445
-0.757244411363509,0.20003353958939
-0.793773218288172,0.151327096588755
-0.798931536094379,0.19305200864857
-0.753779518840667,0.172332479775383
-0.792371600529823,0.175018482984952
-0.759727999539069,0.147942077685085
-0.763964260549436,0.136089207053596
-0.769044853543597,0.124400290403886
-0.774954287230058,0.11282392966995
-0.781662986740138,0.1013074794319
-0.830370825554723,0.0425323530289811
-0.757175047906472,0.102853687242202
-0.796331623514591,0.100008103405492
-0.777370249886726,0.103649804633576
-0.811674628626631,0.0782577041607051
-0.83539061879681,0.0306354983613774
-0.845798711461728,0.0181849060063018
-0.856340384026365,0.00545375124962428
-0.837701338165508,0.0319516257736386
-0.877340519902628,-0.0209202532364946
-0.905268319485853,-0.0816537414596402
-0.883701312743891,-0.0362491571793748
-0.955918881020002,-0.0420199529546039
-0.915412944065132,-0.027500497853006
-0.881753007079319,-0.0708755684204069
-0.892049930748799,-0.100728850060211
-0.966628267294627,-0.159086679927812
-0.942379121065448,-0.13789557708284
-0.993505545937866,-0.124303082251928
-0.945811565613741,-0.200058266542307
-0.951414333194043,-0.18445850725315
-0.980050833094597,-0.245910693388836
-0.988270487822496,-0.208307313075894
-0.949236993108191,-0.230468544748368
-0.954955872233878,-0.269124589243262
-0.906997697001669,-0.309248085295333
-0.935518476152922,-0.274439747287177
-0.91990112285795,-0.316126119284308
-0.963848089642146,-0.293862270604559
-0.952752671767349,-0.364906703524374
-0.900840402305415,-0.327736832792743
-0.907255606727805,-0.317768452502091
-0.913692480232352,-0.343948362271465
-0.827174563188903,-0.355415043401734
-0.837067664495882,-0.343968439976313
-0.835656843959226,-0.410911201957771
-0.872535292791711,-0.383842527944751
-0.786182771255865,-0.370743010147131
-0.750985224157367,-0.418163934988289
-0.793648399753327,-0.406323377360567
-0.768438734465343,-0.460198162439093
-0.770695703945397,-0.397242051017684
-0.73926126532539,-0.444609723639812
-0.767121472960581,-0.482947113734972
-0.712969465319016,-0.460505484464922
-0.697936937779109,-0.49400650306613
-0.722826530519451,-0.524347659804912
-0.678131806857266,-0.484748618326614
-0.667883369622524,-0.49326946390951
-0.626515086631212,-0.521882725642144
-0.643016840356524,-0.466049864851482
-0.628033505396732,-0.502393087800437
-0.634226961699881,-0.531219015544985
-0.627601279820538,-0.541921201732326
-0.631374464393671,-0.53896920876159
-0.616263923071176,-0.565019213770518
-0.61144280543706,-0.577444675530953
-0.607098570189813,-0.590456704209777
-0.621568122687628,-0.625326530337364
-0.582478906852267,-0.667016921903756
-0.550381646445996,-0.643519095005017
-0.566933302375569,-0.68994832825402
-0.570184376475751,-0.710762257636604
-0.547166410200655,-0.719354832162849
-0.58306193866954,-0.695593637749887
-0.579454870389973,-0.711970648234354
-0.575535282200036,-0.728456127945327
-0.571221558911484,-0.744955180666463
-0.547368413096719,-0.723882132165025
-0.544780107541605,-0.794293946484936
-0.583794306818748,-0.816691833902537
-0.530285624304489,-0.807105877424391
-0.582773891387985,-0.834538817644578
-0.571634465874983,-0.867468429703353
-0.528132694442359,-0.881832160405133
-0.469799696720129,-0.839098173889256
-0.504873192670147,-0.877229280123891
-0.49099071428449,-0.887764755448664
-0.501381468885714,-0.873029572793111
-0.469656995148255,-0.907428642958205
-0.472042517027781,-0.928061155472673
-0.442777025747088,-0.922055526414974
-0.427694914288412,-0.901707151358244
-0.391647486319142,-0.957987471905967
-0.355297940613159,-0.935871213537905
-0.382597769863187,-0.937291836523061
-0.3446996872221,-0.916928414698388
-0.332439896516169,-0.919521584909239
-0.293590824371005,-0.942210824863532
-0.27283979403591,-0.940968565353322
-0.328835212836863,-0.8949616642329
-0.284086409739623,-0.928339913485813
-0.27454401602378,-0.88555180148928
-0.245481873786799,-0.950056646797319
-0.248497056884457,-0.931995137150551
-0.254476007668958,-0.899156862294589
-0.179272896945316,-0.859017949699176
-0.170601206058321,-0.847845459728899
-0.172780264647523,-0.890376452400873
-0.111963890313819,-0.905617109963416
-0.163827756176634,-0.84136806076734
-0.129370032944016,-0.874022571384026
-0.115530165678535,-0.869387346037707
-0.0902458596804267,-0.890063060306641
-0.134720977082351,-0.889066565072782
-0.0828554636729256,-0.852182810761521
-0.0869739844256962,-0.876927786331325
-0.0918159021736455,-0.817723348519687
-0.0375066694787241,-0.855927650452487
-0.0249888201297863,-0.856548368528074
-0.0287395212679668,-0.881164199428494
0.0196146167131889,-0.89504082404056
0.0211078465168454,-0.832866810193195
-0.023319836343349,-0.853807787094356
0.0382393452643459,-0.872272632744965
0.0402523562755222,-0.852434843575917
0.112265199645503,-0.850187245955185
0.0782072266245673,-0.89012848867071
0.0605371484134854,-0.877154334190904
0.087775155417265,-0.865477014910459
0.143541248618288,-0.950815516808473
0.168147977449939,-0.938839272376131
0.150478337172463,-0.926422622832511
0.165811027478,-0.93363669386585
0.163306947944024,-0.916935150732975
0.184642223113351,-0.907979460486275
0.213217549713961,-0.952999545351396
0.229364302017167,-0.958303290216656
0.245605239572835,-0.962849842042169
0.261885588777196,-0.966541274870071
0.305360161005203,-0.994454568326634
0.257621722173893,-1.00289174132267
0.309639176694202,-0.972840558531971
0.362483694624652,-0.984960413019779
0.34173201014363,-0.969462636984025
0.356941605040121,-0.966565735729357
0.373835604485598,-0.9942387602086
0.386103976188807,-0.957101690845214
0.401349920347951,-0.999457086159732
0.445342989516837,-0.980590710640123
0.447397988168907,-0.884166425665203
0.42342879018248,-0.90095626400929
0.449379930445611,-0.912999007133997
0.460111054555728,-0.901068333789351
0.470164290587674,-0.888274273317179
0.462564017363687,-0.851613566468272
0.502368731528702,-0.822633659085509
0.505635540245331,-0.811094309253135
0.513958174831833,-0.869948954328738
0.540362473018634,-0.858020748506956
0.498733817136954,-0.83582595515399
0.497891405333886,-0.75377224556564
0.528542465517793,-0.766912512042464
0.533752016996861,-0.750972688098367
0.580494740273487,-0.740858906218136
0.585835417389415,-0.766492004046249
0.568714058924123,-0.669340757456159
0.507468997604086,-0.676094968488392
0.540924067196122,-0.638001284456323
0.539946510961335,-0.683317811171082
0.579499059171941,-0.639031174367464
0.573682138186929,-0.636211038172825
0.584937089320585,-0.619642569797505
0.545710207732883,-0.603786342384938
0.59327568359757,-0.602460386870005
0.570241622351489,-0.617707260487426
0.609217678375668,-0.583066342958515
0.576048170011112,-0.62371266657089
0.627826272471616,-0.565898356975672
0.625449983420731,-0.524555475555666
0.649214412824006,-0.550567256029554
0.660933519492557,-0.543436491055651
0.6733021149037,-0.536568876797731
0.732908799760733,-0.547101918598014
0.699813356231716,-0.523321287193843
0.761533311019003,-0.535247596526398
0.732925547414798,-0.469452976348015
0.698248304445995,-0.455143132127236
0.757338095606078,-0.493999784355615
0.773113759691085,-0.506824283410133
0.788449517235136,-0.481956799939116
0.826262726763938,-0.482242982713845
0.81851216546283,-0.465764045124959
0.823117858999555,-0.476684219683112
0.847359457377425,-0.447648220361756
0.861040153669866,-0.437785272772768
0.886943575140521,-0.386919759975363
0.853921734765912,-0.383845727144864
0.880884157414374,-0.379987037024611
0.916435756892924,-0.411707019867817
0.937683689214046,-0.415345176250024
0.95857086990165,-0.406351238104161
0.933362444784884,-0.353055818925629
0.960223641818857,-0.377995972173028
0.929392759039306,-0.347414998348785
