0.164581520659732,-0.112869531529569
0.159962977431247,-0.108704251014503
0.155173228279514,-0.104665555044231
0.150215706531616,-0.100760115469688
0.145094096525526,-0.0969945121327084
0.139812331178481,-0.0933752236557319
0.134374589223682,-0.0899086182947339
0.128785292116924,-0.0866009448671514
0.123049100615188,-0.0834583237665362
0.117170911029628,-0.0804867380756116
0.111155851155802,-0.0776920247893403
0.105009275884406,-0.0750798661595291
0.0987367624961635,-0.0726557811723963
0.0923441056449565,-0.07042511717042
0.0858373120336377,-0.0683930416296545
0.0792225947874054,-0.0665645341035681
0.0725063675299827,-0.0649443783442984
0.065695238168244,-0.0635371546120554
0.0587960023913066,-0.0623472321832224
0.0518156368904841,-0.0613787620675098
0.0447612923068653,-0.0606356699443107
0.037640285913645,-0.0601216493281878
0.030460094040688,-0.0598401549731839
0.0232283442491556,-0.0597943965254102
0.0159528072643626,-0.0599873324331029
0.00864138867536385,-0.0604216641230702
0.00130212041009128,-0.0610998304521737
-0.00605684800482491,-0.0620240024421916
-0.0134272583901152,-0.0631960783061085
-0.0208007530560798,-0.0646176787735635
-0.0281688841309374,-0.0662901427228611
-0.035523123065031,-0.0682145231266155
-0.042854870300347,-0.0703915833177534
-0.0501554650945581,-0.0728217935822469
-0.0574161954885607,-0.075505328084584
-0.064628308406254,-0.0784420621316136
-0.0717830198750986,-0.0816315697800197
-0.0788715253557887,-0.0850731217922959
-0.0858850101691897,-0.0887656839456915
-0.0928146600085188,-0.0927079156982022
-0.0996516715245868,-0.0968981692152694
-0.106387262971775,-0.101334488760437
-0.113012684902288,-0.106014610452793
-0.119519230896112,-0.110935962393609
-0.125898248313992,-0.116095665164141
-0.132141149060672,-0.121490532696146
-0.138239420345553,-0.127117073516216
-0.14418463542788,-0.132971492364584
-0.149968464333498,-0.139049692188654
-0.15558268453024,-0.145347276510997
-0.161019191548929,-0.151859552171179
-0.166270009537046,-0.158581532440287
-0.171327301732076,-0.165507940506596
-0.176183380841626,-0.172633213330376
-0.180830719317409,-0.179951505865369
-0.185261959510302,-0.187456695644055
-0.189469923693713,-0.195142387723332
-0.193447623942636,-0.203001919986858
-0.197188271855836,-0.211028368799796
-0.200685288108776,-0.219214555011316
-0.203932311824989,-0.227553050299754
-0.2069232097538,-0.236036183854906
-0.209652085242434,-0.244656049391503
-0.212113286990757,-0.253404512487503
-0.214301417577075,-0.262273218240431
-0.216211341743646,-0.27125359923456
-0.217838194430772,-0.28033688381137
-0.219177388548592,-0.289514104635296
-0.220224622475938,-0.298776107546399
-0.220975887275905,-0.308113560691233
-0.221427473618031,-0.317516963922788
-0.221575978397321,-0.32697665846005
-0.221418311040625,-0.336482836797363
-0.220951699491206,-0.346025552853429
-0.220173695862669,-0.355594732349472
-0.219082181753768,-0.365180183405764
-0.217675373215942,-0.374771607345388
-0.215951825365828,-0.384358609693851
-0.213910436635343,-0.393930711362853
-0.211550452652333,-0.403477360006245
-0.208871469745164,-0.412987941535969
-0.205873438065066,-0.422451791785511
-0.202556664320406,-0.43185820830817
-0.198921814117542,-0.441196462297239
-0.194969913903293,-0.450455810614967
-0.190702352504524,-0.459625507917013
-0.18612088226079,-0.468694818858886
-0.181227619746406,-0.477653030370753
-0.176025046078817,-0.486489463986806
-0.170516006810534,-0.495193488215285
-0.164703711402458,-0.50375453093511
-0.158591732276787,-0.512162091805005
-0.152184003448268,-0.520405754670881
-0.145484818732978,-0.528475199957211
-0.138498829534308,-0.536360217028057
-0.131231042206339,-0.544050716503376
-0.123686814995245,-0.551536742516228
-0.115871854559885,-0.558808484896488
-0.107792212073189,-0.565856291266694
-0.0994542789064848,-0.572670679035681
-0.0908647818993547,-0.579242347275716
-0.0820307782181274,-0.585562188468884
-0.0729596498065823,-0.591621300108595
-0.0636590974329336,-0.597410996142143
-0.0541371343376408,-0.602922818240376
-0.0444020794870713,-0.608148546880683
-0.0344625504385125,-0.61308021222961
-0.0243274558225064,-0.617710104811624
-0.0140059874489394,-0.622030785950689
-0.00350761204378329,-0.626035097971533
0.00715793737616234,-0.629716174147681
0.0179806704827318,-0.633067448383566
0.0289503489618188,-0.636082664618272
0.0400564961760971,-0.638755885938703
0.0512884071559391,-0.641081503390259
0.0626351589090207,-0.643054244473388
0.0740856210386917,-0.644669181314673
0.0856284666607961,-0.645921738501428
0.0972521836082314,-0.646807700569116
0.10894508591217,-0.647323219131233
0.120695325548485,-0.647464819641667
0.132490904437585,-0.647229407779897
0.144319686685499,-0.646614275449784
0.156169411053737,-0.64561710638311
0.168027703645137,-0.644235981339396
0.179882090792575,-0.642469382893973
0.191720012137163,-0.640316199806704
0.203528833882261,-0.63777573096416
0.215295862209351,-0.634847688888547
0.227008356841611,-0.631532202807105
0.238653544740755,-0.627829821276163
0.250218633922508,-0.623741514354534
0.261690827375872,-0.619268675321395
0.273057337071168,-0.61441312193427
0.284305398041637,-0.609177097223292
0.295422282523258,-0.603563269818328
0.306395314137296,-0.59757473380616
0.317211882099955,-0.591215008115348
0.327859455443426,-0.584488035426961
0.338325597232525,-0.577398180609884
0.348597978761053,-0.569950228679909
0.358664393711934,-0.56214938228238
0.368512772265195,-0.554001258698676
0.378131195137785,-0.545511886377334
0.387507907539282,-0.5366877009912
0.3966313330275,-0.527535541022467
0.405490087248106,-0.518062642878049
0.414072991542359,-0.508276635538238
0.42236908640718,-0.498185534742154
0.430367644791857,-0.487797736714003
0.438058185215788,-0.47712201143472
0.445430484691787,-0.466167495464064
0.45247459143963,-0.454943684318796
0.459180837374692,-0.443460424413053
0.465539850356666,-0.431727904567581
0.471542566183605,-0.419756647094976
0.477180240316691,-0.407557498468581
0.482444459321409,-0.395141619583234
0.487327152011017,-0.382520475616469
0.491820600278497,-0.369705825499343
0.495917449603424,-0.356709711006471
0.499610719220526,-0.343544445475358
0.502893811936978,-0.330222602165551
0.505760523585826,-0.316757002268594
0.508205052103298,-0.303160702580194
0.510222006218069,-0.289446982846455
0.511806413740979,-0.275629332796416
0.512953729444037,-0.261721438873575
0.513659842518003,-0.247737170679421
0.513921083598197,-0.233690567142437
0.513734231348658,-0.219595822426332
0.513096518595205,-0.205467271591666
0.512005637998389,-0.191319376025339
0.510459747257816,-0.17716670865275
0.508457473839783,-0.163023938947726
0.505997919220665,-0.148905817755633
0.503080662638981,-0.134827161945329
0.499705764349576,-0.120802838905905
0.495873768373899,-0.106847750904388
0.491585704740829,-0.092976819320806
0.4868430912131,-0.0792049687772369
0.481647934494866,-0.0655471111776297
0.476002730916529,-0.0520181296753934
0.469910466593492,-0.0386328625858756
0.463374617056069,-0.0254060872610046
0.456399146348348,-0.0123525039434885
0.448988505594372,0.00051328038194226
0.441147631030592,0.0131767681226723
0.432881941504103,0.0256235871800863
0.424197335436782,0.037839507001522
0.415100187256014,0.0498104545645856
0.405597343293281,0.0615225302761228
0.395696117152484,0.0729620237681529
0.385404284550449,0.0841154295731021
0.374730077632659,0.0949694626607321
0.363682178767832,0.105511073819227
0.352269713825564,0.115727464862998
0.34050224494183,0.125606103649878
0.328389762777703,0.1351347388905
0.315942678277268,0.144301414732817
0.303171813931223,0.153094485104887
0.290088394553271,0.161502627799223
0.276704037576956,0.169514858282231
0.263030742881138,0.177120543212489
0.249080882152865,0.184309413651844
0.234867187796947,0.191071577953588
0.220402741402045,0.197397534312248
0.205700961773646,0.203278182959825
0.190775592544777,0.208704837993637
0.175640689375851,0.213669238821258
0.1603106067555,0.21816356120839
0.144799984414763,0.222180427915874
0.129123733367452,0.22571291891246
0.113297021589985,0.228754581150297
0.0973352593544287,0.231299437890598
0.0812540842289159,0.233341997567304
0.0650693457600432,0.234877262177043
0.0487970898522403,0.235900735184172
0.0324535428595115,0.236408428930093
0.0160550954053207,0.236396871536613
-0.000381714053250243,0.235863113293544
-0.0168402159005873,0.23480473252131
-0.0333036262600658,0.233219840899814
-0.0497550640968867,0.231107088255394
-0.0661775685088173,0.228465666798217
-0.0825541161871365,0.225295314803045
-0.0988676390298366,0.221596319726855
-0.11510104188889,0.21736952075739
-0.131237220433167,0.212616310787308
-0.147259079108379,0.207338637809184
-0.163149549175266,0.201539005727223
-0.17889160680704,0.195220474582163
-0.194468291226995,0.188386660186459
-0.209862722867045,0.181041733167456
-0.225058121527851,0.173190417416902
-0.240037824521119,0.164837987945758
-0.254785304774599,0.155990268143934
-0.269284188880248,0.146653626445174
-0.283518275066016,0.136834972398004
-0.297471551071725,0.126541752144241
-0.311128211909501,0.115781943307269
-0.324472677489292,0.104564049292863
-0.337489610090059,0.0928970930060498
-0.350163931657295,0.0807906099880761
-0.362480840907664,0.0682546409782447
-0.374425830221651,0.0552997239059801
-0.385984702305285,0.0419368853191325
-0.397143586602147,0.0281776312551617
-0.40788895543707,0.0140339375624595
-0.418207639873168,-0.00048176032030961
-0.428086845264028,-0.0153565781183561
-0.437514166483185,-0.0305771939992978
-0.446477602813244,-0.0461298603663867
-0.454965572477327,-0.0620004161561344
-0.462966926795815,-0.0781742996294689
-0.470470963951706,-0.0946365616449775
-0.477467442348246,-0.111371879402238
-0.483946593542865,-0.128364570642671
-0.489899134741827,-0.145598608294827
-0.495316280840439,-0.163057635550482
-0.500189755994044,-0.180724981357389
-0.504511804705507,-0.198583676314074
-0.508275202415319,-0.216616468951508
-0.511473265580971,-0.234805842386078
-0.514099861232681,-0.253134031327794
-0.516149415993114,-0.271583039427205
-0.517616924549222,-0.290134656944107
-0.518497957564896,-0.308770478720691
-0.518788669023647,-0.327471922441406
-0.518485802991105,-0.346220247161382
-0.517586699787721,-0.364996572085001
-0.516089301562614,-0.383781895575738
-0.513992157260129,-0.402557114378176
-0.511294426971278,-0.421303043032751
-0.507995885662866,-0.440000433463493
-0.504096926277717,-0.458629994718798
-0.499598562200082,-0.477172412844997
-0.494502429080955,-0.495608370872275
-0.488810786018661,-0.513918568892308
-0.482526516090796,-0.532083744206772
-0.475653126234202,-0.550084691525762
-0.46819474647042,-0.567902283194996
-0.460156128474672,-0.585517489430561
-0.451542643487176,-0.602911398539907
-0.442360279566241,-0.620065237107663
-0.43261563818332,-0.636960390124866
-0.422315930160883,-0.653578421040125
-0.411468970954669,-0.669901091711264
-0.400083175282589,-0.685910382235996
-0.388167551103232,-0.701588510640246
-0.375731692947668,-0.716917952402776
-0.362785774608878,-0.731881459794897
-0.349340541193908,-0.746462081014116
-0.335407300544477,-0.760643179090761
-0.320997914032516,-0.774408450546728
-0.306124786737741,-0.78774194378572
-0.290800857015099,-0.80062807719454
-0.275039585460573,-0.813051656935204
-0.2588549432845,-0.824997894407921
-0.242261400102231,-0.836452423365256
-0.225273911152606,-0.84740131665805
-0.207907903955361,-0.857831102594032
-0.190179264419229,-0.86772878089037
-0.172104322413106,-0.877081838201761
-0.153699836813286,-0.885878263206048
-0.134982980040357,-0.894106561229765
-0.115971322099947,-0.901755768396383
-0.096682814142082,-0.908815465280534
-0.0771357715544847,-0.915275790051888
-0.057348856605701,-0.921127451092863
-0.0373410606544531,-0.92636173907486
-0.0171316859421608,-0.930970538478179
0.00325967301393279,-0.934946338541353
0.0238131484091242,-0.93828224362616
0.0445086185026873,-0.940971982985129
0.0653257273135638,-0.943009919918969
0.0862439046410158,-0.944391060311901
0.10724238639057,-0.945111060533527
0.128300235185146,-0.945166234696459
0.149396361240928,-0.944553561259596
0.170509543487155,-0.943270688967568
0.19161845090869,-0.94131594211754
0.212701664089901,-0.938688325145245
0.233737696938098,-0.935387526522793
0.254705018564527,-0.931413921961502
0.275582075300619,-0.926768576913708
0.296347312827029,-0.921453248368228
0.316979198392765,-0.915470385934841
0.337456243101525,-0.90882313221395
0.357757024242226,-0.901515322448229
0.377860207640574,-0.893551483453909
0.397744570008384,-0.884936831830003
0.417389021267344,-0.875677271444604
0.436772626823775,-0.865779390198086
0.45587462977099,-0.855250456063842
0.474674472995769,-0.84409841240791
0.493151821165538,-0.832331872589643
0.511286582572849,-0.819960113846303
0.529058930813848,-0.806993070465244
0.546449326277466,-0.793441326248108
0.56343853742225,-0.779316106272186
0.580007661817799,-0.764629267954918
0.596138146928036,-0.749393291428154
0.611811810613641,-0.733621269229675
0.627010861331251,-0.717326895320091
0.641717918007252,-0.700524453434036
0.655916029564195,-0.683228804775327
0.669588694078274,-0.665455375066397
0.68271987754646,-0.647220140963112
0.695294032242373,-0.628539615846714
0.70729611464018,-0.60943083500539
0.718711602886328,-0.589911340218582
0.729526513799192,-0.569999163757889
0.739727419377251,-0.549712811819023
0.749301462796764,-0.529071247399953
0.758236373880444,-0.508093872641002
0.766520484019088,-0.486800510643253
0.774142740528629,-0.465211386782268
0.78109272042561,-0.443347109534669
0.787360643604636,-0.421228650835738
0.792937385401905,-0.398877325986691
0.797814488529524,-0.376314773130905
0.801984174365918,-0.353562932318779
0.805439353588241,-0.330644024181539
0.80817363613336,-0.307580528234649
0.810181340474631,-0.284395160832031
0.811457502202335,-0.261110852792739
0.811997881896361,-0.237750726722057
0.811798972280389,-0.214338074049528
0.810858004647559,-0.190896331806636
0.809172954548326,-0.167449059167379
0.806742546731949,-0.144019913775124
0.803566259333789,-0.120632627879611
0.799644327301385,-0.097310984308103
0.794977745053004,-0.0740787922950432
0.789568268363173,-0.0509598631947543
0.783418415470472,-0.0279779861019269
0.776531467403664,-0.00515690340485353
0.768911467523031,0.0174797137035134
0.760563220274612,0.0399082897314561
0.751492289155817,0.0621053693860091
0.74170499389175,0.084047642036695
0.731208406822346,0.105711966120047
0.720010348501291,0.127075393459387
0.708119382508477,0.14811519347446
0.695544809478624,0.168808877255383
0.68229666034944,0.189134221475603
0.668385688833609,0.2090692921185
0.653823363119652,0.228592467992424
0.638621856807535,0.24768246400915
0.622794039085753,0.266318354200778
0.606353464157365,0.28447959445042
0.589314359923322,0.302146044912113
0.571691615932189,0.319297992095746
0.553500770606175,0.335916170592966
0.534757997754153,0.351981784420376
0.515480092383155,0.36747652795664
0.495684455820564,0.382382606450443
0.475389080159987,0.396682756076645
0.454612532044566,0.410360263518341
