0.378139110615398,0.0973121271922183
0.315819982634872,0.104257064372433
0.375076237913847,0.123501752954431
0.364589002886289,0.100413224391037
0.358221234978169,0.148420305542584
0.389805118820216,0.159189034326176
0.346251698453435,0.186998918690619
0.363095637921651,0.186382199286845
0.397860338384695,0.183817582350661
0.37765870111699,0.132737770266449
0.340205451731774,0.195762341974327
0.379997830364319,0.190018359669533
0.38237071458221,0.196528233219065
0.384541243702599,0.203162674313733
0.386503922316021,0.209915342907548
0.356347639821459,0.204000703607743
0.362441349080982,0.212414101642186
0.391092955951425,0.230816012227047
0.390855539311833,0.193613638413813
0.393021709975514,0.245214978005139
0.393633684090608,0.25253186686518
0.4166670287689,0.243438920317697
0.418765673452163,0.281908931355806
0.39269244721346,0.233738858149335
0.376095814955932,0.275165999300923
0.356486731942345,0.292216741540506
0.381541340854455,0.282544396072735
0.41406125068838,0.314098563258464
0.389606575799377,0.312829548685024
0.353472867521506,0.324730215187622
0.39500616671775,0.358168268583266
0.397742247378227,0.361969688148585
0.345861115945015,0.366926835779325
0.381701854236139,0.38538093037605
0.382756047087328,0.353308868176597
0.399354383191112,0.382974047553685
0.332349941519986,0.360108347426086
0.339545345465776,0.378215254580954
0.32868903603478,0.391344281963927
0.356797981982259,0.394790595153987
0.321742496590531,0.430977103208789
0.347414391549383,0.408741731149899
0.335175093172881,0.456176775249737
0.340171960146763,0.459144972964093
0.363229378403449,0.395543335566232
0.366162282346133,0.468156523448611
0.319544083292658,0.441362759848724
0.345400569447173,0.443962654133067
0.306704071181191,0.453317333566831
0.313836220340598,0.434440468122242
0.292949530294944,0.464540668479473
0.323300018048828,0.480253929365977
0.278322335919435,0.474964646118488
0.317925451718268,0.463910460058211
0.262869335475935,0.484523567176431
0.249568015457443,0.507176708802031
0.224225893550824,0.517769650648788
0.238255774481819,0.497103168878829
0.181717726940787,0.54318900277487
0.262397070889817,0.487187136760877
0.164993131103326,0.496922657762935
0.176551406260569,0.483407850681162
0.193901616504339,0.51289912253703
0.194930996421373,0.481866689111087
0.179556153619696,0.530383058363074
0.135958612596359,0.514442549411125
0.156018436741236,0.52042458970778
0.159566278914763,0.546794186681976
0.181839991708552,0.517940429502567
0.124389645173411,0.514624036624715
0.100235040765334,0.530442764269145
0.106949833290349,0.476606573241937
0.110700661581787,0.55322241460871
0.125487030626822,0.524718704866753
0.0521644366749109,0.531995022593036
0.0428159440016334,0.506228414280362
0.0562109376680426,0.517228859717276
0.0066975669858387,0.524572941391295
0.0514447132471195,0.464783414293234
0.0260104153713861,0.50980350145027
0.0139549877789241,0.522302813276583
0.0060882053082571,0.503161230443974
-0.0253799718771237,0.522411767679175
-0.0135582207878609,0.495167500195296
-0.0701934198730298,0.518719336484124
-0.00311709310705126,0.451760994009964
-0.0590674012941657,0.48862807376813
-0.0845594838934839,0.479423940030315
-0.0608652104535479,0.469343756541783
-0.0707871882389148,0.465021032993168
-0.0788244503746982,0.4567303779535
-0.087552401756712,0.449948088080406
-0.131425976200711,0.471741316739125
-0.0656312162727632,0.430973007793321
-0.113337349513525,0.46457476307596
-0.0842386392423466,0.393237503202075
-0.107518693366332,0.382684149623562
-0.104429827940743,0.355736412003676
-0.121422467540366,0.423760778446661
-0.105893899140428,0.380180692128552
-0.12962289502286,0.373220776184149
-0.163023328111307,0.365923173627944
-0.169163263659476,0.356043492214788
-0.161869976020817,0.341909436525951
-0.156934221812005,0.366768085122436
-0.185780855805688,0.32501265691793
-0.172476536039683,0.290082162204127
-0.171898252338446,0.330416054269912
-0.199516529536787,0.292088938352905
-0.184567740292706,0.264630293838965
-0.239613321344054,0.222752589181035
-0.188962080234423,0.239438083595254
-0.250326876329239,0.21975227552049
-0.223886088843942,0.216281456114639
-0.173171363612226,0.188370191586973
-0.220972765525694,0.243181767128619
-0.220541552890255,0.19717123511666
-0.250567971613361,0.232921661585041
-0.203693220840455,0.148407671580966
-0.248282949990342,0.188547268062067
-0.258639889720505,0.186515554490792
-0.22001866366567,0.15555554984059
-0.22007086004254,0.121960280223579
-0.169762015108982,0.0787126893678199
-0.218873988850678,0.126349669853245
-0.234797640749473,0.103322744698855
-0.232826672369409,0.0496761145529808
-0.21818360845684,0.103291443204548
-0.187324830633013,0.0403012827948524
-0.180940812544149,0.0234954514437085
-0.150242542554305,0.00772285524983818
-0.191662945237992,0.00933781209444987
-0.162274303074451,0.034458796235116
-0.180809680080732,-0.0148120926742713
-0.218922748686439,-0.0543887525399258
-0.168335269952953,-0.0384049549809016
-0.161498463243079,-0.0499583885789497
-0.167734783021532,-0.0892452055861826
-0.130626995932402,-0.115492298374429
-0.15981383013418,-0.0553183900002867
-0.130255682146417,-0.0942380536325056
-0.140296156482234,-0.0927961019244271
-0.143958388246242,-0.0731934440131502
-0.102887177941214,-0.125048374097802
-0.0908867150098769,-0.112372831536657
-0.0868653471693243,-0.109868905161465
-0.0723462585030379,-0.153420057048524
-0.0614979206430499,-0.162278433618053
-0.00590824383818367,-0.16067471064952
-0.0670808887791385,-0.211460475849941
-0.027074324956807,-0.18689445131843
-0.0229067377851382,-0.224118903024821
-0.00265847384649889,-0.201562492556791
0.0380566628915106,-0.215132244814067
0.0228315198072911,-0.214739320814745
0.0116116992698768,-0.243755188503662
0.046533886567229,-0.196480442549182
0.0377087844609186,-0.252653532848592
0.0726735418840189,-0.248243357412587
0.121864916669565,-0.19177358074755
0.104802384244245,-0.244577828348155
0.153130040205305,-0.253626711831225
0.16859695470401,-0.24060223135057
0.15512375398663,-0.237326788029674
0.153382886588884,-0.219117279196891
0.146792059044429,-0.303453450203558
0.192830071669626,-0.258571806516589
0.207876529106689,-0.259269626499849
0.222990457701512,-0.259488113270748
0.201642785372268,-0.209959245401219
0.253359304347061,-0.258473370047569
0.250105282681642,-0.242712016637793
0.264740153982421,-0.228556718462347
0.299030930276301,-0.253283538886328
0.280563420716173,-0.204373348948557
0.363893606351217,-0.204596090797114
0.324406446771968,-0.199111424120537
0.407131458364873,-0.258464359851679
0.370606403129031,-0.200993475576163
0.40923911520181,-0.214936430492278
0.376901299120481,-0.257007720487422
0.418476967127995,-0.217779417499521
0.475965201210395,-0.216612719493152
0.447108069810158,-0.20403107786849
0.455405408260153,-0.166982428142689
0.474990521255998,-0.188384569467908
0.488611520628884,-0.179861738692577
0.476782709269346,-0.213035697512026
0.521871739913459,-0.140992369087493
0.496122514663483,-0.189156968612236
0.585370513351381,-0.113762025350189
0.552896168953401,-0.130499961547909
0.582264951333525,-0.0996986247094691
0.576547069471228,-0.107746173994448
0.60016943472362,-0.142292166755525
0.598845631967085,-0.0833778662283199
0.609453242201687,-0.0706131852038973
0.641861272696819,-0.0673595869440408
0.649736777707892,-0.0872947006670792
0.626907267181357,-0.039130458302506
0.647966000885827,-0.0159413542430974
0.678335762828251,0.027314483497636
0.664698460828871,0.0133941149596304
0.672392955307999,0.02851667845103
0.679625150173992,0.0439242135492472
0.726511186058079,0.0837787917170723
0.679833948080585,0.0702188938689886
0.698446794784566,0.0917131600873832
0.703730876425401,0.108115304030771
0.661437668744629,0.0879573178732161
0.760171998271223,0.187603826175817
0.736692560393202,0.13356953072963
0.740672483288991,0.180890290039122
0.722355873975451,0.192963129463014
0.72447264530821,0.210385058486487
0.726039387401937,0.227918214298333
0.753371775033411,0.246921071418842
0.696711026743302,0.303492041415921
0.742381291026522,0.328005421310677
0.765196485196972,0.27223259531682
0.723069095040159,0.347008190770142
0.684701969561535,0.329578699770439
0.721264303577644,0.352279151350421
0.724087662660076,0.361599898257831
0.71461224799296,0.383741660474317
0.710655239653944,0.405452194824753
0.705467212055104,0.406879046938146
0.715248758928651,0.406539412372182
0.712427965004095,0.45879454692321
0.688508711056627,0.475027248730315
0.633526117653509,0.50966994121873
0.671142322260555,0.463596890476825
0.665982261883408,0.52556773827753
0.663847440406907,0.569229931489522
0.648210558957565,0.558204373090145
0.638515671248272,0.574151242822671
0.646578968669827,0.632301204750517
0.577568351552506,0.574740971272918
0.642854211198663,0.633277350995795
0.566613936268361,0.642849891015074
0.536870269840189,0.616379570104197
0.612449679931145,0.680267440513295
0.532694826339299,0.711037587357453
0.54256876741612,0.690502424790057
0.512368113454374,0.663481010583418
0.500571972069827,0.714391604608476
0.530819030816783,0.711733881010798
0.483370118048265,0.739472582388878
0.481763038908839,0.770407903524516
0.457288498879868,0.738123366475931
0.393968987162747,0.779489552808235
0.440408295251381,0.756070026974691
0.431414551998926,0.805578387451996
0.409088679254409,0.799110791665066
0.355359816640592,0.844487040812223
0.346596311749324,0.814258715455819
0.328074700250514,0.821189081279364
0.315628397010577,0.815803482755786
0.244448915367407,0.855548335360037
0.271017192880112,0.838498672897679
0.254245784647253,0.835144240082886
0.26680666215887,0.854713968964809
0.2121055473222,0.85040301061857
0.223113912898932,0.88127891961664
0.172054545608776,0.855237553956484
0.144898199585148,0.863469787153109
0.163163699733751,0.869899968972627
0.12158252104944,0.833587803896462
0.0540069206016748,0.835080271428067
0.070365999395674,0.856151516320463
0.0150343455750833,0.8989167557462
0.0294948740319044,0.851974250147238
-0.0379449040041872,0.835570924590368
-0.0112386023072902,0.845180461603334
-0.0301158505247516,0.841458975976184
-0.0516663120403535,0.835771118093694
-0.0717128365771733,0.830088877344557
-0.0969125984496696,0.791110194225906
-0.0811847898107553,0.803438094904662
-0.130930614483878,0.809163881716278
-0.150292788782576,0.800908990692854
-0.127279828453936,0.829856307412079
-0.188326814095051,0.78250966873018
-0.226373154063752,0.812801399767354
-0.262944078227769,0.781429840365977
-0.24334494701997,0.750285386149922
-0.216314250794342,0.749208012411951
-0.28548295708569,0.697672754545992
-0.295442519405516,0.712704417166789
-0.320202358298009,0.695854479813108
-0.289631077771984,0.691890715170114
-0.344060587769045,0.688183439749595
-0.388299648991167,0.624597887096469
-0.337962973988285,0.660112784383855
-0.353995607606641,0.645113887409718
-0.447060186360719,0.593843470283543
-0.456145467986439,0.595150456055365
-0.429107330731531,0.57073903438953
-0.455961686297517,0.518117528074137
-0.446181532100925,0.562666571155946
-0.420461276327715,0.470667414476421
-0.475231465078546,0.4954712221128
-0.485306003264112,0.475671388862388
-0.494770956997799,0.455514389717896
-0.486653255189306,0.424603525022315
-0.507598287916773,0.452868154124929
-0.519386027813362,0.393090575106561
-0.547159678878165,0.392654819770983
-0.579823810684237,0.344051494727407
-0.554222576411608,0.324445338028865
-0.566714954840502,0.315277081379868
-0.56707435917876,0.308920537854198
-0.535771630755602,0.216557239632196
-0.553437840378905,0.23863728910219
-0.519202961895811,0.264589107544343
-0.566887468802276,0.239838535131814
-0.563117278541963,0.189288791198166
-0.557380896605119,0.147052105714955
-0.556549747725122,0.124002541146708
-0.583748497540545,0.0693785007198653
-0.573719448658459,0.0679178838439596
-0.591108124088095,0.0582835074977824
-0.545882451193446,0.0318873876036252
-0.556630624868888,-0.00669252732695998
-0.504308951910893,-0.0380614389664217
-0.530164605018045,-0.0364539025846011
-0.506345407101244,-0.0413015761803687
-0.516035350913967,-0.0813064846043983
-0.532965648608732,-0.097431059222605
-0.510214692228293,-0.173725826813689
-0.489443255545854,-0.147053697651747
-0.4791620784175,-0.168468026266165
-0.43382101852588,-0.183563815000571
-0.486088054256373,-0.25484755984664
-0.405470989873259,-0.222319077620941
-0.48108937614543,-0.256017275104973
-0.417472103028973,-0.270753834716154
-0.382459437678563,-0.299370665612552
-0.388177596339224,-0.309021258432368
-0.335934086197559,-0.327368559105641
-0.321684453410355,-0.371421963924905
-0.294788639806882,-0.356960672306461
-0.322191567258427,-0.380083608296624
-0.341777799664662,-0.351310773401882
-0.246323225005506,-0.431893637316927
-0.266678014969617,-0.42796345657569
-0.205023697176912,-0.421079929070769
-0.227040722624752,-0.457022836197125
-0.20648629691755,-0.470641863297427
-0.154235202696731,-0.482260198522528
-0.119670044578668,-0.534708401587806
-0.14210628899779,-0.507661010602761
-0.105024603096118,-0.555176491597888
-0.0971218009981549,-0.528991189156985
-0.0501435827504662,-0.495284077529298
-0.0572844079470516,-0.5290647151037
-0.0269697407512008,-0.555688855853151
-0.0428305834026769,-0.573956029173394
0.0050771275965843,-0.577094882012224
0.0458572193526836,-0.575744942552244
0.0388374611672229,-0.572265157636323
0.0955838563267155,-0.585291392513632
0.0849598545773926,-0.619395126093761
0.160067669408699,-0.56832796096829
0.171452102906163,-0.593713595796663
0.171681471269173,-0.625808309195444
0.257193620765962,-0.623168540045563
0.2731043067185,-0.586303736275853
0.316810951314298,-0.633603787049156
0.329072448226579,-0.582474798134876
0.354183612324812,-0.595581568578357
0.350117004819885,-0.60198085396246
0.412780963117921,-0.566874931565087
0.352261622306054,-0.544528736954284
0.421832444329941,-0.568192547808758
0.478560441794862,-0.570114695800179
0.492032153861546,-0.573483499020052
0.541079636779985,-0.502189811181034
0.531195985487057,-0.508906274600114
0.523810634619506,-0.51438924892273
0.590328320343729,-0.475698140378867
0.559981224777595,-0.480803620346086
0.585304322559633,-0.46509101741608
0.639637069749761,-0.51610253214065
0.667489923743432,-0.464253851220764
0.642334795745405,-0.475836446425895
0.711171268229022,-0.463671550308991
0.698287961674566,-0.45417214756577
0.729730669128794,-0.387137025299104
0.743418275219252,-0.398565190108899
0.804909810584835,-0.363797019349275
0.812929898127971,-0.346567197282995
0.831609241798696,-0.327080933430201
0.838282010483631,-0.320794853083042
0.867177883806059,-0.286265537612429
0.884026586827192,-0.264972808545052
0.925164832348263,-0.196083455879718
0.952156175306734,-0.21887416913977
0.882342167635499,-0.167913597642223
0.944736835838025,-0.174357234742469
