-0.915228037955311,-0.169421659744981
-0.915113544704804,-0.169408554956951
-0.914767991934908,-0.169383590047778
-0.914188319537325,-0.169368247381309
-0.913371539513883,-0.169383910984676
-0.912314743705616,-0.169451813537999
-0.911015111455099,-0.169592983722161
-0.909469917184632,-0.16982819404348
-0.907676537873064,-0.170177909252981
-0.905632460414216,-0.170662235476676
-0.903335288840099,-0.171300870171643
-0.900782751392445,-0.172113053020866
-0.897972707426296,-0.173117517877677
-0.894903154129833,-0.174332445868305
-0.891572233044943,-0.175775419758447
-0.887978236373476,-0.177463379686929
-0.884119613054582,-0.179412580366504
-0.879994974599006,-0.181638549848499
-0.875603100666735,-0.184156049944577
-0.870942944374929,-0.186979038395143
-0.866013637323664,-0.190120632870023
-0.860814494327595,-0.193593076882948
-0.855345017842289,-0.197407707697103
-0.849604902074639,-0.201574926294522
-0.843594036767435,-0.206104169477536
-0.837312510648888,-0.211003884165676
-0.830760614538599,-0.216281503946529
-0.823938844102247,-0.221943427934036
-0.816847902247977,-0.227995001982513
-0.8094887011583,-0.234440502299442
-0.801862363952053,-0.241283121494707
-0.793970225971818,-0.248524957098491
-0.78581383569296,-0.256167002574539
-0.777394955251322,-0.264209140849906
-0.768715560587378,-0.272650140376687
-0.759777841205544,-0.281487653735553
-0.750584199548126,-0.290718218785238
-0.741137249984259,-0.300337262356428
-0.731439817415006,-0.310339106482805
-0.721494935496642,-0.320716977156338
-0.711305844484947,-0.331463015588238
-0.700875988704189,-0.342568291951417
-0.690209013645275,-0.354022821574732
-0.679308762698349,-0.365815583553785
-0.668179273525946,-0.377934541737682
-0.656824774083532,-0.390366668045797
-0.645249678295097,-0.403097968063407
-0.633458581392163,-0.416113508859928
-0.621456254925326,-0.429397448968543
-0.609247641458152,-0.442933070461136
-0.596837848953963,-0.456702813047789
-0.584232144866665,-0.470688310125531
-0.571435949947466,-0.484870426696691
-0.558454831779916,-0.499229299072998
-0.545294498056302,-0.513744376277574
-0.531960789608977,-0.528394463053167
-0.518459673210759,-0.543157764381351
-0.504797234159011,-0.558011931414053
-0.490979668658474,-0.572934108715579
-0.477013276018405,-0.587900982710379
-0.462904450679893,-0.602888831229076
-0.448659674089681,-0.61787357404281
-0.434285506437062,-0.632830824273743
-0.419788578270781,-0.647735940567579
-0.405175582013081,-0.662564079912225
-0.390453263388272,-0.677290250985294
-0.375628412783358,-0.69188936791191
-0.360707856558437,-0.706336304313368
-0.345698448324626,-0.720605947526517
-0.330607060207391,-0.734673252873345
-0.315440574113129,-0.748513297860101
-0.300205873016863,-0.762101336185446
-0.284909832288848,-0.775412851437496
-0.269559311077761,-0.78842361036033
-0.254161143768072,-0.801109715571469
-0.23872213152894,-0.813447657613
-0.22324903397184,-0.825414366220551
-0.20774856093382,-0.83698726069598
-0.192227364403027,-0.84814429927167
-0.176692030602817,-0.858864027356525
-0.161149072250373,-0.869125624556242
-0.145604921005409,-0.878908950363162
-0.130065920124052,-0.888194588413918
-0.114538317332575,-0.896963889216313
-0.0990282579351323,-0.905199011250226
-0.0835417781691292,-0.912882960350964
-0.068084798821301,-0.919999627287286
-0.0526631191169885,-0.92653382345033
-0.0372824108944857,-0.932471314573877
-0.0219482130756948,-0.937798852410746
-0.00666592644365721,-0.94250420429466
0.00855919126315244,-0.94657618052162
0.0237220299305986,-0.95000465948967
0.0388176313142737,-0.952780610540904
0.0538411929428073,-0.954896114454697
0.0687880716721628,-0.956344381546328
0.0836537868847636,-0.957119767330527
0.0984340233280886,-0.957217785714842
0.113124633588177,-0.956635119693258
0.127721640194295,-0.955369629516028
0.14222123735185,-0.953420358317297
0.156619792301446,-0.950787535187745
0.170913846302816,-0.947472575685175
0.185100115243222,-0.94347807978163
0.199175489870695,-0.938807827251375
0.213137035653383,-0.933466770509709
0.226981992267061,-0.927461024918296
0.240707772713702,-0.920797856578296
0.25431196207482,-0.913485667638189
0.267792315904112,-0.905533979148682
0.281146758264708,-0.896953411502578
0.294373379417157,-0.88775566250283
0.307470433165014,-0.877953483107262
0.320436333865666,-0.867560650903654
0.333269653114791,-0.856591941373877
0.345969116113525,-0.845063097010706
0.358533597728153,-0.832990794355713
0.370962118252787,-0.820392609031246
0.383253838886171,-0.807286978843972
0.395408056934351,-0.79369316504173
0.407424200751595,-0.779631211809561
0.419301824432467,-0.765121904094674
0.431040602268553,-0.750186723853823
0.44264032298382,-0.734847804820079
0.45410088376308,-0.719127885889259
0.465422284088488,-0.703050263229331
0.476604619399401,-0.686638741218957
0.487648074591336,-0.669917582323925
0.498552917370073,-0.652911456022564
0.509319491477288,-0.635645386893368
0.519948209804369,-0.618144701979869
0.530439547411287,-0.600434977549419
0.540794034467604,-0.582541985363888
0.551012249132875,-0.564491638581309
0.561094810393768,-0.54630993740837
0.571042370875381,-0.528022914624146
0.580855609644201,-0.50965658109575
0.590535225020221,-0.491236871406591
0.600081927415626,-0.472789589717658
0.609496432217453,-0.454340355981689
0.618779452731446,-0.435914552629333
0.627931693204231,-0.417537271845278
0.636953841940697,-0.399233263551056
0.645846564533272,-0.381026884209586
0.65461049721949,-0.362942046564699
0.663246240383959,-0.345002170426785
0.671754352220479,-0.327230134613361
0.680135342569704,-0.309648230150724
0.688389666947301,-0.292278114840104
0.696517720777149,-0.275140769288595
0.704519833843609,-0.258256454501912
0.712396264976413,-0.24164467113251
0.720147196981154,-0.225324120472876
0.727772731827816,-0.209312667279939
0.735272886109165,-0.193627304512405
0.742647586780207,-0.17828412005856
0.749896667189268,-0.163298265527649
0.757019863410573,-0.148683927173291
0.764016810887514,-0.134454299012638
0.770887041395073,-0.120621558200087
0.777629980329133,-0.107196842709296
0.784244944329656,-0.0941902313720919
0.790731139243947,-0.0816107263176136
0.797087658435413,-0.0694662378496428
0.803313481442473,-0.0577635717946389
0.809407472991429,-0.0465084193474712
0.815368382366318,-0.035705349436254
0.821194843137929,-0.0253578036220744
0.826885373253358,-0.0154680935437195
0.83243837548663,-0.00603740091184316
0.837852138250083,0.00293421994869603
0.843124836765407,0.0114478370152852
0.848254534592358,0.0195056329554249
0.853239185512377,0.0271108950043002
0.858076635763528,0.0342680023559436
0.862764626622315,0.0409824110974322
0.867300797327203,0.0472606367210495
0.871682688337817,0.0531102342547544
0.87590774492306,0.0585397760566105
0.879973321070617,0.0635588273240572
0.883876683709541,0.0681779193739952
0.887615017236954,0.072408520754647
0.89118542833912,0.0762630062549857
0.894584951096507,0.079754623882225
0.897810552361785,0.0828974598823969
0.900859137399058,0.0857064018834153
0.90372755577204,0.0881971002442107
0.906412607468268,0.0903859276975284
0.908911049245935,0.0922899373777929
0.911219601189357,0.0939268193290395
0.91333495345863,0.0953148555913133
0.915253773218551,0.0964728739671019
0.916972711731444,0.0974202005723176
0.918488411598179,0.0981766112790537
0.919797514131247,0.0987622821598119
0.920896666843501,0.0991977390451262
0.921782531035831,0.0995038063084839
0.922451789466823,0.099701554994167
0.922901154087245,0.0998122504051013
0.923127373821994,0.0998572992690029
0.923127242382057,0.0998581966020502
0.922897606088891,0.0998364723899805
0.922435371693619,0.0998136382069141
0.921737514173382,0.0998111338923449
0.920801084487236,0.0998502744066017
0.919623217274049,0.0999521969846806
0.918201138474918,0.100137808707681
0.916532172862819,0.100427734610138
0.914613751462343,0.100842266440343
0.9124434188426,0.101401312189282
0.910018840266643,0.102124346502103
0.907337808681025,0.103030362084041
0.904398251529477,0.104137822210507
0.901198237375007,0.105464614448579
0.897735982315173,0.107028005694423
0.894009856175673,0.108844598628216
0.890018388467895,0.11093028968499
0.885760274096557,0.113300228636407
0.881234378804092,0.115968779874895
0.87643974433901,0.118949485487733
0.871375593336045,0.122255030204706
0.866041333896519,0.125897208298742
0.860436563858004,0.129886892514563
0.854561074743001,0.134234005095887
0.848414855377103,0.138947490976972
0.841998095167751,0.144035293199497
0.835311187035489,0.149504330610778
0.828354729990324,0.155360477894214
0.8211295313466,0.161608547977646
0.813636608570556,0.168252276860002
0.805877190755542,0.175294310891181
0.797852719720677,0.182736196534635
0.789564850729533,0.190578372636595
0.781015452826279,0.198820165220221
0.772206608787531,0.207459784817361
0.763140614688988,0.216494326344905
0.753819979086779,0.225919771527017
0.744247421814286,0.235730993858867
0.734425872396032,0.245921766101764
0.724358468081059,0.256484770293952
0.71404855149906,0.267411610255688
0.703499667943335,0.278692826561652
0.692715562285451,0.29031791394821
0.681700175527312,0.30227534111761
0.670457640997096,0.314552572895806
0.658992280196326,0.32713609469538
0.647308598306071,0.340011439229819
0.635411279361036,0.353163215420408
0.623305181101016,0.366575139432068
0.610995329509874,0.380230067769698
0.598486913052909,0.394110032361993
0.585785276624119,0.408196277555216
0.572895915215481,0.42246929893516
0.559824467321005,0.43690888389142
0.546576708088863,0.451494153834195
0.533158542235462,0.466203607970122
0.519575996735817,0.481015168540183
0.505835213305102,0.495906227419395
0.491942440686663,0.510853693974976
0.47790402676224,0.525834044076833
0.46372641050047,0.540823370151642
0.449416113760158,0.555797432169419
0.434979732965044,0.570731709449414
0.420423930667119,0.585601453170282
0.405755427015747,0.60038173946791
0.390980991150062,0.615047523002955
0.376107432532262,0.629573690879053
0.361141592239544,0.643935116791886
0.3460903342325,0.658106715288751
0.330960536617837,0.672063496017991
0.315759082923288,0.685780617847679
0.300492853402542,0.69923344273319
0.28516871638794,0.712397589213858
0.269793519708568,0.725248985419714
0.254374082191233,0.737763921470358
0.238917185261592,0.749919101149391
0.223429564662491,0.761691692739392
0.207917902306305,0.773059378904291
0.192388818277734,0.784000405508101
0.1768488630032,0.794493629261321
0.161304509602587,0.804518564088903
0.145762146438679,0.814055426116526
0.13022806987916,0.823085177174984
0.114708477285611,0.831589566725749
0.0992094602433981,0.839551172114317
0.0837369980457919,0.846953437061621
0.0682969514451248,0.85378070830772
0.0528950566831572,0.860018270326072
0.0375369198122154,0.865652378030985
0.0222280113180049,0.870670287405288
0.00697366105433397,0.875060283979895
-0.00822094650073128,0.878811709101713
-0.0233507766584537,0.881914983931222
-0.0384109485946905,0.884361631116155
-0.0533967390795153,0.886144294092816
-0.0683035858546459,0.887256753971895
-0.0831270906529308,0.887693943970966
-0.0978630218549145,0.887451961361331
-0.112507316778342,0.886528076902405
-0.127056083597265,0.884920741742385
-0.141505602888229,0.882629591769632
-0.155852328801883,0.879655449404816
-0.170092889859143,0.876000322829585
-0.184224089371905,0.871667402653217
-0.198242905489139,0.86666105602442
-0.212146490870005,0.860986818201086
-0.225932171986476,0.854651381596512
-0.23959744805879,0.847662582326173
-0.253139989627817,0.840029384284686
-0.266557636769294,0.83176186078814
-0.279848396955636,0.822871173822311
-0.293010442571804,0.813369550942666
-0.30604210809252,0.803270259877242
-0.31894188692881,0.792587580888602
-0.331708427952642,0.781336776956057
-0.34434053170908,0.769534061844179
-0.356837146326124,0.757196566128325
-0.369197363133017,0.744342301252441
-0.381420411998476,0.730990121698786
-0.393505656400907,0.717159685353385
-0.405452588243246,0.702871412155076
-0.417260822425648,0.688146441119765
-0.428930091189744,0.67300658583518
-0.440460238248719,0.65747428852473
-0.451851212717898,0.64157257278233
-0.463103062860983,0.625324995082938
-0.474215929667477,0.608755595176291
-0.485190040277181,0.59188884547381
-0.496025701268,0.574749599540844
-0.506723291823572,0.557363039808426
-0.517283256797485,0.539754624620437
-0.527706099691075,0.521950034733516
-0.537992375561963,0.503975119388297
-0.548142683880642,0.485855842071457
-0.558157661352512,0.467618226088742
-0.568037974722833,0.449288300069581
-0.57778431358208,0.430892043523954
-0.587397383189161,0.412455332572147
-0.596877897329935,0.394003885967531
-0.606226571228312,0.37556321153191
-0.615444114527151,0.357158553121983
-0.624531224355929,0.338814838244334
-0.63348857850201,0.320556626434808
-0.642316828702026,0.302408058516537
-0.651016594069657,0.284392806848767
-0.659588454675729,0.266534026676516
-0.6680329452962,0.248854308688593
-0.67635054934323,0.231375632888756
-0.684541692994073,0.214119323881923
-0.692606739532089,0.19710600767409
-0.700545983913662,0.180355570081317
-0.708359647574298,0.163887116839435
-0.716047873486624,0.147718935502412
-0.723610721482405,0.13186845921326
-0.731048163850107,0.116352232427183
-0.738360081218892,0.101185878662327
-0.745546258739252,0.0863840703488953
-0.752606382569828,0.0719605008427893
-0.759540036679248,0.0579278586650008
-0.766346699971066,0.0442978040230793
-0.773025743739192,0.0310809476658383
-0.779576429460373,0.0182868321173109
-0.785997906929587,0.00592391533056671
-0.79228921274334,-0.00600044320331491
-0.798449269135133,-0.017479993861393
-0.804476883166498,-0.02850960578591
-0.810370746276209,-0.0390852732536204
-0.816129434189452,-0.0492041195044836
-0.821751407187894,-0.0588643980224043
-0.827235010740779,-0.0680654912664764
-0.832578476496332,-0.0768079068568047
-0.837779923631928,-0.0850932712247395
-0.842837360560664,-0.0929243207429515
-0.847748686991131,-0.10030489035647
-0.8525116963364,-0.107239899741334
-0.857124078467384,-0.113735337023068
-0.861583422805003,-0.11979824009262
-0.865887221744735,-0.125436675562771
-0.870032874406415,-0.13065971541331
-0.874017690701362,-0.135477411378395
-0.877838895708194,-0.139900767134607
-0.881493634347967,-0.143941708353065
-0.884978976348589,-0.147613050683796
-0.888291921487771,-0.150928465745105
-0.891429405103143,-0.153902445195209
-0.89438830385753,-0.156550262967634
-0.897165441746795,-0.158887935755987
-0.899757596337076,-0.160932181837632
-0.902161505217714,-0.162700378329498
-0.90437387265565,-0.16421051697274
-0.906391376436604,-0.165481158546268
-0.9082106748779,-0.166531386012216
-0.909828413997372,-0.16738075649925
-0.911241234822448,-0.168049252232199
-0.912445780823131,-0.168557230518862
-0.913438705452307,-0.16892537290693
-0.914216679776551,-0.169174633625818
-0.914776400180356,-0.16932618742979
-0.915114596126523,-0.169401376960105
-0.915228037955311,-0.169421659744981
