0.861230106432814,-1.02798307665923
0.726071857929331,-0.941620391897113
0.606883452237902,-0.857028077033655
0.502166083585526,-0.774547656490746
0.410613670545122,-0.69453062019186
0.331067379140244,-0.617331872781906
0.262481002614619,-0.543304122387579
0.203894420640323,-0.472792999473112
0.154413151497627,-0.406132760458188
0.1131925551489,-0.343642474661274
0.0794256253968407,-0.285622623530305
0.0523335784749867,-0.232352062354453
0.0311586382188419,-0.184085309557274
0.015158557550689,-0.141050139147001
0.00360251801168951,-0.103445459225735
-0.00423187581279827,-0.0714394645151677
-0.00906073450132387,-0.0451680542532327
-0.0115953408480314,-0.0247335089831017
-0.0125430813205775,-0.0102034209980444
-0.0126079849360328,-0.00160987374061312
-0.0124909863006562,0.00105113456163824
-0.0128900183209301,-0.00217997180186427
-0.0145000330409573,-0.011226241791331
-0.0180130456819713,-0.0259743193261749
-0.024118297015236,-0.0462747823956102
-0.0335026327031042,-0.071942689335454
-0.0468512054599443,-0.102758320053788
-0.064848617359602,-0.138468097680213
-0.0881806362285509,-0.178785673416787
-0.117536643121174,-0.223393154184973
-0.153612999253977,-0.271942448846798
-0.19711756314362,-0.324056704120157
-0.248775645821877,-0.379331795507336
-0.309337769250906,-0.437337831181688
-0.379589698112711,-0.497620617209857
-0.46036535910207,-0.559703019825672
-0.552563460960441,-0.623086143396194
-0.657168906836376,-0.687250219269229
-0.775280484371949,-0.751655067912386
-0.908146883543161,-0.815739950132294
