-0.968181818181818,-0.0307512281341807
-0.968096551867959,-0.0307307109013208
-0.967837856252845,-0.030679805706472
-0.967401427533124,-0.0306144553012474
-0.966783025493532,-0.0305505348471004
-0.965978484261419,-0.0305038125911755
-0.964983722977643,-0.0304899108064473
-0.963794756359681,-0.030524267084266
-0.962407705133021,-0.0306220960666365
-0.960818806307184,-0.0307983517045668
-0.959024423273038,-0.0310676901276438
-0.957021055698456,-0.0314444332086216
-0.954805349199795,-0.0319425329052487
-0.952374104767142,-0.0325755364598196
-0.94972428792184,-0.0333565525350145
-0.946853037585334,-0.0342982183624909
-0.943757674639033,-0.0354126679784261
-0.940435710155563,-0.0367115016177728
-0.936884853282466,-0.0382057563363966
-0.933103018760185,-0.0399058779275155
-0.92908833405696,-0.0418216941959634
-0.924839146104106,-0.0439623896507608
-0.920354027615998,-0.0463364816733003
-0.915631782980012,-0.0489517982151537
-0.910671453702623,-0.0518154570760822
-0.905472323398788,-0.0549338468092966
-0.90003392231281,-0.0583126092973704
-0.894356031359841,-0.0619566240384731
-0.888438685678279,-0.0658699941787612
-0.88228217768437,-0.0700560343228574
-0.875887059621419,-0.0745172601503709
-0.869254145597128,-0.0792553798623687
-0.862384513103713,-0.0842712874776128
-0.855279504016564,-0.0895650579942394
-0.847940725068391,-0.0951359444283822
-0.840370047796931,-0.10098237673704
-0.832569607965456,-0.10710196262827
-0.82454180445649,-0.113491490257574
-0.81628929764028,-0.120146932805108
-0.807815007220765,-0.127063454924145
-0.799122109562881,-0.134235421047039
-0.790214034506243,-0.141656405530759
-0.781094461671316,-0.149319204619973
-0.771767316265368,-0.157215850201555
-0.762236764396538,-0.165337625320427
-0.752507207905483,-0.173675081422647
-0.742583278725111,-0.182218057287831
-0.732469832779942,-0.190955699609197
-0.722171943437663,-0.19987648517582
-0.711694894526429,-0.208968244608107
-0.701044172932411,-0.218218187594033
-0.690225460793028,-0.227612929570272
-0.679244627302169,-0.237138519789188
-0.668107720144594,-0.246780470709464
-0.656820956577492,-0.256523788645245
-0.645390714177974,-0.266353005605817
-0.633823521275987,-0.276252212255157
-0.622126047092846,-0.286205091918224
-0.610305091606234,-0.296194955558458
-0.598367575163085,-0.306204777648796
-0.586320527862357,-0.316217232856517
-0.574171078730192,-0.32621473346036
-0.561926444710397,-0.336179467416749
-0.549593919493611,-0.346093436990469
-0.537180862208857,-0.355938497863863
-0.524694686001478,-0.365696398637561
-0.512142846521712,-0.37534882063482
-0.499532830348338,-0.384877417920907
-0.486872143371966,-0.394263857448425
-0.474168299162651,-0.403489859239199
-0.46142880734649,-0.412537236513248
-0.448661162015883,-0.421387935675457
-0.435872830198036,-0.430024076070874
-0.42307124040614,-0.438427989420049
-0.410263771297491,-0.446582258846541
-0.397457740462559,-0.454469757409603
-0.384660393368706,-0.46207368605614
-0.371878892481941,-0.469377610907332
-0.359120306589657,-0.476365499796757
-0.346391600346854,-0.48302175797853
-0.33369962406788,-0.489331262925776
-0.321051103785117,-0.495279398141813
-0.308452631595494,-0.500852085908562
-0.29591065631502,-0.506035818899083
-0.283431474460883,-0.510817690583649
-0.271021221579875,-0.515185424361448
-0.25868586394119,-0.519127401352816
-0.246431190610778,-0.522632686789893
-0.234262805923607,-0.525691054946703
-0.222186122369298,-0.528293012552892
-0.210206353905666,-0.530429820638725
-0.198328509713762,-0.532093514762453
-0.18655738840699,-0.533276923574714
-0.174897572705916,-0.533973685678355
-0.163353424589292,-0.534178264745843
-0.151929080930798,-0.533885962860305
-0.140628449629889,-0.533092932050173
-0.129455206244076,-0.531796183991448
-0.118412791128802,-0.529993597855648
-0.10750440708999,-0.527683926285637
-0.0967330175531682,-0.524866799485696
-0.0861013452519444,-0.521542727416381
-0.0756118714374431,-0.517713100088931
-0.0652668356091539,-0.513380185958221
-0.0550682357664888,-0.508547128417462
-0.0450178291791871,-0.503217940402102
-0.0351171336735459,-0.497397497114541
-0.0253674294303237,-0.491091526885515
-0.0157697612890113,-0.484306600192064
-0.00632494155205426,-0.477050116856191
0.00296644671850643,-0.469330291452272
0.0121040459205993,-0.461156136955332
0.0210877196575856,-0.452537446666174
0.0299175480203708,-0.443484774453184
0.0385938224179344,-0.434009413354387
0.0471170399690515,-0.424123372586965
0.0554878974689513,-0.413839353014992
0.063707284945595,-0.403170721129558
0.0717762788211626,-0.392131481598785
0.0796961346952145,-0.38073624844837
0.0874682797668231,-0.369000214936388
0.0950943049137677,-0.356939122188939
0.102575956447644,-0.34456922666601
0.109915127564445,-0.331907266529494
0.117113849510856,-0.318970426987772
0.124174282487097,-0.305776304693495
0.131098706307767,-0.292342871273366
0.137889510842634,-0.278688436070561
0.144549186259819,-0.264831608182266
0.151080313094235,-0.250791257876287
0.157485552164534,-0.236586477472117
0.163767634362127,-0.222236541773002
0.169929350336133,-0.207760868136552
0.175973540098299,-0.193178976272216
0.181903082572148,-0.178510447854572
0.187720885110674,-0.163774886041752
0.193429873006985,-0.148991874988542
0.199032979022297,-0.134180939443687
0.204533132955628,-0.119361504520741
0.209933251279409,-0.104552855731405
0.215236226865119,-0.0897740993696787
0.220444918822774,-0.0750441233344078
0.225562142477882,-0.0603815584767571
0.230590659509124,-0.0458047405580166
0.235533168269658,-0.0313316729017364
0.240392294314506,-0.0169799898226537
0.245170581156036,-0.00276692091311911
0.24987048126899,0.011290743734191
0.254494347365953,0.025176687290576
0.259044423963551,0.0388750988682136
0.263522839258974,0.0523707050376633
0.267931597335723,0.0656488001165838
0.272272570716739,0.0786952751630152
0.276547493282258,0.0914966456094787
0.280757953568916,0.104040077477184
0.284905388465767,0.116313412112818
0.288991077321957,0.128305189393674
0.293016136479869,0.140004669350321
0.296981514246588,0.151401852159551
0.300887986315534,0.162487496463957
0.304736151649092,0.173253135978282
0.308526428832015,0.183691094346445
0.312259052904312,0.193794498217134
0.315934072681241,0.203557288509751
0.319551348566923,0.212974229846614
0.323110550866969,0.222040918131364
0.326611158604381,0.230753786257692
0.330052458841846,0.239110107936666
0.333433546512395,0.247107999635142
0.336753324759231,0.254746420621964
0.340010505784398,0.262025171122876
0.343203612204779,0.268944888589308
0.346330978912792,0.275507042090378
0.349390755437966,0.281713924841684
0.352380908804483,0.287568644888573
0.355299226878613,0.293075113965746
0.358143322198869,0.298238034559071
0.360910636280618,0.303062885199542
0.363598444385785,0.307555904023223
0.366203860747244,0.31172407063493
0.368723844236455,0.315575086317144
0.371155204461888,0.319117352629368
0.373494608284793,0.322359948446743
0.375738586737933,0.325312605490176
0.377883542331964,0.32798568240365
0.379925756733275,0.330390137437591
0.381861398796229,0.332537499800291
0.383686532931963,0.334439839742354
0.385397127795105,0.336109737441955
0.386989065269058,0.337560250761384
0.388458149729789,0.338804881947848
0.389800117567457,0.339857543353879
0.391010646944571,0.340732522254852
0.392085367768853,0.341444444843163
0.393019871858474,0.342008239480419
0.393809723276873,0.342439099290667
0.394450468813975,0.342752444179139
0.394937648590275,0.342963882362287
0.395266806759964,0.343089171495944
0.395433502289025,0.343144179489359
0.395433319784046,0.343144845093542
0.395261880347347,0.34310713835286
0.394914852433966,0.343047021009105
0.394387962686002,0.342980406947387
0.39367700671984,0.34292312277308
0.392777859841895,0.342890868608756
0.39168648766862,0.342899179199563
0.390398956626734,0.342963385414774
0.388911444309865,0.343098576232382
0.387220249668114,0.343319561292495
0.385321803007382,0.343640834104041
0.383212675775728,0.344076535987799
0.380889590114453,0.344640420837146
0.378349428152142,0.345345820776059
0.375589241020425,0.34620561279191
0.372606257570832,0.347232186418406
0.369397892772762,0.348437412541677
0.365961755773275,0.349832613399995
0.362295657600163,0.351428533844937
0.358397618490503,0.353235313928982
0.354265874827764,0.355262462881566
0.349898885671332,0.357518834532496
0.34529533886327,0.360012604238411
0.340454156697997,0.362751247364583
0.335374501141571,0.365741519370899
0.330055778588235,0.368989437547253
0.324497644142881,0.372500264439895
0.318700005419154,0.376278493006513
0.312663025843974,0.380327833533916
0.306387127460318,0.384651202348295
0.299872993221237,0.389250712343987
0.293121568769181,0.394127665352603
0.286134063695842,0.399282546370295
0.278911952278875,0.404715019656726
0.271456973692986,0.410423926715168
0.263771131694062,0.416407286158913
0.255856693776165,0.422662295464966
0.247716189802356,0.429185334611777
0.239352410111501,0.435971971593537
0.230768403104358,0.443016969799373
0.221967472313368,0.450314297241593
0.212953172961746,0.457857137613007
0.203729308018567,0.465637903149237
0.19429992375766,0.473648249267904
0.184669304829222,0.481879090952595
0.174841968854125,0.490320620845596
0.164822660551955,0.498962329009574
0.154616345414842,0.507793024314627
0.144228202940129,0.516800857403496
0.133663619435929,0.525973345184188
0.122928180414525,0.535297396795848
0.112027662589508,0.544759340990402
0.100968025493384,0.554344954869325
0.0897554027332629,0.564039493911856
0.0783960929029834,0.573827723228074
0.0668965501708398,0.583693949967498
0.0552633745627387,0.593622056811318
0.043503301961321,0.603595536473852
0.0316231938421868,0.613597527136659
0.0196300267689449,0.623610848736543
0.00753088166933602,0.633618040026835
-0.00466706708484244,0.643601396329563
-0.0169565627708533,0.653543007894559
-0.0293302775576422,0.663424798780218
-0.0417808238741122,0.673228566169389
-0.0543007658789116,0.68293602003295
-0.0668826310073893,0.692528823052778
-0.0795189215712032,0.701988630715259
-0.0922021263859554,0.711297131486081
-0.104924732402171,0.720436086976846
-0.11767923631495,0.72938737201405
-0.130458156127649,0.738133014521177
-0.143254042645083,0.746655235125047
-0.1560594908719,0.754936486398176
-0.168867151291963,0.76295949164968
-0.181669741004907,0.77070728317826
-0.194460054696291,0.778163239901981
-0.207230975418204,0.785311124280943
-0.219975485157563,0.792135118450483
-0.232686675169849,0.798619859484322
-0.24535775605654,0.804750473708967
-0.257982067565081,0.810512609992793
-0.270553088090843,0.815892471935503
-0.283064443861203,0.820876848886093
-0.295509917782586,0.825453145720057
-0.307883457932051,0.829609411309306
-0.320179185675817,0.833334365621186
-0.332391403397942,0.836617425386024
-0.344514601823251,0.839448728275795
-0.356543466919505,0.841819155539827
-0.368472886364747,0.843720353046874
-0.380297955566736,0.845144750686434
-0.392013983222366,0.846085580085832
-0.403616496406003,0.84653689060332
-0.415101245176724,0.84649356356131
-0.426464206695496,0.845951324687711
-0.437701588844465,0.844906754737387
-0.448809833341574,0.843357298269742
-0.459785618344918,0.841301270562577
-0.47062586054232,0.838737862646485
-0.481327716722807,0.835667144448232
-0.491888584827782,0.832090066035781
-0.502306104480871,0.828008456961835
-0.512578156996551,0.823425023707
-0.522702864868871,0.818343345227888
-0.532678590742683,0.81276786661971
-0.542503935870981,0.806703890907092
-0.552177738063086,0.800157568980993
-0.561699069129522,0.793135887703763
-0.571067231830578,0.785646656208407
-0.580281756336623,0.777698490422179
-0.589342396209344,0.769300795848535
-0.59824912391412,0.760463748645394
-0.607002125874816,0.751198275041387
-0.615601797083241,0.741516029135518
-0.624048735276571,0.731429369129234
-0.632343734696915,0.720951332043368
-0.6404877794482,0.710095606975825
-0.64848203646638,0.698876506959083
-0.656327848119871,0.687308939479718
-0.664026724457906,0.67540837572513
-0.671580335125283,0.663190818625462
-0.678990500962724,0.650672769761386
-0.686259185312742,0.637871195210964
-0.693388485051568,0.624803490411109
-0.70038062136828,0.611487444111398
-0.707237930312845,0.597941201499973
-0.713962853135271,0.584183226583116
-0.720557926438537,0.570232263901736
-0.727025772168359,0.556107299669451
-0.733369087463207,0.541827522418276
-0.739590634388296,0.527412283238963
-0.745693229577498,0.512881055703955
-0.751679733807342,0.498253395561634
-0.757553041527389,0.483548900290983
-0.763316070371344,0.468787168606158
-0.768971750673335,0.453987760000504
-0.774523015013713,0.439170154419488
-0.779972787818688,0.424353712151706
-0.785323975037949,0.409557634026632
-0.790579453924267,0.394800922007078
-0.795742062938779,0.380102340263455
-0.800814591805427,0.365480376815821
-0.805799771737606,0.350953205828441
-0.810700265859737,0.336538650640123
-0.815518659845981,0.322254147611909
-0.820257452797844,0.308116710871936
-0.824919048381852,0.294142898035182
-0.829505746247892,0.280348776973718
-0.834019733748166,0.266749893710658
-0.838463077976005,0.253361241508548
-0.842837718143091,0.240197231220208
-0.847145458312828,0.227271662967264
-0.851387960506815,0.214597699208598
-0.855566738200502,0.202187839257861
-0.859683150223249,0.190053895305953
-0.863738395077072,0.178206970000982
-0.867733505687402,0.166657435634782
-0.871669344598218,0.155414914981419
-0.875546599622886,0.144488263829487
-0.879365779961024,0.133885555246151
-0.883127212790622,0.123614065607066
-0.886831040343605,0.113680262422339
-0.890477217471884,0.104089793984695
-0.894065509709879,0.0948474808619254
-0.897595491838319,0.0859573092515897
-0.901066546953022,0.0774224262117963
-0.904477866041197,0.0692451367776477
-0.907828448066658,0.0614269029687943
-0.911117100564187,0.0539683446892505
-0.914342440742131,0.0468692425164613
-0.917502897091145,0.0401285423723346
-0.920596711495878,0.0337443620648042
-0.923621941845221,0.0277139996842671
-0.926576465135618,0.0220339438351328
-0.929457981060831,0.0166998856786056
-0.932264016080425,0.0117067327587846
-0.934991927958157,0.00704862458018773
-0.937638910760395,0.00271894990089441
-0.940202000303625,-0.00128963429832762
-0.942678080039098,-0.00498518221228275
-0.945063887361669,-0.00837643702401172
-0.947356020328905,-0.0114728071824164
-0.949550944775613,-0.0142843411988165
-0.951645001808026,-0.0168217010197317
-0.953634415661026,-0.0190961340363351
-0.95551530190095,-0.0211194437940886
-0.957283675955718,-0.0229039594689513
-0.958935461953299,-0.0244625041793101
-0.960466501848798,-0.0258083622053807
-0.961872564819787,-0.0269552451902533
-0.963149356908892,-0.0279172573990364
-0.964292530892068,-0.0287088601146452
-0.965297696350471,-0.0293448352507061
-0.966160429923355,-0.0298402482637934
-0.966876285719015,-0.0302104104487722
-0.967440805860399,-0.0304708407023946
-0.967849531141707,-0.0306372268414806
-0.968098011772025,-0.0307253865630016
-0.968181818181818,-0.0307512281341807
