0.359800730036891,-0.19298162812089
0.364753688824096,-0.191683168935961
0.369703004418502,-0.190202903756956
0.374642100001707,-0.188539800442673
0.379564330985422,-0.186693061958739
0.384462993333365,-0.184662129594701
0.38933133201766,-0.182446685889014
0.394162549599582,-0.180046657256664
0.398949814924254,-0.177462216314541
0.403686271918749,-0.174693783899999
0.408365048482848,-0.171742030778456
0.412979265461585,-0.168607879036209
0.417522045688516,-0.165292503155054
0.421986523088567,-0.161797330765669
0.426365851829137,-0.158124043077111
0.430653215508093,-0.154274574980174
0.434841836367136,-0.150251114822733
0.438924984518985,-0.146056103855643
0.442895987176738,-0.141692235348119
0.446748237873717,-0.137162453371948
0.450475205662083,-0.13246995125432
0.45407044427846,-0.127618169699418
0.457527601264825,-0.122610794579379
0.460840427032903,-0.117451754395606
0.464002783860334,-0.112145217411851
0.467008654806928,-0.106695588460887
0.469852152539338,-0.101107505426999
0.472527528052586,-0.0953858354069521
0.475029179276922,-0.0895356705524716
0.477351659558593,-0.0835623235977095
0.479489686003225,-0.0774713230755506
0.481438147670615,-0.0712684082270264
0.483192113609872,-0.0649595236084927
0.484746840724007,-0.0585508134016254
0.486097781453213,-0.052048615431672
0.487240591266259,-0.045459454899781
0.48817113594962,-0.0387900378356066
0.488885498684149,-0.0320472442767597
0.48937998689932,-0.0252381211820346
0.48965113889531,-0.0183698750857043
0.489695730223404,-0.0114498645005216
0.489510779815473,-0.00448559207740672
0.489093555853546,0.0025153034698635
0.488441581370761,0.00954505566632855
0.487552639575268,0.0165957787949247
0.486424778888966,0.0236594766237146
0.485056317693256,0.0307280513317109
0.48344584877432,0.0377933126234562
0.481592243460753,0.0448469870222422
0.479494655446738,0.0518807273315929
0.477152524294278,0.0588861222543806
0.474565578608376,0.0658547061587071
0.471733838879422,0.0727779689794496
0.468657619987398,0.0796473662441599
0.465337533362935,0.0864543292118004
0.461774488800608,0.0931902751126093
0.457969695920279,0.0998466174772124
0.453924665272694,0.106414776542936
0.449641209085951,0.112886189725124
0.445121441649864,0.11925232214113
0.440367779335692,0.125504677174523
0.435382940249103,0.131634807066966
0.430169943514689,0.137634323525089
0.424732108190776,0.143494908329651
0.419073051813709,0.149208323934181
0.413196688571245,0.154766424040264
0.407107227105103,0.160161164136596
0.400809167943192,0.16538461198892
0.394307300562469,0.170428958067935
0.387606700083813,0.175286525902319
0.380712723600784,0.179949782343984
0.37363100614453,0.18441134773277
0.366367456287597,0.188664005947827
0.358928251389808,0.192700714332992
0.351319832489834,0.196514613483578
0.343548898846512,0.200099036882095
0.3356224021344,0.203447520370534
0.327547540298497,0.206553811446969
0.319331751073478,0.209411878374418
0.310982705173215,0.212015919090025
0.302508299156782,0.214360369902836
0.293916647977549,0.216439913968614
0.285216077222375,0.218249489530365
0.27641511504831,0.219784297913447
0.267522483824619,0.221039811264397
0.258547091488303,0.222011780022826
0.249498022621707,0.222696240116036
0.240384529261124,0.223089519866249
0.231216021445715,0.223188246600656
0.222002057516375,0.222989352954785
0.212752334174537,0.222490082860002
0.203476676311238,0.221687997206278
0.194185026617071,0.220580979171713
0.184887434983978,0.219167239210633
0.175594047710123,0.217445319692455
0.166315096519371,0.215414099183874
0.15706088740718,0.213072796367314
0.147841789324953,0.210420973588974
0.138668222715179,0.207458540030193
0.129550647909882,0.204185754496288
0.120499553405157,0.200603227817402
0.111525444024761,0.196711924856361
0.102638828985906,0.192513166118956
0.0938502098806186,0.188008628962492
0.0851700685861381,0.183200348398921
0.0766088551180366,0.178090717489319
0.0681769754398168,0.172682487326901
0.0598847792429087,0.166978766606282
0.0517425477110581,0.160983020777113
0.0437604812832008,0.154699070780713
0.0359486874289847,0.148131091368809
0.0283171684511493,0.141283609003942
0.0208758093290212,0.13416149934161
0.0136343656173961,0.126769984294685
0.00660245141509108,0.119114628681126
-0.000210472582565846,0.111201336456513
-0.00679511093306595,0.103036346533388
-0.0131423451836705,0.094626228189902
-0.0192432454818453,0.0859778760707185
-0.0250890820451179,0.077098504783651
-0.0306713364763885,0.0679956430959525
-0.0359817129108376,0.0586771277346815
-0.0410121489806979,0.0491510967960326
-0.0457548265843027,0.0394259827689971
-0.0502021824459763,0.0295105051791876
-0.0543469184535131,0.0194136628591212
-0.0581820117601788,0.00914472585172012
-0.0617007246383735,-0.00128677304576581
-0.0648966140723185,-0.0118710470897573
-0.0677635410773688,-0.0225980647421709
-0.0702956797337995,-0.0334575591575442
-0.0724875259231886,-0.0444390379965119
-0.0743339057557936,-0.0555317935562617
-0.0758299836776244,-0.0667249132082031
-0.0769712702462148,-0.0780072901326707
-0.0777536295644297,-0.0893676343401056
-0.0781732863619753,-0.100794483967783
-0.0782268327146353,-0.112276216840775
-0.0779112343916166,-0.123801062285497
-0.0772238368217679,-0.13535711318384
-0.0761623706698193,-0.146932338255542
-0.0747249570141942,-0.158514594556167
-0.0729101121183542,-0.170091640177719
-0.0707167517880607,-0.181651147138655
-0.0681441953073697,-0.193180714449761
-0.0651921689466183,-0.204667881342109
-0.0618608090361146,-0.216100140643039
-0.0581506645997013,-0.227464952285914
-0.0540626995428382,-0.238749756939133
-0.0495982943903185,-0.249941989739705
-0.0447592475692282,-0.261029094116513
-0.0395477762332417,-0.271998535688184
-0.0339665166248531,-0.282837816220365
-0.0280185239726392,-0.293534487627044
-0.0217072719211694,-0.304076166000437
-0.0150366514916828,-0.314450545653852
-0.00801096957218211,-0.32464541316187
-0.000634946936108716,-0.334648661382071
0.00708628421070912,-0.344448303442539
0.0151471831546065,-0.354032486679285
0.0235418040693868,-0.363389506507734
0.0322637998810887,-0.372507820212439
0.0413064266004031,-0.381376060639155
0.0506625481203868,-0.389983049773495
0.0603246414765931,-0.398317812190387
0.0702848025662,-0.406369588358669
0.0805347523221996,-0.414127847785228
0.0910658433381671,-0.421582301983171
0.101869066938622,-0.428722917248693
0.112935060689453,-0.435539927231395
0.124254116342383,-0.442023845282999
0.135816188206912,-0.448165476569566
0.147610901942687,-0.453955929932529
0.15962756376475,-0.459386629484051
0.171855170053583,-0.464449325922456
0.184282417361441,-0.469136107553726
0.196897712805916,-0.473439411005312
0.209689184841263,-0.477352031618794
0.222644694397497,-0.480867133508205
0.235751846376873,-0.483978259271169
0.248998001496855,-0.486679339340304
0.262370288468303,-0.488964700962689
0.275855616497136,-0.490829076795569
0.289440688097337,-0.492267613106806
0.303112012202769,-0.493275877569012
0.316855917564862,-0.493849866636661
0.330658566422877,-0.493986012495918
0.344505968433072,-0.493681189577332
0.358383994842752,-0.492932720621981
0.372278392894853,-0.491738382292117
0.386174800448384,-0.490096410317817
0.400058760799739,-0.488005504171599
0.413915737689619,-0.485464831263499
0.427731130480007,-0.482474030649527
0.441490289485394,-0.479033216247004
0.455178531442206,-0.475142979550724
0.468781155100157,-0.470804391844467
0.482283456919047,-0.466019005902868
0.495670746854324,-0.460788857179242
0.508928364214571,-0.455116464475456
0.522041693573897,-0.449004830090528
0.534996180722112,-0.442457439445184
0.547777348635398,-0.435478260180151
0.560370813450138,-0.428071740726566
0.572762300422435,-0.420242808347409
0.584937659855834,-0.411996866649491
0.596882882979676,-0.403339792566078
0.608584117760515,-0.394277932810806
0.620027684629017,-0.384818099804174
0.631200092104761,-0.37496756707441
0.642088052301418,-0.364734064135169
0.652678496294811,-0.354125770843041
0.662958589336444,-0.34315131123848
0.672915745895189,-0.331819746874302
0.682537644509903,-0.320140569636527
0.691812242435909,-0.308123694062871
0.700727790068396,-0.295779449164799
0.709272845125975,-0.283118569759608
0.717436286577829,-0.270152187319565
0.725207328298063,-0.256891820345706
0.732575532431122,-0.243349364274426
0.739530822452384,-0.22953708092556
0.74606349590826,-0.21546758750118
0.752164236820476,-0.201153845144879
0.757824127739448,-0.186609147071802
0.763034661432016,-0.171847106280245
0.767787752189131,-0.156881642856107
0.772075746739422,-0.141726970881988
0.775891434754947,-0.12639758496321
0.779228058935833,-0.11090824638351
0.782079324660878,-0.0952739689035949
0.784439409191619,-0.0795100042162292
0.786302970417814,-0.0636318270719149
0.787665155132707,-0.0476551200896842
0.788521606826911,-0.0315957582679049
0.788868472990234,-0.0154697932103916
0.788702411911255,0.00070656291649273
0.788020598964921,0.0169169536797214
0.786820732379021,0.0331448949120923
0.785101038470845,0.0493737914646185
0.782860276345915,0.0655869541618014
0.780097742051227,0.0817676169424858
0.776813272175952,0.0978989541687029
0.773007246893186,0.113964098084669
0.768680592436839,0.129946156407854
0.763834783008408,0.145828230033815
0.758471842108916,0.161593430836301
0.752594343291935,0.17722489954394
0.74620541033421,0.19270582367465
0.739308716821012,0.208019455508804
0.731908485143965,0.223149130082014
0.724009484909733,0.238078283178329
0.71561703075855,0.252790469304551
0.706736979592256,0.267269379626301
0.697375727212078,0.281498859846434
0.687540204367094,0.295462928006389
0.6772378722149,0.309145792191044
0.666476717196692,0.322531868117694
0.655265245329565,0.335605796589767
0.643612475919514,0.348352460796022
0.631527934699225,0.360757003435996
0.619021646395417,0.372804843652606
0.606104126731078,0.384481693752945
0.592786373868628,0.39577357569843
0.579079859300618,0.406666837345658
0.564996518195225,0.417148168419498
0.550548739204411,0.427204616200171
0.535749353743209,0.43682360090628
0.520611624749234,0.445992930756039
0.505149234932083,0.454700816689174
0.489376274522879,0.462935886732307
0.473307228534817,0.470687199990916
0.456956963546113,0.477944260251299
0.440340714017316,0.484697029176333
0.423474068155521,0.49093593907916
0.406372953338512,0.496651905259366
0.389053621112437,0.501836337886557
0.371532631777093,0.506481153416731
0.353826838573414,0.510578785527219
0.335953371488237,0.514122195556486
0.317929620691898,0.517104882435496
0.299773219624654,0.519520892097892
0.281502027748384,0.521364826356696
0.26313411298042,0.522631851235799
0.244687733826809,0.523317704745005
0.22618132123265,0.523418704087979
0.20763346016756,0.522931752292981
0.18906287096467,0.521854344256857
0.170488390431873,0.520184572193351
0.151928952754384,0.517921130477395
0.133403570207969,0.515063319877629
0.114931313702461,0.511611051170061
0.0965312931754792,0.507564848126371
0.0782226378564524,0.502925849871028
0.0600244764213245,0.497695812602018
0.0419559170584782,0.491877110670668
0.0240360274665943,0.485472737016673
0.00628381480534607,0.478486302955144
-0.0112817943800749,0.470922037313154
-0.0286419742394664,0.462784784913934
-0.0457780196819484,0.454080004407566
-0.0626713664028343,0.444813765447727
-0.0793036108517208,0.43499274521469
-0.0956565301204417,0.424624224285524
-0.111712101729546,0.413716081853118
-0.127452523291973,0.402276790296336
-0.14286023203264,0.390315409104346
-0.157917924142761,0.377841578158809
-0.172608573947745,0.364865510378378
-0.186915452867699,0.351397983730585
-0.200822148149669,0.337450332616931
-0.214312581350907,0.323034438637661
-0.227371026552655,0.308162720743396
-0.239982128284131,0.29284812478146
-0.25213091913663,0.277104112445438
-0.263802837047902,0.260944649637131
-0.274983742237252,0.244384194250778
-0.285659933772091,0.227437683389999
-0.295818165746979,0.210120520028636
-0.305445663056553,0.192448559127229
-0.31453013674408,0.174438093217524
-0.323059798907748,0.156105837468021
-0.331023377147231,0.137468914244137
-0.338410128533448,0.118544837177194
-0.345209853084907,0.0993514947569701
-0.35141290673447,0.0799071334631409
-0.357010213770839,0.0602303404514781
-0.361993278739582,0.0403400258111892
-0.366354197789018,0.0202554044103251
-0.37008566944681,-4.02265335523039e-06
-0.373181004813657,-0.0204184869781473
-0.375634137161061,-0.0409679721424486
-0.3774396309207,-0.0616322333282782
-0.378592690053546,-0.0823908172650303
-0.379089165787476,-0.103223082473829
-0.37892556371274,-0.124108219792424
-0.378099050225295,-0.145025273160241
-0.376607458308663,-0.165953160642812
-0.374449292645633,-0.186870695674504
-0.371623734051787,-0.207756608498132
-0.36813064322354,-0.228589567779805
-0.363970563794063,-0.249348202376994
-0.359144724691151,-0.270011123237687
-0.353655041791846,-0.29055694540817
-0.347504118869306,-0.310964310126835
-0.340695247828153,-0.331211906981248
-0.333232408225304,-0.351278496105467
-0.325120266073953,-0.371142930394646
-0.316364171929198,-0.390784177713637
-0.306970158254492,-0.410181343076449
-0.296944936068911,-0.429313690773163
-0.286295890875916,-0.448160666421034
-0.275031077875119,-0.466701918916402
-0.263159216459265,-0.484917322264088
-0.250689683999426,-0.502786997261014
-0.237632508922167,-0.5202913330108
-0.22399836308317,-0.537411008246256
-0.209798553442608,-0.554127012436721
-0.195045013048259,-0.570420666657424
-0.179750291333142,-0.58627364419814
-0.163927543735159,-0.601667990888665
-0.147590520647027,-0.616586145118787
-0.130753555705423,-0.631010957530735
-0.113431553429114,-0.644925710362288
-0.0956399762164314,-0.65831413641907
-0.0773948307132437,-0.671160437654832
-0.0587126535632883,-0.683449303338848
-0.0396104965533172,-0.695165927789973
-0.0201059111663304,-0.706296027657191
-0.00021693255669103,-0.716825858726991
0.0200379370382838,-0.726742232238238
0.0406397454351644,-0.736032530685731
0.0615691081738182,-0.744684723094045
0.082806226703047,-0.752687379743796
0.104330907065399,-0.760029686332936
0.126122579063587,-0.766701457556229
0.148160315890363,-0.772693150086626
0.170422854203137,-0.777995874942788
0.192888614624099,-0.782601409227631
0.215535722646118,-0.786502207223328
0.238342029924156,-0.78969141082888
0.261285135931475,-0.792162859326943
0.284342409959514,-0.793911098467303
0.307491013439746,-0.794931388855036
0.330707922565597,-0.795219713632078
0.353969951191936,-0.794772785441628
0.377253773989416,-0.793588052665526
0.400535949830521,-0.79166370492546
0.423792945383863,-0.788998677839609
0.44700115889303,-0.785592657027051
0.470136944115901,-0.781446081353065
0.49317663440023,-0.776560145409172
0.516096566870932,-0.770936801222577
0.538873106704439,-0.764578759190454
0.561482671465202,-0.757489488235277
0.583901755479334,-0.749673215178249
0.60610695422025,-0.741134923328637
0.628074988681039,-0.731880350287673
0.649782729708256,-0.721915984966454
0.671207222271764,-0.711249063818134
