0.99773802518466,-0.3263228994674
1.00234481039598,-0.312059724873369
1.00447180573852,-0.296871990985358
1.00413204694288,-0.2808898993038
1.00137840479014,-0.26425387697923
0.996303011365609,-0.247111186060223
0.989035966410875,-0.229612455770288
0.979743342743843,-0.211908214287401
0.968624523049433,-0.194145495700077
0.955908913122355,-0.176464595422091
0.941852088619124,-0.158996043422899
0.926731443315631,-0.141857859262579
0.910841416554784,-0.125153146228661
0.894488385815513,-0.108968074004199
0.877985316976681,-0.093370290422722
0.861646269754936,-0.078407793177257
0.845780858865195,-0.0641082820550022
0.830688772622913,-0.0504790015857927
0.816654449951409,-0.0375070731482839
0.803942014085872,-0.0251603048024476
0.792790556725538,-0.0133884566382782
0.783409860060653,-0.00212492946957751
0.775976636109509,0.00871116453188958
0.770631353293706,0.0192125989785127
0.767475709336991,0.0294813551175629
0.766570797600667,0.0396257312908921
0.767936001094677,0.0497573074992329
0.771548634873801,0.0599878356929842
0.777344343601168,0.0704261280032661
0.785218247002925,0.0811750151513884
0.795026812016842,0.0923284457314213
0.806590416920236,0.103968793981892
0.819696559866955,0.116164439113564
0.834103652314687,0.128967673336485
0.849545327010438,0.142412988555622
0.865735180729237,0.156515783431313
0.882371864008755,0.171271523302683
0.899144423840737,0.186655375542802
0.915737800786646,0.20262233246315
0.931838379362798,0.219107823132592
0.947139489836427,0.236028804650024
0.961346760798061,0.253285312739635
0.974183224999976,0.270762441250069
0.985394085910855,0.288332710453121
0.994751059133616,0.305858775161266
1.00205621113365,0.323196415807456
1.0071452274647,0.340197748926058
1.00989005366818,0.356714588087391
1.01020086404384,0.372601882390234
1.00802732631145,0.387721157197163
1.00335914355467,0.40194388096584
0.996225868501473,0.41515468281152
0.986695998885414,0.427254347824931
0.974875376086031,0.438162521124733
0.960904922205847,0.447820057071754
0.94495776295885,0.456190956908663
0.927235794988282,0.463263846179916
0.907965766287827,0.469052952472545
0.887394947081318,0.473598554114771
0.86578647566094,0.476966881273344
0.843414469162288,0.479249462182753
0.820558992969268,0.480561918789872
0.797500984330394,0.481042227669426
0.77451722580411,0.480848473420429
0.751875462344361,0.480156132655951
0.729829752234708,0.47915493692104
0.708616136760973,0.47804537220124
0.688448706592837,0.47703488091943
0.669516134469268,0.476333839284761
0.651978734124153,0.476151388402629
0.635966094644425,0.476691201554994
0.621575327841143,0.478147272422755
0.608869953968087,0.480699809685826
0.597879438487457,0.484511322375556
0.588599379809665,0.48972297757642
0.580992335276471,0.496451307622538
0.574989260363118,0.504785337886451
0.570491524385807,0.514784198722427
0.567373455143011,0.526475276244502
0.565485355101878,0.539852946558575
0.564656923151632,0.554877927020901
0.564701008746138,0.571477266275836
0.565417619580723,0.589544982463967
0.566598099895782,0.608943346330308
0.568029394140368,0.629504793250796
0.569498310097291,0.651034435686181
0.570795696666836,0.673313135515091
0.571720454293799,0.696101084334629
0.572083300433322,0.719141829376778
0.571710218383578,0.742166673384618
0.570445525136486,0.764899368814949
0.568154502452579,0.787061020249122
0.564725544970245,0.808375104038798
0.560071789610036,0.828572511093672
0.554132201612616,0.847396517405654
0.546872104023963,0.864607587435416
0.538283149076405,0.879987917862851
0.528382741469992,0.893345633387219
0.517212934799345,0.904518552184009
0.504838833068054,0.913377446177908
0.491346539169892,0.919828730336343
0.476840701194021,0.923816525557754
0.46144171525137,0.925324051228019
0.445282650066877,0.924374315929847
0.42850596371022,0.921030087876875
0.411260086448637,0.915393140156329
0.39369594573374,0.907602779541775
0.375963509747317,0.897833681216844
0.35820842472957,0.886293064969184
0.340568818531399,0.873217261014687
0.3231723385368,0.858867725349861
0.306133486390127,0.843526575175863
0.289551304962579,0.827491724282406
0.273507464855973,0.811071706139542
0.258064788645861,0.794580278664496
0.243266241205807,0.778330909085218
0.229134404041106,0.762631239921708
0.215671440815172,0.747777637796082
0.202859550403242,0.734049925545176
0.190661893085729,0.721706394964742
0.179023965123919,0.710979192518807
0.16787538716239,0.702070163593854
0.157132062881887,0.695147232491866
0.146698656272965,0.690341385497284
0.136471328983737,0.687744313207456
0.126340673559579,0.687406756096297
0.116194774156781,0.689337584219409
0.105922323564606,0.693503628315247
0.0954157241683138,0.699830265571776
0.08457410085464,0.708202749278794
0.0733061557927445,0.718468257741294
0.0615327984772594,0.730438624453425
0.0491894893229282,0.743893698881398
0.0362282413493862,0.758585275518404
0.0226192319584285,0.774241518378
0.00835198532758645,0.790571798983991
-0.00656390465640046,0.807271858367276
-0.0220985309206477,0.824029197735662
-0.0382019186346256,0.840528598450614
-0.0548047582007381,0.856457669799428
-0.0718196136550309,0.871512322829919
-0.0891425837304583,0.885402070217882
-0.106655382677813,0.897855055728316
-0.124227798437208,0.90862272223661
-0.14172047710961,0.917484034387308
-0.158987975079741,0.924249180644723
-0.175882013753839,0.928762689560754
-0.192254866838872,0.930905906353175
-0.207962806516481,0.930598788132339
-0.22286953283817,0.927800989097197
-0.236849510238789,0.922512220490646
-0.249791136251194,0.914771883798775
-0.261599670290476,0.904657989334224
-0.272199854712562,0.892285385697938
-0.281538166158087,0.877803338410108
-0.289584642356159,0.861392507995914
-0.296334237943525,0.843261388777025
-0.301807672286009,0.823642279348903
-0.306051742582239,0.802786864034921
-0.309139086476634,0.780961491347458
-0.311167389787396,0.758442240531387
-0.312258046533333,0.735509870527934
-0.312554289983233,0.712444747123389
-0.312218824714963,0.68952184362022
-0.311431000424644,0.667005908106949
-0.310383578244569,0.645146886362409
-0.309279149400831,0.624175683699421
-0.308326273975257,0.604300341754634
-0.307735414160274,0.585702697517709
-0.307714741564735,0.568535581943812
-0.308465901727127,0.552920604511178
-0.310179820934675,0.538946558292777
-0.313032640680764,0.526668467744625
-0.317181863600715,0.516107288720197
-0.322762791524486,0.507250257452882
-0.329885331425774,0.500051872658651
-0.338631238615595,0.494435482746452
-0.349051858642266,0.490295438621767
-0.361166420166143,0.487499761952238
-0.374960920751122,0.485893269237383
-0.390387636254064,0.485301083768391
-0.407365272516078,0.48553246073361
-0.425779765599892,0.486384845446128
-0.445485724119944,0.487648081035454
-0.466308494527357,0.489108680016041
-0.488046817792575,0.49055407394693
-0.510476034022329,0.491776756919998
-0.533351780394066,0.492578241815483
-0.556414117615719,0.492772753065347
-0.579392011129143,0.492190585958724
-0.602008085656799,0.490681070170619
-0.623983565602258,0.48811508403027
-0.645043309385228,0.484387075880975
-0.664920843118545,0.479416559511549
-0.683363298180966,0.473149061838718
-0.700136158233458,0.465556512557131
-0.715027724059227,0.456637077111293
-0.727853209234294,0.446414445842724
-0.738458385975683,0.434936603291367
-0.746722708454024,0.422274112156959
-0.752561850250472,0.408517956141416
-0.755929603309135,0.393776994602532
-0.756819097484744,0.378175089479714
-0.755263312388354,0.361847971155809
-0.751334866450985,0.344939914675751
-0.745145081703263,0.327600300962906
-0.736842336446935,0.309980139300285
-0.726609731507768,0.292228627351811
-0.71466210884698,0.274489823397738
-0.701242473715884,0.256899502290551
-0.686617883023947,0.239582261977836
-0.671074872929574,0.222648941392064
-0.654914507652564,0.206194403207565
-0.638447138970247,0.190295726571367
-0.62198697164769,0.175010845608563
-0.605846534050106,0.160377659483966
-0.59033115531138,0.146413629284349
-0.575733550640902,0.133115866193041
-0.562328614633557,0.120461704590194
-0.550368518833577,0.108409743056875
-0.540078204357796,0.096901326014208
-0.531651353208888,0.0858624291061823
-0.525246913139157,0.0752059026388211
-0.520986240726302,0.0648340196041485
-0.5189509158877,0.0546412682081718
-0.519181268606985,0.044517323526578
-0.521675645413232,0.0343501290409305
-0.526390429391761,0.0240290164428976
-0.533240813479177,0.0134477912838164
-0.542102312772031,0.00250771280846951
-0.552812987826354,-0.00887970137087565
-0.565176337707201,-0.0207901112801734
-0.578964809115606,-0.0332840915388327
-0.593923856512212,-0.0464052229681348
-0.609776477989545,-0.0601785848126281
-0.626228142911654,-0.0746096847756328
-0.64297202020593,-0.0896838544809414
-0.659694410791684,-0.105366127755543
-0.676080284064129,-0.121601608498283
-0.691818816685842,-0.138316324081504
-0.706608832199,-0.155418549455944
-0.720164042151589,-0.172800576622248
-0.732217993483437,-0.190340894119018
-0.742528632761119,-0.207906731871303
-0.750882405367975,-0.225356918344677
-0.757097816797822,-0.242544989639831
-0.761028393590758,-0.259322484100428
-0.762564992982942,-0.275542351326482
-0.761637422794482,-0.29106240129233
-0.758215346208099,-0.305748717637331
-0.752308459641405,-0.319478959171393
-0.743965945625229,-0.332145475225964
-0.733275216205169,-0.34365816366021
-0.720359975621813,-0.353947005044809
-0.705377643643508,-0.362964212702885
-0.688516192683603,-0.370685945769974
-0.669990462508848,-0.377113541094836
-0.650038025736209,-0.382274229468369
-0.628914685246569,-0.386221312144503
-0.606889690969651,-0.389033784693224
-0.584240768101055,-0.390815406676519
-0.561249051619432,-0.39169322722897
-0.538194022935168,-0.391815588117719
-0.515348543613295,-0.391349637014107
-0.492974078400657,-0.3904783942993
-0.471316195314552,-0.389397426527217
-0.450600424414794,-0.388311188472958
-0.431028549213654,-0.387429103316249
-0.412775395637874,-0.386961456782304
-0.395986173229583,-0.387115185848895
-0.380774412066676,-0.388089645819453
-0.367220526924323,-0.390072441080645
-0.355371027727703,-0.393235404665507
-0.345238382610619,-0.397730809820596
-0.336801527148064,-0.403687893153623
-0.330007000824381,-0.411209763676512
-0.324770679777924,-0.420370765251558
-0.320980063562175,-0.431214351720404
-0.318497063300831,-0.443751524501421
-0.317161229389227,-0.457959871861707
-0.316793348981408,-0.473783237608788
-0.317199337049011,-0.491132034826882
-0.318174339922633,-0.509884207740105
-0.319506967013914,-0.529886832067049
-0.320983564918954,-0.550958331589393
-0.322392448337871,-0.57289127634315
-0.323528004193429,-0.595455716101184
-0.324194588941514,-0.618402991886165
-0.324210144252557,-0.641469958355638
-0.323409462888987,-0.664383541237663
-0.321647044564304,-0.686865546745344
-0.31879949067304,-0.708637634213461
-0.314767396834628,-0.729426359201815
-0.309476712986575,-0.748968192087057
-0.302879552068091,-0.767014416771825
-0.29495443992024,-0.783335815595754
-0.285706010653936,-0.797727049819616
-0.275164163164497,-0.810010650117684
-0.2633827054682,-0.820040538265557
-0.250437523879378,-0.827705009528636
-0.23642432352787,-0.832929114986583
-0.221455995146526,-0.83567639398947
-0.205659670269869,-0.835949918925105
-0.18917353283684,-0.833792627256761
-0.172143459570209,-0.829286929122013
-0.154719564331078,-0.822553592411143
-0.137052722869558,-0.81374992090511
-0.119291153996309,-0.803067254484512
-0.101577131201591,-0.790727833362061
-0.0840438951994711,-0.776981080490131
-0.0668128328573026,-0.76209936751421
-0.0499909815971507,-0.746373339662823
-0.0336689107668858,-0.730106883588125
-0.0179190228391277,-0.7136118292283
-0.00279430779265048,-0.697202482113306
0.0116724261332051,-0.681190086071409
0.0254688327280716,-0.665877317943217
0.0386028173865634,-0.651552915636116
0.0511018450273032,-0.638486538656282
0.0630117859854616,-0.626923956176003
0.0743953296199174,-0.61708265180555
0.0853300048104755,-0.609147926651246
0.0959058550801274,-0.603269573097407
0.106222823582246,-0.599559181222536
0.116387909485359,-0.59808812804964
0.126512162236783,-0.598886287159568
0.136707583687286,-0.601941482806755
0.147084010038783,-0.607199698824179
0.157746045994687,-0.61456603855355
0.168790122339204,-0.623906418056271
0.180301745472182,-0.635049961217739
0.192353003236882,-0.647792052312924
0.205000385787327,-0.661897989403753
0.218282973367369,-0.677107170821428
0.232221034859893,-0.693137737160941
0.246815071980225,-0.709691582867267
0.262045334222206,-0.726459644780971
0.277871819324309,-0.743127370061178
0.29423476332494,-0.759380262808085
0.311055613446964,-0.774909407521417
0.328238466320848,-0.789416868274361
0.345671943651559,-0.802620865136372
0.363231467578298,-0.814260633887642
0.380781888878734,-0.824100881341896
0.398180413026695,-0.831935756507845
0.415279762100001,-0.837592267216567
0.431931504806876,-0.840933082537771
0.447989482582044,-0.841858673093033
0.463313256895134,-0.840308754018587
0.477771501681611,-0.836263008588539
0.491245265184471,-0.829741084124106
0.503631027484665,-0.820801865522649
0.514843483567315,-0.809542045277662
0.524817986854154,-0.796094021967545
0.533512594633412,-0.780623171616247
0.540909664609887,-0.763324547836213
0.547016960726414,-0.74441907703566
0.551868236295041,-0.724149324013285
0.555523273123272,-0.702774910805864
0.558067366512117,-0.680567677559625
0.559610257510576,-0.657806678359098
0.56028452540006,-0.634773107296141
0.560243464813503,-0.611745250561448
0.559658482931038,-0.588993558992237
0.558716062607166,-0.566775932349691
0.557614346854992,-0.545333301700832
0.556559408638908,-0.524885589747864
0.55576127722572,-0.505628120921152
0.555429798257367,-0.487728543696787
0.555770409104909,-0.471324317107136
0.556979913842333,-0.456520801996664
0.559242343271109,-0.443389985465195
0.562724984797256,-0.431969854379795
0.567574664611437,-0.422264421074418
0.573914360583767,-0.414244391646547
0.581840218627014,-0.407848454852391
0.591419038106524,-0.40298515773996
0.602686283315096,-0.399535323073261
0.61564466824772,-0.397354953504949
0.630263351091362,-0.396278558542275
0.646477763197566,-0.39612283279033
0.664190085057204,-0.39669060788811
0.683270369186933,-0.397774996086407
0.703558297114302,-0.399163640629354
0.724865545065256,-0.400642987036525
0.746978720764288,-0.402002490048208
0.769662822198667,-0.403038673366227
0.792665158506488,-0.40355896333594
0.815719663541259,-0.403385223278336
0.838551524340124,-0.402356922170509
0.86088203985067,-0.400333879636022
0.882433619997781,-0.397198538566797
0.902934831610205,-0.392857726956982
0.922125395957481,-0.387243881471533
0.93976104271673,-0.380315716670015
0.955618127105399,-0.372058335423578
0.969497920653433,-0.362482787661027
0.981230491583966,-0.351625095921207
0.990678097927944,-0.339544777042575
0.99773802518466,-0.3263228994674
