0.39877064994796,-1.01661338897892
0.523408395110819,-0.928459653291393
0.60057746275551,-0.788821415696868
0.624447500750331,-0.626562541725123
0.606359108825976,-0.47099125184793
0.570667248144618,-0.341739758374639
0.56062889349842,-0.237591624703758
0.551421107774163,-0.126832394924368
0.605837676789117,-0.0312420046893695
0.649911112706236,-0.0228044779129315
0.737042656711208,0.156885981269438
0.797023911452636,0.363365889649183
0.733524441836819,0.432260190118346
0.714685478587623,0.611218487763278
0.569094937316392,0.700668586521466
0.407519158759344,0.711328380152896
0.281227552698136,0.663966691603987
0.115357298610031,0.579387384020944
0.0440563478754551,0.449961943987428
-0.0620536227197754,0.371820719283871
-0.157139461305784,0.378413730514846
-0.221133459781969,0.344324343594171
-0.336025048321803,0.352591415523023
-0.503016048909333,0.313812014761241
-0.626897381385356,0.346434593602952
-0.78307006363041,0.246004303453048
-0.881578411380363,0.124458283929109
-0.930186171418002,0.0105836373910826
-0.857152898809049,-0.18705203620325
-0.733330048082641,-0.277531435434142
-0.655789753555319,-0.418042314888774
-0.485327575701941,-0.43135077703365
-0.385057300491697,-0.446621145360979
-0.293508462226827,-0.456924386959674
-0.225558607652363,-0.550201314281239
-0.163758026740301,-0.663530225946779
-0.0939987342837869,-0.716325344763752
-0.0194697916731602,-0.89185575149069
0.110542386988857,-0.991775863689951
0.300257627510306,-1.02856670729268
