-0.490771349862259,-0.30902797773508
-0.461590691538733,-0.347912769638094
-0.49039838320584,-0.308975136507931
-0.512655565430973,-0.347587615478311
-0.489260758703177,-0.308909139761677
-0.46134766147559,-0.337584110568436
-0.503290119783744,-0.284998859670365
-0.493383552705546,-0.353044522996456
-0.503964706938403,-0.263270743517128
-0.454609660787828,-0.350180733143495
-0.519666436479468,-0.268807172260969
-0.478875907823177,-0.310535107736171
-0.461885844131284,-0.286337800285616
-0.426851378485456,-0.34144737840154
-0.471198859362428,-0.313081610570427
-0.428180716026721,-0.306576103541207
-0.464955065309857,-0.315690987330178
-0.461489343448994,-0.317308652490351
-0.441809246189175,-0.311812084118537
-0.453861783417651,-0.32122974427778
-0.465204009572645,-0.346832744088361
-0.458004853063233,-0.319272152047601
-0.440725403202947,-0.303951959996796
-0.442088294154556,-0.28965389552182
-0.457555511330996,-0.384472405874797
-0.425325088829186,-0.339205720518751
-0.452779386756398,-0.303253113725309
-0.455019232784751,-0.322328338464233
-0.418291787353087,-0.33037982292036
-0.426901773411305,-0.38237362742392
-0.395009223671238,-0.362190448110085
-0.388236346787333,-0.367715491725735
-0.35226539428725,-0.41974502504498
-0.373989253858216,-0.379706036576486
-0.366518146996967,-0.386170616530362
-0.358817784286369,-0.392945956576722
-0.35089028712765,-0.400029350298598
-0.306443608015545,-0.388567418064618
-0.320079654563325,-0.381448584982149
-0.325769574353589,-0.423087395918834
-0.31695923655483,-0.431358126834013
-0.307935716633419,-0.439910084490339
-0.298702458108434,-0.448735307921373
-0.33250185489669,-0.45867477870459
-0.248245610552684,-0.426475044730748
-0.252352391050008,-0.426948365295192
-0.248465265348119,-0.468094263048704
-0.249525104174877,-0.496624344118625
-0.23911721086886,-0.506876523693552
-0.272268730049828,-0.533652748870728
-0.203680887832512,-0.500318375326287
-0.222660537004344,-0.497872471333374
-0.195736497464531,-0.549693821262905
-0.199001132104693,-0.587295094188246
-0.173070566681715,-0.571975416369705
-0.187331386834129,-0.590505137469917
-0.168964901865376,-0.606364698463553
-0.154521953470892,-0.599897559308845
-0.126015001063936,-0.617616775206632
-0.0982758481777294,-0.585398800944123
-0.109180706832081,-0.6285337732731
-0.111465806367049,-0.61091862962052
-0.102949191166926,-0.639151575762228
-0.0724757167506164,-0.721058103089337
-0.0572316605103923,-0.69447602263749
0.00480214206132636,-0.733411027062012
-0.00589063994867819,-0.677471143614467
-0.0135604640905908,-0.720110779104445
0.0471487828140662,-0.712057837730369
0.0123054369846929,-0.741767049390733
0.0253173745033768,-0.75232212404117
0.00634356555883271,-0.73320713845702
0.0514653265494356,-0.772787031664466
0.0730600358833249,-0.762869333060706
0.0777337625798677,-0.792261836510399
0.0521469555769564,-0.774993200139821
0.128509892561481,-0.783057553797267
0.135003253049424,-0.811254596977179
0.156731163992961,-0.843514034856109
0.143583681083,-0.835635227709795
0.163808363972542,-0.882252553570718
0.169859638700202,-0.850489664743118
0.136581564656679,-0.856198332519411
0.151650915749213,-0.838640112710526
0.188053473944474,-0.89289609457702
0.267129363389991,-0.883086049195848
0.261716322035044,-0.885693363408246
0.294062586383997,-0.887869686558355
0.260645143354763,-0.888984200973417
0.273389808648445,-0.892596669332763
0.303305149172323,-0.884075496953377
0.263434042702872,-0.940253312979822
0.314067649906994,-0.935446422663729
0.354240082585719,-0.885575615894086
0.363811884108721,-0.915643906049992
0.386760609523161,-0.856751184678729
0.360334398908229,-0.903325752456983
0.382101177866365,-0.893690273109114
0.402122543712273,-0.91609812033803
0.433136212993772,-0.864441164043229
0.453035355857002,-0.88072715688473
0.412175095936077,-0.930965922638268
0.430962403085765,-0.891326468788257
0.447747449961282,-0.918079648653193
0.453574413908759,-0.882926853091373
0.503411474719575,-0.899837967012087
0.475688390671981,-0.872363918033308
0.51739717006534,-0.875357678444977
0.535226221994446,-0.81841101189865
0.532872382830593,-0.813250504537278
0.529524254253518,-0.864604654894223
0.563055858281222,-0.835419494322737
0.537910511606114,-0.82537621023677
0.554499468536334,-0.812179509152352
0.539355850240651,-0.800418798808825
0.568710763478877,-0.79959343365578
0.578373521502971,-0.789162671300324
0.615627775893137,-0.750234913939219
0.563491042913205,-0.789579589332499
0.606548442627144,-0.755399557001846
0.621292531993342,-0.765754498448267
0.57851632173299,-0.716018272543404
0.681561276991744,-0.698118748688937
0.642233780582293,-0.705220581176861
0.650824167625981,-0.69187069444334
0.659284216518703,-0.678236009922615
0.626418598158834,-0.683902104108955
0.675818223291201,-0.650190166558231
0.683710827480649,-0.623652142614788
0.68106107825715,-0.647546944594475
0.695625910194403,-0.603354576594245
0.667148638321867,-0.594747114326112
0.684443073224502,-0.569814955572727
0.688257438491757,-0.545538439291514
0.769360047389806,-0.589995434533311
0.770345674825222,-0.522076194397691
0.744145042209682,-0.515212302924767
0.751156497355336,-0.499747553747736
0.722043478581675,-0.453949235794359
0.7817298177727,-0.514268778493896
0.771540534787189,-0.45333953187131
0.728715618862867,-0.47959836113643
0.826996355454722,-0.421650858070803
0.82178103900887,-0.360452981960461
0.80663584994734,-0.409810502315672
0.775038314687261,-0.402232312378876
0.823861760963375,-0.320649758468235
0.815532617732047,-0.347566454418409
0.786709129030683,-0.334682354771674
0.827241103518661,-0.318677912469694
0.784755314132366,-0.341099919107007
0.838587131432945,-0.290637175078405
0.855434170128637,-0.270886194391125
0.849579379259306,-0.263568580522103
0.854945091070232,-0.250434756143089
0.860224838568007,-0.237585637169827
0.865419204897305,-0.225033574652008
0.826252964346279,-0.210855614063332
0.85721713704187,-0.177154574630203
0.923398210389713,-0.235952190278545
0.909476810992762,-0.165392683130263
0.864512622566903,-0.188779225006947
0.863073515911855,-0.173144562606527
0.911121753394507,-0.103384740568854
0.891399456909331,-0.114789508820906
0.862166507229778,-0.132675851621606
0.910311224155438,-0.11835637462753
0.92714131491185,-0.072225306876466
0.940339495764792,-0.114245866493602
0.962473772870172,-0.0511177051379412
0.96698286230046,-0.119368225788315
0.927152843174289,-0.11390388189449
0.93687209821842,-0.0714469418712288
0.943155019533259,-0.103765630808384
0.951444428585765,-0.0259741717155856
0.947673613896555,-0.0532625811747591
0.96980462373407,-0.0623252548620737
0.969326327489583,-0.0214530412598927
0.957547501300056,-0.0383359999291591
0.983730434206959,-0.0605082108253945
0.976863333052963,-0.0594381267978227
0.947335381776935,0.00399821585322248
0.980867171022266,-0.0530280200527265
0.930149573952366,-0.0543864597542948
0.957794442836676,-0.022738775104227
0.976584973334255,-0.0150210346283619
0.982724028955907,-0.0504392547322558
0.960272867481082,-0.00885107598957062
1.01886922343091,-0.00090173127854324
0.983004793555037,-0.0194371427968456
1.01271696297233,-0.0249533647331012
0.987800610885199,-0.00556722088547787
0.975382918176297,0.021166389836837
0.977558225647863,-0.0218644984127581
1.03640097234165,-0.045908649961581
0.986701714154513,-0.00837204643144195
0.992975403260629,-0.00278832173081991
1.00492691352212,-0.0195836759520024
0.993872046061027,-0.00248397422634913
0.953361198701219,-0.0014843414084738
0.994054047126901,-0.00243581718130984
0.993868006438374,-0.00246441031548514
1.03984432161528,-0.0507726539923237
0.9515578234877,0.0384568354935894
1.03394190000218,0.030281828484946
1.0189690010875,-0.0225141366961651
1.0058320291869,-0.0442598697584221
1.02270432201687,-0.0256976480724507
0.987071905252661,-0.00203809619555226
0.941566493104968,-0.04170381954848
0.958937154156452,-0.00320161609780996
0.967204172367439,0.030821383866183
0.939492685214545,0.000191360619251547
0.96815649820938,0.0305530489690201
0.973029061868994,0.00220026075745189
0.957142026009667,0.0010467044752911
0.966556829446989,0.00501304590061397
0.923785543281807,0.0169251471212759
0.973010967463668,-0.0324608974904126
0.918010071294815,0.0415781417548303
0.966251071339237,-0.0151249854599607
0.938952207389165,-0.00120437283311861
0.981047844348632,0.0132133387732843
0.93656609689459,0.022314877900996
0.93133548315242,0.0258630602664076
0.963096141735015,0.0330979398708554
0.943858419238983,0.0118470482448745
0.914214900147807,0.0382819713485623
0.923299268227125,0.00226218865382537
0.903725975799269,0.0877131260082957
0.894957934065361,0.0534544124615527
0.858683700052035,0.0317176772667566
0.880944020408049,0.0651314763906971
0.873588266286894,0.0714399419563047
0.866002280454929,0.0780601841791181
0.858188071231616,0.084989945398501
0.850147872850199,0.0922260711815551
0.841884144242032,0.0997645143096944
0.867681792043472,0.0733283049997257
0.824697045245602,0.115727738013341
0.811227538155718,0.166465271029835
0.792080332574366,0.11339860464944
0.797314095725377,0.141788272301426
0.787773145038609,0.151006646099932
0.778031976224645,0.160474768677931
0.790743765622834,0.172064531607422
0.781258544912799,0.136562227810829
0.742360067389471,0.187564967086973
0.71707328411543,0.227143417021396
0.711518562529658,0.232340835559326
0.715626770008909,0.221870811940396
0.742215549694025,0.241802332415683
0.658471921756519,0.234859520033602
0.682100005468775,0.254902131801282
0.646312617135595,0.291842047712489
0.659331953977513,0.269618023289165
0.67660635178781,0.296101700697813
0.592295744463402,0.286074286173131
0.595496283955778,0.342176694310186
0.611144867930234,0.323457411622131
0.598883975120941,0.334995658727941
0.585851137127076,0.298678015145377
0.611997496664624,0.346013469201887
0.523645590745359,0.326818035024955
0.54883246066073,0.3807638493556
0.53191883973624,0.360449044750063
0.560007501245267,0.443203888032805
0.539508728941491,0.461780353606379
0.531732847346804,0.394085703897488
0.469558725988061,0.455333116062034
0.453027784500154,0.417030792105006
0.409745679859885,0.413342493313688
0.445282546395352,0.466295164299209
0.432147493322517,0.476034940990054
0.41899236398744,0.485498523873287
0.365247775116142,0.451337423546905
0.39264833641225,0.503522859159635
0.374546656082686,0.526428763054927
0.36630273703612,0.520223675012574
0.402672301746911,0.486890092766509
0.313263750847215,0.518740519439633
0.326892639752743,0.542495447841725
0.313809483961331,0.549114412112517
0.30076305451913,0.555306081880857
0.262226865669412,0.548560541406029
0.277085290229666,0.597473486021282
0.23423469147947,0.604020375545463
0.214422173375626,0.539635893425846
0.236279640270475,0.579393491849464
0.272262170643941,0.548350842702144
0.224849706903738,0.567433839646962
0.215597436302805,0.552645844923843
0.20778416883861,0.579309751236547
0.192846518022781,0.587230797628619
0.202534402203412,0.549879513908483
0.14462344555986,0.610340330492094
0.12590155810944,0.617849513588019
0.124942778248524,0.590727964980074
0.125331618485169,0.613567668894059
0.103200881750323,0.58605259014026
0.12007706373874,0.553997415610263
0.0780721583557784,0.581625147774815
0.0241743585553739,0.60311934038714
0.0294645378564946,0.605414326464601
0.0782869207647259,0.556579560944561
-0.00199752749297803,0.606389735518454
0.0221685314074538,0.557930661037123
-0.00669156317344229,0.590912140611845
0.00069766845484226,0.544728019564067
-0.00984064164508452,0.537356310841805
-0.00748099661332144,0.547901904213538
-0.0664295630459799,0.483278470420257
-0.0406545083389578,0.512272406277173
-0.0216537385449258,0.517187470857459
-0.0473244928683713,0.472872234311848
-0.0489355324685295,0.435413582770181
-0.0846193469253871,0.430316052452153
-0.0893074682970175,0.46127063606089
-0.0577558153801062,0.466865696784113
-0.157706016058756,0.454651207109842
-0.126700839422189,0.467697368985862
-0.17288442700899,0.45867065457702
-0.134583575639638,0.400323372149591
-0.143239552792773,0.387123028236926
-0.151764626074969,0.373628343819883
-0.145508732667824,0.382032719955073
-0.193852957040108,0.316916675956259
-0.176566477418706,0.331572031225435
-0.184580451096283,0.317095550555624
-0.224529620404999,0.302275904301908
-0.229294739402074,0.292767469091628
-0.20788343709775,0.272579633133133
-0.253515094453392,0.285641764123996
-0.237485850599716,0.263315533119534
-0.211403527654036,0.182504096298409
-0.230538145163569,0.187372905612326
-0.269280826009126,0.228790489195075
-0.260425617614336,0.22240834440478
-0.283824613323483,0.158422206578436
-0.310327281837343,0.179130112623939
-0.251489684296493,0.126404918512033
-0.278071974013636,0.118795835799452
-0.284502707250017,0.103496919133232
-0.311791961795845,0.109394725938865
-0.292524855376205,0.0515722246933928
-0.266828642377219,0.0716737217098431
-0.30924191453698,0.0434461305509915
-0.270300270820114,0.0218861472391697
-0.307351582886204,0.0379178317637717
-0.319688878706405,0.00858774543837625
-0.333847697697411,0.0328693277740932
-0.338062271869852,-0.0276851436178775
-0.323355142328069,-0.0879773218655172
-0.347381564372382,-0.0989451217832431
-0.36188674508343,-0.0690303463722409
-0.314949301264843,-0.107226570282839
-0.380035808550532,-0.0970688552551886
-0.322730497100831,-0.0582310057268622
-0.386826976832446,-0.0684754447523141
-0.379626764687119,-0.127859003301796
-0.384440689595139,-0.138942918177845
-0.388800338438076,-0.173067788053151
-0.393814724406535,-0.160052398881358
-0.433372497118698,-0.125264303576689
-0.421299685770572,-0.137072752097248
-0.444803999756086,-0.227326558132947
-0.389863057391097,-0.15631776674211
-0.415745454258455,-0.206391696502234
-0.444759873996433,-0.254476825000333
-0.374121330303305,-0.267536008040109
-0.41677508115588,-0.244486872222628
-0.431680008739938,-0.236655781110466
-0.43542844719206,-0.24327524846088
-0.465999187734484,-0.21883185657838
-0.413468727550399,-0.217704832220455
-0.446079581595522,-0.26090665280622
-0.406514775383937,-0.293295592498835
-0.454123447335752,-0.22106112734994
-0.423287608526566,-0.289347106070071
-0.479280438415368,-0.293920993662767
-0.440206900350222,-0.324251274269983
-0.418977574612494,-0.261830430426352
-0.489981372145201,-0.241198376780148
-0.494730871140849,-0.313942447082466
-0.499348006508483,-0.286415785547688
-0.435652985876585,-0.344221037714138
-0.490035114259607,-0.348418703813261
-0.478571277640788,-0.301378055557543
-0.523427480111645,-0.294122192435291
-0.526716158668118,-0.322796927329349
-0.459549584870482,-0.349127574056926
-0.53453610822978,-0.339842870896826
-0.486734813675179,-0.271081921666977
-0.48758864853281,-0.307720792565207
-0.5186686457914,-0.311104995052141
-0.470286053925362,-0.357318387008364
-0.460951007265951,-0.283131987418697
-0.490890062394271,-0.357482599288974
-0.527798322698608,-0.313617702228709
-0.474007178710861,-0.349321294597172
