0.489985604458704,-0.688193648319305
0.48937098233832,-0.687833757637809
0.487543773495546,-0.686729209913715
0.484531617288696,-0.684844438312813
0.526086385795376,-0.731292102907237
0.468842071569086,-0.65450549324421
0.434682231506375,-0.635919218144184
0.430722069570856,-0.64816271791305
0.462701911204547,-0.710014573168375
0.428818179699337,-0.624891024019829
0.475466089259603,-0.687414110827303
0.414446391435905,-0.683987972509586
0.412267620954044,-0.618824970356464
0.321826673005324,-0.72871268980332
0.34650500126891,-0.564908864902497
0.514981586770942,-0.435705823560751
0.355657551798843,-0.578321275648617
0.286010421009361,-0.634372145580267
0.325527474337129,-0.579901148284333
0.294002945846737,-0.545498079136108
0.292830510836802,-0.513170874431333
0.314979513920371,-0.507629049114759
0.213590337849071,-0.463411450056264
0.242602582702541,-0.455047201920148
0.256006508869701,-0.388537305507196
0.161770517075696,-0.426850004974049
0.216043000629942,-0.343718382415468
0.157905973095141,-0.409938232988928
0.157678387927718,-0.343199642911142
0.153000794492091,-0.338231950324276
0.225698812606218,-0.179941842780709
0.223183536234196,-0.161730172287296
0.183860868656349,-0.13999554784464
0.095242026250847,-0.223073052715099
0.0619771345834422,-0.191621288837779
0.047326563911458,-0.165324100077475
0.0561581413059963,-0.168189966440528
0.0370903202965189,-0.112337423734375
0.0200695708447963,-0.11687768369212
-0.00626740132103143,-0.0595803020665167
-0.099058196650836,-0.194085712815487
-0.0653029424783491,0.0351457153093319
-0.0159627232012003,-0.0133974274338216
-0.088901973564987,0.058159181242417
-0.0418546170311131,0.118507118178331
-0.0971507987572313,0.0497262718471764
-0.104158661394269,0.160933962424465
-0.0742908501720499,0.102590692857339
0.0383666013571517,0.276059207566218
-0.0412075956469489,0.274683250155989
-0.104501901557566,0.20521435886543
-0.109747328560678,0.225222502704019
-0.129821516032226,0.224751063425571
-0.145430312294938,0.307696175134331
-0.122163936058071,0.279335852688445
-0.146349225153811,0.250970670267572
-0.135301739045695,0.355457650720336
-0.130136816268974,0.323509334538439
-0.100321278639743,0.310737704106123
-0.133397370509393,0.346847972999642
-0.120209490418651,0.32683431737377
-0.112977809342205,0.410472133806601
-0.141315237506088,0.332467792369337
-0.138821777547382,0.328732855754423
-0.255332337911993,0.259856501862875
-0.136649150168274,0.384748089349417
-0.294774674606886,0.278571157866241
-0.136681535443255,0.386171827285432
-0.0895952324573465,0.387340712542676
-0.113883251569631,0.414791978046364
-0.107026505241481,0.384794452216502
-0.141420100630196,0.378495347698105
-0.113782178658494,0.387788866948495
-0.115082731045666,0.391131865401271
-0.139619905300002,0.346820771336001
-0.106433388521074,0.335294174668724
-0.112352569076624,0.363496759861052
-0.105156734661861,0.293482095933865
-0.105721118785951,0.272955707376196
-0.191880199904802,0.31347957720571
-0.0550777336446917,0.369199568439836
-0.162413840563721,0.252967648548652
-0.234519087410122,0.152598266267082
-0.264750494386271,0.100633421741614
-0.140239231615549,0.217170534108166
-0.179169110158404,0.162205670887483
-0.218608235903026,0.131360858338159
-0.193490418198896,0.116378294738596
-0.182381483562865,0.0987324683027519
-0.210304874246601,0.0679763965018081
-0.219652832538985,0.0429785124336178
-0.263773350894914,-0.0263475939992762
-0.405651474359182,-0.0786591315993861
-0.251405885808923,-0.0343701243487745
-0.263191700445932,-0.0607034405625057
-0.275552242032866,-0.0871942987315356
-0.288466846017868,-0.113772373014033
-0.346742668788438,-0.14334825405535
-0.290116119072056,-0.14574234731353
-0.350861612157499,-0.209945505297772
-0.296614006566907,-0.256036050164767
-0.348175431546607,-0.232311557782915
-0.376025770197112,-0.27123095125019
-0.363689526708419,-0.34140341299878
-0.414895387366175,-0.356633173031266
-0.396717145944006,-0.393972332513005
-0.441287426925468,-0.369559824123169
-0.458176351385693,-0.387142988592843
-0.451265952445406,-0.404901472081344
-0.341644645036655,-0.337051411053993
-0.54668541550363,-0.491311761858363
-0.565417922115662,-0.526976980146429
-0.541928503805276,-0.498209777744474
-0.558312536284614,-0.516891626127733
-0.732466574399416,-0.666978776842399
-0.590216488807961,-0.551592572030579
-0.65262040345813,-0.586186157328652
-0.620567580076822,-0.582588820719659
-0.678022039321888,-0.602555438840203
-0.648887421712147,-0.609747406355154
-0.665838036612625,-0.612203989207566
-0.674707259617511,-0.632995645877571
-0.696094006753601,-0.606580803516623
-0.697575482473241,-0.652320871966287
-0.707768105707056,-0.660524528088354
-0.669123167455788,-0.714137953489043
-0.680977609156299,-0.648251548749209
-0.73278000805941,-0.679443511662767
-0.694190272784609,-0.716803122948136
-0.765719987305912,-0.683336203387044
-0.764206998911004,-0.739943324544816
-0.721346033032229,-0.735840637395968
-0.723179968518049,-0.703984588263318
-0.797584246384855,-0.708312063880805
-0.756856983097629,-0.683090826631768
-0.762865930088663,-0.677743669768001
-0.853414442508954,-0.814339405753683
-0.74190667367916,-0.68124919147503
-0.747528412997286,-0.646460943769746
-0.758529618375851,-0.68580480361407
-0.838404800535932,-0.781033766945962
-0.713267758018604,-0.67428024965058
-0.676732545448188,-0.65635422458989
-0.654654979100834,-0.636271440915028
-0.549392963878585,-0.560033127795822
-0.662144774776466,-0.654536492202091
-0.64626594761461,-0.649079210420804
-0.606354622435641,-0.616775826720193
-0.736127174909118,-0.736936650447913
-0.591613616032652,-0.632236075848943
-0.57749333317551,-0.6460136532877
-0.51383894470827,-0.5944991762665
-0.691040156877162,-0.731247055278755
-0.535869529935006,-0.56580011401996
-0.479450538518278,-0.605340513896188
-0.462931113965161,-0.648363589588457
-0.428327652007651,-0.595964637451716
-0.401650934930153,-0.591717648449314
-0.423830375278633,-0.54478772121253
-0.351471509804303,-0.554904544882189
-0.337099007504644,-0.555782555149796
-0.301904461015421,-0.570509544321498
-0.308609880492228,-0.559680292338569
-0.201503187634429,-0.574951735844108
-0.197466080997604,-0.568142925684973
-0.1967771802609,-0.578436053779968
-0.140034699202159,-0.571264494528747
0.0248162552570888,-0.446537793749845
-0.108851120632387,-0.595943472362445
-0.0840486806286943,-0.554921898652327
-0.0644084305718047,-0.552817779864821
-0.0997523300244739,-0.679821180622803
0.0378468069951014,-0.542367554392155
0.114443013694656,-0.53781982528594
0.0504632400540593,-0.538354579926244
0.170579924084887,-0.582156364215564
0.186970083731792,-0.569641788999876
0.157161778185416,-0.566685551354908
0.0504397427628069,-0.661352555817223
0.230323338006561,-0.574928543707739
0.292280584929114,-0.653108384066353
0.121619755261844,-0.745287624402013
0.389590320998004,-0.501394553561993
0.448170962703428,-0.559136827905648
0.336978149253423,-0.630955515588658
0.355822773904355,-0.636434506870253
0.331423694948496,-0.681978659639427
0.290566980100023,-0.75076025003872
0.370456335845508,-0.687446170844032
0.419457325643957,-0.657586251317575
0.436797225891973,-0.648136099334458
0.452324662723946,-0.631786209500235
0.450877205971866,-0.698675726195296
0.439635725366777,-0.629295501546432
0.459659834555619,-0.727958712286445
0.504692868462445,-0.718553925644374
0.482273512032455,-0.684154110479047
0.486068162060705,-0.686089072408441
0.468623084006412,-0.690223619583479
0.583721058098263,-0.54346338315605
