0.889324609226089,-0.117281814027982
0.905204267566881,-0.133207032003636
0.866756592699883,-0.153108556045568
0.865662706934158,-0.121914657908753
0.904608270751521,-0.0893610084628458
0.867774901887049,-0.101046059303264
0.836801507754138,-0.0931880461568239
0.869848928060568,-0.11007441375087
0.859524580589679,-0.120834488700098
0.857666455002969,-0.104424255334426
0.850600365288179,-0.100844313494976
0.842926191729518,-0.0967258961811078
0.779532579012278,-0.095424988660932
0.825889717668087,-0.0867804099261049
0.823167825985813,-0.0827525059232696
0.80684488619641,-0.0744237653476018
0.785343036209188,-0.0893465424475612
0.776479990592484,-0.0436683855811451
0.792580299076533,-0.0172338406030682
0.763985120144419,-0.0420122663423554
0.752517674142049,-0.0322542308651892
0.746579462671337,-0.0518194586478752
0.719145063390919,-0.0413004969845045
0.717336026538345,0.00364793507208466
0.723480445410421,0.0211641640262356
0.673065017387904,0.0311884501931937
0.680691193810046,0.0402104075814373
0.668615944706736,0.0545336015386122
0.656622335633307,0.0694615252488138
0.644750375070352,0.0849745671966824
0.64733431471748,0.115748337367302
0.621525755646537,0.117665413585521
0.619669865550377,0.114878614562126
0.599237347999829,0.152401817279086
0.563562529048057,0.172007999399782
0.592172621848223,0.191773562042306
0.551694343730778,0.237595377926253
0.564624863045168,0.246659029354066
0.587730119902646,0.206273365276822
0.51366705408541,0.280691071319112
0.51531023611288,0.255430311014431
0.536250908048965,0.301570312719569
0.512876558852162,0.259549651993749
0.510222727550377,0.347383434591711
0.524015823652684,0.342517409795085
0.505590904439955,0.385585580812066
0.516323634427855,0.385659113123264
0.449336885527657,0.441922159112297
0.491481348496821,0.450863682914998
0.500380363619625,0.455515113674183
0.47705434593299,0.48962806777161
0.507855508682211,0.529018105333799
0.482658053399863,0.551654268791429
0.457663385693837,0.57367326907821
0.469462175235681,0.566222875059967
0.475808191251577,0.565151940734093
0.447986724233709,0.630742251953776
0.473324937736852,0.639764617636254
0.419838832187356,0.673957079434811
0.487455169629882,0.688854230392995
0.471258734804276,0.667603668147509
0.457375464567851,0.644342004597059
0.510391226186028,0.699240808546696
0.487939694395456,0.679686759693267
0.478553174792912,0.743556011986261
0.490457302093706,0.769647474403449
0.484793411556882,0.734204194582694
0.486420269944902,0.756787904521616
0.49993433334215,0.773691951949748
0.491772067220758,0.775458444317823
0.487731794712875,0.741946760228653
0.497000610725229,0.790911629958837
0.506504326439729,0.764384603979097
0.502351035160669,0.738763644511584
0.485706345069723,0.85017237395288
0.485847734206442,0.843130794255487
0.541056642942553,0.808795132474547
0.526098327895686,0.820564245032946
0.509634984714189,0.819560456426116
0.510055742159601,0.855523459800024
0.510324864261126,0.82073851673062
0.483813233062037,0.851146429154994
0.509180026795213,0.819041210543632
0.498236061329492,0.794119486589135
0.496506545184281,0.814684057972699
0.503465355359711,0.811534195852155
0.492199441103856,0.825791796154182
0.493584817116726,0.779446018582006
0.492564244458729,0.827403677477439
0.487260457246008,0.793529487973974
0.491759631383543,0.797630607622087
0.490169566318899,0.790410076425496
0.491807583639735,0.754256045010859
0.451321437875691,0.761981539915279
0.451492891286442,0.761390270382587
0.47355129866616,0.746491837839951
0.419047995987462,0.758102805040746
0.426176832669403,0.727722143570129
0.409761358116464,0.731093596109073
0.39750836576411,0.723231291782628
0.389820164735974,0.696386279632415
0.370876542420856,0.707453508705354
0.369577875458595,0.683835072958819
0.341505680389293,0.691876160364852
0.325838543704606,0.684261333752446
0.309546144644877,0.676812957049683
0.292653369091932,0.669567375365938
0.254155752041722,0.685717453538152
0.257177529729776,0.655822682988345
0.229476815779356,0.661061432549115
0.226349843262417,0.624943462622275
0.200208668910989,0.637545650479811
0.129917947819781,0.651974939196938
0.13627917606053,0.626381654414354
0.139586966724228,0.622730994126411
0.090741090253296,0.623314265728337
0.0920150318473317,0.604515708078047
0.0763864369340656,0.611953426313004
0.0258306751958339,0.597984493977918
0.0266967349607723,0.61093741579427
-0.00439265352792446,0.592138959773739
-0.0082672501760259,0.624054517213927
-0.0400854537026242,0.619457992080278
-0.0720675250281278,0.584690320714951
-0.0586174702436691,0.607837514436652
-0.0957509481836069,0.605174513103202
-0.0888694005940461,0.619099158259942
-0.170774418056609,0.591501105753148
-0.158177913973959,0.610847071187804
-0.163244033498022,0.593278736698718
-0.196699101754404,0.594687307642736
-0.181859315281375,0.584492557504909
-0.250128569624692,0.661240984106981
-0.263954868857368,0.616889567517394
-0.299668592421975,0.615008616372167
-0.290422566987137,0.637601773678033
-0.301490996608786,0.649794099712706
-0.351267379372956,0.626908202196136
-0.338994771450612,0.655068442192037
-0.353896406270952,0.66092019940158
-0.396904634562959,0.632535319838051
-0.415737514998707,0.668612859411274
-0.394422066291756,0.679054683621539
-0.397585723640322,0.673377853741582
-0.452451243070192,0.705226038465678
-0.406793496659671,0.700800179185889
-0.406514463608182,0.727012255080092
-0.452557543184568,0.686926514470548
-0.441398722948967,0.724084574799618
-0.43376990356331,0.73815102525288
-0.435201357657301,0.724415306034152
-0.503881680033383,0.70719346263552
-0.481069033283521,0.733459011865471
-0.485626025606526,0.737333958647146
-0.489474784027102,0.740766239036252
-0.468464372954818,0.74010743073918
-0.541679119985439,0.744713625102984
-0.510828415861236,0.756003334029659
-0.498181736981891,0.749361355775221
-0.480077834520663,0.744325717219377
-0.465836397907907,0.758079804719677
-0.49469863204934,0.731403564755631
-0.485771859483705,0.703138460320003
-0.455914121652291,0.740919829883045
-0.508004490827888,0.769272949375779
-0.501370309125527,0.719711278732874
-0.473081894193562,0.724268752467129
-0.505933210981228,0.749230854573666
-0.482916310908801,0.725019853680306
-0.480295409266297,0.721899027462118
-0.475741465992856,0.711078517218628
-0.437620481448259,0.735153898242879
-0.467930885676071,0.69396710970216
-0.468242549865653,0.710036559580422
-0.484604351317524,0.637015844478727
-0.455743412523454,0.662419203795523
-0.433324652070417,0.656036934104615
-0.447777517609379,0.637579949546082
-0.443960494055756,0.624063157522786
-0.406130139092886,0.588736732859392
-0.436846114093782,0.594935831440781
-0.433620290711442,0.579372825664778
-0.410109051880399,0.550998523192389
-0.427999457313224,0.546384153064378
-0.40956021316821,0.513231531078589
-0.419443306719266,0.517669779766658
-0.411821113331068,0.4998746853965
-0.425009986992569,0.470738919882829
-0.407964841949522,0.467161931738168
-0.401905948169273,0.42669323809277
-0.383290210542915,0.411103025467653
-0.42066666699181,0.39453223221392
-0.384136683022571,0.3730712045743
-0.41770798551576,0.368705322141089
-0.425614974845601,0.332181436089193
-0.418751818012191,0.308023420587494
-0.443288445947738,0.304360154810157
-0.41617645276686,0.274242939867545
-0.439439364129528,0.247510886822539
-0.461753105830457,0.275111705199822
-0.435065690849942,0.204490727650198
-0.455164141887097,0.184442248008395
-0.470971997405106,0.163897901490311
-0.469551149430359,0.163961636801236
-0.464763020856679,0.113511938057935
-0.469701123426914,0.11422867688331
-0.49064557103904,0.0836642108538438
-0.498955704239901,0.0645270347232675
-0.48109364238567,0.0509096864947788
-0.524430020168374,0.0185506696679032
-0.530412336800721,-0.000963000164729819
-0.535344619510796,-0.00741949778650716
-0.541219272477976,-0.0394957916137871
-0.553980330424418,-0.061460519920488
-0.551787812770863,-0.0775473798978737
-0.575163909680351,-0.0705808097277334
-0.586096142192553,-0.110767154131255
-0.59561032761666,-0.0983975909716094
-0.60582594807735,-0.111306341545411
-0.615980569711081,-0.123533227688404
-0.63965016076143,-0.130954817222104
-0.633764232349472,-0.152549369951928
-0.632079717253747,-0.131114469267808
-0.66805675808734,-0.176265070352299
-0.682495044436556,-0.151686717520127
-0.668155734459566,-0.201778921310545
-0.681779379768995,-0.189677280365825
-0.701687497176609,-0.1919560080773
-0.719685371722461,-0.184405529144815
-0.704848815242045,-0.20782087088296
-0.717974639195508,-0.230104474772411
-0.717728888305703,-0.216761954697599
-0.723311995347958,-0.220347008467835
-0.728279928627667,-0.223374010171771
-0.732602024378633,-0.225869748859746
-0.718565699457804,-0.210648452299614
-0.739195925363819,-0.229384118854014
-0.727029007419216,-0.229057887294515
-0.749219593582574,-0.211625930073757
-0.773169614673516,-0.193208789522545
-0.692430525262274,-0.230389089918485
-0.74263510253996,-0.231087541943749
-0.720447811587681,-0.254936790762101
-0.738429651293962,-0.229696048086319
-0.748257508833246,-0.230333523130213
-0.703611045592664,-0.227549732683345
-0.748357512403897,-0.20869363217794
-0.722184023541596,-0.228382431471675
-0.70181428554717,-0.214448488295544
-0.710501358421341,-0.234060751474928
-0.697586187686241,-0.221288507530416
-0.688477988284918,-0.220175334606192
-0.678583675742977,-0.219202494161419
-0.663658660614352,-0.23108449113123
-0.656508577556231,-0.217827555191237
-0.646458432598971,-0.197924836124531
-0.602723246138959,-0.20048630763504
-0.613929852869227,-0.228953564209644
-0.616199512716476,-0.23029813571109
-0.580159092549624,-0.174703873046857
-0.579547383907134,-0.205648522527972
-0.557813513010069,-0.222565594354936
-0.577996451417183,-0.211536022021805
-0.52451221239668,-0.227602454822752
-0.52868006314395,-0.222188255295027
-0.50615290571033,-0.25656452537956
-0.472453923241256,-0.255540613558792
-0.453055655014208,-0.243694713672316
-0.43442559724956,-0.249048164791092
-0.423511479373756,-0.276170649175554
-0.39655346491787,-0.261403114393995
-0.37740102779885,-0.268408813931425
-0.369569118242094,-0.307387542994519
-0.345430876696955,-0.289515389827185
-0.347294519808939,-0.29426577607069
-0.305562838902805,-0.335985970569476
-0.275919180917408,-0.313707380927539
-0.262280634364648,-0.321750595933014
-0.217265792137835,-0.350028884651986
-0.220166058312162,-0.355222787062481
-0.206545396548445,-0.355131963971626
-0.188511392011565,-0.367124551605661
-0.145085108069982,-0.353132062226501
-0.153483716840576,-0.392250241897061
-0.142960795091889,-0.423712400033347
-0.0865067613622918,-0.405901505480329
-0.104044968697101,-0.432326821226761
-0.0816383637684157,-0.446180934035796
-0.0807660518215287,-0.467600623961178
-0.094078255016196,-0.478467644121166
-0.0451122861135616,-0.488740801465365
-0.0341253487993222,-0.520613604958385
-0.0135575791977206,-0.508230958948725
-0.0335649608329805,-0.54807699273902
0.00460569635472803,-0.546236378816322
0.0364963764023527,-0.552755556384089
0.00736869273240986,-0.591130959443896
0.0353784287242692,-0.588428885745992
0.0443723557696987,-0.602083257834735
0.0527374863851439,-0.615460276257935
0.0806498944920642,-0.645260286370754
0.0668557574464721,-0.62477002637268
0.0435289155536364,-0.67094234210785
0.0956048479287043,-0.644973780017521
0.116759178409517,-0.684342262229797
0.0974379894760756,-0.677530561777983
0.100959279442402,-0.719387303712788
0.07089268788237,-0.71963742276358
0.103083831322767,-0.702072117500627
0.138318754394228,-0.746212647451803
0.1067230287065,-0.732722774909042
0.132746936227356,-0.755601791629344
0.125244978434324,-0.78548440558376
0.123865463709597,-0.784090741456143
0.112578406143446,-0.756227727232436
0.113129108844231,-0.777019462256537
0.125546805680767,-0.773703328110126
0.114099831612337,-0.765538903513466
0.114260630480686,-0.766979950389618
0.0736444614445895,-0.751361842128791
0.158412499288692,-0.789241280059591
0.114257764435829,-0.766210960220731
0.14868844491185,-0.762657326288499
0.114253599272049,-0.761441870821134
0.0727852512397289,-0.780696818327751
0.187858016420507,-0.731157672650052
0.133894343464237,-0.766949923592066
0.11567429349506,-0.741887735578974
0.116552083668573,-0.734984068551795
0.171192778923168,-0.714500132186176
0.119190384980049,-0.718885062997921
0.105629746161971,-0.71084571654879
0.117459074364401,-0.70154793502239
0.145958437260861,-0.690709104068302
0.130022095561654,-0.693405632382496
0.126594382821525,-0.674987879387226
0.109934243680927,-0.63408715966187
0.133795305935097,-0.637431538590085
0.146088382217993,-0.62785882981742
0.149870048162386,-0.60327749003004
0.133605765531461,-0.641119217935165
0.164675651583455,-0.585136671544561
0.172036737772862,-0.570166508241996
0.136968429571387,-0.543580082698496
0.18855631463503,-0.539388052084415
0.212037160480599,-0.551365475514683
0.207492188260164,-0.507783959043555
0.224299280250096,-0.490882038334256
0.23861373252823,-0.504501447357597
0.253374041334878,-0.462108042201142
0.22400081401004,-0.461444435473124
0.296369888837404,-0.426060247816736
0.29490617583822,-0.393111257242824
0.309503563803194,-0.396969030647452
0.339770257631369,-0.409455013574065
0.279186091858543,-0.395973192403597
0.336450394910447,-0.349579323936567
0.352090670328133,-0.334727738652676
0.387918987694851,-0.324277650646439
0.403673397604542,-0.310645912099688
0.41892597709847,-0.302202370219803
0.394392522119664,-0.262374465969247
0.453976669465275,-0.260033293241896
0.473554491333475,-0.255480812268798
0.470814210027662,-0.241578734856279
0.478152571213406,-0.227571260474306
0.506580476030625,-0.278605353314653
0.513398641598213,-0.220949794765756
0.536825324475043,-0.213382435394998
0.559206582844959,-0.168561719654636
0.580131103095016,-0.199545296244576
0.590159441133421,-0.180554107621115
0.613787973508861,-0.165369379966276
0.640896935749123,-0.154369627083742
0.655702187919929,-0.163462399834698
0.677915052394567,-0.123499508672694
0.690316637418415,-0.116705776582293
0.706064506708742,-0.0920305754016889
0.742401081948122,-0.159027080040429
0.758563636427461,-0.127867598252336
0.761418563472014,-0.141032722270992
0.769462466271559,-0.149607024291609
0.771070833899532,-0.119813429832795
0.784046430590598,-0.117912012227393
0.804894546972023,-0.13172256944118
0.829731216588614,-0.0968212362775222
0.808303153504228,-0.0796367421466289
0.830568927659826,-0.104490418331389
0.838706819308957,-0.113648874636978
0.869936390009592,-0.115541476535225
0.831204839245349,-0.0975622295800864
0.847707508745399,-0.0847264044678281
0.875353881023036,-0.148285716020484
0.884516979040137,-0.115543867409847
0.878838106822449,-0.115528570277674
0.8883627856764,-0.140664862295176
0.943603551079579,-0.141728749486482
0.887656810938482,-0.116921355272735
0.873620117125229,-0.0781646891948722
0.870686439741456,-0.0934623204744376
