0.245440540425814,-0.947755458763581
0.30235255322087,-0.925128487501313
0.355461819988592,-0.894423104149383
0.403829437662659,-0.856428351642369
0.446731893862228,-0.812162741367104
0.483702636314384,-0.762815465353274
0.514557718409568,-0.709678367750049
0.539403836075567,-0.65407293235972
0.558628184180147,-0.597276841752242
0.572870711302621,-0.540454675120216
0.582980467229507,-0.484597036032015
0.589958747400336,-0.430471855234486
0.594892578876342,-0.378590832314701
0.59888271003036,-0.329193012865887
0.602970621909382,-0.28224640604343
0.608069150469989,-0.237467400116795
0.614901090951808,-0.194356603378181
0.623949662105421,-0.152248696013695
0.635423969796157,-0.110372991118048
0.649241673075109,-0.0679207260064312
0.665029980072076,-0.0241146811006757
0.682144953749316,0.0217234203194588
0.699707960913377,0.0701121332670599
0.716657024134285,0.121360110231673
0.731809902995656,0.175529818116522
0.743934997165782,0.23241756537293
0.751825675341219,0.291551210811643
0.754373421891409,0.352205796824476
0.750635270325861,0.413436204685171
0.739891354556467,0.474124840723416
0.721689032435125,0.533041398450759
0.695870881812469,0.588910964235146
0.66258488398072,0.640486192189131
0.622276228790128,0.686619001998366
0.575661329330105,0.726327268861943
0.523685749076589,0.758852276780797
0.467468750521575,0.783703276241587
0.408238008114007,0.800686289107744
0.347258637349557,0.809915286790133
0.285761037761422,0.811804970590826
0.224872108726124,0.807045535987835
0.165554169743378,0.796560932865939
0.108555415736526,0.781453170013252
0.0543749948094668,0.762936089214771
0.00324485793253585,0.742262696635567
-0.0448705433367465,0.720650545077845
-0.0902567757645027,0.699209784466823
-0.133415360580324,0.678878331707761
-0.175015386601277,0.660368165284338
-0.21583397540906,0.644126052689741
-0.256689487147421,0.630311113908608
-0.29837182198067,0.618790568701037
-0.341574362114498,0.60915387587136
-0.384087330460992,0.648798142301849
-0.453540255851355,0.619632195324729
-0.510086752138228,0.628161935103621
-0.550688201620823,0.538057130853088
-0.585711276250927,0.588147381158691
-0.6604205783923,0.531792296225416
-0.690742910383955,0.544879788970946
-0.755831335678344,0.495509153677572
-0.850198494265678,0.467842594328997
-0.837369255934053,0.466205174757637
-0.911908730378278,0.353158440076453
-0.936621183082047,0.331944930927171
-0.928658500948196,0.275915520935144
-0.939735186145214,0.245656141592626
-0.986634568870127,0.125987794651432
-0.98577752047788,0.0939468551733786
-1.0017703947334,0.0389322431126897
-0.995465201222867,-0.0266360378131517
-0.994045670002819,-0.109834120812516
-0.940641305241052,-0.134469287745816
-0.911239044509795,-0.219304246556075
-0.834400667960984,-0.255549656093553
-0.797322933215715,-0.315918983848958
-0.763763037301171,-0.296489154512751
-0.742159728366698,-0.349405620626793
-0.67125894507628,-0.349669244568597
-0.657422893079934,-0.410041737026044
-0.603960235198266,-0.402298100805956
-0.619855810252562,-0.426456712448596
-0.439652614084093,-0.395110209930834
-0.395029452414777,-0.615479434185441
-0.35210783243184,-0.645878336870423
-0.546624469362852,-0.465245842204789
-0.503619987282378,-0.771000002067415
-0.296922910554327,-0.533082476493351
-0.251640785011474,-0.791139153615467
-0.364501900228757,-0.720030346421113
-0.378577436780176,-0.890166781852173
-0.322766836298551,-0.732104653859915
-0.219370099910793,-0.891233715616856
-0.247622472352349,-0.973983054095278
-0.259324671266866,-1.05062517955521
-0.0413849920723754,-0.938033945018136
0.0177598861085463,-0.955513688780952
0.177706038944891,-0.864343369835704
0.105177630091056,-0.985101252774458
0.115898248417302,-1.07875492424342
