-0.28636373368756,-0.0587366514921298
-0.0336212838206603,-0.265811203800337
-0.222739569733091,-0.178237898732808
-0.0972427448870364,-0.283123329291114
-0.127727820256631,-0.0729351864461744
-0.0830259039039184,-0.0284984131865772
-0.344422112941127,-0.0492065567774289
-0.236119759321469,-0.169835933361447
-0.0494337403841243,-0.0537421236694696
-0.232911394088815,-0.196449904397689
-0.133543044448693,-0.0887664603108012
-0.210126999544366,-0.147829656089224
-0.118146986059783,-0.267257401138518
-0.267653816067056,-0.157602379293365
-0.323011149719847,-0.105457813895623
-0.367630619695864,-0.208853471913403
-0.116422582433443,-0.0665117742201239
-0.120028759670292,-0.0486003978366976
-0.262715448793904,-0.139134366806687
-0.217916973567696,-0.200873756853186
-0.195263628412855,-0.147243267039162
-0.262854056018571,-0.147531972527149
-0.206279921810599,-0.149995255999437
-0.283045049071167,-0.173763675605219
-0.257866367540853,-0.173583091850927
-0.261297814637317,-0.175439761286122
-0.264699325897081,-0.177450742157615
-0.268064556387509,-0.179615943850333
-0.29483083236692,-0.140950852363428
-0.299355112579255,-0.207689165196265
-0.252077536596867,-0.236914049532199
-0.315694293245904,-0.189576785729619
-0.284123373675339,-0.192734698304222
-0.257095714465564,-0.153278437685045
-0.309240038829033,-0.150191655875559
-0.250510995999344,-0.202740247911695
-0.267067665501097,-0.170973871862439
-0.31730035341665,-0.160804499259814
-0.300869212805502,-0.213336221256589
-0.303305409321778,-0.217254158431676
-0.297515635235128,-0.22120406061555
-0.307819874109706,-0.225477488811791
-0.322828312042808,-0.194069488256234
-0.363532303179073,-0.244725204017
-0.344144872732426,-0.205538287955516
-0.316755660529062,-0.248113445537225
-0.359738863619824,-0.251888622797022
-0.319278605046965,-0.257904824902125
-0.321142232764785,-0.268056463537043
-0.291275700559759,-0.30230192066091
-0.322311346172868,-0.278523316467252
-0.32262530481975,-0.2838600480739
-0.348195981560219,-0.266970699742153
-0.33534438234285,-0.297758058077481
-0.345988037250901,-0.330875415664415
-0.321993351185184,-0.305747503730074
-0.275726522167164,-0.279024168896829
-0.284548040085869,-0.306316995314979
-0.319452433613175,-0.322541951869178
-0.318639448675222,-0.351691407738923
-0.316737826519196,-0.33381245422169
-0.361511540305806,-0.342708349773413
-0.342272326063881,-0.372500459605924
-0.35942237251952,-0.395256995305111
-0.348480717615849,-0.34176238651444
-0.325997309787345,-0.38808232159042
-0.300631023700381,-0.372780783672932
-0.266680557524711,-0.380257124240556
-0.290232302380791,-0.441617038272649
-0.284343791473902,-0.404822856163007
-0.278617610579163,-0.404068809315051
-0.27422843248675,-0.408964648321105
-0.259487216622749,-0.399092367879624
-0.236209577874925,-0.454551280737989
-0.288314878632494,-0.395596124942787
-0.259005317043667,-0.407784680286811
-0.269277470590858,-0.47189207621757
-0.270917888971759,-0.442417821236442
-0.24508203725745,-0.409861683262627
-0.219875277356146,-0.45049961646296
-0.227479571465934,-0.406471135525769
-0.193639759853785,-0.441046689794563
-0.203749967681413,-0.458289532188379
-0.186431243130092,-0.46475529288631
-0.139703550342598,-0.418708878354478
-0.143550702764735,-0.455316329345486
-0.1647636203313,-0.470751178835551
-0.161802614404643,-0.51106771464741
-0.193023946885277,-0.474898704047631
-0.138182002173456,-0.471728447326125
-0.134396743110593,-0.475451117589307
-0.0847667524585073,-0.467970352181549
-0.0860440422460395,-0.524576470494074
-0.0878753585780893,-0.447941890625307
-0.0477487290418344,-0.490812113266288
-0.0868512186546284,-0.522056466673432
-0.0757799885822641,-0.472971450529641
-0.0626526939518684,-0.519647674676462
-0.101217371263019,-0.481171488242957
-0.0749538167179284,-0.442001713471236
-0.0288441448763285,-0.49776053310586
-0.0221295357243825,-0.458790695128968
-0.0167662547656246,-0.408150824614798
0.0321902416333207,-0.4702472618613
-0.037612322602481,-0.493178850561866
0.0460553610799397,-0.48518265192557
0.0168647292211052,-0.439626435860422
-0.00365382337198342,-0.394003528955251
0.0318223674852519,-0.430013961844741
0.0391244425436272,-0.424798124003885
0.0790745259139359,-0.434839156172185
0.0548665734818747,-0.453649116762704
0.0597516290952192,-0.411327964646467
0.089767095806365,-0.398885039940723
0.0957576697349287,-0.364412775953474
0.103359980717675,-0.358445787525508
0.108699758513339,-0.350493785947922
0.113806904911049,-0.342325402010963
0.0739160104678953,-0.349400264253894
0.123290097184908,-0.325367061341887
0.176420145618332,-0.344121216343398
0.0856013227493976,-0.336473245642272
0.135568102202032,-0.298487084516394
0.110945295291964,-0.339075291413212
0.16404706055704,-0.304452479393373
0.155211388515288,-0.253805688565888
0.179002786935753,-0.238229646858996
0.15144063511051,-0.213717153914547
0.154129985082467,-0.230207114239218
0.198702742616374,-0.230254865544133
0.162565512890049,-0.22382180602081
0.157363580948196,-0.199169421339964
0.175170091020551,-0.20402384698253
0.157845748575575,-0.178090535090545
0.156953460856148,-0.156803902321747
0.154662660867954,-0.13539982389881
0.152986928664129,-0.124682571525542
0.150955262947986,-0.113970791980879
0.1072136014047,-0.108789324933336
0.115468433297671,-0.0418652329276802
0.131245776917825,-0.0504833344612333
0.0844650709323535,-0.0664957222396517
0.103074643323995,-0.0315179575799968
0.105030453543992,6.69742198543821e-05
0.133105152813348,-0.0235851935246588
0.0613580150063769,0.00378304900691435
0.0775243401793482,0.0762983868740506
0.106948454180724,0.0482978718407194
0.0702157148073564,0.0468633632365064
0.0352691164818034,0.00812661630059605
0.00173228569240026,0.0811162269474005
-0.0143413591587334,0.075154607567045
0.00512409621137778,0.0576526040179539
-0.00189888904014474,0.110289400822419
-0.0618582935449782,0.102029223013478
-0.0646378320767677,0.160435573326144
-0.0588472372660792,0.142891831733798
-0.0909417792467471,0.154866117538375
-0.100981508712932,0.167879899704056
-0.146344382065611,0.148050953210823
-0.110798128450094,0.139762096173576
-0.140281020724053,0.168627528066609
-0.20392201283407,0.174129751595055
-0.212114301567698,0.182389878936027
-0.211328907534225,0.201654085425756
-0.235763665074627,0.128488428679986
-0.271603938264279,0.174737145700143
-0.28526049311986,0.132787981010656
-0.303318727954235,0.155574433312131
-0.338434936167979,0.185531609881299
-0.398632998765425,0.12923977910516
-0.410705621320554,0.109545712775202
-0.416164510382263,0.131577618906081
-0.476940885784966,0.0947214630669329
-0.508979389256553,0.0622538409911429
-0.528594090025606,0.00549754920824924
-0.554645419182191,-0.0141764614277573
-0.603984585364476,-0.028916297329898
-0.645061095751086,-0.055194568874834
-0.637781843452933,-0.114621861694588
-0.654913358756655,-0.101062092140575
-0.605917390336601,-0.140492428381932
-0.656482226301561,-0.173617116807566
-0.628962573563795,-0.239185664849227
-0.675633495595782,-0.214104327780975
-0.62462690126561,-0.276896608440222
-0.670910533215688,-0.282961105409075
-0.694823620027639,-0.306944772748521
-0.670529361725077,-0.315032037264529
-0.645443882518055,-0.37260189553171
-0.660529099053211,-0.395498365010022
-0.656965423977384,-0.411507162639765
-0.652879710133529,-0.427448259518351
-0.603443130501287,-0.424675311307349
-0.637500613508453,-0.474694752860921
-0.665566549853542,-0.540089638941751
-0.629150574571077,-0.472723914383066
-0.637211568253336,-0.543255641289155
-0.624566760057237,-0.503616032226702
-0.592924745767019,-0.565060203796723
-0.583752210298907,-0.579389336438855
-0.554847419110273,-0.569454782230501
-0.540905027297525,-0.573309699690821
-0.574212105768461,-0.585723481274253
-0.530790394586309,-0.646913487047344
-0.554940787944599,-0.688604319696973
-0.46701675022736,-0.732084237036029
-0.433413708093156,-0.731380097541131
-0.438360857246216,-0.727089522442425
-0.430060394869269,-0.729969881632209
-0.377249748318889,-0.763706945679326
-0.344772125622092,-0.779176051009016
-0.293740882208798,-0.811308233248594
-0.2765686233546,-0.80399599132155
-0.216781855892852,-0.843184563914199
-0.220340985332916,-0.848686734690684
-0.0505675624331124,-0.835474052765954
-0.0556851598251941,-0.782160474828426
-0.0513954439807201,-0.813678078055395
-0.0189200491812416,-0.803203354098775
0.0195267567605349,-0.812659128685667
0.105351546170485,-0.767374196368941
0.137442715179435,-0.782533561938129
0.108648391953125,-0.734165982124012
0.199444396507559,-0.706324830196244
0.252509879175258,-0.711738533152218
0.279397697061704,-0.680558257691705
0.304471020594419,-0.636282004400145
0.337955170844292,-0.627225989412138
0.44237606003404,-0.555328431949697
0.498403787387557,-0.41277519116047
0.454913113040458,-0.376752428207382
0.485942753919929,-0.363259258591537
0.483061995852474,-0.220454976575241
0.509588461898259,-0.212177390757839
0.509525309590733,-0.147601511895192
0.500008642776227,-0.143854377991586
0.451441818568392,-0.0867171726969085
0.495662638614636,-0.0398191937132366
0.234347746212959,0.314003552693619
0.0999403098981715,0.457524381659651
0.109419417998818,0.486373457222801
-0.177553045422646,0.545634841085211
-0.296933051886089,0.52722351377617
