0.394011873281606,0.0605173324887151
0.393024871414215,0.0653725637737297
0.279903826788413,-0.0324231502304094
0.390514472311329,0.0751019019423473
0.388988336039101,0.0799630137579153
0.387280138076397,0.0848129583341002
0.385389097555097,0.0896450520491671
0.484315818623686,0.193635431860763
0.381056576121674,0.0992286645016169
0.378614752716365,0.103966554079541
0.375989406707512,0.108659352085407
0.373180991284856,0.113300165783902
0.370190212760651,0.117882087384646
0.367018031931306,0.122398203179612
0.363665665113605,0.126841602750227
0.360134584852511,0.13120538823267
0.356426520297966,0.135482683629816
0.352543457248459,0.139666644158106
0.257033268974711,0.0353245518123922
0.344261560016391,0.147727393773296
0.339867976367954,0.151590733735953
0.335309893024665,0.155333859330202
0.330590567917072,0.158950222438202
0.325713508817194,0.162433362306666
0.42551356546547,0.25664997837999
0.315501454706014,0.168974621624627
0.310174701927213,0.172020339401209
0.304706693317222,0.174908048758338
0.299102144429191,0.177631863250285
0.293366001763601,0.180186038198304
0.287503438469431,0.182564979406642
0.281519849725193,0.184763251746924
0.275420847803893,0.186775587599381
0.269212256826405,0.188596895139529
0.262900107208149,0.19022226645904
0.35481963811313,0.297009851525231
0.249990249759593,0.192866535859567
0.243405580067649,0.19387660825045
0.236743414848188,0.194673107946383
0.32381337085874,0.291306632827273
0.223214637667339,0.195610125464556
0.216362455238998,0.195743589428513
0.20946162103456,0.19564938605166
0.202519724539579,0.195324595404828
0.195544490486193,0.194766551217242
0.188543770358811,0.193972846485019
0.181525533681159,0.192941338794812
0.174497859094244,0.191670155354434
0.05056224490205,0.0953013530503593
0.160447001426466,0.188402646230056
0.153440438187796,0.186403964085494
0.146457657578325,0.184160901158412
0.0395178135532121,0.0689164880899154
0.132597431153196,0.178940086129317
0.0143769848164927,0.0819654783628003
0.118934752935445,0.172740056153191
0.112199025429541,0.169274093358207
0.214603593529993,0.277206363641177
0.0989619856306327,0.161615425780376
0.0924779443160145,0.157425693752662
0.0860950413901281,0.152998186401479
0.0798218543377538,0.148335153185869
0.0736669181565461,0.143439148977061
0.0676387145975937,0.138313033577634
0.156396374818915,0.229112827492181
0.0559961014994347,0.127383427557949
0.164213173615578,0.240486432414882
0.0449603950178073,0.115575270200744
0.0396904637928858,0.109352087409819
0.0345964352865093,0.102922281434269
0.121731040724202,0.191327429047856
0.0249671818545357,0.0894628843159743
0.0204471477367479,0.082444050308729
-0.0861127891798535,-0.0350340458103092
0.0120330627339997,0.0678571059045908
0.00815321682589548,0.060301414659787
0.00450066300550717,0.0525796346002554
0.00108202566534754,0.0446986336319897
-0.00209627939455698,0.0366655324945831
-0.0050280543304384,0.0284876983888566
-0.00770732842262917,0.0201727382652154
-0.0101283670353857,0.0117284917788022
-0.0122856803567937,0.00316302391793657
-0.0141740319070588,-0.0055153826872471
-0.126972518323359,-0.10520289277969
-0.0171242197724503,-0.0231768417287561
-0.132577264451259,-0.127558998998777
-0.018942413067116,-0.0411855831676715
-0.0194168392043783,-0.0502974036831356
-0.019596649105583,-0.0594683657656288
-0.0194785960438227,-0.0686889038753385
-0.128072932845708,-0.184931318137293
-0.0183374787396529,-0.0872397284099162
-0.0173095031395551,-0.0965501969563223
-0.0159738527261493,-0.105870626836016
-0.0143288954470341,-0.115190828877049
-0.0123733372500584,-0.124500521494221
-0.100536080090945,-0.236447536887641
-0.00752695663289188,-0.143046857581174
-0.00463527190328722,-0.152262577698588
-0.00143126811505778,-0.16142596494771
0.00208460356687046,-0.170526447316714
0.0059115345911212,-0.179553430059219
0.0100483571650919,-0.188496307758284
0.0144935428067935,-0.197344476483866
0.0192452013073258,-0.206087346030077
0.0243010801075532,-0.214714352218372
0.0296585640920728,-0.223214969252704
0.0353146758031026,-0.231578722112512
0.0412660760764366,-0.239795198969325
0.0475090651011342,-0.24785406361265
0.152437729758937,-0.150387783093532
0.0608532162604439,-0.26345806401176
0.0679451910292339,-0.270983017110876
0.0753103849153407,-0.278310017368639
0.0829433256555994,-0.285429292366179
0.0908381956286023,-0.292331219242605
0.0989888358861486,-0.299006336780073
0.1073887506041,-0.305445357382032
0.116031111949883,-0.311639178930166
0.124908765363356,-0.317578896505685
0.1340142352473,-0.323255813960631
0.143339731063272,-0.328661455325034
0.152877153828083,-0.333787576035828
0.162618103005686,-0.338626173973597
0.0805179875457429,-0.461155822852121
0.182675514763819,-0.347410070035842
0.092019068157248,-0.444565997114734
0.203439017226685,-0.354954381403215
0.0981783435034189,-0.477343598718507
0.22483134174075,-0.361204894228351
0.235738054686015,-0.36382935501921
0.24677118640903,-0.36611225430035
0.257919994578965,-0.368048230217778
0.269173524492088,-0.369632260223969
0.280520619834791,-0.370859669136434
0.291949933743528,-0.37172613685345
0.303449940150691,-0.372227705716247
0.419852767021873,-0.27688259194305
0.326615100155314,-0.37212217007476
0.33825641148392,-0.371509023573318
0.349920755280016,-0.370518906312449
0.361595888837512,-0.36914977020305
0.373269463665955,-0.367399965794179
0.384929038500605,-0.365268246891864
0.396562092498062,-0.362753774752475
0.408156038603538,-0.35985612184354
0.419698237075545,-0.356575275165393
0.431176009153576,-0.352911639127468
0.442576650854092,-0.348866037973555
0.453887446879916,-0.344439717750809
0.465095684627952,-0.339634347817789
0.476188668279937,-0.334452021887322
0.487153732960792,-0.328895258600467
0.497978258948968,-0.322967001628389
0.508649685923064,-0.316670619299465
0.519155527228863,-0.310009903749455
0.52948338415085,-0.302989069593128
0.539620960172173,-0.295612752116229
0.436295491041131,-0.406955523253552
0.559276679788945,-0.279814297488908
0.666181231157166,-0.180403235107392
0.686781166927825,-0.166729836753084
0.587033191599866,-0.253590268258576
0.595778364888319,-0.244201600669497
0.604251231183907,-0.234501422937328
0.50621146900664,-0.316498341478662
0.620336381045153,-0.214198432230509
0.627927415385795,-0.203612517555008
0.635203670611403,-0.192748875786839
0.642155162653123,-0.181616875506015
0.64877218664045,-0.170226239295597
0.655045329314039,-0.158587035406245
0.660965481189078,-0.146709668989513
0.666523848454356,-0.134604872907366
0.671711964592398,-0.122283698125913
0.772931833813133,-0.0194204739948747
0.564143271925604,-0.211388902468205
0.684975286170699,-0.0841369697460858
0.688604668383463,-0.0710667931401874
0.795648627472418,0.0545077168431534
0.694635289909918,-0.0444690260816282
0.697024376606538,-0.0309671470389133
0.698988553824076,-0.0173474659970752
0.700522770662456,-0.00362340056452522
0.588504177035246,-0.0922845985953933
0.818029328127171,0.125938316560768
0.702501572377402,0.0380379881450069
0.7972928257453,0.151014506258191
0.804579804325388,0.17542028483055
0.70047054877668,0.0801380428451855
0.69889023929104,0.0942019356915711
0.696855455247724,0.108256795069284
0.694365210456215,0.122287900366421
0.691418996535625,0.136280460312742
0.688016786372879,0.150219628517754
0.576624711493036,0.0504066985278987
0.679846692408114,0.17787822278339
0.675081184722532,0.191567822266818
0.669864436351421,0.205144408811844
0.664198860486623,0.218593098069608
0.658087361523349,0.231899046306722
0.651533334872228,0.245047466620355
0.644540666236029,0.258023645181016
0.637113730349123,0.270812957485337
0.629257389178387,0.28340088460111
0.620976989584793,0.295773029386731
0.730274923648751,0.400039138098104
0.603167809237312,0.319813089348468
0.593652118081244,0.331452964453054
0.58373853925203,0.342821009057564
0.573434790152608,0.353903676115635
0.562749047757744,0.364687636147585
0.551689942529768,0.375159792779266
0.426856952501767,0.291467664086005
0.528488392694206,0.395117567908465
0.425934680317258,0.285488857527413
0.503907990053219,0.413677471898012
0.491126908173368,0.422403389616779
0.478033363388945,0.430744667636815
0.464638946873791,0.438690260050754
0.450955636220699,0.44622947083883
0.436995784858387,0.453351967269859
0.422772111007148,0.460047792981353
0.408297686182897,0.466307380722977
0.393585923259947,0.472121564747871
0.378650564103308,0.477481592836659
0.363505666781858,0.482379137939322
0.348165592374224,0.48680630942044
0.332644991379734,0.490755663893696
0.316958789747248,0.494220215631908
0.301122174535181,0.497193446539259
0.285150579216485,0.499669315672828
0.269059668642783,0.501642268300925
0.25286532368232,0.503107244486226
0.236583625546778,0.504059687182134
0.22023083982243,0.504495549831282
0.203823400221486,0.504411303455599
0.187377892069874,0.50380394322784
0.170911035548021,0.50267099451503
0.15443966870159,0.501010518384784
0.137980730239403,0.498821116566011
0.12155124213613,0.496101935856073
0.10516829205757,0.492852671967035
0.088849015626653,0.48907357280421
0.0726105785485419,0.484765441170799
0.0564701586134068,0.479929636893011
0.0404449275957148,0.474568078360669
0.0245520330690254,0.468683243478893
0.116246177559861,0.57466495404818
-0.106608871538924,0.347688693304549
-0.022161902406146,0.447922255883221
-0.0373550988483687,0.439980284996205
-0.0523312239128356,0.431535811676956
-0.0670736594177088,0.422594657532208
-0.0815659394162488,0.413163193618565
-0.0957917683571356,0.403248336600151
-0.212713523467527,0.301362660385866
-0.123379851136404,0.381998810691251
-0.228957209788685,0.255671631714054
-0.149711634900928,0.358912141533787
-0.162367997100894,0.346702820848339
-0.174664716142382,0.334062774341089
-0.277724645627623,0.211583646011386
-0.198121117438942,0.307533310457694
-0.209252539443937,0.293666521066771
-0.219967830774352,0.279414243036018
-0.230253728438536,0.264788971801436
-0.347177942716424,0.143036124844152
-0.249486183932428,0.234471688874485
-0.258408154906645,0.218806891041878
-0.266851588356148,0.202823503565849
-0.274805249939569,0.186536172413975
-0.282258354501605,0.169959935669264
-0.289200579642879,0.153110209722009
-0.295622078864266,0.136002774995391
-0.301513494269754,0.118653761218023
-0.30686596881234,0.101079632257092
-0.311671158067868,0.0832971705263401
-0.315921241522168,0.0653234609835994
-0.319608933357314,0.0471758747331338
-0.322727492723304,0.0288720522484938
-0.325270733481938,0.0104298862320815
-0.327233033410219,-0.00813249587192729
-0.328609342851087,-0.0267967496942119
-0.329395192799869,-0.0455443320689935
-0.329586702415359,-0.0643565194568406
-0.329180585945041,-0.0832144266433093
-0.328174159054521,-0.102099025694736
-0.326565344551854,-0.120991165152164
-0.324352677498045,-0.139871589444037
-0.321535309695637,-0.158720958498012
-0.318113013547916,-0.177519867531907
-0.314086185281916,-0.196248867003568
-0.309455847529058,-0.214888482699158
-0.304223651257899,-0.233419235939163
-0.29839187705418,-0.251821663881185
-0.29196343574397,-0.270076339898408
-0.390080078077113,-0.402046158218278
-0.277331345423643,-0.306065033359297
-0.269136665614627,-0.323760562666387
-0.260363253703476,-0.341231404719878
-0.251017157869597,-0.358458620799692
-0.241105046330864,-0.37542343106099
-0.230634203310159,-0.392107234840132
-0.219612524336764,-0.408491630863336
-0.208048510884779,-0.424558437336252
-0.195951264351411,-0.440289711892702
-0.183330479378738,-0.45566777138089
-0.170196436523226,-0.470675211465498
-0.156559994278018,-0.485294926024165
-0.142432580453683,-0.499510126317011
-0.127826182923877,-0.513304359907988
-0.112753339742992,-0.526661529317057
-0.0972271286436328,-0.539565910382369
-0.0812611559224058,-0.552002170311859
-0.0648695447232137,-0.563955385403912
-0.0480669227278935,-0.575411058417051
-0.0308684092647465,-0.586355135568838
-0.0132896018461234,-0.596774023144562
0.00465343785309275,-0.606654603696575
0.0229441985636406,-0.61598425181552
-0.0493350730633973,-0.733342731465543
0.0605006810997716,-0.632942800792193
0.0797312709149674,-0.640549046605408
0.214810691770669,-0.5325748849799
0.119006397213348,-0.65396295054072
0.0436607245233212,-0.752030342318131
0.159241562735934,-0.664915333902287
0.179670951427682,-0.669446887031886
0.200281884398234,-0.67333838817408
0.123541175992987,-0.777527720698118
0.241967742378264,-0.679174089284907
0.381758906728456,-0.582288134317638
0.284135400689175,-0.682374525384721
0.30534776979336,-0.682974383438104
0.326617650248646,-0.682902185107783
0.465396165024176,-0.581505531487918
0.369244471919627,-0.680730204789705
0.390558365068206,-0.678626417490723
0.513691523159194,-0.559676871931909
0.433078790064572,-0.672378392874294
0.454241801691356,-0.668234293060056
0.475310945642445,-0.663411389148757
0.496264414983697,-0.657911496904038
0.517080424509258,-0.651737133671701
0.537737233343498,-0.644891518796558
0.558213167590281,-0.637378573310236
0.578486643005926,-0.629202918887412
0.598536187672314,-0.620369876068674
0.618340464646301,-0.610885461749005
0.637878294561697,-0.600756385931611
0.657128678159938,-0.589990047747643
0.676070818725589,-0.578594530743086
0.60163554833174,-0.67154473481718
0.712948330369251,-0.553951683139249
0.730843320842733,-0.540723889075441
0.748349350898583,-0.526905974749991
0.646401522915317,-0.607913577491006
0.782117053726668,-0.49754606408352
0.798340844154989,-0.482028799678448
0.814099951405358,-0.465970858706029
0.829376383795219,-0.449386153078569
0.844152566098314,-0.432289192525542
0.85841135938013,-0.41469507212603
0.764266013539343,-0.493018575770773
0.885310520978165,-0.378078579457355
0.897918966046163,-0.359089202753335
1.01228004799539,-0.234931312306699
0.921377586454361,-0.319834667120599
0.932198960979792,-0.299605629787008
0.942396772479704,-0.279000305629042
0.844505253243838,-0.361323376521716
0.960870366667821,-0.236738252722794
0.969121983349655,-0.215121346107162
0.976701734757414,-0.19320775951321
0.983599107698531,-0.171018413122838
0.989804241625216,-0.148574595351234
0.995307941409305,-0.125897942446152
1.00010168947813,-0.103010417647541
0.894030632891275,-0.178722728194442
1.00752871617938,-0.0566921123316553
1.01014844742466,-0.0333066999414402
1.01203115174768,-0.00980110748144097
1.01317185801026,0.0138013934088727
1.01356633122963,0.0374773372149952
1.01321107985704,0.0612030878765843
1.0121033623157,0.0849548623827175
1.01024119278872,0.108708754609627
1.00762334624793,0.132440759377087
0.90235591086162,0.0419313467348659
1.00011955075316,0.179742736204972
0.892226949811035,0.0842219219774943
0.989597533927126,0.226667695874477
0.983209809303546,0.249928425039855
0.976075218192631,0.273022524023883
0.968197936656672,0.295925981042968
0.959582913657697,0.31861488261956
0.950235868989515,0.341065438487624
0.940163290406429,0.363254006464761
