0.659399056098618,-0.596192239456281
0.666887319366061,-0.583309055506973
0.671989048027286,-0.56886977330654
0.674655373179041,-0.552994318078213
0.674855175344997,-0.535811973333636
0.67257553657431,-0.517460056087652
0.667822041760215,-0.498082532524101
0.660618925717446,-0.477828587149109
0.651009063891193,-0.456851158833024
0.639053805926405,-0.435305457384752
0.624832652692663,-0.413347474420838
0.608442778724437,-0.391132502285268
0.589998403387387,-0.368813674645086
0.569630015406346,-0.346540542132791
0.547483456678242,-0.324457696031661
0.523718872531835,-0.302703452508283
0.498509536774981,-0.281408609292155
0.472040560978564,-0.260695285991113
0.444507498474544,-0.240675858419887
0.416114854484445,-0.221451996415034
0.387074514635852,-0.20311381362098
0.357604104860417,-0.185739136668108
0.327925296290986,-0.169392900034452
0.298262069282173,-0.154126671697947
0.268838951063259,-0.139978313457173
0.23987924179146,-0.126971778536285
0.211603243904653,-0.115117047805888
0.184226509674613,-0.104410204657675
0.157958121734276,-0.094833647278411
0.132999021096717,-0.0863564357902043
0.10954039680142,-0.0789347704703558
0.0877621508182948,-0.0725125960470505
0.0678314512161392,-0.0670223258975887
0.0499013858651387,-0.0623856788644863
0.0341097280990124,-0.0585146203616322
0.0205778248187974,-0.0553123984772446
0.00940961648525074,-0.0526746649013708
0.000690797329443035,-0.0504906697210881
-0.00551187707896697,-0.0486445184435063
-0.00915112901865378,-0.0470164790313176
-0.0101995399753541,-0.0454843262732187
-0.00864977093274198,-0.043924710466218
-0.004514619727762,-0.042214537161774
0.00217308500901053,-0.0402323446249284
0.0113607524150139,-0.0378596656760283
0.0229764581619902,-0.0349823607281053
0.036929529765278,-0.0314919090981766
0.0531112834421927,-0.0272866460552877
0.0713959062369542,-0.0222729335685145
0.0916414758958901,-0.0163662533298839
0.113691109808555,-0.00949221134470198
0.137374233238147,-0.00158744419860674
0.162507956057677,0.00739958198060744
0.188898546295537,0.0175078878559525
0.216342987983261,0.0287634194314812
0.244630610096538,0.0411786146102019
0.273544772793831,0.0547521023632671
0.302864596690459,0.0694685378832399
0.33236672056354,0.085298575830644
0.361827072667891,0.102198982498081
0.391022640756311,0.120112886421604
0.419733225940559,0.138970165676563
0.447743165701036,0.158687968816515
0.474843011652245,0.179171365160693
0.500831148094595,0.200314118919337
0.525515337927321,0.221999580478038
0.54871418315722,0.244101687052781
0.570258488007598,0.266486063886747
0.589992513504489,0.289011216197722
0.607775113384924,0.31152980120995
0.623480742226214,0.333889968824559
0.637000327826559,0.355936758805513
0.648242001065549,0.377513541789634
0.657131677727902,0.398463490975015
0.6636134880737,0.418631071006286
0.667650051272134,0.4378635303611
0.669222593171441,0.456012383451878
0.668330907243314,0.47293486869139
0.664993159903636,0.488495368930139
0.659245542760801,0.502566780956415
0.651141775666309,0.515031821154095
0.640752465728103,0.525784254935331
0.628164328684007,0.534730038200724
0.613479280209658,0.541788359822927
0.596813405842398,0.546892574994451
0.578295819229833,0.54999102021923
0.558067419350382,0.551047701752208
0.536279558194913,0.550042850392637
0.513092631136263,0.546973336705286
0.488674602840634,0.541852941969076
0.463199482086383,0.534712481423774
0.436845759247031,0.525599777691212
0.409794820463388,0.514579483576277
0.382229352672246,0.501732754792926
0.354331753675194,0.487156774499734
0.326282561320836,0.470964132856043
0.298258915638312,0.453282066111784
0.270433067401884,0.434251561009878
0.242970946128876,0.414026331498382
0.216030799921017,0.392771675909368
0.189761918857681,0.370663223852395
0.164303452845237,0.347885583082648
0.139783333927037,0.32463089752808
0.11631731207178,0.30109732848796
0.0940081123931236,0.277487471739505
0.0729447206201514,0.254006723903182
0.0532018024469439,0.230861611915078
0.0348392611509256,0.208258099832004
0.0179019365949873,0.186399887447928
0.00241944742926201,0.165486715326722
-0.0115938230034982,0.145712690854465
-0.0241385978678253,0.127264649784709
-0.0352304372515335,0.110320567492913
-0.0448993311879201,0.0950480337738455
-0.053189159919447,0.0816028045113385
-0.060157027238021,0.0701274429274857
-0.06587247388075,0.0607500623836389
-0.0704165790374777,0.0535831818645915
-0.0738809590278468,0.0487227043374146
-0.076366673122177,0.046247027145648
-0.0779830473038711,0.0462162924868973
-0.0788464274940856,0.0486717848369929
-0.0790788743755797,0.0536354809370594
-0.0788068124565613,0.061109756661977
-0.0781596464025463,0.0710772537511366
-0.0772683579313679,0.0835009080167564
-0.0762640967112319,0.0983241392633115
-0.0752767787229363,0.115471201765908
-0.0744337054449949,0.134847692777821
-0.0738582169954816,0.156341215180061
-0.0736683920191067,0.179822189060509
-0.0739758066455981,0.205144805728638
-0.0748843642701907,0.232148116445245
-0.0764892072242563,0.26065724698579
-0.0788757206201196,0.290484728071021
-0.0821186377761156,0.321431930699138
-0.0862812556639984,0.353290594508565
-0.091414767779744,0.385844436497373
-0.0975577207301163,0.418870826731666
-0.104735599661231,0.452142517096864
-0.112960546442386,0.485429408687822
-0.122231213269742,0.518500343100242
-0.132532753081351,0.551124902679712
-0.143836946889289,0.583075204707788
-0.156102466847794,0.614127674557493
-0.169275272600308,0.644064783032956
-0.18328913719456,0.672676733418082
-0.198066297635022,0.699763084194379
-0.213518223967078,0.725134293944482
-0.229546499668034,0.748613175630812
-0.246043805066758,0.770036248221934
-0.262894994535923,0.78925497452604
-0.279978257307583,0.806136875073447
-0.297166350962171,0.820566508959641
-0.314327895940509,0.832446313707712
-0.331328718834377,0.841697297424026
-0.348033231729163,0.848259577792838
-0.364305834506599,0.85209276377332
-0.38001232676999,0.853176177214409
-0.395021315931008,0.851508912977192
-0.409205607997349,0.847109737539222
-0.422443567724412,0.840016827437989
-0.434620435040704,0.830287350279743
-0.445629585023824,0.817996892382884
-0.455373719188385,0.803238738430632
-0.463765976444946,0.786123009764067
-0.470730952794571,0.766775669143098
-0.476205619630837,0.745337400929005
-0.48014013142277,0.721962376688023
-0.482498514540263,0.696816917172158
-0.483259230049205,0.67007806249245
-0.482415604437342,0.641932063054161
-0.479976123423537,0.61257280446611
-0.475964585242065,0.582200180162303
-0.470420111068601,0.551018425878601
-0.463397011554281,0.51923443040707
-0.45496450974689,0.48705603720362
-0.445206321992047,0.454690351449438
-0.434220099710356,0.422342067063546
-0.422116736227124,0.390211827933667
-0.409019544077829,0.358494637277856
-0.395063309413715,0.327378328573159
-0.380393231276883,0.297042110894682
-0.36516375459258,0.267655200803949
-0.349537306728192,0.23937555211611
-0.333682948384729,0.212348693968564
-0.317774950408714,0.186706686617176
-0.301991308833078,0.162567203309544
-0.286512211067957,0.140032745437376
-0.271518466660728,0.11918999696227
-0.257189916424358,0.100109322851985
-0.24370383399061,0.082844414968847
-0.231233333977228,0.067432087529835
-0.219945800964599,0.0538922229210907
-0.210001353357073,0.04222786730982
-0.201551355958068,0.0324254741659526
-0.19473699471818,0.0244552924962055
-0.189687926624778,0.018271895316071
-0.186521017094164,0.0138148426520279
-0.185339176508434,0.0110094721879097
-0.186230306714931,0.00976780955625221
-0.189266367383633,0.00998958923744208
-0.19450257110511,0.0115633760757198
-0.201976715017505,0.0143677765599443
-0.211708655584919,0.018272728256032
-0.223699931921892,0.0231408551237801
-0.237933541779957,0.0288288759090275
-0.25437387299392,0.0351890523774507
-0.272966791839001,0.042070663852343
-0.293639888387219,0.0493214943379585
-0.316302877584429,0.0567893184538702
-0.34084815341014,0.0643233724744953
-0.367151492142925,0.0717757969607271
-0.395072899446445,0.0790030377854471
-0.424457594726587,0.085867192788557
-0.455137125000198,0.0922372918459598
-0.486930599370929,0.0979904987954461
-0.519646034138218,0.103013224424612
-0.553081797580686,0.107202140584668
-0.587028142564233,0.1104650864414
-0.621268814335599,0.112721858901835
-0.655582720181426,0.113904880353071
-0.689745647066735,0.113959738007986
-0.723532012920691,0.112845590360767
-0.756716636915213,0.110535437502257
-0.78907651388672,0.107016253319635
-0.820392577984673,0.102288978895375
-0.850451440693436,0.0963683777149717
-0.879047088565861,0.0892827545798393
-0.905982526326301,0.0810735413893685
-0.931071351444869,0.0717947541928628
-0.954139246849775,0.0615123271067507
-0.975025379125795,0.0503033298342066
-0.993583690338288,0.0382550766028123
-1.00968407251697,0.0254641353413194
-1.02321341482406,0.0120352468398319
-1.03407651450877,-0.00191983552951716
-1.04219684390517,-0.0162835742196802
-1.04751716695292,-0.030933932101963
-1.05,-0.045745700784327
-1.04962791297146,-0.0605918597892855
-1.04640366834793,-0.0753449534404454
-1.04035019677883,-0.0898784721426173
-1.03151040954749,-0.104068224699224
-1.01994684949494,-0.117793688392746
-1.00574118338533,-0.13093932375854
-0.988993540045275,-0.143395841307601
-0.969821699921764,-0.155061407896796
-0.948360142965476,-0.165842781001838
-0.924758962948732,-0.175656359813621
-0.8991826574587,-0.184429142846606
-0.871808803857194,-0.1920995826117
-0.842826632459331,-0.198618328857711
-0.812435509046076,-0.203948852916373
-0.780843339582834,-0.208067946786736
-0.748264910661153,-0.210966091755513
-0.714920179707774,-0.21264769256012
-0.681032529410184,-0.213131174349785
-0.646827001087003,-0.212448940975779
-0.612528521882666,-0.210647194433094
-0.578360140687776,-0.207785616570846
-0.544541287579074,-0.203936915475755
-0.511286071337324,-0.199186240200297
-0.478801629239733,-0.193630468743243
-0.447286542839084,-0.187377375383771
-0.416929332839095,-0.180544684610517
-0.387907045459836,-0.173259019963139
-0.360383941864966,-0.165654757106613
-0.334510301301353,-0.157872791378089
-0.31042134758953,-0.150059230874502
-0.288236307509472,-0.142364026878366
-0.268057608460109,-0.13493955404278
-0.249970221543079,-0.12793915326851
-0.23404115494249,-0.12151565060159
-0.220319101154139,-0.115819865755167
-0.208834240271494,-0.110999124011745
-0.199598200173538,-0.107195785289933
-0.19260417309356,-0.104545804062754
-0.18782718668992,-0.103177333593225
-0.185224526402002,-0.103209387608991
-0.184736304568458,-0.104750572074182
-0.186286170522203,-0.107897899137264
-0.189782154668272,-0.112735694643514
-0.195117638407396,-0.119334609805815
-0.202172440699817,-0.127750746734648
-0.21081401107986,-0.138024906545366
-0.220898718040637,-0.150181967696592
-0.232273220917669,-0.164230401077348
-0.244775912717026,-0.180161927162298
-0.258238420763633,-0.197951319304896
-0.2724871515935,-0.217556355948297
-0.287344866183615,-0.238917923215158
-0.302632271407725,-0.261960268001538
-0.318169613526843,-0.286591400359007
-0.33377825957053,-0.312703642614677
-0.34928225263798,-0.340174321363102
-0.364509827445159,-0.368866597178666
-0.379294872862464,-0.398630425653608
-0.393478328722926,-0.429303642176477
-0.406909504828577,-0.460713161739204
-0.41944731083645,-0.492676284008221
-0.430961386558587,-0.525002092925761
-0.441333123154803,-0.557492939230293
-0.450456566723925,-0.589945993507995
-0.458239196899548,-0.622154856717329
-0.464602574220012,-0.653911214572258
-0.469482851258614,-0.685006521731607
-0.472831143758164,-0.715233701426625
-0.474613759302298,-0.744388845968848
-0.474812282363028,-0.772272903518013
-0.473423515877813,-0.798693336555574
-0.470459280818332,-0.823465737703079
-0.465946076505196,-0.846415388844826
-0.45992460568648,-0.867378749958067
-0.452449169621863,-0.886204864618001
-0.443586939587254,-0.902756669824035
-0.433417112326629,-0.916912198582494
-0.422029958018426,-0.928565664572387
-0.409525770283865,-0.93762841920722
-0.396013728635579,-0.944029772478751
-0.381610684538945,-0.947717670118596
-0.366439882928937,-0.948659220830782
-0.350629631585914,-0.946841068622066
-0.334311931219827,-0.942269606576013
-0.317621079439847,-0.93497102976992
-0.300692261992558,-0.924991226408834
-0.283660144734944,-0.912395507636195
-0.266657479767734,-0.897268177863755
-0.249813738990868,-0.879711948832501
-0.233253788057319,-0.859847201959013
-0.217096613297245,-0.837811104826667
-0.201454113664924,-0.813756588936436
-0.186429969131216,-0.787851197027126
-0.172118596210057,-0.760275809398981
-0.158604200475533,-0.731223259717881
-0.145959935004113,-0.700896851730778
-0.13424717267288,-0.669508789178004
-0.123514899168585,-0.637278531937316
-0.113799232423574,-0.604431092071301
-0.10512307300378,-0.571195283968539
-0.0974958887416973,-0.537801943165032
-0.090913635644979,-0.504482128702648
-0.085358815830358,-0.471465324022818
-0.0808006719448965,-0.438977651405927
-0.0771955162536149,-0.407240114848883
-0.0744871913062637,-0.376466886026921
-0.072607657857792,-0.346863647612609
-0.0714777045182829,-0.318626007728532
-0.0710077724597469,-0.291937998694976
-0.071098887419605,-0.266970672504946
-0.0716436902239847,-0.243880804623104
-0.0725275561173255,-0.222809716769392
-0.073629792336886,-0.203882228321026
-0.074824902619307,-0.187205744856786
-0.0759839066783613,-0.172869491185116
-0.0769757021543645,-0.160943894952749
-0.0776684561114582,-0.151480125634299
-0.077931012853043,-0.144509792367028
-0.0776343046409592,-0.140044802730292
-0.076652751842364,-0.138077383188238
-0.0748656390903499,-0.138580260529017
-0.0721584542297502,-0.14150700225638
-0.0684241771267407,-0.146792512532068
-0.0635645058471548,-0.154353678941661
-0.0574910082501182,-0.164090164074273
-0.0501261876959633,-0.175885334678679
-0.0414044523246114,-0.189607319995938
-0.0312729782159596,-0.205110189781447
-0.0196924576897717,-0.222235241527002
-0.00663772503054774,-0.240812385484594
0.00790174697613735,-0.260661615286138
0.0239214851453766,-0.281594551254144
0.0414017928655593,-0.303416042913288
0.0603076689163641,-0.325925816747209
0.0805888698177013,-0.348920154902168
0.102180116087566,-0.372193590322609
0.125001441472037,-0.395540603714679
0.148958682900692,-0.418757307772919
0.173944107627411,-0.441643104272272
0.199837172751503,-0.464002299920332
0.226505411088805,-0.485645667280679
0.25380543618796,-0.50639193761333
0.281584058174239,-0.526069213127829
0.309679501061848,-0.544516286902106
0.337922711215767,-0.561583859579643
0.366138745773681,-0.577135642909948
0.394148229066543,-0.591049341235351
0.421768864408854,-0.603217503140243
0.448816988073781,-0.6135482366579
0.475109151828702,-0.621965782663891
0.500463720087634,-0.628410942362782
0.524702467541891,-0.632841356085164
0.547652163060571,-0.635231631942889
0.569146125709638,-0.635573324230266
0.589025738921575,-0.633874762795584
0.607141909155997,-0.630160735928999
0.623356455822316,-0.624472030607683
0.637543419785236,-0.616864835195686
0.649590278437736,-0.607410010903125
0.659399056098617,-0.596192239456281
