0.431004900656178,-0.880920027753116
0.443094802269082,-0.871882308352507
0.453675615732501,-0.860625400608811
0.462661673863594,-0.847235373975802
0.46997926113506,-0.831812780101656
0.475567481670081,-0.814471672093128
0.47937901853708,-0.795338518007783
0.481380776656062,-0.774551018580852
0.481554402648353,-0.752256839989051
0.479896676044882,-0.728612273152085
0.476419767404961,-0.703780831667533
0.471151360077944,-0.677931800961361
0.464134633553443,-0.651238751610307
0.455428107581358,-0.623878030050716
0.445105347489638,-0.596027240029056
0.433254532374399,-0.567863728171268
0.419977889072595,-0.539563086951371
0.40539099604077,-0.51129768812539
0.389621962443675,-0.483235259366972
0.372810488893073,-0.455537516399025
0.355106817359664,-0.428358862365655
0.336670578799955,-0.401845165535591
0.317669547985882,-0.376132625678365
0.298278315889527,-0.351346738614455
0.278676890750389,-0.327601367518288
0.259049239631464,-0.304997928556704
0.239581782846463,-0.283624697384309
0.220461854108687,-0.26355624190078
0.201876139607869,-0.244852985513643
0.184009109461475,-0.22756090395388
0.167041455109003,-0.211711357471755
0.151148546220602,-0.197321059007398
0.136498920574451,-0.184392177696147
0.123252820121727,-0.172912575843416
0.111560786105436,-0.162856176299034
0.10156232563286,-0.154183455987307
0.0933846615247231,-0.146842060217052
0.0871415765824205,-0.140767531315639
0.0829323626334939,-0.135884144112328
0.0808408838418118,-0.132105839847951
0.0809347628101042,-0.129337249218722
0.0832646969669592,-0.127474794479396
0.0878639116270955,-0.126407859842049
0.094747754952295,-0.126020018817468
0.103913438830945,-0.126190306661809
0.115339928447264,-0.126794525715887
0.128987982037861,-0.127706571161526
0.144800341044505,-0.12879976457108
0.162702069579051,-0.129948182593601
0.182601040830853,-0.13102796820446
0.20438856677987,-0.131918612143536
0.227940166341224,-0.132504192478439
0.253116465870043,-0.132674560650742
0.279764224809597,-0.132326462890798
0.307717478180999,-0.131364586515611
0.336798786598787,-0.129702521348553
0.366820583562278,-0.12726362731276
0.397586608926114,-0.123981800144405
0.428893416702246,-0.119802128139462
0.460531944696372,-0.114681433879212
0.492289132940374,-0.108588695966125
0.523949577453241,-0.101505346933038
0.555297205550301,-0.0934254446542705
0.586116958726861,-0.0843557157769596
0.616196469069594,-0.0743154708935305
0.645327715197565,-0.0633363923808967
0.699944743963704,-0.038748176746937
0.725050558961643,-0.0252606218161061
0.748451126549874,-0.0110761321923632
0.769983332129356,0.0037191764979391
0.789497165717417,0.0190305647024037
0.806856871575335,0.0347556499032912
0.821941981094507,0.0507854674359614
0.834648220440263,0.0670056010466491
0.852592478033003,0.0995390782236422
0.857709197365577,0.115607263162004
0.860205284700026,0.131378016362611
0.86006621651011,0.146728279194499
0.857296146274158,0.16153715167527
0.851917794350134,0.175687185017855
0.843972187306725,0.189065647854358
0.833518249282123,0.201565753906202
0.820632249202445,0.213087839200045
0.805407108917057,0.223540477369014
0.787951578487848,0.232841522125049
0.768389285993267,0.240919066635486
0.698498131298014,0.257262707126677
0.672003089459939,0.259960126900999
0.585433754519295,0.259665217439301
0.554856410922265,0.256830813675812
0.523747941144964,0.252692986742382
0.492308015527421,0.24731109444662
0.460735439861182,0.24075776326986
0.429226569090502,0.233118392215049
0.397973753381256,0.224490531320342
0.367163829670405,0.214983139764552
0.336976671365383,0.204715729612942
0.307583808309415,0.193817402322481
0.279147128470623,0.182425786134873
0.25181767205571,0.170685883424256
0.201023841052717,0.146770632543435
0.177797939465734,0.134910729113677
0.156154586620924,0.12333066207842
0.136176365794416,0.112192598493062
0.101467014265931,0.0918855398932912
0.0868215322519117,0.083030868164618
0.0740122247673986,0.0752439381672199
0.0630413929780954,0.0686682075135332
0.0465450071131901,0.0596829253154464
0.0409459233528938,0.0575151727520711
0.0370393757965345,0.0570398120918386
0.034752881499914,0.0583479908409908
0.0340011011871096,0.0615171108922617
0.0346868037157881,0.0666099695055996
0.0399287224776196,0.0827407540120471
0.0495053110611933,0.106925710242716
0.0555824826185266,0.122023484436497
0.0695974889069826,0.158050898124829
0.0851081170877258,0.201419393917104
0.0930539219949088,0.225632346411672
0.108603170348376,0.278532401855745
0.122782691193045,0.336457028289171
0.129040274330742,0.366904178553827
0.134589149379647,0.398106668727018
0.139325644755523,0.429877384514253
0.143156582211459,0.462021943882323
0.146000048987385,0.494340190738792
0.147786055078631,0.52662774566943
0.148457070116787,0.558677600804327
0.147968435486071,0.590281745465246
0.143399516383974,0.651325706577981
0.133987006359486,0.708137884284267
0.127493353242808,0.734473008638306
0.139100303836836,0.772198127898147
0.096952108605882,0.798746960587524
0.124583483998111,0.864432713160518
0.0698567552449054,0.917948501784024
0.0690482224447162,0.870736327407998
0.0311402147402044,0.898513808171246
-0.00465801016979801,0.886254809626639
-0.0197990034336242,0.884975347938241
-0.0349755100322038,0.88101895571222
-0.0936775455314176,0.839237537407412
-0.132527474115888,0.782915099477233
-0.153663409041499,0.721118519628977
-0.159122250001218,0.634140313022438
-0.153978711695632,0.620770728087548
-0.175429645578247,0.501251714121669
-0.20237388049162,0.494710182502148
-0.240832261037174,0.511342208626563
-0.203917853810771,0.430148950067453
-0.203306267157027,0.398362487964661
-0.213036502691436,0.310790601281955
-0.206416843221978,0.313556072632718
-0.17372633124011,0.250347516274141
-0.189603532890544,0.252201804695729
-0.150965492943749,0.18901132542017
-0.179321575934105,0.161957098483882
-0.149066112107968,0.13942053062482
-0.182543701026712,0.111035943460056
-0.158268324019815,0.0998736045517108
-0.139538035864843,0.0926398001872243
-0.181047750637963,0.105782276370125
-0.146448800985216,0.0504668612949072
-0.153868253797757,0.0908757905973833
-0.180650855449257,0.0511497814907736
-0.21434088126843,0.134434247289364
-0.209615906658559,0.145737949964995
-0.228974515906917,0.12566384259009
-0.24509697598476,0.138636258181313
-0.282186770627668,0.167084878856849
-0.253545459819069,0.225718238170189
-0.40005683233209,0.232838825068236
-0.430371160807368,0.324101748028425
-0.543974637912682,0.314967820934849
-0.575804255417179,0.338723534510407
-0.664498631015824,0.353459758998844
-0.714308035220819,0.342959028778823
-0.679979644298272,0.339116389420464
-0.782186960147849,0.33163787906035
-0.804766739489668,0.384296330179134
-0.881145185871798,0.321835699532487
-0.96090367199233,0.29231371552877
-0.934389658920277,0.326252048331809
-0.944736423871122,0.314465452256825
-0.952675057962144,0.301509187826204
-0.961101388712898,0.272509860596015
-0.961519488976162,0.256695843951866
-0.959391075464917,0.240167797527227
-0.954726592699112,0.223052588942891
-0.93792263645473,0.187579795120056
-0.9258949969667,0.169483586207849
-0.911554278512349,0.151320311490252
-0.894999842218268,0.133216535896092
-0.833286610446092,0.0804612777533389
-0.783587484398055,0.0476766700802179
-0.728659294441436,0.0176641715845622
-0.670062575744391,-0.00901473102987202
-0.639905789917458,-0.0209781190019293
-0.548570062740967,-0.0510521006207958
-0.518553097277404,-0.0591247761576296
-0.432719566073419,-0.0777811570883509
-0.357278332190452,-0.0891566208729218
-0.33525408094398,-0.0916652683730949
-0.296768884792889,-0.0953100750274588
-0.266479945344776,-0.0978302929800952
-0.254639159966281,-0.0989514212322798
-0.245088646479977,-0.100136994258861
-0.233012708152146,-0.103179459000631
-0.230518077421304,-0.105273572907473
-0.23700331474843,-0.115212283756533
-0.243658844353417,-0.120095041061807
-0.275943870026436,-0.140726163649225
-0.29042957402406,-0.149839874997449
-0.306551118050029,-0.160166098608845
-0.343073699227723,-0.18459792961593
-0.428325385030681,-0.24883260071628
-0.474024261572003,-0.288285633578999
-0.519678120149891,-0.332029119766006
-0.542001704071949,-0.355294963703812
-0.563738080252894,-0.379351323027179
-0.62365169113308,-0.455033644326576
-0.67228956029507,-0.533034896938666
-0.685362298040578,-0.558832543971041
-0.713731657406942,-0.633329559915039
-0.620984374905611,-0.793109445958264
-0.819012756345423,-0.796209357762129
-0.811569663973724,-0.846095630216188
-0.609087223974263,-0.868335136432079
-0.782720467302491,-0.897573060098393
-0.766847844103773,-0.708550999735695
-0.431866069066047,-0.901203570631585
-0.220660646859749,-0.547546962062505
-0.16842633256627,-0.655003490597288
-0.198027956290474,-0.459588568286799
-0.0432736110909983,-0.277840949586337
-0.0172906680572487,-0.383522512285659
-0.215683442933186,-0.164139035669579
-0.00238432458291271,-0.351061730895931
-0.188905637276645,-0.131700486773194
-0.0892504055409022,-0.23565359731411
0.00448985419094079,-0.122386854397562
0.0343450921280126,-0.133039451355499
-0.0810065755111575,-0.231934839206729
-0.0734674451350373,-0.249757971998045
-0.165395442576614,-0.2339507517396
0.0769868081789483,-0.638004279549856
0.0434334112263954,-0.858852486913875
0.231590297517254,-0.82569526451134
0.145602823209553,-0.74160894568381
0.429287741297883,-0.97404712488826
0.472609298002449,-0.774311916440724
0.402694361076022,-0.892071106699951
0.525786852760152,-0.770331680969014
