-0.10272706891431,-0.154213560254774
-0.101571103631365,-0.152124027393294
-0.10053295399123,-0.149948939685719
-0.0996168105980918,-0.147693694348448
-0.0988266394563577,-0.145363866030157
-0.0981661750046808,-0.142965197972124
-0.0976389134854024,-0.140503592907495
-0.21347642398019,-0.239603289310204
-0.0969967558718869,-0.135415923818081
-0.0968876064881669,-0.132802377407834
-0.0969231426900493,-0.130150909394227
-0.097105582657924,-0.127468075208138
0.000129599236008207,-0.0307512094935772
-0.0979186903850821,-0.122035020090651
-0.0985524265456448,-0.119298368226698
-0.099339196388204,-0.116557466753349
0.00555376271099714,-0.0132911899377235
-0.101374868787754,-0.111090756700967
-0.102624568629036,-0.108378972601672
-0.104028893136798,-0.105690965410377
-0.105587515078035,-0.103033800368896
-0.107299815126049,-0.100414543503008
-0.109164881555727,-0.0978402502197695
-0.111181510367653,-0.0953179538886053
-0.113348205841713,-0.0928546544218777
-0.115663181520287,-0.0904573068706756
-0.118124361620529,-0.0881328100515543
-0.120729382874718,-0.0858879952199478
-0.123475596797042,-0.083729614805934
-0.126360072374668,-0.0816643312279768
-0.12937959918035,-0.0796987058001934
-0.132530690903291,-0.0778391877485961
-0.135809589294413,-0.0760921033516426
-0.237154104046816,-0.171163242847988
-0.142734439930199,-0.0729598617326066
-0.146371557202641,-0.0715866466377697
-0.150118821912247,-0.0703497288441855
-0.153971189463597,-0.0692546624061257
-0.157923375413039,-0.068306816723148
-0.0541861093450448,0.0316025206066664
-0.0723170486495106,0.0282809636446638
-0.170322544581793,-0.0663973290257146
-0.174616604562875,-0.0660880373235012
-0.178980709818131,-0.0659497171651
-0.183408289805456,-0.0659864378506738
-0.187892588318368,-0.0662020225173145
-0.192426672532504,-0.066600040519102
-0.197003442346671,-0.0671838001346288
-0.292550723249668,-0.173792676680097
-0.206255860000304,-0.0689204305684688
-0.210916559209513,-0.070078551734957
-0.215590067309414,-0.0714329030882337
-0.220268597398391,-0.0729853903468623
-0.326783198590947,-0.188959831340325
-0.327211433275754,-0.193312431334686
-0.234254931184734,-0.0788462362891166
-0.238873732601171,-0.0812043086161424
-0.243457259436231,-0.0837654966244082
-0.361477936442669,-0.191088739943657
-0.252485445068725,-0.0894971357695951
-0.256913501601343,-0.0926667440044004
-0.261273103074961,-0.0960377781498604
-0.265555922515854,-0.0996090076575392
-0.269753644554638,-0.103378876319288
-0.273857977708029,-0.107345501841109
-0.277860666696929,-0.111506675868466
-0.281753504784566,-0.115859864464819
-0.182063466101523,-0.0209938619168309
-0.289177118058912,-0.125130527761489
-0.292691833480262,-0.130041317351346
-0.296064603023969,-0.135130755430459
-0.299287647291552,-0.140394703246801
-0.302353308958279,-0.145828708883325
-0.305254064792116,-0.151428010910762
-0.307982537561504,-0.157187542487101
-0.310531507815741,-0.163101935900295
-0.312893925521869,-0.169165527550168
-0.315062921542061,-0.17537236336493
-0.317031818935705,-0.181716204647106
-0.216918274931994,-0.0879076990464414
-0.208736729895084,-0.0889836944976599
-0.321674264781988,-0.201503239515152
-0.322780226653819,-0.208327251332121
-0.32365596949788,-0.215253039641622
-0.324296195134782,-0.222272804011485
-0.324695870498757,-0.229378511777522
-0.431557060146954,-0.33788217141652
-0.324754819529719,-0.243814520210784
-0.324405435267814,-0.251127677427059
-0.323798201991629,-0.258492510943306
-0.427921589836093,-0.371669434610601
-0.217476589157231,-0.161887190073337
-0.32039526180631,-0.28080570185907
-0.318724096888867,-0.288285052951595
-0.316780450110069,-0.295769205875667
-0.314562399022479,-0.303248357642429
-0.312068370194864,-0.310712590162322
-0.190662111619604,-0.223444584861708
-0.30624786206302,-0.325556123718383
-0.302920026540168,-0.332915124999875
-0.187360401799136,-0.250190355112333
-0.295428552656463,-0.347456343593227
-0.291265773389724,-0.354617913281182
-0.286826164906098,-0.361692974499499
-0.282111099581727,-0.368671148183943
-0.277122330363766,-0.375542057590023
-0.181694343192715,-0.269742527188662
-0.266332601369357,-0.38892067057753
-0.260537058348823,-0.395407756094008
-0.254478644815688,-0.401746368940582
-0.248161024181127,-0.407926350977126
-0.241588240014551,-0.413937629459413
-0.326477117961715,-0.527263940744743
-0.227695244817163,-0.425414295141762
-0.220385002962791,-0.43086008877358
-0.212839529820746,-0.436098019291751
-0.205064732674774,-0.441118648568145
-0.1970668806505,-0.445912706460167
-0.188852599927897,-0.450471104260656
-0.180428868464907,-0.454784948010769
-0.171803010236151,-0.458845551658364
-0.266598953891602,-0.556512266134526
-0.153975901538355,-0.466173411701162
-0.144790970557352,-0.469424451442166
-0.227397413032937,-0.583489101155273
-0.125921551741234,-0.475062129814299
-0.116255267512102,-0.477434139584443
-0.0048605164975622,-0.367788582774253
-0.0965072657639626,-0.481250117341592
-0.0864454781435732,-0.482681255322902
-0.0762722311939069,-0.483786477677191
-0.0659981419262286,-0.484560192562529
-0.152910864465035,-0.604346557184005
-0.0451910996637009,-0.485092480298739
-0.0346805412086313,-0.484841645753387
-0.0241139055603959,-0.484240507084116
-0.0135028984088521,-0.483285303122354
-0.00285940605731394,-0.481972664619716
0.00780451771750448,-0.480299621871119
0.129246867453532,-0.381119146227437
0.124318167952362,-0.364563570318861
0.0397961119430154,-0.473094511897354
0.0504183504743068,-0.469958387783535
0.151481281353291,-0.365676976568322
0.071524452170482,-0.462578628842864
0.0819827135511253,-0.458334558342239
0.0923606159646359,-0.453721473779859
0.10264523414942,-0.44874026812441
0.112823620713573,-0.443392284169244
0.122882821700862,-0.43767931676889
0.132809892274228,-0.431603614539644
0.142591912498447,-0.425167881019085
0.152216003203377,-0.418375275280023
0.161669341909027,-0.411229411994985
0.170939178793534,-0.403734360948015
0.180012852684987,-0.395894645991193
0.188877807057913,-0.387715243443942
0.197521606015148,-0.379201579933852
0.205931950235755,-0.370359529678403
0.214096692869568,-0.36119541120764
0.222003855358947,-0.351715983528529
0.229641643168303,-0.341928441732385
0.236998461401973,-0.331840412047427
0.24406293029107,-0.321459946339211
0.25082390052999,-0.310795516062341
0.257270468443351,-0.299856005667524
0.263391990964249,-0.288650705468742
0.269178100404835,-0.277189303975913
0.274618719000396,-0.265481879699146
0.279704073208274,-0.253538892431294
0.284424707743192,-0.241371174016192
0.288771499330735,-0.2289899186106
0.292735670161034,-0.216406672448519
0.296308801024912,-0.203633323117157
0.391542783563184,-0.0826766363454376
0.190412121592793,-0.285524250648034
0.166567531199671,-0.331459592478734
0.18065760709771,-0.255203607369727
0.283144039075129,-0.167427449351016
0.434522368827057,0.0116948140097728
0.309745436614997,-0.109961842625951
0.309934242415378,-0.0961326758231227
0.17661250129568,-0.151331688524074
0.308961599287912,-0.0682796997751946
0.307792242589751,-0.0542853083944405
0.351763056692482,-0.0889841407862363
0.2613440167199,-0.0281449285458241
0.301514776794068,-0.0122107801016574
0.38898153970378,0.118074216058964
0.208401322208468,-0.0640917208366353
0.263603099060152,0.0666994520712484
0.208601468309336,-0.108112666275496
0.281717594942718,0.0572936013915735
0.272833566813783,0.0224533588888615
0.227796109234022,0.0848018966203835
0.313057656526395,0.14588587256995
0.271407639072321,0.131029246174393
0.294247880395676,0.0921659652065297
0.22515804126022,0.169455646425729
0.247322359852363,0.149182821125746
0.187125966423938,0.178433427179804
0.240635264470502,0.156684470394757
0.224290053029167,0.165034737873649
0.197589531846475,0.198710992642489
0.177093615023659,0.188691275504518
0.207983242773381,0.27074870849151
0.165473252982102,0.232458451801118
0.160269273821155,0.223806420608972
0.142055640405438,0.253406981290625
0.0949117559874973,0.248785948395889
-0.0262207740754605,0.190066434788572
0.104101350937956,0.282222039510431
0.10321007467462,0.314882209315921
0.110905230163878,0.339551315446486
0.0630050207554943,0.307586107030116
0.0864333704589596,0.284369900962777
0.0152679064266094,0.359489615361886
0.0190845205439872,0.329161065022297
0.0288453647652892,0.30168159739683
-0.0167092039763563,0.364934013144704
-0.0374656747223022,0.332271924194972
-0.0432529006960158,0.351505194144617
-0.0594161166268676,0.35587646177968
-0.0688077629949479,0.339395000239745
-0.0926528723399424,0.356184046878946
-0.109049298042769,0.365931869064353
-0.125921141628934,0.368238071748132
-0.142929078721394,0.370009686050967
-0.0423030261532247,0.463525357350677
-0.177284952839945,0.371924566435792
-0.194598115678347,0.372056908597272
-0.119000901686817,0.483122875491043
-0.111085752398252,0.474362777200867
-0.343776438191153,0.263977877698834
-0.264336233757391,0.366984513841936
-0.281801093852472,0.364300106864558
-0.299241131127174,0.361044907385406
-0.316637652083504,0.357217838222218
-0.333971871489526,0.352818435483165
-0.351224932529448,0.347846853251868
-0.36837792715701,0.342303867609569
-0.385411916630325,0.336190879986344
-0.402307952206053,0.32950991983394
-0.419047095970482,0.32226364661356
-0.435610441784832,0.314455351092645
-0.451979136321876,0.306088955945483
-0.468134400170728,0.297169015653194
-0.484057548986503,0.287700715699452
-0.499730014661343,0.277689871059044
-0.515133366493215,0.267142923977174
-0.530249332328744,0.25606694103818
-0.545059819656274,0.244469609523166
-0.559546936625292,0.2323592330568
-0.670321494362895,0.103953095186361
-0.587480620801336,0.206635610400924
-0.600892595278969,0.193042004075302
-0.613912055080432,0.17897461887233
-0.626522422702645,0.164444750077666
-0.638707444536781,0.149464268390263
-0.650451210704761,0.134045610668364
-0.661738174632322,0.118201769995716
-0.672553172335491,0.101946285075466
-0.682881441397503,0.085293228959987
-0.692708639613425,0.0682571971257014
-0.702020863280036,0.0508532949026708
-0.710804665108788,0.0330971242695703
-0.719047071739978,0.0150047700253555
-0.726735600836647,-0.00340721465028354
-0.733858277737024,-0.0221218232348667
-0.740403651644794,-0.0411216114859105
-0.746360811336827,-0.0603887136343161
-0.751719400368499,-0.0799048591333731
-0.756469631757149,-0.0996513899477459
-0.760602302124755,-0.119609278366117
-0.856504047636569,-0.258850447246037
-0.76698114523161,-0.160081279194617
-0.769211948586288,-0.180555655103074
-0.770794476363409,-0.201161954622502
-0.771722635161397,-0.221879585955208
-0.771990987689598,-0.242687704505332
-0.771594762640978,-0.263565233846952
-0.879840795225351,-0.398575428937663
-0.768792879021776,-0.305443188433713
-0.766381087120642,-0.326400495451586
-0.763292465904351,-0.347341021141856
-0.759525698094106,-0.368242856663982
-0.755080177068777,-0.389083994171615
-0.749956011773721,-0.409842349907001
-0.744154030877864,-0.430495787505665
-0.737675786170694,-0.451022141486891
-0.730523555191625,-0.471399240905158
-0.722700343084963,-0.491604933137452
-0.714209883674579,-0.511617107781043
-0.705056639753195,-0.531413720636132
-0.69524580258202,-0.550972817747546
-0.684783290597363,-0.570272559479473
-0.67367574732166,-0.589291244597073
-0.661930538477255,-0.608007334328692
-0.649555748302111,-0.626399476382277
-0.636560175067516,-0.644446528889556
-0.622953325798734,-0.662127584251489
-0.608745410200401,-0.679421992858474
-0.593947333789378,-0.696309386658839
-0.57857069023863,-0.712769702549169
-0.562627752936597,-0.728783205560113
-0.453644543627125,-0.63073366003782
-0.529095433118028,-0.759392611210037
-0.511533909119816,-0.77395088986544
-0.602339771908699,-0.882103291165376
-0.474894582475125,-0.80148364270267
-0.455848429428042,-0.814423067379682
-0.436340057491958,-0.826788614745469
-0.416386781940052,-0.838563976460915
-0.396006487660564,-0.849733367515486
-0.375217613307839,-0.860281545955597
-0.354039134774953,-0.870193832131857
-0.332490548002575,-0.879456127441984
-0.310591851139482,-0.888054932546684
-0.288363526070961,-0.895977365036189
-0.265826519332054,-0.903211176525726
-0.243002222423354,-0.90974476915865
-0.2199124515478,-0.915567211496573
-0.196579426787621,-0.920668253776368
-0.173025750741281,-0.925038342514537
-0.149274386640925,-0.928668634440058
-0.0257674322377229,-0.824303953363745
-0.101272115613479,-0.933678084582645
-0.184571114918569,-1.0456096063828
-0.0527626700305805,-0.935640547705161
-0.0283783436088505,-0.935464950877384
-0.00394039642127766,-0.934512103247336
0.0205263356110571,-0.932778463086105
0.0449968470270119,-0.930261284122427
0.0694459883591353,-0.926958622695811
0.0938484919493739,-0.922869344088322
0.118178998020238,-0.917993128024413
0.035762251018503,-1.01112341797899
0.166522275896816,-0.905882701734806
0.294013582797444,-0.790326110244882
0.214272105586085,-0.890641226146307
0.33526995351562,-0.768684729827269
0.261224998467806,-0.872295823630351
0.183982656358301,-0.978371388092429
0.307178556721197,-0.850886881234282
0.329717847627456,-0.839049823938317
0.465906047146237,-0.725865690567205
0.373797427661417,-0.813150221761581
0.395288733656184,-0.799106000972799
0.320456898642619,-0.899673533699185
0.437053810037593,-0.768880590623182
0.457280221625551,-0.752722545060503
0.477038187034008,-0.735884347678769
0.496304882258097,-0.718379525473222
0.515057872213906,-0.700222369822583
0.533275136288904,-0.681427925359783
0.550935093575547,-0.662011977990228
0.568016627759659,-0.641991042066525
0.584499111635469,-0.621382346729625
0.600362431219415,-0.600203821427203
0.615587009435208,-0.578474080621071
0.630153829342942,-0.556212407696287
0.64404445688541,-0.533438738085637
0.657241063125273,-0.510173641623899
0.552983413262622,-0.594753219549048
0.681484051198296,-0.462254508354916
0.692497993245509,-0.437644613947491
0.702753074919274,-0.412631537064462
0.712234806825742,-0.387238729035122
0.830777506023938,-0.252200373767273
0.728823913881898,-0.335410268679308
0.735906013582943,-0.30902399453845
0.742164246438182,-0.282356698658032
0.747587927806941,-0.255434167045518
0.752167182111589,-0.228282580183173
0.65564746579107,-0.3087915180981
0.758757037257016,-0.173398781812875
0.760752056516921,-0.145720672096579
0.761871509976941,-0.117921657384868
0.762109764878634,-0.0900294990529998
0.761462070672066,-0.0620721931745565
0.759924568204922,-0.0340779424250136
0.874950931410563,0.107747761523276
0.754169207712902,0.0219077209460784
0.749948158444762,0.0498419527429407
0.74483093042159,0.077698826114257
0.738818227508017,0.105449537909491
0.731911680859953,0.133065253196444
0.724113851603803,0.160517135160854
0.715428232550239,0.187776375142496
0.70585924893659,0.214814222776647
0.812559960608791,0.359540544309531
0.68409354872826,0.268111212355095
0.671910337732992,0.294313417164444
0.65887076799748,0.320180415870659
0.644983903744229,0.345684203182261
0.741435687580926,0.464235171918447
0.614709123833763,0.395491350355774
0.598343892487975,0.419740017351594
0.581176720031479,0.44351614671607
0.563221180913593,0.466793229296717
