0.0527809623359686,-0.968491339472039
0.0673375118109629,-0.965309986748965
0.0816051395365121,-0.960777312582066
0.0955287451219765,-0.954912308180882
0.109055072321855,-0.947739993537873
0.122133084594527,-0.939291262482417
0.134714327035739,-0.92960269443281
0.14675327231277,-0.918716334012307
0.158207648324452,-0.906679439887935
0.169038745425875,-0.893544204375107
0.179211701183946,-0.879367445525762
0.18869576077019,-0.864210273581954
0.197464511249484,-0.84813773382932
0.205496088186728,-0.831218428024854
0.212773353166885,-0.813524116700048
0.219284041006237,-0.795129304752893
0.225020875622929,-0.776110812839858
0.229981653731843,-0.756547337161108
0.234169295731149,-0.736519000298505
0.237591863354485,-0.716106895815796
0.240262543872124,-0.695392629363721
0.242199600835511,-0.674457859049199
0.2434262915709,-0.653383837827321
0.243970751837998,-0.632250960657534
0.243865848277516,-0.611138319131242
0.243148999475677,-0.590123266227409
0.241861966673107,-0.56928099378579
0.240050615338639,-0.548684125204707
0.237764649014292,-0.528402325772256
0.235057317014914,-0.508501932927146
0.2319850977335,-0.489045608618705
0.228607359460011,-0.470092015795739
0.224986000766682,-0.451695520901821
0.221185072645317,-0.433905924091046
0.217270384701155,-0.416768218704496
0.213309097812809,-0.400322381364554
0.209369305757792,-0.384603193852992
0.205519608377778,-0.369640097740644
0.201828678916447,-0.35545708253265
0.198364828205194,-0.342072607884947
0.195195568397852,-0.329499560236346
0.192387178964705,-0.317745243987234
0.190004277648431,-0.30681140714223
0.188109399060123,-0.296694301121176
0.186762583552523,-0.287384774232049
0.186020978950099,-0.278868398091994
0.185938457642093,-0.271125626080063
0.18656525145555,-0.264131982708528
0.18794760662113,-0.257858282610173
0.190127461025875,-0.252270877657798
0.193142145814764,-0.247331930560536
0.197024113257616,-0.242999713120403
0.201800692640624,-0.239228927182901
0.207493875773463,-0.23597104617833
0.214120133524554,-0.23317467502652
0.221690264609738,-0.230785926067893
0.230209277664565,-0.228748808588576
0.239676307428673,-0.227005629427485
0.250084565663765,-0.225497402089189
0.261421327215547,-0.224164261738484
0.273667951416137,-0.222945883421157
0.286799938808122,-0.221781900840603
0.300787022955956,-0.220612323021845
0.315593296896128,-0.219377946213117
0.331177373565767,-0.218020758410323
0.347492579341417,-0.216484333941172
0.364487179616856,-0.214714215613278
0.382104635152366,-0.212658282013588
0.400283887738952,-0.210267097644605
0.4189596735408,-0.207494243695374
0.438062862308941,-0.204296627371493
0.457520820499656,-0.200634767847478
0.47725779618359,-0.196473057056087
0.497195323496802,-0.191779993691407
0.517252644263841,-0.186528388974889
0.537347144316214,-0.180695542914833
0.557394801937913,-0.174263389978984
0.577310645793573,-0.167218613295744
0.597009219634863,-0.159552726700765
0.616405051037171,-0.151262124151122
0.635413121391842,-0.142348096237582
0.653949334369349,-0.132816813735405
0.671930980075854,-0.122679278344254
0.689277192149621,-0.111951240976932
0.705909395084557,-0.100653088163412
0.721751739125507,-0.0888096973397387
0.736731520153431,-0.0764502619895786
0.750779582067941,-0.0636080877981912
0.7638306992791,-0.0503203611632877
0.775823937039487,-0.0366278915833591
0.786702987480375,-0.0225748296105859
0.796416479361821,-0.00820836221129163
0.804918259704453,0.00642161247888071
0.812167645639961,0.021262828886219
0.818129644996618,0.0362610139794643
0.822775144324451,0.0513602611582552
0.826081063260944,0.0665034156187103
0.828030474340951,0.0816324686912551
0.828612687562848,0.0966889585874814
0.82782329923532,0.111614374950661
0.825664204844482,0.126350564578806
0.822143575897788,0.140840135679999
0.817275800918167,0.15502685802724
0.811081390977632,0.168856056404136
0.803586850372991,0.182274994773342
0.794824513255848,0.195233248656428
0.78483234723364,0.207683063286476
0.773653725156637,0.21957969518278
0.76133716649655,0.230881734899898
0.747936049904386,0.241551408820481
0.733508298707359,0.251554857991911
0.718116041266031,0.260862392150149
0.701825248262321,0.269448717229267
0.684705349125756,0.277293134821164
0.666828829928494,0.284379712225682
0.648270815188421,0.290697421915837
0.62910863611346,0.296240249434904
0.609421387898419,0.30100726894051
0.589289478747951,0.305002685814398
0.568794173344904,0.308235845963936
0.548017133512506,0.310721211651391
0.527039958831016,0.312478303898217
0.505943729964804,0.313531611722774
0.484808557434286,0.313910468679669
0.463713138528811,0.313648897376026
0.442734325001857,0.312785422843114
0.421946704118952,0.311362855839653
0.401422195542124,0.309428047354493
0.381229666432968,0.30703161576009
0.361434567040121,0.304227648243101
0.342098588906942,0.30107337830333
0.323279347692157,0.297628841266312
0.305030092441189,0.293956509896837
0.287399442979703,0.290120912329983
0.270431156924635,0.286188234651842
0.254163927622775,0.282225910563339
0.238631214133894,0.278302200646795
0.223861104175759,0.274485763825572
0.209876210743303,0.270845223661775
0.196693602905042,0.267448732175345
0.184324771067874,0.264363533889521
0.172775626787861,0.261655532812639
0.162046536990966,0.259388865054331
0.152132392255168,0.257625479745594
0.143022708595326,0.256424730886988
0.134701761985854,0.255842982687727
0.12714875465499,0.255933230880949
0.120338011989447,0.256744742407499
0.114239208700741,0.258322715752724
0.108817622725572,0.2607079640986
0.104034415163554,0.26393662331789
0.0998469343971831,0.268039886688667
0.0962090423923837,0.273043768047397
0.0930714610440151,0.278968894927827
0.0903821363102652,0.285830333052227
0.0880866177736317,0.293637443352171
0.0861284511748172,0.302393772499173
0.0844495813899201,0.312096977722392
0.0829907632612451,0.322738786482443
0.0816919776482467,0.334304991358426
0.080492850037812,0.346775480290941
0.0793330690424497,0.360124302108338
0.0781528021210347,0.374319767048194
0.0768931058795032,0.389324581772193
0.0754963283481644,0.405096018161693
0.0739065006878157,0.421586114974469
0.0720697158482816,0.438741911241757
0.0699344917898737,0.45650571009
0.0674521169800389,0.474815371484902
0.0645769759934877,0.493604632217514
0.0612668531736405,0.512803451284419
0.057483212455466,0.53233837865749
0.0531914516038441,0.552132945294284
0.04836112928647,0.572108072108695
0.0429661635750029,0.592182495503909
0.0369850006515633,0.612273206966661
0.0304007526886279,0.632295904133951
0.0232013040676756,0.652165450671287
0.0153793853043719,0.671796342245604
0.00693261425434465,0.691103175836643
-0.0021364956175389,0.710001119607991
-0.0118205599114131,0.728406380553352
-0.0221073807071447,0.746236667144899
-0.0329800363078864,0.763411644238832
-0.0444170026948113,0.779853377538203
-0.0563923058733927,0.795486764974497
-0.06887570409483,0.810239952447013
-0.0818328987459287,0.82404473145218
-0.0952257725181094,0.836836916243187
-0.109012653292379,0.848556698282858
-0.123148602013151,0.859148975888915
-0.137585722670775,0.868563657119833
-0.152273492371465,0.876755934110372
-0.167159109344913,0.88368652723771
-0.182187856625054,0.889321897680776
-0.197303479038829,0.89363442712578
-0.212448571052225,0.896602563568941
-0.227564972952578,0.898210932371724
-0.242594172791892,0.898450411933368
-0.257477711477798,0.897318173558706
-0.272157588377196,0.894817685315082
-0.286576664792631,0.8909586798891
-0.300679062683106,0.885757086670746
-0.314410556029273,0.879234928507767
-0.327718952287605,0.871420183785727
-0.340554461438885,0.862346614697585
-0.352870050212935,0.852053562769737
-0.364621779163292,0.840585712907871
-0.375769120372065,0.827992827414649
-0.386275253685824,0.81432945161084
-0.396107339517241,0.799654592861137
-0.405236766393556,0.784031374964323
-0.413639371590914,0.767526670013849
-0.421295633362091,0.750210709968298
-0.428190833443189,0.732156680290805
-0.434315188711361,0.713440298121661
-0.439663951059359,0.69413937753823
-0.444237474752493,0.674333384530612
-0.448041250738226,0.654102984379587
-0.451085907586752,0.633529584165003
-0.45338717895134,0.612694873157651
-0.454965837648519,0.591680363855709
-0.455847596669169,0.570566936417894
-0.456062977640769,0.549434389219742
-0.455647147467321,0.528360998216933
-0.454639724075405,0.507423087740821
-0.453084552391158,0.48669461527634
-0.451029451862591,0.466246772682095
-0.448525937023259,0.446147606206958
-0.445628912765803,0.42646165753774
-0.442396346156173,0.407249627979139
-0.438888916770494,0.388568067721091
-0.435169647675399,0.37046909199066
-0.431303519298648,0.353000125716866
-0.427357068548861,0.336203678158203
-0.423397975640774,0.320117148755331
-0.419494641164822,0.304772665276604
-0.415715756006546,0.290196955122961
-0.412129866771953,0.27641125045248
-0.408804939409125,0.263431227574929
-0.405807923733888,0.25126698085413
-0.403204321568094,0.239923031142322
-0.401057761183013,0.229398368557173
-0.399429580707531,0.219686529200089
-0.398378423111576,0.210775705205204
-0.397959845309623,0.202648887303268
-0.398225943847774,0.195284038884833
-0.39922499954116,0.188654300353916
-0.401001143316917,0.182728222377828
-0.403594045392413,0.177470026462347
-0.407038629779455,0.172839891114844
-0.411364815953879,0.168794261702518
-0.416597289366922,0.165286181969334
-0.422755302301353,0.162265645044655
-0.429852506392304,0.159679961659579
-0.437896817941443,0.15747414318441
-0.446890316954576,0.155591297013155
-0.456829180628251,0.15397303174889
-0.467703651801737,0.152559869587842
-0.479498042678073,0.151291663260324
-0.492190773903134,0.150108014863481
-0.505754448876082,0.148948693914398
-0.52015596294953,0.147754051962318
-0.53535664696457,0.146465431125662
-0.551312444355813,0.145025563962876
-0.567974120856011,0.143378962145684
-0.585287505630058,0.141472291478641
-0.603193762475273,0.139254730899576
-0.621629689540219,0.136678313200869
-0.64052804583887,0.133698245331018
-0.65981790267197,0.130273206268728
-0.679425017913779,0.126365620607042
-0.69927223098115,0.121941906141892
-0.719279876173844,0.116972693926878
-0.739366211960974,0.111433019433067
-0.759447863689174,0.105302483637973
-0.779440277104121,0.0985653830605576
-0.799258180008975,0.0912108079577831
-0.818816049331475,0.0832327081017487
-0.83802858083626,0.074629925763502
-0.856811158700606,0.065406195738876
-0.87508032217038,0.05557011246191
-0.89275422652856,0.045135064461217
-0.909753095641104,0.0341191366227619
-0.925999663394066,0.0225449809276176
-0.941419601401348,0.0104396565340548
-0.955941930443947,-0.0021655597313969
-0.969499413198519,-0.0152353912208113
-0.982028925924953,-0.028730806215992
-0.993471806908684,-0.0426092879787457
-1.003774179593,-0.0568251283338652
-1.01288724848867,-0.0713297428682489
-1.020767566112,-0.0860720056915086
-1.02737726937671,-0.100998601578351
-1.03268428404911,-0.116054393201675
-1.03666249606837,-0.131182801068423
-1.03929188873353,-0.146326193688428
-1.04055864496424,-0.161426285440165
-1.04045521405336,-0.176424539547114
-1.03898034254287,-0.191262573544391
-1.03613906907127,-0.205882564597904
-1.03194268325743,-0.220227652037417
-1.02640864890232,-0.234242334480746
-1.0195604920052,-0.247872858958669
-1.01142765430204,-0.26106759949882
-1.00204531324135,-0.273777422691613
-0.991454169514258,-0.285956037841621
-0.979700203449999,-0.297560329403437
-0.966834401774703,-0.308550669511068
-0.952912456408442,-0.318891208533999
-0.93799443714248,-0.32855014173008
-0.922144440194161,-0.337499950214776
-0.9054302147801,-0.34571761462696
-0.88792276997835,-0.353184800042464
-0.869695964266335,-0.359888010866824
-0.850826080222648,-0.36581871462708
-0.831391386966947,-0.370973433777856
-0.811471692982411,-0.375353804838071
-0.791147892019273,-0.378966604380235
-0.770501504815376,-0.381823741603152
-0.749614219390403,-0.383942217429583
-0.728567432674199,-0.385344050281786
-0.707441796216484,-0.3860561688985
-0.686316768695287,-0.38611027276553
-0.665270177894885,-0.385542660937395
-0.6443777947611,-0.38439403022812
-0.623712922063027,-0.382709243944092
-0.603346000095963,-0.380537072519562
-0.583344231751273,-0.377929907594832
-0.563771229155629,-0.374943451247231
-0.5446866839455,-0.371636382244546
-0.526146063093564,-0.36807000133878
-0.508200332042994,-0.364307857753799
-0.490895706734219,-0.360415359143024
-0.474273435927862,-0.356459367401773
-0.458369615038317,-0.352507782812712
-0.443215032495851,-0.34862911908137
-0.428835049452657,-0.344892071881407
-0.415249513440957,-0.341365083575849
-0.40247270638055,-0.338115906810541
-0.390513327120256,-0.335211169689376
-0.379374508484015,-0.332715945237439
-0.369053868579077,-0.330693327837891
-0.359543595912326,-0.32920401929154
-0.350830567652378,-0.328305927094609
-0.342896500171171,-0.32805377746071
-0.335718130800493,-0.328498745527729
-0.329267429547453,-0.329688105089857
-0.323511839329602,-0.331664900079936
-0.318414543116231,-0.334467639898244
-0.313934756198568,-0.338130020541792
-0.310028041658911,-0.342680673333792
-0.306646646968466,-0.348142942887315
-0.303739859516283,-0.354534695761186
-0.301254378758303,-0.361868161080988
-0.29913470257661,-0.370149804204789
-0.297323525355318,-0.379380234313075
-0.295762145211394,-0.389554146596549
-0.294390877766823,-0.400660299505264
-0.293149473812874,-0.412681527309255
-0.291977538198278,-0.425594788005751
-0.290814947270831,-0.439371246392443
-0.289602262216368,-0.453976391911657
-0.288281135670095,-0.469370190657703
-0.286794709022679,-0.485507270730699
-0.285087997907046,-0.502337139915912
-0.283108263431058,-0.519804434469474
-0.280805366815598,-0.537849197600429
-0.278132105206641,-0.556407186056556
-0.275044526552706,-0.57541020304857
-0.271502221575124,-0.594786455584963
-0.267468591006813,-0.614460934139247
-0.262911086434832,-0.634355812433184
-0.257801423251923,-0.654390864995144
-0.252115764401423,-0.674483900042178
-0.245834873787261,-0.694551205138989
-0.238944238415008,-0.714508003006918
-0.231434158530008,-0.734268914791972
-0.223299805223087,-0.753748428053309
-0.214541245182103,-0.772861366702552
-0.205163432477196,-0.791523360110185
-0.195176167477838,-0.809651308598138
-0.184594023209277,-0.827163842557439
-0.173436239663459,-0.843981772466424
-0.161726586783628,-0.8600285271383
-0.149493197041366,-0.875230577596268
-0.136768368718499,-0.889517844059945
-0.123588341192893,-0.902824083627465
-0.10999304370559,-0.915087256353143
-0.0960258192556797,-0.926249867550144
-0.0817331254280044,-0.936259284290217
-0.0671642141059245,-0.945068024227764
-0.0523707921563373,-0.952634015041913
-0.0374066652957848,-0.958920822967223
-0.0223273674543436,-0.963897849069778
-0.00718977804712086,-0.967540492119805
0.00794827035880923,-0.969830277113258
0.0230283914318887,-0.970754948701845
0.0379920489216264,-0.970308529002511
0.0527809623359684,-0.968491339472039
