0.652310505884937,-0.670286309654467
0.662075335514898,-0.658607792750934
0.669976709567588,-0.645244016885297
0.675980540784664,-0.630313802838847
0.68008408986956,-0.613958800877173
0.682316643127884,-0.596340319923609
0.682739586106244,-0.577635838689563
0.681445863230617,-0.558035272373111
0.678558825406434,-0.537737072477676
0.674230479572138,-0.516944239655202
0.668639166057763,-0.495860330207701
0.661986701053862,-0.474685535985303
0.654495032314464,-0.453612914928143
0.646402466182617,-0.432824845476025
0.637959532936124,-0.412489772606621
0.629424565121908,-0.392759306481325
0.621059069821128,-0.373765726725179
0.613122980531591,-0.355619936413665
0.60586987746664,-0.338409900074066
0.599542266479593,-0.322199589637515
0.59436700649231,-0.307028451515736
0.590550973231909,-0.292911397046724
0.58827704329167,-0.279839307681115
0.587700477095207,-0.267780035688474
0.588945772354056,-0.25667987106577
0.592104051195848,-0.246465435933377
0.597231034459479,-0.237045959196084
0.604345645886876,-0.228315876797564
0.613429277291822,-0.22015769665384
0.624425733476443,-0.212445062436192
0.637241862930774,-0.205045946880428
0.651748867434867,-0.19782590329162
0.667784270834951,-0.190651303424336
0.685154514733564,-0.183392490949661
0.703638136861371,-0.175926782242065
0.722989476718241,-0.168141250170725
0.74294284290123,-0.159935231871285
0.763217067576479,-0.15122250798766
0.783520365976583,-0.141933108466901
0.803555412764609,-0.132014708498847
0.82302454272056,-0.121433587433283
0.841634980564308,-0.110175133282915
0.85910400388546,-0.098243885522323
0.875163944125454,-0.085663119106552
0.889566933335244,-0.0724739827418567
0.902089308963208,-0.0587342142314245
0.912535595128474,-0.0445164649841415
0.920741986588248,-0.029906274319235
0.926579270767522,-0.014999741844036
0.929955133611865,9.90472347146649e-05
0.930815806451124,0.0152807836220436
0.929147023305897,0.0304338179536948
0.924974270895831,0.0454471003357929
0.918362326774108,0.0602131072003639
0.909414094264206,0.0746306875343734
0.898268755959864,0.0886077622773217
0.88509928021713,0.102063813858454
0.870109327076432,0.11493210739275
0.853529611173719,0.127161590879732
0.835613789221061,0.138718428728631
0.816633948368204,0.149587130920917
0.796875779032175,0.159771248948919
0.776633521464969,0.169293619151318
0.75620477931357,0.178196144003041
0.735885295638828,0.186539112098696
0.715963787261191,0.194400067779974
0.696716931888225,0.201872251381902
0.678404599282468,0.209062640697406
0.661265412814235,0.216089633279053
0.645512721211252,0.223080417417754
0.631331052295306,0.230168086883449
0.618873111143923,0.237488560624888
0.608257374616044,0.245177373470184
0.599566322740295,0.25336640733839
0.592845335305852,0.262180634484607
0.588102269355404,0.271734944806906
0.585307720402394,0.282131128223268
0.584395957329307,0.293455080593318
0.585266508317985,0.305774297656583
0.587786363058688,0.319135716060833
0.591792745112939,0.333563953864398
0.597096397882255,0.349059995046078
0.603485318357349,0.36560035370086
0.610728864863964,0.383136743916061
0.61858215852934,0.401596271005787
0.626790693285395,0.420882149040639
0.635095065987471,0.440874938663363
0.643235736714489,0.461434288253872
0.650957729546903,0.482401150823823
0.658015186078363,0.503600438803194
0.664175687556651,0.524844069342109
0.669224266788202,0.545934344091074
0.672967037665764,0.566667599825424
0.675234378249713,0.586838059908444
0.675883612583394,0.606241811581321
0.674801146662454,0.624680830539241
0.671904025000018,0.641966972284377
0.667140885811578,0.657925849390244
0.660492304754009,0.672400515087305
0.65197052915501,0.685254876473683
0.641618616525049,0.696376765121195
0.629509002620264,0.70568059880783
0.615741535197248,0.713109575454643
0.600441019658172,0.718637348940962
0.583754331833485,0.72226914615383
0.565847161016991,0.724042295210273
0.546900452906637,0.724026146069585
0.527106627193229,0.722321376507604
0.506665648087831,0.719058688425428
0.485781028027431,0.714396911474507
0.464655845120582,0.708520542760252
0.443488853596045,0.701636762702418
0.42247076363652,0.693971977755378
0.401780762586291,0.68576795041057
0.381583343716416,0.677277585519165
0.362025501641918,0.66876044930844
0.343234345265712,0.660478103367967
0.325315169949093,0.652689340226641
0.308350020672179,0.64564540983387
0.292396767457876,0.639585327235276
0.277488703507873,0.634731350965742
0.263634665562635,0.631284719175497
0.2508196651742,0.629421726297413
0.239006009092099,0.629290217228357
0.228134877022122,0.631006568639366
0.218128315825972,0.634653218283795
0.208891600971607,0.640276793202346
0.200315908883695,0.647886876716643
0.192281237922327,0.65745544226728
0.184659511150733,0.668916969713602
0.177317790925882,0.682169246908916
0.170121533715786,0.697074846442474
0.162937813439482,0.713463254647562
0.155638443033523,0.731133617560835
0.148102926834921,0.749858056722491
0.140221180666518,0.769385496759549
0.131895962119751,0.789445936809067
0.123044960327606,0.809755089208217
0.113602502359026,0.830019301673595
0.10352084207557,0.849940673555404
0.092771006684836,0.869222272795681
0.081343186102136,0.887573358023735
0.0692466603819295,0.904714509832485
0.0565092706881643,0.920382576707825
0.0431764493216754,0.934335344305517
0.0293098340008764,0.946355841727937
0.0149855006948615,0.956256205053822
0.000291857643893362,0.963881026494083
-0.0146727494043708,0.96911012703192
-0.0298026644192755,0.971860701075909
-0.0449877193836155,0.972088793307213
-0.060116138545537,0.969790080314308
-0.0750774811964809,0.96499994254368
-0.0897655546968477,0.957792825305578
-0.104081230104002,0.948280900807616
-0.117935094858895,0.93661205619288
-0.131249880513978,0.922967245084633
-0.143962608362447,0.907557251947693
-0.156026401954806,0.890618929441801
-0.16741192273486,0.872410978658024
-0.178108393241326,0.853209350510894
-0.18812418133049,0.833302353448121
-0.197486928490363,0.812985557906658
-0.206243215334622,0.792556591490666
-0.214457767574006,0.772309920608785
-0.222212215947627,0.752531714254936
-0.229603433540901,0.733494883753669
-0.23674148340894,0.715454388657873
-0.243747218261573,0.698642893657435
-0.250749581959086,0.683266854439218
-0.25788266954362,0.669503102068431
-0.26528260833801,0.657495985804491
-0.273084327153524,0.647355123510048
-0.281418283758822,0.639153797170437
-0.290407222401624,0.632928018739103
-0.30016303329944,0.628676278801744
-0.310783784614923,0.626359977654101
-0.322350994525223,0.625904525564812
-0.334927206634785,0.627201086491983
-0.348553926249119,0.630108927579861
-0.363249968034018,0.634458325607912
-0.379010257467641,0.640053971410456
-0.395805119413083,0.646678804321929
-0.413580077278271,0.654098201098323
-0.432256175787184,0.662064437659363
-0.451730829573327,0.670321337498891
-0.471879188843739,0.678609017801101
-0.492556002474515,0.686668643222596
-0.513597948311474,0.694247097965812
-0.534826390381902,0.701101489154715
-0.556050513385709,0.707003398572011
-0.5770707764234,0.71174280543914
-0.597682620613075,0.715131609996313
-0.61768035920645,0.717006696022063
-0.63686117416761,0.717232479947627
-0.655029140032807,0.71570290467671
-0.671999194300512,0.712342847404397
-0.687600973652028,0.707108922415131
-0.701682436985558,0.699989671795372
-0.714113199539249,0.691005148984118
-0.724787507227291,0.680205911866961
-0.733626786631835,0.667671453465394
-0.740581713766549,0.653508108960959
-0.745633753611255,0.637846487616598
-0.748796132342515,0.620838486926272
-0.750114214961516,0.602653953872112
-0.749665272439357,0.583477064354593
-0.747557634337962,0.563502496572374
-0.743929234889931,0.542931477281349
-0.738945572495054,0.521967781405865
-0.732797114277238,0.500813765390119
-0.725696188509719,0.4796665129787
-0.717873418134441,0.458714168848361
-0.70957375806256,0.438132530756415
-0.7010522072544,0.418081964731857
-0.692569273567713,0.398704700448233
-0.684386274886844,0.380122555441534
-0.676760563984858,0.362435127452307
-0.669940766838717,0.345718484076411
-0.664162124659941,0.330024368314483
-0.659642028698929,0.315379927736122
-0.656575833943905,0.301787964045607
-0.655133033212861,0.289227689075963
-0.655453866909803,0.277655962867074
-0.657646435997831,0.267008979711921
-0.661784376673521,0.257204359080129
-0.667905144979103,0.248143590329659
-0.676008948354284,0.239714773254635
-0.686058349121387,0.231795590924791
-0.697978552344872,0.22425644705779
-0.711658377649755,0.216963697408935
-0.726951901670324,0.209782903412122
-0.743680745079961,0.202582036578818
-0.761636965871114,0.195234563943995
-0.780586508950027,0.187622348094096
-0.800273151409636,0.179638299946564
-0.820422873255202,0.171188728369316
-0.840748575068811,0.162195337801295
-0.86095505727399,0.15259683310811
-0.880744170435765,0.142350099805502
-0.899820042508875,0.131430937317166
-0.917894287199553,0.119834332898673
-0.934691097671561,0.107574274044
-0.949952131707726,0.0946831073793101
-0.963441098101286,0.0812104620245929
-0.974947959429836,0.0672217649567736
-0.984292673358152,0.052796384836448
-0.991328403092814,0.0380254488763706
-0.995944137410964,0.0230093844623908
-0.998066671621294,0.00785524323668864
-0.99766191267929,-0.00732612990722991
-0.994735484244398,-0.0224230170878766
-0.989332620494195,-0.0373257691773566
-0.981537350750829,-0.0519297007621486
-0.971470990174858,-0.0661378710666207
-0.959289964688882,-0.0798636860459723
-0.945183010661399,-0.0930332607275032
-0.92936780147408,-0.105587486079244
-0.912087063692086,-0.11748375110404
-0.893604254955615,-0.12869727836038
-0.874198883733188,-0.13922203954106
-0.854161557571693,-0.149071226919833
-0.833788851323024,-0.158277266211294
-0.813378089932483,-0.166891366475093
-0.793222141683551,-0.174982612919129
-0.773604317286241,-0.182636618601147
-0.754793467885329,-0.189953760878987
-0.73703937099934,-0.197047037806689
-0.72056848766346,-0.2040395883171
-0.705580166754275,-0.211061927785677
-0.692243363765804,-0.218248957267189
-0.680693931356302,-0.225736810190555
-0.671032527988706,-0.233659604465488
-0.663323179159279,-0.242146170703224
-0.657592513279278,-0.25131682851699
-0.653829681484568,-0.261280282611139
-0.651986957745616,-0.272130708587609
-0.651981002883959,-0.28394509512272
-0.653694763716571,-0.29678090445552
-0.656979966783515,-0.310674107070273
-0.661660155191063,-0.325637639167756
-0.667534207229023,-0.341660323146315
-0.674380266782887,-0.358706282020815
-0.681960008319538,-0.3767148686821
-0.690023153512327,-0.395601120343896
-0.698312152490061,-0.4152567376527
-0.706566940314665,-0.435551576971234
-0.714529678650834,-0.456335633512789
-0.721949393689963,-0.477441482526017
-0.72858642419838,-0.498687135825336
-0.734216598011282,-0.51987926183832
-0.738635061291651,-0.540816709191028
-0.741659692290825,-0.561294266848808
-0.74313404003015,-0.581106588125624
-0.742929738092745,-0.600052201595029
-0.7409483543721,-0.617937529178807
-0.737122648954651,-0.634580830522376
-0.731417224089158,-0.649815993225207
-0.723828562181725,-0.663496090582953
-0.714384459713631,-0.675496632185883
-0.703142876673961,-0.685718437943585
-0.690190232300771,-0.694090072775145
-0.675639188414919,-0.700569787194219
-0.659625971206795,-0.70514691817924
-0.642307290814499,-0.707842714875842
-0.62385692525187,-0.708710564635811
-0.604462041071718,-0.70783560644184
-0.584319327477763,-0.705333730674298
-0.563631023352876,-0.701349976210971
-0.542600917807989,-0.696056347775297
-0.521430404365002,-0.689649088025746
-0.500314666790378,-0.682345449877166
-0.479439070948331,-0.674380024742839
-0.458975831928948,-0.666000691576885
-0.439081019241766,-0.657464259593002
-0.419891955190224,-0.649031884171902
-0.401525052821948,-0.640964340607394
-0.384074130268957,-0.633517243869551
-0.367609228051984,-0.626936304403839
-0.352175945237954,-0.621452710091348
-0.337795299430712,-0.617278722855205
-0.324464104667235,-0.614603575033883
-0.312155850608513,-0.613589745609543
-0.300822056173701,-0.61436968976782
-0.290394061175884,-0.617043087194863
-0.280785210770876,-0.62167466513756
-0.271893379802042,-0.628292641739266
-0.263603777567217,-0.636887823714651
-0.255791968276832,-0.64741338026098
-0.24832703861624,-0.659785302451684
-0.241074841441695,-0.673883544464006
-0.23390124376924,-0.689553830104234
-0.22667530786857,-0.70661009546025
-0.219272336427561,-0.724837526376755
-0.211576716354552,-0.743996138049334
-0.203484500751918,-0.763824833591496
-0.194905674814925,-0.78404586914846
-0.185766058747961,-0.804369645194569
-0.176008809086595,-0.824499737214588
-0.165595488889899,-0.844138074160483
-0.154506686928569,-0.862990169991102
-0.142742176034626,-0.880770312305811
-0.130320610984353,-0.897206612603473
-0.117278776441392,-0.912045825028639
-0.103670405376522,-0.925057844566485
-0.0895645977960463,-0.936039801440869
-0.075043878353126,-0.94481967584765
-0.0602019393017149,-0.951259365978983
-0.045141122115258,-0.955257152396041
-0.0299696967872893,-0.95674951299586
-0.0147990022392559,-0.955712254879069
0.000259485710818325,-0.952160942129411
0.0150970907800927,-0.94615061162003
0.0296108089061227,-0.937774782215481
0.0437060504094075,-0.927163775888588
0.057299187678585,-0.91448238206656
0.0703198486365206,-0.899926908716567
0.0827129017616518,-0.883721675044755
0.0944400851426335,-0.866115010997626
0.105481239794772,-0.847374837825016
0.11583511610117,-0.827783911617261
0.125519731578208,-0.807634817821595
0.134572268007439,-0.78722480915973
0.143048506116379,-0.76685058202898
0.151021806214887,-0.746803087325095
0.158581653285172,-0.727362470663994
0.165831794767612,-0.708793234224258
0.172888008473985,-0.691339707939584
0.179875546497489,-0.675221911631494
0.186926308493746,-0.66063188200924
0.194175804115862,-0.647730529428111
0.201759969559322,-0.636645079066408
0.209811906993708,-0.627467139956177
0.218458618040492,-0.620251433301856
0.227817803341569,-0.615015198978408
0.237994799624658,-0.611738286259038
0.249079723513723,-0.610363921930887
0.261144887691117,-0.610800136263428
0.27424254996017,-0.612921815042461
0.288403049378876,-0.616573334306873
0.303633376061574,-0.62157172374592
0.319916212625574,-0.627710295133695
0.337209475765504,-0.634762663874358
0.355446376260555,-0.642487084860718
0.374536005064757,-0.650631018535439
0.39436444221454,-0.658935839382893
0.414796374334732,-0.667141597132453
0.435677195758892,-0.674991740748771
0.456835557925344,-0.682237716815024
0.478086321982207,-0.688643357141222
0.499233860636706,-0.69398897527787
0.520075647405083,-0.698075097981142
0.540406064727309,-0.700725765424898
0.560020357051832,-0.701791342926891
0.578718651088232,-0.70115079696755
0.596309963061073,-0.698713399126302
0.612616112035684,-0.694419833023828
0.627475459254104,-0.68824269120917
0.640746395911776,-0.680186360931956
0.652310505884937,-0.670286309654468
