0.762402591977719,-0.282725513188222
0.740036622063546,-0.189054917803705
0.649616975880143,-0.0420156065852836
0.613462578726126,0.234821584477971
0.71428963719172,0.401262603949465
0.749199362736532,0.457753978418058
0.668432613926364,0.444704427551211
0.518771400429045,0.446878286075219
0.277595889881626,0.668602380123525
0.188915680148148,0.85438671843226
0.189136021524435,0.930438624390403
0.139862895747305,0.862747294054766
-0.034281095306984,0.779129946915366
-0.275520176932156,0.718835791887449
-0.476772434789249,0.822668513640038
-0.536374917450513,0.852621469703336
-0.49725877607686,0.806402025325603
-0.604152933576476,0.607546941210773
-0.725106342812333,0.415221916702719
-0.938481294692237,0.313093009369849
-1.0055859351234,0.307747841843403
-0.943327071535929,0.256514835340907
-0.861381988939345,0.0791449948202803
-0.82362633830503,-0.185680118124737
-0.901492291163322,-0.372459328385326
-0.951823170397323,-0.421470092278734
-0.863315402869238,-0.408663523553562
-0.657314251920143,-0.467398410470542
-0.466273844169281,-0.639202979626067
-0.390778021546607,-0.825599134824412
-0.391903336308531,-0.893899654192472
-0.336928066594579,-0.820980982190124
-0.148172960515228,-0.717366411642307
0.108375179700387,-0.705233732487166
0.291955733204644,-0.784183518010196
0.337958517256814,-0.832016500401293
0.325412361661618,-0.739658911681525
0.387091292025321,-0.532209893525615
0.560925141087699,-0.343295379087526
0.74578011646533,-0.270813856123668
