1.03645653367586,0.551347273988256
0.992900308913003,0.504958596679356
1.04809139933077,0.551839331610929
1.01644228858795,0.539921895002207
0.999897683423412,0.515343864811026
0.991510748727636,0.517431935457654
1.0033481305549,0.449342870803859
0.975225932946034,0.524354492634993
0.964027725099432,0.481345696563566
0.955167326815339,0.473149186526757
0.931266176069249,0.485748503294835
0.937574655930021,0.457110597842831
0.9500067860207,0.456123185323777
0.920152545272398,0.441536101734876
0.914191475568654,0.431292094369132
0.890953997685669,0.409957461536666
0.849796193442651,0.439842692230653
0.9309241960677,0.416962312795387
0.877342044243657,0.404565786932002
0.882184431050405,0.35355501126552
0.866659313310611,0.387372236681256
0.872652490856972,0.339789458137212
0.812693455582173,0.404012098982509
0.835594565226338,0.370286835150497
0.839734111431261,0.392148044556987
0.838940253264205,0.318794160939183
0.77459802334683,0.398625736185663
0.835190812483747,0.379518731723531
0.756475686130864,0.357667098303733
0.786902626526459,0.332510235759865
0.7789366998437,0.326555625597335
0.776815001097277,0.359451068826157
0.763133249209401,0.314930054443815
0.755295817700209,0.309257136507347
0.747501314918975,0.303676176521673
0.695331205613263,0.339121760245946
0.732041309595614,0.292786329695863
0.724375920156822,0.287475566905472
0.742358109008279,0.267756656297826
0.709931840122697,0.241589018006542
0.701638930895484,0.272068862076931
0.717761893992978,0.233424980008456
0.659533900760033,0.293701906712652
0.709756056165851,0.247060756970933
0.671930146376994,0.252719371757714
0.664611844058111,0.248089125508797
0.700375038159396,0.211796422085503
0.658507170432138,0.215858256458351
0.642919469472189,0.234681747211266
0.646315326219532,0.221259598903145
0.615998639242298,0.236516741890752
0.621622531113795,0.221981796031477
0.570577535324801,0.218337767704192
0.61511254604524,0.165547523190831
0.577112503891991,0.184918639957356
0.593845520898505,0.206110701899311
0.556620576924309,0.206544750827135
0.604496840785653,0.203793271250257
0.608326060297505,0.19388445814589
0.566780777008053,0.191406708750983
0.560126530077274,0.187907217198546
0.553517233956901,0.184476795021175
0.550193925573531,0.177800804976016
0.516350496536641,0.15062000940162
0.569639201633152,0.140861422205825
0.533747964698613,0.124770565360013
0.473598951658807,0.166002800950015
0.55539561157105,0.153608299591095
0.508518221307213,0.162334759627143
0.544295714049227,0.138248882750928
0.470963155125872,0.164142747491117
0.487938696129864,0.106804650874185
0.485585440313562,0.196629735333849
0.47774410695693,0.148428143151907
0.471727237979651,0.14582838407869
0.439221401352512,0.0970495028627607
0.495344601854607,0.125376427148524
0.453954111420827,0.138379576309753
0.441776517947329,0.149807791840704
0.404993670427023,0.15422326833924
0.473283679633244,0.082285553935083
0.385912042081591,0.115470732744222
0.439524115596716,0.109290347508732
0.401110261620531,0.141493702548223
0.383146381740572,0.11385386038278
0.36518854540961,0.144556418633678
0.403151947189669,0.119026501780035
0.355767717891673,0.117167198384962
0.392379571326747,0.115300896602933
0.387064357765486,0.113512527014731
0.370070322528008,0.0959939207335668
0.371064765505156,0.155555999357587
0.350738503281041,0.0977726234908009
0.330489699459736,0.150689172937161
0.402004311683745,0.0910816538963309
0.334761627878637,0.0861427137773077
0.302298932979016,0.0556112801292436
0.334147775022988,0.123250471920839
0.341369945234069,0.0995330928639244
0.372788290514008,0.108663021289221
0.331742416323329,0.096915513840976
0.28295275446103,0.0542374891416239
0.306160321351691,0.128262929152872
0.293983608249212,0.109175130830967
0.304066221390724,0.109134653781115
0.308517624163038,0.0910903948656417
0.304017818489477,0.0900436052758416
0.274769677751093,0.0497095325113049
0.295163790522083,0.0880633043257264
0.290809668568406,0.0871285620577607
0.251488789398851,0.134049590684387
0.282247446928044,0.0853668295692909
0.278039437355899,0.084538618625503
0.315883372691858,0.0416695618396111
0.269769832765143,0.0829844677139686
0.225029033811079,0.0986061826468088
0.261695709278832,0.0815626436687291
0.257732044177738,0.0808998470517321
0.270008821933578,0.124162680158232
0.267926289956074,0.0930637125228374
0.271758176155347,0.0703015546473168
0.291823031773416,0.0791565815009708
0.242386050820708,0.0836266553398579
0.236717773595656,0.0698250483301913
0.231359332190756,0.0771025671911503
0.254704598807578,0.0303243570623594
0.224266321628079,0.0762705396321266
0.231239694843201,0.0411605145956433
0.198752480413009,0.101019541129335
0.231722245227411,0.042603852172959
0.210670624993832,0.0749130358238502
0.23024296239281,0.0347426956296253
0.180449198524304,0.0540326545228145
0.183644231197519,0.0308554179185683
0.191674754326207,0.0364859535508217
0.194783547598994,0.0737427597102402
0.217005298213485,0.0926221293738714
0.188773317069541,0.0734235910858943
0.233981775581174,0.0257523851350716
0.18295992879416,0.0731826148441338
0.225910339366966,0.0960510465129347
0.129243613291489,0.0360440070795833
0.130423135552809,0.0346817698487134
0.180383417405717,0.0733043885806507
0.156292819102124,0.0915847432143092
0.173501075423201,0.0243468718824328
0.178155372805664,0.0302637249159661
0.160845550953678,0.0771154718760779
0.159232094657519,0.0729432556535875
0.142853509366947,0.105283663755547
0.154498578030965,0.0730507928925931
0.18584069500854,0.0640839216787113
0.184257522951914,0.0550286732160721
0.101720997315244,0.0735948877246164
0.175110026930407,0.0728871477647744
0.187493241349969,0.0427402501549979
0.153457903258399,0.113970022789272
0.112452429622779,0.111465750118188
0.105868598745563,0.0447627742415909
0.129047280515531,0.0964534641586447
0.133756404042575,0.0742291914339982
0.128164003838831,0.122175242548244
0.109351176760707,0.121482034328991
0.12847924904255,0.074736725355686
0.160365132335566,0.110689496647448
0.150853425256714,0.0839253801378115
0.0766151488267977,0.0447778186021494
0.122116626106066,0.0754802500459446
0.120645736288131,0.0756744123269573
0.0874645771479192,0.105909792883254
0.137787330629861,0.0307957920410469
0.0745974879781247,0.11572858177839
0.151939299021941,0.0935201368662865
0.133502743166189,0.0872398635709872
0.0883985348381043,0.0795224435291106
0.157888154983011,0.12545524449214
0.0933905059390242,0.120012086971751
0.0790753494195884,0.117922108856136
0.0862677996863883,0.0295414593645348
0.107596114709625,0.0778376311820591
0.137838794008961,0.110669886845467
0.131933885750513,0.0777334563040127
0.105022332622695,0.0783797483148698
0.0701519698704878,0.127977562241563
0.151973738137289,0.0861286092266846
0.12108889660066,0.0596021150313655
0.102237761217489,0.0790257637657949
0.0592943041762188,0.0328324168894261
0.0591713183319182,0.126035422083523
0.0669885712336232,0.128361436251231
0.133981317271586,0.0578814548732576
0.100639983873202,0.0350627645754871
0.145499636527447,0.0531019470182966
0.0883012598225489,0.0986477391681237
0.109852533900559,0.0998522635314664
0.0986350439690837,0.0799934448780613
0.0984589377890547,0.0800471949673823
0.134992918096788,0.0890875634215767
0.0982393778538871,0.080116179192689
0.134548404313606,0.122155420401263
0.0554782644580772,0.090123287321668
0.0771350273669402,0.110473200908869
0.0499407839963619,0.0755631087430867
0.0984564941353379,0.080039820435559
0.124354971601703,0.049712569213037
0.0623945128462203,0.0317205646540894
0.10389878825341,0.111041624922982
0.127013661991625,0.0432217717009756
0.149525116751532,0.039126445128165
0.100136295945042,0.0794054560862965
0.0825848334999456,0.0605261797090777
0.130963952681787,0.0747611208277032
-0.0233671034277285,0.150995359760803
0.0722941573606803,0.0529478062383855
0.265762072815774,0.212300045608189
0.242002277450044,-0.0122046696689153
-0.0180340320326335,-0.0494522807304105
0.218534744247352,0.137114747773799
0.224425012688369,-0.0526809197308705
0.206692601101806,0.212343590839765
0.027820779584898,0.213511348021227
0.10798070160664,0.0759393784937549
-0.0057334614152415,-0.0420511476221281
0.0103878818299341,-0.0188274747685701
0.10856171326484,0.0869258779613623
0.121629367961875,0.032288985361343
0.191050642718911,0.222128286940111
0.204944673880233,0.180012119989317
-0.000177151160553127,-0.0306823295379788
0.104454340005998,0.0972014700919075
0.0250446949176076,-0.0459498670057205
0.0183536864975897,0.190733455488586
0.191626011834013,0.157062638889919
0.0234527774343791,0.162114577587909
0.220814465170503,0.179722496796522
0.237548063514461,0.151643082673905
0.0635814513771652,-0.0176028336261303
0.10440549414173,0.075660169641504
0.128696474862648,0.0645766492134204
0.101339431661599,0.0303039025090471
0.203456967829032,-0.0731914683078403
0.224870076945109,0.163299317234694
0.278996738427986,0.20537602785263
0.0981162235130105,0.101368547348234
0.138496690292,0.0583649244897661
0.181145801902899,0.0280830715636444
0.142033855464019,0.0560069018170833
0.143851843464325,0.0547718419787828
0.155417896582444,0.0244247052611922
0.131444997435499,0.0329786626161727
0.154475505276734,0.00169113681734352
0.151446231152642,0.0494468421501733
0.153423925604126,0.0480170296376345
0.15208184548786,0.041996312139199
0.145547913022529,0.0764138316048166
0.159541914848823,0.0434834742392681
0.209368457351095,0.0393101390112253
0.1629012630306,0.00159129540816109
0.165930648258658,0.0385738462145428
0.168118897954107,0.0368515384039902
0.215694050456416,-0.0139490946786181
0.172581451070862,0.0332754626777235
0.206763335194306,0.0094120253423586
0.210429672798675,0.0431561632575983
0.204954485980593,0.00157767587711555
0.181841478029304,0.0255843833722535
0.201427604686921,-0.00929986383610003
0.186633551354256,0.0214619187948066
0.189068902102718,0.0193298267142736
0.235408453356043,0.0413261438144583
0.219568627527261,0.0629702329108609
0.196528019422808,0.0126445396444187
0.199064234988586,0.0103182280408818
0.239282196854546,-0.000155284488746354
0.250948091805197,0.0340490537680304
0.206817392587179,0.00303916231124068
0.209448737622551,0.000511221538992412
0.212102950600232,-0.00206828241350621
0.24152054672921,0.00926674502050318
0.208731714482595,-0.0568400447992701
0.220199078867733,-0.0101207926130486
0.222941033213994,-0.0129111680001316
0.247723633879347,-0.048970923923216
0.228487531245449,-0.0186539966921666
0.268587106227858,-0.0359575785654579
0.278510435958688,-0.0667929066695985
0.236957975404796,-0.0276803594993278
0.223806145816368,-0.0360791089664617
0.227337943271262,-0.0132064828993355
0.239977206729907,0.0104718772142386
0.208306965251067,-0.0290570166556012
0.203899149686586,-0.0532643758365734
0.270633187530488,-0.0180281171402111
0.278344463642784,-0.0713994907010859
0.27699972916019,-0.0682871259245313
0.30117022975543,-0.0235100966980751
0.298800505738063,-0.0601253216676494
0.269401112263569,-0.0651979640784281
0.27641771891675,-0.0715448490287616
0.313305114378239,-0.025219963359326
0.28176926883538,-0.0745740326064797
0.274834300655507,-0.0680179170116177
0.244480241236014,-0.118145172884478
0.320338323923091,-0.108096789997979
0.300917002761786,-0.135344850442506
0.294134726092186,-0.0971058263044103
0.292090056424105,-0.102328649956388
0.284871060182621,-0.0560014315501588
0.30126777707126,-0.0869376879778034
0.306782893207419,-0.114605604243791
0.329588662101412,-0.146376488083431
0.335185317092026,-0.14731276695472
0.332725850747814,-0.116078588297206
0.319580995684107,-0.133176433991739
0.322800564337094,-0.137990091524582
0.356817485764553,-0.121592820526538
0.333033623218032,-0.182241167109584
0.312279034238397,-0.122866833887923
0.335745238331429,-0.157943064493418
0.316951104861303,-0.207466996294278
0.303664302912946,-0.210633053841566
0.38004687160006,-0.150912037177189
0.348773735124784,-0.179036932770874
0.352040408040273,-0.184492381658439
0.355309941765817,-0.190021625459941
0.358581852588224,-0.195625169466736
0.361855654275739,-0.201303521519871
0.404625598163564,-0.197236318750439
0.323705913989942,-0.210574629738202
0.371683504161838,-0.21879254468238
0.374959956162596,-0.224775261796622
0.390720728832634,-0.239245822249038
0.39148757152542,-0.224146451404711
0.394846802205092,-0.243229830393168
0.350954929830382,-0.229692353159416
0.43373299325207,-0.24645426862741
0.367708909770348,-0.2540225098432
0.411480464588109,-0.287324002269937
0.376040824801469,-0.239373168340781
0.413456794061246,-0.273698373372388
0.450852038153138,-0.338741490785272
0.410851071726365,-0.295810106523373
0.454830358502745,-0.351350198621664
0.394121734249478,-0.306338439054939
0.380494783376101,-0.277108039619308
0.40374955713501,-0.340152104221526
0.446732016848979,-0.363412024393093
0.431110650119802,-0.293278430077101
0.43914841686131,-0.307263856546982
0.436517738121514,-0.353767448931177
0.439684217688609,-0.361402103766573
0.421830968261297,-0.39758367592652
0.463125299433313,-0.374934496028665
0.445650680062291,-0.368520878676154
0.452233188310292,-0.392833581603111
0.49101391460325,-0.414279901502966
0.443642804360652,-0.367575580820272
0.461506300107515,-0.41736231737
0.459471355260869,-0.386024172204788
0.489647341142889,-0.420312098197899
0.44869069457884,-0.45223230852445
0.473656111644929,-0.451374174014508
0.52202429352033,-0.431449926976897
0.4796286069876,-0.468952330412511
0.482587168926973,-0.477886896692049
0.467130839796542,-0.445774112470853
0.527179130620741,-0.492242208938832
0.497645513773992,-0.544900980450858
0.516247660806707,-0.561125639458326
0.497078861955571,-0.524043451055989
0.533312822120884,-0.486328453859029
0.5251975667102,-0.561681693740939
0.505510758807612,-0.552951271557828
0.552558993564692,-0.551285716567711
0.511011910781689,-0.572741870951356
0.501098313012557,-0.618733072100067
0.473191997593344,-0.60748277742349
0.505618921012073,-0.587570628884073
0.521702756334104,-0.613597349091627
0.522766312548814,-0.610086801330828
0.526881939164671,-0.634675816018705
0.529427632908708,-0.645380807610994
0.546192057589624,-0.674902672347003
0.537821215719624,-0.671011614025574
0.492740907460155,-0.644197865566166
0.556046893505277,-0.692216338750687
0.503337906127425,-0.668833064670889
0.504005861634081,-0.663445714404523
0.559429342998372,-0.74290249965689
0.510461396337634,-0.751359162480856
0.549561762379427,-0.795767422904119
0.5177323388693,-0.780124243876837
0.555285684883778,-0.770720227172645
0.563577898977967,-0.817971158986946
0.595565707274275,-0.757824654776723
0.55023185118574,-0.782446220354965
0.599488301464982,-0.770142290606675
0.544428140145815,-0.822929666787961
0.594716556687962,-0.835799513964706
0.613795727760213,-0.831713684447165
