0.934525235396685,-0.652560744921719
0.934313508204632,-0.652403493865426
0.982156857941711,-0.646892827424802
0.97380161429426,-0.669062638520967
0.911837690147546,-0.685467657124295
0.936554517424306,-0.64243255209908
0.927233250420805,-0.646526804285505
0.924698076116029,-0.644254033235775
0.959407750744728,-0.666322963202464
0.918616995567914,-0.638532554874247
0.939295183820834,-0.629901149872624
0.876348533258461,-0.629145219437009
0.907193816534871,-0.626893715350701
0.896533625040252,-0.602387111701068
0.898229541868134,-0.617024419730757
0.893392726287069,-0.611443102778301
0.845505226061938,-0.596134424458509
0.883096003238329,-0.59897291474358
0.886595331512978,-0.634117560932338
0.846199963052532,-0.585122631505307
0.866358290917675,-0.576982362476721
0.822632357472965,-0.524609375988818
0.824153537601788,-0.596259496210553
0.839429564183379,-0.572285065045323
0.819993662314771,-0.560493005727323
0.836212309071267,-0.531660763810112
0.830007370656022,-0.521330008232264
0.863973365543882,-0.492659466991688
0.772718836226264,-0.548784148143501
0.811358520644696,-0.487920541579776
0.829603866153521,-0.502738397311002
0.786937489582221,-0.500851459826328
0.796709111838577,-0.405021032863488
0.787043273550651,-0.438076728954338
0.828958126870477,-0.473132684510724
0.740965349666203,-0.381661329526769
0.769774317746844,-0.397117565641368
0.762959176513735,-0.339714541207089
0.758939763944582,-0.368311747175549
0.730101612023967,-0.304469657943323
0.798583169442009,-0.307322708845735
0.772141288919824,-0.362699741768388
0.707230997720029,-0.306174592660747
0.734956476063014,-0.291970742377526
0.758600758046171,-0.323931629162351
0.72097500675983,-0.296124393290374
0.69270061628376,-0.235908739365627
0.752321105659905,-0.189265953619376
0.763971342377183,-0.167043891902066
0.747602213218499,-0.220509023005986
0.752495152963359,-0.180155353191627
0.716155342832117,-0.170071311958454
0.706063816129185,-0.145089835056454
0.704136163192958,-0.128510154760034
0.702474976756592,-0.111953749377788
0.701080433364955,-0.0954413318064175
0.699951859432641,-0.0789935743901486
0.699087733685669,-0.0626310668032026
0.698485691557742,-0.0463742741014536
0.698142531531013,-0.030243495035891
0.698054223406937,-0.0142588207199165
0.698215918488486,0.0015599062582751
0.698621961650693,0.0171931321879738
0.699265905272301,0.032621631963825
0.700140524997088,0.0478265481016065
0.701237837289372,0.0627894289558222
0.702549118744152,0.077492266054787
0.704064927108438,0.0919175304708456
0.70577512396647,0.106048208145518
0.707668899037812,0.119867834091682
0.709734796033677,0.133360525397413
0.711960740013368,0.146511012958759
0.714334066179344,0.159304671871562
0.716841550046194,0.171727550415424
0.719469438915734,0.183766397566049
0.722203484587501,0.195408688975465
0.725028977231157,0.206642651363046
0.727930780344699,0.217457285263787
0.730893366719947,0.227842386083948
0.733900855334507,0.237788563417949
0.736937049087341,0.247287258584263
0.739985473293156,0.256330760342038
0.743029414849156,0.264912218754197
0.746051961986134,0.273025657166934
0.749036044514626,0.280665982279671
0.751964474475673,0.287828992283837
0.754819987104871,0.294511383053096
0.75758528201763,0.300710752372006
0.760243064523109,0.306425602194445
0.762776086973945,0.311655338927545
0.765167190058836,0.316400271741259
0.767399343945143,0.320661608908062
0.769455689178988,0.324441452181716
0.771319577250876,0.327742789228348
0.772974610735592,0.330569484127453
0.774404682916048,0.332926265964724
0.77559401680194,0.334818715542837
0.776527203455351,0.336253250240545
0.777189239537043,0.337237107054513
0.777565563988836,0.337778323862407
0.777642093769464,0.337885718949671
0.777405258563327,0.337568868846313
0.776842034383909,0.33683808452378
0.77593997599603,0.335704386005617
0.774687248083763,0.334179475449179
0.77307265509363,0.332275708759023
0.771085669685622,0.33000606579589
0.768716459727704,0.327384119248304
0.765955913772708,0.324424002236784
0.762795664959868,0.321140374723475
0.759228113286803,0.317548388802674
0.755246446201333,0.313663652950178
0.750844657466297,0.309502195311723
0.74601756425436,0.305080426112898
0.740760822433756,0.300415099274853
0.735070940009922,0.295523273321903
0.728945288692118,0.290422271668674
0.72238211355827,0.285129642375823
0.715380540795543,0.279663117464508
0.707940583498414,0.274040571880801
0.700063145510352,0.268279982201946
0.691750023299578,0.262399385176974
0.683003905863759,0.256416836194514
0.673828372662855,0.250350367770784
0.664227889583792,0.244217948150715
0.654207802944952,0.238037440114854
0.643774331552897,0.231826560084248
0.632934556828047,0.225602837614813
0.621696411020368,0.219383575371816
0.610068663540355,0.213185809674006
0.598060905434819,0.207026271695653
0.58568353204112,0.200921349413247
0.572947723857535,0.19488705038197
0.559865425671443,0.188938965425132
0.546449323990894,0.183092233317784
0.5327128228289,0.177361506543395
0.518670017893478,0.171760918200158
0.504335669240003,0.166304050130845
0.4897251724459,0.161003902347421
0.474854528370955,0.155872863818697
0.459740311569715,0.150922684686275
0.444399637425435,0.146164449970795
0.428850128077885,0.141608554827193
0.413109877220033,0.137264681404177
0.397197413841128,0.133141777359542
0.38113166499606,0.129248036079246
0.364931917683076,0.125590878644327
0.34861777991386,0.122176937585846
0.332209141061873,0.119012042464024
0.315726131576366,0.116101207303656
0.299189082150987,0.113448619913739
0.282618482437048,0.111057633115004
0.266034939392588,0.108930757894793
0.249459135359149,0.107069658504408
0.232911785958811,0.105475149509671
0.216413597904433,0.104147194801118
0.199985226816238,0.10308490856581
0.183647235137869,0.102286558218374
0.167420050244838,0.101749569284504
0.151323922837844,0.101470532225771
0.135378885712825,0.101445211190238
0.119604712998751,0.101668554669082
0.104020879953152,0.10213470803513
0.0886465234041077,0.102837027935036
0.0735004029260116,0.10376809850264
0.0586008628347736,0.104919749356987
0.0439657950863089,0.106283075344496
0.0296126031601588,0.107848457980842
0.0155581670078764,0.109605588544322
0.00181880914346388,0.111543492768761
-0.0115897380494075,0.113650557080458
-0.0246523637213756,0.115914556320169
-0.0373546086033956,0.118322682887841
-0.0496826936286537,0.120861577244593
-0.0616235470674187,0.123517359703397
-0.0731648301151798,0.12627566343705
-0.0842949608778584,0.129121668629258
-0.0950031367014613,0.132040137692122
-0.105279354797207,0.135015451470901
-0.115114431116982,0.138031646354728
-0.124500017437845,0.141072452209897
-0.133428616618316,0.144121331050517
-0.14189359599324,0.147161516359648
-0.149889198878159,0.150176052972585
-0.157410554158337,0.153147837432677
-0.164453683941865,0.156059658729004
-0.171015509260541,0.158894239324387
-0.177093853806612,0.161634276381506
-0.182687445697813,0.164262483094494
-0.187795917267519,0.166761630033099
-0.192419802881249,0.169114586406461
-0.196560534785135,0.171304361153745
-0.200220436996341,0.173314143769218
-0.203402717249814,0.175127344769965
-0.206111457020018,0.17672763571519
-0.208351599640636,0.178098988687086
-0.210128936549431,0.179225715144401
-0.211450091689632,0.180092504061237
-0.212322504103322,0.180684459265225
-0.21275440875631,0.180987135890938
-0.212754815637925,0.180986575866438
-0.212333487182988,0.180669342352941
-0.211500914066947,0.180022553059946
-0.210268289428809,0.179033912360659
-0.208647481579951,0.17769174213522
-0.206651005260293,0.175985011272053
-0.204291991506537,0.173903363760671
-0.201584156200237,0.171437145312377
-0.198541767366441,0.168577428448586
-0.195179611296367,0.165316035999929
-0.191512957570234,0.161645562962779
-0.187557523058774,0.157559396663571
-0.183329434984237,0.153051735184992
-0.178845193123772,0.14811760401203
-0.174121631239979,0.142752870859812
-0.169175877825121,0.136954258649224
-0.16402531624702,0.130719356600427
-0.158687544385962,0.12404662941858
-0.153180333853083,0.116935424550324
-0.14752158888159,0.109385977493891
-0.141729304982923,0.101399415150026
-0.135821527460458,0.0929777572052939
-0.129816309873638,0.084123915543705
-0.123731672545548,0.0748416916870161
-0.117585561206805,0.065135772268425
-0.111395805868344,0.0550117225487921
-0.105180080015117,0.0444759779888626
-0.0989558602120397,0.0335358338953089
-0.0927403862125348,0.0221994331627033
-0.0865506216589241,0.0104757521377763
-0.0804032154625557,-0.00162541536350028
-0.0743144639500441,-0.0140934758513376
-0.0683002738602524,-0.0269170557313692
-0.0623761262747539,-0.0400840226050391
-0.056557041562395,-0.0535815082546238
-0.0508575454163083,-0.0673959332626172
-0.0452916360592763,-0.0815130332115497
-0.0398727526907121,-0.0959178864068043
-0.0346137452457472,-0.110594943061583
-0.0295268455339665,-0.125528055879923
-0.0246236398222385,-0.140700511970535
-0.0199150429228488,-0.156095066021283
-0.0154112738447733,-0.171693974661283
-0.011121833062417,-0.187479031934995
-0.00705548145252699,-0.203431605810139
-0.00322022094624408,-0.219532675639021
0.00037672306058445,-0.235762870490682
0.00372891749964682,-0.252102508269366
0.00683073558980551,-0.268531635533021
0.00967736893308413,-0.285030067924016
0.0122648377201223,-0.301577431122868
0.0145899990224587,-0.318153202234592
0.0166505531532837,-0.334736751516366
0.0184450480826296,-0.35130738435438
0.0199728818973252,-0.367844383397223
0.0212343033004178,-0.384327050752796
0.0222304101491588,-0.400734750155582
0.0229631460350384,-0.417046949011188
0.0234352949137435,-0.43324326022533
0.0236504737972754,-0.449303483724917
0.0236131235248076,-0.465207647579552
0.0233284976331627,-0.480936048632703
0.0228026493520479,-0.496469292552822
0.0220424167533846,-0.511788333216036
0.0210554060882,-0.526874511333489
0.0198499733486173,-0.541709592238104
0.0184352040964437,-0.556275802747397
0.0168208916037496,-0.570555867021045
0.0150175133546065,-0.584533041334134
0.0130362059608269,-0.598191147689431
0.0108887385481007,-0.611514606194606
0.00858748467235282,-0.624488466133085
0.00614539282943805,-0.637098435660113
0.00357595562444391,-0.649330910058682
0.000893177669878731,-0.661172998493156
-0.00188845771513035,-0.672612549201819
-0.00475402292981381,-0.683638173072983
-0.00768818156357021,-0.694239265552957
-0.0106752248349269,-0.704406026837836
-0.0136991089157869,-0.714129480304937
-0.0167434930571188,-0.723401489143581
-0.0197917784304333,-0.732214771148987
-0.0228271475977937,-0.740562911647063
-0.0258326045216767,-0.748440374522114
-0.0287910150247949,-0.755842511323646
-0.03168514760897,-0.762765568432773
-0.0344977145413315,-0.769206692273009
-0.0372114131155068,-0.775163932554626
-0.0398089669950707,-0.780636243546091
-0.0422731675463195,-0.785623483370524
-0.0445869150674501,-0.790126411329496
-0.0467332598214476,-0.79414668326087
-0.0486954427804034,-0.797686844941799
-0.0504569359896233,-0.800750323552295
-0.0520014824607244,-0.803341417219137
-0.0533131355039532,-0.80546528266415
-0.0543762974112027,-0.807127920985097
-0.0551757574026429,-0.808336161601579
-0.0556967287515115,-0.809097644402434
-0.0559248850034356,-0.809420800135126
-0.0558463952086651,-0.809314829081493
-0.0554479580877918,-0.808789678068093
-0.0547168350538982,-0.80785601586303
-0.0536408820166203,-0.806525207014771
-0.0522085798963224,-0.804809284191909
-0.0504090637794434,-0.802720919086162
-0.0482321506491072,-0.8002733919441
-0.0456683656282482,-0.797480559796117
-0.0427089666758253,-0.794356823454084
0.0753302046825224,-0.909145571871277
0.0583916027005877,-0.903143388314786
-0.0313811316827217,-0.783151629270786
0.0648197827820093,-0.874519075282276
-0.0217258590158208,-0.774312279964413
0.0883715648826791,-0.869648917062099
-0.112756339370128,-0.870322335660349
-0.101058873478687,-0.864001347513009
-0.104530208577192,-0.871984898415811
0.123988925302269,-0.641599578797203
0.117720830316562,-0.833728166994814
-0.0711979719156575,-0.840702407601671
0.0342863926696497,-0.730954858673012
-0.0731655901605956,-0.833074890574974
0.153984455028085,-0.610924803095974
-0.0392690082428011,-0.827822755755946
0.0726749609277336,-0.706469828197225
-0.0269509417163081,-0.807156033046189
-0.00101406732158814,-0.798727379371601
0.00684370288960155,-0.795035446893164
0.234279634602285,-0.784098990957773
0.230751801804098,-0.567311546174202
0.142357575365146,-0.669429519425534
0.155268168554451,-0.663436406016046
0.0722796337691581,-0.750288496964015
0.299794220661599,-0.756172697062022
0.0856816125658097,-0.738031850010948
0.10102977590437,-0.751568538397157
0.224653325641371,-0.635168729285639
0.239395932794954,-0.629951626801144
0.156410276942728,-0.522426163073091
0.269620087019096,-0.620054040178205
0.285067411842365,-0.615395719893992
0.300714581724283,-0.61094467076397
0.316543280728869,-0.60671021027157
0.332534776122546,-0.602700911303035
0.348669956060994,-0.598924583235138
0.364929368125865,-0.595388254791351
0.381293258626418,-0.592098158704608
0.397741612579359,-0.589059718220832
0.414254194278736,-0.586277535473229
0.430810588366315,-0.583755381753166
0.447390241311873,-0.581496189699219
0.463972503211809,-0.579502047421668
0.480536669813835,-0.577774194575374
0.497062024674973,-0.576313020389638
0.513527881359792,-0.575118063659223
0.529913625585716,-0.574188014696352
0.546198757222368,-0.573520719239106
0.562362932052208,-0.573113184307238
0.578386003200285,-0.572961585992099
0.594248062141635,-0.573061279162997
0.609929479195786,-0.573406809068052
0.625410943419017,-0.573991924803351
0.640673501806289,-0.574809594620026
0.65569859771636,-0.575852023034762
0.670468108435312,-0.577110669705201
0.684964381795571,-0.578576270027763
0.699170271769741,-0.580238857411532
0.71306917296067,-0.582087787178112
0.726645053911825,-0.584111762033708
0.739882489164474,-0.58629885905618
0.75276668999116,-0.588636558136389
0.765283533737713,-0.591111771809935
0.777419591709319,-0.593710876412241
0.789162155539244,-0.596419744486982
0.800499261982325,-0.599223778375046
0.811419716078747,-0.602107944908565
0.821913112637325,-0.605056811132071
0.831969855991192,-0.608054580970533
0.841581177982695,-0.6110851327619
0.850739154138196,-0.614132057569832
0.859436717997544,-0.617178698190553
0.867667673567061,-0.620208188766181
0.875426705869086,-0.623203494915559
0.882709389565341,-0.626147454292392
0.88951219563569,-0.629022817479581
0.895832496098169,-0.63181228912784
0.901668566760548,-0.634498569246167
0.907019587998043,-0.637064394551326
0.911885643556227,-0.63949257978344
0.916267717382527,-0.64176605889477
0.920167688494157,-0.643867926019089
0.923588323894631,-0.64578147612951
0.926533269555402,-0.647490245293321
0.929007039483446,-0.648978050433251
0.931015002899877,-0.650229028505714
0.932563369558898,-0.651227675007833
0.933659173240496,-0.651958881726549
0.934310253454388,-0.652407973644817
0.934525235396685,-0.652560744921719
