-0.138690042677966,0.598474939941435
-0.138753417318238,0.598454213755815
-0.138818019993461,0.59843301057879
-0.138883880304092,0.598411316976335
-0.138951028702009,0.598389119067828
-0.139019496518896,0.598366402508953
-0.139089315995701,0.59834315247387
-0.139160520313217,0.598319353636613
-0.139233143623825,0.59829499015167
-0.139307221084453,0.598270045633717
-0.139382788890806,0.598244503136453
-0.139459884312911,0.598218345130501
-0.139538545732045,0.598191553480327
-0.139618812679101,0.598164109420123
-0.139700725874451,0.598135993528611
-0.139784327269376,0.598107185702704
-0.139869660089133,0.598077665129976
-0.139956768877719,0.598047410259877
-0.140045699544427,0.598016398773627
-0.140136499412251,0.597984607552723
-0.140229217268239,0.597952012645994
-0.14032390341587,0.597918589235115
-0.140420609729555,0.597884311598521
-0.14051938971135,0.597849153073611
-0.140620298549979,0.597813086017185
-0.140723393182284,0.597776081763989
-0.140828732357197,0.59773811058329
-0.14093637670236,0.59769914163337
-0.141046388793509,0.597659142913826
-0.141158833226752,0.597618081215556
-0.141273776693873,0.597575922068321
-0.1413912880608,0.59753262968573
-0.141511438449391,0.597488166907528
-0.141634301322687,0.597442495139023
-0.141759952573797,0.597395574287509
-0.141888470618587,0.597347362695512
-0.142019936492349,0.597297817070677
-0.142154433950644,0.597246892412123
-0.142292049574513,0.597194541933059
-0.142432872880272,0.597140716979443
-0.142576996434101,0.597085366944478
-0.142724515971669,0.597028439178693
-0.142875530523025,0.596969878895361
-0.143030142543031,0.596909629070989
-0.143188458047582,0.596847630340584
-0.143350586755919,0.596783820887411
-0.14351664223932,0.596718136326898
-0.143686742076487,0.596650509584356
-0.14386100801596,0.596580870766156
-0.144039566145911,0.596509147023953
-0.144222547071678,0.596435262411565
-0.144410086101431,0.596359137734047
-0.144602323440376,0.596280690388504
-0.144799404393925,0.596199834196127
-0.145001479580286,0.596116479224932
-0.145208705152955,0.59603053160262
-0.1454212430336,0.595941893318946
-0.145639261155878,0.595850462016966
-0.145862933720741,0.595756130772443
-0.146092441463813,0.595658787860689
-0.14632797193547,0.595558316510035
-0.146569719794268,0.595454594641102
-0.146817887114408,0.595347494590944
-0.147072683707977,0.595236882821112
-0.147334327462713,0.595122619608596
-0.147603044696121,0.59500455871853
-0.147879070526782,0.594882547057487
-0.148162649263749,0.594756424306072
-0.14845403481499,0.594626022529473
-0.148753491115868,0.594491165764483
-0.149061292578708,0.594351669581453
-0.149377724564568,0.594207340619476
-0.149703083878374,0.59405797609301
-0.150037679288655,0.593903363268007
-0.150381832073179,0.593743278905463
-0.150735876591841,0.593577488670167
-0.151100160888258,0.593405746502251
-0.151475047321574,0.593227793948965
-0.151860913230072,0.593043359453908
-0.152258151628264,0.592852157600742
-0.152667171939224,0.592653888308181
-0.153088400764008,0.592448235972815
-0.153522282690118,0.592234868556052
-0.15396928114103,0.592013436611185
-0.15442987926894,0.591783572246279
-0.154904580892969,0.591544888018247
-0.155393911485164,0.591296975753095
-0.155898419206765,0.59103940528697
-0.156418675997293,0.590771723122175
-0.156955278719149,0.590493450991883
-0.157508850360499,0.590204084326779
-0.158080041299373,0.589903090616319
-0.158669530631969,0.589589907656698
-0.159278027568319,0.589263941677006
-0.159906272898528,0.588924565334354
-0.160555040532941,0.588571115568002
-0.161225139119667,0.588202891301708
-0.161917413742976,0.587819150982675
-0.162632747706174,0.587419109944462
-0.163372064402599,0.587001937580252
-0.164136329278438,0.586566754311713
-0.164926551891066,0.58611262833749
-0.165743788066608,0.585638572144039
-0.16658914216036,0.585143538760106
-0.167463769423628,0.584626417734568
-0.168368878480385,0.584086030815714
-0.169305733916948,0.583521127308203
-0.170275658987607,0.582930379081963
-0.171280038438744,0.582312375205159
-0.17232032145355,0.581665616171069
-0.173398024718832,0.580988507686165
-0.174514735614686,0.580279353984031
-0.17567211552691,0.579536350626808
-0.176871903280962,0.578757576752709
-0.178115918694925,0.577940986724746
-0.179406066247395,0.577084401132165
-0.180744338854317,0.576185497092129
-0.182132821746538,0.575241797794997
-0.183573696437236,0.574250661231982
-0.185069244765224,0.573209268039203
-0.186621852996464,0.572114608386907
-0.188234015961812,0.570963467837256
-0.189908341203946,0.569752412088186
-0.191647553100539,0.568477770514809
-0.193454496923836,0.567135618413356
-0.195332142788795,0.565721757846003
-0.197283589432617,0.564231696977986
-0.19931206775772,0.562660627791295
-0.201420944057664,0.561003402052049
-0.203613722831105,0.55925450540141
-0.205894049072143,0.557408029432834
-0.208265709906169,0.55545764161166
-0.210732635418188,0.553396552886805
-0.213298898495114,0.551217482838845
-0.215968713474341,0.548912622204497
-0.218746433357438,0.546473592614793
-0.22163654530959,0.543891403383635
-0.224643664121783,0.541156405185636
-0.227772523263066,0.538258240467968
-0.231027963093848,0.53518579045128
-0.23441491574727,0.531927118590946
-0.237938386113562,0.528469410393303
-0.241603428281035,0.524798909513859
-0.245415116696229,0.520900850107883
-0.249378511203951,0.51675938546071
-0.253498615014769,0.512357512998439
-0.257780324522404,0.507676995873046
-0.262228369756106,0.502698281433214
-0.266847244103327,0.497400417038217
-0.271641121776358,0.491760963852488
-0.276613761324035,0.485755909479319
-0.281768393308016,0.479359580560761
-0.287107590075504,0.472544556795257
-0.292633115371008,0.46528158821395
-0.298345751345182,0.457539518020828
-0.304245100347495,0.449285213851548
-0.310329358743222,0.440483510952038
-0.316595059889104,0.431097171532066
-0.323036783355825,0.421086865421545
-0.329646827524111,0.410411178157856
-0.336414842836123,0.399026653767663
-0.343327423293253,0.386887880779117
-0.350367654302239,0.373947631406335
-0.357514615739074,0.360157065374494
-0.364742840189417,0.345466011475277
-0.372021727809048,0.329823341615939
-0.379314921210563,0.313177453786074
-0.386579646310863,0.295476881920808
-0.393766028257929,0.276671051959604
-0.400816395479813,0.256711204315472
-0.407664589634608,0.235551503261154
-0.41423530483059,0.213150353132864
-0.420443485928599,0.189471939417125
-0.426193822964178,0.164488009334597
-0.431380386569485,0.138179901031074
-0.435886457442403,0.110540822465189
-0.439584610949549,0.0815783700821397
-0.442337125214911,0.0513172629715082
-0.443996786671146,0.0198022501336262
-0.444408169940219,-0.0128988733576671
-0.443409467750319,-0.0466922308666205
-0.440834939905432,-0.0814549271439377
-0.436518036552421,-0.117032357233489
-0.430295228679032,-0.153235938230218
-0.422010546783527,-0.1898414670522
-0.4115207864481,-0.226588327098634
-0.398701287529563,-0.263179775737582
-0.383452133536821,-0.299284538599361
-0.365704552744033,-0.334539911381654
-0.345427237652455,-0.368556521827382
-0.322632241162386,-0.400924831814898
-0.297380064101927,-0.431223362599722
-0.269783527945172,-0.459028508788427
-0.240010036419354,-0.483925675790394
-0.208281876099675,-0.505521341984386
-0.174874291532021,-0.523455524204958
-0.140111192875094,-0.537414028433958
-0.104358506255148,-0.54713981132808
-0.0680153466001394,-0.552442774177493
-0.0315033632249094,-0.553207365757041
0.00474523866126959,-0.549397484176344
0.0403003800696948,-0.541058332558615
0.0747468065169613,-0.528315084397147
0.107696107188006,-0.511368431667573
0.138797412517813,-0.490487299626319
0.167746235060063,-0.465999194922545
0.194291067479726,-0.438278790390042
0.218237524693222,-0.407735429257318
0.239449995365987,-0.37480024973172
0.257850933006213,-0.339913591709315
0.273418054073293,-0.303513260692783
0.286179810185782,-0.266024103934263
0.296209559591501,-0.227849216103734
0.303618880689554,-0.189362951545251
0.308550452843337,-0.1509057901561
0.311170884943209,-0.112780993359568
0.311663809271484,-0.0752529009479716
0.310223486123979,-0.0385466605514593
0.307049091136457,-0.00284914799386864
0.302339788410554,0.0316891744021151
0.296290632463357,0.0649517078311632
0.289089293029016,0.0968527019244245
0.280913559552302,0.127333973099343
0.271929556382264,0.156361522520244
0.262290583956915,0.183922186481517
0.252136493986556,0.210020420053097
0.24159350596037,0.23467528586132
0.230774376438876,0.257917694832607
0.219778839961416,0.27978792496885
0.208694249657926,0.300333427714236
0.197596355752652,0.31960691890699
0.186550170298118,0.337664742221122
0.175610876134173,0.354565486856005
0.164824746882376,0.370368837478701
0.154230052571126,0.385134632549998
0.143857932170614,0.39892210670971
0.133733219910864,0.4117892934664
0.123875216827873,0.423792565706664
0.114298402631123,0.434986293250722
0.1050130858256,0.445422598634565
0.096025992171305,0.455151194345326
0.0873407931377164,0.46421928676908
0.0789585771151114,0.472671534055951
0.0708782668729556,0.480550046919871
0.063096987189018,0.48789442304297
0.0556103867801552,0.494741807236084
0.04841291870387,0.501126970815782
0.0414980833151824,0.507082404800948
0.0348586376931692,0.512638422518582
0.0284867752248884,0.517823268052441
0.0223742787738365,0.522663227683648
0.0165126505826173,0.527182742074146
0.0108932217777051,0.531404517445919
0.00550724406711971,0.535349634424607
0.000345965955745722,0.539037653557681
-0.00459930444797495,0.542486716795736
-0.00933714819372122,0.545713644450413
-0.0138759941937921,0.548734027322613
-0.0182240864404873,0.551562313837375
-0.0223894584832593,0.554211892133535
-0.0263799140713051,0.556695167142407
-0.0302030130090404,0.559023632755032
-0.033866061397839,0.561207939225755
-0.0373761055488362,0.563257955994406
-0.0407399289497477,0.56518283013288
-0.0439640517548593,0.566991040636654
-0.04705473234278,0.568690448789666
-0.0500179705524089,0.570288344833502
-0.0528595122648891,0.571791491170294
-0.0555848550490963,0.573206162324026
-0.0581992546313391,0.574538181878112
-0.0607077319872206,0.57579295659849
-0.0631150808857683,0.576975507941961
-0.065425875743605,0.57809050113915
-0.067644479670711,0.579142272030891
-0.0697750526096867,0.580134851826078
-0.0718215594878533,0.58107198993842
-0.0737877783163804,0.581957175049104
-0.0756773081832856,0.58279365453234
-0.0774935770978797,0.58358445237109
-0.0792398496533257,0.584332385681068
-0.0809192344816455,0.585040079952434
-0.0825346914819575,0.585709983110346
-0.0840890388081337,0.586344378487858
-0.0855849596065685,0.586945396797428
-0.0870250084984938,0.587515027180596
-0.0884116178043557,0.588055127409111
-0.0897471035103001,0.588567433305008
-0.0910336709788635,0.589053567441744
-0.0922734204076166,0.589515047183526
-0.0934683520408191,0.589953292115387
-0.0946203711401649,0.590369630912298
-0.0957312927214788,0.590765307691729
-0.0968028460648005,0.591141487890456
-0.097836679005705,0.591499263703106
-0.0988343620159687,0.591839659116886
-0.099797392081848,0.592163634574165
-0.100727196388287,0.59247209129197
-0.101625135817349,0.592765875265152
-0.102492508269082,0.593045780977756
-0.103330551812886,0.593312554845189
-0.104140447677282,0.59356689840793
-0.104923323085759,0.593809471295865
-0.105680253946162,0.594040893980789
-0.106412267400829,0.594261750333215
-0.107120344244405,0.594472589998334
-0.107805421216046,0.594673930604792
-0.108468393172377,0.594866259818855
-0.109110115147385,0.595050037255541
-0.109731404305072,0.595225696257382
-0.110333041790501,0.595393645550643
-0.110915774484548,0.595554270788042
-0.111480316667453,0.595707935986317
-0.112027351596005,0.595854984866348
-0.112557532998948,0.595995742102907
-0.113071486494978,0.596130514490604
-0.113569810937462,0.596259592032069
-0.114053079689812,0.596383248953945
-0.114521841835223,0.596501744655854
-0.114976623324312,0.596615324597095
-0.115417928063982,0.596724221125482
-0.115846238950673,0.596828654252387
-0.116262018850988,0.596928832377754
-0.116665711532523,0.59702495296858
-0.117057742547563,0.597117203194065
-0.117438520072187,0.597205760520445
-0.117808435703145,0.597290793268253
-0.118167865214797,0.597372461134581
-0.118517169278218,0.597450915682722
-0.118856694144501,0.597526300801388
-0.119186772294157,0.597598753135555
-0.119507723054412,0.597668402490831
-0.119819853186106,0.597735372213104
-0.120123457441786,0.597799779545115
-0.120418819096534,0.597861735961464
-0.120706210452942,0.597921347483473
-0.120985893321597,0.597978714975209
-0.121258119478361,0.598033934421899
-0.121523131099652,0.598087097191863
-0.121781161176862,0.59813829028303
-0.122032433911007,0.598187596555013
-0.122277165088614,0.598235094947676
-0.12251556243983,0.59828086068703
-0.122747825979641,0.598324965479262
-0.122974148333089,0.598367477693643
-0.123194715045283,0.598408462535003
-0.123409704876989,0.598447982206417
-0.123619290086523,0.598486096062715
-0.123823636698636,0.598522860755364
-0.124022904761049,0.598558330369264
-0.124217248589255,0.598592556551939
-0.124406817000171,0.598625588635583
-0.124591753535194,0.598657473752395
-0.12477219667319,0.598688256943605
-0.124948280033905,0.598717981262553
-0.125120132572275,0.598746687872197
-0.125287878764077,0.598774416137357
-0.125451638783347,0.598801203712012
-0.125611528671954,0.598827086621941
-0.125767660501726,0.598852099342975
-0.12592014252947,0.598876274875113
-0.12606907934524,0.598899644812745
-0.126214572014168,0.598922239411197
-0.126356718212168,0.598944087649814
-0.126495612355799,0.598965217291775
-0.126631345726571,0.598985654940822
-0.126764006589946,0.599005426095083
-0.126893680309292,0.599024555198142
-0.127020449455014,0.599043065687518
-0.127144393909097,0.599060980040691
-0.127265590965266,0.59907831981881
-0.127384115424974,0.599095105708216
-0.127500039689395,0.59911135755989
-0.127613433847615,0.599127094426947
-0.127724365761201,0.599142334600279
-0.127832901145288,0.599157095642443
-0.12793910364637,0.599171394419894
-0.128043034916924,0.599185247133646
-0.128144754687013,0.599198669348449
-0.12824432083301,0.599211676020557
-0.128341789443559,0.599224281524163
-0.128437214882909,0.599236499676569
-0.128530649851723,0.599248343762159
-0.128622145445479,0.599259826555236
-0.128711751210577,0.599270960341785
-0.128799515198235,0.599281756940205
-0.128885484016278,0.599292227721084
-0.128969702878918,0.599302383626048
-0.129052215654602,0.599312235185731
-0.129133064912008,0.599321792536929
-0.129212291964279,0.599331065438954
-0.129289936911565,0.599340063289251
-0.129366038681942,0.599348795138292
-0.129440635070776,0.599357269703807
-0.129513762778603,0.599365495384365
-0.129585457447583,0.599373480272351
-0.12965575369659,0.599381232166352
-0.129724685154983,0.599388758583003
-0.129792284495139,0.599396066768301
-0.129858583463765,0.599403163708424
