0.920669414293769,-0.0123877605251168
0.921056787243507,0.00305448919841737
0.919352570184196,0.0186002634653205
0.915569694793583,0.0341576025926238
0.909735302373928,0.0496351735100043
0.901890546469995,0.0649432411268629
0.892090282067262,0.0799946221779076
0.880402643916292,0.0947056123445543
0.866908517474557,0.108996877703515
0.851700906872376,0.122794301890547
0.834884205186813,0.136029780783409
0.816573373138939,0.148641956999775
0.796893033108369,0.160576887068816
0.775976486077722,0.171788634764097
0.753964659772363,0.182239784774799
0.731004996841715,0.191901871635625
0.707250292432632,0.200755719626482
0.682857490928316,0.208791690183818
0.65798645196445,0.216009834228872
0.632798696084658,0.222419947706179
0.607456140557997,0.228041529530353
0.582119835950509,0.232903642052295
0.556948714020425,0.237044675069111
0.532098357392695,0.240512015306966
0.507719801264119,0.243361624194539
0.483958377097381,0.245657527608577
0.460952607883393,0.247471222104399
0.438833164089908,0.24888100293549
0.417721888874498,0.249971219910251
0.397730900526491,0.250831467823799
0.378961779420867,0.251555718832022
0.361504846023333,0.252241404698131
0.345438535686583,0.252988457333549
0.330828875130038,0.253898316470476
0.317729064606775,0.255072913639098
0.306179168839632,0.256613641874925
0.296205918861853,0.258620320748791
0.287822625934415,0.261190166391924
0.281029207740826,0.264416776180371
0.275812326089328,0.268389137646875
0.272145634390512,0.27319067100472
0.269990132233926,0.278898314398659
0.269294623468508,0.285581660645051
0.26999627330671,0.293302153789802
0.272021259128763,0.302112353302457
0.275285508868949,0.312055273142146
0.279695520126994,0.323163802281338
0.285149252471197,0.335460212562092
0.29153708479143,0.348955758993034
0.298742829025072,0.363650376780465
0.306644791121778,0.37953247853099
0.315116869737619,0.396578854173475
0.324029682858839,0.414754675232948
0.333251712352477,0.43401360415634
0.342650456327252,0.454298008448126
0.352093579164013,0.475539278431348
0.361450049140939,0.49765824651461
0.370591253733634,0.520565704926851
0.379392082912805,0.544163017987228
0.387731971090009,0.568342824115394
0.395495888771868,0.592989821965451
0.402575275471399,0.617981634292555
0.408868905987162,0.643189742441242
0.41428368279163,0.668480483685881
0.418735347963768,0.693716103061954
0.422149108850921,0.718755850807693
0.424460172444977,0.743457116093666
0.425614184300096,0.767676587357278
0.425567568696482,0.791271429283211
0.424287767658771,0.814100466282187
0.421753377360479,0.836025362220945
0.417954181379271,0.856911786147011
0.412891081203195,0.876630553832965
0.406575925317023,0.895058735135962
0.399031239112197,0.912080717427824
0.390289858755326,0.927589215697
0.380394473010756,0.941486220353206
0.369397077834783,0.953683874274868
0.357358349335228,0.964105271224375
0.344346941413408,0.972685168411416
0.330438715069668,0.979370606704807
0.315715906952567,0.984121432771865
0.300266245260376,0.986910718254852
0.284182021556946,0.987725071969001
0.267559127438384,0.986564842018602
0.250496065278973,0.983444205668484
0.233092942491945,0.978391145769882
0.215450458861224,0.971447313513573
0.197668896533246,0.962667778260878
0.179847122203128,0.952120666176005
0.162081610887517,0.93988669034272
0.144465500448713,0.926058575986119
0.127087685723397,0.910740385327938
0.110031960717306,0.894046747473606
0.0933762168582428,0.876101999553214
0.0771917047581872,0.857039246109706
0.0615423663259552,0.83699934443897
0.046484243400486,0.816129824231847
0.0320649683475739,0.794583750441762
0.0183233412863412,0.772518538798569
0.00528899779311146,0.750094733804919
-0.00701782992294961,0.727474759382359
-0.0185864562581935,0.704821652577452
-0.0294157886515836,0.682297790891369
-0.0395142769148225,0.660063623858208
-0.0488997660617047,0.638276419467253
-0.0575992541487796,0.617089035902614
-0.0656485575310376,0.596648728861391
-0.0730918868055874,0.577096004410331
-0.0799813375552179,0.558563526953723
-0.0863763008047132,0.541175091415185
-0.092342798858484,0.525044668187302
-0.0979527528916041,0.510275528780485
-0.103283189311275,0.496959459411404
-0.108415392486181,0.485176069017997
-0.113434011951821,0.474992197378861
-0.11842613263606,0.466461428157056
-0.123480317006786,0.459623710789265
-0.128685628319377,0.454505094209008
-0.134130644333223,0.451117574435093
-0.139902470971799,0.449459057082323
-0.146085765419002,0.449513434868981
-0.152761778075149,0.45125077921358
-0.160007422639921,0.454627644040202
-0.167894383347937,0.459587478956062
-0.176488268057579,0.466061148035071
-0.185847815488193,0.473967549545172
-0.19602416441832,0.483214331102995
-0.207060192102563,0.493698693934249
-0.218989928541978,0.505308279169359
-0.231838052558108,0.51792212841755
-0.24561947488003,0.531411710244884
-0.260339012663834,0.545642003638015
-0.275991159031709,0.560472629070243
-0.292559950350988,0.575759017403864
-0.310018933079716,0.591353606566085
-0.328331231092732,0.607107055727295
-0.347449713479097,0.622869466592068
-0.367317261876266,0.638491601385783
-0.387867135487147,0.65382608718321
-0.409023431021328,0.668728596379317
-0.430701633919579,0.683058993345151
-0.452809256369235,0.69668243764087
-0.475246556804941,0.709470434570708
-0.497907334821955,0.721301824357029
-0.520679794714742,0.732063701778258
-0.54344747019846,0.741652258753235
-0.566090202281229,0.749973543056512
-0.588485161736112,0.756944127109226
-0.610507907178463,0.762491681601365
-0.632033469390678,0.766555449556397
-0.652937452256052,0.769086617340606
-0.673097140468869,0.770048580039169
-0.692392604081136,0.769417099560723
-0.710707789928496,0.767180354783696
-0.727931590049317,0.763338884012311
-0.743958877371125,0.757905420959689
-0.758691499186361,0.750904626411257
-0.77203921927269,0.742372718635489
-0.78392059992908,0.732357006492825
-0.794263815694062,0.720915330039537
-0.803007391082621,0.708115414223949
-0.810100855318222,0.694034142020682
-0.81550530774099,0.678756754037949
-0.819193888335776,0.662375982257316
-0.821152148638234,0.644991126119326
-0.821378319135883,0.626707079647167
-0.819883470176886,0.607633318699996
-0.816691564324111,0.587882857764204
-0.811839399037744,0.567571185922156
-0.805376439528035,0.546815191781868
-0.797364542582042,0.525732087206539
-0.787877573126239,0.504438339649563
-0.777000916231784,0.48304862277904
-0.764830888192974,0.461674794867156
-0.751474051203592,0.440424914126171
-0.737046437012572,0.419402299796912
-0.721672685752027,0.398704647341169
-0.705485106890017,0.378423205560477
-0.688622669960596,0.358642022865335
-0.671229933358487,0.339437269256464
-0.653455920049457,0.320876639859358
-0.635452949535057,0.303018845081744
-0.617375435817373,0.285913191647658
-0.599378661432214,0.269599257909135
-0.581617537854715,0.254106665954819
-0.564245362727458,0.239454952132047
-0.547412584416567,0.225653536683491
-0.531265584365179,0.21270179227941
-0.515945487586414,0.200589210310513
-0.501587011420543,0.189295662902474
-0.488317362375179,0.178791757729602
-0.476255190475747,0.169039281849972
-0.465509610079351,0.159991729965287
-0.456179295552751,0.15159491173313
-0.448351659589057,0.143787632034274
-0.442102121243549,0.136502437429719
-0.43749347001254,0.129666421437252
-0.434575331467267,0.12320208072101
-0.433383739094187,0.117028213824564
-0.433940816091512,0.111060853692621
-0.436254569937082,0.105214224922062
-0.440318801582879,0.0994017164623379
-0.446113130155118,0.0935368603502685
-0.453603133054329,0.0875343070162248
-0.4627406003658,0.0813107877378695
-0.473463901515857,0.0747860549437721
-0.485698461152077,0.0678837912810859
-0.499357340294207,0.0605324786571449
-0.514341917905276,0.0526662188415989
-0.530542667177113,0.0442254976701234
-0.547840020018551,0.035157885418667
-0.566105312485188,0.0254186665138268
-0.585201803203091,0.0149713924048413
-0.604985756221345,0.00378835213986935
-0.625307579185204,-0.00814904404287073
-0.646013007257505,-0.0208499719868435
-0.666944322835004,-0.0343139947815096
-0.687941600811662,-0.0485309599721774
-0.7088439689352,-0.0634809940709496
-0.729490872688146,-0.0791345947143919
-0.749723334101162,-0.0954528198993815
-0.76938519397468,-0.112387572818498
-0.788324327144249,-0.129881979918631
-0.806393820673952,-0.147870858929334
-0.82345310519857,-0.166281272758878
-0.839369030055827,-0.18503316434374
-0.854016873351247,-0.204040066768745
-0.86728127867553,-0.223209882257391
-0.879057110842556,-0.242445722971577
-0.889250223729688,-0.261646805963065
-0.897778134074346,-0.28070939409109
-0.90457059590522,-0.299527774266476
-0.909570071155623,-0.317995264006574
-0.912732092912618,-0.336005236990962
-0.914025518690772,-0.35345215809777
-0.913432672075384,-0.37023261827692
-0.910949372048376,-0.386246359580587
-0.906584850282212,-0.401397280723439
-0.900361557654707,-0.415594413685203
-0.892314862191743,-0.428752862094838
-0.882492641577615,-0.440794692447162
-0.870954774275502,-0.451649769596406
-0.857772534165746,-0.461256528443637
-0.843027894429501,-0.469562674282011
-0.826812747172834,-0.476525804880672
-0.809228045994743,-0.482113948069435
-0.790382879345758,-0.48630600932602
-0.770393483096197,-0.489092124659139
-0.749382201229766,-0.490473914917112
-0.72747640399495,-0.490464638525443
-0.704807373179783,-0.489089240560175
-0.681509164422502,-0.486384296988861
-0.657717456629176,-0.482397853849299
-0.633568398638421,-0.477189162079434
-0.609197463252386,-0.470828309651662
-0.584738318642624,-0.463395753592607
-0.560321726940478,-0.454981755377114
-0.536074479536091,-0.445685724064477
-0.512118378240898,-0.435615472387854
-0.488569271018809,-0.424886391806917
-0.465536150465583,-0.413620553281744
-0.443120322618809,-0.401945741215991
-0.421414653018021,-0.389994428643344
-0.400502896211806,-0.377902702287275
-0.3804591141329,-0.365809146605269
-0.361347187940231,-0.353853696330434
-0.343220427066167,-0.342176467342061
-0.326121278315541,-0.330916575929286
-0.310081136948572,-0.320210956656253
-0.295120260750585,-0.310193189091648
-0.281247787156132,-0.300992343629605
-0.268461852561779,-0.292731856502705
-0.256749812039198,-0.285528443872346
-0.246088556756233,-0.279491064578622
-0.236444925536658,-0.274719940743722
-0.227776206147062,-0.271305644952957
-0.220030721099348,-0.269328262189825
-0.213148492006714,-0.268856634080784
-0.207061975836545,-0.269947692316981
-0.201696865771386,-0.272645887369964
-0.196972948824798,-0.276982717812975
-0.192805011867398,-0.282976364705796
-0.189103787304018,-0.290631434606621
-0.185776929309388,-0.299938813847056
-0.182730011279884,-0.310875635754025
-0.179867534994886,-0.323405361533537
-0.177093941904447,-0.337477974554401
-0.174314616970967,-0.353030286793611
-0.171436875591037,-0.369986355237873
-0.168370924308703,-0.388258005086057
-0.165030786301233,-0.40774545567361
-0.161335182970482,-0.428338044150297
-0.157208363403939,-0.449915041094828
-0.152580873975409,-0.472346551451493
-0.147390260931432,-0.495494493431877
-0.141581699450591,-0.519213647345635
-0.135108543363016,-0.543352765714089
-0.127932790470118,-0.567755735484571
-0.120025459203103,-0.59226278270662
-0.111366873195712,-0.616711709657416
-0.101946851214362,-0.640939154116536
-0.0917648007794179,-0.664781860291791
-0.0808297147166338,-0.688077950790276
-0.0691600707895518,-0.710668189012889
-0.0567836354736033,-0.732397221426575
-0.04373717383243,-0.753114789335733
-0.0300660683383815,-0.772676900031298
-0.0158238503342359,-0.790946947540545
-0.00107164865405157,-0.807796773629813
0.0141224392997036,-0.823107660222301
0.0296840479951596,-0.836771244979387
0.0455333090235946,-0.848690352451409
0.0615856738495668,-0.858779733926896
0.0777527861964739,-0.866966709891299
0.0939433957314869,-0.873191709840726
0.11006430431643,-0.877408705075566
0.126021335774086,-0.87958553101557
0.141720319885454,-0.879704096523864
0.157068081184907,-0.877760478694291
0.171973423058402,-0.873764902535878
0.18634809767546,-0.867741605971546
0.200107752398453,-0.859728591546924
0.213172843511827,-0.849777267210516
0.225469508397533,-0.837951979470377
0.236930387648617,-0.824329443146307
0.247495389057401,-0.808998072812702
0.257112385934045,-0.792057221857763
0.265737842800785,-0.773616335862628
0.273337362161676,-0.753794027722393
0.279886146761169,-0.732717082583714
0.285369372511114,-0.710519401254984
0.289782468077777,-0.687340891250158
0.293131297970929,-0.663326315051577
0.295432246858413,-0.638624105517186
0.296712203733746,-0.613385158610428
0.297008445483262,-0.587761613794679
0.296368420324625,-0.561905632507136
0.294849432511927,-0.535968185109025
0.292518230615712,-0.510097856600216
0.28945050258076,-0.484439681187786
0.285730281632328,-0.45913401551192
0.281449267934794,-0.434315459961043
0.276706071697748,-0.410111837055144
0.271605384166334,-0.386643235345533
0.266257083618181,-0.364021126675983
0.260775284112458,-0.342347563979578
0.255277335291523,-0.321714466053668
0.249882782017342,-0.302202994968899
0.244712293028772,-0.283883030934087
0.23988656812815,-0.266812748564563
0.2355252336434,-0.251038297594989
0.23174573606269,-0.236593590146981
0.228662243801073,-0.223500195715154
0.226384567031743,-0.211767344081095
0.225017105398624,-0.201392035411629
0.224657833222808,-0.19235925585404
0.225397331524543,-0.184642296015131
0.227317875807442,-0.178203168811126
0.230492588095507,-0.17299312230966
0.234984661180408,-0.168953242360877
0.240846662430707,-0.166015139039381
0.248119923841746,-0.164101710199162
0.25683402427048,-0.163127974786072
0.267006369010141,-0.163001967962557
0.278641871022063,-0.16362568958244
0.291732737263749,-0.164896097113976
0.30625836264097,-0.166706133750946
0.322185333175349,-0.168945782177338
0.339467539025906,-0.171503134263371
0.358046397041567,-0.174265466870855
0.377851181560578,-0.177120313934787
0.398799461220109,-0.179956525065672
0.420797638604068,-0.182665301082374
0.443741588647149,-0.18514119713676
0.46751739083669,-0.187283084426516
0.492002149418885,-0.18899506190822
0.517064895029469,-0.190187309914968
0.542567560438501,-0.190776878147248
0.568366022430605,-0.190688401136886
0.594311201242095,-0.189854734976085
0.620250208450155,-0.188217509850443
0.646027533761533,-0.185727593709526
0.671486260782733,-0.182345463243793
0.696469301574466,-0.178041479204928
0.720820639601791,-0.172796063999804
0.744386570590741,-0.166599780398526
0.767016930792418,-0.159453311115708
0.788566302237335,-0.151367339943317
0.80889518473535,-0.14236233602438
0.827871124638388,-0.132468243751674
0.845369790732337,-0.121724081645815
0.861275988057725,-0.110177454405293
0.875484600972724,-0.0978839831191627
0.887901457361831,-0.084906659384297
0.898444106554504,-0.0713151297663755
0.907042504244158,-0.0571849176809309
0.91363959848298,-0.0425965903420298
0.918191811665237,-0.0276348789263518
0.920669414293769,-0.012387760525117
