0.187492311767164,-0.266999222318841
0.188994071494737,-0.269943159855379
0.190646488341487,-0.272863619358448
0.19244951496005,-0.2757540074322
0.194402837424265,-0.278607712222142
0.196505874078208,-0.281418113687463
0.198757774768457,-0.284178593925699
0.20115742046169,-0.286882547535743
0.203703423249206,-0.289523392005174
0.206394126739469,-0.292094578107784
0.209227606839247,-0.294589600297163
0.212201672923443,-0.297002007082159
0.215313869393173,-0.299325411370039
0.218561477621173,-0.301553500763175
0.22194151828308,-0.303680047795112
0.225450754072633,-0.305698920091931
0.229085692798356,-0.307604090444864
0.23284259085875,-0.309389646780227
0.236717457092534,-0.311049802012805
0.240706056999998,-0.312578903768986
0.244803917330999,-0.313971443966014
0.249006331034681,-0.315222068233955
0.253308362565484,-0.316325585167082
0.257704853539575,-0.317276975391597
0.262190428735298,-0.318071400436818
0.266759502430848,-0.318704211397171
0.271406285071869,-0.319170957372548
0.276124790261244,-0.319467393674883
0.280908842062911,-0.319589489789036
0.285752082611111,-0.319533437076361
0.290647980016031,-0.31929565620966
0.29558983655644,-0.318872804328498
0.300570797149468,-0.318261781904234
0.305583858087333,-0.317459739304407
0.310621876030417,-0.316464083046538
0.315677577245751,-0.315272481731715
0.320743567079602,-0.313882871648761
0.325812339652532,-0.312293462040163
0.330876287764972,-0.310502740021327
0.335927713001037,-0.30850947514519
0.340958836018042,-0.306312723604593
0.345961807008853,-0.303911832065318
0.350928716323999,-0.301306441123093
0.355851605240184,-0.298496488378358
0.360722476861612,-0.295482211123046
0.365533307140349,-0.292264148634116
0.370276056001705,-0.28884314406904
0.374942678560483,-0.28522034595897
0.379525136413738,-0.281397209295785
0.384015408995564,-0.277375496209732
0.388405504979298,-0.273157276234889
0.392687473712407,-0.268744926160185
0.396853416669237,-0.264141129464244
0.400895498906728,-0.259348875332825
0.404805960508142,-0.254371457258183
0.40857712799981,-0.249212471220168
0.412201425725878,-0.243875813449451
0.415671387166055,-0.238365677773763
0.418979666181339,-0.232686552548586
0.422119048172785,-0.22684321717425
0.425082461138387,-0.220840738201941
0.427862986613244,-0.21468446503163
0.430453870478267,-0.208380025205491
0.432848533622798,-0.201933319300852
0.435040582446614,-0.195350515427316
0.437023819186982,-0.188638043333116
0.438792252056549,-0.181802588126365
0.44034010517806,-0.174851083617316
0.441661828302099,-0.167790705288254
0.442752106294245,-0.160628862898161
0.443605868378289,-0.153373192729758
0.444218297122412,-0.146031549487005
0.444584837155479,-0.138611997851637
0.444701203600895,-0.131122803707744
0.444563390215782,-0.123572425043877
0.444167677223548,-0.115969502542588
0.44351063882824,-0.108322849867764
0.442589150399449,-0.100641443660502
0.441400395316872,-0.0929344132547234
0.439941871464035,-0.085211030124073
0.438211397361067,-0.0774806970720766
0.436207117926816,-0.0697529371778675
0.433927509861024,-0.0620373825101636
0.431371386637717,-0.0543437626225154
0.428537903101387,-0.0466818928431696
0.425426559658039,-0.0390616623732062
0.422037206053597,-0.0314930222069049
0.41837004473268,-0.0239859728885707
0.414425633771234,-0.016550552120319
0.41020488937699,-0.0091968222355639
0.405709087952257,-0.00193485755318148
0.400939867714043,0.00522526837246204
0.395899229867036,0.0122734955902397
0.390589539325519,0.0191997906641891
0.3850135249808,0.0259941596429194
0.379174279511316,0.032646661070643
0.373075258733092,0.0391474190238523
0.366720280488809,0.0454866361575635
0.360113523074278,0.0516546067449596
0.353259523201694,0.0576417296942078
0.346163173499593,0.0634385215261764
0.338829719550006,0.0690356292967531
0.331264756463889,0.07442384344746
0.323474224996443,0.0795941105680746
0.315464407204538,0.0845375460550016
0.307241921649009,0.0892454466491878
0.298813718145156,0.0937093028374551
0.29018707206536,0.0979208111012055
0.281369578198266,0.10187188599658
0.272369144169577,0.10555467205027
0.263193983430016,0.108961555455341
0.253852607816604,0.1120851755516
0.244353819693924,0.114918436075209
0.234706703682582,0.11745451616249
0.224920617982625,0.119686881093059
0.21500518530018,0.121609292757693
0.204970283386108,0.123215819836597
0.194826035195987,0.124500847674012
0.184582798681205,0.125459087835412
0.174251156221477,0.126085587333862
0.163841903709544,0.126375737512426
0.153366039299303,0.126325282569887
0.142834751829071,0.125930327717393
0.132259408932113,0.125187346954045
0.121651544847032,0.124093190449825
0.111022847941004,0.122645091524689
0.100385147959269,0.120840673213091
0.0897504030146653,0.118677954403615
0.0791306863313835,0.116155355543901
0.068538172757474,0.113271703901473
0.0579851250609808,0.110026238371605
0.0474838800249111,0.106418613823831
0.0370468343565617,0.102448904979235
0.0266864304270139,0.0981176098111519
0.0164151418568936,0.0934256524624866
0.00624545896474818,0.0883743856733473
-0.00381012590536731,0.0829655927132863
-0.0137391331602723,0.0772014888129772
-0.0235291108209908,0.0710847220907374
-0.0331676494558256,0.0646183739698742
-0.0426423971657968,0.0578059590834284
-0.0519410746049324,0.050651424663466
-0.0610514900177634,0.0431591494126775
-0.0699615542762736,0.0353339418566381
-0.0786592958984727,0.0271810381756872
-0.0871328760306884,0.0187060995160033
-0.0953706033756365,0.00991520878005339
-0.103360949048306,0.000814866897213246
-0.111092561341685,-0.00858801142402113
-0.118554280384385,-0.0182861024602095
-0.125735152672249,-0.0282716787508724
-0.132624445456101,-0.0385366148868678
-0.139211660967867,-0.0490723938053552
-0.145486550467411,-0.0598701135868542
-0.151439128092541,-0.0709204947492919
-0.157059684494807,-0.0822138880333309
-0.162338800243846,-0.0937402826726585
-0.167267358983255,-0.105489315142324
-0.171836560321145,-0.117450278377626
-0.176037932438791,-0.129612131455442
-0.179863344401005,-0.141963509729349
-0.183305018152161,-0.154492735409271
-0.186355540182065,-0.167187828575864
-0.189007872846192,-0.180036518619264
-0.191255365325105,-0.193026256091304
-0.193091764208273,-0.206144224959746
-0.194511223687804,-0.219377355252588
-0.195508315348038,-0.23271233607994
-0.196078037537336,-0.246135629020523
-0.196215824308802,-0.259633481859319
-0.195917553917135,-0.273191942662438
-0.19517955685924,-0.286796874174813
-0.193998623446705,-0.300433968525892
-0.192372010898734,-0.314088762228053
-0.190297449944619,-0.327746651452079
-0.187773150925362,-0.341392907563604
-0.184797809384564,-0.355012692904093
-0.181370611139253,-0.368591076799524
-0.17749123682189,-0.382113051779633
-0.173159865885319,-0.395563549990213
-0.168377180063056,-0.408927459780697
-0.16314436627786,-0.42218964244892
-0.157463118992145,-0.435334949124735
-0.151335641994424,-0.448348237773857
-0.144764649616538,-0.461214390303135
-0.13775336737713,-0.473918329748193
-0.130305532047379,-0.486445037524231
-0.122425391135717,-0.498779570720598
-0.114117701788862,-0.510907079419594
-0.105387729107173,-0.522812824019858
-0.0962412438729881,-0.534482192544582
-0.0866845196912719,-0.545900717914717
-0.0767243295425694,-0.557054095167274
-0.0663679417489305,-0.567928198598816
-0.0556231153541449,-0.578509098814181
-0.0444980949203023,-0.588783079660533
-0.033001604743366,-0.598736655026846
-0.0211428424911256,-0.608356585488978
-0.00893147226756266,-0.617629894780608
0.00362238289165476,-0.626543886070362
0.016508149087176,-0.635086158025623
0.0297148101814184,-0.643244620643635
0.0432309169747581,-0.651007510830716
0.0570445969250998,-0.658363407710546
0.0711435644028008,-0.665301247642756
0.085515131472292,-0.671810338933251
0.100146219191092,-0.677880376217969
0.115023369416282,-0.683501454502069
0.130132757107892,-0.688664082836823
0.145460203118021,-0.69335919761685
0.160991187453938,-0.697578175480619
0.17671086300279,-0.701312845797572
0.192604069704974,-0.704555502725572
0.208655349162678,-0.707298916822792
0.224848959669514,-0.709536346198598
0.241168891646634,-0.711261547188409
0.257598883470205,-0.712468784538003
0.274122437674588,-0.713152841083196
0.290722837515081,-0.713309026911353
0.307383163873591,-0.712933187991659
0.32408631249016,-0.712021714261683
0.340815011502795,-0.710571547158247
0.357551839277637,-0.708580186581234
0.374279242511091,-0.706045697279517
0.390979554585155,-0.702966714648808
0.407635014156793,-0.699342449931829
0.424227783961856,-0.695172694811829
0.440739969813739,-0.690457825391117
0.457153639776617,-0.685198805546908
0.473450843492829,-0.679397189657487
0.489613631643732,-0.673055124692291
0.505624075523052,-0.666175351660277
0.521464286701588,-0.658761206411561
0.53711643676187,-0.650816619788056
0.552562777081254,-0.642346117119524
0.567785658641718,-0.633354817062174
0.58276755184455,-0.623848429777659
0.597491066307958,-0.613833254451056
0.611938970625598,-0.603316176147118
0.626094212063922,-0.592304662004853
0.63993993617622,-0.580806756771208
0.653459506311234,-0.56883107767535
0.66663652299422,-0.556386808645825
0.679454843158374,-0.54348369387357
0.691898599204623,-0.53013203072452
0.703952217867825,-0.516342662006288
0.715600438867593,-0.502126967594113
0.726828333322049,-0.487496855422036
0.737621321902992,-0.47246475184598
0.747965192711162,-0.457043591386118
0.757846118850477,-0.441246805856679
0.767250675680367,-0.425088312892003
0.776165857725573,-0.40858250387842
0.784579095223091,-0.391744231302177
0.792478270286221,-0.374588795524366
0.799851732666015,-0.357131930994476
0.806688315090798,-0.339389791914858
0.812977348164778,-0.321378937369073
0.818708674807188,-0.303116315927714
0.823872664213801,-0.284619249745977
0.828460225323129,-0.265905418167815
0.832462819770057,-0.246992840852203
0.835872474310164,-0.227899860437551
0.838681792698485,-0.208645124760964
0.840883967006992,-0.189247568649542
0.842472788365622,-0.169726395301523
0.84344265711224,-0.150101057275564
0.843788592337515,-0.130391237106977
0.84350624081128,-0.110616827570238
0.842591885277565,-0.0907979116075671
0.841042452106146,-0.0709547419438074
0.838855518289069,-0.0511077204083039
0.836029317771309,-0.0312773769848647
0.83256274710538,-0.0114843486112938
0.828455370420427,0.00825064224963523
0.823707423697016,0.0279068092455806
0.818319818339575,0.047463323953848
0.812294144039181,0.0668993378616094
0.805632670920094,0.0861940044840022
0.798338350964233,0.105326501596746
0.79041481870853,0.124276053559683
0.781866391210877,0.143021953707443
0.772698067281155,0.161543586783248
0.76291552597462,0.179820451391746
0.752525124345731,0.197832182446577
0.741533894461272,0.215558573588363
0.729949539672452,0.232979599548629
0.717780430146452,0.25007543843522
0.705035597658713,0.26682649391467
0.691724729648051,0.283213417267042
0.677858162537518,0.299217129288759
0.663446874324719,0.314818842019011
0.64850247644612,0.330000080265416
0.633037204920686,0.344742702904705
0.617063910778993,0.359028923934365
0.600596049784766,0.372841333251319
0.583647671456576,0.386162917133927
0.566233407398265,0.398977078403801
0.548368458947393,0.411267656244174
0.530068584151843,0.423018945651852
0.511350084085441,0.434215716500034
0.492229788514255,0.444843232189668
0.472725040925956,0.454887267867302
0.452853682935387,0.464334128187796
0.432634038080211,0.47317066460066
0.412084895021236,0.481384292139191
0.391225490162711,0.488963005692045
0.370075489708585,0.495895395737344
0.348654971171399,0.502170663519923
0.32698440435116,0.507778635652821
0.305084631802151,0.512709778124689
0.282976848806311,0.51695520969533
0.260682582872397,0.520506714662177
0.238223672780742,0.523356754981122
0.215622247194008,0.525498481725741
0.192900702854874,0.526925745869584
0.170081682392146,0.527633108376898
0.147188051757258,0.527615849587799
0.124242877313691,0.526869977884636
0.101269402602218,0.525392237626995
0.0782910248054069,0.523180116343534
0.0553312709351831,0.520231851169575
0.0324137737676777,0.516546434520171
0.00956224754995744,0.512123618989108
-0.0131995364964275,0.506963921465133
-0.035847774849812,0.501068626457483
-0.0583586565151375,0.494439788623595
-0.0807083879771995,0.487080234492744
-0.102873218254335,0.478993563380143
-0.124829464026281,0.470184147486935
-0.146553534809693,0.460657131182314
-0.168021958154703,0.450418429464923
-0.189211404835742,0.439474725601494
-0.210098714009731,0.427833467941627
-0.230660918314705,0.415502865908413
-0.250875268881854,0.402491885165563
-0.270719260233958,0.388810241962537
-0.290170655043219,0.374468396660066
-0.3092075087215,0.359477546439361
-0.327808193816076,0.343849617199191
-0.345951424184104,0.327597254645848
-0.363616278919099,0.310733814582007
-0.380782226002943,0.293273352401231
-0.397429145657036,0.27523061179589
-0.413537353366513,0.256621012687015
-0.429087622551624,0.237460638385545
-0.444061206860655,0.217766221995296
-0.458439862059129,0.197555132068729
-0.472205867490246,0.1768453575276
-0.485342047081997,0.155655491861238
-0.497831789876669,0.134004716616161
-0.509659070058943,0.111912784191445
-0.520808466459182,0.0893999999551398
-0.531265181508986,0.066487203697749
-0.541015059626598,0.0431957504396053
-0.550044605010219,0.0195474906097112
-0.558340998817897,-0.00443525038566053
-0.565892115713155,-0.0287296931855474
-0.572686539756169,-0.0533126260683391
-0.578713579620883,-0.0781604270968387
-0.583963283119134,-0.103249086793277
-0.588426451013451,-0.128554231322486
-0.592094650100965,-0.154051146160933
-0.594960225551488,-0.179714800228563
-0.597016312483603,-0.205519870459967
-0.598256846763329,-0.231440766790711
-0.598676575010685,-0.257451657534173
-0.598271063800278,-0.283526495123764
-0.597036708042831,-0.309639042194819
-0.594970738535376,-0.335762897980112
-0.592071228668701,-0.361871524992374
-0.588337100281446,-0.387938275966929
-0.583768128651152,-0.413936421037039
-0.578364946613407,-0.439839175114329
-0.572129047801152,-0.46561972544622
-0.565062788997091,-0.491251259322083
-0.557169391593064,-0.516706991899537
-0.548452942151188,-0.541960194122044
-0.538918392062467,-0.566984220698791
-0.528571556299527,-0.591752538117638
-0.517419111261102,-0.616238752661796
-0.505468591706796,-0.640416638400725
-0.49272838678165,-0.664260165125743
-0.479207735130998,-0.687743526200664
-0.464916719107016,-0.710841166297905
-0.449866258069416,-0.733527808990343
-0.434068100783606,-0.755778484169407
-0.417534816920688,-0.777568555259842
-0.40027978766459,-0.7988737462017
-0.382317195432581,-0.819670168170351
-0.363662012716441,-0.839934346005288
-0.344329990052395,-0.859643244318898
-0.324337643129039,-0.878774293256417
-0.303702239043255,-0.897305413878705
-0.282441781715179,-0.915215043139631
-0.260574996474156,-0.932482158430281
-0.238121313828537,-0.949086301662501
-0.215100852433115,-0.965007602864665
-0.191534401268839,-0.98022680326303
-0.167443401050406,-0.99472527782239
