-0.647275788184879,-0.461633130976753
-0.647186276031446,-0.461597214562688
-0.646912890611484,-0.461500588594631
-0.646448407628945,-0.461359915167439
-0.645785682754268,-0.461191792963167
-0.64491766959479,-0.461012716174729
-0.64383743753202,-0.460839033703809
-0.64253818938546,-0.460686908725065
-0.641013278863013,-0.460572278707833
-0.639256227758474,-0.460510815985508
-0.637260742857126,-0.460517888961546
-0.635020732511145,-0.460608524039604
-0.632530322847156,-0.460797368363694
-0.629783873569167,-0.461098653452429
-0.626775993320923,-0.461526159809404
-0.623501554572722,-0.462093182589607
-0.619955707998768,-0.462812498399329
-0.616133896312243,-0.463696333304555
-0.612031867526494,-0.464756332120077
-0.607645687611959,-0.466003529048708
-0.602971752519816,-0.467448319736947
-0.598006799544722,-0.469100434810277
-0.592747918000453,-0.47096891494796
-0.587192559183789,-0.473062087553746
-0.581338545603556,-0.475387545075321
-0.575184079453336,-0.47795212502166
-0.568727750308063,-0.480761891723618
-0.561968542026398,-0.483822119879194
-0.554905838842574,-0.487137279920919
-0.547539430633135,-0.490711025238722
-0.539869517345892,-0.494546181287483
-0.531896712580191,-0.498644736604258
-0.523622046309546,-0.503007835755878
-0.515046966739503,-0.50763577423332
-0.506173341295604,-0.512527995304861
-0.497003456738166,-0.517683088835664
-0.487540018402569,-0.523098792077024
-0.477786148565676,-0.528771992424102
-0.467745383940934,-0.534698732136561
-0.457421672306635,-0.540874215012122
-0.446819368273748,-0.547292814998677
-0.435943228201624,-0.55394808672627
-0.424798404271769,-0.56083277793595
-0.41339043773176,-0.567938843778221
-0.401725251323184,-0.57525746294969
-0.389809140909324,-0.582779055632319
-0.377648766320063,-0.590493303195708
-0.365251141433228,-0.59838916961885
-0.352623623513276,-0.606454924583962
-0.339773901829875,-0.614678168191226
-0.326709985580529,-0.623045857239677
-0.313440191142944,-0.631544333015918
-0.299973128684286,-0.640159350528993
-0.286317688155959,-0.648876109126483
-0.272483024703848,-0.657679284423813
-0.258478543525272,-0.666553061475777
-0.244313884205153,-0.675481169116528
-0.229998904565,-0.684446915391641
-0.215543664059453,-0.693433224003402
-0.200958406756065,-0.702422671688193
-0.186253543934985,-0.711397526442758
-0.171439636345991,-0.720339786514211
-0.156527376161119,-0.729231220066925
-0.141527568661788,-0.738053405437913
-0.126451113699898,-0.746787771890987
-0.111308986972908,-0.755415640778839
-0.0961122211532649,-0.76391826702127
-0.0808718869129129,-0.772276880807046
-0.065599073883824,-0.780472729426388
-0.0503048715956223,-0.78848711914073
-0.0350003504314381,-0.796301456996345
-0.0196965426430638,-0.803897292488477
-0.00440442346636499,-0.811256358983001
0.0108651076223423,-0.818360614803088
0.0261012454685458,-0.825192283889143
0.0412932975804311,-0.831733895941161
0.0564307022089226,-0.837968325953836
0.0715030461279582,-0.843878833056045
0.0865000820767587,-0.849449098567898
0.10141174582661,-0.854663263190258
0.11622817283551,-0.859505963243552
0.130939714454963,-0.863962365874801
0.145536953654183,-0.868018203154076
0.160010720228076,-0.871659804984056
0.174352105456499,-0.874874130748979
0.188552476183515,-0.877648799632093
0.202603488286678,-0.879972119533641
0.21649709950773,-0.881833114524538
0.230225581617506,-0.883221550774153
0.243781531889338,-0.884127960893965
0.257157883856796,-0.884543666642408
0.270347917333178,-0.88446079993986
0.283345267671827,-0.883872322146454
0.296143934248031,-0.882772041559286
0.308738288144984,-0.881154629089519
0.321123079028102,-0.879015632083953
0.333293441193737,-0.876351486259727
0.345244898780206,-0.873159525725036
0.356973370130916,-0.869437991062992
0.368475171301226,-0.865186035460049
0.379747018702634,-0.860403728864783
0.390786030879744,-0.855092060167177
0.401589729417446,-0.84925293739298
0.412156038977642,-0.842889185912092
0.422483286466808,-0.836004544664382
0.432570199337589,-0.828603660410715
0.442415903029581,-0.82069208002139
0.45201991755634,-0.812276240818525
0.461382153247563,-0.803363458993265
0.47050290565727,-0.793961916122981
0.479382849650653,-0.784080643817824
0.488023032684094,-0.773729506530192
0.49642486729464,-0.762919182564709
0.50459012281698,-0.751661143330373
0.512520916347663,-0.739967630880375
0.520219702978008,-0.727851633788953
0.527689265318724,-0.7153268614183
0.53493270234087,-0.702407716632149
0.541953417559279,-0.689109267016103
0.548755106586024,-0.675447214668093
0.555341744082913,-0.661437864625523
0.561717570143302,-0.647098091998706
0.567887076134807,-0.63244530788305
0.57385499003566,-0.617497424125161
0.579626261298582,-0.602272817020618
0.585206045277091,-0.586790290023476
0.590599687250108,-0.571069035549824
0.595812706081627,-0.555128595959661
0.600850777553002,-0.538988823803242
0.605719717406122,-0.522669841419619
0.610425464136369,-0.50619199997658
0.614974061574824,-0.489575838042399
0.619371641299591,-0.472842039780846
0.623624404916533,-0.456011392861761
0.627738606249931,-0.439104746180077
0.63172053348382,-0.422142967476642
0.635576491294791,-0.405146900954363
0.639312783017103,-0.388137324983217
0.642935692880821,-0.371134909987457
0.646451468363532,-0.354160176607931
0.649866302695926,-0.337233454231805
0.653186317561152,-0.320374839981157
0.65641754602742,-0.303604158250877
0.659565915752776,-0.286940920885069
0.662637232500361,-0.270404288079722
0.665637164001734,-0.254013030097803
0.66857122420506,-0.237785489881071
0.67144475794409,-0.221739546640942
0.674262926062875,-0.205892580508523
0.677030691030161,-0.190261438321563
0.679752803076248,-0.174862400623532
0.682433786883971,-0.15971114994733
0.685077928864143,-0.144822740453257
0.687689265044531,-0.130211568987837
0.690271569599994,-0.115891347626923
0.692828344050015,-0.101875077763201
0.6953628071483,-0.0881750257947398
0.697877885487592,-0.0748027004676856
0.70037620484119,-0.0617688319224687
0.702860082261051,-0.0490833524891288
0.705331518950586,-0.0367553792734173
0.707792193928556,-0.0247931985713714
0.710243458498665,-0.0132042521459478
0.712686331537629,-0.00199512539515997
0.715121495612668,0.00882846256306377
0.71754929393746,0.0192616668683612
0.71996972817376,0.0293005229411459
0.722382457083914,0.038941950539284
0.72478679603762,0.0481837558403846
0.727181717374358,0.0570246315462362
0.729565851620949,0.065464155010349
0.731937489561806,0.0735027843939686
0.734294585157504,0.081141852860324
0.736634759305367,0.0883835608212514
0.738955304433889,0.0952309662546812
0.741253189920914,0.101687973115775
0.743525068323633,0.107759317868753
0.745767282406641,0.113450554170651
0.747975872952461,0.118768035742347
0.75014658733722,0.12371889746627
0.752274888852376,0.128311034754125
0.754355966751767,0.132553081231858
0.756384747001555,0.1364543847928
0.758355903709093,0.140024982073604
0.76026387120518,0.143275571411076
0.762102856752687,0.146217484341396
0.76386685385314,0.148862655706475
0.765549656121456,0.151223592435306
0.767144871697775,0.153313341071081
0.768645938164066,0.155145454117694
0.770046137932083,0.156733955281836
0.771338614068134,0.15809330368936
0.772516386519149,0.159238357156882
0.773572368703621,0.160184334601679
0.774499384430127,0.160946777674859
0.775290185105422,0.161541511704513
0.775937467193398,0.161984606037084
0.776433889885646,0.162292333866516
0.776772092943832,0.162481131641904
0.77694471467373,0.162567558145274
0.776944409990406,0.162568253331866
0.776763868533842,0.162499897025794
0.776395832794156,0.162379167564304
0.775833116205506,0.162222700483922
0.775068621167851,0.1620470473417
0.774095356955853,0.161868634764455
0.772906457474446,0.161703723818362
0.771495198820921,0.161568369790578
0.769855016613777,0.161478382473574
0.767979523049099,0.161449287041801
0.765862523645811,0.161496285608914
0.763498033641802,0.161634219552296
0.760880294003729,0.161877532689867
0.758003787014087,0.162240235392277
0.754863251400106,0.162735869711462
0.751453696970002,0.163377475604266
0.747770418723227,0.164177558327395
0.743809010402468,0.165148057077308
0.739565377456415,0.166300314945896
0.735035749383598,0.167645050259823
0.730216691428939,0.169192329368311
0.725105115606123,0.170951540940921
0.71969829102035,0.17293137183347
0.713993853467578,0.175139784576732
0.707989814287985,0.177583996538935
0.70168456845299,0.180270460809302
0.69507690186689,0.183204848846051
0.688165997865901,0.186392034928287
0.680951442899154,0.189836082447226
0.673433231378017,0.19354023206801
0.665611769681949,0.197506891789238
0.657487879310955,0.201737628923066
0.649062799176601,0.206233164014407
0.640338187025458,0.21099336671347
0.631316119990755,0.216017253611446
0.621999094269957,0.221302988044799
0.612390023927924,0.226847881869176
0.602492238827228,0.232648399199568
0.592309481689157,0.238700162108924
0.581845904290835,0.244997958273056
0.571106062805842,0.25153575054529
0.560094912297554,0.25830668844003
0.54881780037637,0.265303121500071
0.537280460033784,0.272516614518346
0.525489001668125,0.279937964580566
0.513449904318555,0.287557219891196
0.501170006125687,0.295363700341151
0.488656494038882,0.30334601977176
0.475916892791959,0.311492109885668
0.46295905317069,0.319789245751727
0.449791139596981,0.328224072847299
0.436421617056201,0.336782635577961
0.422859237395541,0.345450407211309
0.409113025022692,0.354212321158348
0.395192262035461,0.363052803532957
0.381106472814199,0.371955806917034
0.366865408110099,0.380904845256236
0.352479028663565,0.389883029808648
0.337957488387846,0.398873106066402
0.323311117154136,0.407857491568027
0.308550403215198,0.416818314517342
0.293685975305373,0.425737453122861
0.278728584455556,0.434596575570062
0.26368908556234,0.443377180537453
0.248578418751074,0.452060638166105
0.233407590573045,0.460628231391335
0.218187655077346,0.469061197544343
0.202929694798264,0.477340770131045
0.187644801699218,0.485448220694865
0.172344058114361,0.493364900670114
0.157038517728949,0.501072283132512
0.141739186639527,0.508552004353688
0.126457004534744,0.515785905066863
0.111202826037393,0.522756071351565
0.0959874022478669,0.529444875046063
0.0808213625287833,0.535835013597238
0.0657151965700083,0.541909549258825
0.0506792367726472,0.547651947550434
0.035723640989885,0.553046114891356
0.0208583756617446,0.558076435324997
0.00609319937996478,0.562727806251793
-0.008562353081776,0.566985673090657
-0.023098986238089,0.570836062791359
-0.037507658829481,0.574265616122833
-0.0517795981954381,0.577261618665048
-0.0659063140523675,0.579812030435038
-0.0798796116470726,0.581905514080637
-0.0936916042578618,0.583531461578698
-0.107334725016824,0.584680019377874
-0.120801738028323,0.585342111929478
-0.134085748760334,0.585509463553554
-0.147180213686859,0.585174618590945
-0.160078949161331,0.584330959795992
-0.172776139502626,0.582972724928376
-0.185266344277056,0.581095021506626
-0.197544504761508,0.57869383968991
-0.209605949574715,0.575766063258875
-0.221446399465491,0.572309478670522
-0.23306197124865,0.568322782166401
-0.244449180881215,0.563805584917718
-0.25560494567344,0.558758416195325
-0.266526585631086,0.553182724556945
-0.277211823927333,0.547080877048393
-0.287658786504646,0.540456156419988
-0.297866000808828,0.533312756363715
-0.307832393659452,0.525655774781169
-0.31755728826275,0.517491205096625
-0.327040400374978,0.508825925633951
-0.336281833626123,0.49966768708041
-0.345282074015722,0.490025098064597
-0.354041983594371,0.479907608879998
-0.362562793346327,0.469325493389762
-0.370846095290362,0.458289829152317
-0.378893833817799,0.446812475811416
-0.386708296288284,0.434906051798072
-0.394292102905578,0.422583909395587
-0.401648195897169,0.409860108222504
-0.408779828023112,0.39674938719184
-0.415690550440931,0.383267135008357
-0.4223841999549,0.369429359268852
-0.42886488567932,0.355252654233564
-0.435136975146767,0.340754167339753
-0.441205079893457,0.325951564531282
-0.447074040555062,0.310862994480695
-0.452748911507369,0.295507051782694
-0.458234945087201,0.27990273920026
-0.463537575429909,0.264069429046712
-0.468662401960605,0.248026823788945
-0.473615172577069,0.231794915958814
-0.47840176656292,0.215393947461141
-0.483028177270235,0.198844368368188
-0.487500494611299,0.18216679529155
-0.491824887399586,0.165381969423365
-0.496007585580374,0.148510714339471
-0.500054862391646,0.131573893657639
-0.503973016496049,0.114592368644369
-0.50776835412476,0.0975869558637699
-0.511447171274023,0.0805783849620343
-0.515015735995021,0.063587256680613
-0.518480270817517,0.0466340011907538
-0.521846935347351,0.0297388368412752
-0.525121809077522,0.012921729410596
-0.528310874452045,-0.00379764804719443
-0.531420000221227,-0.0203999546736587
-0.534454925126298,-0.0368662205077947
-0.537421241950629,-0.0531778843330074
-0.54032438197388,-0.0693168305859097
-0.543169599864541,-0.085265425245762
-0.545961959045311,-0.101006550625528
-0.5487063175647,-0.116523638988111
-0.551407314507072,-0.13180070491383
-0.554069356972138,-0.146822376348111
-0.556696607653626,-0.161573924261213
-0.559292973045465,-0.176041290854993
-0.561862092302443,-0.1902111162549
-0.564407326780775,-0.204070763628804
-0.566931750282527,-0.217608342677793
-0.569438140026186,-0.230812731447651
-0.571928968364107,-0.243673596413551
-0.574406395265791,-0.256181410794305
-0.576872261584304,-0.26832747105648
-0.579328083121302,-0.280103911572735
-0.581775045504383,-0.291503717402859
-0.584213999888613,-0.302520735170149
-0.58664545949224,-0.313149682010079
-0.589069596974698,-0.323386152572446
-0.591486242663136,-0.333226624062572
-0.593894883631765,-0.342668459311495
-0.596294663636389,-0.351709907869487
-0.598684383904591,-0.360350105121657
-0.601062504780059,-0.368589069428767
-0.603427148217673,-0.376427697300886
-0.605776101123979,-0.383867756615771
-0.608106819535841,-0.390911877898352
-0.610416433628114,-0.397563543681922
-0.612701753539344,-0.40382707597598
-0.614959276002627,-0.409707621869855
-0.617185191766958,-0.415211137305428
-0.619375393792607,-0.420344369056326
-0.621525486202311,-0.425114834954972
-0.623630793968364,-0.429530802412799
-0.625686373314007,-0.433601265282697
-0.62768702280594,-0.437335919116516
-0.629627295113156,-0.440745134873959
-0.631501509405858,-0.443839931142725
-0.633303764366698,-0.446631944933006
-0.635027951785245,-0.449133401112665
-0.636667770705228,-0.45135708055245
-0.638216742092871,-0.453316287053434
-0.639668223993417,-0.455024813131627
-0.641015427141878,-0.456496904737225
-0.642251430992945,-0.45774722498834
-0.643369200134105,-0.458790817001239
-0.644361601045081,-0.459643065901146
-0.645221419165934,-0.460319660099463
-0.645941376235464,-0.460836551924913
-0.646514147860918,-0.461209917697526
-0.646932381279453,-0.46145611733564
-0.647188713271386,-0.46159165358711
-0.647275788184879,-0.461633130976753
