0.38455464141565,-0.324017278581559
0.384333410191448,-0.323875787182473
0.383675942225574,-0.32344220976106
0.382592135408815,-0.32270328449078
0.381092613850977,-0.321646299902314
0.379188702139538,-0.320259126808792
0.376892398091594,-0.318530248963323
0.374216344060386,-0.316448792379528
0.371173796860896,-0.314004553248743
0.367778596382109,-0.311188024390704
0.364045132956401,-0.307990420177767
0.359988313559311,-0.304403699876143
0.355623526915541,-0.300420589351116
0.350966607589441,-0.296034601086902
0.346033799140501,-0.291240052475516
0.34084171642644,-0.286032082332913
0.335407307138374,-0.280406665604574
0.329747812654218,-0.274360626226788
0.323880728298033,-0.267891648113959
0.31782376309428,-0.260998284246448
0.311594799107107,-0.253679963837721
0.305211850455668,-0.245936997563801
0.298693022097202,-0.237770580842409
0.292056468470096,-0.229182795153464
0.285320352089452,-0.220176607397026
0.278502802187768,-0.210755867289105
0.271621873493229,-0.200925302800171
0.264695505237784,-0.190690513645525
0.299408604639933,-0.20425955915308
0.280470761199377,-0.17184492745906
0.24382057187778,-0.157629680788617
0.271055296950241,-0.134885967984978
0.263653006988719,-0.162576926855785
0.190680740729875,-0.12187328813102
0.173948267618674,-0.0651079882993885
0.245671529012534,-0.113069058263256
0.172592738260382,-0.0344825862949733
0.196716818947492,-0.0679429274472037
0.190468045780049,-0.0967958804700349
0.184233694181859,-0.0395198206409033
0.133791469596028,-0.0159446498772572
0.164651974708488,0.00394947239811769
0.156023473524879,0.0357699805572723
0.139666926716315,0.0371649194960737
0.146169760470025,0.0672189293702065
0.131423883772573,0.11621168800209
0.0937524969485664,0.135565336610552
0.111254187710571,0.0993168887827963
0.0932950784043148,0.109045877287857
0.089746315881256,0.154818176808253
0.115629976366469,0.228006072021475
0.117512242879475,0.203051231042848
0.108033200899069,0.222492754597238
0.127874355075743,0.239506134419184
0.0727704898327635,0.27518963885756
0.14983990376906,0.253106873195293
0.106530334403017,0.277712283575644
0.105332348449479,0.293583742117215
0.113098182781478,0.344937424913804
0.148436101419594,0.336015479776811
0.152239075094703,0.340649589322394
0.103142989393765,0.370336970808701
0.0974605418325288,0.341012983122723
0.0978380625569584,0.358620478959176
0.104645196333726,0.413621110067409
0.12321248920816,0.427148625738493
0.106681273369466,0.441025493269234
0.115830811720288,0.469393131551663
0.128148587530307,0.498060375972045
0.10115295360076,0.531128165594968
0.15162602324472,0.52392064428577
0.119592260153337,0.548776535616895
0.118914138189896,0.525822748638779
0.123432041961396,0.546432498339105
0.125788132243415,0.556078450395335
0.12818798803788,0.565273107911003
0.149902403532479,0.587522120469878
0.133054236749672,0.582277533299075
0.13548764425594,0.590073945043775
0.137898925542776,0.597392373698231
0.140271161002416,0.604228338088216
0.142587333000275,0.610578250434334
0.144830366755246,0.616439421464918
0.146983171392708,0.621810063570151
0.149028681077899,0.626689291991061
0.150949896137142,0.63107712404145
0.152729924074392,0.63497447636517
0.154352020390836,0.638383160235521
0.15579962911567,0.641305874907948
0.157056422956834,0.643746199041488
0.158106342981322,0.645708580208758
0.158933637735709,0.647198322518509
0.159522901718797,0.648221572378975
0.159859113119705,0.648785302434369
0.15992767073635,0.648897293710975
0.159205737962492,0.647801106614022
0.158388467353605,0.646612347287578
0.153962476283317,0.640615028175801
0.151791253898294,0.637846084703566
0.149254805862167,0.634714054626056
0.139364477797962,0.623281927240444
0.135281224900093,0.618842606322795
0.130793597475173,0.614115176728004
0.125896116792923,0.609115978405661
0.120584129394527,0.603861713056027
0.11485382134015,0.598369405486625
0.102127257590718,0.586740142062674
0.0877031282212933,0.574369341627556
0.0798541526607704,0.567950723069286
0.0715821639459524,0.56140076039199
0.062889465048674,0.554737613934719
0.0442555702645784,0.541144358348074
0.0239885217695885,0.527315450815033
0.0132576406075884,0.520357268403142
-0.00936121152623651,0.506441063175544
-0.0212316304057557,0.4995173258656
-0.046044503295178,0.485821928831591
-0.0589646254435704,0.479082503696568
-0.0722110582444324,0.472436052344218
-0.0857707820794687,0.465897592259379
-0.0996300791442125,0.459481639508836
-0.128189191364634,0.447072620206866
-0.142858325993354,0.441105793692046
-0.157765733063584,0.435313896392347
-0.172894630517553,0.429708477830195
-0.188227718378996,0.424300412051564
-0.219434884042765,0.414116316116588
-0.23527208834499,0.409358450111048
-0.31602464673581,0.389205206460809
-0.348684859676865,0.382940753297197
-0.381306034060344,0.377742578167292
-0.39755056609875,0.375546320370518
-0.429804836631592,0.371958002529865
-0.445773753914273,0.37056282399325
-0.461610215776622,0.369430156309621
-0.477294229687863,0.368556355289182
-0.508126189256572,0.367566695540098
-0.55274695624376,0.367886207204798
-0.581195056720911,0.369213315224698
-0.594976977689851,0.370183923953019
-0.608442053686272,0.371345537127478
-0.621574425949432,0.372687061060666
-0.634358842478554,0.374196778268453
-0.646780688581615,0.375862375779604
-0.65882601603655,0.377670974828755
-0.681734819207199,0.381663020812966
-0.702988010293292,0.386059779164838
-0.740200616936378,0.395581311549466
-0.748352041722882,0.398020292112276
-0.756029426415388,0.400449747385994
-0.769942377029034,0.405212675884919
-0.791913170986111,0.41387784908466
-0.79617826212766,0.415765345949469
-0.799953242715848,0.417507454103969
-0.803240146718434,0.419087472394879
-0.808362281868702,0.421695467838722
-0.810205972901601,0.422691195382829
-0.81157848330999,0.423460412361158
-0.81248616763764,0.423987805687718
-0.812936567624679,0.424257870742375
-0.812496027145099,0.423972027177493
-0.811624106543494,0.423387399925255
-0.810331069941355,0.422490998270631
-0.808627895000558,0.421270397972446
-0.797956814046288,0.412919067902396
-0.794390650206909,0.409913053542636
-0.786280859155148,0.40273779409281
-0.781768000413533,0.39855400573899
-0.776971081981999,0.393964396654247
-0.771906537831263,0.388963692990367
-0.761042030220731,0.377712065346035
-0.755276539580213,0.371454791985385
-0.74316708032931,0.357667921471995
-0.736858865599616,0.350137184053745
-0.723825748139405,0.333804870990973
-0.710358048330511,0.315793457978391
-0.703506558452464,0.306167160024286
-0.689658268337086,0.285699197630901
-0.675734417351051,0.263655244013945
-0.661873691693179,0.240100509922678
-0.634871610324383,0.188784407324181
-0.609646043305964,0.13252330997925
-0.592418423023089,0.0876471033070448
-0.587061313057892,0.0722657283874426
-0.581914162351043,0.0567024636573913
-0.576986240371563,0.0409756465433434
-0.559625709961918,-0.0231871302716258
-0.541249189516747,-0.121016192432552
-0.535665302307791,-0.169451832778896
-0.533268470761734,-0.201189737611379
-0.531902132655411,-0.232298253664616
-0.532697885706645,-0.306304002050617
-0.53351835131241,-0.320312802370534
-0.542224781014898,-0.397420398408598
-0.546273756380347,-0.420127323140022
-0.550712790640164,-0.441167329167069
-0.553041042368216,-0.451035678848605
-0.565134528027486,-0.493517531624092
-0.574356538047583,-0.518910458519435
-0.578443306858482,-0.528668919732574
-0.588160984502038,-0.548284733221069
-0.479932122223014,-0.446744369550176
-0.68697677259398,-0.443154636512097
-0.491522029812274,-0.650578918220877
-0.693609594727608,-0.423252369704402
-0.484643836895965,-0.627043354074307
-0.533905186820063,-0.489446868785488
-0.606084569398999,-0.343166217780376
-0.597659887433034,-0.548379639146556
-0.570263621377701,-0.311929934164417
-0.4471095546848,-0.423562487007987
-0.530269778678307,-0.526158606069966
-0.291466642153539,-0.505301500205734
-0.335773554770838,-0.362397739121135
-0.263133857648732,-0.332211504950063
-0.232472128325616,-0.321397917417913
-0.275262245841671,-0.401728802009919
-0.0715871866253715,-0.281265032005121
-0.0904226206487079,-0.171649471998479
-0.0545692090012443,-0.364608612715566
0.175017837910129,-0.161739281920022
0.218147143380843,-0.16598602699641
0.426081815772075,-0.191044606802488
0.243151333630493,-0.408827960336066
0.378824564023129,-0.320841869609821
0.483579806500343,-0.20966086864971
0.499194295382832,-0.207505139454562
