-0.618818049623139,0.555540250994796
-0.616770378997809,0.548125933107171
-0.613926836780934,0.540823467677338
-0.610586686603711,0.533590795944772
-0.606861281238725,0.526412268297867
-0.602817206364331,0.519278526729809
-0.598500827420928,0.512183055002902
-0.593947207217972,0.505120925360639
-0.589184286433814,0.498088210996762
-0.584235152193424,0.491081667227456
-0.579119394778875,0.484098540818127
-0.573853977745585,0.477136447696537
-0.568453826299818,0.47019329026174
-0.562932242056232,0.463267199093709
-0.557301205392952,0.456356490460102
-0.551571602060317,0.449459634468479
-0.545753397018935,0.44257523063496
-0.539855770467075,0.435701988766817
-0.533887226117807,0.428838713745117
-0.527855678681481,0.421984293229861
-0.521768525479747,0.41513768759529
-0.515632705754427,0.408297921594565
-0.509454750297325,0.401464077384756
-0.503240823368821,0.394635288635563
-0.496996758401982,0.387810735511434
-0.490728088646065,0.3809896403649
-0.484440073649838,0.374171264014586
-0.478137722295262,0.367354902508042
-0.471825812947945,0.360539884289775
-0.46550891118012,0.353725567710454
-0.459191385436039,0.346911338825276
-0.452877420942368,0.340096609438994
-0.446571032112985,0.333280815362529
-0.440276073655084,0.326463414852114
-0.433996250549431,0.319643887206662
-0.427735127049949,0.312821731502949
-0.421496134825296,0.305996465451399
-0.415282580346609,0.299167624357798
-0.409097651610349,0.292334760178463
-0.402944424272463,0.285497440658138
-0.396825867259546,0.278655248541403
-0.390744847913791,0.271807780849593
-0.384704136721021,0.264954648216316
-0.378706411664779,0.258095474275531
-0.372754262244054,0.251229895096889
-0.366850193187612,0.244357558663718
-0.360996627893956,0.237478124389569
-0.355195911622547,0.23059126266972
-0.349450314458976,0.223696654464447
-0.343762034074244,0.216793990911234
-0.338133198296071,0.209882972963397
-0.332565867508278,0.202963311052873
-0.327062036892525,0.196034724775167
-0.321623638525296,0.189096942594637
-0.31625254334163,0.182149701568511
-0.310950562976029,0.175192747088164
-0.305719451489902,0.168225832636341
-0.300560906994041,0.161248719559134
-0.295476573173792,0.154261176851633
-0.290468040723916,0.147262980956268
-0.285536848699451,0.14025391557296
-0.280684485788353,0.13323377148026
-0.275912391511179,0.126202346366748
-0.271221957352592,0.119159444672008
-0.266614527829104,0.112104877436567
-0.26209140149704,0.105038462160236
-0.257653831904446,0.0979600226683242
-0.253303028490278,0.090869388985273
-0.249040157434008,0.0837663972152454
-0.244866342458484,0.0766508894292943
-0.240782665588681,0.069522713558727
-0.236790167868746,0.0623817232943296
-0.232889850039594,0.0552277779911387
-0.229082673179094,0.0480607425784686
-0.225369559306744,0.0408804874749292
-0.221751391954603,0.0336868885081876
-0.218229016706095,0.0264798268392435
-0.214803241704174,0.0192591888910117
-0.211474838130248,0.0120248662810132
-0.208244540655141,0.00477675575799727
-0.205113047863263,-0.00248524085767207
-0.202081022651098,-0.00976121673002017
-0.199149092601008,-0.0170512600599959
-0.196317850331287,-0.0243554541346692
-0.193587853823333,-0.0316738773732111
-0.190959626726709,-0.0390066033697685
-0.188433658642847,-0.0463537009333354
-0.186010405388039,-0.0537152341247139
-0.183690289236338,-0.0610912622906518
-0.181473699142929,-0.0684818400952355
-0.179360990948467,-0.0758870175486076
-0.177352487564854,-0.0833068400330765
-0.175448479142861,-0.0907413483266737
-0.173649223221968,-0.0981905786242126
-0.171954944862752,-0.105654562555895
-0.170365836762107,-0.113133327203502
-0.168882059351554,-0.120626895114215
-0.167503740878843,-0.128135284312079
-0.166230977473026,-0.135658508307151
-0.165063833193144,-0.143196576102343
-0.164002340060627,-0.150749492197972
-0.163046498075475,-0.15831725659404
-0.162196275216258,-0.165899864790227
-0.161451607423936,-0.173497307783623
-0.160812398569455,-0.181109572064169
-0.160278520405065,-0.188736639607821
-0.159849812499248,-0.196378487867398
-0.159526082155107,-0.204035089761119
-0.159307104312066,-0.211706413658781
-0.159192621430646,-0.219392423365571
-0.159182343360074,-0.227093078103458
-0.159275947188449,-0.234808332490134
-0.159473077075116,-0.242538136515455
-0.15977334406489,-0.250282435515336
-0.160176325883718,-0.258041170143029
-0.160681566715308,-0.265814276337731
-0.161288576958229,-0.273601685290448
-0.161996832962916,-0.281403323407034
-0.162805776747972,-0.289219112268318
-0.163714815695103,-0.297048968587229
-0.164723322221947,-0.304892804162819
-0.16583063343202,-0.312750525831062
-0.167036050740912,-0.320622035412323
-0.1683388394778,-0.328507229655351
-0.169738228461274,-0.336406000177666
-0.171233409548381,-0.344318233402183
-0.172823537155697,-0.352243810489903
-0.174507727751164,-0.360182607268493
-0.176285059315281,-0.368134494156561
-0.178154570770182,-0.376099336083423
-0.180115261374952,-0.384076992404115
-0.182166090085442,-0.392067316809423
-0.184305974876678,-0.400070157230655
-0.186533792025812,-0.408085355738863
-0.188848375353373,-0.416112748438211
-0.191248515420402,-0.424152165353139
-0.193732958678857,-0.432203430308957
-0.19630040657241,-0.440266360805476
-0.19894951458455,-0.448340767883224
-0.201678891230614,-0.456426455981783
-0.204487096990046,-0.464523222789734
-0.207372643174888,-0.472630859085629
-0.210333990730103,-0.480749148569387
-0.21336954896093,-0.48887786768344
-0.216477674182023,-0.497016785422876
-0.21965666828259,-0.505165663133788
-0.222904777201223,-0.513324254298922
-0.226220189303418,-0.521492304309651
-0.229601033654136,-0.529669550223204
-0.233045378176896,-0.53785572050394
-0.236551227690035,-0.546050534747362
-0.240116521809734,-0.554253703385408
-0.24373913270827,-0.562464927371395
-0.247416862714645,-0.570683897842805
-0.251147441743268,-0.578910295759916
-0.254928524534676,-0.587143791518003
-0.258757687690367,-0.59538404453062
-0.262632426481575,-0.603630702781095
-0.266550151409312,-0.611883402339078
-0.270508184490032,-0.620141766838527
-0.274503755237915,-0.628405406913051
-0.278533996310768,-0.636673919583986
-0.282595938781994,-0.64494688759591
-0.286686506995647,-0.653223878693568
-0.290802512955267,-0.661504444833277
-0.294940650189714,-0.669788121320824
-0.299097487030333,-0.678074425866631
-0.303269459223201,-0.686362857547476
-0.30745286178755,-0.69465289566227
-0.311643840016187,-0.702943998467247
-0.315838379495235,-0.711235601773329
-0.320032294998025,-0.719527117385267
-0.324221218080308,-0.727817931358259
-0.328400583169851,-0.736107402042974
-0.332565611901044,-0.74439485788392
-0.336711295391927,-0.752679594928645
-0.340832374093732,-0.760960873995775
-0.344923314757203,-0.769237917437842
-0.34897828394927,-0.777509905419292
-0.352991117409557,-0.785775971609827
-0.356955284346257,-0.794035198166515
-0.360863845517549,-0.802286609842518
-0.364709403601784,-0.810529167012077
-0.368484043888609,-0.818761757335194
-0.372179262664958,-0.826983185692934
-0.375785879732559,-0.835192161892571
-0.379293930130805,-0.843387285450223
-0.382692528109357,-0.851567026473451
-0.38596969329009,-0.859729701229913
-0.389112124058346,-0.867873440299583
-0.392104895207862,-0.875996146081513
-0.394931043183218,-0.884095434503467
-0.397570977702342,-0.892168552330849
-0.400001611640264,-0.900212254879845
-0.402195004318633,-0.908222615344197
-0.404116092927993,-0.916194705967398
-0.405718512027945,-0.924122010511753
-0.406935675940134,-0.931995170970446
-0.407656231891976,-0.939798537731872
-0.407580916252272,-0.947490052035507
-0.618818049623139,0.555540250994796
-0.618742733983435,0.547848736691162
-0.619463289935278,0.540045369929736
-0.620680453847466,0.532172209471043
-0.622282872947418,0.524244904926688
-0.624203961556779,0.516272814303487
-0.626397354235147,0.508262453839134
-0.62882798817307,0.500218751290138
-0.631467922692194,0.492145633462757
-0.63429407066755,0.484046345040803
-0.637286841817066,0.475923639258872
-0.640429272585322,0.467779900189203
-0.643706437766055,0.45961722543274
-0.647105035744607,0.451437484409512
-0.650613086142853,0.443242360851861
-0.654219703210454,0.435033384652224
-0.657914921986802,0.426811956294483
-0.661689562273628,0.418579365971367
-0.665535120357862,0.410336808801808
-0.669443681529155,0.402085397125804
-0.673407848465855,0.393826170569117
-0.677420681926141,0.385560104378582
-0.681475651118209,0.377288116397132
-0.68556659178168,0.369011072955065
-0.689687670483484,0.360729793887935
-0.693833353974367,0.35244505684321
-0.697998382705561,0.344157601002264
-0.702177747795103,0.335868130317549
-0.706366670877386,0.327577316344556
-0.710560586380177,0.319285800732618
-0.714755125859225,0.310994197426537
-0.718946104087861,0.30270309462156
-0.723129506652211,0.294413056506766
-0.727301478845078,0.28612462482592
-0.731458315685697,0.277838320280114
-0.735596452920145,0.269554643792567
-0.739712458879765,0.261274077652858
-0.743803027093418,0.252997086555199
-0.747864969564644,0.244724118543276
-0.751895210637496,0.236455605872341
-0.755890781385379,0.228191965797816
-0.7598488144661,0.219933601298368
-0.763766539393836,0.211680901740385
-0.767641278185045,0.20343424348991
-0.771470441340736,0.195193990477293
-0.775251524132144,0.186960494719206
-0.778982103160766,0.178734096802095
-0.782659833167142,0.170515126330685
-0.786282444065678,0.162303902344698
-0.789847738185377,0.154100733706652
-0.793353587698515,0.14590591946323
-0.796797932221275,0.137719749182494
-0.800178776571994,0.129542503268941
-0.803494188674189,0.121374453258211
-0.806742297592821,0.113215862093078
-0.809921291693389,0.105066984382166
-0.813029416914481,0.0969280666427294
-0.816064975145309,0.0887993475286767
-0.819026322700524,0.0806810580449185
-0.821911868885366,0.072573421749024
-0.824720074644798,0.0644766549410729
-0.827449451290861,0.0563909668425136
-0.830098559303002,0.048316559764766
-0.832666007196554,0.0402536292682469
-0.835150450455009,0.0322023643124284
-0.837550590522039,0.0241629473975009
-0.839865173849599,0.0161355546981529
-0.842092990998734,0.00812035618994481
-0.84423287578997,0.000117515768713078
-0.846283704500459,-0.0078728086365952
-0.848244395105229,-0.0158504649572871
-0.850113906560131,-0.0238153068841491
-0.851891238124248,-0.0317671937722175
-0.853575428719714,-0.0397059905508067
-0.855165556327031,-0.0476315676385268
-0.856660737414137,-0.0555438008630443
-0.858060126397612,-0.0634425713853596
-0.859362915134499,-0.0713277656283871
-0.860568332443391,-0.079199275209648
-0.861675643653464,-0.0870569968778915
-0.862684150180308,-0.0949008324534813
-0.863593189127439,-0.102730688772392
-0.864402132912496,-0.110546477633676
-0.865110388917183,-0.118348115750262
-0.865717399160103,-0.12613552470298
-0.866222639991694,-0.133908630897681
-0.866625621810521,-0.141667365525374
-0.866925888800296,-0.149411664525255
-0.867123018686963,-0.157141468550576
-0.867216622515338,-0.164856722937252
-0.867206344444766,-0.172557377675139
-0.867091861563345,-0.180243387381929
-0.866872883720304,-0.187914711279592
-0.866549153376164,-0.195571313173312
-0.866120445470346,-0.203213161432889
-0.865586567305957,-0.210840228976541
-0.864947358451476,-0.218452493257088
-0.864202690659153,-0.226049936250483
-0.863352467799936,-0.23363254444667
-0.862396625814784,-0.241200308842738
-0.861335132682267,-0.248753224938367
-0.860167988402386,-0.256291292733559
-0.858895224996569,-0.263814516728631
-0.857516906523857,-0.271322905926495
-0.856033129113305,-0.278816473837208
-0.85444402101266,-0.286295238484816
-0.852749742653444,-0.293759222416498
-0.850950486732551,-0.301208452714037
-0.849046478310558,-0.308642961007634
-0.847037974926945,-0.316062783492103
-0.844925266732482,-0.323467960945475
-0.842708676639073,-0.330858538750058
-0.840388560487373,-0.338234566915996
-0.837965307232565,-0.345596100107375
-0.835439339148703,-0.352943197670942
-0.832811112052079,-0.360275923667499
-0.830081115544124,-0.367594346906041
-0.827249873274404,-0.374898540980714
-0.824317943224313,-0.38218858431069
-0.821285918012149,-0.389464560183038
-0.818154425220271,-0.396726556798707
-0.814924127745164,-0.403974667321723
-0.811595724171238,-0.411208989931722
-0.808169949169316,-0.418429627879954
-0.804647573920808,-0.425636689548898
-0.801029406568668,-0.432830288515639
-0.797316292696318,-0.440010543619179
-0.793509115835817,-0.447177579031849
-0.789608798006666,-0.45433152433504
-0.785616300286731,-0.461472514599437
-0.781532623416927,-0.468600690470005
-0.777358808441404,-0.475716198255956
-0.773095937385134,-0.482819190025983
-0.768745133970966,-0.489909823709034
-0.764307564378371,-0.496988263200946
-0.759784438046308,-0.504054678477278
-0.755177008522819,-0.511109245712719
-0.750486574364233,-0.518152147407459
-0.745714480087058,-0.525183572520971
-0.740862117175961,-0.53220371661367
-0.735930925151495,-0.539212781996979
-0.730922392701619,-0.546210977892344
-0.725838058881371,-0.553198520599845
-0.72067951438551,-0.560175633677051
-0.715448402899383,-0.567142548128874
-0.710146422533782,-0.574099502609221
-0.704775327350115,-0.581046743635348
-0.699336928982886,-0.587984525815877
-0.693833098367134,-0.594913112093584
-0.68826576757934,-0.601832774004107
-0.682636931801168,-0.608743791951944
-0.676948651416435,-0.615646455505157
-0.671203054252865,-0.62254106371043
-0.665402337981456,-0.629427925430279
-0.659548772687799,-0.636307359704428
-0.653644703631358,-0.643179696137599
-0.647692554210633,-0.650045275316242
-0.641694829154391,-0.656904449257027
-0.63565411796162,-0.663757581890303
-0.629573098615866,-0.670605049582114
-0.623454541602949,-0.677447241698849
-0.617301314265062,-0.684284561219173
-0.611116385528802,-0.691117425398509
-0.604902831050116,-0.69794626649211
-0.598663838825462,-0.70477153254366
-0.592402715325981,-0.711593688247372
-0.586122892220328,-0.718413215892825
-0.579827933762427,-0.725230616403239
-0.573521544933043,-0.732046410479704
-0.567207580439373,-0.738861139865987
-0.560890054695291,-0.745675368751164
-0.554573152927467,-0.752489685330486
-0.54826124358015,-0.759304703548752
-0.541958892225574,-0.766121065055297
-0.535670877229346,-0.77293944140561
-0.529402207473429,-0.779760536552144
-0.523158142506591,-0.786585089676273
-0.516944215578086,-0.793413878425466
-0.510766260120985,-0.800247722635275
-0.504630440395665,-0.807087488636
-0.498543287193931,-0.813934094270571
-0.492511739757604,-0.820788514785827
-0.486543195408336,-0.827651789807527
-0.480645568856477,-0.834525031675671
-0.474827363815094,-0.84140943550919
-0.46909776048246,-0.848306291500812
-0.46346672381918,-0.855217000134419
-0.457945139575594,-0.862143091302451
-0.452544988129827,-0.869086248737248
-0.447279571096537,-0.876048341858837
-0.442163813681987,-0.883031468268166
-0.437214679441598,-0.890038012037472
-0.43245175865744,-0.897070726401349
-0.427898138454483,-0.904132856043613
-0.423581759511081,-0.91122832777052
-0.419537684636687,-0.918362069338577
-0.415812279271701,-0.925540596985482
-0.412472129094478,-0.932773268718048
-0.409628586877602,-0.940075734147882
-0.407580916252272,-0.947490052035507
