0.954320795750069,0.170830538082055
0.953685600633922,0.170898843978924
0.9517928541281,0.171183183646372
0.948671803520726,0.171800587433167
0.944364708080992,0.172864126564462
0.938926325004256,0.174481510713223
0.932423244120159,0.176753750640264
0.924933079439659,0.179773902144045
0.916543527354532,0.183625906574399
0.907351302921463,0.188383541992203
0.897460967142566,0.194109497713903
0.886983659477275,0.200854583482085
0.876035750970745,0.2086570828691
0.864737434347413,0.217542258769929
0.853211268183422,0.227522016994349
0.84158069282888,0.238594732049291
0.829968536093766,0.250745237233524
0.818495526835423,0.263944979172265
0.80727883448952,0.27815233492319
0.796430652271386,0.29331308781193
0.786056841244349,0.309361056228349
0.776255651712794,0.326218867758125
0.767116537458903,0.343798869260002
0.758719077214934,0.362004161848789
0.751132016461096,0.380729748228044
0.744412441178357,0.399863778452519
0.738605093583681,0.419288879005638
0.733741838151566,0.438883549065907
0.729841284401424,0.458523607020538
0.726908571027243,0.478083669674595
0.724935313987453,0.497438646207063
0.723899719182492,0.516465228746181
0.723766858349632,0.535043361477386
0.724489104823251,0.55305767045775
0.726006723868102,0.570398836787715
0.728248610416693,0.586964896478466
0.731133165252524,0.60266245124302
0.734569299000249,0.617407775520361
0.738457551732355,0.631127806301444
0.742691314598385,0.643761003748525
0.74715813864425,0.655258072167535
0.751741114930658,0.665582532588365
0.756320309194159,0.674711140009091
0.760774233632099,0.682634140245696
0.764981337942057,0.689355363275776
0.768821501512514,0.694892151949354
0.772177508647422,0.699275126938324
0.774936488913217,0.7025477907838
0.776991305120054,0.704765975853704
0.778241872084632,0.705997142917601
0.778596390162072,0.706319538858999
0.777972478568833,0.70582122375515
0.776298194734946,0.70459897914002
0.773512927307207,0.702757110708293
0.769568151958591,0.70040615999953
0.764428040824414,0.697661540706405
0.758069918162439,0.694642116165807
0.7504845567007,0.691468735305475
0.741676311070524,0.688262744823067
0.731663086699779,0.685144495662946
0.720476144538507,0.682231861925156
0.708159743981875,0.679638790190002
0.694770628319284,0.677473896872418
0.680377358949995,0.675839130637147
0.665059506441262,0.674828516115971
0.648906708242666,0.674526994181187
0.632017604488863,0.675009372857429
0.61449866480275,0.676339401610784
0.59646292033406,0.678568980256481
0.578028616418675,0.681737512092196
0.559317802207419,0.685871409113269
0.540454874378128,0.690983755319913
0.521565092602119,0.697074132207413
0.502773084778947,0.704128608561516
0.484201360177521,0.712119894686669
0.465968848525581,0.72100765919867
0.448189482774517,0.730739004539893
0.430970842736305,0.741249095448458
0.41441287605036,0.752461932755963
0.398606711999381,0.764291263124193
0.383633582566153,0.776641613681018
0.369563863821456,0.789409438999457
0.356456249272538,0.802484366500101
0.344357065199715,0.815750525162239
0.333299736285121,0.829087941417696
0.323304408013178,0.842373985285733
0.3143777304194,0.855484849197435
0.30651280580547,0.868297041561062
0.299689301048243,0.880688876940818
0.293873723132284,0.892541944762473
0.289019854554238,0.903742538719826
0.285069343306666,0.91418302953291
0.281952440272542,0.923763164396382
0.279588875072253,0.932391277346289
0.277888859724243,0.939985395854628
0.276754207928984,0.946474230220651
0.276079556382374,0.951798033750451
0.275753673286177,0.955909323284696
0.275660838164644,0.958773451329447
0.275682276230839,0.960369022846228
0.275697629884082,0.960688151643005
0.275586449469122,0.95973655325468
0.275229685193871,0.957533473186338
0.27451116208845,0.954111451390885
0.273319020094118,0.949515925840462
0.271547101793966,0.943804680004102
0.269096270932784,0.93704714093874
0.26587564571363,0.92932353651393
0.261803731893145,0.920723922000411
0.256809441913946,0.911347087838327
0.250832987695803,0.901299361843069
0.2438266362409,0.890693320388007
0.235755318873768,0.879646424208142
0.226597086713137,0.868279595383592
0.216343406839509,0.856715752775718
0.204999295556011,0.845078323692897
0.192583287117554,0.833489749851387
0.179127238300543,0.82207000576583
0.164675971178074,0.810935147552997
0.149286758429514,0.80019590976304
0.133028657424857,0.789956367269438
0.115981701159862,0.780312678458978
0.098235955855723,0.771351924976121
0.079890456655493,0.763151062103965
0.0610520343292928,0.755775992520902
0.041834047223357,0.749280774674365
0.0223550338382098,0.743706975378855
0.00273730238475878,0.739083174494655
-0.0168945255678718,0.735424627697474
-0.0364149996816449,0.732733091430126
-0.0556993356621265,0.73099681215859
-0.074624902156156,0.730190680060238
-0.0930726816926415,0.730276545275946
-0.110928687939499,0.731203692884347
-0.128085322079954,0.732909470829776
-0.144442651850401,0.735320063178616
-0.159909597720744,0.738351399314628
-0.174405011825259,0.741910188033594
-0.187858636553826,0.745895063981378
-0.200211931174081,0.750197832515756
-0.211418756456929,0.754704797877471
-0.221445909001419,0.759298158544662
-0.230273498779389,0.763857452829155
-0.237895165323326,0.768261037163171
-0.244318129939481,0.772387579128064
-0.249563083318617,0.776117547097674
-0.25366390991481,0.779334678409861
-0.256667252444004,0.78192740824034
-0.258631921794742,0.783790241829858
-0.259628159519875,0.784825053403282
-0.259736761867449,0.784942296008913
-0.259048075989663,0.784062107587592
-0.257660880520239,0.782115299840662
-0.255681164114137,0.779044217888466
-0.253220816782048,0.774803460279364
-0.250396249910554,0.769360450604342
-0.247326961724471,0.762695853773509
-0.244134065610017,0.75480383189627
-0.240938799168222,0.745692136653883
-0.237861032101805,0.735382037037809
-0.235017791052812,0.723908083325571
-0.232521819302496,0.711317710153665
-0.230480188821604,0.697670683500094
-0.22899298152373,0.683038398283775
-0.228152055734243,0.66750303510127
-0.228039912852824,0.651156586331137
-0.228728677971318,0.634099763421791
-0.230279206825287,0.616440798620992
-0.232740329923988,0.598294155686329
-0.236148243038292,0.579779165220843
-0.240526051449341,0.56101860119285
-0.24588347349422,0.542137215912833
-0.252216707011151,0.523260251244582
-0.259508460309259,0.504511944116083
-0.267728147290739,0.486014044464872
-0.276832244360568,0.46788436360151
-0.286764804794929,0.450235370605602
-0.297458124328066,0.433172853785621
-0.308833549881598,0.416794663444005
-0.320802421622679,0.401189551201971
-0.333267136918818,0.386436119966372
-0.346122323277451,0.372601897277785
-0.359256106035277,0.359742543281333
-0.372551455412173,0.34790120292754
-0.385887596580975,0.337108010259702
-0.399141465639408,0.327379750798141
-0.412189193813128,0.318719686112521
-0.424907601876052,0.311117542704675
-0.437175686650016,0.30454966532983
-0.448876081541828,0.298979332888009
-0.459896473390829,0.294357233044005
-0.470130958430297,0.290622089807511
-0.479481320904974,0.287701436448242
-0.487858218825765,0.285512524356702
-0.495182262469732,0.283963356810997
-0.501384972535355,0.282953835093906
-0.506409606323709,0.282377003040616
-0.510211841918117,0.282120374902667
-0.512760312058374,0.282067330402331
-0.514036981230083,0.282098560035987
-0.514037361392646,0.282093543075116
-0.512770563728058,0.281932040316609
-0.51025918578303,0.281495583455026
-0.506539035374927,0.280668942990458
-0.50165869461339,0.279341556846164
-0.495678929330147,0.277408902347097
-0.48867195108594,0.274773794897937
-0.480720540712917,0.271347597589019
-0.471917044031455,0.26705132703977
-0.462362251931916,0.26181664204879
-0.45216417841538,0.255586703042283
-0.441436751425899,0.248316891880903
-0.430298432365314,0.239975383280131
-0.418870781047237,0.230543560900498
-0.40727698350901,0.220016273049537
-0.395640360551148,0.208401924884182
-0.384082875107635,0.195722405987067
-0.372723656564508,0.1820128541885
-0.361677559938298,0.167321258493672
-0.351053777402673,0.151707905927732
-0.340954519016034,0.135244679005976
-0.33147377866272,0.118014212349673
-0.322696200185981,0.100108918677832
-0.314696057474569,0.0816298959908249
-0.307536360881433,0.0626857292040253
-0.301268100819425,0.0433912007708339
-0.295929637713608,0.0238659259392822
-0.291546245713146,0.00423292920125834
-0.288129815699145,-0.0153828207927093
-0.285678721191123,-0.0348559000759694
-0.284177848777259,-0.0540619239000104
-0.283598792696408,-0.072879028825765
-0.283900211207147,-0.0911893243882763
-0.285028340415157,-0.108880296720313
-0.286917659318795,-0.125846147103645
-0.289491697997015,-0.141989049206534
-0.292663979126165,-0.157220309752969
-0.296339081393605,-0.171461418541347
-0.300413811896364,-0.184644975073393
-0.304778473290003,-0.196715480551836
-0.309318210302607,-0.207629985639546
-0.313914419265349,-0.21735858612365
-0.318446203546028,-0.225884760474293
-0.322791857214692,-0.233205545206859
-0.326830358927631,-0.239331545925219
-0.330442857891949,-0.244286783918164
-0.333514133868871,-0.248108380177225
-0.335934013489075,-0.250846080677537
-0.337598725683476,-0.252561628690188
-0.338412179771912,-0.253327991751209
-0.338287150690869,-0.253228452676632
-0.337146356968545,-0.252355575663203
-0.334923418357309,-0.250810060030591
-0.331563681494384,-0.248699495524725
-0.327024903563383,-0.246137034296734
-0.321277785652986,-0.243239995683318
-0.314306349333372,-0.240128420730026
-0.306108151874111,-0.236923594008855
-0.296694337485777,-0.233746550678538
-0.286089523957931,-0.230716586914896
-0.274331526064095,-0.227949791797699
-0.261470919085701,-0.225557618479866
-0.247570447747648,-0.223645511987984
-0.232704287734521,-0.222311610315553
-0.216957168745926,-0.221645534580637
-0.200423369730049,-0.221727282938374
-0.183205598486049,-0.22262624167926
-0.165413769229447,-0.224400325521557
-0.147163692953177,-0.227095257537845
-0.12857569647546,-0.230743997460653
-0.109773186931211,-0.235366325310913
-0.090881179125909,-0.240968585407458
-0.0720248036215574,-0.247543593868877
-0.0533278136582068,-0.255070710734374
-0.0349111090285906,-0.263516075831919
-0.0168912948175524,-0.272833005534216
0.000620707505281953,-0.282962545589931
0.0175209797867271,-0.293834173323007
0.0337138416723941,-0.305366640679631
0.0491129848919179,-0.317468947892647
0.0636424935851026,-0.330041435947546
0.077237738290384,-0.342976984592006
0.0898461327506295,-0.356162301349662
0.101427744356548,-0.369479285894035
0.111955750824665,-0.382806453223639
0.121416737573375,-0.39602039836545
0.12981083219431,-0.408997284829672
0.137151674393775,-0.421614338750346
0.143466221776172,-0.433751330577201
0.148794393834058,-0.445292026335156
0.153188558473443,-0.456125590837171
0.156712867314387,-0.46614792581926
0.159442447842646,-0.475262926756305
0.161462462225767,-0.483383643104336
0.162867044225594,-0.490433327887061
0.163758127118882,-0.496346363887546
0.164244176860798,-0.501069055203695
0.164438845876272,-0.504560274560308
0.164459563827713,-0.506791958521381
0.164426082472589,-0.507749444592399
0.164458992281707,-0.507431646121565
0.164678228831816,-0.505851062877652
0.165201587110289,-0.503033627176722
0.166143261773613,-0.499018387426068
0.167612431086387,-0.493857032927135
0.169711901737288,-0.487613265705964
0.17253683098953,-0.480362026996475
0.176173541684602,-0.472188587766094
0.18069844449093,-0.463187514323458
0.186177080487352,-0.453461521564156
0.19266329571053,-0.443120227774255
0.200198557693606,-0.432278826106216
0.208811422299779,-0.421056688853153
0.218517157330123,-0.409575921463029
0.229317527481918,-0.397959883844346
0.241200743275166,-0.386331696911792
0.254141574574623,-0.374812752499396
0.268101627336664,-0.363521244727709
0.283029780228984,-0.352570740651019
0.298862775830443,-0.342068807533672
0.315525959241982,-0.332115713417063
0.332934155150124,-0.322803216749093
0.35099267270391,-0.314213459766673
0.369598426014651,-0.306417979062338
0.388641156684293,-0.299476845343435
0.408004743529716,-0.293437942824046
0.427568583611778,-0.288336396994716
0.447209027812379,-0.284194157713856
0.466800853540592,-0.281019742679182
0.486218756698236,-0.278808144390621
0.505338844801376,-0.277540901731495
0.52404011314023,-0.277186335296376
0.542205886065742,-0.277699943606273
0.559725205914418,-0.279024955398758
0.57649415271852,-0.281093031285947
0.592417078688877,-0.283825106260079
0.60740774249203,-0.287132362816584
0.621390329559783,-0.290917322878934
0.63430034605255,-0.295075045267367
0.646085375631514,-0.29949441417231
0.656705689859918,-0.304059502988546
0.666134704830396,-0.308650996951297
0.674359278481921,-0.31314765730154
0.681379845003597,-0.317427809203598
0.687210384700061,-0.321370835349723
0.691878229690455,-0.324858657117181
0.695423707805606,-0.327777185294373
0.697899629012075,-0.330017722761852
0.699370620603131,-0.33147830209714
0.699912319232441,-0.332064941862163
0.699610429603909,-0.331692806319052
0.698559661249642,-0.330287254492263
0.696862556307795,-0.327784765838025
0.694628222535086,-0.324133731279895
0.691970986938998,-0.319295100003348
0.689008986378219,-0.313242874153162
0.685862712244852,-0.305964445423508
0.682653526899289,-0.297460769449792
0.679502169871404,-0.287746375880072
0.676527271965877,-0.276849213998429
0.673843895313424,-0.264810335768743
0.671562117094682,-0.2516834201408
0.669785674133271,-0.237534144387338
0.668610684815603,-0.222439410097542
0.668124463856286,-0.20648643321654
0.66840444430083,-0.189771709170808
0.669517219855597,-0.17239986563555
0.671517719174195,-0.154482416863892
0.674448522127665,-0.136136434692662
0.678339326362236,-0.117483152350773
0.683206570624008,-0.0986465180119733
0.689053219426919,-0.0797517156435656
0.69586871168174,-0.0609236710997615
0.703629073913499,-0.0422855615872415
0.712297196696726,-0.0239573465896185
0.721823270956604,-0.0060543380768909
0.73214537884341,0.0113141726509326
0.743190232011253,0.0280462148243543
0.754874048342702,0.0440483489971642
0.767103556480256,0.0592367740807746
0.779777115974087,0.0735383171889628
0.792785939451986,0.0868912942844325
0.80601540197888,0.0992462311869641
0.819346421714847,0.110566436197944
0.832656895114993,0.120828417397348
0.845823169252318,0.130022139554694
0.858721533394049,0.13815111754243
0.871229711728044,0.145232345124899
0.883228339121784,0.15129605999434
0.894602402002401,0.156385347913204
0.905242626869339,0.160555590775096
0.915046799586942,0.163873765291315
0.923920999444243,0.166417600823184
0.931780733003857,0.168274606590186
0.938551953978094,0.169540980069535
0.944171956753815,0.170320409845001
0.94859013272117,0.170722787444106
0.951768580226604,0.170862843807541
0.953682560747212,0.170858726949571
0.954320795750069,0.170830538082055
