-0.96643709825528,1.00689580587409
-0.956160587107988,1.00451051658575
-0.945676899935514,1.00277570188737
-0.935063939065636,1.00144677032744
-0.924350691115116,1.00043271206234
-0.913554489227043,0.999679105886091
-0.902687402945987,0.999148056815174
-0.891758559590442,0.998810907630459
-0.880775232492868,0.998644822108757
-0.869743431540835,0.998630930889345
-0.85866825634691,0.998753222619598
-0.847554122751567,0.998997832799421
-0.836404915985717,0.999352562893865
-0.82522409863765,0.999806541347227
-0.814014789360106,1.00034997646493
-0.802779821859566,1.00097397120369
-0.791521790148621,1.00167038109181
-0.780243083955725,1.00243170305245
-0.768945916911181,1.00325098690754
-0.757632349320005,1.00412176387742
-0.746304306804009,1.00503798804989
-0.734963595740695,1.00599398790641
-0.723611916182561,1.00698442575915
-0.712250872769073,1.0080042634904
-0.700881984020915,1.00904873337129
-0.689506690316913,1.01011331301643
-0.678126360787991,1.01119370373888
-0.66674229931315,1.01228581172442
-0.655355749764899,1.01338573156236
-0.643967900622784,1.01448973176039
-0.632579889051299,1.01559424194107
-0.621192804520951,1.01669584147269
-0.609807692037391,1.01779124933072
-0.598425555032482,1.01887731502063
-0.587047357962295,1.01995101042097
-0.575674028649823,1.02100942242787
-0.564306460404337,1.02204974630088
-0.552945513944519,1.02306927962481
-0.541592019148509,1.02406541681516
-0.530246776650705,1.02503564410456
-0.51891055930243,1.0259775349567
-0.507584113511224,1.02688874586133
-0.496268160471622,1.02776701246997
-0.484963397298573,1.02861014603725
-0.473670498073318,1.02941603013724
-0.462390114810269,1.03018261762761
-0.451122878352486,1.03090792783814
-0.43986939920239,1.03159004396255
-0.428630268293636,1.03222711063494
-0.417406057709395,1.03281733167469
-0.406197321351696,1.03335896798483
-0.395004595566017,1.03385033559104
-0.383828399724844,1.03428980380945
-0.372669236773538,1.03467579353273
-0.361527593741527,1.03500677562514
-0.350403942221514,1.0352812694179
-0.339298738819155,1.03549784129738
-0.328212425575413,1.03565510337896
-0.317145430363578,1.03575171226058
-0.306098167262781,1.03578636784994
-0.295071036909645,1.03575781226046
-0.284064426829565,1.03566482877112
-0.273078711749005,1.03550624084598
-0.262114253890042,1.03528091120934
-0.251171403248317,1.03498774097309
-0.240250497855417,1.03462566881289
-0.229351864026672,1.03419367019016
-0.218475816595228,1.03369075661716
-0.207622659133206,1.03311597496261
-0.1967926841607,1.03246840679547
-0.18598617334329,1.03174716776487
-0.175203397678698,1.03095140701399
-0.164444617673176,1.0300803066263
-0.153710083508154,1.02913308110229
-0.143000035197645,1.02810897686531
-0.132314702736868,1.02700727179491
-0.121654306242501,1.02582727478646
-0.111019056084971,1.02456832533587
-0.100409153013117,1.0232297931481
-0.0898247882715856,1.02181107776862
-0.0792661437112473,1.02031160823671
-0.068733391892927,1.01873084275982
-0.0582266961847115,1.01706826840797
-0.0477462108530731,1.01532340082773
-0.0372920811480358,1.01349578397479
-0.0268644433825885,1.0115849898646
-0.0164634250065353,1.00959061834053
-0.00608914467495645,1.00751229685893
0.00425828768856126,1.00534968029058
0.0145787708337787,1.00310245073813
0.0248722121306114,1.00077031736911
0.0351385275207705,0.998353016264071
0.0453776414741275,0.995850310279612
0.0555894869497096,0.993261988925883
0.0657740053612369,0.990587868258405
0.0759311465471293,0.987827790783889
0.0860608687449152,0.984981625379893
0.0961631385699891,0.982049267228122
0.106237930998672,0.979030637761247
0.11628522935554,0.97592568462311
0.126305025304983,0.972734381642244
0.136297318847005,0.969456728818651
0.14626211831721,0.966092752323795
0.156199440391024,0.962642504513835
0.166109310092127,0.9591060639561
0.175991760805123,0.955483535468885
0.185846834292484,0.951775050174632
0.19567458071579,0.94798076556663
0.205475058661322,0.944100865589359
0.215248335170051,0.940135560732663
0.224994485772107,0.936085088139953
0.234713594525777,0.931949711730672
0.244405754061148,0.927729722337294
0.254071065628458,0.923425437857164
0.263709639151293,0.919037203419499
0.273321593284734,0.914565391567961
0.282907055478585,0.910010402459175
0.292466162045835,0.905372664077679
0.301999058236508,0.900652632467795
0.311505898317076,0.895850791982961
0.320986845655626,0.890967655553134
0.330442072812984,0.886003764970887
0.339871761640018,0.880959691196928
0.349276103381376,0.875836034685788
0.358655298785898,0.8706334257325
0.368009558224008,0.865352524841172
0.377339101812388,0.859994023116421
0.386644159546254,0.854558642678699
0.395924971439621,0.849047137104666
0.405181787673918,0.843460291893814
0.414414868755396,0.837798924962683
0.423624485681778,0.832063887168084
0.432810920118644,0.826256062860907
0.441974464586088,0.820376370472176
0.451115422656232,0.814425763133176
0.460234109162221,0.808405229331645
0.469330850419383,0.802315793606164
0.478405984459309,0.796158517281076
0.487459861277637,0.789934499244486
0.496492843096446,0.783644876772089
0.505505304642198,0.777290826399839
0.51449763344029,0.77087356484875
0.523470230127343,0.764394350005401
0.532423508782489,0.757854481962084
0.541357897279019,0.751255304120882
0.550273837657894,0.744598204366386
0.559171786524771,0.737884616312247
0.568052215472354,0.731116020627232
0.57691561153007,0.724293946447092
0.585762477643279,0.717419972879149
0.594593333184468,0.710495730607281
0.603408714499115,0.703522903605805
0.61220917548925,0.696503230971681
0.620995288238042,0.689438508885544
0.629767643679148,0.682330592713275
0.638526852314987,0.675181399261179
0.64727354498862,0.667992909199461
0.65600837371446,0.660767169670442
0.664732012573746,0.653506297100075
0.673445158681429,0.646212480233715
0.682148533232042,0.638887983419843
0.690842882633127,0.631535150168712
0.699528979736004,0.624156407016629
0.708207625175075,0.616754267730967
0.716879648828477,0.609331337896234
0.725545911414894,0.601890319927597
0.734207306243596,0.594434018565525
0.742864761137575,0.586965346913883
0.751519240552903,0.579487333094131
0.760171747921443,0.57200312760078
0.768823328248847,0.564516011458367
0.777475071005621,0.557029405298601
0.786128113356258,0.549546879498929
0.794783643780305,0.542072165551665
0.803442906150271,0.534609168867485
0.812107204345158,0.527161983260609
0.820777907495889,0.519734907417993
0.829456455981288,0.512332463725006
0.838144368322043,0.504959419910541
0.846843249157618,0.497620814092287
0.85555479854051,0.490321983958089
0.864280822848222,0.483068601026477
0.873023247702567,0.475866711209654
0.881784133408559,0.468722783287288
0.890565693596503,0.461643767437436
0.899370317994851,0.454637166736938
0.908200600616195,0.447711125657508
0.917059375167016,0.440874541242415
0.925949760300054,0.43413720518624
0.9348752186036,0.427509989044686
0.943839635308564,0.421005091352703
0.952847426255418,0.414636376610384
0.961903691056733,0.408419856170356
0.971014439600076,0.40237439939334
0.980186945217909,0.396522842502526
0.989430335228724,0.390893842717048
0.998756679177093,0.385525295020413
1.0081833102061,0.380471620618609
1.01773921493252,0.375823829355257
1.02750229568411,0.371826512681872
-0.96643709825528,1.00689580587409
-0.956674017503683,1.00289848920071
-0.947118112777269,0.998250697937355
-0.937691481748259,0.993197023535552
-0.92836513779989,0.987828475838916
-0.919121747789076,0.982199476053439
-0.909949242171242,0.976347919162624
-0.900838493627899,0.970302462385608
-0.891782228826585,0.964085941945581
-0.88277443787973,0.957717227203261
-0.873810021174766,0.951212329511278
-0.86488456287122,0.944585113369724
-0.855994177738182,0.937847777313549
-0.847135403187361,0.931011192898456
-0.838305120566017,0.924085151819026
-0.829500496167669,0.917078551118528
-0.820718935979725,0.909999535268676
-0.811958050273733,0.902855607346311
-0.803215625419388,0.895653717529487
-0.794489601111676,0.888400334597875
-0.785778051728784,0.881101504463677
-0.777079170893209,0.873762898645423
-0.768391258552454,0.866389854830958
-0.759712710067055,0.858987411137971
-0.751042006916324,0.851560335295355
-0.742377708721438,0.844113149688479
-0.733718446351471,0.836650153004299
-0.725062915927424,0.829175439057035
-0.716409873576787,0.821692913257363
-0.707758130820013,0.814206307097597
-0.69910655049261,0.806719190955184
-0.690454043124069,0.799234985461834
-0.681799563708741,0.791756971642081
-0.673142108814762,0.784288299990439
-0.66448071398606,0.776831998628367
-0.655814451399643,0.76939098065973
-0.647142427746241,0.761968050824997
-0.638463782307171,0.754565911539335
-0.629777685204293,0.747187168387252
-0.621083335803208,0.739834335136122
-0.612379961252595,0.732509838322249
-0.603666815144912,0.725216021455889
-0.594943176285626,0.717955148885522
-0.586208347559786,0.710729409356503
-0.577461654886154,0.703540919294785
-0.568702446250314,0.696391725842689
-0.559930090809208,0.68928380967042
-0.551143978060416,0.682219087584284
-0.542343517070281,0.675199414950159
-0.533528135755634,0.668226587948683
-0.524697280214445,0.661302345676815
-0.515850414101236,0.654428372108872
-0.506987018043521,0.647606297928732
-0.498106589095938,0.640837702243717
-0.48920864022906,0.634124114189578
-0.480292699850185,0.627467014435082
-0.471358311353655,0.62086783659388
-0.462405032698509,0.614327968550563
-0.453432436011456,0.607848753707214
-0.444440107213364,0.601431492156125
-0.435427645667612,0.595077441783875
-0.426394663848803,0.588787819311478
-0.417340787030476,0.582563801274888
-0.40826565299055,0.5764065249498
-0.399168911733387,0.570317089224319
-0.390050225227398,0.564296555422788
-0.380909267157254,0.558345948083788
-0.37174572268981,0.552466255695057
-0.362559288252944,0.54665843138788
-0.353349671326562,0.540923393593281
-0.344116590245084,0.53526202666215
-0.334859774010787,0.529675181451298
-0.32557896211742,0.524163675877265
-0.316273904383554,0.518728295439543
-0.306944360795174,0.513369793714792
-0.297590101357064,0.508088892823464
-0.288210905952542,0.502886283870176
-0.278806564211184,0.497762627359036
-0.26937687538415,0.492718553585077
-0.259921648226792,0.48775466300283
-0.250440700888242,0.482871526573003
-0.240933860807674,0.478069686088169
-0.231400964617001,0.473349654478285
-0.221841858049751,0.468711916096789
-0.2122563958559,0.464156926988003
-0.202644441722459,0.459685115136465
-0.193005868199624,0.455296880698801
-0.183340556632314,0.450992596218669
-0.173648397096944,0.446772606825293
-0.163929288343273,0.442637230416011
-0.154183137741217,0.438586757823302
-0.144409861232488,0.434621452966605
-0.134609383286956,0.430741552989334
-0.12478163686365,0.426947268381332
-0.114926563376289,0.423238783087079
-0.105044112663293,0.419616254599864
-0.0951342429621904,0.416079814042129
-0.085196920888376,0.412629566232169
-0.0752321214181709,0.409265589737313
-0.0652398278761496,0.40598793691372
-0.0552200319267056,0.402796633932854
-0.0451727335698386,0.399691680794717
-0.0350979411411553,0.396673051327842
-0.0249956713160813,0.393740693176071
-0.0148659491182953,0.390894527772075
-0.00470880793240318,0.388134450297559
0.00547571047912441,0.385460329630081
0.0156875559547062,0.382872008276352
0.0259266699080635,0.380369302291893
0.0361929852982223,0.377952001186858
0.0464864265950553,0.375619867817838
0.0568069097402725,0.373372638265388
0.0671543421037904,0.371210021697034
0.0775286224353691,0.369131700215434
0.0879296408114225,0.367137328691368
0.0983572785768696,0.365226534581175
0.108811408281907,0.36339891772823
0.119291893613545,0.361654050147995
0.129798589321761,0.359991475796149
0.140331341140081,0.358410710319251
0.150889985700419,0.356911240787347
0.161474350441951,0.355492525407864
0.172084253513804,0.354153993220092
0.182719503671335,0.352895043769501
0.193379900165702,0.351715046761058
0.204065232626479,0.350613341690655
0.214775280936988,0.349589237453676
0.22550981510201,0.348642011929667
0.236268595107532,0.347770911541969
0.247051370772124,0.34697515079109
0.257857881589534,0.34625391176049
0.26868785656204,0.345606343593358
0.279541014024062,0.345031561938804
0.290417061455506,0.344528648365805
0.301315695284251,0.344096649743074
0.312236600677151,0.343734577582873
0.323179451318876,0.343441407346624
0.334143909177839,0.343216077709981
0.345129624258399,0.34305748978484
0.356136234338479,0.342964506295507
0.367163364691615,0.342935950706025
0.378210627792411,0.342970606295384
0.389277623004247,0.343067215177002
0.400363936247989,0.343224477258588
0.411469139650348,0.343441049138059
0.422592791170361,0.343715542930824
0.433734434202372,0.344046525023233
0.444893597153677,0.344432514746516
0.456069792994851,0.344871982964925
0.46726251878053,0.345363350571138
0.478471255138229,0.345904986881275
0.48969546572247,0.34649520792102
0.500934596631223,0.347132274593414
0.51218807578132,0.347814390717819
0.523455312239103,0.348539700928358
0.534735695502151,0.349306288418723
0.546028594727407,0.35011217251871
0.557333357900455,0.350955306085999
0.568649310940058,0.351833572694634
0.579975756731264,0.352744783599263
0.591311974079539,0.353686674451405
0.602657216577343,0.354656901740804
0.614010711373353,0.355653038931157
0.625371657833171,0.356672572255088
0.636739226078657,0.35771289612809
0.648112555391129,0.358771308134996
0.659490752461315,0.359845003535337
0.670872889466225,0.360931069225248
0.682258001949785,0.36202647708327
0.693645086480133,0.36312807661489
0.705033098051617,0.364232586795572
0.716420947193733,0.365336586993607
0.727807496741984,0.366436506831548
0.739191558216825,0.367528614817081
0.750571887745747,0.368609005539531
0.761947181449749,0.369673585184675
0.773316070197906,0.370718055065561
0.784677113611395,0.371737892796817
0.796028793169529,0.372728330649551
0.807369504232842,0.373684330506075
0.818697546748839,0.374600554678542
0.830011114340015,0.375471331648423
0.841308281384558,0.376290615503515
0.852586987577454,0.37705193746415
0.8638450192884,0.377748347352271
0.87507998678894,0.378372342091038
0.886289296066484,0.378915777208738
0.897470113414551,0.379369755662099
0.908619320180401,0.379724485756543
0.919733453775744,0.379969095936366
0.930808628969669,0.380091387666619
0.941840429921702,0.380077496447207
0.952823757019276,0.379911410925505
0.963752600374821,0.37957426174079
0.974619686655876,0.379043212669873
0.98541588854395,0.378289606493619
0.99612913649447,0.377275548228524
1.00674209736435,0.375946616668597
1.01722578453682,0.374211801970219
1.02750229568411,0.371826512681872
