-1.00622895622896,0.54495336869329
-0.997797732929521,0.545168753366195
-0.98932130490036,0.54603059579212
-0.980816670023682,0.547295814930555
-0.972290153028301,0.548873962945538
-0.96374553591577,0.55071095469511
-0.955185452197854,0.552769129206397
-0.946611893407915,0.55502000622548
-0.938026446549216,0.557440890548337
-0.929430422947925,0.560013029337086
-0.920824935312945,0.56272051011305
-0.912210947157671,0.565549553992757
-0.903589306219253,0.568488037770143
-0.894960768016423,0.571525157023973
-0.886326013022966,0.574651180525736
-0.877685659538879,0.577857266173542
-0.8690402735642,0.581135319789748
-0.860390376525232,0.584477884630817
-0.851736451424578,0.587878053437713
-0.843078947810063,0.591329397377037
-0.834418285842337,0.594825907871546
-0.825754859663564,0.598361948425702
-0.817089040216346,0.601932214313164
-0.808421177624655,0.605531698527832
-0.799751603221799,0.609155662782683
-0.791080631290933,0.612799612619166
-0.782408560569297,0.616459275895751
-0.773735675556498,0.620130584078503
-0.765062247659038,0.623809655873597
-0.756388536196965,0.627492782831581
-0.74771478929365,0.631176416622945
-0.739041244665882,0.634857157739206
-0.730368130328453,0.638531745416941
-0.72169566522497,0.642197048616699
-0.713024059794724,0.645850057916399
-0.704353516483861,0.649487878201292
-0.69568423020781,0.653107722050856
-0.687016388770905,0.656706903737986
-0.678350173248236,0.660282833768287
-0.669685758334057,0.663833013897501
-0.661023312660502,0.667355032573768
-0.65236299908981,0.670846560758574
-0.643704974982871,0.674305348086332
-0.635049392446538,0.677729219327719
-0.626396398561826,0.681116071126219
-0.617746135594885,0.684463868981106
-0.609098741192384,0.687770644453293
-0.600454348562773,0.69103449257321
-0.591813086644697,0.69425356943231
-0.583175080263725,0.697426089941804
-0.574540450278395,0.700550325744074
-0.565909313716496,0.703624603263749
-0.557281783902401,0.706647301886815
-0.548657970576169,0.709616852257318
-0.540037980005083,0.712531734682289
-0.531421915088215,0.715390477636444
-0.522809875454541,0.718191656359044
-0.514201957555099,0.720933891536016
-0.50559825474961,0.723615848061109
-0.496998857387986,0.726236233870415
-0.488403852887049,0.728793798845104
-0.479813325802825,0.731287333777709
-0.471227357898674,0.733715669397667
-0.462646028209569,0.736077675452235
-0.454069413102735,0.738372259839205
-0.445497586334905,0.740598367788167
-0.436930619106383,0.742754981087314
-0.428368580112122,0.744841117353055
-0.419811535589978,0.74685582933992
-0.411259549366313,0.748798204288418
-0.402712682899089,0.75066736330874
-0.394170995318597,0.752462460798316
-0.385634543465945,0.754182683891442
-0.377103381929419,0.755827251939271
-0.368577563078825,0.757395416018662
-0.360057137097922,0.758886458468428
-0.351542152015025,0.760299692451691
-0.343032653731863,0.761634461543115
-0.334528686050789,0.762890139339888
-0.326030290700387,0.764066129095433
-0.317537507359572,0.76516186337486
-0.309050373680216,0.766176803731295
-0.300568925308385,0.767110440402247
-0.29209319590422,0.767962292025278
-0.283623217160519,0.768731905372249
-0.275159018820067,0.769418855101528
-0.266700628691748,0.770022743527554
-0.258248072665482,0.770543200407214
-0.249801374726022,0.770979882742542
-0.241360556965645,0.77133247459929
-0.232925639595751,0.771600686940942
-0.224496640957423,0.771784257477822
-0.21607357753094,0.771882950530938
-0.207656463944293,0.771896556910268
-0.199245312980704,0.771824893807235
-0.190840135585169,0.77166780470111
-0.182440940870041,0.771425159279161
-0.174047736119667,0.771096853370374
-0.165660526794083,0.770682808892591
-0.157279316531781,0.770182973812965
-0.148904107151547,0.769597322121645
-0.14053489865338,0.768925853818633
-0.132171689218494,0.768168594913778
-0.123814475208399,0.767325597439927
-0.115463251163059,0.766396939479237
-0.107118009798125,0.765382725202724
-0.0987787420012447,0.764283084923119
-0.0904454368274222,0.76309817516115
-0.0821180814934363,0.761828178725396
-0.0737966613712959,0.760473304805878
-0.0654811599807203,0.759033789081587
-0.0571715589806287,0.757509893842201
-0.0488678381596189,0.755901908124234
-0.0405699754254163,0.754210147861936
-0.0322779467932667,0.752434956053272
-0.0239917263732494,0.750576702941354
-0.015711286356481,0.748635786211745
-0.00743659700017724,0.746612631206076
0.000832373388460705,0.744507691152485
0.00909565846957366,0.742321447413412
0.0173532938892274,0.740054409751347
0.0256053172992952,0.737707116613163
0.0338517683786897,0.735280135433752
0.0420926888559968,0.73277406295969
0.0503281225335683,0.730189525593788
0.0585581153131351,0.727527179761383
0.06678271522301,0.724787712299354
0.0750019724469525,0.721971840868886
0.08321593935477,0.719080314393123
0.0914246705347472,0.716113913520908
0.0996282228279918,0.713073451117948
0.107826655364796,0.709959772786811
0.116020029603121,0.706773757417308
0.124208409369329,0.703516317768928
0.132391860901276,0.700188401087144
0.140570452893914,0.696790989755543
0.14874425654755,0.693325101985934
0.156913345618913,0.689791792548728
0.165077796475232,0.686192153546132
0.173237688151477,0.682527315230888
0.181393102411009,0.678798446873561
0.189544123809854,0.675006757681617
0.197690839764834,0.671153497773885
0.20583334062586,0.667239959214275
0.213971719752656,0.663267477109037
0.222106073596257,0.659237430772243
0.23023650178564,0.655151244964634
0.238363107219877,0.651010391211492
0.246485996166251,0.646816389205788
0.254605278364821,0.642570808303475
0.26272106713996,0.638275269118567
0.270833479519457,0.633931445226434
0.27894263636185,0.629541064984696
0.287048662492708,0.62510591348214
0.295151686850676,0.620627834627315
0.303251842644204,0.616108733389789
0.311349267519961,0.611550578208652
0.319444103744097,0.606955403584626
0.327536498397627,0.60232531287423
0.335626603587404,0.597662481306786
0.343714576674318,0.59296915924788
0.351800580520609,0.588247675736027
0.359884783758408,0.583500442323089
0.367967361081973,0.578729957253319
0.376048493566391,0.573938810021118
0.384128369015996,0.569129686353586
0.392207182346219,0.564305373671248
0.400285136003205,0.559468767088852
0.408362440426245,0.554622876028478
0.416439314558947,0.549770831529579
0.424515986416101,0.544915894355576
0.432592693714497,0.540061464014954
0.440669684577506,0.535211088837221
0.448747218325175,0.530368477271831
0.456825566364008,0.525537510612608
0.464905013193612,0.520722257393486
0.472985857551224,0.515926989755997
0.481068413720003,0.511156202158691
0.489153013033253,0.50641463288859
0.497240005614949,0.501707288951796
0.505329762407692,0.497039475074648
0.513422677553646,0.492416827752686
0.521519171213461,0.487845355563152
0.529619692934962,0.483331487339444
0.537724725720752,0.4788821303406
0.545834790997135,0.474504741310155
0.553950454764147,0.470207414425754
0.562072335321786,0.465998991789285
0.570201113143836,0.461889204629262
0.578337543749032,0.457888857366917
0.586482474874521,0.454010073208314
0.594636870033699,0.450266631036927
0.602801841935469,0.446674443331431
0.610978701905999,0.443252262929709
0.619169036948552,0.440022785035784
0.627374838596489,0.437014489903575
0.635598740361578,0.434265038505952
0.643844524245369,0.43182851598488
0.652118514976677,0.429795370176316
0.66043771043771,0.428408682120772
-1.00622895622896,0.54495336869329
-0.997909760767923,0.543566680637745
-0.989635770036614,0.541533534829182
-0.981389986152824,0.539097012308109
-0.973166084387735,0.536347560910487
-0.964960282739798,0.533339265778277
-0.956769947697245,0.530109787884352
-0.948593087726715,0.526687607482631
-0.940428115824945,0.523095419777135
-0.932273720665767,0.519351977605748
-0.924128789540277,0.515473193447145
-0.915992358935082,0.5114728461848
-0.907863581113031,0.507363059024776
-0.899741700555393,0.503154636388308
-0.89162603678838,0.498857309503906
-0.883515971511998,0.494479920473462
-0.875410938726208,0.490030563474617
-0.867310417004707,0.48551669525091
-0.859213923344892,0.480945223061375
-0.851121008198938,0.476322575739413
-0.843031251406195,0.471654761862266
-0.834944258824499,0.466947417925471
-0.826859659511249,0.462205848655371
-0.81877710334247,0.457435061058065
-0.810696258984858,0.452639793420575
-0.802616812155254,0.447824540201454
-0.794538464116421,0.442993573542231
-0.786460930368752,0.43815096197684
-0.778383939505743,0.433300586799108
-0.770307232207346,0.428446156458486
-0.762230560350193,0.423591219284483
-0.754153686217491,0.418739174785584
-0.746076381794451,0.41389328372521
-0.737998428137465,0.409056677142814
-0.729919614807242,0.404232364460476
-0.721839739357636,0.399423240792944
-0.713758606873218,0.394632093560742
-0.705676029549654,0.389861608490973
-0.697591826311854,0.385114375078034
-0.689505822465564,0.380392891566182
-0.68141784937865,0.375699569507276
-0.673327744188873,0.371036737939832
-0.665235349535343,0.366406647229436
-0.657140513311207,0.36181147260541
-0.64904308843545,0.357253317424272
-0.640942932641922,0.352734216186746
-0.632839908283954,0.348256137331922
-0.624733882153096,0.343820985829366
-0.616624725310703,0.339430605587627
-0.608512312931206,0.335086781695495
-0.600396524156067,0.330791242510587
-0.592277241957497,0.326545661608274
-0.584154353011122,0.322351659602569
-0.576027747576886,0.318210805849428
-0.567897319387503,0.314124620041819
-0.559762965543902,0.310094573705025
-0.551624586417106,0.306122091599787
-0.54348208555608,0.302208553040177
-0.5353353696011,0.298355293132445
-0.527184348202255,0.294563603940501
-0.519028933942722,0.290834735583174
-0.510869042266478,0.28716989726793
-0.502704591410159,0.283570258265334
-0.494535502338795,0.280036948828127
-0.48636169868516,0.276571061058518
-0.478183106692522,0.273173649726918
-0.469999655160575,0.269845733045134
-0.461811275394367,0.266588293396754
-0.453617901156041,0.263402278027251
-0.445419468619238,0.260288599696114
-0.437215916325993,0.257248137293154
-0.429007185146016,0.254281736420939
-0.420793218238198,0.251390209945175
-0.412573961014256,0.248574338514708
-0.404349361104381,0.245834871052678
-0.396119368324814,0.243172525220274
-0.387883934647243,0.240587987854372
-0.379643014169935,0.23808191538031
-0.371396563090541,0.235654934200898
-0.363144539680473,0.233307641062715
-0.354886904260819,0.23104060340065
-0.346623619179706,0.228854359661577
-0.338354648791069,0.226749419607986
-0.330079959434765,0.224726264602317
-0.321799519417996,0.222785347872708
-0.313513298997979,0.22092709476079
-0.305221270365829,0.219151902952126
-0.296923407631627,0.217460142689828
-0.288619686810617,0.215852156971861
-0.280310085810525,0.214328261732475
-0.27199458441995,0.212888746008184
-0.26367316429781,0.211533872088665
-0.255345808963824,0.210263875652912
-0.247012503790001,0.209078965890943
-0.238673235993121,0.207979325611338
-0.230327994628187,0.206965111334825
-0.221976770582846,0.206036453374135
-0.213619556572751,0.205193455900284
-0.205256347137866,0.204436196995429
-0.196887138639699,0.203764728692416
-0.188511929259465,0.203179077001097
-0.180130718997163,0.202679241921471
-0.171743509671579,0.202265197443688
-0.163350304921205,0.201936891534901
-0.154951110206077,0.201694246112952
-0.146545932810541,0.201537157006827
-0.138134781846953,0.201465493903794
-0.129717668260306,0.201479100283124
-0.121294604833823,0.201577793336239
-0.112865606195495,0.20176136387312
-0.104430688825601,0.202029576214772
-0.0959898710652237,0.20238216807152
-0.0875431731257642,0.202818850406848
-0.0790906170994978,0.203339307286508
-0.0706322269711785,0.203943195712534
-0.0621680286307267,0.204630145441813
-0.0536980498870261,0.205399758788784
-0.0452223204828609,0.206251610411814
-0.0367408721110298,0.207185247082767
-0.0282537384316738,0.208200187439201
-0.0197609550908585,0.209295921718629
-0.0112625597404571,0.210471911474173
-0.00275859205938284,0.211727589270947
0.00575090622377883,0.21306235836237
0.0142658913066766,0.214475592345634
0.022786317287579,0.2159666347954
0.0313121361381729,0.217534798874791
0.0398432976746996,0.21917936692262
0.0483797495273513,0.220899590015746
0.0569214371078429,0.222694687505322
0.0654683035750671,0.224563846525644
0.0740202897987324,0.226506221474142
0.0825773343208761,0.228520933461007
0.0911393733151368,0.230607069726748
0.0997063405436587,0.232763683025894
0.10827816731149,0.234989790974857
0.116854782418324,0.237284375361827
0.125436112107429,0.239646381416395
0.134022080011579,0.242074717036353
0.142612607095804,0.244568251968958
0.15120761159674,0.247125816943647
0.159807008958364,0.249746202752953
0.168410711763853,0.252428159278046
0.177018629663296,0.255170394455018
0.185630669296969,0.257971573177618
0.194246734213837,0.260830316131773
0.202866724784923,0.263745198556744
0.211490538111156,0.266714748927247
0.220118067925251,0.269737447550313
0.228749204487149,0.272811725069988
0.237383834472479,0.275935960872258
0.246021840853451,0.279108481381752
0.254663102771527,0.282327558240852
0.263307495401138,0.285591406360769
0.271954889803639,0.288898181832956
0.280605152770581,0.292245979687843
0.289258146655292,0.295632831486343
0.297913729191626,0.29905670272773
0.306571753298564,0.302515490055488
0.315232066869256,0.306007018240293
0.323894512542811,0.309529036916561
0.33255892745699,0.313079217045775
0.341225142979659,0.316655147076075
0.349892984416564,0.320254328763206
0.358562270692615,0.323874172612769
0.367232814003479,0.327511992897663
0.375904419433725,0.331165002197362
0.384576884537208,0.334830305397121
0.393249998874636,0.338504893074856
0.401923543502404,0.342185634191116
0.410597290405719,0.345869267982481
0.419271001867792,0.349552394940465
0.427944429765252,0.353231466735559
0.436617314778052,0.356902774918311
0.445289385499688,0.360562438194896
0.453960357430553,0.364206388031379
0.46262993183341,0.36783035228623
0.4712977944251,0.371429836500898
0.479963613872319,0.37500010238836
0.488627040051091,0.378536142942516
0.497287702018817,0.382032653437025
0.505945205633333,0.385483997376349
0.514599130733986,0.388884166183245
0.523249027772955,0.392226731024314
0.531894413747634,0.39550478464052
0.54053476723172,0.398710870288326
0.549169522225177,0.401836893790089
0.557798060428007,0.404874013043919
0.566419701366425,0.407812496821305
0.575033689521699,0.410641540701011
0.583639177156679,0.413349021476976
0.59223520075797,0.415921160265725
0.600820647616669,0.418342044588582
0.609394206406608,0.420592921607665
0.617954290124524,0.422651096118952
0.626498907237056,0.424488087868523
0.635025424232436,0.426066235883507
0.643530059109115,0.427331455021941
0.652006487138275,0.428193297447866
0.66043771043771,0.428408682120772
