-0.111960890772326,-0.135517158320156
-0.11210180584031,-0.135101835495646
-0.144944157382886,-0.197862690694473
-0.153720051740369,-0.177387295824362
-0.191393179695994,-0.210678665137555
-0.144878363877009,-0.195502104335326
-0.176441707373312,-0.220619689389401
-0.0861122305172956,-0.214676574740152
-0.0839505999841864,-0.251513475411441
-0.134841527213168,-0.230914354771641
-0.121504272467681,-0.276486718312124
-0.133714521056011,-0.234146975004914
-0.0948831496992285,-0.286927995898308
-0.117442643870287,-0.240616557927479
-0.11759305338109,-0.226950245454939
-0.0547347455131765,-0.224604615532342
-0.0432788547268002,-0.269380711527157
-0.0305686735111686,-0.227670225872928
0.0141568685780569,-0.272504529142927
-0.0304450951107446,-0.283555842387397
0.0107561434329375,-0.275515924895346
0.0250169648302643,-0.274686435923984
0.0394455246793545,-0.272847287216608
0.0202602980929525,-0.229336232222708
0.0685174083214342,-0.266049245144775
0.0830110626821837,-0.261057819303941
0.0973738465555734,-0.254992033790283
0.0691804344830706,-0.248779549090236
0.143896668042771,-0.200160908619423
0.138887236071873,-0.230350644522498
0.151934401741249,-0.220018305028573
0.198142902016636,-0.227830401017432
0.176366572902224,-0.196290158453521
0.194746698612857,-0.165019219122205
0.198066020625366,-0.168682398830557
0.225496542432863,-0.162136218368931
0.23046996474588,-0.119853680241483
0.24923354882752,-0.135426305288057
0.230928782326618,-0.103222515200945
0.267762436170673,-0.064693046569847
0.196112922676696,-0.0885276762379485
0.272350424461956,-0.0330873641449826
0.199086572740751,0.00350468473182204
0.254890584125288,-0.0302321316917373
0.254500281257916,0.0520543075609851
0.244484004281527,0.0336755302296726
0.248331061888024,0.047630530838403
0.274292631588319,0.0627267818689694
0.213527064033627,0.114894655095261
0.267640984942458,0.110793994411199
0.21356022384619,0.135764081648386
0.164933464710567,0.117388899005178
0.216279517578042,0.145101329443158
0.166094903817154,0.23076787509069
0.13414304484415,0.239185072004932
0.147605027354589,0.22793375356396
0.10390145716591,0.263541245669815
0.112073405148568,0.259277640185878
0.0902401500247486,0.227285093263434
0.0718855497923372,0.286347041600166
0.026792747416215,0.312384375816732
-0.00614744695353872,0.300378504172504
0.00405273878531928,0.317466329659786
-0.0537483682562262,0.369180592392687
-0.0678270323886398,0.337461499384006
-0.0237640738007419,0.341074000231768
-0.0878993281024107,0.348744658120429
-0.171306424237751,0.323911734364774
-0.127099937284568,0.372962963699822
-0.144287700109406,0.332157799283866
-0.198140622175358,0.368503050559218
-0.231207413667054,0.326317747875324
-0.257987657252505,0.318586547296933
-0.260295244862499,0.326883426523744
-0.28029374576428,0.345822040766276
-0.373917973436399,0.290744556545663
-0.360891081267115,0.269766026594528
-0.38495605681377,0.253186996686759
-0.408116927759112,0.234927331020505
-0.430256817189571,0.215035882078773
-0.432368380715114,0.204662921134198
-0.479538638912322,0.195902666514679
-0.466038360222298,0.194931837687279
-0.509460269262234,0.0842605634483686
-0.514721513881072,0.0936195562703003
-0.521272878768629,0.0541074863500739
-0.572135088272226,0.072982471722845
-0.521065509939025,-0.032202554509169
-0.566014772662536,-0.0254954349012554
-0.572360067630267,-0.057335834702323
-0.574817550651222,-0.0773154301512711
-0.581260326442552,-0.103883587397042
-0.621005664344059,-0.131756528116965
-0.55591974321798,-0.23252209152053
-0.603958018729429,-0.23084278616699
-0.606075282435581,-0.246788658235415
-0.533411644840177,-0.245631179525268
-0.536330022607526,-0.346265655680814
-0.530199448259606,-0.384507018499279
-0.558607340269759,-0.412563368696385
-0.470977280279658,-0.464136307985695
-0.482694234541625,-0.447946733537691
-0.461338493349526,-0.4769120354936
-0.438002389693689,-0.504662048138962
-0.376073879338383,-0.523114155646228
-0.367419835531202,-0.517525998797009
-0.356848578724932,-0.57928890276855
-0.336697740432576,-0.579689406475616
-0.257259254572273,-0.642712685149963
-0.279516816809515,-0.673865531106815
-0.243221466620809,-0.612301022338754
-0.157088083272126,-0.686425988269529
-0.16853217889973,-0.675711580864805
-0.116599576194938,-0.696649871765933
-0.0476578923272425,-0.677006249832533
-0.0372925331762435,-0.698804355497273
0.00245604494698326,-0.700477331141651
0.00711168090631945,-0.702369564703326
0.0826814418712871,-0.696170240494934
0.172712135548325,-0.689846600400225
0.162776558439189,-0.681507795709202
0.202354866070653,-0.670276887199802
0.264804023081182,-0.631352579649369
0.279724736864336,-0.640079041407444
0.326906011473741,-0.618641520694362
0.390340748695278,-0.639847619173793
0.343395592447275,-0.595344422720835
0.424066908216888,-0.511562129366691
0.45491362838142,-0.521346039966486
0.523616903595413,-0.483703236198646
0.530645769748208,-0.473415660382625
0.54527670127359,-0.384383255121822
0.565839806669638,-0.386715966370844
0.612506029365684,-0.325631489497782
0.608425270281426,-0.308535066177553
0.596200058435981,-0.2521799737286
0.641147011671763,-0.224572736357492
0.653558306702143,-0.180811734922406
0.70119144415375,-0.159183108676808
0.705365160150672,-0.0925637710964494
0.674030530180733,-0.04443397012911
0.675062878920379,0.0021287247975198
0.711832813678858,0.0101118994147314
0.659888421147212,0.0493974744095545
0.632429969747643,0.0933290702111783
0.604296405489539,0.20982441883122
0.611221774675395,0.247211995372615
0.578117149251154,0.232830157245895
0.601636392123453,0.350483933544707
0.610485778472003,0.337990913955508
0.550167038160549,0.409017499652203
0.521812542915125,0.449338946634209
0.49078729576564,0.487992730040062
0.412751405567631,0.514656911979517
0.426708816113945,0.55222589085312
0.382727809723679,0.592207001575772
0.317867314549857,0.669908080992353
0.299441697502545,0.650267880351885
0.254853012968421,0.675426716967891
0.218774045130097,0.705510842593937
0.134212864693056,0.725614477108118
0.0786655261373683,0.755138785912489
0.0720855442115178,0.770976344445096
-0.0092307636853313,0.775980434313476
-0.0431542651127869,0.764595511761138
-0.131745857651041,0.741003625273643
-0.120566094620057,0.781555116885693
-0.1660793469133,0.738095558697912
-0.274180250064535,0.728916785964118
-0.309859986611508,0.749187390278232
-0.365736370484653,0.702875292637112
-0.369081803379569,0.732789902926753
-0.465983282607503,0.699031253519611
-0.564270277391002,0.711131444020616
-0.524363174250314,0.678215939422149
-0.61800898323424,0.643625199838965
-0.676655369395208,0.575537275900895
-0.738930920625644,0.526653287521759
-0.742088072197882,0.511463513743679
-0.827450771471634,0.518460502968537
-0.870230739170522,0.561609518054952
-1.00952085808412,0.234993687924457
-0.985879913953144,0.201327467727746
-1.0243580595083,0.168865673527414
-0.848542689059657,0.134768705532381
-0.951934468859118,0.182695948340912
-1.10091410276491,-0.0117593887122391
-0.964007464927707,0.105734271978096
-0.886217086130295,-0.115198975101787
-1.00597737495201,-0.0586440104209893
-0.893326642167244,-0.225053057638811
-0.899569965333883,-0.0791691276339758
-1.08051310374963,-0.101236210418408
-0.896310818636569,-0.203375723493693
-0.956418268340978,-0.397903219151259
-0.894118719267383,-0.557878907745091
-1.06916776925566,-0.598294959229632
-1.07784468312824,-0.631094984649414
-0.788276589492847,-0.70777677914829
-0.877009552484946,-0.617399193596583
