0.411991701529839,0.886132640283797
0.405990359839342,0.837986884441642
0.399323951398812,0.791732490839692
0.419546621759865,0.749786176997775
0.40373149182161,0.697373406153785
0.375802493066751,0.663670932756213
0.349773041710356,0.61209663693288
0.395025760964339,0.631777024589319
0.34791486159519,0.550476790490555
0.33784002766414,0.515817368362804
0.369996520855361,0.52038651405405
0.316752509073995,0.450844582948021
0.321078190138318,0.433781000899362
0.294657810461344,0.391403367207154
0.283320765630682,0.363664727274238
0.271835926624452,0.337200981675552
0.212640273904079,0.361079928229771
0.285802214505116,0.294658924231557
0.23682185877472,0.265130888775864
0.189094599158681,0.221858983946054
0.164524500599152,0.225300511791994
0.225557332014836,0.23063850657261
0.23675111543398,0.163167459202261
0.178462703604818,0.167573554168848
0.135461312301435,0.14346048397957
0.132689920557771,0.0990076370859017
0.138063196766158,0.1578599038362
0.135614073261585,0.0594376930863843
0.133363342946949,0.0726595953778962
0.155803602743386,0.0680975168944841
0.075008004109847,0.0503053229749523
0.0813987171492769,0.0777673744288377
0.0469742097196221,0.0573885193632024
0.113744459780762,0.0585736397907992
0.0656589723618424,0.0363527016397453
0.0573183959348537,0.0291754741328281
0.0683285269557734,0.0352598191492397
0.0570714329465793,-0.0269508031999727
0.0726905334075966,0.0461058903186788
0.0239869792365077,0.00257942637837769
0.0144920774960939,0.021644908612756
0.0167054051725537,-0.000735314543779324
0.0566364209515374,0.045263750621735
0.018997853976707,0.0261283518742609
0.00329373917211819,-0.0085123958982333
-0.0051713911586198,-0.0438911686434334
-0.00278892851194096,-0.0115699650851436
0.012530423063589,-0.0294780545189964
-0.00644892448387596,-0.0132031263913193
0.0206092372959915,-0.0419957715764805
0.00468968612285429,0.0192027257643607
-0.00716974501504348,-0.0135122519663224
0.00680822837649277,0.0228108345903328
-0.051647776744562,-0.0422400742062711
-0.00189557915079039,-0.01199383632738
-0.00658446751393474,-0.0455095998595146
0.0524068345447969,0.0367425001013034
-0.0264314645149425,-0.0264636926125609
0.061743895471578,0.0300158008458785
0.0208937774977725,-0.00772294359229599
0.0643483574709475,-0.0483248988392916
-0.00744395126648476,-0.0168973803078856
0.0432746172925805,-0.00554526769450721
0.0944431785434117,-0.0475815893053806
0.0709680983613014,0.0365690994520857
0.0958046508406336,-0.039729715266622
0.0947561726109873,0.00259684418977761
0.125030995941858,0.00297310537399731
0.109550811192212,-0.0294022298951674
0.170814503026117,0.0224392308085184
0.101583343373565,-0.0434424621232123
0.199789620630312,-0.14618814071218
0.164137623823122,-0.0245025209898678
0.293761354365936,-0.163980269007969
0.314760807495289,-0.168605257977421
0.114915479162806,0.123885309018373
0.134618368880976,-0.144510252502159
0.268725506049237,-0.0647547538873224
0.388173086230408,-0.151978092830671
0.205986768031801,-0.113751571415221
0.415194372591338,-0.189610901852867
0.421412271138542,-0.173173460665961
0.47480831745871,0.0307452063995918
0.358283355852177,-0.0796819538044366
0.323633790994795,-0.235122680049182
0.481101019715225,-0.0794362445419122
0.606045825183561,-0.0577943884095971
0.491051575215712,-0.133333409274127
0.414533360137879,-0.00437991388132805
0.454304519778234,-0.266548743614769
0.676549357177396,-0.280524926549371
0.48617035700494,-0.319263006211663
0.633011855081807,-0.212281881180982
0.777238433053156,-0.141667194439704
0.795183624194173,-0.188068660873348
0.79885678715304,-0.39126363746116
0.789082131405306,-0.282794851986322
0.679407893957509,-0.230922129073094
0.727632804773698,-0.265198062357093
0.901069126926613,-0.380835224127774
