-0.507008140569237,0.969834710743802
-0.499101092115959,0.961336973810031
-0.490604163626237,0.95330565353589
-0.481739161787925,0.945565367931752
-0.472588618479592,0.938050859249031
-0.463201885333827,0.930723105276093
-0.453613327250652,0.923554933773016
-0.44384893190388,0.916525796351545
-0.433929408222615,0.90961931851358
-0.423871867804084,0.902821970162276
-0.413690830473374,0.896122270508493
-0.403398869191748,0.889510278143419
-0.393007046147261,0.882977246222809
-0.382525220162647,0.87651537940035
-0.371962270793302,0.870117656633947
-0.361326266283995,0.863777698382776
-0.350624592413274,0.857489664730334
-0.339864053313548,0.851248175666257
-0.329050951723384,0.845048247631028
-0.318191153827328,0.838885242247297
-0.307290142334413,0.832754824350836
-0.296353060436409,0.826652927232862
-0.285384748592188,0.820575723554731
-0.274389775596738,0.814519600781751
-0.263372465044148,0.80848114025896
-0.25233691803981,0.802457099252651
-0.241287032829182,0.796444395429955
-0.230226521869783,0.790440093360058
-0.219158926766201,0.784441392705132
-0.208087631405916,0.778445617833863
-0.1970158735701,0.772450208640833
-0.185946755243652,0.766452712394391
-0.174883251809322,0.760450776466888
-0.163828220279277,0.754442141825998
-0.152784406692215,0.748424637185836
-0.141754452783632,0.742396173732795
-0.130740902020155,0.736354740354218
-0.119746205075156,0.730298399308842
-0.108772724811548,0.724225282286908
-0.0978227408282768,0.718133586815269
-0.0868984536191767,0.712021572968993
-0.0760019883862707,0.705887560356189
-0.0651353985440734,0.699729925347172
-0.0543006689467337,0.693547098522763
-0.0434997188658707,0.687337562319724
-0.0327344047435426,0.681099848853996
-0.0220065227418593,0.67483253790472
-0.0113178111082358,0.668534255044041
-0.000669952373102745,0.662203669899384
0.00993542460498723,0.655839494536392
0.0204967427335633,0.649440481952021
0.0310124749078834,0.643005424668394
0.0414811423494048,0.636533153419042
0.051901313051561,0.630022535919978
0.0622716003242862,0.623472475718858
0.0725906614295845,0.61688191111613
0.0828571963011893,0.61024981415267
0.0930699463420289,0.603575189658942
0.103227693293802,0.596857074361174
0.113329258173502,0.590094536040472
0.123373500272184,0.583286672741145
0.133359316211722,0.576432612024887
0.143285639055631,0.569531510267706
0.153151437470423,0.562582551996809
0.162955714934227,0.555584949264862
0.172697508989704,0.54853794105927
0.182375890538526,0.541440792744323
0.191989963174909,0.534292795534228
0.201538862555918,0.527093265995199
0.211021755806397,0.51984154557495
0.22043784095661,0.512537000158028
0.229786346410778,0.505179019645593
0.239066530444867,0.497767017558321
0.248277680732098,0.490300430661219
0.257419113894774,0.482778718609263
0.26649017508112,0.475201363612805
0.275490237565939,0.467567870121808
0.284418702373969,0.459877764528041
0.293274997924917,0.452130594884405
0.302058579699219,0.444325930640653
0.310768929923654,0.436463362394801
0.319405557275995,0.428542501659603
0.327967996607958,0.42056298064348
0.336455808685745,0.412524452045375
0.344868579947557,0.404426588863015
0.353205922277489,0.39626908421413
0.361467472795254,0.388051651170192
0.369652893661265,0.379774022602289
0.377761871896598,0.371435951038775
0.385794119217438,0.363037208534362
0.393749371883628,0.354577586550374
0.401627390560976,0.346056895845866
0.409427960197017,0.337474966379395
0.417150889909957,0.328831647221208
0.424796012890547,0.320126806475653
0.432363186316689,0.311360331213655
0.439852291280568,0.302532127415105
0.447263232728174,0.293642119921037
0.454595939411068,0.284690252395487
0.461850363850295,0.275676487296968
0.469026482312378,0.266600805859477
0.476124294797315,0.257463208083016
0.483143825038587,0.248263712733584
0.490085120515146,0.239002357352672
0.496948252475432,0.229679198276241
0.503733315973455,0.220294310663258
0.51044042991703,0.210847788533832
0.517069737128256,0.201339744817038
0.52362140441638,0.191770311408527
0.530095622663197,0.182139639238054
0.536492606921172,0.172447898347062
0.542812596524497,0.162695277976493
0.549055855213329,0.152881986665027
0.555222671271483,0.143008252357949
0.561313357677883,0.133074322526906
0.567328252272117,0.12308046430081
0.57326771793447,0.113026964608189
0.579132142780848,0.102914130331313
0.58492194037305,0.0927422884724547
0.590637549944874,0.0825117863326717
0.596279436644604,0.0722229917035428
0.601848091794467,0.0618762930723144
0.607344033167685,0.0514720998409691
0.612767805283819,0.0410108425597551
0.618119979723165,0.0304929731757706
0.623401155460985,0.0199189652972485
0.628611959222474,0.00928931447422306
0.633753045859409,-0.00139546150365612
0.638825098749485,-0.0121348222913642
0.643828830219482,-0.0229282046539113
0.648764981993434,-0.03377502211197
0.65363432566712,-0.0446746645667011
0.658437663210276,-0.0556264979026537
0.663175827498057,-0.0666298635675393
0.667849682873402,-0.0776840781275738
0.67246012574209,-0.0887884327969626
0.677008085202451,-0.0999421929399963
0.681494523711824,-0.11114459754408
0.685920437792079,-0.12239485866188
0.690286858776707,-0.133692160820603
0.694594853602189,-0.145035660396257
0.698845525646655,-0.156424484950536
0.703040015619047,-0.16785773252775
0.707179502502372,-0.179334470909002
0.711265204554933,-0.190853736820523
0.7152983803738,-0.202414535092776
0.71928033002524,-0.214015837766637
0.723212396247249,-0.225656583142554
0.727095965729892,-0.237335674768183
0.730932470479737,-0.249051980359537
0.734723389275326,-0.260804330650147
0.738470249221402,-0.272591518162136
0.742174627410434,-0.28441229589246
0.745838152700975,-0.296265375906762
0.749462507623457,-0.308149427832467
0.753049430425294,-0.320063077241719
0.756600717268596,-0.332004903913662
0.760118224595422,-0.343973439964234
0.76360387167739,-0.355967167830197
0.767059643368649,-0.367984518092375
0.770487593083714,-0.380023867121079
0.773889846024608,-0.392083534524422
0.777268602685165,-0.404161780377469
0.780626142664331,-0.416256802207073
0.783964828825019,-0.428366731703477
0.787287111840602,-0.440489631125418
0.790595535177705,-0.452623489360236
0.793892740571824,-0.464766217594327
0.797181474061659,-0.476915644541805
0.800464592659377,-0.489069511170344
0.803745071747726,-0.501225464852295
0.807026013311606,-0.513381052856007
0.810310655132189,-0.525533715076062
0.813602381096956,-0.537680775881146
0.816904732810493,-0.549819434933431
0.820221422730319,-0.561946756802104
0.823556349101895,-0.574059659154293
0.826913613030609,-0.586154899256294
0.830297538110554,-0.598229058453144
0.833712693136714,-0.610278524210151
0.837163918567965,-0.622299469188671
0.840656357596074,-0.634287826679921
0.844195492930076,-0.646239261519673
0.847787190754515,-0.658149135330577
0.851437753807958,-0.670012464553116
0.855153986222817,-0.681823869176925
0.858943273777636,-0.693577509285504
0.862813684717188,-0.705267005338026
0.866774098596866,-0.716885336292397
0.870834374239405,-0.728424706802303
0.87500557383286,-0.739876370023501
0.879300270338494,-0.751230384547179
0.883732983581394,-0.762475269584194
0.888320825158788,-0.773597495037705
0.893084503999778,-0.784580686409608
0.898050007778178,-0.795404295311651
0.90325170139401,-0.806041149503911
0.908738936479863,-0.816452226774755
0.914594244914307,-0.826572269375595
0.921039433385194,-0.836225895316804
-0.507008140569237,0.969834710743802
-0.500562952098349,0.960181084802592
-0.494707643663906,0.950061042201752
-0.489220408578053,0.939649964930908
-0.484018714962221,0.929013110738649
-0.479053211183821,0.918189501836606
-0.47428953234283,0.907206310464702
-0.469701690765437,0.896084085011192
-0.465268977522537,0.884839199974176
-0.460974281016903,0.873485185450499
-0.456803081423448,0.8620335222293
-0.452742805780909,0.850494151719394
-0.448782391901231,0.838875820765023
-0.444911980961679,0.827186324712501
-0.44112269340686,0.815432684603922
-0.437406460992001,0.803621279980113
-0.433755897938558,0.791757950757574
-0.430164200114119,0.77984807694667
-0.426625064780117,0.767896642106918
-0.423132625752008,0.755908284615668
-0.419681400320757,0.743887339637148
-0.416266245294597,0.731837873880141
-0.412882320214652,0.719763714683291
-0.409525056285938,0.70766847458129
-0.406190129914362,0.695555572229101
-0.402873439994535,0.683428250360428
-0.399571088280999,0.671289591308143
-0.396279362316232,0.659142530503059
-0.392994720495649,0.646989868283005
-0.389713778931769,0.634834280279292
-0.38643329984342,0.622678326597341
-0.383150181245702,0.610524459968803
-0.379861447755867,0.598375033021324
-0.376564242361747,0.586232304787233
-0.373255819024645,0.574098446552415
-0.369933536009062,0.561975547130474
-0.366594849848373,0.54986561763407
-0.363237309869208,0.537770595804466
-0.359858553208651,0.525692349951419
-0.356456300267757,0.513632682548076
-0.353028350552692,0.501593333519372
-0.349572578861432,0.489575983257195
-0.346086931779465,0.477582255391231
-0.342569424452639,0.465613719340659
-0.339018137609337,0.453671892668716
-0.3354312148075,0.441758243259464
-0.331806859885018,0.429874191333759
-0.328143334594477,0.418021111319457
-0.324438956405445,0.406200333589133
-0.320692096459369,0.394413146077144
-0.31690117766378,0.382660795786534
-0.313064672913935,0.37094449019518
-0.309181103431292,0.359265398569551
-0.305249037209283,0.347624653193634
-0.301267087557843,0.336023350519773
-0.297233911738976,0.32446255224752
-0.293148209686415,0.312943286336
-0.28900872280309,0.301466547954747
-0.284814232830698,0.290033300377533
-0.280563560786232,0.278644475823255
-0.27625556596075,0.2673009762476
-0.271889144976122,0.256003674088877
-0.267463230895867,0.244753412971077
-0.262976792386494,0.233551008366994
-0.258428832926133,0.22239724822396
-0.253818390057444,0.211292893554571
-0.2491445346821,0.200238678994537
-0.244406370394319,0.189235313329651
-0.239603032851163,0.178283479993698
-0.234733689177477,0.167383837538967
-0.229797537403525,0.156537020080908
-0.224793805933528,0.145743637718362
-0.219721753043452,0.135004276930653
-0.214580666406517,0.124319500952774
-0.209369862645028,0.113689850129749
-0.204088686907208,0.103115842251226
-0.198736512467862,0.0925979728672423
-0.193312740351728,0.0821367155860281
-0.18781679897851,0.0717325223546828
-0.182248143828647,0.0613858237234545
-0.176606257128917,0.0510970290943254
-0.170890647557093,0.0408665269545426
-0.165100849964891,0.0306946850956844
-0.159236425118513,0.0205818508188086
-0.15329695945616,0.0105283511261876
-0.147282064861926,0.000534492900091596
-0.141191378455526,-0.00939943693095133
-0.135024562397372,-0.0192731712380297
-0.12878130370854,-0.0290864625494962
-0.122461314105215,-0.038839082920065
-0.11606432984724,-0.0485308238110572
-0.109590111600423,-0.0581614959815299
-0.103038444312299,-0.0677309293900407
-0.0964091371010728,-0.0772389731068349
-0.089702023157498,-0.0866854952362605
-0.0829169596594748,-0.0960703828492436
-0.0760538276991891,-0.105393541925675
-0.0691125322226302,-0.114654897306587
-0.0620930019813583,-0.123854392656018
-0.0549951894964208,-0.13299199043248
-0.0478190710343381,-0.142067671869971
-0.0405646465951106,-0.15108143696849
-0.0332319399122174,-0.160033304494039
-0.0258209984646111,-0.168923311988108
-0.0183318935007316,-0.177751515786658
-0.0107647200745896,-0.186517991048656
-0.00311959709399948,-0.195222831794211
0.0046033326189398,-0.203866150952398
0.0124039022549809,-0.212448080418868
0.0202819209323291,-0.220968771123377
0.0282371735985192,-0.229428393107365
0.0362694209193594,-0.237827135611777
0.0443783991546921,-0.246165207175292
0.052563820020703,-0.254442835743195
0.0608253705384683,-0.262660268787133
0.0691627128683996,-0.270817773436017
0.0775754841302121,-0.278915636618377
0.0860632962079987,-0.286954165216483
0.0946257355399616,-0.294933686232605
0.103262362892303,-0.302854546967804
0.111972713116738,-0.310717115213655
0.12075629489104,-0.318521779457408
0.129612590441988,-0.326268949101044
0.138541055250018,-0.33395905469481
0.147541117734838,-0.341592548185807
0.156612178921183,-0.349169903182266
0.165753612083859,-0.356691615234222
0.17496476237109,-0.364158202131323
0.184244946405179,-0.371570204218596
0.193593451859347,-0.37892818473103
0.20300953700956,-0.386232730147952
0.212492430260039,-0.393484450568202
0.222041329641048,-0.400683980107231
0.231655402277431,-0.407831977317326
0.241333783826253,-0.414929125632272
0.25107557788173,-0.421976133837865
0.260879855345534,-0.428973736569812
0.270745653760326,-0.435922694840709
0.280671976604235,-0.44282379659789
0.290657792543773,-0.449677857314148
0.300702034642455,-0.456485720613475
0.310803599522155,-0.463248258934177
0.320961346473928,-0.469966374231944
0.331174096514768,-0.476640998725672
0.341440631386373,-0.483273095689133
0.351759692491671,-0.489863660291861
0.362129979764396,-0.496413720492981
0.372550150466552,-0.502924337992045
0.383018817908074,-0.509396609241397
0.393534550082394,-0.515831666525024
0.40409586821097,-0.522230679109395
0.41470124518906,-0.528594854472387
0.425349103924193,-0.534925439617044
0.436037815557816,-0.541223722477723
0.4467656975595,-0.547491033426999
0.457531011681828,-0.553728746892727
0.468331961762691,-0.559938283095765
0.47916669136003,-0.566121109920175
0.490033281202228,-0.572278744929192
0.500929746435134,-0.578412757541996
0.511854033644234,-0.584524771388272
0.522804017627505,-0.59061646685991
0.533777497891113,-0.596689583881844
0.544772194836112,-0.602745924927221
0.555785745599589,-0.608787358305798
0.566815699508172,-0.614815821758839
0.577859513095234,-0.620833326399001
0.588914544625279,-0.626841961039891
0.599978048059609,-0.632843896967394
0.611047166386057,-0.638841393213836
0.622118924221873,-0.644836802406866
0.633190219582158,-0.650832577278135
0.64425781468574,-0.656831277933061
0.655318325645139,-0.662835580002958
0.666368210855767,-0.668848283825654
0.677403757860106,-0.674872324831962
0.688421068412695,-0.680910785354754
0.699416041408145,-0.686966908127734
0.710384353252366,-0.693044111805865
0.721321435150371,-0.699146008923839
0.732222446643285,-0.7052764268203
0.743082244539341,-0.711439432204031
0.753895346129505,-0.71763936023926
0.764655885229231,-0.723880849303337
0.775357559099952,-0.730168882955779
0.785993563609259,-0.73650884120695
0.796556512978604,-0.742906563973353
0.807038338963218,-0.749368430795812
0.817430162007705,-0.755901462716422
0.827722123289331,-0.762513455081496
0.837903160620041,-0.769213154735279
0.847960701038573,-0.776010503086583
0.857880224719837,-0.782916980924548
0.867644620066609,-0.789946118346018
0.877233178149784,-0.797114289849096
0.886619911295549,-0.804442043822033
0.895770454603882,-0.811956552504755
0.904635456442194,-0.819696838108892
0.913132384931916,-0.827728158383033
0.921039433385194,-0.836225895316804
