0.265820374333682,0.985381052714331
0.320150643865395,1.02076869644234
0.262926111118847,1.00226038651355
0.276867929729415,0.957078789274232
0.329809005791599,0.898429070067963
0.283084769262039,0.937869359719799
0.280513651117266,0.917656789296259
0.298334726332683,0.885521336418809
0.294311147864723,0.909132680063655
0.343793561007396,0.860979800969997
0.288924563878063,0.911260690288584
0.307168364508621,0.880462451965504
0.281706331045619,0.897629621693927
0.302510217423804,0.886975690458197
0.368259682469942,0.825304353032132
0.326081064950975,0.842307592747429
0.331047142918051,0.832778571741476
0.293613997191381,0.811159057406407
0.311679946302994,0.839868633106193
0.321406428500835,0.762062362751477
0.356866827968714,0.785173777402722
0.362178551363588,0.775658840368696
0.37566046067914,0.808088496893587
0.421523066812049,0.777416909334289
0.379782613388465,0.709167642182491
0.383716425519971,0.737610948782532
0.436124828562438,0.692738896348267
0.394588092795326,0.718591188924215
0.400033314735058,0.709081691539052
0.379808995432661,0.674838865685379
0.36837258224817,0.732954826907359
0.410519082720731,0.714769204491496
0.427190393228597,0.66153139180717
0.398630221289355,0.685310496643114
0.433906406953166,0.617874796576138
0.443499462811686,0.640490170996663
0.453904705625486,0.613963050739359
0.459159359452811,0.604445788298651
0.42075344817581,0.551715453122893
0.423231789296523,0.625707694292957
0.515513960227028,0.556130030711943
0.479791137650881,0.566360976131412
0.460183708661449,0.528769215928357
0.48983976492714,0.547307679963022
0.454434532681925,0.515967137686567
0.499685356696233,0.52824611073168
0.496457080233982,0.53552152619373
0.500800297603462,0.528382119778442
0.483466570904941,0.533592528000682
0.518699806850128,0.490095397496643
0.501858597153734,0.456372179966336
0.513162304564399,0.473693193059022
0.522031081083332,0.463078355461833
0.536709564029345,0.451903746159978
0.531028460290682,0.447934923114552
0.574895470576004,0.444636648625567
0.549490976157405,0.423230429264501
0.601015167903544,0.423803254705935
0.557642923141083,0.404099849296451
0.597272522453466,0.443773219068279
0.537963374811176,0.359942061974711
0.546517230768544,0.379889659379329
0.580620716113205,0.390995048383603
0.532312326816023,0.405666864476497
0.572909845605231,0.352259863167022
0.628813308357371,0.312138824739994
0.587064650406828,0.327447707400257
0.625474199443193,0.31587740083677
0.593576159508411,0.308250284710673
0.604217357809836,0.327670622564999
0.599733443802412,0.289038428466224
0.619071466067481,0.271818604862431
0.608289527487397,0.260192942630008
0.610956977104563,0.250570259696115
0.581769667884024,0.260134991483985
0.583514140271578,0.237404850054441
0.622877319901218,0.202399110560311
0.624973547049745,0.192753152094426
0.624998790131459,0.172714656844704
0.628873669784701,0.173449323564287
0.677934580929761,0.15309843388009
0.675645634137207,0.124439533311744
0.633985967405853,0.14446351419897
0.635491641478846,0.134793492539221
0.619456361987499,0.121053304105197
0.590729901993736,0.0743841818601677
0.638940739676237,0.0760401257231037
0.636688777333688,0.0862630625545568
0.620078763089415,0.136217270351132
0.66169011373557,0.0880330888545139
0.665653780014491,0.0210041936929272
0.677766318247672,0.0361794694598073
0.627694676784566,0.0204761575574277
0.682441312574754,0.0300833690636362
0.695357654085799,0.0348532460333355
0.624910941571706,-0.0272850027519879
0.645659558774066,-0.0302255405861662
0.635772383345417,-0.0390643636527703
0.680587985351902,-0.088491363366473
0.677511649799133,-0.0516180846587579
0.677314054387803,-0.0441461895834178
0.681210750601787,-0.076401205988599
0.670442834334676,-0.130204925672433
0.659117347322759,-0.115260683359593
0.639244338228085,-0.118069299383979
0.650993504026269,-0.154093872560811
0.671275864541218,-0.0955203194840272
0.604613319634873,-0.123168129391852
0.603342139868499,-0.2028773755314
0.659046082101543,-0.142381790554517
0.600623234165529,-0.154183381769271
0.626895220660024,-0.196423472780377
0.624926689894542,-0.206235057439313
0.668588161760724,-0.171161063772429
0.627254686336958,-0.207461662172981
0.616140510802874,-0.245518559510432
0.611212464950025,-0.265182108345136
0.626236051577774,-0.31976071907542
0.575218881588935,-0.246951576202325
0.561869844130442,-0.348185288437528
0.635880858317333,-0.310716451436998
0.556853149729621,-0.370053571144806
0.624085207842744,-0.37047600705548
0.60057899815674,-0.373189017298424
0.605970861535709,-0.353430216446053
0.572226020862983,-0.414802383049744
0.574690439262111,-0.383446744976482
0.567539618311349,-0.403200864955954
0.517330401050181,-0.402153467199551
0.560116490023894,-0.422966080609134
0.552434761190966,-0.442741833427078
0.561516911166575,-0.461768314157321
0.523764805238358,-0.463203245750232
0.575747710461561,-0.538500816178698
0.523732242803255,-0.512030983667583
0.519429203732822,-0.521937692250594
0.524461485626819,-0.515334102157134
0.496932935797737,-0.560804107882574
0.457039751733717,-0.558162764982904
0.4810375078112,-0.550427572091544
0.525321021534979,-0.574837284769265
0.514183754183544,-0.61432392200732
0.475894528628237,-0.598465736955894
0.477585791456801,-0.632178611918127
0.474430949202227,-0.621084962387095
0.41838261022024,-0.604118605301316
0.502089697184645,-0.658963128266569
0.479331408652631,-0.652087635759676
0.473892629013051,-0.730155345833704
0.437282963783187,-0.700449612215553
0.432675814413269,-0.710368712343703
0.446208280929801,-0.672361671094954
0.410105502734378,-0.759945247954538
0.396386275665454,-0.73359208218602
0.420141921326581,-0.745727899917435
0.392982387209995,-0.799568454153743
0.365882548005064,-0.78503155301198
0.337114284070058,-0.823040307553845
0.366316689861817,-0.815702492044248
0.375803594653325,-0.853964665638232
0.322374329747856,-0.937565308180408
0.383294523506162,-0.89341652917017
0.355433632018029,-0.908143553629629
0.318583963147159,-0.887415439385668
0.350160267941309,-0.937552546280575
0.270831325391679,0.986026936026936
0.224032935181213,0.989196812988099
0.285253540088163,0.945518867667022
0.214402620961072,0.898976225669688
0.259805136244863,0.927189414186651
0.219032105454169,0.923017156144307
0.269296797445751,0.852021653553444
0.203284389077808,0.842456033655536
0.223283213855181,0.828387528118091
0.235979807877706,0.834929488316905
0.188756507196052,0.780503959012465
0.240256587489177,0.756631560815839
0.192347642272751,0.759007387932466
0.187764132994617,0.749089251064242
0.161225434385271,0.770429987993799
0.152722297825342,0.742069876334879
0.182918286438797,0.699101033534567
0.200008873593772,0.72875863038752
0.150641405557908,0.669725630419697
0.109121348082307,0.653074880094397
0.123252209220397,0.579624844624919
0.123131711692268,0.610216457230801
0.114172556305232,0.590388653269459
0.124247007848767,0.556283609721154
0.149841589000044,0.592417866541469
0.0777878040527743,0.554377535142399
0.132432980658231,0.523933469056164
0.0630909664199989,0.534217051172794
0.122850241138698,0.504494338086878
0.125477354742262,0.474025904483711
0.0589105475620455,0.509296430177632
0.06800518621692,0.481462372147617
0.0813572335031191,0.434827744892437
0.0529003290965369,0.441921403676492
0.018470095503173,0.379792169032316
0.0201142255316804,0.343271740560191
0.0433426811100693,0.378918779716617
0.0492372837923723,0.279776589028863
0.0251621354998664,0.350796634447707
0.0469656425364443,0.318445356658921
0.041772716405809,0.282524736600884
-0.00242617540601597,0.254770931011253
0.0151544582852185,0.213501345815762
0.00490108060444686,0.272341863811982
-0.0101131555198967,0.215532217866301
0.018595993759993,0.174978749996556
-0.0304459441878124,0.195779400610921
-0.018184034701125,0.138331859631957
-0.0175971714439163,0.16657040170149
-0.0380527488433014,0.170418664223799
-0.0352097287647524,0.074814029139762
-0.019108080536267,0.135455469918854
-0.0198271015353269,0.0717879546229094
-0.0255526449776771,0.0397383896963533
-0.000899395676028439,0.0174742424538473
0.00145981361699599,-0.0599591793580192
-0.0128509136394583,-0.0431301658383868
-0.0313566544920631,-0.0863679993405876
-0.058585323399834,-0.0667130400826474
-0.0401974970786802,-0.121685370215598
-0.00453359964185895,-0.154032613373887
0.00690907440399613,-0.202223226019797
-0.0286240095924576,-0.234336652225764
0.00509235470762327,-0.3468168629301
0.0627970242668031,-0.365379310575912
0.101332996986641,-0.421335676625105
0.056498576617122,-0.374397635381444
0.0881323863808731,-0.422735212738918
0.207115509094524,-0.541916585806875
0.146242783890499,-0.646750381644245
0.20951841139216,-0.651342067484225
0.247539870634334,-0.717912423977635
0.259228136507429,-0.770243271322594
0.284350418947379,-0.784532121310415
0.260687860206506,-0.822210325828827
0.333832043123188,-0.889561004573818
