0.621270479909831,-1.00926520712595
0.61055685376414,-1.00098468085976
0.59998276408226,-0.992731661975682
0.589546696323979,-0.984506240294243
0.579247160773409,-0.976308510413689
0.569082691862003,-0.96813857155458
0.559051847511631,-0.959996527408277
0.549153208497019,-0.951882485989215
0.539385377826918,-0.943796559490813
0.529746980143368,-0.935738864144912
0.520236661138475,-0.92770952008463
0.510853086988099,-0.919708651210511
0.50159494380192,-0.911736385059882
0.492460937089337,-0.903792852679286
0.483449791240688,-0.895878188499923
0.474560249023297,-0.887992530215984
0.465791071091864,-0.880136018665797
0.457141035512755,-0.872308797715686
0.448608937301732,-0.864511014146479
0.440193587974707,-0.856742817542557
0.431893815111104,-0.849004360183388
0.423708461929441,-0.841295796937459
0.41563638687474,-0.833617285158538
0.407676463217408,-0.825968984584187
0.399827578663222,-0.818351057236478
0.392088634974088,-0.810763667324824
0.384458547599237,-0.803206981150874
0.37693624531654,-0.795681167015419
0.369520669883637,-0.78818639512723
0.362210775698585,-0.780722837513794
0.355005529469728,-0.773290667933876
0.34790390989453,-0.765890061791869
0.340904907347093,-0.75852119605387
0.334007523574097,-0.751184249165442
0.32721077139893,-0.743879400971009
0.320513674433754,-0.736606832634843
0.313915266799276,-0.729366726563593
0.307414592852009,-0.722159266330329
0.301010706918788,-0.714984636600032
0.29470267303836,-0.707843023056527
0.288489564709806,-0.700734612330789
0.28237046464764,-0.693659591930603
0.276344464543362,-0.686618150171539
0.270410664833306,-0.679610476109202
0.264568174472588,-0.672636759472736
0.258816110714991,-0.665697190599537
0.253153598898626,-0.658791960371149
0.247579772237187,-0.651921260150321
0.242093771616676,-0.645085281719179
0.236694745397418,-0.638284217218504
0.226154245823667,-0.624787600008059
0.221011104850971,-0.618092432841414
0.215951602682015,-0.611432950577299
0.210974922254668,-0.604809346275439
0.206080252896738,-0.59822181301145
0.201266790161268,-0.591670543823086
0.196533735666096,-0.585155731657387
0.19188029693755,-0.578677569318719
0.187305687258178,-0.572236249417672
0.182809125518408,-0.5658319643208
0.174047048595375,-0.553135266489872
0.1697799979502,-0.546843236827914
0.165587924049992,-0.540589008019438
0.161470071729797,-0.53437277048528
0.15742569061937,-0.528194714117433
0.153454035019591,-0.522055028234216
0.14955436378207,-0.515953901536143
0.145725940191843,-0.509891522062498
0.138279910577857,-0.497883753383634
0.134660852277485,-0.491938736569411
0.131110136857065,-0.4860332116794
0.127627048112448,-0.480167362818668
0.124210873629986,-0.474341373184324
0.12086090468886,-0.468555425026598
0.117576436165932,-0.462809699610501
0.114356766443072,-0.457104377178079
0.111201197316884,-0.451439636911236
0.105079584589391,-0.440232614082087
0.102112160875085,-0.434690684256134
0.096360651661107,-0.423730860650547
0.0935752042748168,-0.418313312285097
0.0908490585703868,-0.41293756766773
0.0881815406827159,-0.407603796226491
0.0830197063350731,-0.397062843700081
0.0805240553769808,-0.391855994491123
0.0780843631064926,-0.386691782148223
0.0756999684917588,-0.38157036893206
0.0733702128743215,-0.376491915577714
0.0710944399086896,-0.371456581265021
0.0688719955035457,-0.366464523589364
0.0667022277645439,-0.361515898532905
0.0645844869386659,-0.356610860436243
0.0625181253600942,-0.351749561970491
0.0605024973975706,-0.346932154109779
0.0585369594032019,-0.342158786104159
0.0547535883469003,-0.332744757878324
0.0529344774648873,-0.32810438729967
0.0494382239559631,-0.318957643640185
0.0477598141327238,-0.314451549155746
0.0461270402654675,-0.309990488810952
0.0445392728933851,-0.305574597135606
0.0429958841381944,-0.301204006709271
0.0414962476657095,-0.296878848138019
0.0400397386485307,-0.292599250031528
0.0386257337298286,-0.288365338980546
0.0372536109881965,-0.284177239534696
0.0359227499035461,-0.280035074180631
0.0346325313240248,-0.275938963320532
0.0333823374339277,-0.271889025250949
0.0321715517225846,-0.267885376141969
0.0298657451385996,-0.260017398731235
0.0287694975029443,-0.25615329195455
0.0257000416365639,-0.244841782155876
0.024747954396003,-0.24116522568938
0.0238303868002599,-0.237535808600605
0.0229467328337096,-0.233953627038072
0.0220963875234478,-0.230418774833326
0.0212787469175044,-0.226931343483601
0.0204932080637877,-0.223491422134768
0.019739168989748,-0.220099097564597
0.0190160286827379,-0.216754454166301
0.0183231870710562,-0.213457573932379
0.0176600450056577,-0.210208536438747
0.0170260042425129,-0.207007418829152
0.0164204674256028,-0.203854295799882
0.0142714426794203,-0.191723156917572
0.0133524853428974,-0.18594731469772
0.0114708216875803,-0.172356454308556
0.0111610410649864,-0.169784182014129
0.0106033307870678,-0.164785885779404
0.0103542290526937,-0.162359937155187
0.0101241826919587,-0.159982833985861
0.00991260738751511,-0.1576546072863
0.00971891949614923,-0.155375285394943
0.00954253604120029,-0.153144893963524
0.00938287470535276,-0.150963455947061
0.00911139237770658,-0.146747518437089
0.00899840998814511,-0.144713051283298
0.00881506402744162,-0.140791180533629
0.0086846854938671,-0.137065442959053
0.00860265383716932,-0.133535858014736
0.00857832683654387,-0.131844616720854
0.00856519760144874,-0.127065001526484
0.00860058020962206,-0.124123545875138
0.00862979292945137,-0.122726248782329
0.00866592386530976,-0.121377874202178
0.00870840169907846,-0.120078395108616
0.00875665569235688,-0.118827781633503
0.00881011568461955,-0.117626001061239
0.00893037590350814,-0.115368793494799
0.00899603868422821,-0.114313286786715
0.00906463256956305,-0.113306453544404
0.00913559026644258,-0.112348246741765
0.00935698184291389,-0.109764871558941
0.00950602053360898,-0.108284761930204
0.0095792798220825,-0.107617164942342
0.00965094779638164,-0.106997784500759
0.00978725937310843,-0.105903389853254
0.00991046006821718,-0.105000982161239
0.00996574156374907,-0.104621574520417
0.0100160637455225,-0.104289919119628
0.0100608672619888,-0.104005928399094
0.0100995933278757,-0.103769511887666
0.0101316837242612,-0.103580576201722
0.0101565807986549,-0.103439025044235
0.0101737274650763,-0.103344759204046
0.0101825440630384,-0.10329767205714
0.0101731026557125,-0.103344637753409
0.00988764038931345,-0.104606393189987
0.0097967678955826,-0.104978882641576
0.009692054436481,-0.105397373727737
0.00943890401645694,-0.106371821208788
0.0092893681619582,-0.106927500539642
0.00912379355336784,-0.107528627380622
0.00894163214943999,-0.108175055941615
0.00852535959125491,-0.109603220568578
0.00829015515134143,-0.110384650567007
0.00803617734187873,-0.111210770155606
0.00776288090974325,-0.112081419072654
0.00746972115452285,-0.112996434170501
0.00682163562437364,-0.11495889590745
0.0064656231929838,-0.116006001850771
0.0060875741205772,-0.11709679259038
0.00568694643605934,-0.118231090599301
0.00526319870595313,-0.11940871548577
0.00481579003114618,-0.120629483997271
0.00384782890165197,-0.12319970460664
0.00220493796353416,-0.127373867375369
-0.000364619309804977,-0.133526216578855
-0.0010782721389285,-0.135167716236292
-0.00182150171480888,-0.136850156217517
-0.00259484287101447,-0.138573319303474
-0.00339882997330529,-0.140336985478581
-0.00423399692692988,-0.14214093193651
-0.00510087718427962,-0.143984933086081
-0.00600000375290998,-0.14586876055726
-0.00789712568083017,-0.149754967126739
-0.010997956482226,-0.155877106043533
-0.0121017302741609,-0.157994940839249
-0.0132414697303369,-0.160150926083503
-0.0144177046357458,-0.162344811403347
-0.0194981823043475,-0.171494250909051
-0.0222711433854457,-0.176289662124177
-0.0237176522471144,-0.178741609893196
-0.0267333632306604,-0.183752630068638
-0.0332703088893429,-0.19419538733849
-0.035012933525944,-0.196892074018521
-0.0367999656475229,-0.199622582732338
-0.0386319311312147,-0.202386620449247
-0.0405093557606677,-0.20518389153665
-0.0549683407004981,-0.225669947605209
-0.0572283629115003,-0.228722133243525
-0.0595385758979284,-0.231804775769468
-0.0667756219697816,-0.241232219917216
-0.0718609248211147,-0.247663511191042
-0.0771596322317278,-0.254208768009391
-0.0798903322030775,-0.257523291478553
-0.0826759675660884,-0.260865290980558
-0.0943784497674325,-0.274501141217108
-0.107002312683533,-0.288548683766529
-0.120581664504256,-0.302984922081568
-0.13515082645324,-0.317786248473405
-0.142817382357371,-0.325316276879588
-0.146748054647507,-0.329112289829855
-0.150744384031488,-0.332928450948887
-0.154806917935956,-0.336764369089868
-0.163132796560793,-0.344493900287936
-0.167397243880369,-0.348386719503879
-0.176131923664728,-0.356226463317373
-0.180603269131607,-0.360172580292864
-0.185144696792136,-0.364135651752868
-0.194440046075421,-0.372111017746174
-0.204022487452831,-0.38014925776341
-0.208922788600947,-0.3841909132288
-0.213896572582035,-0.388247031898302
-0.239887951775974,-0.408729683527608
-0.267803818334019,-0.429509479762595
-0.273624478197937,-0.433696267411528
-0.279525712695849,-0.437892291022917
-0.303948708313534,-0.454759704456958
-0.310262084575697,-0.458995107465858
-0.31665977174021,-0.463237010296149
-0.32314240755328,-0.467484948913622
-0.431025029278836,-0.53160565655162
-0.455114165341895,-0.54443699557299
-0.47166302592888,-0.552975916770604
-0.48008657718436,-0.557239249081654
-0.505963105172308,-0.569998515164428
-0.532765309074385,-0.582700678003054
-0.541908920627405,-0.586919571261134
-0.551158708478912,-0.591129992098272
-0.599030742406107,-0.612036028926
-0.618953730621829,-0.62032003139392
-0.649690950795261,-0.632648087263787
-0.703259069717875,-0.652895690897706
