0.482192651590138,0.257270803113801
0.473369891946541,0.25383100928673
0.464613881434701,0.250464953666881
0.455924128375872,0.24717169600026
0.447300152896817,0.243950309193097
0.438741486592808,0.240799878962004
0.430247672200185,0.237719503494742
0.421818263278154,0.234708293121249
0.413452823899517,0.231765369994571
0.405150928350029,0.228889867781381
0.396912160836117,0.226080931361755
0.388736115200663,0.223337716537909
0.380622394646603,0.220659389751591
0.372570611468085,0.218045127809859
0.364580386788938,0.215494117618958
0.35665135030822,0.213005555926049
0.348783140052618,0.210578649068517
0.340975402135481,0.208212612730634
0.333227790522281,0.20590667170733
0.325539966802286,0.20366005967485
0.317911599966273,0.20147201896808
0.310342366190069,0.199341800364329
0.302831948623751,0.197268662873364
0.295380037186339,0.195251873533512
0.287986328365791,0.193290707213625
0.280650525024159,0.191384446420741
0.273372336207741,0.189532381113253
0.266151476962074,0.187733808519431
0.258987668151632,0.18598803296112
0.251880636284083,0.184294365682465
0.244830113338964,0.18265212468351
0.237835836600656,0.181060634558522
0.230897548495523,0.179519226338895
0.224014996433095,0.178027237340505
0.217187932651176,0.176584011015384
0.210416114064774,0.17518889680757
0.20369930211872,0.173841250013028
0.197037262643898,0.172540431643515
0.190429765716959,0.171285808294273
0.183876585523439,0.170076752015434
0.177377500224167,0.168912640187042
0.170932291824891,0.167792855397576
0.16454074604901,0.166716785325876
0.158202652213345,0.165683822626378
0.151917803106855,0.164693364817558
0.145685994872216,0.163744814173502
0.139507026890193,0.162837577618501
0.133380701666717,0.161971066624596
0.12730682472261,0.16114469711199
0.121285204485864,0.160357889352235
0.115315652186436,0.159610067874135
0.10939798175346,0.158900661372271
0.103532009714833,0.158229102618084
0.0977175550991123,0.157594828373455
0.0919544393396458,0.156997279306688
0.0862424861808999,0.156435899910855
0.080581521586912,0.15591013842443
0.0749713736518198,0.15541944675414
0.0694118725124115,0.154963280399988
0.0639028502626487,0.154541098382379
0.058444140870107,0.154152363171299
0.0530355800942922,0.153796540617482
0.0476770054067771,0.153473099885526
0.0423682559131233,0.153181513388892
0.0371091722765344,0.152921256726743
0.0318995966432041,0.152691808622573
0.0267393725693146,0.152492650864581
0.021628344949647,0.152323268247737
0.0165663599477632,0.152183148517502
0.011553264927721,0.152071782315156
0.00658890838728798,0.151988663124692
0.00167313989261647,0.151933287221235
-0.00319418998565579,0.151905153620943
-0.00801322973490964,0.151903764032366
-0.0127841269616892,0.151928622809195
-0.017507028451518,0.151979236904403
-0.0221820802274152,0.152055115825712
-0.0268094276071458,0.152155771592363
-0.0313892152592302,0.152280718693159
-0.0359215872577432,0.152429474045743
-0.0404066871359306,0.152601556957081
-0.0448446579386671,0.152796489085114
-0.0492356422737851,0.153013794401564
-0.0535797823622966,0.153252999155842
-0.0578772200875347,0.153513631840057
-0.062128097043237,0.153795223155068
-0.0663325545805954,0.154097305977577
-0.070490733854294,0.154419415328231
-0.0746027758675567,0.15476108834069
-0.0786688215162269,0.155121864231664
-0.0826890116318991,0.155501284271876
-0.0866634870241226,0.155898891757928
-0.0905923885216983,0.156314231985057
-0.0944758570130846,0.156746852220754
-0.0983140334859358,0.157196301679215
-0.102107059065785,0.15766213149662
-0.105855075053894,0.158143894707206
-0.10955822296429,0.158641146220119
-0.11321664455999,0.159153442797021
-0.116830481888457,0.159680343030444
-0.120399877316272,0.160221407322854
-0.123924973563062,0.16077619786643
-0.127405913734691,0.161344278623513
-0.130842841355719,0.161925215307733
-0.134235900401164,0.162518575365781
-0.137585235327556,0.163123927959818
-0.140890991103321,0.163740843950496
-0.144153313238489,0.164368895880587
-0.147372347813751,0.165007657959189
-0.150548241508872,0.165656706046517
-0.153681141630471,0.166315617639235
-0.15677119613919,0.166983971856342
-0.159818553676249,0.16766134942558
-0.162823363589409,0.168347332670356
-0.16578577595835,0.169041505497169
-0.16870594161948,0.169743453383522
-0.171584012190174,0.17045276336631
-0.174420140092471,0.171169024030669
-0.177214478576217,0.171891825499275
-0.179967181741689,0.172620759422088
-0.182678404561688,0.173355418966511
-0.185348302903123,0.174095398807976
-0.18797703354809,0.174840295120925
-0.190564754214458,0.175589705570188
-0.193111623575971,0.176343229302745
-0.195617801281869,0.177100466939854
-0.198083447976045,0.177861020569548
-0.200508725315738,0.178624493739474
-0.202893795989782,0.179390491450085
-0.2052388237364,0.180158620148152
-0.207543973360571,0.180928487720609
-0.209809410750963,0.1816997034887
-0.212035302896453,0.182471878202441
-0.214221817902221,0.18324462403537
-0.21636912500545,0.184017554579584
-0.218477394590618,0.184790284841056
-0.220546798204404,0.185562431235219
-0.222577508570199,0.186333611582815
-0.224569699602254,0.187103445105989
-0.226523546419434,0.187871552424634
-0.228439225358627,0.188637555552976
-0.230316913987778,0.189401077896379
-0.232156791118576,0.190161744248378
-0.23395903681879,0.190919180787927
-0.235723832424271,0.191673015076854
-0.237451360550606,0.192422876057512
-0.23914180510445,0.193168394050624
-0.240795351294532,0.193909200753323
-0.242412185642342,0.194644929237357
-0.243992495992501,0.19537521394748
-0.245536471522829,0.196099690699998
-0.247044302754103,0.196817996681484
-0.248516181559524,0.19752977044764
-0.249952301173884,0.19823465192231
-0.251352856202453,0.198932282396629
-0.252718042629579,0.199622304528314
-0.254048057827008,0.200304362341078
-0.255343100561937,0.200978101224169
-0.256603371004793,0.201643167932026
-0.257829070736753,0.202299210584048
-0.259020402757001,0.202945878664467
-0.260177571489734,0.203582823022322
-0.261300782790914,0.204209695871526
-0.26239024395478,0.204826150791028
-0.263446163720114,0.205431842725051
-0.264468752276273,0.206026427983418
-0.265458221268987,0.206609564241944
-0.266414783805929,0.207180910542898
-0.267338654462063,0.207740127295535
-0.268230049284767,0.208286876276676
-0.269089185798748,0.208820820631352
-0.269916283010736,0.209341624873488
-0.27071156141398,0.209848954886635
-0.27147524299253,0.210342477924742
-0.272207551225328,0.210821862612961
-0.2729087110901,0.211286778948479
-0.273578949067051,0.211736898301381
-0.274218493142381,0.212171893415526
-0.274827572811612,0.212591438409445
-0.275406419082729,0.21299520877725
-0.275955264479158,0.213382881389544
-0.276474343042556,0.213754134494339
-0.276963890335439,0.214108647717973
-0.27742414344365,0.214446102066014
-0.27785534097865,0.214766179924163
-0.278257723079667,0.21506856505913
-0.278631531415678,0.215352942619507
-0.278977009187249,0.215618999136599
-0.27929440112822,0.215866422525244
-0.279583953507254,0.216094902084593
-0.279845914129238,0.21630412849885
-0.280080532336552,0.216493793837987
-0.280288059010209,0.216663591558396
-0.280468746570852,0.216813216503509
-0.280622848979642,0.216942364904356
-0.280750621739011,0.217050734380072
-0.280852321893302,0.217138023938339
-0.280928208029295,0.217203933975768
-0.280978540276615,0.217248166278211
-0.281003580308036,0.217270424021
-0.281003591339685,0.217270411769113
-0.280978838131135,0.217247835477253
-0.280929586985408,0.217202402489852
-0.280856105748882,0.217133821540979
-0.280758663811106,0.217041802754158
-0.280637532104533,0.216926057642096
-0.280492983104161,0.216786299106299
-0.280325290827107,0.216622241436598
-0.280134730832093,0.216433600310555
-0.279921580218864,0.216220092792763
-0.279686117627543,0.215981437334033
-0.279428623237911,0.215717353770455
-0.279149378768633,0.215427563322337
-0.278848667476424,0.215111788593021
-0.278526774155159,0.214769753567561
-0.278183985134934,0.214401183611268
-0.277820588281085,0.21400580546812
-0.277436872993155,0.213583347259017
-0.277033130203832,0.2131335384799
-0.276609652377842,0.212656109999713
-0.276166733510821,0.212150794058206
-0.27570466912815,0.211617324263587
-0.275223756283772,0.21105543559
-0.274724293558991,0.210464864374841
-0.274206581061247,0.209845348315902
-0.27367092042289,0.209196626468333
-0.27311761479994,0.20851843924143
-0.272546968870842,0.207810528395233
-0.271959288835229,0.207072637036938
-0.271354882412682,0.206304509617111
-0.270734058841505,0.205505891925712
-0.270097128877507,0.204676531087906
-0.269444404792809,0.20381617555968
-0.268776200374667,0.202924575123234
-0.26809283092432,0.202001480882171
-0.267394613255881,0.201046645256457
-0.266681865695242,0.200059821977157
-0.265954908079042,0.199040766080948
-0.265214061753659,0.197989233904391
-0.264459649574268,0.196904983077966
-0.263691995903937,0.195787772519867
-0.262911426612796,0.194637362429539
-0.262118269077258,0.193453514280976
-0.261312852179315,0.192235990815745
-0.260495506305905,0.190984556035757
-0.259666563348354,0.189698975195766
-0.258826356701909,0.188379014795595
-0.257975221265353,0.18702444257208
-0.257113493440715,0.185635027490731
-0.256241511133081,0.18421053973711
-0.255359613750509,0.1827507507079
-0.254468142204051,0.181255433001686
-0.253567438907898,0.179724360409424
-0.252657847779637,0.178157307904596
-0.251739714240643,0.176554051633051
-0.2508133852166,0.174914368902519
-0.24987920913816,0.173238038171798
-0.248937535941751,0.171524839039603
-0.247988717070535,0.169774552233072
-0.247033105475518,0.167986959595924
-0.246071055616833,0.166161844076264
-0.245102923465188,0.164298989714025
-0.244129066503487,0.16239818162804
-0.243149843728647,0.160459206002741
-0.242165615653592,0.158481850074477
-0.241176744309453,0.15646590211744
-0.240183593247969,0.154411151429198
-0.239186527544102,0.152317388315823
-0.238185913798869,0.150184404076607
-0.237182120142403,0.148011990988362
-0.236175516237244,0.145799942289293
-0.235166473281881,0.143548052162436
-0.234155364014534,0.141256115718655
-0.2331425627172,0.138923928979188
-0.232128445219965,0.136551288857732
-0.23111338890559,0.134137993142068
-0.23009777271438,0.131683840475201
-0.229081977149349,0.129188630336019
-0.228066384281679,0.12665216301946
-0.2270513777565,0.124074239616173
-0.226037342798979,0.121454661991665
-0.225024666220746,0.118793232764929
-0.224013736426657,0.116089755286535
-0.223004943421904,0.11334403361618
-0.221998678819487,0.110555872499691
-0.220995335848056,0.107725077345449
-0.21999530936013,0.104851454200256
-0.218998995840711,0.101934809724603
-0.218006793416297,0.0989749511673464
-0.217019101864313,0.0959716863397764
-0.216036322622961,0.0929248235890603
-0.215058858801514,0.0898341717710564
-0.214087115191055,0.0866995402224807
-0.213121498275679,0.0835207387324162
-0.212162416244168,0.0802975775131486
-0.211210279002155,0.0770298671703195
-0.210265498184793,0.0737174186723795
-0.209328487169925,0.0703600433193279
-0.208399661091802,0.0669575527107259
-0.207479436855325,0.0635097587129678
-0.206568233150857,0.0600164734257936
-0.205666470469599,0.0564775091480292
-0.204774571119564,0.0528926783425376
-0.203892959242141,0.0492617936003643
-0.20302206082929,0.0455846676040604
-0.202162303741369,0.0418611130901664
-0.201314117725611,0.038090942810838
-0.200477934435279,0.0342739694945974
-0.199654187449499,0.0304100058061882
-0.198843312293814,0.0264988643055202
-0.198045746461447,0.0225403574056774
-0.19726192943532,0.0185342973299756
-0.196492302710835,0.014480496068044
-0.195737309819436,0.0103787653309121
-0.194997396352981,0.00622891650507953
-0.194273009988939,0.00203076060554472
-0.193564600516431,-0.00221589177222795
-0.192872619863153,-0.00651123050142854
-0.192197522123182,-0.0108554459741342
-0.191539763585705,-0.015248729152676
-0.190899802764693,-0.0196912716221702
-0.190278100429532,-0.0241832656442369
-0.189675119636663,-0.0287249042119361
-0.189091325762225,-0.0333163811059461
-0.188527186535755,-0.0379578909520175
-0.18798317207496,-0.0426496292797278
-0.187459754921588,-0.0473917925825712
-0.186957410078439,-0.0521845783794128
-0.186476615047531,-0.0570281852773394
-0.186017849869468,-0.0619228130359422
-0.185581597164026,-0.0668686626330648
-0.185168342172003,-0.0718659363320496
-0.184778572798364,-0.0769148377505238
-0.184412779656708,-0.0820155719307582
-0.184071456115103,-0.0871683454116385
-0.183755098343322,-0.0923733663022911
-0.183464205361516,-0.0976308443574013
-0.183199279090368,-0.102940991054268
-0.182960824402761,-0.108304019671637
-0.182749349177012,-0.113720145370362
-0.182565364351705,-0.119189585275929
-0.182409383982173,-0.124712558562909
-0.18228192529867,-0.130289286541369
-0.182183508766289,-0.135919992745307
-0.182114658146658,-0.141604903023154
-0.182075900561481,-0.147344245630402
-0.182067766557968,-0.153138251324409
-0.182090790176199,-0.15898715346145
-0.182145509018495,-0.164891188096051
-0.182232464320832,-0.170850594082692
-0.182352201026374,-0.176865613179923
-0.182505267861168,-0.182936490156974
-0.182692217412075,-0.189063472902905
-0.182913606207003,-0.195246812538396
-0.183169994797489,-0.201486763530212
-0.183461947843723,-0.207783583808451
-0.183790034202062,-0.214137534886629
-0.184154827015123,-0.220548881984687
-0.184556903804522,-0.227017894155013
-0.18499684656633,-0.233544844411538
-0.185475241869345,-0.240130009862023
-0.185992680956238,-0.246773671843604
-0.186549759847681,-0.253476116061699
-0.187147079449527,-0.260237632732373
-0.187785245663143,-0.267058516728256
-0.18846486949899,-0.273939067728121
-0.18918656719354,-0.280879590370227
-0.189950960329642,-0.287880394409538
-0.190758675960424,-0.294941794878932
-0.191610346736863,-0.302064112254515
-0.192506611039108,-0.309247672625168
-0.19344811311169,-0.31649280786645
-0.194435503202731,-0.323799855818987
-0.195469437707275,-0.331169160471482
-0.196550579314872,-0.338601072148498
-0.197679597161543,-0.346095947703134
-0.198857166986268,-0.353654150714777
-0.200083971292137,-0.361276051692058
-0.201360699512305,-0.368962028281192
-0.202688048180916,-0.376712465479863
-0.204066721109146,-0.384527755856825
-0.205497429566521,-0.392408299777404
-0.206980892467703,-0.400354505635094
-0.208517836564889,-0.408366790089418
-0.210108996646039,-0.416445578310287
-0.211755115739089,-0.424591304229041
-0.213456945322373,-0.4328044107964
-0.215215245541439,-0.441085350247542
-0.217030785432485,-0.449434584374557
-0.218904343152618,-0.457852584806496
-0.220836706217184,-0.46633983329729
-0.222828671744385,-0.474896822021783
-0.224881046707445,-0.483524053880161
-0.226994648194569,-0.49222204281105
-0.229170303676975,-0.500991314113588
-0.231408851285249,-0.509832404778764
-0.233711140094339,-0.518745863830347
-0.236078030417468,-0.527732252675732
-0.238510394109278,-0.536792145467047
-0.241009114878527,-0.545926129472877
