0.426743074427147,0.854063115884394
0.426051963801165,0.843376830742463
0.42531717996739,0.832794196655419
0.424539451602635,0.822314260345923
0.423719499537947,0.811936086925447
0.422858036956107,0.801658759381684
0.421955769582807,0.791481378080838
0.421013395871746,0.781403060284278
0.420031607183829,0.77142293967908
0.419011087960675,0.761540165922006
0.417952515892625,0.751753904196456
0.416856562081426,0.742063334781982
0.415723891197775,0.732467652635947
0.413351025651234,0.713557800939526
0.412112129523678,0.70424209109008
0.410839113676028,0.695018187153165
0.409532612818298,0.685885351598299
0.408193256075717,0.676842859296674
0.406821667114663,0.667889997177543
0.405418464264643,0.659026063893977
0.403984260636446,0.650250369497686
0.402519664236587,0.641562235122632
0.401025278078163,0.632960992677156
0.399501700288232,0.624445984544362
0.397949524211823,0.616016563290495
0.396369338512678,0.607672091381078
0.394761727270837,0.599411940904575
0.39312727007716,0.591235493303341
0.391466542124867,0.583142139111644
0.388068553258351,0.567202317029526
0.386332421526523,0.559354673404325
0.384572277564583,0.551587771241392
0.382788675853007,0.543901042838164
0.38098216696642,0.536293928149362
0.379153297646734,0.528765874569
0.377302610873956,0.521316336717966
0.375430645934751,0.513944776237023
0.373537938488811,0.506650661585058
0.371625020633105,0.499433467842436
0.369692420964067,0.492292676519325
0.367740664637791,0.485227775368833
0.365770273428279,0.478238258204841
0.363781765783806,0.471323624724379
0.361775656881463,0.464483380334444
0.359752458679918,0.457717035983115
0.355656826426344,0.444404117909912
0.353585400650572,0.437856592327614
0.351498902222011,0.431381062753609
0.349397827740048,0.424977065450784
0.347282670867717,0.418644141293866
0.345153922373393,0.412381835627566
0.340857599359328,0.400067282668555
0.338690992258831,0.394014147186335
0.336512728448729,0.388029853555394
0.334323284801661,0.382113967460372
0.329912752156506,0.370485698938863
0.327692603669831,0.364772465848277
0.325463156430902,0.359125938734988
0.323224874264228,0.353545700558825
0.318723647870006,0.342582438345875
0.316461618796479,0.337198595402433
0.314192585154727,0.331879403378637
0.311916998428758,0.32662445979537
0.309635307708418,0.321433364787845
0.307347959711901,0.316305721011775
0.302758067033882,0.306239209831915
0.300456404121135,0.301299559528439
0.298150847508902,0.296421794484493
0.295841832365335,0.291605528626914
0.293529791604661,0.286850377884972
0.291215155904125,0.282155960111038
0.288898353720226,0.277521895003125
0.286579811304262,0.272947804029262
0.28425995271721,0.268433310353662
0.281939199843953,0.263978038764628
0.277296687978834,0.255243668699295
0.274975761995569,0.250963827294896
0.272655607767483,0.246741721988274
0.270336636490895,0.242576984665174
0.268019257258734,0.238469248437363
0.265703877070705,0.234418147581675
0.263390900842936,0.230423317480519
0.261080731417122,0.226484394563792
0.258773769569191,0.22260101625218
0.256470414017487,0.218772820901817
0.254171061430503,0.214999447750261
0.251876106434162,0.211280536863762
0.242748083755916,0.196942343450163
0.24048096506829,0.193490370353109
0.238220569187983,0.190090714524328
0.233721465839264,0.183446933095833
0.231483513372619,0.180202097791299
0.229253793724168,0.177008160261844
0.227032679417538,0.173864766551917
0.222617746999792,0.167728196165644
0.220424664018928,0.164734312861532
0.218241656644704,0.161789560047695
0.216069087496698,0.158893584830731
0.21390731721921,0.15604603442227
0.211756704482496,0.15324655610527
0.209617605983765,0.150494797201149
0.20327293330619,0.142522310090527
0.20118341929238,0.139957901717808
0.199107173425692,0.137439448849678
0.19704454057335,0.134966598394042
0.192961483518905,0.130156291480079
0.190941739187399,0.127818127886616
0.188936967609594,0.125524152384241
0.186947503783368,0.12327401077649
0.184973680729421,0.121067348571699
0.181074279126362,0.116783042789674
0.177241387363472,0.112668392334419
0.17535069417022,0.110673797847589
0.171622418769179,0.106808286693217
0.169785472833182,0.104936655215292
0.166167540211735,0.101313849843531
0.164387177821163,0.0995619581932794
0.162626297571309,0.0978492611830979
0.159164210043053,0.0945400096279365
0.152487200091699,0.0883759536165945
0.150871182061662,0.0869275000893348
0.149277046890085,0.0855153427329557
0.147705085566017,0.0841391163884026
0.146155587045564,0.0827984552199425
0.144628838248609,0.0814929927033571
0.143125124055519,0.0802223616145399
0.141644727303809,0.0789861940184891
0.138755007240294,0.0766157739468587
0.137346239359127,0.0754807819530986
0.13596189977387,0.0743787743963623
0.133267593719591,0.072272225259503
0.12941609405967,0.0693504686269888
0.128183975955742,0.0684385360160909
0.124646408987265,0.0658834276638613
0.123521002357865,0.0650906946558834
0.121352376526919,0.0635914064940954
0.118308620287244,0.061552198448862
0.117350792534894,0.0609268574693968
0.113809633555016,0.0586872017667354
0.110743867532517,0.0568476727838792
0.109393785687569,0.0560701545085326
0.107602103345273,0.0550728431410451
0.106565767708016,0.054515999459384
0.106095663679786,0.0542687950395657
0.105252608412397,0.0538348257157807
0.104880060803443,0.0536472599499802
0.104233918559921,0.0533289572137944
0.103960714629493,0.0531974139037795
0.103721012367827,0.0530837368814358
0.103515001733116,0.0529875206890043
0.103204804380323,0.0528458443811985
0.103031599038812,0.052769122986128
0.10299682759861,0.0527540798331996
0.103031795724566,0.0527686596235299
0.103101897361648,0.0527974235702079
0.103207303017866,0.052839957960031
0.103348181039688,0.0528958481622555
0.103985300349946,0.0531394935760834
0.104269708085423,0.0532446423754701
0.104590397515158,0.0533610600766826
0.105341240865563,0.0536260207413008
0.105771699102809,0.0537737206935101
0.107863892394542,0.0544561067899782
0.112972730849938,0.0559372029337818
0.113855088841517,0.0561717258894123
0.115735457175116,0.0566536480773013
0.118846926439251,0.0574021868712271
0.119962122160191,0.057656792149585
0.122310239625422,0.0581710065433208
0.124816038482098,0.0586889530498604
0.126128328150637,0.0589482200185097
0.1274803456896,0.059207091179071
0.128872189305035,0.0594651216627085
0.138064840214037,0.0609706207561244
0.139738044473647,0.0612102321238183
0.143206148079022,0.0616757021318215
0.146837035061011,0.0621198085072812
0.148713711125336,0.0623327117585758
0.152589888836982,0.0627379328402977
0.158712242344606,0.0632874151994124
0.160835442675969,0.0634531731474333
0.16520583315958,0.0637558083805598
0.167453138730313,0.0638917567021799
0.172072245071267,0.0641305847685815
0.174444150106247,0.0642325294572926
0.176857689504993,0.064322202827165
0.179312910835274,0.0643991347603326
0.181809859862242,0.0644628540879122
0.184348580561798,0.0645128885810259
0.186929115134275,0.0645487649414249
0.189551504018435,0.0645700087917032
0.194921997755136,0.0645666959948083
0.203292556990813,0.0644400603181773
0.209083180619991,0.0642689262156726
0.212041653276029,0.0641558993258691
0.227466588041274,0.0632967458935285
0.237228317330814,0.0625284383036619
0.240566784147169,0.062227247411127
0.243947549878679,0.0619026867597088
0.254343734291299,0.060783805597553
0.261486166030262,0.059911880302841
0.280083184068633,0.0572616207654563
0.283929603870939,0.056646851412626
0.295722831671694,0.0546238734118608
0.299738542335595,0.0538882667549439
0.303796556947188,0.0531211534525777
0.307896865884472,0.0523220110588127
0.324720817806332,0.0487946372839735
0.333386238310083,0.0468250552489988
0.337782257247392,0.0457869234742586
0.346700828385325,0.0436012882026166
0.369734497722502,0.0374738359231082
0.374467455241089,0.0361302370720231
0.403746922909698,0.0271950883456935
0.408773570562231,0.0255550260191676
0.413842078979595,0.0238703331191967
0.424104580183021,0.0203647397450527
0.434534229693542,0.0166736459752257
0.439811673375561,0.0147570657565664
0.466824101591237,0.00443996861050458
0.472351460736369,0.00222547901121042
0.477920389594382,-4.07947001388187e-05
0.518065006403934,-0.017407206458974
0.523965724701544,-0.0201103970018691
0.529907831214645,-0.0228710976112837
0.541916145707281,-0.0285676693967303
0.560238663572526,-0.0375604871354898
0.604436752991124,-0.0607303134503349
0.637245453173384,-0.0792611406290124
0.650658127994989,-0.0871598397224372
0.671087372954059,-0.0995482389232538
0.691889473158336,-0.112604149644164
0.734616006791815,-0.140807719167519
0.741883121786988,-0.145789461952972
0.77884817584309,-0.171956832597688
0.809180318459575,-0.194457602377327
0.84019479783059,-0.218419507038148
