-0.888322620140802,-0.283057455091586
-0.879651155837057,-0.284936340718248
-0.870789762385876,-0.286206681236592
-0.861809856944167,-0.28709730177469
-0.852738013066492,-0.28769334569709
-0.843590120955811,-0.288045726228083
-0.834377245397777,-0.288189895646969
-0.825107753884803,-0.288152663933404
-0.815788314262904,-0.287955395291505
-0.806424436111777,-0.287615742766206
-0.797020794514199,-0.28714868562106
-0.787581437703144,-0.28656719465284
-0.77810992747392,-0.285882682081002
-0.768609438163138,-0.285105318682614
-0.759082828803623,-0.284244264981286
-0.749532697202988,-0.28330784451839
-0.739961421428867,-0.282303676774375
-0.730371192270893,-0.281238781179021
-0.72076403908027,-0.280119659903087
-0.711141850646853,-0.278952364749802
-0.701506392289333,-0.277742551912895
-0.691859320008874,-0.276495527325775
-0.682202192332923,-0.275216284609833
-0.672536480318785,-0.273909537126548
-0.662863576074157,-0.272579745277818
-0.653184800069987,-0.271231139936819
-0.643501407460527,-0.269867742697874
-0.633814593580164,-0.268493383488635
-0.624125498752182,-0.267111715977668
-0.614435212518223,-0.265726231125925
-0.604744777376727,-0.264340269164932
-0.595055192102549,-0.262957030233055
-0.585367414707272,-0.261579583860548
-0.575682365089609,-0.260210877461581
-0.566000927417113,-0.258853743965418
-0.556323952273869,-0.257510908697743
-0.54665225860342,-0.256184995605932
-0.536986635471806,-0.254878532907928
-0.527327843671919,-0.253593958232703
-0.517676617187379,-0.252333623310615
-0.508033664531598,-0.251099798263848
-0.498399669975586,-0.249894675540385
-0.488775294676265,-0.248720373529189
-0.479161177715536,-0.247578939889458
-0.469557937059087,-0.24647235462269
-0.459966170442789,-0.245402532912759
-0.45038645619362,-0.244371327756203
-0.440819353991224,-0.24338053240232
-0.431265405575532,-0.24243188262042
-0.421725135405244,-0.241527058809639
-0.412199051271451,-0.240667687965044
-0.402687644870234,-0.239855345512251
-0.393191392337639,-0.239091557021535
-0.383710754750104,-0.238377799811226
-0.374246178593093,-0.237715504449243
-0.364798096200415,-0.237106056160698
-0.355366926166466,-0.236550796148748
-0.345953073733421,-0.23605102283518
-0.336556931155206,-0.235607993026606
-0.327178878039918,-0.235222923011589
-0.317819281672196,-0.234896989593554
-0.308478497316931,-0.234631331063884
-0.299156868505563,-0.234427048119225
-0.2898547273061,-0.234285204726674
-0.280572394577934,-0.234206828940196
-0.271310180212383,-0.234192913671346
-0.262068383359854,-0.234244417417123
-0.252847292644434,-0.234362264947512
-0.243647186366635,-0.234547347955119
-0.234468332694997,-0.234800525669058
-0.225310989847157,-0.235122625435111
-0.216175406260964,-0.235514443264005
-0.207061820756187,-0.235976744349518
-0.197970462687287,-0.236510263557977
-0.18890155208772,-0.237115705890619
-0.179855299806188,-0.237793746920135
-0.170831907635215,-0.238545033202655
-0.161831568432423,-0.239370182666305
-0.152854466234822,-0.240269784977406
-0.143900776366427,-0.241244401885293
-0.134970665539485,-0.242294567546643
-0.126064291949571,-0.243420788830172
-0.117181805364793,-0.244623545602459
-0.108323347209332,-0.245903290995602
-0.0994890506415173,-0.247260451657382
-0.0906790406266269,-0.248695427984528
-0.0818934340045923,-0.250208594339636
-0.0731323395527602,-0.251800299252266
-0.064395858043858,-0.253470865604667
-0.0556840822992997,-0.255220590802573
-0.0469970972379503,-0.257049746931446
-0.0383349799204599,-0.258958580898527
-0.0296977995892657,-0.260947314561002
-0.0210856177043499,-0.263016144840577
-0.0124984879748331,-0.265165243824702
-0.00393645638647169,-0.267394758854674
0.00460043877488238,-0.269704812600806
0.0131121669038076,-0.272095503124823
0.0215987050597828,-0.274566903929617
0.0300600379555691,-0.277119063996477
0.0384961579494779,-0.279752007809861
0.0469070650415095,-0.282465735369769
0.0552927668733522,-0.285260222191743
0.0636532787322449,-0.288135419294495
0.0719886235587086,-0.291091253175131
0.0802988319581651,-0.294127625771927
0.0885839422164662,-0.297244414414571
0.0968440003193682,-0.300441471761764
0.105079059975992,-0.303718625726057
0.113289182646319,-0.307075679385744
0.121474437572788,-0.310512410883639
0.129634901816047,-0.314028573312502
0.137770660294963,-0.317623894586869
0.145881805830949,-0.321298077301007
0.153968439196732,-0.325050798572666
0.16203066916966,-0.328881709872289
0.170068612589662,-0.332790436837277
0.17808239442202,-0.336776579070903
0.18607214782506,-0.340839709925384
0.194038014222964,-0.344979376268623
0.20198014338384,-0.349195098234041
0.209898693503262,-0.353486368952923
0.217793831293479,-0.357852654268589
0.225665732078505,-0.362293392431708
0.23351457989535,-0.366807993775957
0.241340567601635,-0.371395840373208
0.249143896989886,-0.376056285667334
0.256924778908804,-0.380788654085643
0.264683433391845,-0.385592240626899
0.272420089793471,-0.390466310424773
0.280134986933448,-0.395410098285488
0.287828373249628,-0.400422808198317
0.295500506959647,-0.405503612817479
0.303151656232044,-0.410651652913858
0.310782099367334,-0.41586603679485
0.318392124989601,-0.421145839690467
0.325982032249253,-0.426490103103714
0.333552131037608,-0.431897834123033
0.341102742214057,-0.43736800469446
0.34863419784661,-0.442899550850898
0.356146841466706,-0.448491371895702
0.363641028339235,-0.454142329537487
0.371117125748838,-0.459851246972829
0.378575513303611,-0.465616907913165
0.38601658325748,-0.471438055551883
0.39344074085262,-0.477313391467196
0.400848404683427,-0.483241574455947
0.40824000708371,-0.489221219293025
0.415615994538933,-0.49525089541051
0.422976828125534,-0.50132912549007
0.430322983979559,-0.507454383961434
0.437654953797088,-0.513625095398982
0.444973245369214,-0.519839632807651
0.452278383154636,-0.526096315788302
0.459570908893285,-0.532393408571626
0.466851382264805,-0.538729117908326
0.474120381596174,-0.545101590801862
0.481378504623263,-0.551508912068361
0.488626369311759,-0.557949101706326
0.495864614743566,-0.564420112056556
0.503093902075603,-0.570919824730091
0.51031491557888,-0.577446047278948
0.517528363766811,-0.583996509580941
0.524734980623015,-0.590568859905714
0.531935526940384,-0.597160660624293
0.539130791784957,-0.603769383518736
0.54632159410028,-0.610392404641667
0.553508784470434,-0.617026998667402
0.560693247062976,-0.623670332666678
0.567875901776615,-0.630319459225323
0.575057706622937,-0.636971308813084
0.582239660376796,-0.643622681291595
0.589422805536632,-0.65027023642933
0.596608231644087,-0.656910483265337
0.603797079022445,-0.66353976813105
0.610990543006093,-0.670154261098818
0.618189878749283,-0.676749940574316
0.625396406722962,-0.683322575684369
0.632611519034829,-0.689867706027079
0.639836686742188,-0.696380618240968
0.647073468372486,-0.702856318704643
0.654323519926887,-0.709289501484696
0.661588606724081,-0.715674510387398
0.668870617553925,-0.72200529360952
0.676171581767623,-0.728275348980304
0.683493690154806,-0.734477657069968
0.690839320783108,-0.740604598398065
0.698211071460144,-0.74664784942322
0.705611801218738,-0.752598249621827
0.7130446843955,-0.758445628216815
0.720513282785741,-0.764178572988729
0.728021644622431,-0.769784113140797
0.73557444498835,-0.775247269409463
0.743177193463195,-0.780550388749797
0.750836557892978,-0.785672106957679
0.758560905770116,-0.790585614053454
0.766361301880258,-0.795255457757822
0.774253636426367,-0.799630724846493
0.782264482963004,-0.803626271954917
0.790465258647077,-0.807013273955022
-0.888322620140802,-0.283057455091586
-0.880121844456729,-0.286444457091692
-0.872110997920092,-0.290440004200115
-0.864218663373983,-0.294815271288786
-0.856418267263841,-0.299485114993154
-0.848693919386703,-0.304398622088929
-0.84103455495692,-0.309520340296811
-0.833431806482075,-0.314823459637145
-0.825879006116156,-0.320286615905812
-0.818370644279466,-0.325892156057879
-0.810902045889226,-0.331625100829793
-0.803469162712463,-0.337472479424781
-0.796068432953869,-0.343422879623388
-0.788696682276833,-0.349466130648543
-0.781351051648531,-0.35559307197664
-0.774028943261348,-0.361795380066304
-0.76672797904765,-0.368065435437088
-0.759445968217807,-0.37439621865921
-0.752180881420612,-0.380781227561912
-0.744930829866211,-0.387214410341965
-0.737694048235913,-0.39369011080564
-0.730468880528554,-0.400203023019529
-0.723253768216688,-0.406748153362239
-0.716047240243008,-0.413320788472292
-0.708847904499818,-0.41991646794779
-0.701654440516171,-0.426530960915558
-0.694465593137812,-0.433160245781271
-0.687280167030357,-0.439800492617278
-0.680097021870521,-0.446448047755013
-0.672915068116662,-0.453099420233524
-0.66573326327034,-0.459751269821286
-0.658550608556701,-0.46640039637993
-0.65136614596416,-0.473043730379206
-0.644178955594005,-0.479678324404941
-0.636988153278683,-0.486301345527872
-0.62979288843411,-0.492910068422315
-0.622592342116741,-0.499501869140895
-0.615385725260537,-0.506074219465667
-0.608172277072606,-0.51262468176766
-0.600951263569328,-0.519150904316517
-0.593721976237291,-0.525650616990052
-0.586483730805484,-0.532121627340282
-0.579235866116988,-0.538561816978247
-0.571977743089899,-0.544969138244746
-0.56470874375853,-0.551341611138282
-0.55742827038701,-0.557677320474982
-0.550135744648362,-0.563974413258306
-0.54283060686294,-0.570231096238957
-0.535512315290813,-0.576445633647626
-0.528180345473284,-0.582616345085174
-0.520834189619259,-0.588741603556538
-0.513473356032658,-0.594819833636099
-0.506097368577435,-0.600849509753583
-0.498705766177152,-0.606829154590661
-0.491298102346345,-0.612757337579412
-0.483873944751205,-0.618632673494725
-0.476432874797336,-0.624453821133443
-0.468974487242563,-0.630219482073779
-0.461498389832961,-0.635928399509122
-0.454004202960431,-0.641579357150907
-0.446491559340336,-0.64717117819571
-0.438960103707782,-0.652702724352148
-0.431409492531333,-0.658172894923575
-0.423839393742978,-0.663580625942894
-0.416249486483326,-0.668924889356141
-0.408639460861059,-0.674204692251758
-0.40100901772577,-0.67941907613275
-0.393357868453372,-0.684567116229129
-0.385685734743353,-0.689647920848291
-0.377992348427173,-0.69466063076112
-0.370277451287196,-0.699604418621835
-0.36254079488557,-0.704478488419709
-0.354782140402529,-0.709282074960965
-0.347001258483612,-0.714014443379274
-0.339197929095361,-0.7186748886734
-0.331371941389075,-0.723262735270652
-0.32352309357223,-0.7277773366149
-0.315651192787204,-0.732218074778019
-0.307756054996988,-0.736584360093685
-0.299837504877565,-0.740875630812567
-0.291895375716689,-0.745091352777985
-0.283929509318785,-0.749231019121224
-0.275939755915745,-0.753294149975705
-0.267925974083388,-0.757280292209331
-0.259888030663385,-0.761189019174319
-0.251825800690458,-0.765019930473941
-0.243739167324674,-0.768772651745601
-0.235628021788688,-0.772446834459739
-0.227492263309773,-0.776042155734107
-0.219331799066513,-0.779558318162969
-0.211146544140045,-0.782995049660864
-0.202936421469717,-0.786352103320551
-0.194701361813093,-0.789629257284844
-0.186441303710191,-0.792826314632038
-0.17815619345189,-0.795943103274681
-0.169845985052434,-0.798979475871477
-0.16151064022597,-0.801935309752113
-0.153150128367077,-0.804810506854865
-0.144764426535235,-0.807604993676839
-0.136353519443203,-0.810318721236747
-0.127917399449294,-0.812951665050131
-0.119456066553508,-0.815503825116991
-0.110969528397533,-0.817975225921785
-0.102457800268608,-0.820365916445802
-0.0939209051072535,-0.822675970191934
-0.085358873518892,-0.824905485221906
-0.0767717437893753,-0.827054584206031
-0.0681595619044595,-0.829123414485606
-0.0595223815732653,-0.831112148148081
-0.0508602642557749,-0.833020982115162
-0.0421732791944255,-0.834850138244035
-0.0334615034498672,-0.836599863441941
-0.024725021940965,-0.838270429794342
-0.0159639274891328,-0.839862134706972
-0.00717832086709846,-0.841375301062081
0.00163168914779217,-0.842810277389226
0.0104659857156073,-0.844167438051006
0.0193244438710678,-0.845447183444149
0.0282069304558454,-0.846649940216436
0.0371133040457592,-0.847776161499965
0.0460434148727016,-0.848826327161315
0.0549971047410966,-0.849800944069202
0.0639742069386977,-0.850700546380303
0.0729745461414895,-0.851525695843953
0.0819979383124626,-0.852276982126473
0.0910441905939953,-0.852955023155989
0.100113101193562,-0.853560465488631
0.109204459262462,-0.85409398469709
0.118318044767239,-0.854556285782603
0.127453628353432,-0.854948103611497
0.136610971201272,-0.85527020337755
0.14578982487291,-0.855523381091489
0.154989931150709,-0.855708464099096
0.164211021866129,-0.855826311629485
0.173452818718658,-0.855877815375262
0.182715033084208,-0.855863900106412
0.191997365812375,-0.855785524319934
0.201299507011837,-0.855643680927383
0.210621135823206,-0.855439397982724
0.21996192017847,-0.855173739453054
0.229321516546193,-0.854847806035019
0.238699569661481,-0.854462736020002
0.248095712239696,-0.854019706211428
0.257509564672741,-0.85351993289786
0.26694073470669,-0.85296467288591
0.276388817099368,-0.852355224597365
0.285853393256379,-0.851692929235383
0.295334030843914,-0.850979172025073
0.304830283376509,-0.850215383534357
0.314341689777726,-0.849403041081564
0.323867773911519,-0.848543670236969
0.333408044081807,-0.847638846426188
0.342961992497499,-0.846690196644288
0.352529094699895,-0.845699401290406
0.362108808949064,-0.844668196133849
0.371700575565362,-0.843598374423918
0.381303816221811,-0.84249178915715
0.39091793318254,-0.841350355517419
0.400542308481861,-0.840176053506223
0.410176303037873,-0.83897093078276
0.419819255693654,-0.837737105735993
0.429470482178194,-0.836476770813905
0.439129273978081,-0.83519219613868
0.448794897109695,-0.833885733440676
0.458466590780143,-0.832559820348865
0.468143565923388,-0.83121698508119
0.477825003595884,-0.829859851585027
0.487510053213547,-0.82849114518606
0.497197830608823,-0.827113698813553
0.506887415883002,-0.825730459881676
0.516577851024498,-0.824344497920683
0.526268137258457,-0.82295901306894
0.535957232086439,-0.821577345557973
0.545644045966802,-0.820202986348734
0.555327438576261,-0.818839589109789
0.565006214580432,-0.81749098376879
0.574679118825059,-0.81616119192006
0.584344830839198,-0.814854444436775
0.594001958515149,-0.813575201720834
0.603649030795608,-0.812328177133713
0.613284489153128,-0.811118364296806
0.622906677586544,-0.809951069143521
0.632513830777168,-0.808831947867587
0.642104059935142,-0.807767052272233
0.651675335709263,-0.806762884528218
0.661225467309897,-0.805826464065322
0.670752076669413,-0.804965410363994
0.680252565980195,-0.804188046965606
0.689724076209419,-0.803503534393768
0.699163433020474,-0.802922043425548
0.708567074618052,-0.802454986280402
0.717930952769179,-0.802115333755103
0.727250392391078,-0.801918065113204
0.736519883904051,-0.801880833399639
0.745732759462086,-0.802025002818525
0.754880651572766,-0.802377383349518
0.763952495450442,-0.802973427271918
0.772932400892151,-0.803864047810016
0.781793794343332,-0.80513438832836
0.790465258647077,-0.807013273955022
