-0.252953047758665,-0.907344909526776
-0.25283940074099,-0.90735330191034
-0.252723502591811,-0.907361737763325
-0.252605297792297,-0.90737021507192
-0.252484729187603,-0.907378731669237
-0.252361737930888,-0.907387285226732
-0.252236263425171,-0.907395873245144
-0.252108243262904,-0.907404493044947
-0.251977613163181,-0.907413141756267
-0.251844306906465,-0.907421816308247
-0.251708256266743,-0.907430513417817
-0.251569390940969,-0.90743922957785
-0.251427638475706,-0.907447961044645
-0.251282924190806,-0.907456703824728
-0.251135171100032,-0.907465453660901
-0.250984299828454,-0.907474206017515
-0.250830228526495,-0.907482956064916
-0.250672872780459,-0.907491698663011
-0.250512145519392,-0.907500428343908
-0.250347956918099,-0.907509139293571
-0.250180214296155,-0.907517825332431
-0.250008822012698,-0.907526479894895
-0.249833681356844,-0.907535096007679
-0.249654690433482,-0.907543666266907
-0.249471744044269,-0.90755218281388
-0.249284733563572,-0.907560637309464
-0.249093546809127,-0.90756902090698
-0.248898067907173,-0.907577324223529
-0.248698177151785,-0.907585537309647
-0.248493750858136,-0.907593649617184
-0.248284661209392,-0.907601649965305
-0.248070776096939,-0.907609526504479
-0.247851958953604,-0.907617266678364
-0.247628068579552,-0.907624857183411
-0.247398958960478,-0.907632283926085
-0.247164479077724,-0.907639531977527
-0.246924472709928,-0.907646585525502
-0.246678778225777,-0.907653427823461
-0.246427228367419,-0.907660041136538
-0.24616965002408,-0.907666406684263
-0.245905863995373,-0.907672504579816
-0.245635684743802,-0.907678313765557
-0.245358920135886,-0.907683811944621
-0.245075371171353,-0.907688975508306
-0.244784831699767,-0.907693779458982
-0.244487088123957,-0.907698197328219
-0.244181919089564,-0.907702201089833
-0.243869095159979,-0.90770576106749
-0.243548378475927,-0.907708845836529
-0.243219522398869,-0.907711422119591
-0.242882271137395,-0.907713454675657
-0.242536359355698,-0.90771490618204
-0.242181511763182,-0.907715737108842
-0.241817442684192,-0.907715905585388
-0.24144385560682,-0.90771536725805
-0.241060442709645,-0.907714075138898
-0.240666884365223,-0.907711979444531
-0.24026284861907,-0.907709027424388
-0.239847990642807,-0.907705163177841
-0.239421952160037,-0.907700327459234
-0.238984360843486,-0.907694457470061
-0.238534829681802,-0.907687486637334
-0.238072956314337,-0.907679344377183
-0.237598322332147,-0.907669955842613
-0.237110492543304,-0.907659241654279
-0.236609014200539,-0.90764711761306
-0.236093416189092,-0.907633494393096
-0.235563208172519,-0.907618277213864
-0.235017879694071,-0.907601365489763
-0.234456899231139,-0.907582652455524
-0.233879713200052,-0.907562024765678
-0.233285744908411,-0.907539362066134
-0.232674393451932,-0.907514536535773
-0.232045032552587,-0.90748741239581
-0.231397009334662,-0.907457845384479
-0.230729643035113,-0.907425682194399
-0.230042223644387,-0.907390759869777
-0.229334010473658,-0.907352905160345
-0.228604230644151,-0.907311933828711
-0.227852077493974,-0.907267649907482
-0.227076708897606,-0.907219844902255
-0.226277245492851,-0.907168296936228
-0.225452768809815,-0.907112769831815
-0.224602319296049,-0.907053012124294
-0.223724894231703,-0.906988756002049
-0.22281944552813,-0.906919716167551
-0.221884877402975,-0.906845588612673
-0.220920043924371,-0.906766049301447
-0.219923746416405,-0.90668075275269
-0.21889473071755,-0.90658933051436
-0.217831684283235,-0.906491389520719
-0.216733233123235,-0.906386510322649
-0.215597938563961,-0.906274245180581
-0.21442429382517,-0.90615411600859
-0.213210720400005,-0.906025612157191
-0.211955564226589,-0.905888188021237
-0.210657091638778,-0.905741260458129
-0.20931348508292,-0.905584206000213
-0.207922838586762,-0.905416357843767
-0.206483152965881,-0.905237002595408
-0.204992330752207,-0.90504537675499
-0.203448170828431,-0.90484066291217
-0.201848362751205,-0.904621985631709
-0.20019048074525,-0.90438840700029
-0.198471977349581,-0.904138921805155
-0.196690176696221,-0.903872452312049
-0.19484226740092,-0.903587842607033
-0.19292529504453,-0.903283852463345
-0.190936154222924,-0.902959150690946
-0.188871580142524,-0.902612307922385
-0.186728139737868,-0.902241788784284
-0.184502222286995,-0.901845943399043
-0.182190029499975,-0.901422998156084
-0.179787565055564,-0.900971045686356
-0.177290623560837,-0.900488033967528
-0.174694778908774,-0.899971754480524
-0.171995372009184,-0.899419829330606
-0.16918749786915,-0.89882969723809
-0.166265992000423,-0.898198598294901
-0.16322541613301,-0.897523557373502
-0.160060043216649,-0.896801366064223
-0.156763841695153,-0.896028563005507
-0.153330459042813,-0.895201412459196
-0.149753204557445,-0.894315880969436
-0.146025031411345,-0.893367611929193
-0.142138517969795,-0.892351897862575
-0.138085848396936,-0.891263650214165
-0.133858792581324,-0.890097366418327
-0.129448685428557,-0.888847094001901
-0.124846405586541,-0.887506391452935
-0.120042353690772,-0.886068285566025
-0.115026430243024,-0.88452522495165
-0.1097880132678,-0.882869029372576
-0.104315935927608,-0.881090834545285
-0.0985984643214983,-0.879181032018597
-0.0926232757424093,-0.877129203715649
-0.0863774377289439,-0.874924050699638
-0.0798473883175695,-0.87255331569889
-0.0730189179835145,-0.870003698903736
-0.0658771538545261,-0.867260766527451
-0.0584065468931585,-0.864308851607599
-0.050590862872516,-0.861130946514241
-0.0424131781198328,-0.857708586629825
-0.0338558811745106,-0.854021724675058
-0.0249006817051383,-0.850048595178867
-0.0155286282565639,-0.845765568633126
-0.00572013665645848,-0.841146994939032
0.00454496879580766,-0.836165035848252
0.0152873989035951,-0.830789486235569
0.0265283250837122,-0.824987584219759
0.0382892835701794,-0.818723810386494
0.0505920546062833,-0.811959676673728
0.0634585124128035,-0.804653505871147
0.076910441168205,-0.796760203177921
0.0909693116433154,-0.788231021877004
0.105656012505292,-0.779013325941984
0.120990529654696,-0.76905035331912
0.136991566302038,-0.758280984750372
0.153676095850373,-0.746639524352703
0.171058839061916,-0.734055499775679
0.189151656494203,-0.720453491654528
0.207962846854172,-0.705753004288383
0.227496341812943,-0.689868392027774
0.24775078804616,-0.672708858767066
0.268718507933688,-0.654178551208123
0.290384331612924,-0.634176770171435
0.312724295104118,-0.612598328130989
0.335704202213402,-0.589334085249021
0.359278052095086,-0.564271700341801
0.38338633996413,-0.537296637203904
0.407954245746951,-0.508293470255179
0.432889734689948,-0.477147536147309
0.45808160532223,-0.443746979250116
0.483397533833039,-0.407985238173637
0.508682179896667,-0.36976401687456
0.53375543709804,-0.328996776520244
0.558410930965137,-0.285612772114708
0.582414888445544,-0.239561639858469
0.60550552329498,-0.190818516295479
0.627393100595154,-0.139389637656323
0.647760858253717,-0.0853183269651515
0.666266971070802,-0.0286912275655258
0.682547740512377,0.0303554142685064
0.696222177133988,0.091629675891662
0.70689810908305,0.154878414579168
0.714179896181412,0.219782632681837
0.71767775274716,0.285954178899729
0.717018583359428,0.352934242554663
0.711858116570004,0.420194100020409
0.701893987708681,0.487138538688215
0.686879282613491,0.553112306713168
0.666635922079634,0.617409811990388
0.641067157634878,0.679288121641315
0.610168379878837,0.737983100050168
0.574035427269167,0.792728282298191
0.532869638667692,0.842775830490163
0.486979023725326,0.887418688042697
0.436775129261337,0.926012859228492
0.382765445244391,0.957998624763367
0.325541499159895,0.982919480227815
0.265763103066898,1.00043766447343
0.204139510034489,1.01034532940202
0.141408473110842,1.0125706767786
0.0783143534458264,1.00717872605865
0.0155864776030539,0.994366744849713
-0.0460811069240847,0.974454732148902
-0.106047475674032,0.947871657409374
-0.163739490575807,0.915138396438211
-0.218662772481486,0.876848449648006
-0.270408758997883,0.833647573383481
-0.318657896891676,0.786213407121054
-0.363179253875656,0.735236054259047
-0.403827015834648,0.681400394222949
-0.440534454491384,0.625370693360257
-0.473306007211484,0.567777865145844
-0.502208111659286,0.509209526349588
-0.527359394223004,0.450202819493999
-0.548920735480283,0.391239831801985
-0.567085641524593,0.332745340147749
-0.582071248397547,0.275086549103685
-0.594110187579165,0.218574460704117
-0.603443450245639,0.163466513852954
-0.610314310995123,0.109970151500098
-0.614963309897853,0.0582470080727567
-0.617624245209608,0.00841745219116539
-0.618521096809789,-0.0394347344882335
-0.617865780533759,-0.0852577161102798
-0.615856623845186,-0.129027130666408
-0.612677451458274,-0.170741881174238
-0.608497173437229,-0.210420251805414
-0.603469776103444,-0.24809638435186
-0.597734626225413,-0.283817129460925
-0.591417010239816,-0.317639271080585
-0.584628841750905,-0.349627110898063
-0.577469481645609,-0.379850391536728
-0.570026625431976,-0.408382532215663
-0.562377221622158,-0.435299147843657
-0.554588393033207,-0.460676821557999
-0.546718339757957,-0.484592101054985
-0.538817208316358,-0.507120690302954
-0.53092791622526,-0.528336810067588
-0.523086925033712,-0.548312702869855
-0.515324957880353,-0.567118260355607
-0.507667659957948,-0.584820753448013
-0.500136202028607,-0.601484647985241
-0.49274782842303,-0.617171490753117
-0.48551635186756,-0.631939852867025
-0.478452598091135,-0.645845319318509
-0.471564803536022,-0.658940515172333
-0.46485896968594,-0.671275160381096
-0.458339177578013,-0.68289614648487
-0.452007866017085,-0.693847629594768
-0.44586607689153,-0.704171135036057
-0.439913670821638,-0.713905669863539
-0.434149516172852,-0.723087840174636
-0.428571654250082,-0.731751970748731
-0.423177443266365,-0.739930225048574
-0.41796368345669,-0.747652724043779
-0.412926725491271,-0.754947662669109
-0.408062564135562,-0.76184142302167
-0.403366918909246,-0.768358683640508
-0.398835303314715,-0.774522524407302
-0.394463084037758,-0.780354526764932
-0.390245531369486,-0.785874869077607
-0.386177861958601,-0.791102417057131
-0.382255274876433,-0.796054809259215
-0.378472981863037,-0.80074853771519
-0.374826232520138,-0.805199023811215
-0.371310335125135,-0.809420689561873
-0.367920673658604,-0.813427024449974
-0.364652721565103,-0.81723064802149
-0.361502052702622,-0.820843368435253
-0.35846434987893,-0.824276237172781
-0.355535411322676,-0.827539600115271
-0.3527111553926,-0.830643145193481
-0.349987623789065,-0.833595946812456
-0.347360983497663,-0.836406507247594
-0.344827527664413,-0.839082795201723
-0.34238367557553,-0.841632281705181
-0.340025971891508,-0.844061973532599
-0.337751085264912,-0.846378444301454
-0.335555806453502,-0.848587863408648
-0.333437046024774,-0.8506960229526
-0.331391831734469,-0.852708362779674
-0.329417305649787,-0.854629993785245
-0.327510721077758,-0.856465719591582
-0.325669439350319,-0.85822005671677
-0.323890926509824,-0.859897253341423
-0.322172749932036,-0.861501306772711
-0.320512574917768,-0.863035979698489
-0.318908161279308,-0.864504815317862
-0.317357359943387,-0.865911151428494
-0.315858109588672,-0.867258133545325
-0.314408433332532,-0.868548727120005
-0.313006435479027,-0.869785728925428
-0.311650298337651,-0.870971777665088
-0.31033827912034,-0.872109363862668
-0.30906870692247,-0.873200839083239
-0.307839979792104,-0.874248424533714
-0.306650561890443,-0.875254219086716
-0.305498980745407,-0.876220206768778
-0.304383824599321,-0.877148263750829
-0.303303739850963,-0.878040164876102
-0.302257428591575,-0.878897589758045
-0.301243646233933,-0.879722128478439
-0.300261199233119,-0.880515286913684
-0.29930894289734,-0.881278491715203
-0.298385779286796,-0.882013094968001
-0.297490655198444,-0.882720378549666
-0.296622560234291,-0.883401558210479
-0.295780524950758,-0.884057787393791
-0.294963619086546,-0.884690160814459
-0.294170949866393,-0.885299717811818
-0.293401660378079,-0.885887445492498
-0.292654928020025,-0.886454281677283
-0.291929963016834,-0.887001117665216
-0.291226007000178,-0.887528800827162
-0.290542331652426,-0.888038137040236
-0.289878237410497,-0.888529892973634
-0.289233052227459,-0.889004798235694
-0.288606130389457,-0.889463547391329
-0.287996851385616,-0.889906801858286
-0.287404618828659,-0.890335191690159
-0.28682885942402,-0.890749317253473
-0.286269021985325,-0.891149750805687
-0.285724576494194,-0.891537037980477
-0.285195013202376,-0.891911699186218
-0.284679841774322,-0.892274230923187
-0.284178590468358,-0.892625107024633
-0.28369080535471,-0.892964779826501
-0.283216049568698,-0.893293681270278
-0.28275390259748,-0.893612223943144
-0.282303959598807,-0.893920802059288
-0.281865830750314,-0.894219792386057
-0.281439140627928,-0.894509555118284
-0.281023527612048,-0.894790434703994
-0.280618643320213,-0.895062760624427
-0.280224152065012,-0.895326848131139
-0.279839730336081,-0.895582998942769
-0.27946506630505,-0.89583150190389
-0.279099859352383,-0.896072633608188
-0.278743819615086,-0.896306658988095
-0.278396667554308,-0.896533831872852
-0.278058133541928,-0.896754395516849
-0.277727957465214,-0.896968583099975
-0.277405888348755,-0.897176618201618
-0.277091683992822,-0.89737871524981
-0.276785110627431,-0.897575079946977
-0.276485942581361,-0.897765909673605
-0.27619396196545,-0.897951393871098
-0.275908958369494,-0.898131714404988
-0.27563072857214,-0.898307045909621
-0.275359076263164,-0.898477556115348
-0.275093811777567,-0.898643406159191
-0.274834751840963,-0.898804750879917
-0.274581719325712,-0.898961739098362
-0.274334543017346,-0.899114513883828
-0.274093057390793,-0.899263212807314
-0.273857102395962,-0.899407968182281
-0.273626523252272,-0.899548907293652
-0.273401170251717,-0.899686152615656
-0.273180898570079,-0.899819822019124
-0.272965568085929,-0.899950028968806
-0.27275504320707,-0.900076882711222
-0.272549192704077,-0.900200488453562
-0.272347889550641,-0.900320947534095
-0.272151010770388,-0.900438357584537
-0.271958437289907,-0.900552812684796
-0.271770053797708,-0.900664403510476
-0.271585748608849,-0.900773217473542
-0.271405413534973,-0.900879338856457
-0.271228943759543,-0.900982848940162
-0.271056237718027,-0.901083826126184
-0.270887196982822,-0.901182346053186
-0.270721726152726,-0.901278481708225
-0.270559732746742,-0.901372303533
-0.270401127102045,-0.901463879525314
-0.27024582227592,-0.901553275336018
-0.270093733951515,-0.901640554361634
-0.269944780347235,-0.901725777832883
-0.269798882129627,-0.901809004899314
-0.269655962329614,-0.901890292710224
-0.269515946261927,-0.901969696492051
-0.269378761447608,-0.902047269622402
-0.269244337539456,-0.90212306370089
-0.269112606250283,-0.902197128616921
-0.268983501283884,-0.902269512614582
-0.268856958268582,-0.902340262354765
-0.268732914693268,-0.902409422974658
-0.268611309845814,-0.902477038144727
-0.268492084753771,-0.902543150123302
-0.268375182127258,-0.902607799808885
-0.268260546303954,-0.902671026790283
-0.2681481231961,-0.902732869394658
-0.268037860239441,-0.902793364733602
-0.267929706344024,-0.902852548747324
-0.267823611846775,-0.902910456247022
-0.267719528465791,-0.902967120955545
-0.267617409256276,-0.903022575546399
-0.267517208568049,-0.903076851681185
