1.01967972358534,-0.697155201519762
1.00751656615181,-0.69335119467587
0.995485549723874,-0.689525829723906
0.98358536705105,-0.685679681250071
0.971814734353564,-0.681813319938464
0.960172390674052,-0.677927312655333
0.948657097248258,-0.674022222530207
0.937267636894054,-0.670098609034028
0.914861451040114,-0.662198031967852
0.903842393832494,-0.65822216970985
0.892944505177575,-0.65422998684157
0.882166667239154,-0.6502220256146
0.871507780449505,-0.646198825033013
0.850542550410543,-0.638108845940765
0.840234094950659,-0.634043129726858
0.830040365289628,-0.629964298860152
0.819960345997432,-0.62587287695841
0.800137453772323,-0.6176543399579
0.790392625701348,-0.613528257671019
0.780757596915781,-0.609391650061455
0.771231425284971,-0.605245026589179
0.761813182165028,-0.601088894009341
0.752501952032354,-0.596923756410553
0.743296832127054,-0.592750115251568
0.734196932105947,-0.588568469396424
0.725201373704861,-0.584379315148088
0.716309290409952,-0.580183146280661
0.707519827137758,-0.575980454070175
0.69883213992375,-0.571771727324039
0.690245395619112,-0.567557452409174
0.681758771595502,-0.563338113278869
0.673371455457577,-0.559114191498406
0.665082644763044,-0.554886166269502
0.656891546750015,-0.55065451445358
0.64879737807146,-0.54641971059393
0.64079936453655,-0.542182226936784
0.632896740858699,-0.537942533451336
0.625088750410098,-0.533701097848748
0.617374644982578,-0.529458385600167
0.609753684554595,-0.525214859953789
0.6022251370642,-0.520970981950993
0.594788278187786,-0.516727210441583
0.587442391124484,-0.512484002098155
0.580186766386038,-0.508241811429628
0.573020701591993,-0.504001090793952
0.565943501270084,-0.499762290410035
0.552052945531931,-0.491292240644065
0.545238231985202,-0.487061881101314
0.538509666284444,-0.482835221507617
0.53186658467561,-0.478612701539494
0.525308329216249,-0.474394758790677
0.512443693035718,-0.46597434495357
0.506136024004473,-0.461772738699108
0.499910604188738,-0.457577439342692
0.49376680227923,-0.45338887415772
0.487703991835973,-0.449207468368217
0.481721551144589,-0.445033645152473
0.475818863076138,-0.440867825646183
0.469995314950419,-0.436710428945091
0.46425029840264,-0.432561872107167
0.45858320925337,-0.42842257015432
0.452993447381694,-0.424292936073678
0.447480416601484,-0.420173380818429
0.431395805456463,-0.407879267034197
0.42618381171431,-0.403804095940533
0.421045623032981,-0.399741027930595
0.415980664401853,-0.395690461749506
0.410988363960017,-0.391652794103542
0.406068152894847,-0.387628419658032
0.401219465343078,-0.383617731034946
0.396441738294296,-0.379621118810182
0.391734411496804,-0.37563897151056
0.387096927365799,-0.371671675610536
0.382528730893806,-0.367719615528644
0.378029269563312,-0.363783173623677
0.373597993261552,-0.359862730190622
0.364937806820289,-0.352071349575043
0.360707807741168,-0.348201162623495
0.356543815655372,-0.344348474596062
0.352445291267432,-0.34051365539951
0.348411697217732,-0.336697072847627
0.344442498010997,-0.332899092655645
0.340537159946551,-0.329120078434488
0.336695151050318,-0.325360391684846
0.33291594100852,-0.321620391791079
0.329199001103032,-0.317900436014964
0.32554380414836,-0.314200879489296
0.321949824430203,-0.310522075211337
0.318416537645559,-0.306864374036135
0.314943420844353,-0.303228124669705
0.311529952372534,-0.299613673662099
0.308175611816622,-0.296021365400341
0.304879879949675,-0.29245154210127
0.301642238678624,-0.288904543804263
0.295339160914799,-0.281880371442346
0.292272693450084,-0.278403866502113
0.289262254541259,-0.27495152479812
0.286307331021021,-0.27152367537014
0.277770533536224,-0.261390337748646
0.275032556152598,-0.258063703245465
0.27234754014121,-0.254763172715214
0.269714976772039,-0.251489061741224
0.267134357914335,-0.248241683636033
0.264605175999376,-0.245021349433262
0.259699095316561,-0.238663045425899
0.257321183900271,-0.235525686220416
0.254992684062265,-0.232416592099148
0.252713090520012,-0.229336062578312
0.250481898350068,-0.226284394845963
0.244073685589409,-0.217305499164637
0.242031055803104,-0.214372203614714
0.2400343071172,-0.211469220582351
0.23617643968201,-0.205755321868099
0.234314314631745,-0.202944965112405
0.232496058030869,-0.200166038710328
0.230721167001125,-0.197418816115555
0.228989138731546,-0.194703568363412
0.225651659434091,-0.189370069388137
0.224045202926026,-0.186752348071459
0.220954342395948,-0.181616268180308
0.219468932736533,-0.179098424786473
0.21802286627972,-0.176614385096259
0.216615640015882,-0.174164400511409
0.212621970576049,-0.167021254021383
0.211365072595889,-0.164709953975636
0.20669567291431,-0.155819850879725
0.204568828878356,-0.151591104310023
0.201627023924857,-0.14552344005876
0.20071065668703,-0.143575216571732
0.199825563388593,-0.141664516365808
0.198147172682152,-0.13795652599611
0.195143375532137,-0.130999920758945
0.19446300256217,-0.129357636982968
0.193809843165452,-0.127754488890445
0.19318338823604,-0.126190666195897
0.192583128298061,-0.124666355964604
0.192008553499636,-0.123181742607194
0.191459153607125,-0.121737007874355
0.190934417999661,-0.120332330851662
0.190433835663977,-0.118967887954529
0.18995689518951,-0.117643852923284
0.189503084763779,-0.116360396818368
0.189071892168025,-0.115117688015662
0.188275309535653,-0.112755172370454
0.187908892994424,-0.111635688816659
0.187237240046324,-0.10952105821018
0.186643729758584,-0.107573228635796
0.185674638004707,-0.104182668402733
0.185122227696384,-0.102086096278663
0.184968549439747,-0.101472963852646
0.184829235597708,-0.100902904346537
0.184591622404022,-0.0998924899655866
0.184405226115632,-0.0990557974157447
0.184329931716389,-0.0987028798902112
0.184212541269665,-0.0981284443882926
0.184095914116751,-0.0975080335459531
0.184088295583858,-0.0974635943884051
0.184108873777627,-0.097597283328406
0.184128421604531,-0.0977311331154062
0.184183400667445,-0.0981332337545096
0.184217776923549,-0.0984016325083533
0.184256040254303,-0.0987150242264731
0.184297662037059,-0.0990734759716025
0.184388864202848,-0.0999258140290903
0.184437385075418,-0.100419820706576
0.184537614225284,-0.101543789655842
0.184687956336475,-0.103570390600494
0.184781973757649,-0.105149082271192
0.184825519796412,-0.106006834269105
0.184866045446181,-0.106910236827209
0.184964152505859,-0.109894648590786
0.184987246751566,-0.110980940530388
0.185004643387878,-0.112113013027263
0.185020196063479,-0.114514568473752
0.185017277056651,-0.11578407906999
0.184987357234181,-0.118460614945476
0.184921734683797,-0.121320537688597
0.184746908272504,-0.125954267833262
0.184666097608392,-0.12759051454783
0.184573116330295,-0.129272579255411
0.184467421890013,-0.13100044779479
0.184348471241905,-0.132774103376467
0.184215720838601,-0.134593526589935
0.183906644040736,-0.138369585210327
0.183729228000468,-0.140326168759666
0.182310038205113,-0.15302338881551
0.182009281136571,-0.155298849778303
0.181688710664782,-0.157619694166548
0.180602615796728,-0.164854013194064
0.155960676824353,-0.155098685610318
0.221007411633256,-0.163793140721037
0.168889598605767,-0.175451408630092
0.171900347023978,-0.207086236367374
0.167574108099328,-0.22337832344267
0.165615184744054,-0.230200445210856
0.120566420465426,-0.267903315238821
0.158896136495464,-0.251702208358956
0.128161855826062,-0.286049490209271
0.166254198227815,-0.277262542725367
0.150289957498441,-0.26278703348432
0.159999641743342,-0.25351796764586
0.106174452225318,-0.321090862593432
0.194109364378806,-0.276410233737576
0.144009746675687,-0.250971256973618
0.132317388042526,-0.269489814024578
0.091639546792823,-0.29855228408378
0.128051052467728,-0.329769112389579
0.0881892772833686,-0.327473440787234
0.0908188310862607,-0.349662876589546
0.119443184747373,-0.348074281843827
0.0966919504001586,-0.31855144901263
0.112450170494148,-0.362215887192041
0.0794269320096444,-0.367698491705913
0.106247504121848,-0.339463207326019
0.0345826786252872,-0.447429789445596
0.0666560430492146,-0.443412060649586
0.037639309496928,-0.457483810540729
0.00902362891874639,-0.527880364060789
-0.00441715253116942,-0.545684049700694
-0.00904824303127291,-0.551683481715903
-0.0234043692940035,-0.569873545365502
-0.0288818124348913,-0.567446635174753
-0.0982093775747873,-0.641608500930495
-0.112481772127564,-0.671538766682918
-0.159958133174325,-0.667538925361036
-0.207256121902812,-0.750672560469284
-0.360317832329305,-0.838958492001289
-0.336279652950012,-0.89787974137692
-0.430129521516578,-0.905765568957253
-0.39815584570347,-0.941274885037719
