0.00117509521030816,-0.947152707155149
0.0166668425178628,-0.946382434532429
0.0321086053768327,-0.944795527099021
0.0474697374306782,-0.942397483698931
-0.0399651973690035,-1.04880426003316
0.187572427827367,-0.817401832808553
0.0927712278333051,-0.930438449568362
0.107515858480375,-0.924912987680976
0.122037667691205,-0.918649872363009
0.13631173260934,-0.91167241228268
0.150314703932809,-0.904006515759972
0.164024959472913,-0.895680544472987
0.177422746502092,-0.886725153582651
0.190490311952025,-0.877173119237682
0.103240964269419,-0.966115351700014
0.123044011495357,-0.954119629913994
0.227566506704806,-0.845292793980663
0.239179455465268,-0.833717712566418
0.357075578740862,-0.708548619344419
0.261245392333053,-0.8093856643363
0.271693291344621,-0.796711976106094
0.281751943022813,-0.783756224769846
0.29142508785393,-0.770560992232523
0.300718954114123,-0.757168818937387
0.309642217589523,-0.743621972547066
0.431736043942613,-0.627063719733552
0.422796036569351,-0.59729125167524
0.21441463179586,-0.801757251261713
0.341884812254928,-0.688710986037524
0.34916602231155,-0.674999506386179
0.356175825062418,-0.661368789740038
0.362937587252142,-0.647853113552903
0.369476254513345,-0.634484839777454
0.375818184330366,-0.621294253695298
0.271583158275446,-0.698369126389016
0.479549298117326,-0.499265413760384
0.393944522314205,-0.583057319444965
0.399784938116789,-0.570833931517723
0.405575097075878,-0.558903844006942
0.411345838741595,-0.547282297739513
0.41712802974414,-0.535981742650678
0.422952350014403,-0.525011801659517
0.428849078957195,-0.514379251956516
0.434847882924071,-0.504088023751127
0.440977605327646,-0.494139216419938
0.447266060725902,-0.484531131889254
0.453739834183281,-0.475259324980266
0.460424087185543,-0.466316670341162
0.467342371347473,-0.457693445489196
0.474516451107,-0.44937742938748
0.481966136546178,-0.441354015886666
0.489709127419306,-0.433606341271442
0.497760869401421,-0.426115425066266
0.50613442349707,-0.418860323174679
0.514840349469917,-0.411818292352271
0.635767842986522,-0.313201552387927
0.533278454738066,-0.398274532766824
0.543018409399306,-0.391719938924133
0.553106162807185,-0.385273076372475
0.66342760195709,-0.273612857495924
0.574309576189671,-0.372586094394607
0.585410316123844,-0.366286365625464
0.596829028247539,-0.359975572940358
0.501923176676686,-0.456841132577976
0.620559299951398,-0.347200067223748
0.727864265783172,-0.228142814071922
0.645350950468736,-0.334021465470222
0.564894957456303,-0.422700689902256
0.671012737275006,-0.320211592193536
0.6840995693385,-0.313002894852385
0.69731507469286,-0.305558485294148
0.710625289531717,-0.297855352621424
0.723994454165312,-0.289872190296347
0.62620672801635,-0.397384195462523
0.638703304885681,-0.369362173186746
0.764075036464216,-0.264057974148979
0.777293119273115,-0.254780506493941
0.790371180074239,-0.245146644288708
0.905956418719845,-0.133607080249551
0.815937484191149,-0.22477810557763
0.828340253112072,-0.214033717234709
0.840432516048453,-0.202913577797717
0.852171984427095,-0.191419057003063
0.863516968153525,-0.179554017416649
0.8744266053887,-0.167324790160931
0.884861088422464,-0.154740134337896
0.894781884295657,-0.141811180439907
0.904151948852991,-0.128551358141866
0.912935932947195,-0.114976308967152
0.921100379561057,-0.101103784415574
0.928613910667688,-0.0869535302336687
0.935447402710296,-0.0725471575953658
0.941574149650466,-0.0579080020438995
0.946970012608202,-0.0430609711232867
0.951613555197108,-0.0280323816992407
0.95548616374382,-0.0128497880346234
0.958572151671354,0.00245819825696806
0.960858847421142,0.0178620952044972
0.8470647228193,-0.0574628427677596
0.962999159439291,0.0488365021960845
0.962843058711954,0.0643454520818654
0.961868285452302,0.0798275949584919
0.960077954815662,0.0952520579734553
0.957478356616134,0.110588295409115
0.855568480968668,0.0204824798874479
0.949892155262908,0.140876743116058
0.944933591134858,0.155771279715459
0.939221677967957,0.170462621507715
0.932777687355714,0.18492477242006
0.925625590817664,0.199133188012752
0.917791924274578,0.213064936787198
0.909305638273571,0.226698851033998
0.900197934864649,0.240015666228484
0.890502092109993,0.252998148053558
0.880253277280937,0.265631206207682
0.869488349864849,0.277901994239329
0.858245655564465,0.289799994737423
0.846564812525339,0.301317089299845
0.834486491072622,0.312447612798316
0.703596173169825,0.217734309819092
0.717605074238569,0.219684273889734
0.79628438265038,0.343500591748857
0.783035933475513,0.353078236616054
0.769601145018085,0.362278544337847
0.756022180891976,0.371110794371145
0.742340646780916,0.379586640487585
0.728597367167367,0.387720034347362
0.714832167804731,0.395527133666373
0.701083665217191,0.403026195522281
0.792697223384548,0.507871587968678
0.67378396637399,0.417182992988731
0.660302185321602,0.423886584707412
0.646975578699043,0.430373545260706
0.633833888979073,0.436670557799045
0.620904599333868,0.442805494569959
0.608212803616151,0.448807228889599
0.595781091440891,0.454705439640576
0.583629449009505,0.460530409511641
0.57177517622093,0.466312818236645
0.560232820513213,0.472083532124361
0.549014127775895,0.477873391196848
0.538128010568161,0.483712995271978
0.527580533771105,0.489632490335348
0.517374917695195,0.495661356548051
0.507511558556778,0.501828199229646
0.497988066130886,0.50816054414018
0.488799318282359,0.514684638361352
0.479937531974059,0.521425258045065
0.471392350250315,0.528405524257786
0.463150944596331,0.535646728101699
0.455198131980759,0.5431681662387
0.555933133006985,0.65180131691405
0.440086579854616,0.559118054246451
0.336490941764743,0.455149296682573
0.425894433401251,0.576364177273499
0.419084301431013,0.585496443786927
0.412430409881319,0.59497519443808
0.405905420472437,0.604802238229995
0.399480995312669,0.614976560223484
0.393128002066641,0.62549428914318
0.386816722949069,0.636348682291917
0.380517066216565,0.647530127931043
0.271799139501956,0.548374273952646
0.487787537198947,0.777391733998201
0.36138576652531,0.682898166669805
0.354831632198834,0.695235385842902
0.348140460343605,0.70780986648109
0.341284328007588,0.720595803554164
0.334236376621555,0.733565019492056
0.32697099592504,0.746687099197342
0.319463998870772,0.759929539210768
0.311692786421991,0.773257910175299
0.303636501222783,0.786636031661546
0.295276169193681,0.800026158340448
0.286594828182717,0.813389176418189
0.2775776428854,0.826684809184045
0.26821200533527,0.839871830464542
0.258487620359079,0.852908284727304
0.248396575486817,0.865751712535634
0.237933394906034,0.878359380020417
0.227095077151654,0.890688511009641
0.215881116326038,0.902696520437769
0.20429350674886,0.914341247647617
0.0738960142937766,0.823084749476225
0.0667520455203575,0.827412983326997
0.167345866767594,0.946685341937705
0.258420561967796,1.04894146074092
0.140992669049608,0.965698652925366
0.127341506845993,0.974330811144019
0.207942364152043,1.08061630284633
0.0991812438533117,0.989681545339195
0.0847144236863761,0.996340756968008
-0.0314848184998882,0.89814063682727
0.0551259672104937,1.00749662676539
0.0400562490767898,1.01194906819527
0.117887299077525,1.12883059871763
0.120200717477525,1.13740357115228
-0.0966594953719398,0.911063130508976
-0.0213996669921147,1.0218733300304
-0.036908378974752,1.02233135746654
-0.052413531742027,1.02197047103003
-0.0678841396468433,1.02079139191984
-0.0832893927329387,1.01879803137017
-0.0985988584293596,1.01599746790266
-0.00818932887766434,1.10717083421392
-0.128811776420844,1.00801862127382
-0.143658024500082,1.00286987800138
-0.158294451848716,0.9969728436182
-0.172695409646776,0.990349476593918
-0.186836741958164,0.983024402825097
-0.200695944520517,0.97502477646796
-0.214252312820451,0.966380126738621
-0.227487078479236,0.957122191602842
-0.240383533047702,0.947284739355595
-0.252927138388606,0.936903379162829
-0.265105622909386,0.926015361703399
-0.276909062997604,0.914659371107678
-0.288329949104868,0.902875309440615
-0.200784717800834,0.98240242706685
-0.324494855616845,0.905342737725696
-0.365495777781252,0.852536028244766
-0.330124615839124,0.852286482343358
-0.33960718874484,0.838987473524293
-0.320640968595318,0.786889520010186
-0.351802298364363,0.806355942681009
-0.365845320739961,0.798203463390476
-0.242772225597142,0.866031531149695
-0.381623841133445,0.770686420152388
-0.368971850083679,0.798964227138472
-0.425013922378388,0.733646536311084
-0.407082103880678,0.717887312935056
-0.376537329526194,0.751371074252951
-0.378474586762795,0.75149800036041
-0.389156095845439,0.719126175132915
-0.428511089900852,0.677002881605087
-0.402718125893438,0.621221093537834
-0.440361176308614,0.652010624319748
-0.494547629029545,0.679268521488346
-0.505448302776102,0.509383670458286
-0.457721822091972,0.616691829464861
-0.500634390323234,0.564277919582144
-0.469378035807061,0.594753641799614
-0.438017208537496,0.587377162370347
-0.450328857462172,0.620626159541049
-0.487588542106645,0.564393399109621
-0.437900055933881,0.68255206447791
-0.4232243688079,0.642892137937491
-0.526529843251209,0.511001595430988
-0.51438439435362,0.528598495917869
-0.628367547757643,0.434357665292055
-0.484267918508021,0.513495338154437
-0.553790566504358,0.496823168310799
-0.556281946675226,0.507182945731741
-0.534518667141927,0.478237210412957
-0.562808785939219,0.483470223345487
-0.572027351159239,0.47670165220113
-0.581593115096845,0.470082591660319
-0.502585829171676,0.548997068262026
-0.632254227423314,0.445660818910841
-0.631136607632782,0.479721940235913
-0.600499860322719,0.493165602742092
-0.680469221097859,0.429983573110419
-0.529816793352793,0.559567069302904
-0.658008896865537,0.425523153739133
-0.583581106201309,0.572671875581528
-0.704067137880514,0.36434703872253
-0.6951814089526,0.405737383381199
-0.702506466409713,0.435942098256117
-0.721026264737917,0.391735808158396
-0.734181559824908,0.384412231610735
-0.747448781808297,0.376841233869686
-0.760793046711923,0.36900063736816
-0.774177765007862,0.36087004278617
-0.787564830459011,0.35243096748868
-0.800914818942341,0.343666970814252
-0.925683860971241,0.223789235438519
-0.827340532518147,0.325109314214435
-0.840332725406414,0.315293911674264
-0.853121225068321,0.305110250096101
-0.865663265223246,0.294553469361565
-0.877916095574114,0.283621190554422
-0.889837215320164,0.272313533043414
-0.90138460621484,0.260633114986223
-0.912516963781355,0.248585037285787
-0.923193925307854,0.236176851135258
-0.933376293262016,0.223418509392018
-1.03782418657605,0.117240026566129
-0.952107582007528,0.196902776769862
-0.960585853803294,0.183176643459052
-0.968428627984603,0.169162666117805
-0.975605632577819,0.154881540094572
-0.982088933220337,0.140355757109721
-0.987853089621963,0.125609458421586
-0.992875298159372,0.110668277173442
-0.997135519749223,0.0955591709547317
-1.00061659223374,0.0803102456717595
-1.00330432660547,0.0649505718780311
-1.00518758649495,0.0495099947621784
-1.00625835044559,0.0340189390315164
-1.00651175660351,0.0185082099616393
-1.00594612955584,0.00300879190676744
-1.0045629891584,-0.0124483544182934
-1.00236704130188,-0.0278324945658473
-0.906109811713032,0.0695196698230303
-0.995571295686917,-0.0582611544694087
-0.895063876045696,0.0437371593855078
-0.985658781869739,-0.088043405620148
-0.979577999282029,-0.102623314650635
-0.972776795644308,-0.116961568812393
-0.965280442528117,-0.13103441060243
-0.957116702745639,-0.144819772254081
-0.948315673782709,-0.158297420978485
-0.93890961836433,-0.171449092284046
-0.92893278317156,-0.184258610492024
-0.918421206799237,-0.196711995647182
-0.907412518107769,-0.20879755610835
-0.895945726179048,-0.220505966194204
-0.884061003135863,-0.231830328354031
-0.871799461125886,-0.242766219431095
-0.859202924804941,-0.253311720686884
-0.846313700679826,-0.263467431357332
-0.952046890630256,-0.375531206985335
-0.819827429401215,-0.282624432928006
-0.806315312237078,-0.291639401871378
-0.792679906061125,-0.300291847632545
-0.870573881695599,-0.41133794677802
-0.664322061715914,-0.215228889899431
-0.751441712104941,-0.324213348253419
-0.737715605668641,-0.33156586114413
-0.724061413658016,-0.338641390281028
-0.710513865745736,-0.3454628828601
-0.697105818369962,-0.352054905037203
-0.683868090376416,-0.358443477559414
-0.574263814080751,-0.273548868392874
-0.658015786346041,-0.370720572487377
-0.645451369275042,-0.376666792630884
-0.633157359841883,-0.382524567894685
-0.621152410421395,-0.38832440559765
-0.609452451891697,-0.394097105250462
-0.70514378171684,-0.518776442373729
-0.587017294781082,-0.405684476690474
-0.576299917731272,-0.411560294685343
-0.565923145944265,-0.417530840125967
-0.55588878404463,-0.423625181641899
-0.435099522105454,-0.334424722079605
-0.536840517548571,-0.436296436239722
-0.433405161984219,-0.338100520724825
-0.519114354092334,-0.449783458608447
-0.510722814035224,-0.456891653175946
-0.502627744978838,-0.46427069285446
-0.494812834901536,-0.471938818950935
-0.487259618626264,-0.479912053432563
-0.479947627967421,-0.488204064961604
-0.472854553467985,-0.496826048743658
-0.465956416675401,-0.505786620986871
-0.459227751841782,-0.515091728681112
-0.452641795878016,-0.524744575313136
-0.446170685342785,-0.534745563036816
-0.439785659206515,-0.545092251717293
-0.433457266097229,-0.555779335164823
-0.427155574710242,-0.566798634769104
-0.420850386046932,-0.57813911063824
-0.414511446139341,-0.58978689023928
-0.408108657917379,-0.601725314429752
-0.401612290883659,-0.613935000662779
-0.394993187277685,-0.626393923042648
-0.388222963435936,-0.639077508803834
-0.381274205087262,-0.65195875068521
-0.37412065536375,-0.665008334572879
-0.366737394355463,-0.678194781690636
-0.359101009093072,-0.691484604526844
-0.35118975290479,-0.704842475601281
-0.342983693163078,-0.71823140809553
-0.22476457361267,-0.612772189460709
-0.325617300743677,-0.744947371735654
-0.316427322589121,-0.758193902843269
-0.403425587791597,-0.863729657468452
-0.296976573675597,-0.784256192921462
-0.286699991470018,-0.796987090407882
-0.276049461816003,-0.809460830198291
-0.265023229414203,-0.82163470247189
-0.253622038931085,-0.833466305265584
-0.359849883383325,-0.936626419278406
-0.229710223852506,-0.855936028024368
-0.217213473204595,-0.866492965581597
-0.204369423227021,-0.876545717879678
-0.191190936405084,-0.886056848902665
-0.177693110293586,-0.894990566895725
-0.163893179219045,-0.903312923870515
-0.250173777205064,-1.01583459644382
-0.135465936052145,-0.917998107736046
-0.120882699848478,-0.924303906677322
-0.106085222744688,-0.929884608031516
-0.0910994850516155,-0.934718087914779
-0.0759527482646375,-0.938785016559523
-0.0606733769394461,-0.942068966719187
-0.0452906533227848,-0.94455650575888
-0.029834585946815,-0.946237270880447
-0.0143357134339902,-0.947104027031891
0.00117509521030792,-0.947152707155149
