-0.990220385674931,1.03007346189164
-0.980375239024418,1.02164542443983
-0.969958269876646,1.01378920948527
-0.959184494923691,1.00628980033589
-0.948133919559854,0.999067191597401
-0.936854384654547,0.992073542400379
-0.925379203121809,0.985275539830787
-0.913733567094989,0.978647991755277
-0.901937551556836,0.9721708231911
-0.890007744280548,0.965827446365058
-0.877958220607091,0.959603785936186
-0.865801168611432,0.953487653829515
-0.85354731184346,0.947468326495157
-0.84120620732543,0.941536246910856
-0.828786462789809,0.935682807344149
-0.816295899494457,0.92990018653717
-0.803741677122823,0.924181224806474
-0.791130391517699,0.918519326309269
-0.778468152476812,0.912908381247826
-0.76576064660776,0.907342703014548
-0.753013188781665,0.901816976738314
-0.740230764745761,0.896326216671887
-0.727418066781718,0.8908657305336
-0.714579523823551,0.885431089389438
-0.701719327110523,0.880018102000136
-0.688841452204073,0.874622792804256
-0.675949678015701,0.869241382890298
-0.663047603356349,0.86387027344732
-0.650138661414215,0.858506031287125
-0.637226132488461,0.853145376110549
-0.624313155244579,0.847785169252101
-0.611402736708818,0.842422403685533
-0.598497761180844,0.837054195111177
-0.585600998213332,0.831677773976359
-0.572715109782632,0.826290478304729
-0.559842656754844,0.820889747230187
-0.546986104735426,0.815473115147274
-0.534147829377192,0.810038206403179
-0.521330121210568,0.804582730467474
-0.508535190050909,0.799104477524803
-0.495765169030041,0.793601314443341
-0.483022118292829,0.788071181078223
-0.470308028394205,0.782512086874517
-0.45762482342752,0.776922107738872
-0.444974363911222,0.77129938315284
-0.432358449457552,0.765642113504181
-0.419778821244104,0.759948557615298
-0.407237164306676,0.754217030450397
-0.394735109669702,0.748445900985041
-0.382274236328754,0.742633590223659
-0.369856073097995,0.736778569352088
-0.357482100334098,0.730879358013656
-0.345153751546906,0.724934522698518
-0.332872414906082,0.718942675237012
-0.320639434652026,0.712902471388739
-0.308456112418538,0.706812609519896
-0.296323708473969,0.700671829362136
-0.284243442886934,0.694478910846841
-0.27221649662214,0.688232673009305
-0.260244012571304,0.681931972957811
-0.248327096523733,0.675575704903052
-0.236466818080697,0.669162799243758
-0.224664211517383,0.662692221704742
-0.212920276595868,0.656162972523927
-0.201235979332274,0.649574085685191
-0.189612252720981,0.642924628194155
-0.178049997418553,0.636213699394253
-0.166550082389797,0.629440430320679
-0.155113345518193,0.622603983089954
-0.143740594182735,0.615703550323082
-0.132432605803083,0.608738354600404
-0.121190128354755,0.601707647946403
-0.110013880855962,0.594610711342865
-0.0989045538275776,0.58744685426892
-0.0878628097275889,0.580215414266579
-0.0768892833613015,0.572915756530536
-0.065984582268461,0.565547273521047
-0.0551492870883652,0.558109384598813
-0.0443839519039642,0.550601535680884
-0.0336891045658674,0.543023198916651
-0.0230652469971069,0.535373872383082
-0.0125128554794428,0.527653079798416
-0.00203238092193794,0.519860370253591
0.00837575088753326,0.511995317960732
0.0187111390472188,0.504057522018088
0.0289734073223023,0.496046606190842
0.0391622039410711,0.487962218707281
0.0492772014059574,0.479804032069837
0.0593180963190185,0.471571742880568
0.0692846092214481,0.463265071680668
0.0791764844467616,0.454883762803652
0.088993489987318,0.446427584241878
0.0987354173738867,0.437896327526117
0.108402081567989,0.42928980761789
0.117993320866779,0.42060786281435
0.127508996820261,0.411850354665502
0.136948994160651,0.403017167903562
0.146313220743754,0.394108210384336
0.155601607502204,0.385123413040456
0.164814108410484,0.376062729846406
0.173950700461649,0.366926137795241
0.183011383655699,0.357713636886961
0.191996180999579,0.348425250128511
0.200905138518805,0.339061023545408
0.209738325280745,0.329621026205017
0.218495833429593,0.320105350251536
0.227177778233133,0.310514110952746
0.235784298141361,0.300847446758644
0.244315554857121,0.291105519372075
0.252771733418895,0.281288513831518
0.261153042295911,0.271396638606205
0.269459713495812,0.261430125703775
0.27769200268508,0.251389230790714
0.285850189322524,0.241274233325828
0.293934576806085,0.231085436707059
0.301945492633331,0.220823168431976
0.309883288575975,0.21048778027229
0.317748340868834,0.200079648462819
0.325541050413659,0.189599173905314
0.333261842998325,0.17904678238765
0.340911169531894,0.16842292481889
0.348489506296127,0.157728077480793
0.355997355214056,0.146962742296392
0.36343524413629,0.136127447116296
0.370803727145779,0.125222746023455
0.378103384881822,0.114249219657168
0.385334824884163,0.103207475557179
0.392498681958108,0.0920981485287953
0.399595618561646,0.0809219010300024
0.406626325215647,0.0696794235816736
0.413591520938325,0.0583714352020219
0.420491953705197,0.0469986838665643
0.427328400935922,0.0355619469949599
0.434101670009496,0.024062031966204
0.440812598809398,0.0124997766637756
0.447462056300435,0.000876050052482563
0.45405094313917,-0.0108082472111114
0.460580192319985,-0.0225521821326263
0.467050769859001,-0.0343547886959406
0.473463675518295,-0.0462150671389765
0.479819943573054,-0.0581319831865474
0.486120643624548,-0.0701044672373827
0.492366881462084,-0.0821314135021767
0.498559799977379,-0.0942116790892117
0.504700580135139,-0.106344083033782
0.510790442003982,-0.118527405267269
0.516830645852255,-0.130760385521325
0.522822493313761,-0.143041722162149
0.528767328628899,-0.155370070949341
0.534666539967331,-0.167744043713238
0.540521560838902,-0.180162206943997
0.546333871600284,-0.192623080284945
0.55210500106564,-0.205125134921919
0.557836528230542,-0.217666791859347
0.563530084119424,-0.230246420072795
0.569187353768083,-0.242862334526465
0.574810078354115,-0.255512794042763
0.58040005748976,-0.268195999009448
0.585959151693466,-0.280910088908072
0.591489285058584,-0.293653139645284
0.596992448140046,-0.306423160666152
0.602470701082717,-0.319218091825811
0.607926177018422,-0.332035799992435
0.613361085762518,-0.34487407535067
0.618777717845431,-0.357730627370086
0.624178448919972,-0.370603080397874
0.629565744591602,-0.383488968828575
0.63494216572642,-0.396385731796087
0.640310374300776,-0.40929070732406
0.645673139867344,-0.422201125859822
0.651033346725792,-0.435114103103704
0.656394001902368,-0.448026632029458
0.661758244062563,-0.460935573971593
0.667129353505541,-0.473837648630944
0.672510763419499,-0.486729422819316
0.677906072615379,-0.499607297725766
0.683319060004681,-0.512467494438794
0.688753701148844,-0.525306037396961
0.69421418728713,-0.538118735361004
0.699704947353557,-0.550901159396907
0.705230673629792,-0.563648617223003
0.710796351863069,-0.576356123092055
0.716407296924513,-0.589018362132942
0.722069195421717,-0.601629647738066
0.727788157152413,-0.6141838701097
0.733570777959392,-0.626674433405052
0.7394242175261,-0.639094177940674
0.7453562971104,-0.651435282458704
0.751375624444758,-0.663689139226675
0.757491756551429,-0.675846191222334
0.763715416980301,-0.687895714895791
0.770058793806343,-0.699825522172079
0.77653596237052,-0.711621537710232
0.78316351044603,-0.723267173737052
0.789961513015622,-0.73474235526979
0.796955162212645,-0.746021890175097
0.804177770951138,-0.757072465538934
0.811677180100512,-0.767846240491889
0.81953339505507,-0.778263209639661
0.827961432506887,-0.788108356290174
-0.990220385674931,1.03007346189164
-0.981792348223115,1.02022831524113
-0.973936133268557,1.00981134609336
-0.966436724119182,0.999037571140403
-0.959214115380689,0.987986995776567
-0.952220466183666,0.976707460871259
-0.945422463614074,0.965232279338522
-0.938794915538564,0.953586643311702
-0.932317746974387,0.941790627773549
-0.925974370148346,0.929860820497261
-0.919750709719473,0.917811296823803
-0.913634577612802,0.905654244828144
-0.907615250278444,0.893400388060173
-0.901683170694144,0.881059283542143
-0.895829731127436,0.868639539006521
-0.890047110320457,0.85614897571117
-0.884328148589762,0.843594753339536
-0.878666250092557,0.830983467734411
-0.873055305031113,0.818321228693525
-0.867489626797836,0.805613722824472
-0.861963900521601,0.792866264998377
-0.856473140455174,0.780083840962474
-0.851012654316888,0.767271142998431
-0.845578013172726,0.754432600040263
-0.840165025783423,0.741572403327236
-0.834769716587543,0.728694528420786
-0.829388306673585,0.715802754232414
-0.824017197230607,0.702900679573062
-0.818652955070412,0.689991737630927
-0.813292299893836,0.677079208705173
-0.807932093035388,0.664166231461292
-0.80256932746882,0.65125581292553
-0.797201118894464,0.638350837397556
-0.791824697759646,0.625454074430044
-0.786437402088016,0.612568185999344
-0.781036671013475,0.599695732971556
-0.775620038930562,0.586839180952139
-0.770185130186466,0.574000905593905
-0.764729654250761,0.56118319742728
-0.75925140130809,0.548388266267621
-0.753748238226628,0.535618245246753
-0.74821810486151,0.522875194509542
-0.742659010657804,0.510161104610918
-0.73706903152216,0.497477899644233
-0.731446306936127,0.484827440127935
-0.725789037287468,0.472211525674265
-0.720095481398586,0.459631897460817
-0.714363954233684,0.447090240523389
-0.708592824768328,0.434588185886415
-0.702780514006947,0.422127312545466
-0.696925493135375,0.409709149314708
-0.691026281796943,0.39733517655081
-0.685081446481805,0.385006827763618
-0.6790895990203,0.372725491122794
-0.673049395172026,0.360492510868738
-0.666959533303183,0.348309188635251
-0.660818753145423,0.336176784690681
-0.654625834630128,0.324096519103646
-0.648379596792592,0.312069572838852
-0.642078896741098,0.300097088788017
-0.635722628686339,0.288180172740446
-0.629309723027045,0.27631989429741
-0.62283914548803,0.264517287734096
-0.616309896307214,0.252773352812581
-0.609721009468479,0.241089055548987
-0.603071551977442,0.229465328937694
-0.59636062317754,0.217903073635266
-0.589587354103967,0.20640315860651
-0.582750906873241,0.194966421734905
-0.575850474106369,0.183593670399448
-0.568885278383691,0.172285682019796
-0.56185457172969,0.161043204571467
-0.554757635126153,0.149866957072674
-0.547593778052207,0.13875763004429
-0.540362338049866,0.127715885944301
-0.533062680313823,0.116742359578014
-0.525694197304334,0.105837658485174
-0.5182563083821,0.0950023633050778
-0.510748459464171,0.0842370281206768
-0.503170122699938,0.07354218078258
-0.495520796166369,0.0629183232138195
-0.487800003581703,0.0523659316961554
-0.480007294036878,0.0418854571386506
-0.47214224174402,0.0314773253291794
-0.464204445801375,0.0211419371694938
-0.456193529974129,0.0108796688944103
-0.448109142490568,0.000690872275641533
-0.439950955853125,-0.00942412518924485
-0.431718666663856,-0.0194650201023059
-0.423411995463956,-0.0294315330047354
-0.415030686586939,-0.0393234082300489
-0.406574508025166,-0.0491404137706054
-0.398043251309405,-0.0588823411571741
-0.389436731401177,-0.0685490053512764
-0.380754786597638,-0.0781402446500666
-0.371997278448789,-0.0876559206035479
-0.36316409168685,-0.0970959179439385
-0.354255134167623,-0.106460144527042
-0.345270336823743,-0.115748531285492
-0.336209653629693,-0.124961032193771
-0.327073061578528,-0.134097624244936
-0.317860560670248,-0.143158307438986
-0.308572173911799,-0.152143104782866
-0.299207947328695,-0.161052062302093
-0.289767949988305,-0.169885249064032
-0.280252274034823,-0.178642757212881
-0.270661034736033,-0.18732470201642
-0.260994370541931,-0.195931221924648
-0.251252443155362,-0.204462478640409
-0.241435437614806,-0.212918657202182
-0.231543562389492,-0.221299966079199
-0.221577049487063,-0.229606637279099
-0.211536154574002,-0.237838926468368
-0.201421157109115,-0.245997113105811
-0.191232360490346,-0.254081500589372
-0.180970092215263,-0.262092416416618
-0.170634704055577,-0.270030212359263
-0.160226572246106,-0.277895264652122
-0.149746097688601,-0.285687974196946
-0.139193706170937,-0.293408766781612
-0.128569848602177,-0.301058093315181
-0.11787500126408,-0.308636430079415
-0.107109666079679,-0.316144278997343
-0.0962743708995832,-0.323582167919577
-0.0853696698067425,-0.330950650929067
-0.0743961434404553,-0.338250308665109
-0.0633543993404665,-0.34548174866745
-0.0522450723120825,-0.352645605741396
-0.0410688248132896,-0.359742542344933
-0.0298263473649608,-0.366773248998934
-0.0185183589853092,-0.373738444721612
-0.0071456076498515,-0.380638877488484
0.00429112922175282,-0.38747532471921
0.0157910442505088,-0.394248593792784
0.0273532995529372,-0.400959522592685
0.0389770261642302,-0.407608980083722
0.0506613234278241,-0.414197866922458
0.062405258349339,-0.420727116103273
0.0742078649126534,-0.427197693642288
0.0860681433556893,-0.433610599301582
0.0979850594032602,-0.439966867356341
0.109957543454096,-0.446267567407835
0.121984489718889,-0.452513805245371
0.134064755305925,-0.458706723760666
0.146197159250494,-0.464847503918426
0.158380481483981,-0.470937365787269
0.170613461738037,-0.476977569635543
0.182894798378862,-0.482969417097048
0.195223147166054,-0.488914252412186
0.207597119929951,-0.494813463750619
0.22001528316071,-0.50066848462219
0.232476156501658,-0.506480795383571
0.244978211138632,-0.512251924848927
0.25751986807606,-0.517983452013829
0.270099496289508,-0.523677007902711
0.282715410743178,-0.52933427755137
0.295365870259476,-0.534957002137403
0.308049075226161,-0.540546981273047
0.320763165124785,-0.546106075476753
0.333506215861997,-0.551636208841871
0.346276236882865,-0.557139371923333
0.359071168042523,-0.562617624866004
0.371888876209148,-0.56807310080171
0.384727151567382,-0.573508009545805
0.397583703586799,-0.578924641628718
0.410456156614587,-0.584325372703259
0.423342045045288,-0.589712668374889
0.4362388080128,-0.595089089509707
0.449143783540773,-0.600457298084063
0.462054202076535,-0.605820063650631
0.474967179320416,-0.61118027050908
0.487879708246171,-0.616540925685655
0.500788650188305,-0.62190516784585
0.513690724847657,-0.627276277288828
0.526582499036029,-0.632657687202786
0.539460373942479,-0.638052996398666
0.552320570655506,-0.643465983787969
0.565159113613674,-0.648900624932131
0.577971811577717,-0.654361111070418
0.59075423561362,-0.659851871136844
0.603501693439716,-0.665377597413079
0.616209199308768,-0.670943275646356
0.628871438349655,-0.6765542207078
0.641482723954779,-0.682216119205004
0.654036946326413,-0.6879350809357
0.666527509621765,-0.693717701742679
0.678947254157386,-0.699571141309387
0.691288358675416,-0.705503220893687
0.703542215443387,-0.711522548228045
0.715699267439047,-0.717638680334716
0.727748791112504,-0.723862340763589
0.739678598388792,-0.73020571758963
0.751474613926945,-0.736682886153807
0.763120249953765,-0.743310434229317
0.774595431486503,-0.750108436798909
0.78587496639181,-0.757102085995932
0.796925541755647,-0.764324694734425
0.807699316708602,-0.7718241038838
0.818116285856374,-0.779680318838358
0.827961432506887,-0.788108356290174
