-0.0608481097068192,0.169802479706832
-0.069006517465111,0.172664275025264
-0.182361776979563,0.0564056742416003
-0.0857129104416204,0.177626024655266
-0.094245016077306,0.179715202520775
-0.102885456055556,0.181536480661799
-0.111625774360269,0.183085106619292
-0.120457323086636,0.184356596235326
-0.227063780774415,0.0906986792987906
-0.138358612353973,0.186051615272489
-0.042527384175511,0.279389492749729
-0.156516634765882,0.186591303719676
-0.165668514962471,0.186419740180905
-0.17485620631874,0.185950162744479
-0.184069971990737,0.185180155730574
-0.193299958848319,0.184107622519626
-0.202536207956589,0.182730790468789
-0.211768665251257,0.18104821548335
-0.220987192396539,0.179058786235761
-0.23018157781396,0.176761728025334
-0.239341547870144,0.174156606272052
-0.248456778211451,0.171243329638315
-0.257516905233085,0.16802215277286
-0.266511537670063,0.164493678671502
-0.371199981418141,0.047475684017128
-0.284262685725627,0.156519003922877
-0.292998386281095,0.152075766789124
-0.301626985953414,0.147331161412808
-0.31013813240088,0.142287554203758
-0.427777301855072,0.0245467053978385
-0.326766886910158,0.131314570585374
-0.334864057187814,0.12539169593819
-0.342802922855786,0.119182820879717
-0.350573470994191,0.112692074451495
-0.358165792790711,0.105923933623137
-0.365570095552219,0.0988832207966731
-0.372776714661388,0.0915751008985532
-0.274296774149926,0.196597680623149
-0.386558955074307,0.0761789918895391
-0.302236090799599,0.165224447381032
-0.399438208140716,0.0597836401331679
-0.495749603938562,-0.068326635001022
-0.411342968101415,0.0424423046947522
-0.416908423200751,0.033434925431976
-0.422204893944688,0.024213305610068
-0.431959164249903,0.00515983406258817
-0.440544820517027,-0.0146502621159565
-0.444381506658782,-0.024816626899232
-0.447905097278315,-0.0351447169142466
-0.451109203576208,-0.0456248514928756
-0.453987737332478,-0.0562471077549511
-0.458745290493713,-0.0778771393147934
-0.460613715201083,-0.0888639437593474
-0.462135394307806,-0.0999509485019218
-0.568083861873536,-0.212265622057954
-0.464577137610752,-0.133702398741679
-0.464398970577741,-0.156498320345107
-0.46375903860257,-0.167949848771852
-0.371317109748751,-0.0663670570578857
-0.46136616874252,-0.190900540436282
-0.459609867738626,-0.202375579030283
-0.457478736002829,-0.213834178858265
-0.454972081117222,-0.225264070603481
-0.360969324192164,-0.14139066119537
-0.448831446884961,-0.247988368581615
-0.445198106052065,-0.259257991952631
-0.441190523871007,-0.270449368323359
-0.436810045585749,-0.281550064538689
-0.432058429576028,-0.292547655239335
-0.421450888052011,-0.314183940063161
-0.529773950176154,-0.43255330065566
-0.409390248833298,-0.335259498834512
-0.402823811516665,-0.345556418225338
-0.395905476521306,-0.355676615665949
-0.388639891459372,-0.365608106964339
-0.381032110753951,-0.375339026334287
-0.373087592760169,-0.384857640163169
-0.364812196421655,-0.394152360714905
-0.347294184124412,-0.412024582063707
-0.338065252427646,-0.420579758876811
-0.318704625424393,-0.436873912699894
-0.308588892172525,-0.444591803221105
-0.193741092885776,-0.351232708102456
-0.287529233257895,-0.459118265885806
-0.26542631439,-0.472367365839671
-0.254007788782599,-0.4784895874351
-0.242358096496703,-0.484265072619267
-0.230487793041854,-0.489685319246808
-0.103063754466058,-0.392948514216209
-0.0966737610971211,-0.404076223523688
-0.193663310926185,-0.503734505202867
-0.168217453315756,-0.511183558176392
-0.257166395667644,-0.627146336568815
-0.142167049357669,-0.517036539149072
-0.128946486061018,-0.519349679096107
-0.115612848275156,-0.521246802897092
-0.088659077514295,-0.523774104113951
-0.0750657753695082,-0.524395879892085
-0.0339846554582487,-0.523652329123633
-0.020237060379697,-0.5225259261389
-0.00648608006026054,-0.520956906285088
0.00725399997313497,-0.518943949348352
0.0346439348289002,-0.513583257587527
-0.0531881248838846,-0.604443122719585
0.0618171417470417,-0.506442594155673
0.170330765604551,-0.404182377564999
0.0886574741946282,-0.497528245392549
0.101916489338209,-0.492409982079025
0.1280397619384,-0.480863538367718
0.153540667686469,-0.467592456005974
0.166022006548069,-0.460320180501492
0.178305076659423,-0.45262970001167
0.190375882694583,-0.444526316958488
0.202220567536177,-0.436015801524308
0.213825427888841,-0.427104388177313
0.225176929809979,-0.41779877167647
0.144726289519307,-0.502387774401225
0.257578809056765,-0.387590456802889
0.230439282219573,-0.417426797318379
0.261548889247292,-0.318274843391026
0.293331250429996,-0.348141634871192
0.280553755768209,-0.308426826157708
0.376124913574019,-0.244426329916674
0.3076273352404,-0.269950990098646
0.323633687239882,-0.234977783350157
0.356536969166657,-0.236804768868979
0.37860008908372,-0.267929715780368
0.417320326549318,-0.188599210227873
0.360299700813657,-0.166578037948415
0.40607406563485,-0.207237864738758
0.354204077570617,-0.176333194682403
0.386536752057479,-0.13230172308459
0.493382669722519,0.016943954145655
0.393577147456607,-0.053480382994015
0.392874793662779,-0.0214798334865092
0.42329726441848,0.0145697657314039
0.327930117836044,-0.0505898607784761
0.294230252608101,-0.063357867554995
0.378450409371839,0.0744545863522771
0.369523862277792,0.105968748370872
0.364292886764361,0.121563832356863
0.366263172698055,0.237252171926222
0.254427697531321,0.302411671210391
0.247610537817764,0.273762988817164
0.289414747768202,0.300625997310935
0.227465950298383,0.330754477048827
0.360384870717906,0.420429787379416
0.20165739798413,0.353547335449267
0.195034492675802,0.336311646362155
0.198540472150457,0.365319599609845
0.141199753544908,0.437080394586124
0.130606255737902,0.403443094963191
0.105280758541299,0.397295320872902
0.0882626695388403,0.433220166922316
0.20920087502928,0.509380032908086
0.113311535177853,0.414895367365528
0.0180353778575875,0.453949758214624
-0.137422787406035,0.405326040933224
-0.0337793191783224,0.467925047855904
-0.177108972368406,0.354931018616136
-0.134881790126382,0.510653131952489
-0.123255240309379,0.480215038100656
-0.19109624543895,0.447946888612041
-0.254195947454424,0.485132099439435
-0.233042925677109,0.476047154334948
-0.274085700489816,0.501024639668834
-0.308674287379851,0.489894385843927
-0.4006582995179,0.404447226825235
-0.33597475916872,0.489626307725601
-0.376960806506375,0.437760281103218
-0.394329190916298,0.430371729877148
-0.461613932631375,0.395211605911595
-0.509270712318004,0.36313784504157
-0.524527071523725,0.351402058343223
-0.442291403314246,0.42969472235405
-0.568169117685855,0.313193332663793
-0.595326720963305,0.28532678681048
-0.620787103790333,0.255655050860011
-0.632843098858768,0.240174340310565
-0.666142623452411,0.191318951444879
-0.694859389728913,0.139156754354709
-0.703355334346474,0.121108253037232
-0.725457809943792,0.0652151996580786
-0.746666264081372,-0.0127197130543628
-0.859648238473648,-0.178247779745957
-0.757963963864201,-0.0934486675618658
-0.759706625125697,-0.155068737076467
-0.758984152450524,-0.175704578932519
-0.757605762145325,-0.196353801775271
-0.755569901330369,-0.216995517923417
-0.752875683494321,-0.237608755393369
-0.749522892255525,-0.258172479194729
-0.745511984441614,-0.278665612778773
-0.735521026104966,-0.319355724895191
-0.707736953010466,-0.398961954932021
-0.699188896825105,-0.418371877241882
-0.690010754808335,-0.437543707659251
-0.579328954687804,-0.344381866176257
-0.634920830803206,-0.529121621602339
-0.608753889048404,-0.563385322956434
-0.594825714440839,-0.579932990542276
-0.580349790690162,-0.596066479088927
-0.517223587793203,-0.656101908178775
-0.500205277376758,-0.669900351204745
-0.482721792496215,-0.683181783522598
-0.48561042731032,-0.842472781392503
-0.348697171566401,-0.760424548805458
-0.420817577868885,-0.897010166741337
-0.264552956309471,-0.791046826458914
-0.242852309511374,-0.797053299035726
-0.300626820263328,-0.897186582670958
-0.0629836729259823,-0.820084104226933
0.00587055518758381,-0.816893439701043
0.0972629973333392,-0.802422748187462
0.208743745785533,-0.768012965688014
0.251882441878842,-0.749266210735984
0.334667097650781,-0.703515956827794
0.429792205498666,-0.631621559667212
0.447492850697355,-0.615396861726943
0.562214799453402,-0.48657380845245
0.481410051855437,-0.581210005418845
0.497588533994491,-0.563277868419057
0.556679272250555,-0.486337024358218
0.56996067847422,-0.465885895779105
0.635934570483113,-0.334434018891625
0.644517366269755,-0.311259905338065
0.671527394486769,-0.215750687159914
0.683839748529328,-0.141815415210349
0.686390183502546,-0.116859135237198
0.688154012042039,-0.0917881091464655
0.591717533837536,-0.174575083165272
0.689303845106474,-0.0414013350964305
0.654865477343065,0.184366249291763
0.638453568200384,0.233105129988831
0.618925510034701,0.280883208735891
0.556872428263659,0.394822889256087
0.401283003248465,0.572172162015034
0.199006230482253,0.700778953395503
0.123716014548024,0.730598818896014
