0.798484848484848,0.54233082823372
0.813239787548231,0.564631321361122
0.760091965060611,0.538398928449867
0.762817494795511,0.493679500539598
0.781353694406696,0.507300225525541
0.749007921555431,0.516780217393932
0.768181744550497,0.486742073953765
0.771827487866074,0.496371621155391
0.735603535627408,0.479936490017123
0.708277515162222,0.493194512842215
0.721319331104251,0.461816705572007
0.682765579516915,0.459866880088866
0.707359862954592,0.443126827259303
0.700482197456694,0.433602700692696
0.693663703846931,0.423974694384513
0.727665091205723,0.392680212713884
0.690670082033113,0.384808917651446
0.675195534212972,0.361422035087058
0.666870788451767,0.384618141611132
0.660268817955205,0.374610016199882
0.673465766305657,0.368176224358455
0.637723144537902,0.351214888631601
0.60440302370077,0.360075571308657
0.644444137265843,0.331210824521337
0.62763803729141,0.323903906194896
0.621164259258828,0.313670731348011
0.614700939600749,0.303419196207495
0.608245370428178,0.293154054632287
0.576866607494395,0.277068107024117
0.587114530209845,0.266096190006326
0.564455110070087,0.242696091426722
0.582450608968312,0.252045183720673
0.562812497879509,0.213168637075378
0.569537656623552,0.231518085153636
0.563069908286473,0.221274324820459
0.579155347310568,0.20400136652194
0.55390901258035,0.18752595217969
0.574609620755981,0.170560218157826
0.548009095981927,0.183603927513143
0.523988484370244,0.160294425496766
0.556824674070952,0.152729397427668
0.491164341290641,0.127952587190557
0.50088448609745,0.146851765450487
0.490880205393158,0.110426591959734
0.475698766281462,0.0975338283138569
0.44749810728481,0.109252422594087
0.480991358058448,0.0812638523803286
0.471556788644315,0.0491592782981731
0.493321342161019,0.01632210100851
0.438922576744867,0.0496598682993677
0.42681365206988,0.0590133774916627
0.429469605205112,0.0238520566346625
0.442120988511127,0.0166313947918645
0.420715415171098,0.000415232971923698
0.405471262542965,-0.00526227684526413
0.394095505799967,-0.0220379954263296
0.376851992182594,-0.0123800706062163
0.378395071133652,-0.0385950122698227
0.365049353145472,-0.0574388572189501
0.357677479653025,-0.066095372486054
0.367405684223321,-0.102424629428805
0.354911864760902,-0.0934697683017534
0.315966593125125,-0.123050865772594
0.348907934124669,-0.130719590004458
0.3229867068474,-0.127051848037891
0.306932436656595,-0.180079108093745
0.300190334688886,-0.149888931523412
0.267401707164775,-0.180363293577024
0.236456532915245,-0.174993021474912
0.263370975893193,-0.172596381767308
0.232625371525711,-0.144477127038497
0.214100159945152,-0.187886382685489
0.235737069074273,-0.199771567885349
0.193153651053556,-0.220784838575068
0.213538105431802,-0.228750829389473
0.188614177376361,-0.240500891850035
0.176170513396279,-0.249845794013516
0.157137840007553,-0.253993056116948
0.148417276629387,-0.260281866698411
0.101012075073978,-0.250092184987096
0.130806988194832,-0.272562514552349
0.107463114729274,-0.246761370567884
0.0894415499353994,-0.276777310586762
0.105648664714846,-0.262358937756173
0.0690203890590935,-0.290869036242418
0.0673819969392023,-0.31240411903135
0.0660945755801036,-0.32554417113438
0.0708191644464215,-0.304987103170601
0.0393440579325591,-0.327976685156187
0.0190864897016407,-0.355215920912672
0.0203667452040799,-0.337857441188898
0.0348400568363509,-0.331219787508986
0.0011616754379731,-0.347338356301254
0.00117898353417344,-0.402032289384125
-0.0475780570025465,-0.303014118237696
-0.0280712264922817,-0.360813094494436
-0.0379284002848175,-0.365106518417818
-0.0223363717384342,-0.374765339354536
-0.0678360964699098,-0.377396615474486
-0.0779166857704311,-0.38129782028901
-0.0880525580777681,-0.385101972522611
-0.099259778160563,-0.4062575300632
-0.108489074557563,-0.392421010256787
-0.109781688449796,-0.399158150040646
-0.102975087450974,-0.431033295846074
-0.13955125312136,-0.402684345367294
-0.161270349377167,-0.423962934315526
-0.195561539271504,-0.400514220567847
-0.237399311896988,-0.413197531726588
-0.249571188677191,-0.433714861304239
-0.256073106607566,-0.427588820232375
-0.268490740444511,-0.435502756868352
-0.272120078331759,-0.456416004625216
-0.270621899882843,-0.418456383615085
-0.279976606399942,-0.454668299858941
-0.302916687770883,-0.433247730416298
-0.324288791017649,-0.44553735735978
-0.353930312266697,-0.477738383670966
-0.381189242996863,-0.45363662712599
-0.378825432195263,-0.439582502499064
-0.444613285500856,-0.432296589692113
-0.389012259580065,-0.461437628355115
-0.416806430996876,-0.442560281094263
-0.450781724410817,-0.461052564440203
-0.49781892008376,-0.485212730164622
-0.509726923988245,-0.465562159129504
-0.521606470410101,-0.466305188554302
-0.515682055335513,-0.488946271393844
-0.549961709201377,-0.469197341109739
-0.575183613616894,-0.462282888622993
-0.581704452593355,-0.455650999484519
-0.608451039340053,-0.446228935759739
-0.617509919090054,-0.47072721857408
-0.641671996894306,-0.471505813543789
-0.666811862233358,-0.446926918799882
-0.689526592881435,-0.448103890968495
-0.695210407733479,-0.477385395820858
-0.707474484334715,-0.482332277370702
-0.714383205026464,-0.473446642056406
-0.750762742445847,-0.474375039898591
-0.798860980394657,-0.447496856646433
-0.773710329579347,-0.503897490491815
-0.811201058071792,-0.476263381250327
-0.815616827395538,-0.457772499729774
-0.837200345992812,-0.485079042891414
-0.828651065784835,-0.505380775205944
-0.875137255884761,-0.49286210495552
-0.894732824248089,-0.480806355779709
-0.898823208713056,-0.500281959730666
-0.918192139481833,-0.482818691914608
-0.919104768381861,-0.442136542919749
-0.952868820280542,-0.486736555046358
-0.964259415491824,-0.488337967176167
-0.975549340459067,-0.490116111860318
-0.999078018545645,-0.519013402908446
-1.02207628770378,-0.488445861141639
-1.01055063264728,-0.490930816471058
-1.03339767333398,-0.493109312631164
0.786431000962968,0.525453127408217
0.746259479020019,0.52602417521931
0.771747994816737,0.503342185516336
0.737836272725279,0.512548724580436
0.70135366876539,0.51846587828175
0.682616155269799,0.494801591073645
0.673022324907415,0.516006276317488
0.642472651477953,0.503298866467314
0.628174938234879,0.543385120481158
0.57171804464986,0.50846785022643
0.591476006526768,0.486604360946457
0.536406254934873,0.494057479981411
0.50815274175195,0.503820140508111
0.48964780273152,0.499019865463232
0.474998087716762,0.505479248630269
0.438609235709622,0.504567203096581
0.377241628541498,0.46502285649432
0.355344340738447,0.486452183793649
0.309002285205424,0.495907055666473
0.249903210383193,0.516031748557476
0.220451879559177,0.519777743413303
0.161584445112035,0.485979643196723
0.162513013837005,0.523894083149726
0.111366606737841,0.470918995654978
0.106787698098311,0.482347816107932
0.0621731874632862,0.459264848119861
0.0391567504899437,0.471488290440528
0.00795153286649011,0.463413240242926
-0.0190177069435851,0.449700131110064
-0.0627929969960417,0.456999765117924
-0.0627145476088815,0.46789436266666
-0.0758995070500659,0.444410030036564
-0.100081378631342,0.404325417604787
-0.157575527977637,0.43372636255691
-0.153271702810309,0.420538860084468
-0.163462593437384,0.416831295758004
-0.19999643653859,0.408008049645777
-0.192368007375789,0.381494299915094
-0.253964640036119,0.390961950695587
-0.26851764304526,0.401116324154304
-0.29584892554134,0.366249714241384
-0.355481713987391,0.321966709152489
-0.382322139709984,0.304291837787742
-0.425319250423829,0.273277814965591
-0.457356444625943,0.25463069410858
-0.44587948636075,0.234028216766472
-0.497396733012326,0.198169327373667
-0.591221913803157,0.122246007511172
-0.59143213088074,0.0776680887280565
-0.594882014876623,0.0676731004593919
-0.608106064896841,0.0402490971070808
-0.652765687565936,0.0447301222872014
-0.629920062169302,0.020052588958941
-0.680984756720265,0.00787726660073004
-0.677164158176458,-0.024717231924599
-0.701753679883382,-0.0204564858093724
-0.749066244441656,-0.0885844062104642
-0.821052808138704,-0.199788761918243
-0.822349758725354,-0.20405567237532
-0.842312584390756,-0.215118234028364
-0.843192489621367,-0.226728390894211
-0.82497526837234,-0.294775756977142
-0.863840822813114,-0.27174339766258
-0.871662556294706,-0.288256105348466
-0.969001088556493,-0.37170355940063
-0.938413648613855,-0.382523816610855
