0.373661921303755,-0.346755433119069
0.373620563092063,-0.346681420002666
0.373505642447955,-0.346453904896321
0.373330875979085,-0.346064719571224
0.373109933977915,-0.345505772634316
0.372856406624783,-0.344769069805144
0.372583770415145,-0.343846734045876
0.372305354886717,-0.342731025498984
0.372034309721553,-0.341414361187524
0.371783572297241,-0.339889334433447
0.371565835760413,-0.338148733949997
0.371393517694542,-0.336185562564955
0.371278729452715,-0.333993055532294
0.371233246224517,-0.331564698390728
0.371268477904567,-0.328894244328597
0.371395440828394,-0.32597573101567
0.371624730439437,-0.322803496863554
0.371966494948823,-0.319372196677732
0.372430410047389,-0.31567681666552
0.373025654727008,-0.31171268876571
0.373760888265828,-0.307475504267149
0.374644228429403,-0.302961326685052
0.375683230936972,-0.298166603865524
0.376884870239301,-0.293088179290454
0.378255521651574,-0.287723302556716
0.379800944881766,-0.282069639005443
0.381526268991812,-0.276125278479018
0.383435978825669,-0.269888743185367
0.385533902935093,-0.26335899465111
0.387823203030569,-0.25653543974715
0.390306364981445,-0.249417935772332
0.39298519138583,-0.242006794582895
0.395860795727298,-0.234302785757565
0.398933598131892,-0.226307138790264
0.402203322735338,-0.218021544304567
0.40566899666675,-0.209448154286228
0.409328950651509,-0.200589581332253
0.413180821232358,-0.191448896917192
0.417221554604132,-0.182029628679514
0.421447412053908,-0.172335756733075
0.425853976994803,-0.162371709010889
0.430436163578021,-0.152142355650532
0.435188226864269,-0.141653002432662
0.440103774532105,-0.130909383286213
0.445175780097402,-0.119917651875924
0.450396597614658,-0.108684372289881
0.455757977827616,-0.0972165088467548
0.461251085733363,-0.0855214150443757
0.466866519520933,-0.0736068216731969
0.472594330842345,-0.0614808241200391
0.478424046371019,-0.0491518688893257
0.484344690599628,-0.0366287393707442
0.490344809826646,-0.0239205408839467
0.496412497278207,-0.011036685032513
0.502535419309315,0.00201312659907557
0.508700842626038,0.0152189193702331
0.514895662468014,0.0285704630942437
0.521106431688445,0.042057290095521
0.527319390666716,0.0556687137750405
0.533520497986932,0.0693938476437078
0.539695461813922,0.0832216247823843
0.545829771896667,0.0971408176863456
0.551908732127738,0.111140058451095
0.557917493586033,0.1252078592557
0.563841087989015,0.139332633099144
0.569664461479739,0.153502714744655
0.575372508673175,0.167706381826482
0.580950106885738,0.181931876073241
0.586382150471521,0.196167424601704
0.591653585188473,0.210401261234738
0.596749442517655,0.224621647797056
0.601654873858843,0.238816895342481
0.60635518452594,0.252975385266606
0.610835867466163,0.267085590258952
0.61508263662751,0.281136095049121
0.619081459899811,0.295115616901871
0.622818591555597,0.309013025816628
0.626280604118116,0.322817364387587
0.629454419585091,0.336517867281323
0.63232733993823,0.350103980289684
0.634887076870088,0.363565378916678
0.637121780661603,0.376891986459122
0.639020068145492,0.390073991541925
0.640571049692756,0.403101865070108
0.641764355161669,0.415966376560968
0.642590158750935,0.428658609821149
0.643039202701146,0.441169977934875
0.643102819791204,0.453492237531105
0.642772954579047,0.465617502298999
0.642042183338833,0.47753825572273
0.640903732649575,0.489247363008453
0.639351496593278,0.500738082177999
0.637380052523669,0.512004074305749
0.634984675369803,0.523039412877034
0.632161350442086,0.533838592248362
0.628906784711575,0.544396535191781
0.625218416536818,0.554708599507717
0.621094423815926,0.5647705836927
0.616533730545098,0.574578731650491
0.611536011768338,0.584129736437264
0.606101696906683,0.593420743033627
0.600231971458881,0.602449350138438
0.593928777069048,0.61121361098156
0.587194809960498,0.619712033154849
0.580033517738538,0.627943577462896
0.572449094568673,0.635907655797171
0.564446474740272,0.643604128039439
0.556031324629314,0.651033298002438
0.547210033077436,0.658195908417958
0.537989700207982,0.665093134984594
0.528378124703255,0.671726579489503
0.518383789570586,0.678098262020582
0.508015846428203,0.684210612287476
0.497284098345145,0.690066460071833
0.48619898127274,0.695669024829122
0.474771544108221,0.701021904466242
0.463013427434165,0.706129063320958
0.450936840980339,0.710994819370976
0.438554539857395,0.715623830702188
0.425879799614589,0.720021081267226
0.412926390176297,0.724191865967083
0.399708548714614,0.728141775090012
0.386240951517665,0.731876678143361
0.372538684915513,0.735402707115344
0.35861721532761,0.73872623920499
0.34449235849772,0.741853879059699
0.330180247984039,0.744792440560924
0.315697302973858,0.74754892819947
0.301060195493678,0.750130518082829
0.286285817086962,0.752544538617761
0.271391245032928,0.754798450912045
0.256393708180791,0.756899828939933
0.241310552474718,0.758856339516362
0.226159206245425,0.760675722125382
0.210957145344893,0.762365768648566
0.195721858200992,0.763934303039385
0.180470810868977,0.765389160989636
0.16522141215685,0.766738169633991
0.149990978901375,0.767989127338672
0.134796701471209,0.769149783620018
0.1196556095731,0.770227819238423
0.104584538436424,0.771230826512713
0.0896000954504649,0.772166289899516
0.0747186273278559,0.773041566881579
0.0599561878663947,0.77386386920827
0.0453285063801246,0.774640244530712
0.0308509568690703,0.775377558473085
0.0165385279953548,0.776082477180657
0.00240579393164551,0.776761450384005
-0.0115331138541016,0.777420695017734
-0.0252645338156967,0.778066179430737
-0.0387753004879148,0.778703608223706
-0.0520527695305365,0.779338407748188
-0.0650848416024235,0.779975712299974
-0.0778599850134303,0.780620351038062
-0.0903672571046916,0.78127683565877
-0.102596324310646,0.781949348852909
-0.114537480859119,0.78264173357211
-0.126181666068814,0.783357483128638
-0.137520480206695,0.784099732151076
-0.148546198870966,0.7848712484164
-0.159251785868618,0.785674425576946
-0.169630904559906,0.786511276798772
-0.179677927645513,0.787383429325872
-0.189387945375648,0.788292119982588
-0.198756772163826,0.789238191624491
-0.207780951591666,0.790222090545837
-0.216457759794599,0.791243864849546
-0.224785207222013,0.79230316378353
-0.232762038768975,0.793399238044958
-0.240387732280305,0.794530941051911
-0.247662495431405,0.795696731179696
-0.254587260993866,0.796894674956891
-0.261163680497473,0.798122451214065
-0.267394116303816,0.799377356175952
-0.273281632110233,0.80065630948573
-0.278829981906327,0.801955861147984
-0.284043597408748,0.803272199374817
-0.28892757400331,0.804601159317591
-0.293487655226845,0.805938232664741
-0.297730215824455,0.807278578084171
-0.301662243420988,0.808617032486844
-0.305291318848651,0.809948123086319
-0.308625595175675,0.811266080227175
-0.31167377548383,0.812564850953565
-0.314445089445373,0.813838113287441
-0.316949268752691,0.815079291184399
-0.319196521456453,0.816281570133555
-0.321197505270504,0.817437913366433
-0.322963299904052,0.818541078638418
-0.324505378483832,0.819583635545093
-0.325835578130988,0.820557983334503
-0.326966069759265,0.821456369175318
-0.327909327162846,0.822270906839797
-0.328678095463739,0.822993595759515
-0.329285358990054,0.823616340410988
-0.329744308657736,0.824130969987539
-0.330068308929469,0.824529258313129
-0.330270864425354,0.824802943953282
-0.330365586260757,0.824943750477811
-0.330366158187314,0.824943406829665
-0.330286302613519,0.824793667753985
-0.33013974658155,0.824486334241278
-0.32994018777712,0.824013273938612
-0.329701260649017,0.823366441482729
-0.329436502714755,0.822537898709195
-0.329159321128345,0.821519834691907
-0.328882959585569,0.820304585567678
-0.328620465641406,0.818884654101071
-0.328384658513307,0.817252728945202
-0.328188097442928,0.815401703554915
-0.328043050687673,0.813324694709491
-0.327961465211977,0.811015060602869
-0.327954937146684,0.808466418460372
-0.328034683083158,0.805672661641909
-0.32821151226688,0.802627976192787
-0.328495799753261,0.799326856804482
-0.32889746058626,0.795764122149007
-0.329425925058069,0.791934929551904
-0.330090115105739,0.787834788970349
-0.330898421898028,0.783459576244399
-0.33185868466313,0.778805545590991
-0.332978170805109,0.773869341312029
-0.334263557354025,0.768648008689568
-0.335720913791698,0.763139004042969
-0.337355686292015,0.757340203924703
-0.339172683411492,0.751249913433425
-0.341176063262544,0.744866873624878
-0.343369322198624,0.738190268003181
-0.345755285036962,0.731219728077127
-0.348336096841232,0.723955337968134
-0.351113216282942,0.716397638058661
-0.354087410596828,0.708547627671972
-0.357258752141947,0.700406766776317
-0.360626616576577,0.691976976708751
-0.364189682651402,0.683260639915985
-0.367945933621846,0.674260598711848
-0.371892660276784,0.664980153053128
-0.37602646557723,0.655423057337728
-0.380343270895015,0.645593516231254
-0.384838323837848,0.6354961795303
-0.389506207643635,0.625136136072842
-0.394340852123373,0.614518906708272
-0.399335546128504,0.603650436341674
-0.404482951515167,0.59253708506902
-0.409775118574436,0.581185618421981
-0.415203502894357,0.569603196743002
-0.420758983616366,0.557797363713268
-0.426431883045558,0.545776034058012
-0.432211987571229,0.533547480455499
-0.43808856985118,0.521120319677747
-0.444050412210427,0.508503497992783
-0.450085831202242,0.49570627585985
-0.456182703276835,0.482738211950558
-0.4623284915005,0.469609146530487
-0.468510273265689,0.456329184237143
-0.474714768930239,0.442908676291526
-0.480928371321911,0.429358202181822
-0.487137176042419,0.415688550858906
-0.493327012503357,0.401910701484426
-0.499483475624761,0.388035803773223
-0.505591958125553,0.374075157972766
-0.511637683333791,0.36004019452305
-0.517605738443439,0.345942453441155
-0.523481108143396,0.331793563475239
-0.529248708543644,0.317605221073275
-0.534893421322718,0.303389169212237
-0.540400128020171,0.289157176133748
-0.545753744397383,0.27492101403243
-0.550939254789884,0.260692437743267
-0.555941746374365,0.246483163474314
-0.560746443273726,0.232304847630985
-0.56533874042385,0.21816906577793
-0.569704237126323,0.204087291784214
-0.573828770211971,0.190070877197105
-0.577698446740981,0.176131030889256
-0.581299676166348,0.162278799023463
-0.584619201888605,0.148525045378476
-0.587644132131112,0.134880432078528
-0.590361970066683,0.12135540076834
-0.592760643128012,0.107960154274399
-0.594828531436109,0.0947046387921715
-0.596554495282973,0.0815985266377966
-0.597927901606767,0.0686511996015003
-0.598938649400036,0.0558717329386693
-0.599577193993842,0.0432688800330671
-0.599834570163204,0.030851057765214
-0.599702414001835,0.0186263326173516
-0.5991729835169,0.0066024075447918
-0.598239177897363,-0.00521339035826474
-0.596894555412429,-0.0168141213721189
-0.595133349899644,-0.0281932438196881
-0.592950485805324,-0.039344623866726
-0.590341591743224,-0.0502625444334737
-0.587303012540628,-0.060941713199042
-0.583831819744426,-0.0713772696818384
-0.579925820563135,-0.0815647913814176
-0.57558356522433,-0.0915002989692115
-0.570804352730446,-0.10118026051772
-0.565588234999488,-0.110601594759875
-0.559936019380764,-0.119761673372459
-0.553849269539389,-0.128658322279607
-0.547330304706896,-0.137289821974631
-0.540382197298976,-0.145654906860562
-0.533008768904946,-0.153752763611992
-0.525214584657204,-0.161583028563
-0.517004945992506,-0.169145784128049
-0.508385881820494,-0.176441554264977
-0.499364138118434,-0.183471298991242
-0.489947165974628,-0.190236407966758
-0.480143108106413,-0.196738693158684
-0.469960783882046,-0.202980380605586
-0.459409672879117,-0.208964101300403
-0.448499897015354,-0.214692881213568
-0.437242201290903,-0.220170130479581
-0.425647933184215,-0.225399631772165
-0.413729020746683,-0.230385527894934
-0.401497949444056,-0.235132308616261
-0.388967737795463,-0.239644796778682
-0.376151911863521,-0.243928133714797
-0.363064478651581,-0.247987764003159
-0.349719898466593,-0.251829419599101
-0.336133056308337,-0.255459103376832
-0.322319232347989,-0.258883072120442
-0.30829407156095,-0.262107819002654
-0.294073552580794,-0.265140055591317
-0.279673955842893,-0.26798669342465
-0.265111831087859,-0.270654825197202
-0.250403964296375,-0.273151705599367
-0.235567344128219,-0.275484731854014
-0.220619127939432,-0.277661423994491
-0.205576607452456,-0.279689404928795
-0.190457174154884,-0.281576380335195
-0.175278284503037,-0.283330118434906
-0.160057425007009,-0.284958429687732
-0.144812077274114,-0.2864691464567
-0.129559683087692,-0.287870102687794
-0.114317609598214,-0.289169113650827
-0.0991031147033306,-0.29037395578736
-0.0839333126930806,-0.291492346711292
-0.0688251402358926,-0.29253192540741
-0.053795322780262,-0.293500232672733
-0.0388603414459933,-0.294404691844903
-0.024036400477892,-0.295252589861234
-0.00933939533343719,-0.296051058691281
0.00521511852538942,-0.296807057184926
0.0196119560675225,-0.29752735337704
0.0338363322886688,-0.298218507288745
0.0478738909025689,-0.298886854264173
0.0617107320647661,-0.299538488880407
0.0753334390680335,-0.300179249466992
0.0887291039510132,-0.300814703270021
0.101885351963959,-0.301450132294353
0.114790364838092,-0.302090519855989
0.127432902807703,-0.302740537875016
0.139802325336957,-0.30340453493787
0.151888610506221,-0.304086525155935
0.163682373015739,-0.304790177845696
0.175174880767557,-0.305518808053797
0.186358069989787,-0.306275367948489
0.197224558870543,-0.307062439096958
0.20776765967219,-0.307882225646054
0.217981389299988,-0.308736548421904
0.22786047830259,-0.30962683996181
0.237400378285417,-0.310554140489748
0.246597267721437,-0.311519094844657
0.255448056147447,-0.312521950368543
0.263950386737592,-0.313562555759298
0.272102637249423,-0.314640360890928
0.279903919341474,-0.315754417601722
0.287354076264932,-0.316903381448709
0.294453678935633,-0.318085514424594
0.301204020396186,-0.319298688631154
0.307607108681664,-0.320540390900971
0.313665658105812,-0.321807728357208
0.319383078988287,-0.323097434899043
0.32476346584688,-0.32440587859827
0.329811584082123,-0.325729069990542
0.334532855185018,-0.327062671242719
0.338933340501934,-0.328402006175775
0.343019723593919,-0.329742071120836
0.346799291230821,-0.331077546584011
0.350279913063628,-0.332402809693863
0.353470020021402,-0.3337119474036
0.356378581482024,-0.33499877041838
0.359015081268665,-0.336256827816436
0.361389492526556,-0.337479422331239
0.363512251537081,-0.338659626260345
0.365394230528615,-0.339790297965198
0.367046709545727,-0.340864098924817
0.368481347440498,-0.341873511305038
0.369710152051615,-0.342810856003801
0.370745449638747,-0.343668311131904
0.371599853641322,-0.344437930887666
0.372286232832365,-0.345111664783009
0.372817678939351,-0.345681377177701
0.373207473805256,-0.346138867077781
0.373469056163963,-0.346475888153568
0.373615988105063,-0.346684168932187
0.373661921303755,-0.346755433119069
