0.201551103138911,-0.127013885455749
0.210901144018058,-0.111138393480833
0.210062312645763,-0.0903398254863634
0.197377717588227,-0.0696449675016899
0.173364673555721,-0.054462598897167
0.14073567548227,-0.0497195979981604
0.104097105334814,-0.0590385139379702
0.0693587004792292,-0.0840707363733467
0.0429253915665929,-0.124081403680937
0.0307733231475335,-0.175851736975173
0.037529864857533,-0.233925127176284
0.0656807854460903,-0.291179707566862
0.115015795582938,-0.339667565347137
0.182397492006973,-0.371624400410453
0.261901197946432,-0.380527898393959
0.345328548590798,-0.362071723698181
0.423051110451378,-0.3149266205109
0.485097393390838,-0.241180550933172
0.522362566454312,-0.146384137600942
0.527799366787254,-0.0391722638328386
0.497444004078763,0.0695174351798539
0.43114341525643,0.167558993468341
0.321976796502241,0.23040541739313
0.21062559517823,0.285330102084533
0.100048881708468,0.312071653917183
-0.0937359572163059,0.243041996869867
-0.165169052558683,0.176765841548978
-0.301749157603512,0.0398324965221498
-0.327204008608833,-0.126182025030719
-0.310010227872206,-0.2761755951275
-0.255259996393373,-0.435110447218832
-0.159763245533848,-0.577058722467017
-0.00255047287819454,-0.67490828346043
0.171535340508838,-0.709286394693199
0.35849373851113,-0.743270841552962
0.562432333601781,-0.664303024126289
0.706922238819875,-0.52856343325628
0.821279275344566,-0.356113023767974
0.892956139244203,-0.149724830004142
0.884889776256468,0.0580784552683995
