0.644250128211548,-0.763678006208094
0.644323724041035,-0.763594007616815
0.644398681577244,-0.763508272766406
0.644475031988215,-0.763420757016137
0.644552807287081,-0.763331414354531
0.644632040358361,-0.763240197350497
0.644712764985167,-0.763147057102467
0.64479501587737,-0.763051943185481
0.64487882870074,-0.762954803596085
0.644964240107118,-0.762855584694982
0.645051287765643,-0.7627542311473
0.645140010395093,-0.762650685860388
0.645230447797361,-0.762544889919014
0.645322640892124,-0.762436782517855
0.645416631752751,-0.762326300891133
0.645512463643491,-0.762213380239283
0.645610181057996,-0.762097953652504
0.645709829759223,-0.76197995203104
0.645811456820785,-0.761859304002043
0.645915110669784,-0.761735935832847
0.64602084113121,-0.761609771340494
0.646128699473937,-0.761480731797305
0.646238738458414,-0.761348735832329
0.646351012386079,-0.761213699328456
0.646465577150598,-0.761075535314984
0.646582490290977,-0.76093415385541
0.64670181104663,-0.760789461930218
0.646823600414477,-0.760641363314406
0.64694792120816,-0.760489758449495
0.647074838119443,-0.760334544309736
0.647204417781901,-0.760175614262225
0.647336728836974,-0.760012857920618
0.647471842002489,-0.759846160992117
0.647609830143733,-0.759675405117379
0.647750768347199,-0.759500467702989
0.647894733997087,-0.759321221746104
0.648041806854685,-0.759137535650873
0.648192069140729,-0.758949273036183
0.648345605620876,-0.758756292534294
0.648502503694391,-0.758558447579867
0.648662853486188,-0.75835558618889
0.648826747942353,-0.758147550726938
0.64899428292928,-0.757934177666225
0.649165557336557,-0.757715297330814
0.649340673183761,-0.757490733629372
0.649519735731291,-0.757260303774761
0.64970285359541,-0.75702381798977
0.649890138867652,-0.756781079198209
0.650081707238746,-0.756531882700563
0.650277678127253,-0.756276015833348
0.650478174813058,-0.756013257611246
0.650683324575932,-0.755743378351075
0.650893258839314,-0.755466139276538
0.651108113319536,-0.755181292102696
0.651328028180659,-0.754888578598969
0.651553148195138,-0.75458773012947
0.651783622910507,-0.754278467169344
0.652019606822299,-0.753960498795727
0.652261259553414,-0.753633522151856
0.652508746040138,-0.75329722188274
0.65276223672504,-0.752951269540743
0.65302190775697,-0.752595322959286
0.65328794119836,-0.752229025592773
0.653560525240066,-0.751852005820728
0.653839854423963,-0.751463876214001
0.654126129873504,-0.751064232760741
0.654419559532469,-0.750652654049704
0.654720358412098,-0.750228700408301
0.655028748846816,-0.749791912992602
0.655344960758739,-0.749341812826344
0.655669231931139,-0.748877899785797
0.656001808291024,-0.748399651527098
0.656342944200992,-0.747906522352485
0.65669290276046,-0.747397942011574
0.657051956116386,-0.746873314433588
0.65742038578352,-0.746332016386153
0.657798482974236,-0.745773396055993
0.658186548937903,-0.745196771546506
0.658584895309739,-0.744601429286881
0.658993844469011,-0.743986622347042
0.659413729906385,-0.743351568652283
0.659844896600142,-0.742695449091072
0.660287701400901,-0.742017405508995
0.660742513424358,-0.741316538581358
0.661209714451463,-0.740591905556411
0.66168969933529,-0.739842517860592
0.662182876413712,-0.739067338556598
0.662689667926825,-0.738265279644389
0.663210510437833,-0.737435199194592
0.663745855255904,-0.736575898302934
0.664296168859228,-0.735686117853596
0.664861933316223,-0.734764535078455
0.665443646702473,-0.73380975989826
0.66604182351064,-0.73282033103078
0.66665699505012,-0.731794711849883
0.667289709832748,-0.730731285978332
0.667940533940296,-0.729628352595846
0.668610051368881,-0.728484121442643
0.669298864344709,-0.727296707497236
0.670007593604756,-0.726064125305709
0.670736878635112,-0.724784282938096
0.671487377858692,-0.723454975545661
0.672259768762866,-0.722073878491046
0.673054747956278,-0.720638540021207
0.673873031142654,-0.719146373450921
0.674715352997769,-0.717594648822343
0.675582466933894,-0.715980484003643
0.676475144733935,-0.714300835187174
0.677394176035157,-0.712552486744814
0.678340367639713,-0.710732040395236
0.679314542626226,-0.708835903634744
0.680317539233314,-0.70686027738002
0.681350209482151,-0.704801142767721
0.682413417500921,-0.70265424705222
0.683508037509209,-0.700415088539027
0.684634951414985,-0.698078900487503
0.685795045970759,-0.695640633912401
0.68698920942868,-0.693094939209629
0.688218327626641,-0.690436146527338
0.689483279428838,-0.68765824479919
0.690784931434537,-0.684754859352327
0.692124131857884,-0.681719227998423
0.693501703469372,-0.678544175512106
0.694918435475839,-0.67522208639733
0.696375074200486,-0.671744875838866
0.697872312407111,-0.668103958733349
0.699410777093445,-0.664290216692234
0.700991015556849,-0.660293962908059
0.702613479511419,-0.656104904775661
0.704278507008574,-0.651712104162002
0.705986301883085,-0.647103935222267
0.707736910412972,-0.642268039666633
0.709530194844444,-0.637191279391955
0.71136580339173,-0.631859686406569
0.713243136275877,-0.626258409995127
0.715161307316111,-0.620371661095055
0.717119100531767,-0.614182653888051
0.71911492115182,-0.607673544650461
0.721146740362481,-0.600825367957156
0.723212033050937,-0.593617970396672
0.725307707725076,-0.586029942033233
0.727430027705082,-0.578038545946633
0.729574522593369,-0.56961964629696
0.731735888935108,-0.560747635501528
0.733907878883592,-0.551395361280345
0.736083175584312,-0.541534054528829
0.738253253891103,-0.531133259217784
0.740408224929982,-0.520160765807007
0.742536662935348,-0.508582549997194
0.744625412704291,-0.496362719042665
0.746659375954827,-0.48346346831296
0.748621274841732,-0.469845051333483
0.75049139089046,-0.45546576716311
0.752247277669695,-0.440281969689378
0.753863445653665,-0.424248104248313
0.755311017948276,-0.407316777914185
0.756557355896367,-0.389438870860486
0.757565654068764,-0.370563697370449
0.758294504826612,-0.350639226372032
0.758697433550922,-0.329612372780648
0.758722406828043,-0.307429372436059
0.758311317412698,-0.284036254988642
0.757399451727092,-0.259379430679438
0.755914948064477,-0.233406408501781
0.753778256619856,-0.206066664637705
0.750901616039327,-0.177312681204885
0.747188565425846,-0.147101176065859
0.742533515709847,-0.115394544531178
0.736821410008099,-0.0821625329704264
0.729927509030228,-0.0473841623116878
0.721717344664297,-0.011049915784665
0.712046892409077,0.0268358003861168
0.700763021035119,0.0662519227791993
0.687704285317439,0.107157733651542
0.672702134279457,0.149489626106295
0.655582612302509,0.193157675300204
0.636168632639952,0.238042082153237
0.614282901047374,0.283989582962206
0.589751559904798,0.330809949163805
0.562408608715432,0.37827273542018
0.53210113353159,0.426104469742688
0.498695344136243,0.473986514268671
0.462083372546127,0.521553856414427
0.422190729168019,0.568395113381736
0.378984244407211,0.614054043511234
0.332480245882216,0.658032850312225
0.282752638708247,0.699797533630248
0.229940474763006,0.738785482436714
0.174254524762616,0.774415411774336
0.115982314468205,0.806099621702488
0.0554910645464382,0.833258401556678
-0.00677200659173046,0.855336225891301
-0.0702824872945763,0.871819201475416
-0.134445028852435,0.882253044651138
-0.198603216798633,0.886260715660359
-0.262052992913861,0.883558732864146
-0.324059304483163,0.873971155045062
-0.383875390026789,0.857440268960481
-0.440763862979574,0.83403315836238
-0.494018556024182,0.803943555400496
-0.542985965589722,0.767488669667724
-0.587085107779174,0.72510102764987
-0.62582467219262,0.677315702177421
-0.658816534392965,0.624753631127497
-0.685784943998724,0.568101983259121
-0.706571016084595,0.508092700582651
-0.721132484996806,0.44548041639994
-0.729538996999073,0.381020914551607
-0.73196349043435,0.315451169433944
-0.728670416347985,0.249471808888627
-0.720001676108683,0.183732600018049
-0.706361193581168,0.11882129986327
-0.688199005427885,0.0552559648642737
-0.66599565871056,-0.00651940407242193
-0.640247568599198,-0.0661361764063933
-0.61145383003066,-0.123299783235373
-0.580104813326538,-0.177786271263517
-0.546672719490413,-0.229437229160761
-0.511604136394028,-0.278153581468162
-0.475314528299764,-0.323888702518393
-0.438184510320977,-0.366641241919149
-0.40055770565507,-0.40644798292612
-0.362739953813598,-0.443376982847077
-0.324999628492497,-0.477521175949126
-0.287568829587798,-0.508992557841931
-0.250645230682213,-0.537917018026702
-0.214394387089406,-0.564429844986062
-0.178952336899891,-0.588671895642557
-0.144428355818722,-0.610786397400397
-0.110907754029127,-0.630916335111601
-0.0784546285995921,-0.649202365830621
-0.0471145073395432,-0.665781199799713
-0.0169168391720445,-0.680784385500341
0.0121226980020512,-0.694337438730101
0.0400000881573375,-0.706559259615454
0.0667210729054291,-0.717561786524155
0.0922994507829824,-0.727449841440867
0.116755573182906,-0.736321127104474
0.140115026251699,-0.744266341788194
0.162407485653434,-0.751369382843828
0.183665729751852,-0.757707614916318
0.203924796230075,-0.76335218300797
0.223221267238507,-0.768368354318312
0.241592668660478,-0.772815876018795
0.259076969872636,-0.776749338872831
0.275712171343999,-0.78021853892299
0.291535968480824,-0.783268831385559
0.306585481222341,-0.785941472466536
0.320897039980482,-0.788273946089175
0.334506019564177,-0.790300273545419
0.347446713715431,-0.7920513048918
0.359752243798195,-0.793554991540244
0.371454496015886,-0.79483663997677
0.382584082287711,-0.795919146903292
0.393170320589055,-0.796823216362458
0.403241231160606,-0.797567559592084
0.41282354551944,-0.798169078480417
0.421942725668497,-0.798643033569537
0.430622991304613,-0.799003197592741
0.438887353175448,-0.799261995541628
0.446757651038028,-0.799430632247116
0.454254594931604,-0.799519208431494
0.461397808700176,-0.799536826150576
0.468205874890046,-0.799491684499513
0.474696380309231,-0.799391166405873
0.480885961672366,-0.799241917281201
0.486790350870156,-0.799049916249173
0.492424419499444,-0.798820540615865
0.497802222371243,-0.798558624196393
0.502937039781776,-0.798268510063
0.507841418387837,-0.797954098232827
0.512527210574153,-0.797618888769488
0.517005612238598,-0.797266020731287
0.521287198952147,-0.796898307360423
0.525381960475664,-0.796518267871965
0.529299333635758,-0.796128156168477
0.533048233578,-0.795729986776016
0.536637083428274,-0.795325558269532
0.540073842402682,-0.794916474430366
0.543366032413642,-0.79450416335553
0.546520763225045,-0.794089894717352
0.549544756212949,-0.793674795353049
0.552444366790563,-0.793259863346397
0.555225605557494,-0.792845980747968
0.557894158233517,-0.792433925066193
0.560455404436838,-0.792024379648576
0.562914435365855,-0.7916179430608
0.565276070442168,-0.791215137560909
0.567544872970887,-0.790816416756238
0.569725164872479,-0.790422172522243
0.571821040538305,-0.790032741254574
0.573836379859884,-0.789648409518805
0.575774860479691,-0.789269419155919
0.577639969309063,-0.788895971895986
0.579435013356535,-0.788528233527327
0.581163129907745,-0.788166337663886
0.582827296095833,-0.787810389149335
0.58443033789917,-0.787460467132722
0.585974938601215,-0.787116627847066
0.587463646745281,-0.786778907119293
0.588898883615144,-0.786447322637116
0.590282950270593,-0.786121875996032
0.591618034165271,-0.785802554547351
0.592906215372578,-0.785489333066161
0.594149472443754,-0.78518217525633
0.595349687920867,-0.784881035107995
0.59650865352599,-0.78458585812151
0.597628075046533,-0.784296582410506
0.598709576935467,-0.784013139695497
0.599754706644002,-0.783735456198377
0.600764938703169,-0.783463453447181
0.601741678569739,-0.783197048999596
0.602686266250913,-0.782936157092894
0.603599979721339,-0.782680689227247
0.604484038145121,-0.782430554688721
0.605339604914707,-0.78218566101766
0.606167790517784,-0.781945914427634
0.606969655242592,-0.781711220179634
0.607746211731433,-0.781481482915763
0.608498427391505,-0.781256606956284
0.609227226671648,-0.781036496563508
0.609933493213006,-0.780821056175694
0.610618071881146,-0.780610190613836
0.611281770686664,-0.780403805263937
0.611925362600899,-0.780201806237144
0.61254958727294,-0.780004100509868
0.613155152653718,-0.779810596045865
0.613742736532651,-0.779621201902016
0.614312987991919,-0.779435828319416
0.614866528783174,-0.779254386801235
0.615403954631164,-0.779076790178655
0.615925836468492,-0.77890295266609
0.616432721605457,-0.778732789906763
0.616925134838702,-0.778566219009636
0.617403579502133,-0.778403158578586
0.617868538463396,-0.778243528734619
0.618320475068991,-0.778087251131882
0.618759834040893,-0.777934248968121
0.619187042327401,-0.777784446990194
0.61960250991078,-0.777637771495187
0.620006630574066,-0.77749415032763
0.620399782629313,-0.777353512873253
0.620782329609392,-0.777215790049706
0.621154620925334,-0.777080914294586
0.621516992491108,-0.776948819551131
0.621869767317585,-0.776819441251857
0.62221325607736,-0.776692716300426
0.622547757642004,-0.776568583051986
0.622873559593208,-0.776446981292201
0.623190938709226,-0.776327852215173
0.623500161427911,-0.776211138400437
0.623801484287593,-0.77609678378919
0.624095154346959,-0.775984733659895
0.624381409585025,-0.775874934603401
0.624660479282255,-0.775767334497682
0.624932584383785,-0.775661882482316
0.62519793784569,-0.775558528932777
0.625456744965153,-0.77545722543465
0.625709203695371,-0.775357924757814
0.625955504945962,-0.775260580830688
0.626195832869624,-0.775165148714569
0.626430365135718,-0.775071584578145
0.626659273191455,-0.774979845672198
0.626882722511282,-0.774889890304562
0.627100872835074,-0.774801677815354
0.627313878395682,-0.774715168552512
0.627521888136346,-0.774630323847676
0.627725045918496,-0.77454710599242
0.627923490720386,-0.774465478214859
0.628117356827027,-0.774385404656652
0.628306774011821,-0.774306850350409
0.628491867710315,-0.77422978119751
0.628672759186437,-0.77415416394635
0.628849565691582,-0.774079966171016
0.629022400616883,-0.774007156250391
0.629191373638998,-0.773935703347707
0.629356590859703,-0.773865577390525
0.629518154939596,-0.77379674905116
0.629676165226183,-0.773729189727546
0.629830717876602,-0.773662871524531
0.629981905975236,-0.773597767235614
0.630129819646454,-0.7735338503251
0.630274546162702,-0.773471094910693
0.630416170048148,-0.773409475746503
0.630554773178097,-0.773348968206466
0.630690434874354,-0.773289548268181
0.630823231996731,-0.773231192497146
0.630953239030856,-0.773173878031388
0.631080528172466,-0.773117582566488
0.631205169408319,-0.773062284340988
0.631327230593899,-0.773007962122171
0.631446777528039,-0.772954595192212
0.631563874024595,-0.772902163334689
0.631678581981321,-0.772850646821447
0.631790961446035,-0.772800026399811
0.631901070680226,-0.772750283280133
0.632008966220186,-0.772701399123669
0.632114702935792,-0.772653356030788
0.632218334087024,-0.772606136529484
0.632319911378329,-0.772559723564207
