-1.04654116926844,0.116121845201907
-1.04643213142797,0.116120949986732
-1.04610472571085,0.116104548960347
-1.04555855541348,0.11605211402417
-1.0447932802152,0.115943217748106
-1.04380861732421,0.115757584046607
-1.04260434260216,0.115475138510727
-1.04118029166476,0.115076058282613
-1.03953636095566,0.114540821359876
-1.03767250879119,0.113850255218571
-1.03558875637331,0.112985584645027
-1.0332851887684,0.111928478668551
-1.03076195584932,0.110661096489029
-1.02801927319843,0.109166132295692
-1.02505742296929,0.107426858875801
-1.02187675470464,0.105427169914703
-1.01847768610869,0.103151620891641
-1.01486070377136,0.100585468478824
-1.01102636384269,0.0977147083546277
-1.00697529265526,0.0945261113453283
-1.00270818729296,0.0910072578135094
-0.998225816104222,0.0871465702151996
-0.993529019158081,0.0829333437518934
-0.988618708641564,0.0783577750478641
-0.983495869196899,0.0734109887875893
-0.97816155819723,0.0680850622526707
-0.972616905959596,0.0623730477023221
-0.966863115894081,0.0562689925463214
-0.960901464588114,0.0497679572642531
-0.954733301825062,0.0428660310299087
-0.948360050536361,0.0355603450048381
-0.941783206686552,0.0278490832702566
-0.935004339090718,0.0197314913717914
-0.928025089163962,0.0112078824568863
-0.920847170602653,0.00227964099006556
-0.913472368997352,-0.00705077596332884
-0.905902541377402,-0.0167798398888734
-0.898139615687346,-0.0269029544087794
-0.890185590195424,-0.0374144612946486
-0.882042532834565,-0.0483076488949073
-0.873712580476391,-0.05957476295915
-0.865197938138896,-0.0712070198362748
-0.856500878128578,-0.0831946220179729
-0.84762373911793,-0.095526775993898
-0.838568925159324,-0.108191712379666
-0.829338904636438,-0.12117670827375
-0.81993620915449,-0.134468111794361
-0.810363432370672,-0.148051368742506
-0.800623228766282,-0.161911051332675
-0.790718312362157,-0.176030888927988
-0.780651455379129,-0.19039380071211
-0.770425486845321,-0.204981930225956
-0.760043291152208,-0.219776681692992
-0.749507806561442,-0.234758758052959
-0.738822023664569,-0.249908200620005
-0.727988983797813,-0.265204430277571
-0.717011777414211,-0.280626290118948
-0.705893542415451,-0.296152089439166
-0.694637462445837,-0.311759648980846
-0.68324676515088,-0.327426347333837
-0.671724720403061,-0.343129168385881
-0.660074638497391,-0.358844749719149
-0.648299868319425,-0.374549431845425
-0.636403795488436,-0.39021930817076
-0.624389840478519,-0.405830275578831
-0.612261456720383,-0.421358085520807
-0.600022128686671,-0.43677839549839
-0.58767536996362,-0.452066820825807
-0.575224721311937,-0.467198986555878
-0.562673748719736,-0.482150579454915
-0.55002604145042,-0.49689739991108
-0.537285210088354,-0.511415413660936
-0.524454884585217,-0.525680803219358
-0.511538712309851,-0.539670018898565
-0.498540356104452,-0.553359829302977
-0.485463492349897,-0.566727371187715
-0.472311809042975,-0.57975019857
-0.459089003888265,-0.59240633098432
-0.445798782407337,-0.604674300774146
-0.43244485606793,-0.616533199315122
-0.419030940435691,-0.627962722066976
-0.405560753350995,-0.638943212354044
-0.392038013133334,-0.649455703777091
-0.378466436815637,-0.659481961162131
-0.364849738410875,-0.669004519955245
-0.351191627213164,-0.678006723975789
-0.337495806135538,-0.686472761444056
-0.323765970086463,-0.694387699203296
-0.310005804387058,-0.701737515059974
-0.296218983230908,-0.708509128170364
-0.282409168188248,-0.714690427405883
-0.2685800067562,-0.720270297634087
-0.254735130956617,-0.725238643856864
-0.240878155983003,-0.729586413152128
-0.227012678897861,-0.733305614370199
-0.213142277381673,-0.736389335541043
-0.199270508534653,-0.738831758953637
-0.185400907732244,-0.740628173873886
-0.171536987535237,-0.741774986872807
-0.157682236655256,-0.742269729741934
-0.143840118976234,-0.742111064978351
-0.130014072632363,-0.741298788827097
-0.116207509142909,-0.739833831874136
-0.10242381260411,-0.737718257188554
-0.0886663389382992,-0.734955256018055
-0.0749384152002131,-0.731549141047298
-0.0612433389403756,-0.727505337234013
-0.0475843776252777,-0.722830370243256
-0.0339647681139713,-0.717531852505434
-0.0203877161905673,-0.711618466929106
-0.00685639615200626,-0.705099948304686
0.00662604954965254,-0.697987062440382
0.0200565106112904,-0.690291583076695
0.0334319091301243,-0.682026266630767
0.0467491998035324,-0.673204824826684
0.0600053700785205,-0.663841895272519
0.0731974402521423,-0.653953010049504
0.0863224635242935,-0.643554562383081
0.0993775260043927,-0.632663771469905
0.11235974667357,-0.621298645538897
0.125266277304063,-0.609477943228444
0.138094302337618,-0.597221133365506
0.150841038724775,-0.584548353236001
0.163503735726983,-0.571480365439141
0.176079674683597,-0.55803851342155
0.188566168745829,-0.544244675789941
0.200960562579842,-0.530121219503792
0.213260232041191,-0.51569095205199
0.225462583822906,-0.500977072719618
0.237565055079518,-0.486003123053116
0.249565113029419,-0.470792936633769
0.261460254537941,-0.455370588271043
0.273248005683607,-0.439760342728548
0.284925921309994,-0.423986603096421
0.296491584565706,-0.408073858924726
0.307942606434942,-0.392046634232942
0.319276625261157,-0.375929435510915
0.330491306266333,-0.35974669982661
0.341584341068338,-0.343522743155772
0.35255344719888,-0.327281709048083
0.36339636762452,-0.311047517743634
0.374110870273192,-0.294843815852511
0.38469474756866,-0.278693926709025
0.3951458159753,-0.262620801510588
0.405461915555544,-0.246646971349482
0.41564090954232,-0.230794500243733
0.425680683928705,-0.215084939271105
0.435579147077033,-0.1995392819077
0.445334229349553,-0.18417792066998
0.454943882762751,-0.1690206051561
0.46440608066731,-0.154086401579287
0.473718817455646,-0.13939365388268
0.482880108298864,-0.12495994652149
0.491887988914898,-0.110802068994596
0.500740515369508,-0.0969359822037974
0.50943576391171,-0.0833767867148412
0.517971830845128,-0.0701386929900717
0.526346832436648,-0.0572349936581691
0.534558904863657,-0.0446780378818498
0.542606204201034,-0.0324792078797423
0.550486906448969,-0.0206488976537998
0.558199207602538,-0.00919649396870725
0.565741323763906,0.00186964037531651
0.573111491297841,0.0125421809400417
0.580307967031162,0.0228148536860043
0.587329028496605,0.032682444622747
0.594172974221449,0.0421408070520714
0.600838124061156,0.0511868663892224
0.607322819578133,0.0598186225523532
0.613625424465605,0.0680351499160412
0.619744325016469,0.0758365948300794
0.625677930636868,0.0832241707102097
0.631424674404115,0.0902001507128844
0.636983013668443,0.0967678580115489
0.64235143069798,0.102931653697297
0.647528433366191,0.108696922332059
0.652512555880914,0.114070055187721
0.657302359554036,0.11905843120977
0.661896433610673,0.123670395749102
0.666293396036681,0.127915237110665
0.670491894463151,0.13180316097245
0.674490607086477,0.135345262733113
0.678288243622448,0.138553497851159
0.681883546292746,0.141440650243061
0.685275290842107,0.144020298812083
0.688462287584324,0.146306782183693
0.691443382475175,0.148315161727499
0.694217458210267,0.15006118294946
0.696783435345732,0.15156123534175
0.699140273439592,0.152832310781119
0.701286972211573,0.153891960569821
0.703222572719065,0.154758251216224
0.704946158546869,0.15544971905502
0.706456857008307,0.155985323809558
0.707753840355224,0.156384401201178
0.708836326994372,0.156666614712541
0.709703582707608,0.156851906613881
0.710354921873324,0.156960448362689
0.710789708686476,0.157012590488795
0.711007358374574,0.157028812077932
0.711007338406966,0.157029669967769
0.710789169694749,0.157035747771042
0.710352427778612,0.15706760484081
0.709696744001943,0.157145725292957
0.708821806666527,0.157290467200985
0.707727362168165,0.1575220120777
0.706413216109572,0.157860314757807
0.70487923438795,0.158325053794475
0.703125344254621,0.15893558248185
0.701151535344193,0.159710880614033
0.698957860670733,0.160669507089433
0.696544437588478,0.161829553467504
0.693911448714694,0.163208598582747
0.691059142812306,0.164823664318489
0.687987835630025,0.166691172640371
0.684697910697745,0.168826903986658
0.681189820075064,0.17124595710944
0.677464085050866,0.173962710457573
0.67352129679197,0.176990785188735
0.669362116938954,0.180343009894375
0.664987278147354,0.18403138711744
0.660397584572526,0.188067061738831
0.655593912296557,0.192460291304312
0.650577209695739,0.197220418359269
0.645348497747183,0.202355844854256
0.639908870273327,0.207874008679596
0.634259494123118,0.213781362382577
0.628401609288863,0.220083354115902
0.622336528957772,0.226784410861038
0.616065639497413,0.233887923965065
0.609590400374358,0.241396237024427
0.602912344005479,0.249310636143747
0.596033075541446,0.257631342592565
0.588954272582107,0.266357507877492
0.581677684823584,0.275487211241873
0.574205133637022,0.285017459599635
0.566538511579064,0.294944189904541
0.558679781834268,0.305262273950633
0.550630977589797,0.31596552559421
0.542394201342837,0.327046710382273
0.533971624141353,0.338497557566988
0.525365484758888,0.350308774480383
0.516578088804251,0.362470063238212
0.507611807767071,0.374970139736715
0.498469078000301,0.387796754900872
0.489152399640881,0.400936718137711
0.479664335469891,0.414375922943305
0.470007509713644,0.428099374607254
0.460184606787255,0.442091219953784
0.450198369982367,0.456334779054011
0.440051600100795,0.470812578839517
0.429747154035955,0.485506388543129
0.419287943304053,0.500397256888695
0.408676932527083,0.515465550947752
0.397917137869803,0.530690996577205
0.3870116254329,0.546052720348643
0.375963509604683,0.561529292876554
0.364775951373671,0.577098773449539
0.35345215660456,0.592738755865753
0.341995374280076,0.608426415371052
0.330408894711305,0.62413855659587
0.318696047719144,0.63985166238462
0.306860200789553,0.655541943409351
0.294904757205354,0.671185388457708
0.282833154157319,0.686757815283639
0.27064886083738,0.70223492190808
0.258355376516759,0.717592338255793
0.245956228611883,0.732805678013786
0.233454970740928,0.747850590596219
0.220855180773874,0.762702813100449
0.208160458878918,0.777338222138874
0.195374425568139,0.791732885431487
0.182500719745233,0.805863113044572
0.16954299675819,0.819705508161751
0.156504926459702,0.833237017274597
0.143390191278096,0.846434979681335
0.130202484301552,0.859277176183651
0.116945507378305,0.871741876873405
0.103622969235515,0.883807887903082
0.090238583619396,0.895454597136027
0.0767960674591915,0.906662018575005
0.0632991390574708,0.917410835470352
0.0497515163091903,0.927682442011886
0.0361569149518693,0.937458983511895
0.0225190468491713,0.946723394989865
0.00884161831007579,0.955459438073187
-0.00487167155422952,0.963651736131755
-0.0186171324337246,0.971285807568361
-0.0323910843812673,0.978348097190848
-0.0461898593308111,0.984826005596241
-0.0600098025703953,0.990707916501511
-0.0738472741682994,0.995983221960186
-0.0876986503508297,1.0006423454087
-0.101560324830351,1.00467676249123
-0.115428710082269,1.00807901961666
-0.129300238569789,1.01084275020639
-0.143171363915417,1.0129626885969
-0.157038562018244,1.01443468156593
-0.170898332116235,1.01525569745689
-0.184747197792815,1.0154238328809
-0.198581707927212,1.01493831698172
-0.212398437588113,1.01379951325392
-0.226193988870328,1.01200891891035
-0.239964991674288,1.00956916180005
-0.253708104428319,1.00648399488374
-0.267420014753771,1.00275828827874
-0.281097440073195,0.998398018891337
-0.2947371281619,0.993410257659381
-0.30833585764334,0.987803154433481
-0.321890438428885,0.98158592053042
-0.335397712102698,0.974768808997504
-0.348854552252498,0.967363092631666
-0.362257864747159,0.959381039802185
-0.375604587962177,0.950835888130694
-0.38889169295416,0.941741816086968
-0.402116183585595,0.932113912563581
-0.415275096601277,0.921968144497028
-0.428365501657846,0.911321322607231
-0.441384501308021,0.900191065331555
-0.454329230941164,0.888595761033438
-0.467196858681958,0.876554528569595
-0.479984585249005,0.86408717630338
-0.492689643775278,0.851214159655361
-0.505309299592421,0.837956537285378
-0.517840849980953,0.824335926003425
-0.530281623888517,0.810374454509478
-0.54262898161837,0.796094716065018
-0.554880314490353,0.781519720201341
-0.567033044476651,0.766672843571891
-0.579084623814694,0.751577780057732
-0.591032534599567,0.736258490236942
-0.602874288358376,0.720739150330089
-0.614607425608987,0.705044100735126
-0.626229515405641,0.689197794265928
-0.637738154873908,0.673224744209316
-0.649130968737492,0.657149472315863
-0.66040560883938,0.640996456839827
-0.671559753659848,0.624790080743503
-0.682591107833806,0.608554580180846
-0.693497401669975,0.592313993374623
-0.704276390674348,0.5760921100004
-0.714925855080377,0.55991242118962
-0.725443599388298,0.543798070262492
-0.73582745191595,0.527771804299912
-0.746075264363434,0.511855926661641
-0.756184911393883,0.496072250555883
-0.766154290232563,0.480442053763067
-0.775981320286505,0.464986034613974
-0.785663942786729,0.449724269319632
-0.795200120455146,0.434676170747269
-0.804587837198065,0.419860448733478
-0.81382509782822,0.405295072022205
-0.822909927817097,0.3909972319116
-0.831840373079302,0.376983307689924
-0.840614499790584,0.363268833936682
-0.849230394241042,0.349868469761002
-0.857686162724967,0.336795970044928
-0.865979931468634,0.324064158754822
-0.874109846597273,0.311684904379421
-0.882074074142351,0.299669097548373
-0.889870800090159,0.288026630880141
-0.897498230472602,0.276766381103265
-0.904954591500972,0.265896193489776
-0.912238129743367,0.255422868634504
-0.919347112346289,0.245352151608671
-0.926279827300859,0.235688723510918
-0.933034583753924,0.226436195433555
-0.939609712364252,0.217597104856349
-0.946003565703858,0.209172914474867
-0.952214518704395,0.201164013464795
-0.958240969148403,0.193569721178364
-0.964081338205118,0.186388293263443
-0.969734071010376,0.179616930190545
-0.975197637290063,0.173251788167544
-0.980470532026423,0.167287992416602
-0.985551276166415,0.16171965278252
-0.990438417371196,0.156539881636496
-0.995130530805693,0.151740814034167
-0.999626219967111,0.147313630081777
-1.0039241175511,0.143248579459351
-1.00802288635424,0.139535008044962
-1.01192122021128,0.136161386579479
-1.0156178449657,0.133115341306617
-1.01911151947172,0.130383686518694
-1.02240103662611,0.127952458934259
-1.02548522442794,0.125806953829654
-1.02836294706419,0.123931762842634
-1.03103310601932,0.122310813362479
-1.0334946412065,0.120927409417442
-1.03574653211859,0.119764273967055
-1.03778779899622,0.118803592503686
-1.039617504011,0.118027057864783
-1.04123475246125,0.117415916154569
-1.04263869397783,0.11695101367146
-1.0438285237377,0.116612844735233
-1.0448034836825,0.116381600305952
-1.0455628637397,0.116237217284914
-1.04610600304366,0.116159428386336
-1.04643229115398,0.116127812467232
-1.04654116926844,0.116121845201907
