0.523463870913879,0.0197474186864119
0.523118559095472,0.0197953483795811
0.522086411185755,0.0199607673683744
0.520374761310679,0.0202757918259648
0.51799312227803,0.0207719914990526
0.514953147170926,0.0214802563531079
0.511268582580489,0.0224306659042317
0.506955213663316,0.0236523617579309
0.502030801241767,0.025173423862386
0.496515011196638,0.0270207509690549
0.490429336432296,0.0292199457767742
0.483797011723817,0.0317952052169397
0.476642921783824,0.034769216316957
0.468993502913631,0.0381630580570294
0.460876638628681,0.0419961096115748
0.452321549672139,0.0462859653412396
0.443358678852742,0.0510483568746994
0.434019571163494,0.0562970825913147
0.424336749656475,0.0620439447863491
0.414343587565851,0.0682986947699875
0.404074177186001,0.0750689861199127
0.393563196024539,0.082360336274861
0.382845770760755,0.0901760966234844
0.371957339548706,0.0985174312091483
0.360933513210706,0.107383304137113
0.34980993587132,0.116770475736024
0.338622145584184,0.126673507490908
0.327405435503954,0.13708477573007
0.316194716153489,0.147994494013558
0.305024379332011,0.159390744136352
0.293928164203439,0.171259515625224
0.282939026095419,0.183584753574566
0.272089008528778,0.196348414633346
0.261409118984321,0.209530530923052
0.250929208898977,0.223109281634997
0.240677858366573,0.237061072024879
0.23068226599974,0.25136061949317
0.220968144389038,0.265981046411755
0.211559621573086,0.280893979330486
0.202479148909662,0.296069654172015
0.193747415712298,0.311477026999466
0.185383270990024,0.327083889919431
0.177403652599756,0.342856991662354
0.16982352409132,0.358762162363829
0.162655819494656,0.374764442053645
0.155911396267125,0.390828212344686
0.149598996586524,0.406917330801101
0.143725217142238,0.422995267454506
0.138294487543244,0.439025242928429
0.133309057427476,0.45497036762485
0.12876899232252,0.470793781422414
0.124672178272863,0.486458793333873
0.121014335214144,0.501929020570463
0.117789039040111,0.517168526463215
0.114987752273503,0.532141956695769
0.112599863217914,0.546814673309889
0.110612733434048,0.561152885953713
0.109011753350702,0.575123779853696
0.107780405788571,0.58869564000415
0.106900337143514,0.601837971083289
0.106351435945542,0.614521612621615
0.106111918480523,0.626718848967269
0.106158421133518,0.638403513613606
0.10646609908604,0.649551087476589
0.107008730974255,0.660138790733555
0.107758829091498,0.670145667860438
0.108687754696478,0.679552665531482
0.109765837968253,0.688342703073755
0.110962502130612,0.696500735198288
0.112246391251955,0.70401380676027
0.113585501212149,0.710871099332327
0.114947313315264,0.717063969407336
0.116298930016588,0.722585978080434
0.117607212223895,0.727432912093622
0.118838917626702,0.731602796160607
0.119960839503144,0.735095896524104
0.120939945452179,0.737914715732517
0.121743515499132,0.740063978657784
0.122339279025041,0.741550609810821
0.122695549974915,0.742383702045545
0.12278135980686,0.742574476776524
0.122566587652909,0.742136235869004
0.122022087173509,0.741084305392989
0.121119809600675,0.739435971465364
0.119832922479921,0.737210408435338
0.118135923638165,0.734428599698879
0.116004749923678,0.73111325145698
0.113416880284913,0.727288699760572
0.110351432777459,0.722980811211497
0.106789255112468,0.71821687771408
0.10271300838548,0.713025505695406
0.0981072436516318,0.707436500234328
0.0929584710415899,0.70148074455938
0.0872552211421198,0.695190075394119
0.0809880983958914,0.688597154644846
0.0741498263067513,0.681735337940161
0.0667352842691957,0.67463854054422
0.0587415358739894,0.667341101175989
0.0501678485756784,0.659877644275036
0.0410157046419992,0.652282941260549
0.031288803339761,0.644591771334222
0.0209930543465301,0.636838782379427
0.0101365624122449,0.629058352508684
-0.00127039667041107,0.621284452808836
-0.0132154086935824,0.613550511828541
-0.0256839621323602,0.605889282345781
-0.0386594975524634,0.598332710943967
-0.0521234651335271,0.5909118109141
-0.0660553900818701,0.583656538987181
-0.0804329456753131,0.576595676385859
-0.0952320336523519,0.569756714667145
-0.11042687162886,0.563165746808969
-0.125990087197622,0.55684736397255
-0.141892818339485,0.550824558349974
-0.158104819749896,0.545118632482245
-0.174594574661108,0.539749115407339
-0.191329411718555,0.534733685970698
-0.208275626449835,0.530088103602149
-0.225398606846535,0.525826146833584
-0.242662962562794,0.521959559801014
-0.260032657220174,0.518498006942889
-0.277471143296064,0.515449036074071
-0.294941499062605,0.512818049981546
-0.31240656703497,0.510608286654177
-0.329829093381862,0.508820808224494
-0.347171867747236,0.507454498665934
-0.364397862930654,0.506506070254205
-0.381470373874199,0.505970078766624
-0.398353155406634,0.505838947358623
-0.415010558200422,0.506102999022149
-0.431407662404266,0.506750497496609
-0.447510408423088,0.50776769646949
-0.463285724328621,0.509138896870828
-0.478701649397184,0.510846512033602
-0.493727453286529,0.512871140460878
-0.508333750380942,0.515191645910349
-0.522492608852959,0.517785244477833
-0.536177654010941,0.520627598333546
-0.549364165524483,0.523692915738496
-0.562029168143824,0.526954056943457
-0.574151515555271,0.530382645549587
-0.585711967041837,0.533949184888075
-0.596693256646817,0.537623178956275
-0.607080154567743,0.541373257429663
-0.616859520538986,0.545167304252776
-0.626020348992988,0.54897258929807
-0.634553805822743,0.552755902569419
-0.642453256601412,0.556483690416892
-0.649714286148844,0.560122193221389
-0.656334709369058,0.563637584001926
-0.662314573317362,0.566996107394607
-0.66765615049055,0.570164218450874
-0.672363923368398,0.573108720703277
-0.676444560269379,0.575796902949928
-0.679906882617941,0.578196674213807
-0.682761823754726,0.580276696340358
-0.685022379454654,0.582006513706111
-0.686703550350632,0.583356679522531
-0.687822276492778,0.58429887823276
-0.688397364304166,0.584806043514391
-0.68844940622428,0.584852471418835
-0.688000693360323,0.584413928197078
-0.687075121494242,0.583467752382721
-0.685698090819659,0.581992950725906
-0.683896399807756,0.579970287596129
-0.681698133624392,0.577382367497826
-0.679132547542369,0.574213710369883
-0.67622994581254,0.570450819368865
-0.673021556475466,0.566082240865511
-0.669539402611406,0.561098616414945
-0.665816170540512,0.555492726492829
-0.661885075497181,0.549259525822354
-0.657779725312508,0.542396170150302
-0.653533982646654,0.53490203436427
-0.64918182631867,0.526778721877533
-0.64475721228488,0.518030065242588
-0.640293934818269,0.508662117989229
-0.635825488440527,0.498683137717766
-0.631384931155367,0.48810356051271
-0.627004749526547,0.4769359667766
-0.622716726136701,0.465195038617717
-0.618551809953571,0.452897508958885
-0.614539990118735,0.440062102567395
-0.610710173660246,0.4267094692381
-0.607090067615073,0.412862109392868
-0.603706066029674,0.398544292389626
-0.600583142287666,0.383781967863126
-0.5977447471924,0.368602670447216
-0.595212713209386,0.353035418254609
-0.59300716524906,0.337110605514927
-0.591146438344414,0.320859889794908
-0.589647002550615,0.304316074246204
-0.588523395365088,0.287512985345847
-0.587788161936657,0.270485346612391
-0.587451803301442,0.253268648796629
-0.587522732851293,0.235899017059817
-0.58800724120792,0.218413075664234
-0.588909469642459,0.200847810710791
-0.590231392146302,0.183240431466135
-0.591972806224687,0.165628230827281
-0.594131332449908,0.148048445475212
-0.596702422776207,0.130538116270149
-0.59967937758367,0.113133949440174
-0.60305337138376,0.0958721791117953
-0.606813487084743,0.0787884317256792
-0.610946758681294,0.0619175928733088
-0.615438222199095,0.0452936770807225
-0.6202709746925,0.0289497010537919
-0.625426241061335,0.0129175608857723
-0.630883448421877,-0.00277208628786856
-0.63662030773706,-0.0180899357199635
-0.642612902382115,-0.0330081431196251
-0.648835783294333,-0.0475004269310777
-0.65526207032948,-0.0615421644197002
-0.661863559422744,-0.0751104811861823
-0.668610835129041,-0.0881843337557776
-0.675473388096148,-0.100744584917092
-0.682419737004512,-0.112774071513601
-0.689417554489864,-0.124257664421032
-0.69643379654891,-0.135182320474712
-0.703434834914547,-0.145537126142943
-0.710386591875229,-0.155313332775162
-0.717254677003394,-0.16450438328709
-0.724004525250234,-0.173105930178994
-0.730601535858681,-0.181115844817598
-0.737011211543165,-0.188534217946789
-0.743199297383633,-0.195363351427063
-0.749131918882417,-0.20160774123843
-0.754775718635829,-0.207274051816158
-0.760097991077812,-0.212371081823075
-0.765066814760616,-0.21690972149613
-0.769651181647187,-0.220902901738315
-0.773821122901787,-0.224365535159774
-0.777547830679222,-0.227314449303853
-0.780803775428899,-0.229768312324843
-0.783562818247676,-0.231747551414058
-0.785800317835111,-0.233274264299692
-0.78749323162606,-0.234372124173311
-0.78862021069866,-0.235066278421931
-0.789161688080392,-0.235383241569161
-0.789099960101067,-0.235350782851864
-0.788419260469129,-0.234997808880049
-0.787105826776521,-0.234354241847176
-0.785147959167331,-0.233450893775721
-0.782536070936519,-0.232319337298528
-0.779262730856982,-0.230991773490213
-0.775322697066019,-0.229500897274572
-0.770712942375686,-0.227879760943535
-0.765432670905533,-0.22616163633068
-0.759483325970614,-0.224379876187647
-0.752868589192288,-0.222567775314932
-0.745594370834175,-0.220758431999493
-0.73766879140033,-0.218984610310366
-0.729102154567406,-0.217278603800072
-0.719906911556882,-0.21567210115399
-0.710097617087362,-0.214196054322136
-0.699690877080335,-0.212880549657904
-0.688705288325465,-0.211754682576407
-0.677161370343354,-0.210846436231034
-0.66508148971462,-0.210182564690922
-0.652489777174033,-0.209788481084131
-0.63941203779709,-0.20968815115162
-0.62587565463379,-0.209903992635621
-0.611909486170367,-0.210456780902844
-0.597543758024153,-0.211365561178216
-0.58280994929964,-0.212647567738568
-0.567740674054937,-0.214318150388103
-0.552369558347186,-0.216390708508549
-0.536731113343054,-0.218876632946813
-0.520860604995963,-0.221785255971887
-0.504793920805331,-0.225123809500688
-0.488567434184684,-0.228897391759694
-0.472217866974907,-0.233108942515779
-0.455782150646286,-0.237759226975607
-0.439297286738171,-0.24284682841855
-0.422800207088062,-0.24836814959342
-0.406327634402795,-0.254317422874527
-0.389915943723072,-0.260686729137806
-0.373601025329077,-0.267466025283116
-0.35741814962913,-0.274643180294538
-0.341401834565512,-0.282204019696556
-0.325585716061537,-0.290132378230717
-0.310002422021927,-0.298410160544714
-0.294683450384374,-0.307017409654012
-0.279659051704167,-0.315932382905312
-0.264958116735695,-0.325131635141354
-0.250608069454865,-0.33459010873793
-0.236634765944841,-0.344281230156757
-0.22306239954427,-0.354177012631932
-0.209913412632294,-0.364248164583349
-0.197208415398316,-0.374464203327734
-0.184966111916783,-0.384793573636874
-0.173203233818259,-0.395203770673389
-0.161934481817916,-0.405661466816993
-0.151172475331408,-0.416132641878726
-0.140927710376011,-0.426582716187163
-0.131208525922022,-0.43697668601922
-0.122021078825904,-0.447279260838785
-0.113369327442628,-0.457455001799262
-0.105255023980193,-0.467468460961025
-0.0976777156246791,-0.47728432067195
-0.0906347544293486,-0.486867532558479
-0.0841213159265756,-0.496183455576205
-0.0781304263867675,-0.505197992572673
-0.0726529986141463,-0.513877724820929
-0.0676778761353959,-0.522190043990406
-0.0631918856038859,-0.530103281031825
-0.0591798972095966,-0.537586831465053
-0.0556248928531179,-0.544611276573032
-0.0525080418112936,-0.551148500021147
-0.0498087835923712,-0.557171799439501
-0.0475049176500003,-0.562655992525486
-0.0455726995982187,-0.567577517245791
-0.0439869435437793,-0.571914525740312
-0.0427211301279144,-0.575646971555404
-0.0417475198469828,-0.578756689860335
-0.041037271200516,-0.581227470328603
-0.0405605631960324,-0.58304512239483
-0.0402867217227124,-0.584197532628178
-0.0401843492906868,-0.584674713994431
-0.0402214576193443,-0.584468846811074
-0.0403656025467705,-0.583574311232588
-0.0405840207232299,-0.58198771113673
-0.0408437675445298,-0.579707889316694
-0.041111855776198,-0.576735933918443
-0.041355394316668,-0.573075176097226
-0.0415417265471268,-0.568731178902096
-0.0416385677173227,-0.563711717431987
-0.0416141408204669,-0.558026750341512
-0.041437310416362,-0.551688382808912
-0.0410777138700378,-0.544710821112435
-0.0405058894834384,-0.537110318994663
-0.0396934010100329,-0.528905116026852
-0.0386129580565869,-0.520115368217057
-0.0372385318926469,-0.510763071136526
-0.0355454662065268,-0.500871975868534
-0.0335105823666309,-0.490467498112212
-0.0311122787687629,-0.479576620801105
-0.0283306238735359,-0.468227790621832
-0.0251474425630414,-0.456450808842434
-0.0215463954724432,-0.444276716882489
-0.0175130509800508,-0.431737677077967
-0.0130349495685436,-0.418866849112738
-0.00810166030031417,-0.405698262605909
-0.00270482918116804,-0.392266686359286
0.00316178078117549,-0.378607494782556
0.00950225798437765,-0.364756532024914
0.0163185192315933,-0.350749974350911
0.0236102954172894,-0.336624191305301
0.031375125957231,-0.322415606216361
0.0396083619863493,-0.308160556589826
0.0483031783134576,-0.293895154945937
0.0574505940869898,-0.279655150650358
0.0670395020913914,-0.26547579328572
0.0770567065595285,-0.251391698104425
0.0874869693526844,-0.23743671409508
0.0983130643265125,-0.223643795184501
0.109515839668807,-0.210044875084819
0.121074287963334,-0.19667074628068
0.132965623703271,-0.183550943635146
0.145165367948284,-0.170713633074505
0.157647439790836,-0.158185505792093
0.170384254270375,-0.145991678389234
0.183346826348386,-0.134155599347948
0.196504880533266,-0.12269896220481
0.209826965721546,-0.111641625768865
0.223280574801219,-0.101001541698459
0.236832268544128,-0.0907946897226733
0.250447803297189,-0.081035020762716
0.264092261967281,-0.0717344081772334
0.277730187781399,-0.0629026073233204
0.291325720292778,-0.0545472235919397
0.304842733094613,-0.0466736890428959
0.318244972696352,-0.0392852477303255
0.331496198012758,-0.0323829497752211
0.344560319913592,-0.0259656542067723
0.357401540281442,-0.0200300405595127
0.369984490027137,-0.0145706291785303
0.382274365516362,-0.00957981015042621
0.394237062867262,-0.00504788074349137
0.40583930958734,-0.00096309120679948
0.417048793028399,0.00268830125525089
0.427834285150926,0.00592197054885883
0.438165763103881,0.00875545204469307
0.448014525142468,0.0112080654978189
0.457353301424882,0.0133008308412629
0.466156359249338,0.0150563771890934
0.474399602314704,0.0164988454118299
0.482060663611724,0.0176537846725002
0.489118991577063,0.0185480433356369
0.495555929169085,0.0192096546838229
0.501354785552348,0.01966771789701
0.506500900107032,0.0199522747686275
0.510981698509989,0.0200941826494178
0.514786740665482,0.0201249841249072
0.517907760295971,0.0200767739453821
0.520338696036392,0.019982063738146
0.522075713908999,0.0198736450406371
0.523117221090019,0.0197844511996502
0.523463870913879,0.0197474186864119
