0.652414879500957,-0.704332239741275
0.652488309504834,-0.704269650236759
0.652563120945736,-0.704205747026013
0.65263934605681,-0.704140495851359
0.652717017965249,-0.704073861389173
0.652796170720895,-0.70400580721141
0.652876839325863,-0.703936295745531
0.652959059765243,-0.703865288232791
0.653042869038908,-0.703792744684793
0.653128305194489,-0.703718623838233
0.653215407361549,-0.703642883107758
0.653304215787017,-0.703565478536835
0.653394771871916,-0.703486364746552
0.653487118209456,-0.703405494882246
0.653581298624542,-0.703322820557851
0.653677358214737,-0.70323829179787
0.653775343392773,-0.703151856976845
0.653875301930642,-0.703063462756205
0.653977283005351,-0.702973054018381
0.654081337246399,-0.70288057379803
0.654187516785054,-0.702785963210251
0.654295875305508,-0.70268916137563
0.65440646809797,-0.702590105341962
0.6545193521138,-0.702488730002489
0.654634586022758,-0.702384968010478
0.654752230272456,-0.702278749689953
0.654872347150111,-0.70217000294239
0.654995000846686,-0.702058653149176
0.655120257523539,-0.701944623069612
0.655248185381664,-0.70182783273423
0.655378854733644,-0.701708199333189
0.65551233807844,-0.701585637099498
0.655648710179121,-0.701460057186793
0.655788048143667,-0.701331367541386
0.655930431508987,-0.70119947276829
0.65607594232827,-0.701064273990905
0.65622466526183,-0.700925668704015
0.656376687671586,-0.700783550619766
0.656532099719334,-0.70063780950623
0.656690994468983,-0.700488331018168
0.656853467992915,-0.700334996519567
0.657019619482657,-0.70017768289751
0.657189551364045,-0.7000162623669
0.657363369417082,-0.699850602265551
0.657541182900691,-0.699680564839099
0.657723104682567,-0.699506007015185
0.65790925137437,-0.699326780166308
0.658099743472475,-0.69914272986071
0.65829470550452,-0.698953695600637
0.658494266182022,-0.698759510547248
0.658698558559302,-0.698560001231417
0.658907720199015,-0.698354987249641
0.659121893344551,-0.698144280944167
0.659341225099629,-0.697927687066474
0.659565867615374,-0.697705002423099
0.659795978285214,-0.697476015502814
0.660031719947931,-0.697240506084054
0.660273261099219,-0.696998244821416
0.660520776112112,-0.696748992810028
0.660774445466664,-0.696492501126432
0.661034455989273,-0.696228510344612
0.661301001102065,-0.695956750025654
0.661574281082759,-0.695676938179448
0.661854503335445,-0.695388780696751
0.662141882672752,-0.695091970749778
0.66243664160986,-0.694786188159414
0.662739010670844,-0.694471098726969
0.663049228707867,-0.694146353528302
0.663367543233727,-0.693811588167943
0.663694210768292,-0.693466421990729
0.664029497199378,-0.693110457248269
0.664373678158623,-0.692743278217385
0.664727039412936,-0.692364450267472
0.665089877272094,-0.691973518873505
0.665462499013103,-0.691570008571218
0.665845223321899,-0.691153421850697
0.666238380753011,-0.690723237984409
0.666642314207798,-0.690278911785378
0.667057379431861,-0.689819872290925
0.667483945532237,-0.689345521367076
0.667922395514975,-0.688855232228376
0.668373126843671,-0.688348347867478
0.668836552019527,-0.68782417938848
0.669313099183462,-0.687282004237527
0.669803212740775,-0.68672106432375
0.670307354008806,-0.686140564023105
0.670826001888003,-0.685539668057107
0.671359653556688,-0.68491749923792
0.671908825189794,-0.684273136070584
0.672474052701683,-0.683605610202523
0.673055892513066,-0.682913903709718
0.673654922341891,-0.682196946208177
0.674271742017904,-0.681453611778458
0.674906974320366,-0.68068271569011
0.675561265838193,-0.679883010911923
0.676235287851523,-0.679053184392796
0.676929737233361,-0.678191853096931
0.677645337369618,-0.67729755977582
0.678382839095443,-0.676368768458182
0.679143021645208,-0.675403859637594
0.679926693613009,-0.674401125136035
0.680734693919845,-0.673358762619952
0.681567892782933,-0.672274869743656
0.682427192681727,-0.671147437893024
0.683313529314269,-0.669974345500418
0.684227872536366,-0.668753350899598
0.685171227274808,-0.667482084687043
0.686144634404387,-0.666158041553662
0.687149171576828,-0.664778571548155
0.68818595398782,-0.663340870730511
0.6892561350662,-0.661841971171056
0.690360907066854,-0.660278730247264
0.691501501546128,-0.658647819187143
0.69267918969532,-0.656945710804353
0.693895282504229,-0.655168666366413
0.695151130722588,-0.653312721533308
0.696448124582559,-0.651373671299597
0.697787693240112,-0.649347053868667
0.699171303887134,-0.647228133383217
0.700600460479206,-0.645011881431287
0.702076702016289,-0.642692957242277
0.703601600304735,-0.64026568648244
0.705176757119093,-0.637724038554368
0.706803800670913,-0.635061602300036
0.708484381279011,-0.63227156000218
0.710220166121236,-0.629346659574247
0.712012832931527,-0.626279184824978
0.713864062487658,-0.623060923680141
0.715775529714392,-0.619683134241148
0.717748893203394,-0.616136508558572
0.719785782925057,-0.612411133998297
0.721887785877864,-0.608496452079545
0.724056429387838,-0.604381214667808
0.726293161733546,-0.600053437412459
0.728599329730676,-0.595500350329053
0.730976152863938,-0.590708345441167
0.733424693502559,-0.585662921416797
0.73594582267843,-0.58034862516132
0.738540180842729,-0.574748990364042
0.741208132947043,-0.568846473040311
0.743949717118382,-0.562622384167908
0.746764586113782,-0.556056819587445
0.749651940649217,-0.549128587424446
0.752610453599447,-0.541815133399023
0.755638183960451,-0.534092464521205
0.758732479354999,-0.52593507183041
0.761889865745752,-0.517315853031249
0.765105922900868,-0.508206036110392
0.768375144037007,-0.49857510529703
0.77169077794733,-0.48839073105968
0.775044651812568,-0.47761870622253
0.778426972797864,-0.466222890743909
0.781826106465359,-0.454165168236967
0.78522832999327,-0.441405417937908
0.788617558200429,-0.427901506549991
0.791975040448266,-0.413609305221424
0.795279026651765,-0.398482737860716
0.824354431054445,-0.374211694146694
0.801622281633041,-0.365533033096315
0.804599587825112,-0.347609034777302
0.772046328403714,-0.335090673966106
0.812579051612065,-0.320303355767309
0.852073526764987,-0.279334295615096
0.806809044768985,-0.250513158826973
0.796590131754429,-0.247328973381465
0.817005612025516,-0.216442063786705
0.856611064297617,-0.194182873352881
0.817605338335751,-0.162464581297125
0.787434809689561,-0.125179620724883
0.855256638102944,-0.130277010810403
0.821588273192824,-0.0560713755886429
0.809353680838204,-0.037064000832222
0.819200289011819,-0.00924109718961072
0.793832992124643,0.079149048817228
0.791078529986581,0.0727110905661643
0.787704476356655,0.0987436777536828
0.770936544426786,0.152983191291885
0.792012478956429,0.181236876340677
0.735873853895173,0.239410839735819
0.716167838366167,0.283477026011296
0.705524358772843,0.326775920865518
0.708125652204485,0.404320892760511
0.656879210890082,0.408995343190921
0.629386172895043,0.462173064827271
0.597234826861092,0.524024590782422
0.554902648164437,0.559722081394358
0.526643378252752,0.591959892644727
0.491882300278401,0.61387497904892
0.443238845736518,0.669331275859168
0.397393156474385,0.703712520290023
0.349083908658038,0.734503133398274
0.298623839492873,0.7611722353523
0.24639688648495,0.783214869194572
0.192855090476704,0.800168151848565
0.138512365407387,0.811627584556449
0.083935067517877,0.817262679445289
0.029729513802958,0.816830996792469
-0.0234731658323065,0.810189695955627
-0.0750342290627392,0.79730379077312
-0.124325762579886,0.778250467434552
-0.170749410609553,0.753219059008379
-0.213754370236387,0.72250655578558
-0.252853654119393,0.686508836501419
-0.287637730137504,0.645708100567562
-0.31778483415998,0.60065723462126
-0.34306749625333,0.551962032221023
-0.363355095218609,0.500262286630064
-0.378612531806326,0.446212787637875
-0.388895359474806,0.390465179775863
-0.39434191089122,0.333651496064491
-0.395163094332275,0.276369989992118
-0.391630601524473,0.219173672915778
-0.384064270475032,0.162561747806348
-0.372819293326117,0.106973932859779
-0.358273864275777,0.0527875041058004
-0.340817741875018,0.000316762778808995
-0.320842068690706,-0.0501854468953789
-0.29873066236688,-0.0985245831982809
-0.274852875312391,-0.144560033817758
-0.249558021924415,-0.188199919391502
-0.223171295519413,-0.229395426984637
-0.195991042388924,-0.268134973496127
-0.168287226046766,-0.304438440990161
-0.140300897945536,-0.338351668447394
-0.112244488250907,-0.369941331125314
-0.0843027380939638,-0.399290291917646
-0.0566341097354539,-0.42649346995542
-0.0293725303861887,-0.451654240444272
-0.0026293467024362,-0.474881355997866
0.023504611552437,-0.496286362721801
0.048956939762426,-0.51598147303521
0.0736716011277748,-0.534077850634055
0.0976069499412302,-0.550684260081775
0.120733867801624,-0.56590603333707
0.143034033643889,-0.579844307301075
0.164498339268201,-0.592595489531765
0.185125454876285,-0.60425091311191
0.204920543702045,-0.614896645870562
0.223894120881609,-0.624613423455177
0.24206104898093,-0.633476679927702
0.259439660846773,-0.641556653479229
0.276050999457103,-0.648918548444133
0.291918164038481,-0.655622738006168
0.307065751739818,-0.661724994815413
0.321519384480451,-0.667276739185415
0.335305311127629,-0.672325296636755
0.348450075827198,-0.67691415832631
0.360980244052726,-0.681083239384312
0.372922178708627,-0.684869131408408
0.384301859390263,-0.688305346368847
0.395144738646204,-0.691422549993441
0.405475629790096,-0.694248783353715
0.415318621462829,-0.696809671890778
0.424697014745134,-0.699128621523464
0.433633279164691,-0.701227001792165
0.442149024430867,-0.703124316226349
0.450264985166411,-0.704838360296514
0.458001016291871,-0.706385367434368
0.465376097058791,-0.707780143688511
0.472408342025878,-0.709036191635198
0.479115017532208,-0.710165824191778
0.485512562447223,-0.711180268989799
0.491616612172326,-0.712089763960109
0.497442025037032,-0.712903644767184
0.503002910376896,-0.713630424707432
0.508312657703971,-0.71427786765856
0.51338396648582,-0.714853054636158
0.518228876138682,-0.715362444480831
0.522858795916224,-0.715811929165589
0.5272845344394,-0.716206884179611
0.531516328666851,-0.716552214411517
0.535563872150491,-0.716852395923401
0.539436342458667,-0.717111513976308
0.543142427680686,-0.717333297638897
0.546690351952462,-0.717521151283704
0.550087899964399,-0.717678183249902
0.553342440430105,-0.717807231927608
0.556460948508701,-0.717910889496721
0.559450027184867,-0.717991523532832
0.562315927619856,-0.71805129667393
0.565064568493792,-0.718092184524322
0.567701554365062,-0.718115991956298
0.570232193076702,-0.718124367955543
0.57266151224271,-0.718118819143017
0.574994274849249,-0.718100722093889
0.577234994007045,-0.71807133456306
0.579387946891946,-0.718031805716749
0.58145718791082,-0.717983185460446
0.583446561129748,-0.717926432945219
0.585359712000959,-0.717862424326794
0.587200098424147,-0.71779195984495
0.588971001176893,-0.717715770284553
0.590675533747766,-0.717634522873873
0.592316651604513,-0.717548826670713
0.593897160928443,-0.717459237482224
0.59541972684481,-0.71736626236004
0.596886881177668,-0.717270363708586
0.598301029756312,-0.717171963040881
0.59966445929912,-0.717071444413079
0.600979343899272,-0.716969157566092
0.602247751135576,-0.716865420800076
0.603471647830371,-0.716760523605232
0.604652905475287,-0.716654729070205
0.605793305344486,-0.716548276087495
0.606894543313905,-0.716441381373499
0.607958234403966,-0.716334241319239
0.608985917062191,-0.716227033686403
0.609979057201234,-0.716119919161987
0.610939052006888,-0.716013042783678
0.611867233529799,-0.715906535247014
0.612764872073766,-0.715800514104396
0.61363317939277,-0.715695084865131
0.614473311708096,-0.715590342004886
0.615286372556273,-0.715486369892179
0.616073415477867,-0.715383243638897
0.616835446556578,-0.715281029881204
0.61757342681749,-0.71517978749664
0.618288274492819,-0.715079568262744
0.618980867162946,-0.714980417462045
0.619652043780088,-0.714882374437855
0.62030260658149,-0.71478547310493
0.620933322898595,-0.714689742418715
0.621544926868276,-0.71459520680656
0.622138121051806,-0.714501886564023
0.622713577966947,-0.714409798219108
0.623271941538148,-0.71431895486705
0.623813828469598,-0.71422936647802
0.624339829545547,-0.714141040179969
0.624850510862069,-0.714053980518587
0.625346414994165,-0.713968189696246
0.62582806210189,-0.7138836677916
0.626295950978952,-0.713800412961393
0.626750560047026,-0.713718421625905
0.627192348298831,-0.713637688639345
0.627621756192845,-0.713558207446368
0.628039206502344,-0.713479970225853
0.628445105121309,-0.713402968022922
0.628839841829575,-0.713327190870157
0.629223791019487,-0.713252627898845
0.629597312386143,-0.713179267441066
0.629960751583245,-0.713107097123325
0.630314440846406,-0.713036103952405
0.630658699585683,-0.712966274394051
0.630993834949001,-0.712897594445053
0.631320142358017,-0.71283004969924
0.631637906017914,-0.71276362540787
0.631947399402501,-0.712698306534853
0.632248885715932,-0.712634077807217
0.632542618332277,-0.712570923761183
0.632828841214111,-0.712508828784205
0.633107789311217,-0.71244777715328
0.63337968894044,-0.712387753069834
0.633644758147662,-0.712328740691445
0.633903207052835,-0.712270724160651
0.634155238178935,-0.712213687631084
0.634401046765649,-0.712157615291129
0.634640821068599,-0.712102491385313
0.634874742644808,-0.712048300233596
0.635102986625128,-0.711995026248741
0.635325721974259,-0.711942653951907
0.635543111739009,-0.711891167986613
0.635755313285353,-0.711840553131203
0.635962478524872,-0.711790794309925
0.636164754131072,-0.711741876602753
0.636362281746102,-0.71169378525404
0.636555198178328,-0.711646505680098
0.63674363559121,-0.711600023475802
0.636927721683907,-0.711554324420292
0.637107579864013,-0.711509394481854
0.63728332941279,-0.711465219822036
0.637455085643269,-0.71142178679908
0.637622960051557,-0.711379081970721
0.637787060461661,-0.711337092096402
0.637947491164156,-0.711295804138966
0.638104353048964,-0.711255205265863
0.63825774373254,-0.711215282849922
0.638407757679703,-0.711176024469718
0.63855448632039,-0.711137417909584
0.638698018161534,-0.711099451159285
0.638838438894322,-0.711062112413401
0.638975831497021,-0.711025390070438
0.639110276333583,-0.710989272731694
0.639241851248226,-0.71095374919991
0.639370631656164,-0.710918808477725
0.639496690630661,-0.710884439765948
0.639620098986581,-0.710850632461685
0.639740925360577,-0.710817376156318
0.639859236288086,-0.710784660633366
0.639975096277253,-0.710752475866233
0.64008856787993,-0.71072081201587
0.640199711759879,-0.710689659428345
0.640308586758295,-0.710659008632351
0.640415249956768,-0.710628850336646
0.640519756737801,-0.710599175427457
0.640622160842975,-0.710569974965821
0.640722514428879,-0.710541240184915
0.640820868120886,-0.710512962487345
0.640917271064879,-0.710485133442422
0.641011770977005,-0.710457744783426
0.641104414191541,-0.710430788404859
