0.718009447288144,-0.490858896409058
0.71735461949576,-0.490463290624586
0.71544426585591,-0.489196771812007
0.712369358246761,-0.486947125247877
0.708232987153857,-0.48361301851347
0.703149093983236,-0.479105263432377
0.69724107216341,-0.473347930846307
0.690640254020841,-0.46627930468923
0.683484301799991,-0.457852663770673
0.675915522362457,-0.448036881770282
0.668079126025982,-0.436816838152379
0.660121450682102,-0.424193635004371
0.65218817275251,-0.410184617158618
0.644422526703853,-0.394823195345212
0.636963554736649,-0.378158474513994
0.629944407897636,-0.360254691829064
0.623490719240477,-0.341190471149345
0.61771906878509,-0.321057903036281
0.612735558911381,-0.299961461447626
0.608634517482543,-0.278016770258609
0.605497344442444,-0.255349234574637
0.603391515889941,-0.232092553440921
0.602369757721258,-0.208387131994028
0.602469398873081,-0.184378412321009
0.603711912018809,-0.160215143278467
0.606102647294808,-0.136047610264887
0.609630762290277,-0.112025846425608
0.614269349151791,-0.0882978469951852
0.619975757260792,-0.0650078084438161
0.626692107568105,-0.0422944137933519
0.634345992343019,-0.0202891849080082
0.642851351843624,0.00088507824812932
0.652109517267354,0.0211157524503702
0.662010407322185,0.0403017224985507
0.672433863893986,0.0583545727969124
0.683251110596984,0.075199624773448
0.694326316502518,0.0907768075547284
0.705518246064397,0.105041351336285
0.716681975212718,0.117964295040847
0.727670652784674,0.129532802111026
0.738337285910418,0.139750280612016
0.748536527681108,0.14863630619529
0.758126445398436,0.156226348867239
0.766970247940511,0.162571306888258
0.774937951275095,0.167736853468914
0.781907961901866,0.171802604202223
0.787768559001476,0.174861115347052
0.792419257298591,0.177016725130878
0.795772034093923,0.178384252145643
0.797752405568966,0.179087566645126
0.798300339296592,0.179258052095001
0.7973709918788,0.179032975658924
0.794935262755469,0.178553787409352
0.790980157459296,0.17796436891692
0.785508955904999,0.177409252486677
0.778541183667368,0.177031832665719
0.770112386594062,0.176972591740545
0.760273711486163,0.177367360772599
0.749091297933442,0.178345637289022
0.736645488683481,0.180028980057884
0.723029868126439,0.182529500441408
0.708350140563529,0.185948468648303
0.692722861871981,0.190375051811595
0.676274039958703,0.195885199218047
0.659137620987436,0.20254068822902
0.641453879750645,0.210388342481981
0.623367733720802,0.219459431870533
0.605027001242048,0.229769261594261
0.58658062500111,0.241316955274525
0.568176882337751,0.254085434776627
0.549961604114603,0.268041596990897
0.53207642376225,0.283136685434395
0.514657077749022,0.299306852169985
0.497831778100584,0.316473903229264
0.481719676719748,0.33454621849825
0.466429440142451,0.353419834906943
0.452057952025206,0.372979679781474
0.438689159108726,0.393100939394711
0.318186848184706,0.533235213232793
0.526756744834053,0.326989447378798
0.314630297757138,0.558917512333839
0.303302698854877,0.373481057661067
0.388807193528274,0.497273228321371
0.382389549190777,0.517794786678988
0.278374821066274,0.65739341922238
0.482666378643566,0.667834350433744
0.460744318357421,0.465209273563274
0.482114073155107,0.474018067268716
0.366775412330165,0.610880713016909
0.256475456834003,0.72981456029538
0.480536421245484,0.75309202344677
0.367859248416117,0.654632110879401
0.260281994369722,0.772877379323889
0.46283924043727,0.560007201513694
0.488073795993998,0.797241922491037
0.375177095065849,0.693887046502428
0.467214221540824,0.79343895564587
0.491839488480995,0.588932217658993
0.489548696092736,0.800274932079298
0.280196306961321,0.811930729972401
0.267912365714549,0.593243832676558
0.494137666560879,0.589064822690732
0.379119547751799,0.706661550319496
0.376607832160702,0.703311165511656
0.281295973722423,0.593545937592623
0.368174603380746,0.693625007582066
0.478260885849346,0.799116874941029
0.455636438665792,0.78335463585903
0.251689190434895,0.769271490302505
0.335752620318341,0.665856465115583
0.324181047841064,0.657976025103343
0.311209132834394,0.650010857065417
0.296858260849998,0.642106193044059
0.281165808547351,0.634404381881564
0.264184723920294,0.627043149792951
0.245982917685657,0.620153917586772
0.226642473213187,0.61386019496342
0.206258684578685,0.608276071384567
0.184938934408525,0.603504821834995
0.162801425128443,0.599637644403283
0.139973779008891,0.59675254500761
0.116591523991878,0.594913382806627
0.0927964836706182,0.594169087884731
0.0687350909567585,0.594553060709758
0.0445566458962437,0.596082760654496
0.0204115387728191,0.598759488578309
-0.00355053994049057,0.6025683661094
-0.0271823810619657,0.607478511880417
-0.0503410079978913,0.613443412579222
-0.0728893766058397,0.620401484311721
-0.0946980029993428,0.628276817463365
-0.115646499543472,0.636980096018387
-0.135625000405285,0.646409680178
-0.154535459363772,0.656452839136441
-0.172292804134516,0.666987119050859
-0.188825933206015,0.677881829599855
-0.204078543096324,0.688999631085849
-0.218009775997094,0.700198202815804
-0.230594679952392,0.711331972508135
-0.241824475995216,0.722253885732671
-0.251706629007888,0.732817193904498
-0.260264721455041,0.7428772391271
-0.26753813153075,0.752293214218372
-0.273581519635476,0.760929876554153
-0.278464129425131,0.768659194924385
-0.282268911925347,0.775361909410026
-0.285091483351809,0.78092898534447
-0.287038929296019,0.785262943708817
-0.288228469800799,0.788279051810072
-0.28878600153839,0.789906359787235
-0.288844534795785,0.7900885703615
-0.288542544248823,0.788784731270892
-0.288022253552988,0.785969741981853
-0.28742787458223,0.781634668524614
-0.286903822697582,0.775786862628163
-0.28659292971826,0.768449883706008
-0.286634676295813,0.759663224636958
-0.287163465156283,0.749481844666641
-0.288306956179225,0.737975515096656
-0.290184483531775,0.725227985700632
-0.292905574079842,0.711335981982467
-0.296568585069115,0.696408045445217
-0.301259477620722,0.680563230944661
-0.307050740937712,0.663929676936187
-0.314000480289067,0.646643065966449
-0.322151679849846,0.628844994093403
-0.331531649353457,0.610681269023664
-0.342151661280805,0.59230015762132
-0.354006782998094,0.57385060405672
-0.367075905888607,0.555480440220089
-0.381321971132457,0.537334610118542
-0.396692389401213,0.519553429805232
-0.413119649380344,0.50227090395795
-0.430522107740244,0.485613119536701
-0.448804950973978,0.469696736014055
-0.467861317433595,0.454627590499675
-0.48757356595215,0.440499434685678
-0.507814675659173,0.427392818939198
-0.528449760004698,0.415374137082315
-0.549337676620564,0.404494843448792
-0.570332713484266,0.394790851715826
-0.591286330924322,0.386282122802349
-0.612048938328225,0.378972446830335
-0.632471683992663,0.372849421789799
-0.652408236396111,0.36788462916032
-0.671716535277897,0.364034004351103
-0.690260491274254,0.361238397456578
-0.707911613486235,0.359424317514348
-0.724550545229059,0.358504851224653
-0.740068489326913,0.358380744972775
-0.75436850565789,0.358941637013355
-0.767366665204376,0.360067424852825
-0.778993046605868,0.361629751224881
-0.789192563122969,0.363493590614303
-0.797925609979713,0.365518917063834
-0.805168524231659,0.367562433012049
-0.810913851582769,0.369479338169252
-0.815170416917319,0.371125116952346
-0.817963197695642,0.372357322774257
-0.819333001755334,0.373037337521596
-0.819335953433687,0.37303208485536
-0.818042794253736,0.372215676529916
-0.815538006667098,0.370470971738511
-0.811918771494551,0.36769103054921
-0.807293771723817,0.363780443780727
-0.801781857188957,0.358656523167364
-0.795510586344318,0.35225033735813
-0.788614662837799,0.34450758116641
-0.781234285865024,0.335389267510611
-0.773513434332518,0.32487223363844
-0.765598105661266,0.312949455481758
-0.757634530612561,0.299630166317936
-0.749767385808937,0.284939778289056
-0.742138025650856,0.268919607723254
-0.734882755094226,0.251626407584078
-0.728131164257722,0.233131712714841
-0.722004545078204,0.213521005817375
-0.716614409236433,0.192892714280542
-0.712061125345902,0.171357050027106
-0.708432691949723,0.149034706453081
-0.705803661221887,0.126055428268296
-0.704234226439715,0.102556471589748
-0.703769484306227,0.0786809729714307
-0.704438881078566,0.054576247159699
-0.706255849227348,0.0303920342283634
-0.709217639038839,0.00627871736217354
-0.71330534720543,-0.0176144670864101
-0.718484142058535,-0.0411412055484727
-0.724703682710939,-0.0641598476491069
-0.731898727021687,-0.0865350899596906
-0.739989921004416,-0.10813958266237
-0.748884760097407,-0.128855439632858
-0.758478710627341,-0.148575633620088
-0.768656477854041,-0.167205259595978
-0.779293405204094,-0.184662650948852
-0.790256987708595,-0.200880334980326
-0.801408481273884,-0.215805816116094
-0.812604588250681,-0.229402177332377
-0.82369919884076,-0.24164849250643
-0.834545167202353,-0.252540044694573
-0.844996100694135,-0.262088347697026
-0.854908140538031,-0.270320970656634
-0.86414171228511,-0.277281167829431
-0.872563224835222,-0.283027318029978
-0.880046697385409,-0.28763218056463
-0.886475294556816,-0.291181976693497
-0.891742751064271,-0.293775307779657
-0.895754668633392,-0.295521923266567
-0.898429669420651,-0.296541353447473
-0.899700391933581,-0.29696142363183
-0.899514317359982,-0.296916667753383
-0.897834416273474,-0.296546660685199
-0.894639607862973,-0.295994289513648
-0.889925026109265,-0.295403984764291
-0.8837020896751,-0.294919933058707
-0.875998374657739,-0.294684292906641
-0.866857291745772,-0.294835435299778
-0.856337571696116,-0.295506230472317
-0.844512565373733,-0.296822401633099
-0.831469366847428,-0.298900965661026
-0.817307770182808,-0.301848779699848
-0.802139072592063,-0.305761211302859
-0.786084738465088,-0.310720948278288
-0.769274940495107,-0.31679696269029
-0.751846995603659,-0.32404364159918
-0.733943714646763,-0.332500095100485
-0.715711685930466,-0.342189650070163
-0.697299513367339,-0.353119535769053
-0.678856030655988,-0.365280765130629
-0.660528513156531,-0.378648213180752
-0.642460909162857,-0.393180891645115
-0.624792112036937,-0.408822416418538
-0.607654294174288,-0.425501662229144
-0.591171323019046,-0.443133596558049
-0.575457278351043,-0.461620282699207
-0.5606150888378,-0.48085203979087
-0.546735304396599,-0.500708745744554
-0.533895019263064,-0.521061267262795
-0.522156958833256,-0.541772999594189
-0.511568741358137,-0.562701497342038
-0.502162323446724,-0.583700176537602
-0.49395363610293,-0.604620067323787
-0.48694241570818,-0.625311595980669
-0.481112231995397,-0.645626374668
-0.476430712668651,-0.665418977166046
-0.472849961935649,-0.684548679066024
-0.470307167866306,-0.702881141292757
-0.468725391198452,-0.720290016530021
-0.468014526009091,-0.736658459054759
-0.468072420583361,-0.751880519658729
-0.468786144868619,-0.765862408730954
-0.470033389121676,-0.778523612174548
-0.471683976764595,-0.789797846617805
-0.473601473078043,-0.799633842330061
-0.47564487019777,-0.807995944344181
-0.477670327953476,-0.814864524494089
-0.479532949411401,-0.820236199370959
-0.48108856956065,-0.824123851557358
-0.482195535423601,-0.826556453886553
-0.482716455974822,-0.827578698864995
-0.482519900619275,-0.827250437761012
-0.481482025604983,-0.825645936172948
-0.479488108620004,-0.822852955117598
-0.476433972938034,-0.818971668797608
-0.472227283817599,-0.814113432188859
-0.466788701410423,-0.808399413411755
-0.460052876176267,-0.801959107491496
-0.451969274713223,-0.794928749552124
-0.442502825970935,-0.787449646709695
-0.431634379994454,-0.779666448916716
-0.419360973622015,-0.771725379750892
-0.405695899903261,-0.763772448627318
-0.390668580387006,-0.755951666138625
-0.374324241820419,-0.748403284189485
-0.356723401175695,-0.741262082290772
-0.337941165246834,-0.734655720818242
-0.318066353310023,-0.728703181227579
-0.297200453488782,-0.723513312162025
-0.275456425483665,-0.719183499103235
-0.252957364191136,-0.715798473716279
-0.229835040424858,-0.713429277343805
-0.206228336444402,-0.712132391233153
-0.182281595273243,-0.7119490440561
-0.158142903834367,-0.712904705128734
-0.133962330735161,-0.715008769484627
-0.109890140083708,-0.718254438625545
-0.0860750030095648,-0.72261879839849
-0.0626622285899095,-0.728063093054917
-0.0397920356464156,-0.734533192166424
-0.0175978863820281,-0.741960244730079
0.00379509792378834,-0.750261512524146
0.0242716199389035,-0.759341372599017
0.0437275700284385,-0.769092476734909
0.0620712541855458,-0.7793970537924
0.0792244712465319,-0.790128339147221
0.0951234263232534,-0.801152113857918
0.109719469373855,-0.812328334882886
0.122979649955474,-0.823512836557901
0.134887081433842,-0.83455908268013
0.145441110237641,-0.845319947930173
0.154657288111957,-0.855649507007439
0.162567147716479,-0.865404809760333
0.169217784301218,-0.874447620762694
0.174671248546447,-0.88264610221925
0.179003757945765,-0.889876419770712
0.18230473631382,-0.89602425170485
0.184675693086486,-0.900986183252242
0.186228956026057,-0.904670969040262
0.187086272723355,-0.907000648378992
0.187377297881333,-0.907911499839143
0.187237984751137,-0.907354823532619
0.186808900255014,-0.905297541597751
0.186233484256792,-0.90172260959778
0.185656274118548,-0.896629233836341
0.185221116103457,-0.890032891949437
0.185069385344415,-0.881965156521235
0.185338235994027,-0.872473323861888
0.186158902805138,-0.861619852450544
0.18765507476673,-0.849481617856976
0.189941360545325,-0.836148993182811
0.193121864367565,-0.821724766181195
0.197288889638997,-0.806322906196102
0.202521786043471,-0.790067195885309
0.20888595412587,-0.773089744332352
0.216432019449163,-0.755529399592343
0.225195186358332,-0.737530079937207
0.23519477920346,-0.719239044052629
0.246433976598718,-0.700805121179893
0.258899741950702,-0.68237692268195
0.272562951107089,-0.664101056738341
0.28737871558369,-0.646120367835581
0.303286897453921,-0.628572222418415
0.320212809658005,-0.61158686150702
0.338068093238531,-0.595285840272112
0.356751760861146,-0.579780573504363
0.376151393960676,-0.565171004628931
0.396144478988063,-0.551544414416145
0.416599866544921,-0.538974383843567
0.437379335700724,-0.527519923693342
0.458339244510827,-0.517224781444687
0.479332246707005,-0.508116933869164
0.5002090537289,-0.50020827148208
0.5208202207143,-0.493494478674371
0.541017934775203,-0.487955110973964
0.560657783858855,-0.483553868492576
0.579600484728438,-0.480239062232416
0.59771354909428,-0.4779442675861
0.614872867677129,-0.4765891570907
0.630964192981026,-0.476080502320869
0.645884502782921,-0.47631333275276
0.659543227793779,-0.47717223752496
0.671863328594821,-0.478532794287991
0.682782208781824,-0.480263107791154
0.69225245323868,-0.482225439523349
0.70024238258386,-0.484277908619143
0.706736417064835,-0.486276243376213
0.711735245488357,-0.488075562115855
0.715255797141037,-0.489532161761986
0.717331017045955,-0.490505292420295
0.718009447288144,-0.490858896409058
