0.317825606766363,-1.04268113837801
0.332850344160968,-1.0383021071274
0.347576280984734,-1.03292178004819
0.361965008815184,-1.02655680546599
0.375979745619439,-1.01922792922362
0.389585587814416,-1.01095986583702
0.402749750988012,-1.00178114731634
0.415441797700353,-0.991723950595654
0.427633850863952,-0.98082390464261
0.439300791290868,-0.969119878440878
0.450420438093207,-0.956653751152109
0.460973710729877,-0.943470165870164
0.47094477160677,-0.929616268477521
0.480321148258798,-0.915141433201623
0.489093834269655,-0.900096976546975
0.497257368218096,-0.884535861346454
0.504809890077033,-0.868512392732236
0.511753174632985,-0.852081907872607
0.518092641637564,-0.835300461355407
0.523837342548795,-0.818224508121786
0.528999923867221,-0.800910585865186
0.533596567219081,-0.783414998809917
0.53764690648539,-0.765793504771448
0.54117392242064,-0.74810100737656
0.54420381534711,-0.730391255286093
0.546765856649592,-0.712716550216275
0.5488922199298,-0.695127465496922
0.550617792809046,-0.67767257683647
0.551979970491035,-0.660398206885283
0.553018432313187,-0.643348185100497
0.553774902623949,-0.626563624318265
0.554292897424409,-0.610082715333425
0.554617458304624,-0.593940540672844
0.55479487528771,-0.578168908627756
0.554872400267552,-0.562796208483102
0.55489795278835,-0.547847287748934
0.554919819965895,-0.533343352061183
0.554986352390962,-0.519301888277477
0.555145657884441,-0.505736611148908
0.555445294991424,-0.492657433801834
0.555931968107471,-0.480070462115651
0.556651226124525,-0.467978012934036
0.557647166466543,-0.456378655899346
0.558962146355869,-0.445267278553493
0.560636503110988,-0.434635174204741
0.562708285224661,-0.424470151919267
0.565212995908993,-0.414756667859904
0.568183350721011,-0.405475977063112
0.571649050799329,-0.396606304619665
0.575636573149914,-0.388123035105607
0.580168979317455,-0.379998918998426
0.585265743668929,-0.372204294709863
0.590942602398389,-0.364707324771869
0.597211424237464,-0.357474244626592
0.604080103725296,-0.350469622395456
0.611552477755497,-0.343656627936759
0.619628265977002,-0.3369973094463
0.628303035481238,-0.330452875811549
0.637568190060835,-0.323983982897168
0.647410984175915,-0.317551021918422
0.657814561613885,-0.311114408049288
0.668758018678412,-0.304634867414016
0.68021649159393,-0.298073720624404
0.692161267664424,-0.291393161050065
0.704559919580321,-0.284556526045378
0.71737646212602,-0.277528559404279
0.730571530403673,-0.270275663372364
0.74410257855726,-0.262766138614527
0.757924097855488,-0.254970410615103
0.771987852873443,-0.246861241075755
0.786243134401893,-0.238413922973546
0.800637027610433,-0.229606458047207
0.815114693896871,-0.220419715592844
0.829619664770938,-0.210837571570509
0.844094146046195,-0.200847027149492
0.858479330550179,-0.190438305952007
0.872715717509967,-0.179604929391357
0.886743436728656,-0.168343769640846
0.900502575638002,-0.156655079912682
0.913933507293952,-0.144542501871115
0.926977217374961,-0.132013050150079
0.93957562824804,-0.11907707409177
0.9516719181843,-0.105748196967976
0.963210833834234,-0.0920432330897038
0.974138994113015,-0.0779820833517371
0.984405183697353,-0.0635876098964255
0.993960634397707,-0.048885490714325
1.00275929274246,-0.0339040551274413
1.01075807219356,-0.0186741012230293
1.0179170885058,-0.00322869642133422
1.02419987684342,0.0123970375313476
1.02957358937767,0.0281661537530553
1.03400917220719,0.0440401221176753
1.03748152056717,0.059979082283496
1.03996961142514,0.0759421062228068
1.04145661269714,0.0918874685549353
1.04192996845957,0.107772922934178
1.04138145967681,0.123555982704163
1.03980724011244,0.139194204001528
1.03720784724184,0.154645469474555
1.03358818813441,0.169868270776776
1.02895750042492,0.184821988001448
1.02332928864319,0.199467164240321
1.01672123632012,0.213765773479038
1.00915509443329,0.227681480081749
1.00065654689793,0.241179888168749
0.991255053946657,0.254228779252947
0.980983674373857,0.266798336573251
0.969878867747121,0.278861354645144
0.957980277807777,0.290393432640319
0.945330498394531,0.301373150307563
0.931974823328083,0.311782225255701
0.917960981789516,0.321605650535452
0.903338860810642,0.330831811579922
0.888160216570052,0.339452581692376
0.872478376253551,0.347463395404045
0.856347932291928,0.354863299163265
0.839824430832011,0.361654978959285
0.822964056328583,0.367844764628805
0.805823314164735,0.373442610739774
0.788458713216554,0.378462054094232
0.770926450274547,0.38292014803926
0.753282098219003,0.386837373921257
0.73558029981968,0.390237530163116
0.717874468991887,0.393147599585358
0.700216501291559,0.395597595730069
0.682656495371503,0.397620389079782
0.665242487050081,0.399251514191265
0.648020197562634,0.400528958885893
0.631032797475354,0.401492936752998
0.614320687641836,0.40218564432966
0.597921298474556,0.402651004419131
0.58186890868796,0.402934397099866
0.566194484547217,0.403082380057346
0.550925540527907,0.403142399941151
0.536086022157676,0.403162496509427
0.521696211672101,0.40319100137181
0.507772656974479,0.403276233179599
0.494328124243942,0.403466191138258
0.481371574388987,0.403808248732085
0.46890816339527,0.404348849553923
0.456939266468105,0.40513320712412
0.445462525722587,0.406205010562632
0.434471921028434,0.407606137946263
0.423957863473486,0.409376379139801
0.413907310770187,0.411553169835444
0.404303903794109,0.414171338469802
0.395128123313604,0.417262867612204
0.38635746584568,0.420856671332648
0.377966637456051,0.424978389962825
0.369927764211631,0.429650203560006
0.362210617892345,0.434890665271699
0.354782855476447,0.440714555679574
0.34761027083037,0.44713275907502
0.340657056960748,0.454152162486485
0.333886077123325,0.461775578141415
0.3272591430312,0.470001689903852
0.320737298363696,0.478825024083551
0.314281105747253,0.48823594486469
0.307850935361376,0.498220674452723
0.30140725331583,0.508761337887733
0.294910907950136,0.519836032322498
0.288323412222807,0.531418920414521
0.281607220385649,0.543480347334255
0.274725997177655,0.555986980747668
0.267644877823224,0.568901972990971
0.260330717180409,0.582185144519744
0.252752326456174,0.595793187584478
0.244880695986833,0.609679888960767
0.236689202672393,0.623796370445579
0.228153800752879,0.638091345722
0.21925319472226,0.652511392094372
0.209968993290655,0.667001235504191
0.20028584342728,0.681504047155377
0.19019154364449,0.695961750005797
0.179677135816282,0.710315333320851
0.168736974962083,0.724505173434819
0.157368776567585,0.738471358826812
0.145573641157997,0.752154017590849
0.133356055984381,0.765493645363972
0.120723873829912,0.77843143177245
0.107688269088949,0.790909583464125
0.0942636714168571,0.802871641814687
0.0804676773916763,0.814262793427056
0.0663209407690458,0.825030171585928
0.0518470420484555,0.835123146883578
0.0370723382009891,0.844493605297931
0.0220257935354591,0.853096212079317
0.00673879280039562,0.860888659887701
-0.00875506226699412,0.867831899717086
-0.0244201716277665,0.873890353247523
-0.0402191694492332,0.879032105377258
-0.0561131689303501,0.883229075807134
-0.0720620178614923,0.886457168675831
-0.0880245632662387,0.888696399377081
-0.103958923413808,0.889930997827743
-0.11982276544258,0.890149487597859
-0.135573586798011,0.889344740459478
-0.151168998662438,0.887514006059455
-0.166567009539928,0.884658916571491
-0.181726307156556,0.880785466333584
-0.196606536845326,0.875903966627855
-0.211168574605305,0.87002897590944
-0.225374793056337,0.863179205938925
-0.239189318553685,0.8553774044177
-0.252578277780937,0.846650214866772
-0.265510032204083,0.837028014626107
-0.277955398844504,0.82654473198264
-0.289887855913179,0.815237643559918
-0.301283731942246,0.803147153220131
-0.312122377152556,0.790316553839337
-0.322386315906314,0.776791773418319
-0.332061379211809,0.762621107084131
-0.341136816371637,0.747854936620367
-0.349605384996129,0.732545439237118
-0.357463418739004,0.716746287353909
-0.364710872251739,0.700512341220359
-0.371351342995987,0.683899336239514
-0.377392069698573,0.666963566887505
-0.382843907380369,0.649761569140311
-0.387721279037712,0.632349803323737
-0.392042104202071,0.614784339296304
-0.39582770474952,0.597120545856649
-0.399102688475216,0.579412786237302
-0.401894811088804,0.561714121505565
-0.404234817423365,0.544076023640028
-0.40615626278253,0.526548099988106
-0.407695315476783,0.509177830736575
-0.408890541719967,0.492010320943617
-0.409782674169916,0.475088068588053
-0.410414365502161,0.458450749989736
-0.410829928502208,0.442135023845168
-0.411075064249324,0.426174355004998
-0.411196580042565,0.410598858995791
-0.411242098787385,0.395435168158281
-0.411259761618273,0.38070632013881
-0.411297925578934,0.366431669330898
-0.411404858216486,0.352626821720561
-0.411628430969508,0.339303593443075
-0.412015813241656,0.3264699932113
-0.41261316905263,0.314130228627267
-0.413465358146737,0.302284736240479
-0.414615643416019,0.290930235069193
-0.416105406460212,0.280059803155701
-0.41797387305971,0.269662976584289
-0.420257850280676,0.259725870251924
-0.422991476863619,0.250231319547724
-0.426205988468764,0.241159041968701
-0.429929499263654,0.232485817576913
-0.434186801241343,0.224185687087833
-0.438999182551706,0.216230166272052
-0.444384266014622,0.208588475253175
-0.450355868862593,0.201227781194404
-0.456923884632639,0.194113452785539
-0.464094187993742,0.187209324871323
-0.471868563157596,0.180477971501749
-0.480244656377708,0.173880985635457
-0.489215952895975,0.167379263688954
-0.498771778547551,0.160933293097391
-0.508897326085046,0.15450344103712
-0.51957370613281,0.148050242456371
-0.530778022532166,0.141534685568081
-0.542483471689837,0.134918492978249
-0.554659465395478,0.128164396653876
-0.567271776430998,0.121236404976539
-0.580282706155118,0.114100060180605
-0.59365127311229,0.106722684538625
-0.60733342158645,0.0990736137303071
-0.621282248897929,0.0911244159150017
-0.635448250126939,0.0828490951204666
-0.649779578840101,0.0742242776621309
-0.664222322298163,0.0652293804165701
-0.678720789533911,0.0558467598897007
-0.693217810609989,0.0460618411436093
-0.707655045297227,0.0358632257751548
-0.721973299355726,0.0252427782736979
-0.7361128465536,0.0141956902237293
-0.750013754522318,0.00272052195984027
-0.763616212523147,-0.0091807785743967
-0.776860859186551,-0.0215028798664638
-0.78968910828548,-0.0342370937304598
-0.802043470614443,-0.0473714248689042
-0.8138678700689,-0.0608906427668415
-0.825107952053823,-0.0747763754417758
-0.835711382395946,-0.089007224433474
-0.845628134991021,-0.103558900282097
-0.854810766484971,-0.118404377612263
-0.863214676365808,-0.133514068815397
-0.870798350930928,-0.148856015203822
-0.877523589691631,-0.164396094398216
-0.883355712882575,-0.180098242606083
-0.888263748857891,-0.195924690353333
-0.892220600277102,-0.211836210144552
-0.895203188112008,-0.227792374450674
-0.897192572639679,-0.243751822355948
-0.898174050725591,-0.259672533139729
-0.898137228844164,-0.275512105023258
-0.897076071430386,-0.291228037277158
-0.894988924305093,-0.30677801386251
-0.891878513066888,-0.32212018676688
-0.8877519164946,-0.33721345719679
-0.882620515154805,-0.352017752799879
-0.876499915558284,-0.366494299113184
-0.86940985035641,-0.38060588346863
-0.861374055212523,-0.394317109632555
-0.852420123123431,-0.407594641512756
-0.842579337101414,-0.420407434333737
-0.831886482256705,-0.432726951758159
-0.820379638443529,-0.444527367519378
-0.808099954748743,-0.455785750226081
-0.795091407210088,-0.466482230104517
-0.781400541250518,-0.476600146556256
-0.767076200405343,-0.486126175528976
-0.752169242999394,-0.495050435823743
-0.736732248501778,-0.503366573593897
-0.720819215345417,-0.511071824427051
-0.704485252047219,-0.518167052542154
-0.687786263502083,-0.524656766777038
-0.670778634349801,-0.530549113187569
-0.653518911328032,-0.535855844226532
-0.636063486526982,-0.54059226461772
-0.618468283452053,-0.544777154187571
-0.600788447779694,-0.548432668062028
-0.583078044659115,-0.551584214779352
-0.565389764368566,-0.554260313009357
-0.547774638079908,-0.556492427705174
-0.530281765419509,-0.558314786644332
-0.512958055437444,-0.559764178440784
-0.495847982511202,-0.560879733227845
-0.478993358614926,-0.561702687322948
-0.462433123281446,-0.562276133288157
-0.446203152472487,-0.562644756894648
-0.430336087453245,-0.562854562584487
-0.41486118464173,-0.562952589098286
-0.399804187271622,-0.56298661700239
-0.38518721957084,-0.563004869903566
-0.37102870401718,-0.563055711182543
-0.357343302088388,-0.563187338109763
-0.3441418787776,-0.56344747522728
-0.331431490997183,-0.563883068889601
-0.319215399845568,-0.564539984853498
-0.307493106563628,-0.565462710792274
-0.296260411860274,-0.566694065583877
-0.285509498142468,-0.568274917184631
-0.275229034043235,-0.57024391085154
-0.265404300503781,-0.572637209416326
-0.256017337533109,-0.575488247243976
-0.247047110641372,-0.57882749942805
-0.238469695822645,-0.582682267684756
-0.23025848184919,-0.587076484308506
-0.222384388533761,-0.592030535443733
-0.214816099519317,-0.597561104812108
-0.207520308067552,-0.603681038911364
-0.200461974239308,-0.610399234572702
-0.193604591791723,-0.617720549628842
-0.186910463059336,-0.625645737305165
-0.180340980039617,-0.634171404802774
-0.173856909867845,-0.643289996395712
-0.167418682842098,-0.652989801215812
-0.16098668114652,-0.663254985748644
-0.154521526420027,-0.674065650913803
-0.147984364328274,-0.685397913453041
-0.141337144318813,-0.697224011201706
-0.134542892772999,-0.709512431673228
-0.127565977812888,-0.722228063244142
-0.120372364077038,-0.735332368089008
-0.112929855845295,-0.748783575881632
-0.10520832696892,-0.762536897151887
-0.0971799361483809,-0.776544755067012
-0.0888193261961368,-0.790757034293313
-0.0801038060252938,-0.805121345489298
-0.0710135142163667,-0.819583303885253
-0.0615315631329427,-0.83408682031746
-0.0516441626819284,-0.848574403008567
-0.0413407229446526,-0.862987468319053
-0.0306139350404245,-0.877266658639179
-0.019459829723448,-0.891352165546262
-0.00787781335639555,-0.905184056319
0.00412931895151085,-0.918702601879098
0.0165553931081953,-0.931848604220694
0.0293908886242756,-0.944563721390176
0.0426229937948572,-0.956790788092821
0.0562356831077787,-0.968474130028316
0.0702098163666195,-0.979559870094344
0.0845232588782534,-0.989996224645946
0.0991510219201683,-0.999733788057849
0.114065422573333,-1.00872580390723
0.129236261882598,-1.01692842117476
0.144631020189409,-1.02430093395206
0.160215068371764,-1.03080600324302
0.175951893624289,-1.03640985955453
0.191803338318084,-1.04108248508795
0.207729850395744,-1.044797774466
0.223690743682629,-1.04753367305907
0.239644466431161,-1.04927229211044
0.255548876361332,-1.05
0.271361520417888,-1.04970748912977
0.287039917433168,-1.04838981806228
0.302541841864487,-1.04604642869162
0.317825606766363,-1.04268113837801
