0.824175279274391,-0.957827646826852
0.811324581865676,-0.951080788861046
0.798626300695518,-0.944336995691344
0.786078853717259,-0.937596644038714
0.773680685978357,-0.930860111046919
0.761430268876834,-0.924127774244476
0.749326099439611,-0.917400011506999
0.737366699622003,-0.910677201019918
0.725550615627647,-0.903959721241567
0.713876417248201,-0.89724795086662
0.702342697222155,-0.890542268789876
0.690948070612118,-0.883843054070376
0.679691174199978,-0.87715068589585
0.668570665899362,-0.870465543547475
0.657585224184814,-0.863788006364947
0.646733547537174,-0.857118453711858
0.636014353904624,-0.850457264941354
0.625426380178895,-0.84380481936209
0.614968381686169,-0.837161496204466
0.604639131692204,-0.830527674587125
0.594437420921216,-0.823903733483731
0.584362057088124,-0.817290051689995
0.574411864443702,-0.810687007790968
0.564585683332263,-0.804094980128576
0.554882369761478,-0.797514346769398
0.545300794983955,-0.790945485472692
0.535839845090228,-0.784388773658647
0.526498420612792,-0.777844588376868
0.517275436140868,-0.771313306275087
0.508169819945559,-0.764795303568098
0.499180513615091,-0.758290956006906
0.490306471699841,-0.751800638848088
0.481546661366855,-0.745324726823372
0.472900062063576,-0.738863594109416
0.464365665190514,-0.732417614297795
0.45594247378259,-0.725987160365184
0.447629502198914,-0.719572604643746
0.439425775820727,-0.713174318791705
0.431330330757296,-0.706792673764124
0.423342213559525,-0.700428039783858
0.415460480941047,-0.694080786312709
0.407684199506609,-0.687751282022756
0.400012445487521,-0.681439894767873
0.392444304483975,-0.675146991555426
0.384978871214053,-0.668872938518151
0.377615249269217,-0.662618100886206
0.370352550876113,-0.656382842959405
0.363189896664512,-0.650167528079618
0.356126415441214,-0.64397251860335
0.349161243969755,-0.63779817587449
0.342293526755757,-0.631644860197227
0.335522415837763,-0.625512930809137
0.328847070583417,-0.619402745854436
0.322266657490834,-0.613314662357404
0.31578034999503,-0.607249036195966
0.309387328279263,-0.601206222075445
0.303086779091176,-0.595186573502476
0.296877895563586,-0.589190442759082
0.290759877039823,-0.583218180876909
0.284731928903475,-0.577270137611635
0.278793262412448,-0.571346661417519
0.272943094537206,-0.565448099422134
0.267180647803093,-0.559574797401236
0.261505150136634,-0.553727099753811
0.255915834715703,-0.547905349477273
0.250411939823468,-0.542109888142816
0.244992708706007,-0.536341055870936
0.239657389433511,-0.530599191307097
0.234405234764974,-0.524884631597568
0.22923550201629,-0.519197712365403
0.224147452931664,-0.513538767686595
0.219140353558259,-0.507908130066371
0.214213474123992,-0.502306130415655
0.209366088918409,-0.496733098027684
0.204597476176556,-0.49118936055478
0.199906917965777,-0.485675243985281
0.195293700075355,-0.48019107262063
0.190757111908946,-0.474737169052617
0.186296446379723,-0.469313854140784
0.181910999808165,-0.463921446989981
0.177600071822429,-0.458560264928085
0.173362965261252,-0.453230623483874
0.169198986079303,-0.44793283636506
0.16510744325494,-0.442667215436481
0.161087648700312,-0.437434070698445
0.157138917173748,-0.432233710265245
0.153260566194379,-0.427066440343821
0.14945191595894,-0.421932565212589
0.1457122892607,-0.416832387200423
0.142041011410476,-0.411766206665806
0.138437410159668,-0.406734321976131
0.134900815625284,-0.401737029487172
0.131430560216898,-0.396774623522708
0.128025978565499,-0.391847396354315
0.124686407454187,-0.386955638181316
0.121411185750672,-0.382099637110895
0.118199654341542,-0.377279679138372
0.115051156068241,-0.372496048127643
0.111965035664741,-0.367749025791783
0.108940639696855,-0.363038891673815
0.105977316503146,-0.358365923127636
0.103074416137424,-0.353730395299119
0.10023129031276,-0.349132581107373
0.0974472923470089,-0.344572751226171
0.0947217771097907,-0.340051174065546
0.0920541009709101,-0.335568115753549
0.0894436217501702,-0.331123840118182
0.0868896986685561,-0.326718608669495
0.0843916923007546,-0.322352680581848
0.0819489645289823,-0.318026312676349
0.0795608784980885,-0.313739759403459
0.0772267985719097,-0.309493272825763
0.0749460902908423,-0.30528710260092
0.0727181203306112,-0.301121495964773
0.0705422564622019,-0.296996697714643
0.0684178675129365,-0.292912950192788
0.0663443233286617,-0.288870493270033
0.0643209947370295,-0.284869564329581
0.0623472535118409,-0.280910398250989
0.0604224723384335,-0.276993227394328
0.0585460247800871,-0.273118281584507
0.0567172852454237,-0.269285788095781
0.0549356289567831,-0.265495971636436
0.0532004319195483,-0.261749054333639
0.0515110708924022,-0.25804525571848
0.0498669233584926,-0.254384792711181
0.0482673674974877,-0.250767879606487
0.0467117821584987,-0.247194728059237
0.0451995468338531,-0.243665547070112
0.043730041633697,-0.240180542971561
0.0423026472614097,-0.236739919413914
0.0409167449898103,-0.233343877351667
0.0395717166381394,-0.229992615029958
0.0382669445497984,-0.226686327971213
0.0370018115708272,-0.223425208961985
0.0357757010291065,-0.22020944803997
0.0345879967142646,-0.217039232481209
0.0334380828582747,-0.21391474678747
0.0323253441167256,-0.21083617267382
0.0312491655507503,-0.207803689056375
0.0302089326095974,-0.204817472040242
0.0292040311138293,-0.201877694907638
0.0282338472391329,-0.198984528106207
0.0272977675007282,-0.196138139237513
0.0263951787383604,-0.193338693045722
0.0255254681018605,-0.190586351406478
0.0246880230372624,-0.187881273315959
0.0238822312734609,-0.185223614880125
0.0231074808093981,-0.182613529304154
0.0223631599017652,-0.180051166882068
0.0216486570532063,-0.177536674986547
0.0209633610010118,-0.175070198058933
0.020306660706288,-0.172651877599427
0.019677945343592,-0.170281852157473
0.0190766042910182,-0.167960257322336
0.0185020271207255,-0.165687225713867
0.0179536035898927,-0.163462886973469
0.0174307236320907,-0.161287367755242
0.0169327773490609,-0.159160791717332
0.0164591550028862,-0.157083279513466
0.0160092470085461,-0.155054948784685
0.0155824439268432,-0.153075914151266
0.0151781364576908,-0.151146287204839
0.014795715433751,-0.149266176500698
0.0144345718144125,-0.147435687550312
0.0140940966800975,-0.145654922814018
0.0137736812268877,-0.143923981693923
0.0134727167614598,-0.142242960526989
0.0131905946963186,-0.140611952578322
0.0129267065453197,-0.139031048034654
0.0126804439194708,-0.137500333998016
0.0124511985230029,-0.136019894479617
0.0122383621496997,-0.13458981039391
0.0120413266794788,-0.133210159552856
0.0118594840752117,-0.131881016660391
0.0116922263797767,-0.130602453307085
0.0115389457133329,-0.129374537964992
0.0113990342708067,-0.128197335982714
0.0112718843195833,-0.127070909580641
0.011156888197391,-0.125995317846406
0.0110534383103736,-0.12497061673053
0.0109609271313371,-0.123996859042262
0.0108787471981666,-0.123074094445624
0.0108062911124013,-0.122202369455645
0.0107429515379601,-0.121381727434804
0.0106881212000099,-0.12061220858966
0.0106411928839666,-0.119893849967688
0.0106015594346209,-0.119226685454306
0.010568613755381,-0.118610745770108
0.0105417488076229,-0.118046058468291
0.0105203576101396,-0.117532647932276
0.0105038332386826,-0.117070535373537
0.0104915688255853,-0.11665973882962
0.0104829575594608,-0.116300273162361
0.0104773926849669,-0.115992150056309
0.0104742675026276,-0.115735378017336
0.0104729753687056,-0.115529962371458
0.0104729096951156,-0.115375905263837
0.0104734639493711,-0.115273205658001
0.0104740316545561,-0.115221859335246
0.0104740063893145,-0.115221858894239
0.0104727817878472,-0.115273193750828
0.0104697515399107,-0.115375850138033
0.0104643093908079,-0.115529811106251
0.010455849141363,-0.115735056523645
0.0104437646478729,-0.115991563076738
0.0104274498220265,-0.1162993042712
0.0104062986307836,-0.116658250432833
0.0103797050962055,-0.117068368708751
0.0103470632952292,-0.117529623068758
0.0103077673593768,-0.11804197430692
0.0102612114743912,-0.118605380043335
0.0102067898797914,-0.119219794726095
0.0101438968683374,-0.119885169633446
0.0100719267853975,-0.120601452876145
0.00999027402820914,-0.121368589400001
0.00989833304502504,-0.122186520988627
0.0097954983341362,-0.123055186266368
0.00968116444276302,-0.123974520701441
0.00955472596580649,-0.124944456609247
0.00941557754445049,-0.125964923155899
0.00926311386460667,-0.127035846361923
0.00909672965519323,-0.128157149106164
0.00891581968623888,-0.129328751129875
0.00871977876680326,-0.130550569041004
0.00850800174270456,-0.131822516318672
0.00827988349404605,-0.13314450331783
0.00803481893253184,-0.134516437274126
0.00777220299856321,-0.13593822230894
0.00749143065810619,-0.137409759434626
0.00719189689932111,-0.138930946559932
0.006872996728945,-0.140501678495611
0.00653412516841693,-0.142121846960222
0.00617467724973734,-0.143791340586112
0.00579404801105138,-0.145510044925593
0.00539163249194662,-0.147277842457296
0.00496682572845526,-0.14909461259272
0.00451902274775116,-0.150960231682954
0.00404761856253104,-0.152874573025596
0.0035520081650705,-0.154837506871846
0.00303158652094375,-0.156848900433786
0.00248574856239729,-0.158908617891841
0.0019138891813664,-0.161016520402424
0.00131540322212426,-0.163172466105761
0.000689685473552705,-0.165376310133892
3.61306610231465e-05,-0.16762790461886
-0.000645866562122531,-0.16992709870107
-0.00135691162350316,-0.172273738537833
-0.00209761004105298,-0.174667667312086
-0.00286856743281066,-0.177108725241284
-0.0036703895271556,-0.179596749586474
-0.00450368217350267,-0.182131574661544
-0.00536905135346768,-0.184713031842639
-0.00626710319251624,-0.187340949577757
-0.00719844397210802,-0.190015153396522
-0.00816368014234988,-0.192735465920114
-0.00916341833517006,-0.195501706871387
-0.0101982653780272,-0.198313693085146
-0.0112688283081669,-0.201171238518597
-0.0123757143874407,-0.204074154261963
-0.0135195311176995,-0.207022248549276
-0.0147008862567772,-0.210015326769321
-0.0159203878350779,-0.21305319147676
-0.017178644172782,-0.21613564240341
-0.0184762638976852,-0.219262476469689
-0.0198138559636861,-0.22243348779623
-0.0211920296699383,-0.225648467715642
-0.0226113946806811,-0.228907204784449
-0.0240725610457672,-0.232209484795177
-0.0255761392219015,-0.235555090788599
-0.0271227400946088,-0.238943803066148
-0.0287129750009472,-0.242375399202477
-0.0303474557529848,-0.245849654058174
-0.0320267946620566,-0.249366339792636
-0.03375160456382,-0.252925225877095
-0.0355224988441282,-0.256526079107795
-0.037340091465738,-0.260168663619314
-0.0392049969958747,-0.263852740898049
-0.041117830634669,-0.267578069795835
-0.0430792082444909,-0.271344406543717
-0.045089746380197,-0.275151504765874
-0.0471500623203146,-0.278999115493674
-0.0492607740991819,-0.282886987179883
-0.0514225005400688,-0.286814865713014
-0.0536358612892975,-0.290782494431814
-0.0559014768513869,-0.294789614139888
-0.0582199686252463,-0.298835963120471
-0.0605919589414375,-0.302921277151326
-0.0630180711005349,-0.307045289519782
-0.0654989294126029,-0.311207731037903
-0.0680351592378228,-0.315408330057798
-0.0706273870282887,-0.319646812487047
-0.0732762403710029,-0.32392290180427
-0.0759823480320977,-0.328236319074819
-0.0787463400023106,-0.332586782966593
-0.0815688475437421,-0.336974009765982
-0.0844505032379262,-0.341397713393936
-0.0873919410352408,-0.345857605422151
-0.0903937963056944,-0.350353395089378
-0.093456705891113,-0.354884789317848
-0.0965813081587666,-0.359451492729821
-0.0997682430564647,-0.36405320766424
-0.103018152169155,-0.368689634193507
-0.106331678777063,-0.373360470140367
-0.1097094679154,-0.378065411094901
-0.11315216643569,-0.382804150431634
-0.116660423068742,-0.387576379326737
-0.120234888489304,-0.392381786775352
-0.123876215382451,-0.397220059609001
-0.12758505851174,-0.402090882513107
-0.131362074789167,-0.406993938044616
-0.135207923346982,-0.411928906649707
-0.139123265611395,-0.416895466681606
-0.143108765378231,-0.421893294418489
-0.147165088890556,-0.426922064081476
-0.151292904918356,-0.431981447852718
-0.155492884840281,-0.437071115893571
-0.159765702727539,-0.442190736362846
-0.164112035429962,-0.447339975435159
-0.168532562664312,-0.452518497319344
-0.173027967104887,-0.457725964276959
-0.177598934476463,-0.462962036640861
-0.18224615364965,-0.468226372833855
-0.18697031673871,-0.473518629387419
-0.191772119201895,-0.478838460960498
-0.196652259944381,-0.484185520358359
-0.20161144142385,-0.489559458551521
-0.206650369758785,-0.494959924694742
-0.211769754839558,-0.500386566146062
-0.216970310442372,-0.505839028485911
-0.222252754346128,-0.51131695553627
-0.227617808452293,-0.516819989379878
-0.233066198907853,-0.522347770379499
-0.238598656231416,-0.527899937197228
-0.244215915442553,-0.533476126813843
-0.249918716194461,-0.5390759745482
-0.255707802910035,-0.544699114076666
-0.261583924921426,-0.550345177452588
-0.267547836613195,-0.556013795125791
-0.273600297569142,-0.561704595962112
-0.279742072722903,-0.567417207262956
-0.285973932512439,-0.573151254784876
-0.292296653038485,-0.578906362759179
-0.298711016227094,-0.584682153911538
-0.305217809996374,-0.590478249481628
-0.311817828427518,-0.59629426924277
-0.31851187194027,-0.602129831521577
-0.325300747472923,-0.607984553217611
-0.33218526866698,-0.613858049823037
-0.339166256056612,-0.619749935442269
-0.346244537263031,-0.625659822811614
-0.353420947193928,-0.631587323318908
-0.360696328248102,-0.637532047023126
-0.368071530525438,-0.643493602673981
-0.375547412042368,-0.649471597731503
-0.383124838952984,-0.655465638385581
-0.390804685775953,-0.661475329575478
-0.398587835627396,-0.667500275009319
-0.40647518045991,-0.673540077183523
-0.414467621307901,-0.679594337402201
-0.422566068539412,-0.685662655796504
-0.430771442114625,-0.691744631343913
-0.439084671851251,-0.697839861887474
-0.447506697696981,-0.703947944154966
-0.456038470009226,-0.710068473778001
-0.464680949842347,-0.716201045311056
-0.473435109242606,-0.722345252250411
-0.482301931551059,-0.728500687053019
-0.491282411714624,-0.734666941155272
-0.50037755660559,-0.740843604991681
-0.509588385349788,-0.747030268013442
-0.518915929663716,-0.75322651870691
-0.52836123420087,-0.759431944611938
-0.537925356907573,-0.765646132340115
-0.547609369388585,-0.771868667592861
-0.557414357282802,-0.778099135179397
-0.567341420649354,-0.784337119034568
-0.577391674364421,-0.790582202236522
-0.58756624852911,-0.796833967024231
-0.597866288888734,-0.803091994814844
-0.608292957263856,-0.809355866220879
-0.618847431993472,-0.815625161067227
-0.629530908390714,-0.821899458407968
-0.640344599211485,-0.828178336543001
-0.651289735136428,-0.834461373034453
-0.662367565266679,-0.84074814472289
-0.673579357633834,-0.847038227743294
-0.684926399724603,-0.85333119754081
-0.696409999020638,-0.85962662888625
-0.70803148355403,-0.865924095891346
-0.719792202478992,-0.872223172023734
-0.731693526660279,-0.878523430121667
-0.7437368492789,-0.884824442408439
-0.755923586455696,-0.891125780506517
-0.768255177893413,-0.897427015451352
-0.780733087537871,-0.903727717704878
-0.793358804258907,-0.910027457168668
-0.806133842551762,-0.916325803196747
-0.819059743259616,-0.922622324608036
-0.832138074318014,-0.928916589698423
