-0.349074882551051,0.303188228492927
-0.373663504088583,0.289244300151112
-0.396834100370069,0.271687590791062
-0.418060149759709,0.250663477636747
-0.436830516129511,0.226393360493784
-0.452660319288377,0.199172925025869
-0.465101590011765,0.169368866655083
-0.473753493722417,0.137414104656552
-0.478271911273648,0.103801546039244
-0.478378173825359,0.0690764881392737
-0.473866761370002,0.0338277769343297
-0.464611790875466,-0.00132213563045072
-0.450572140004316,-0.0357280680541771
-0.431795075614369,-0.0687337310218824
-0.408418282350122,-0.0996838881520758
-0.380670215146186,-0.127936835130375
-0.348868729880676,-0.152876966252304
-0.313417978195463,-0.173927191228113
-0.274803585066298,-0.190560963292843
-0.233586160462993,-0.202313682310631
-0.190393228780976,-0.208793243677472
-0.145909691043974,-0.209689515342476
-0.100866964578059,-0.204782541033897
-0.0560309723668266,-0.19394928756216
-0.0121891790763633,-0.177168777570684
0.0298631077096595,-0.154525475937269
0.0693369346236407,-0.126210827749316
0.105464147767605,-0.0925228778816162
0.137511826376353,-0.0538639361427009
0.164796440322243,-0.010736287130733
0.186697466796694,0.0362640202712735
0.202670206239773,0.0864552330718436
0.212257547144283,0.139079698251349
0.215100443633125,0.19331527122786
0.210946888509716,0.248288157399235
0.199659187538521,0.303086986225634
0.181219367673235,0.356777891221088
0.155732582385976,0.408420346775603
0.123428410666013,0.457083494389568
0.0846599820949899,0.501862677061053
0.0399008980603076,0.541895891539774
-0.0102600420080758,0.576379864182989
-0.0651262611768721,0.60458545736504
-0.123902885011915,0.625872119859669
-0.185708155522447,0.639701106295842
-0.249586616914695,0.645647207553408
-0.314523876683236,0.643408755592294
-0.379462714145273,0.632815692386574
-0.443320280615519,0.613835522966364
-0.505006111574108,0.586577006580842
-0.563440651878342,0.55129147713827
-0.617573980719195,0.508371723744467
-0.666404413951145,0.458348403687988
-0.708996657866596,0.401884002904801
-0.744499190587496,0.339764402064386
-0.772160555052654,0.272888149202406
-0.791344261036538,0.202253581527869
-0.801542012590614,0.128943978908933
-0.802385001500239,0.054110968867829
-0.793653036452231,-0.0210435629973343
-0.775281311173763,-0.0952867730388625
-0.747364652311945,-0.16737506016393
-0.710159128679398,-0.236074836376559
-0.664080947032388,-0.300183521252289
-0.609702605057212,-0.358550404726763
-0.552684133998376,-0.43221930866233
-0.479074790159305,-0.453836662604718
-0.399931559254769,-0.503142731506193
-0.325571339841931,-0.532672486268795
-0.243239049721126,-0.530097141454359
-0.158682060694831,-0.535184457744382
-0.119007945923645,-0.546979189939557
0.0408265803296342,-0.536527082008517
0.0934308277284192,-0.482619668066556
0.187973063850786,-0.444522709580666
0.248146226023565,-0.399265879415186
0.298294792436452,-0.320123385613521
0.372646049129579,-0.256099168685361
0.447035051313704,-0.218983041337386
0.456983094665355,-0.115668704268183
0.507378416278455,-0.0324251968370614
0.542615965503037,0.058204311702162
0.547530924582594,0.168263806817739
0.538453894890168,0.248112519053188
0.564550877520558,0.376290657570474
0.49906348477649,0.436956978431531
0.468497937538274,0.50275900497744
0.412185953222973,0.612870284655072
0.344830095584534,0.715087719244028
0.249914651695476,0.700562110833254
0.202549165280824,0.826711288483846
0.145726962768473,0.894175859246867
-0.00347422103274077,0.91531774393641
-0.0887661708646449,0.940988780972547
-0.162287705595623,0.97875167906877
-0.286439643266904,0.971571766004581
-0.392136929249938,0.96209885620118
-0.496600341488147,0.9391948146171
-0.5981174320703,0.903023139618117
-0.694997831743012,0.853966327154782
