-0.904300581573309,-0.344393757013518
-0.868573554263671,-0.341941005282787
-0.72142056106805,-0.228248101416863
-0.795682785454204,-0.32474362635621
-0.75889078938433,-0.313179484576966
-0.610033595356279,-0.180784928112673
-0.684974154492783,-0.287205260394097
-0.647937267731419,-0.273545944847579
-0.610892070761594,-0.259815530923811
-0.573864704804882,-0.246237671066883
-0.536877447896424,-0.233002966048639
-0.39871095570534,-0.121101397896093
-0.463097713570133,-0.208200001056171
-0.426336659636978,-0.196900586175133
-0.389679260267946,-0.186487992766507
-0.353136844539618,-0.177059147274988
-0.316719354652393,-0.168699110661169
-0.280435480779328,-0.161482232107201
-0.244292767598411,-0.155473060458534
-0.208297699001527,-0.150727068955527
-0.17245576558242,-0.147291232629812
-0.136771518215208,-0.145204486697795
-0.141248359804187,-0.118492060201287
-0.0658898292262236,-0.14519588416213
-0.00563513430297259,-0.123692947451358
0.00845785854186533,-0.162557618032874
0.102039297187877,-0.0552320811160471
0.0738774251776264,-0.162256607709851
0.21976146582792,-0.0740979530555528
0.162807187138258,-0.189149825239269
0.17696596754254,-0.18991226621059
0.231089390557247,-0.215845910830189
0.324572218272482,-0.120317447313051
0.289883994522347,-0.241043026095655
0.312257613773547,-0.245264264854526
0.42565138393203,-0.190811344238795
0.352534828866544,-0.282651544469828
0.412327606243937,-0.298745268188665
0.453283944632658,-0.328292193537942
0.514582007674115,-0.353869081130746
0.511502036532074,-0.359888295668371
0.52710531378754,-0.392177502088619
0.545723435121337,-0.371041263778874
0.594541570054456,-0.426897020485866
0.652564027077443,-0.443917664294933
0.699319154616802,-0.488121412204184
0.70907077451716,-0.488848725951618
0.742245602639483,-0.508231433762409
0.800958732695945,-0.517776148623807
0.801526939012956,-0.528952815873331
-0.810209660740151,-0.22799941291279
-0.869918991646931,-0.362272839341385
-0.836470886436364,-0.370496630654327
-0.803142224197667,-0.388563203485967
-0.770008835769292,-0.408300450536925
-0.73700276808313,-0.429126996154078
-0.704074701664342,-0.450620885263221
-0.671186203927457,-0.472453306081453
-0.638306016399033,-0.494356825276934
-0.605407997857497,-0.516107790405577
-0.572469870267706,-0.537515600695534
-0.53947240006462,-0.558415702481342
-0.506398835597499,-0.57866477623143
-0.473234505032405,-0.598137296384181
-0.439966519903189,-0.61672299506452
-0.292527029627678,-0.516050282770443
-0.489037541326001,-0.747142037179744
-0.43148291300294,-0.785688619307538
-0.305651474579728,-0.680430348459349
-0.271721158678363,-0.693349445234069
-0.237637707599221,-0.704958386831498
-0.203396570468184,-0.715218238035228
-0.168994094056494,-0.724097743475717
-0.134427490460671,-0.731573051114321
-0.0996948132750163,-0.737627508386027
-0.0647949413725801,-0.742251523436773
-0.0297275697150956,-0.745442486497398
0.00550679312847407,-0.747204748653454
0.0409068208402791,-0.747549657279353
0.0764703584458678,-0.746495649359827
0.112194404258307,-0.744068405967856
0.148075084023678,-0.740301073464087
0.184107616297555,-0.735234559719978
0.220286267680965,-0.728917917098664
0.256604296020295,-0.721408828410776
0.293053878967102,-0.71277421812436
0.329626024306251,-0.703091019556672
0.473838977875196,-0.573952372498656
0.521544708843891,-0.589674824321292
0.439967770751264,-0.668691551237923
0.476912180251261,-0.655823429227212
0.513911375337903,-0.642486586567034
0.550945422004223,-0.628851569586518
0.587991166197122,-0.615116473870143
0.723955732285556,-0.494990673992922
0.662003092014435,-0.588326983714087
0.59317698148071,-0.674516579365086
0.735646305631594,-0.564692028035169
0.772179862201702,-0.555338977486236
0.808371064709876,-0.548914953129844
