0.78458830731558,-0.283204588415707
0.784477698068731,-0.283173975294949
0.784149309475343,-0.283068112619849
0.783608330287541,-0.28286602247212
0.782859979155904,-0.282546844637167
0.781909491989863,-0.282089888435983
0.780762109390058,-0.281474684201489
0.779423064180907,-0.28068103428314
0.777897569071404,-0.279689063464673
0.776190804471843,-0.27847926868115
0.774307906493787,-0.277032567923052
0.772253955160172,-0.275330348216936
0.770033962851937,-0.273354512574279
0.767652863017008,-0.271087525802386
0.76511549916686,-0.268512459073804
0.762426614185212,-0.26561303315343
0.759590839972678,-0.262373660185521
0.756612687450425,-0.258779483945991
0.753496536945064,-0.254816418468833
0.75024662897611,-0.250471184959108
0.746867055466435,-0.245731346908784
0.743361751395158,-0.240585343335695
0.739734486911403,-0.235022520070103
0.735988859926296,-0.229033159017684
0.732128289199492,-0.22260850533227
0.728156007935379,-0.215740792436376
0.724075057902931,-0.208423264832294
0.719888284092023,-0.200650198651517
0.71559832991776,-0.192416919895265
0.711207632983131,-0.183719820324072
0.70671842140905,-0.174556370959603
0.70213271073951,-0.164925133167246
0.697452301428317,-0.154825767293372
0.692678776912495,-0.14425903883668
0.687813502276158,-0.133226822138475
0.682857623507287,-0.121732101582335
0.677812067348482,-0.109778970299144
0.672677541741448,-0.0973726263790515
0.66745453686358,-0.084519366597483
0.662143326753704,-0.0712265776678855
0.656743971522651,-0.0575027250394111
0.651256320143052,-0.0433573392632208
0.645680013811388,-0.0288009999565341
0.640014489874054,-0.0138453173989046
0.634258986307892,0.00149708819950038
0.628412546744405,0.017212609712638
0.622474026025608,0.0332866783462708
0.616442096278278,0.0497037910635165
0.610315253492168,0.0664475401283346
0.604091824586617,0.0835006447022748
0.597769974948864,0.10084498442523
0.591347716426307,0.118461634906494
0.584822915753892,0.136330905048157
0.578193303396859,0.154432376118768
0.571456482788081,0.172744942491292
0.56460993993836,0.19124685395564
0.557651053397179,0.209915759512559
0.550577104540595,0.228728752552322
0.543385288162235,0.247662417318579
0.536072723342611,0.26669287655484
0.528636464571392,0.285795840228419
0.521073513096623,0.304946655224232
0.513380828474392,0.324120355898696
0.505555340291977,0.343291715382028
0.497593960037073,0.362435297515543
0.489493593085381,0.381525509309162
0.481251150778546,0.400536653803126
0.472863562564201,0.419442983217023
0.464327788169744,0.438218752268567
0.455640829781343,0.456838271544176
0.446799744199674,0.475275960803282
0.437801654943895,0.493506402098412
0.428643764275492,0.511504392593495
0.419323365113761,0.529244996963513
0.409837852814943,0.546703599259507
0.400184736787301,0.563855954124156
0.390361651914775,0.580678237244563
0.380366369762283,0.597147094930574
0.370196809536191,0.613239692708883
0.359851048773996,0.628933762825378
0.349327333737892,0.644207650550567
0.338624089487495,0.659040359185621
0.327739929607735,0.673411593669402
0.316673665568663,0.687301802690005
0.305424315694729,0.700692219207609
0.293991113721962,0.713564899299005
0.282373516922368,0.725902759237857
0.270571213775832,0.737689610728704
0.258584131170802,0.748910194216792
0.246412441116076,0.759550210200102
0.234056566947084,0.769596348474395
0.221517189011193,0.779036315246661
0.208795249817699,0.787858858057134
0.195891958639357,0.79605378845486
0.182808795553529,0.803612002376842
0.169547514912251,0.810525498185868
0.156110148231803,0.816787392327333
0.142499006493643,0.822391932570662
0.12871668184988,0.827334508806326
0.114766048727776,0.831611661374841
0.100650264329102,0.835221086909677
0.0863727685215311,0.838161641681483
0.0719372831205681,0.840433342436624
0.0573478105619204,0.842037364728572
0.0426086319655207,0.842976038746296
0.0277243045937995,0.843252842649325
0.0126996587081309,0.842872393424732
-0.00246020617126534,0.84184043528678
-0.017749925595375,0.840163825645429
-0.0331638750984734,0.837850518675335
-0.0486961756830337,0.834909546522253
-0.0643406998669736,0.83135099818908
-0.0800910782814985,0.827185996148847
-0.0959407068065743,0.822426670737095
-0.111882754229862,0.817086132380957
-0.127910170413777,0.81117844172708
-0.144015694954211,0.804718577735227
-0.160191866313341,0.797722403808843
-0.176431031407902,0.790206632038311
-0.192725355633282,0.782188785636752
-0.209066833302819,0.773687159652259
-0.225447298480751,0.764720780044289
-0.241858436186388,0.755309361215544
-0.25829179394625,0.745473262094106
-0.274738793670134,0.735233440863817
-0.291190743826322,0.72461140844387
-0.307638851890518,0.713629180821355
-0.324074237042429,0.702309230343045
-0.340487943083406,0.690674436075009
-0.356870951548,0.678748033340688
-0.373214194981905,0.666553562549889
-0.389508570358346,0.654114817432715
-0.405744952604662,0.641455792793749
-0.421914208210601,0.628600631902869
-0.438007208889608,0.615573573639839
-0.454014845264317,0.602398899510389
-0.46992804054735,0.589100880651715
-0.485737764188543,0.57570372494537
-0.5014350454598,0.56223152435524
-0.517010986948868,0.548708202607768
-0.532456777933563,0.53515746333084
-0.547763707608194,0.521602738766648
-0.562923178134273,0.508067139172593
-0.577926717487978,0.494573403022714
-0.592765992077263,0.481143848120315
-0.607432819102034,0.467800323730425
-0.621919178631335,0.454564163838433
-0.636217225372159,0.441456141638664
-0.650319300105111,0.428496425353976
-0.66421794076293,0.415704535484384
-0.67790589312864,0.403099303579573
-0.691376121130921,0.390698832626698
-0.704621816715201,0.378520459141286
-0.717636409269887,0.366580717045187
-0.730413574588122,0.354895303411565
-0.742947243346492,0.343479046152698
-0.755231609083163,0.332345873722016
-0.767261135659011,0.321508786897296
-0.779030564186485,0.310979832707268
-0.790534919412052,0.300770080559072
-0.801769515539346,0.290889600619108
-0.812729961481307,0.281347444494736
-0.823412165530902,0.272151628259169
-0.833812339441263,0.263309117856621
-0.843927001907391,0.254825816919474
-0.853752981442904,0.246706557023809
-0.863287418646604,0.238955090404192
-0.872527767855014,0.231574085143115
-0.881471798178351,0.224565122844929
-0.890117593918801,0.217928698798566
-0.89846355437127,0.21166422462778
-0.906508393008173,0.205770033422044
-0.91425113605118,0.200243387335723
-0.921691120434142,0.1950804876376
-0.92882799116283,0.190276487187342
-0.93566169807835,0.185825505310096
-0.9421924920325,0.181720645035001
-0.948420920484553,0.177954012658127
-0.954347822530247,0.174516739585176
-0.959974323375018,0.171399006404124
-0.965301828264695,0.168590069133055
-0.970332015888102,0.166078287583528
-0.975066831267132,0.163851155775105
-0.979508478150993,0.161895334332057
-0.983659410932423,0.160196684788874
-0.987522326104679,0.158740305726876
-0.991100153279127,0.15751057066016
-0.994396045784223,0.156491167585213
-0.997413370867557,0.155665140104746
-1.00015569952352,0.155014930032851
-1.00262679596995,0.154522421385196
-1.00483060679784,0.154168985654936
-1.00677124981903,0.153935528272079
-1.00845300263716,0.153802536141451
-1.00988029096819,0.153750126151948
-1.01105767673684,0.153758094547597
-1.01198984597617,0.15380596704903
-1.01268159655772,0.153873049612274
-1.01313782578006,0.153938479710334
-1.01336351784381,0.153981278021885
-1.01336373124158,0.153980400410443
-1.01314358609122,0.153914790076771
-1.01270825144106,0.15376342976684
-1.01206293257581,0.153505393917562
-1.01121285835157,0.153119900622638
-1.01016326858874,0.152586363301253
-1.00891940155092,0.151884441953013
-1.00748648153811,0.150994093883441
-1.00586970662204,0.149895623785502
-1.00407423655114,0.148569733064106
-1.00210518085223,0.146997568292162
-0.999967587155621,0.145160768688745
-0.997666429769723,0.14304151251208
-0.99520659853073,0.140622562262482
-0.992592887952204,0.137887308593033
-0.989829986698824,0.134819812828678
-0.986922467407706,0.131404847997485
-0.983874776879957,0.127627938281187
-0.980691226664237,0.123475396795593
-0.977375984053225,0.118934361615223
-0.973933063512923,0.113992829960412
-0.970366318563735,0.108639690469246
-0.966679434131247,0.102864753480952
-0.962875919383521,0.0966587792618079
-0.958959101070639,0.0900135041092279
-0.954932117381056,0.0829216642744163
-0.950797912328164,0.0753770176488469
-0.946559230679243,0.0673743631648201
-0.942218613437743,0.0589095578654491
-0.937778393888583,0.0499795316046338
-0.933240694214859,0.0405822993428611
-0.928607422693065,0.0307169710100549
-0.92388027147261,0.0203837589121095
-0.919060714944064,0.00958398266324445
-0.914150008699264,-0.00167992836817006
-0.909149189085024,-0.0134044351071127
-0.904059073350878,-0.0255848913139582
-0.898880260389894,-0.0382155486167295
-0.893613132070297,-0.0512895640236508
-0.888257855154245,-0.0647990099005531
-0.882814383798801,-0.0787348863921804
-0.877282462632805,-0.093087136260993
-0.871661630402043,-0.107844662111645
-0.86595122417382,-0.122995345964007
-0.860150384090758,-0.138526071132341
-0.854258058662411,-0.154422746363082
-0.848273010582044,-0.170670332178643
-0.842193823054741,-0.187252869369728
-0.836018906621837,-0.204153509573823
-0.829746506465532,-0.221354547872882
-0.823374710176464,-0.238837457338719
-0.816901455965946,-0.256582925450239
-0.810324541303569,-0.274570892302476
-0.803641631959894,-0.292780590523387
-0.796850271433031,-0.311190586810533
-0.789947890737027,-0.329778824996158
-0.78293181852915,-0.348522670545741
-0.775799291552384,-0.367398956391914
-0.768547465368722,-0.386384030002611
-0.76117342535817,-0.405453801579585
-0.753674197957779,-0.424583793280874
-0.746046762114426,-0.443749189358494
-0.738288060924625,-0.462924887100613
-0.730395013434159,-0.482085548465612
-0.72236452656997,-0.50120565229393
-0.714193507176443,-0.520259546982227
-0.705878874127936,-0.539221503503419
-0.69741757048925,-0.558065768655304
-0.688806575695575,-0.576766618420002
-0.680042917723437,-0.59529841131615
-0.671123685224099,-0.613635641625831
-0.662046039591017,-0.63175299237842
-0.652807226933014,-0.649625387974127
-0.643404589925075,-0.667228046330752
-0.633835579508897,-0.684536530438242
-0.624097766415642,-0.70152679920695
-0.614188852483766,-0.718175257497025
-0.604106681745174,-0.734458805218216
-0.593849251253509,-0.750354885391392
-0.5834147216289,-0.765841531065418
-0.572801427294161,-0.780897410985515
-0.562007886378048,-0.795501873912066
-0.551032810261967,-0.809634991491756
-0.539875112747269,-0.823277599586204
-0.528533918821123,-0.836411337966624
-0.517008572999827,-0.849018688286728
-0.505298647229361,-0.861083010249852
-0.493403948323963,-0.872588575890348
-0.481324524924498,-0.883520601893443
-0.469060673959507,-0.893865279882144
-0.456612946592861,-0.903609804604262
-0.443982153643127,-0.912742399957331
-0.431169370460898,-0.921252342793958
-0.418175941251546,-0.929129984455115
-0.405003482832085,-0.936366769983914
-0.391653887812094,-0.942955254977562
-0.378129327189895,-0.948889120040451
-0.364432252356535,-0.954163182806662
-0.350565396501376,-0.958773407505587
-0.336531775414464,-0.962716912049792
-0.322334687682167,-0.965991972629816
-0.307977714273945,-0.968598025806076
-0.293464717519423,-0.970535668093666
-0.278799839476355,-0.971806653041384
-0.26398749969136,-0.972413885811897
-0.249032392356707,-0.972361415275517
-0.23393948286775,-0.971654423635581
-0.218714003786938,-0.970299213608909
-0.203361450221684,-0.968303193190275
-0.187887574624634,-0.965674858035157
-0.172298381026201,-0.96242377150036
-0.156600118710472,-0.9585605423873
-0.14079927534686,-0.954096800437822
-0.124902569591048,-0.949045169637461
-0.108916943170008,-0.943419239385883
-0.0928495524669804,-0.937233533599006
-0.0767077596234496,-0.930503477811893
-0.0604991231762038,-0.923245364355939
-0.0442313882486374,-0.915476315688153
-0.0279124763164179,-0.907214245954453
-0.0115504745686139,-0.898477820872781
0.00484637511372378,-0.889286416025598
0.021269687538677,-0.879660073654846
0.0377109459206102,-0.869619458055766
0.0541615139089498,-0.859185809669079
0.070612647903476,-0.848380897973923
0.0870555096303761,-0.837226973286589
0.103481178952715,-0.825746717572507
0.119880666888446,-0.813963194381146
0.13624492880864,-0.801899798015387
0.152564877788154,-0.789580202048643
0.16883139808067,-0.777028307304432
0.18503535868971,-0.764268189414276
0.201167627007017,-0.751324046070717
0.217219082489563,-0.738220144092918
0.233180630346297,-0.724980766422707
0.249043215205768,-0.711630159169032
0.264797834735763,-0.698192478818713
0.280435553186192,-0.684691739730936
0.295947514826636,-0.671151762032325
0.311324957250188,-0.65759612002846
0.326559224515481,-0.64404809124661
0.341641780099196,-0.630530606222937
0.356564219631702,-0.617066199145815
0.371318283388987,-0.603676959464933
0.385895868514568,-0.590384484573697
0.400289040945608,-0.57720983367004
0.41449004701822,-0.564173482898049
0.428491324727494,-0.551295281870026
0.442285514618707,-0.538594411665399
0.455865470286809,-0.526089344399685
0.469224268462302,-0.513797804453094
0.482355218662407,-0.501736731444706
0.495251872387445,-0.489922245034205
0.507908031843333,-0.478369611629068
0.520317758172117,-0.467093213070838
0.532475379173602,-0.456106517369658
0.544375496502176,-0.445422051551692
0.556012992324158,-0.435051376679278
0.567383035422133,-0.425005065098831
0.578481086733982,-0.415292679966498
0.589302904315529,-0.405922757096497
0.599844547717042,-0.396902789171826
0.610102381765043,-0.388239212351794
0.620073079742279,-0.379937395305414
0.629753625959943,-0.37200163069429
0.639141317717621,-0.364435129123157
0.648233766647782,-0.357240015570679
0.657028899442957,-0.350417328307594
0.665524957965152,-0.343967020303697
0.673720498738324,-0.337887963119618
0.681614391826216,-0.332177953273747
0.689205819099068,-0.326833721069171
0.696494271894171,-0.321850941859935
0.703479548076498,-0.317224249730513
0.710161748506982,-0.31294725355697
0.716541272927312,-0.30901255541295
0.722618815271403,-0.305411771278406
0.72839535841492,-0.302135554003803
0.733872168375517,-0.299173618477519
0.739050787977606,-0.296514768939193
0.743933029996679,-0.294146928377014
0.748520969799313,-0.292057169942238
0.752816937496109,-0.290231750309746
0.756823509625879,-0.288656144909068
0.760543500390396,-0.287315084946137
0.763979952460026,-0.286192596132017
0.767136127371473,-0.285272039031026
0.770015495539766,-0.284536150937065
0.772621725907443,-0.283967089183517
0.774958675254676,-0.283546475788912
0.777030377194816,-0.283255443337508
0.778841030880505,-0.283074681991233
0.780394989446117,-0.282984487526837
0.781696748212871,-0.282964810289865
0.782750932683449,-0.282995304954963
0.783562286353396,-0.283055380980237
0.784135658366951,-0.283124253641838
0.784475991045316,-0.283180995533622
0.78458830731558,-0.283204588415707
