0.58447869730744,-0.769158579639304
0.595746295986899,-0.75929623146712
0.60594836380584,-0.748186043458008
0.615044037609166,-0.735887966137365
0.623002975072432,-0.722472029564915
0.629805899676789,-0.708017413801477
0.635445019224802,-0.692611425166986
0.639924311508974,-0.676348391248581
0.643259672319056,-0.659328488498694
0.645478922615309,-0.641656516973413
0.646621673382999,-0.623440637293206
0.646739048398299,-0.604791085255395
0.743455700614121,-0.488932344139176
0.644157089520227,-0.566634539098568
0.641613133712891,-0.547346822475505
0.638353064102539,-0.528061509153155
0.520285888038948,-0.613489834391152
0.630090823368795,-0.48989937838805
0.625308375989222,-0.471209069023204
0.721406002305223,-0.342296616970872
0.615027571115727,-0.435023768451234
0.609773540347893,-0.417669850589173
0.604608860788255,-0.400887310464515
0.599656947241625,-0.384723174198282
0.595039206194439,-0.369214317176947
0.590873645245579,-0.354387252849453
0.587273507839888,-0.3402580550262
0.492763400954184,-0.422925638574721
0.582190770144779,-0.31410581954256
0.580899220735627,-0.302063881853681
0.690540274827212,-0.190384542950893
0.488030045204705,-0.389449641123198
0.687602306692716,-0.17775978172675
0.585835898274791,-0.260136512379808
0.589860331865623,-0.250992803245365
0.59506190549193,-0.242271856770122
0.491602128321681,-0.35059648947353
0.609009368189434,-0.225832403584059
0.617726575269305,-0.217972792915371
0.627563623426582,-0.210255897361113
0.638471461782161,-0.202607869920061
0.650387758370751,-0.194955514852822
0.758572075297631,-0.0902347038087515
0.676933558417859,-0.179354684312407
0.69137783664101,-0.171272521294791
0.706461950743642,-0.16292056880413
0.722068472114214,-0.154244050161897
0.738072096857875,-0.145194481586286
0.850704920880445,-0.0345562582086704
0.77073788450554,-0.125817673888396
0.787122048277722,-0.115430491578171
0.803350222604308,-0.104551185304543
0.819278396155833,-0.0931707227457651
0.83476326932099,-0.0812887618228597
0.849663767972169,-0.0689136348749692
0.86384253593231,-0.0560622102896425
0.877167389372102,-0.0427596337163725
0.984739019456092,0.0901791085726451
0.993299749064477,0.0855992611009938
0.910803103006627,-0.000511947897862536
1.01452536639379,0.12343426220645
0.831663419364402,-0.0712752404818911
0.932770040537767,0.0441961116157477
0.937124124294203,0.0593627832576523
0.939902749276646,0.0745479859701155
0.941072002121447,0.0896806382490833
0.940612433124352,0.104689097315245
0.938519229046394,0.119502211379887
0.934802226275849,0.134050370631404
0.929485764494148,0.148266542807307
0.922608382819531,0.162087279383673
1.02402683185503,0.281805518882051
0.904393119605111,0.188312293331676
0.893198461170727,0.200615968048104
0.880727703217147,0.212324598864401
0.867080671349075,0.22340580053674
0.852366589383742,0.233835474307219
0.836702871003866,0.243598267298336
0.820213828135731,0.252687916795014
0.803029310963874,0.261107474046438
0.785283295231739,0.268869403746265
0.767112433030922,0.275995556929669
0.748654583644003,0.282517016639659
0.730047341173654,0.288473817342986
0.711426575662053,0.293914540697606
0.692925004180443,0.298895791868675
0.674670807952067,0.303481562138623
0.656786310967995,0.307742485039511
0.63938673477219,0.311754994633954
0.62257904313933,0.31560039586688
0.606460889257967,0.319363858087735
0.473667581011628,0.208193587311618
0.695461993882179,0.430279208585961
0.563061684507399,0.331049428058264
0.550461796697774,0.335375637544104
0.437425143901736,0.249461593241136
0.428795953950332,0.24295638601958
0.518814460096343,0.350865445008466
0.510361589911818,0.357132400660585
0.39567046171252,0.268489539508738
0.496546836641417,0.371741224066366
0.491123718321771,0.380196923125848
0.486629927772675,0.389481220863979
0.483006857558943,0.399627643592081
0.480186118125133,0.410659111801382
0.478090491044914,0.422587427286804
0.476634973312815,0.435412888454304
0.475727899484027,0.449124039813377
0.475272127628657,0.463697560063623
0.475166274400439,0.479098291529511
0.47530598403381,0.495279412000771
0.475585215782648,0.512182748317519
0.475897534201814,0.529739229320116
0.476137386749651,0.547869474084812
0.476201353454065,0.566484509707946
0.475989353832923,0.585486611304253
0.475405796885098,0.604770255368088
0.474360660763319,0.624223176228786
0.472770489693762,0.643727514030404
0.470559296807837,0.663161041497819
0.467659362784962,0.682398455730096
0.464011921555653,0.701312720401067
0.459567725765187,0.719776443056949
0.338699084816735,0.642221005878536
0.448142181224989,0.754849294448086
0.441113233045392,0.771214426190797
0.433192551017988,0.786643765696098
0.306396309425744,0.70305064336601
0.414695388849733,0.814269193098815
0.404153706873571,0.826272885912055
0.392789073924262,0.836958257107651
0.380641951162572,0.846254568006792
0.36776089698344,0.854102937812957
0.354201785821687,0.860457085747491
0.340026942423878,0.865283938357458
0.325304203457697,0.868564094255238
0.310105919178651,0.870292140173134
0.294507908559715,0.870476813917228
0.278588381804457,0.869141011562913
0.262426844502567,0.866321638029224
0.153576033236895,0.768340439071234
0.22969564928815,0.856447857796464
0.213281647864175,0.849533799167735
0.19693485792499,0.841415510522646
0.180725184583396,0.832192384248759
0.164717663366387,0.821973813163507
0.148971625729946,0.810878069190409
0.133539951057046,0.799031080523619
0.118468414605125,0.786565120761773
0.103795139596021,0.773617424533591
0.0895501602668725,0.760328745011616
0.0757551012421121,0.746841869406221
0.0624229770628637,0.733300109041156
0.0495581141399578,0.719845780928439
0.0371561958001416,0.706618697880199
0.0252044294919752,0.693754684116817
0.120938388179407,0.773173560797373
-0.0882315385616297,0.554780109562723
-0.00819819390877072,0.658609609722873
-0.0186343694559585,0.648427200360804
-0.0287975370087223,0.639179039472458
-0.0387415009029888,0.630949302654247
-0.0485243501477712,0.623809819211239
-0.0582075264629464,0.617819330228235
-0.0678548421623876,0.613022890741877
-0.0775314610499074,0.609451422571068
-0.0873028559955837,0.607121422633511
-0.0972337571862436,0.606034829791793
-0.107387105192001,0.606179051454208
-0.117823022958702,0.607527149324805
-0.128597820624209,0.610038181875551
-0.139763046667083,0.613657699322425
-0.056205266376219,0.72777648290677
-0.163441903564641,0.623940836543528
-0.176027185745944,0.630434474574658
-0.189144821599608,0.637698573394812
-0.202810801337634,0.645623396509028
-0.217032298939992,0.654091426880799
-0.231807359019421,0.662978676641932
-0.24712470526529,0.672156061292435
-0.262963673916889,0.681490822585273
-0.279294274126266,0.690847983784818
-0.296077375451339,0.700091820673833
-0.204616200271911,0.819911933358025
-0.330800863863632,0.717701689652247
-0.348620720322114,0.725805661304366
-0.366653236910702,0.733274974378319
-0.384820660548223,0.739991621265351
-0.403039704694006,0.745845082220535
-0.537709643342209,0.637967345402538
-0.439277622810868,0.754564482095692
-0.457111175224796,0.757256453741313
-0.474627926649337,0.758738995087126
-0.609402761797735,0.639222718975035
-0.508330460157768,0.757854695971627
-0.616262122863789,0.638544417779082
-0.539641475518565,0.751596302597961
-0.554181559320396,0.746410061064115
-0.567871447043019,0.739856337591676
-0.488898192689848,0.832404369419504
-0.592421300417584,0.722734784693181
-0.603161874522427,0.712241686242194
-0.612815209880482,0.700529409193039
-0.621345628017319,0.687663053663117
-0.740894006916617,0.580769087992507
-0.634949524703681,0.658775666008807
-0.640007490350815,0.642928970059728
-0.545739738202618,0.719964063918347
-0.646685169323141,0.608915384339156
-0.542648831686752,0.689574696339867
-0.648983458331151,0.572511204148315
-0.554310241863484,0.658349366934507
-0.647310096155125,0.53459444234377
-0.645159116591497,0.515344977053871
-0.642245115179176,0.496045472187594
-0.638663940264324,0.4767997758643
-0.634519059763512,0.457707030838938
-0.629920481647776,0.438860613190669
-0.624983585963747,0.420347156692126
-0.619827881399254,0.402245673897713
-0.614575700382953,0.384626783725155
-0.609350847526768,0.367552053927284
-0.604277216865796,0.351073465377788
-0.599477393814558,0.335233003543994
-0.595071258034828,0.320062380910683
-0.59117460349491,0.305582892471694
-0.486027440871984,0.398486855500029
-0.58534445530347,0.278730477069807
-0.583610263457136,0.266348612424931
-0.674115357102153,0.135971491173648
-0.582935353766622,0.243578175878669
-0.492617511942953,0.330269431556934
-0.586437774155397,0.223234185757314
-0.589880497027092,0.213855958755847
-0.594491788059537,0.204931550993564
-0.600285330482508,0.196397665349695
-0.607260855215714,0.188186783140858
-0.615404017209104,0.180228217029072
-0.624686427903726,0.172449192998032
-0.635065844223981,0.164775947082625
-0.646486512701679,0.15713482242425
-0.658879665533274,0.149453352294047
-0.672164163605485,0.141661314976393
-0.581917116085674,0.231662267347855
-0.701025614345413,0.125481900462079
-0.716386132104305,0.116974135645848
-0.73220731092128,0.108116731663089
-0.748360388015473,0.0988646106425411
-0.764710690912596,0.0891799627868859
-0.781119038075502,0.0790327656135971
-0.797443193657785,0.0684011907513751
-0.693727205461078,0.157851910741985
-0.829263692172163,0.0456401803623804
-0.844473814589002,0.0335100567131334
-0.750512793871333,0.119517541334199
-0.872798282646502,0.00781349983237915
-0.88564861086939,-0.00570273605892215
-0.897459490664284,-0.0196177376870711
-0.908117636399952,-0.033887551243842
-0.81802379147314,0.059377051764917
-0.925572338979027,-0.0632840822317856
-0.932195236198483,-0.0782934588845107
-0.937319898125893,-0.0934246696811041
-0.940891384555491,-0.10860941611769
-0.942868664574781,-0.123777288461771
-0.943225025115648,-0.138856793511506
-0.941948323065483,-0.153776402197589
-0.82627513963819,-0.0494431864924786
-0.934520407199893,-0.182855946886631
-0.928417796724174,-0.19688207012517
-0.920778723568504,-0.210482680441715
-1.01199509963153,-0.338392248818281
-0.901139703663726,-0.236188108951639
-0.889295149289865,-0.24819880681991
-0.771713919881478,-0.141583087096881
-0.862028410415841,-0.270355178283724
-0.846824371244346,-0.280452769318841
-0.830732072918051,-0.289879195082765
-0.813878770159342,-0.298632829565688
-0.79639655518653,-0.306721426181242
-0.778420924706294,-0.314162154137515
-0.760089318644021,-0.32098150769802
-0.741539647285379,-0.327215088498528
-0.722908823572024,-0.332907262712967
-0.70433131716769,-0.338110696472418
-0.685937746589959,-0.342885774515524
-0.667853525192042,-0.347299908566606
-0.650197576084392,-0.351426743380427
-0.633081130216587,-0.355345269741703
-0.729319888761771,-0.450798383156071
-0.60086668611875,-0.3628942024018
-0.585943291273165,-0.366700252962822
-0.571906978320286,-0.370647041424006
-0.558816252276311,-0.374824522263443
-0.546717109178146,-0.379321379201088
-0.535642710524212,-0.384223833446959
-0.525613206726252,-0.389614465633723
-0.516635710433631,-0.395571066364588
-0.508704418825143,-0.402165530058516
-0.501800882215564,-0.409462806343104
-0.495894414615736,-0.41751992263583
-0.609862099333441,-0.53972808392218
-0.48689216835566,-0.436096909606553
-0.483679387501581,-0.446683674380893
-0.37216458263435,-0.359541938910601
-0.385684782268382,-0.356438169069562
-0.478297398153876,-0.483810862712868
-0.477628412561164,-0.497956855811237
-0.477360488748185,-0.512949111108181
-0.477390597016582,-0.528746608286022
-0.477613377637374,-0.545296801675409
-0.477922431660578,-0.562536003927203
-0.478211606785281,-0.580389907219939
-0.370927402198946,-0.480570107947777
-0.478314502078767,-0.617595532328529
-0.477928348990557,-0.63675204287484
-0.477124867122252,-0.656134736076426
-0.475817198677032,-0.675628400437107
-0.576708902105206,-0.811513237679903
-0.471377872346644,-0.714464108644861
-0.468110947360303,-0.733555882479784
-0.464070671174661,-0.752260768020294
-0.459212728646317,-0.770451717887493
-0.453502933913871,-0.788003425627334
-0.446917473538282,-0.804793720880328
-0.439443016293646,-0.820704943278665
-0.431076689574021,-0.835625278956845
-0.421825924040864,-0.849450043911113
-0.411708169766523,-0.862082898980784
-0.400750488711995,-0.873436981945014
-0.388989029892607,-0.883435943123632
-0.376468395014785,-0.892014871930161
-0.363240903693282,-0.899121103036966
-0.349365768565167,-0.90471489216247
-0.334908191689779,-0.908769952962999
-0.319938394550023,-0.911273848089748
-0.304530594738569,-0.912228229136192
-0.288761943013827,-0.911648921933413
-0.173965387812892,-0.811583082073987
-0.256458810756269,-0.906022834197233
-0.240083460049031,-0.901077156413134
-0.104559284712189,-0.793005243443203
-0.207273938541206,-0.887271149075192
-0.095990810796118,-0.765005981001503
-0.174870863799385,-0.868852262276496
-0.158987054745105,-0.85817981247961
-0.1433920185766,-0.846692276889537
-0.128135157788103,-0.834518925206664
-0.00816997067674663,-0.712295399847986
-0.0987961213464989,-0.808658744271325
-0.0847739339506341,-0.795253049977676
-0.0712092581530528,-0.781720844650202
-0.173286173778474,-0.887325254973544
-0.0454784505213984,-0.754847164854068
-0.0333037271817785,-0.741784944650639
-0.0215696662098906,-0.72915175733407
-0.010251335379766,-0.717074757721131
0.000683741322043319,-0.705673620886706
0.0112750188740528,-0.69505927484587
0.0215682674476962,-0.685332728888361
0.0316148186693399,-0.676584010703312
0.0414707320748547,-0.668891224186913
0.051195892960219,-0.662319738442387
0.0608530537339229,-0.656921516976536
0.07050683162531,-0.652734594487906
0.080222676187744,-0.649782706947271
0.0900658204493177,-0.648075078911615
0.100100229801409,-0.647606370208814
0.110387562773476,-0.648356782303075
0.120986157720414,-0.65029232282234
0.0169030299951643,-0.763159071024446
0.143328096922455,-0.657514516374237
0.15516303097481,-0.66266673162633
0.167490773281295,-0.668736758327029
0.180339697968261,-0.675628808447072
0.19373004926869,-0.683237502595306
0.318042890027035,-0.590768819417519
0.222172558626409,-0.700142544868999
0.237220757966134,-0.709191261055365
0.252802084235272,-0.718464101837303
0.15581477140691,-0.830602690452981
0.285453497143317,-0.73714447018054
0.302445401254048,-0.746280917071086
0.429871449539669,-0.651827391672575
0.337501030513083,-0.763477303427771
0.35543655542797,-0.771279117949601
0.373546611867683,-0.778386408532631
0.391750566181301,-0.784684764104724
0.409962716944957,-0.790067838978729
0.428093284701812,-0.794438431721068
0.446049469502937,-0.797709452850416
0.463736563418203,-0.799804771036356
0.48105910440711,-0.800659928937976
0.497922057326436,-0.800222721391365
0.514232007412393,-0.798453630303705
0.529898351315965,-0.795326112320352
0.544834470694873,-0.790826737079363
0.558958873475852,-0.784955175634422
0.572196288195852,-0.777724040390852
0.58447869730744,-0.769158579639304
