-0.965733589070749,-0.917950320293812
-0.958205082925978,-0.90361082257555
-0.950679996645151,-0.889441399074703
-0.943158750593741,-0.875440284458719
-0.935641765608994,-0.861605743628115
-0.928129462957488,-0.847936070886781
-0.920622264293107,-0.834429589136709
-0.91312059161545,-0.821084649096329
-0.905624867228632,-0.807899628541651
-0.89813551370049,-0.794872931569465
-0.890652953822172,-0.782002987881865
-0.883177610568096,-0.769288252091397
-0.875709907056277,-0.756727203046144
-0.868250266509004,-0.744318343174114
-0.860799112213868,-0.732060197846295
-0.853356867485116,-0.719951314757771
-0.845923955625345,-0.707990263326328
-0.838500799887508,-0.696175634107983
-0.831087823437233,-0.684506038228906
-0.823685449315444,-0.6729801068332
-0.81629410040129,-0.661596490546061
-0.808914199375354,-0.650353858951819
-0.801546168683147,-0.639250900086396
-0.794190430498892,-0.628286319943754
-0.786847406689565,-0.617458841995865
-0.779517518779217,-0.606767206725825
-0.772201187913545,-0.596210171173678
-0.76489883482473,-0.585786508494588
-0.757610879796523,-0.575495007528966
-0.750337742629579,-0.5653344723842
-0.743079842607029,-0.555303722027641
-0.735837598460299,-0.545401589890503
-0.728611428335158,-0.535626923482354
-0.721401749758,-0.52597858401589
-0.71420897960235,-0.51645544604168
-0.707033534055595,-0.507056397092594
-0.699875828585942,-0.497780337337639
-0.692736277909579,-0.488626179244905
-0.68561529595807,-0.479592847253394
-0.678513295845944,-0.470679277453442
-0.671430689838504,-0.461884417275506
-0.664367889319837,-0.453207225187079
-0.657325304761034,-0.444646670397486
-0.650303345688609,-0.436201732570359
-0.643302420653113,-0.427871401543556
-0.636322937197955,-0.41965467705633
-0.629365301828414,-0.411550568483537
-0.622429919980847,-0.40355809457669
-0.615517195992085,-0.395676283211669
-0.608627533069028,-0.387904171142907
-0.601761333258424,-0.380240803763872
-0.594918997416835,-0.372685234873672
-0.588100925180797,-0.365236526449615
-0.581307514937158,-0.357893748425574
-0.574539163793602,-0.350655978475987
-0.567796267549362,-0.343522301805345
-0.56107922066611,-0.336491810943028
-0.554388416239029,-0.32956360554334
-0.547724245968069,-0.322736792190604
-0.541087100129378,-0.316010484209191
-0.534477367546921,-0.30938380147835
-0.527895435564265,-0.302855870251708
-0.521341690016555,-0.296425822981326
-0.514816515202661,-0.290092798146192
-0.508320293857499,-0.283855940085031
-0.501853407124538,-0.27771439883333
-0.495416234528477,-0.271667329964456
-0.489009153948096,-0.26571389443478
-0.482632541589292,-0.259853258432693
-0.476286771958279,-0.254084593231418
-0.469972217834974,-0.248407075045525
-0.463689250246554,-0.242819884891054
-0.457438238441182,-0.237322208449158
-0.451219549861921,-0.231913235933172
-0.445033550120815,-0.226592161959032
-0.438880602973142,-0.221358185418955
-0.432761070291855,-0.216210509358301
-0.426675312042182,-0.21114834085554
-0.420623686256417,-0.206170890905249
-0.414606549008875,-0.201277374304059
-0.408624254391027,-0.196467009539488
-0.402677154486816,-0.191739018681589
-0.39676559934814,-0.187092627277341
-0.390889936970517,-0.182527064247716
-0.385050513268929,-0.178041561787369
-0.379247672053834,-0.173635355266874
-0.373481755007367,-0.169307683137456
-0.367753101659711,-0.165057786838155
-0.362062049365648,-0.160884910705364
-0.356408933281289,-0.156788301884687
-0.350794086340981,-0.152767210245065
-0.345217839234399,-0.148820888295113
-0.339680520383808,-0.144948591101609
-0.334182455921516,-0.141149576210109
-0.328723969667498,-0.137423103567608
-0.323305383107211,-0.133768435447223
-0.317927015369579,-0.130184836374839
-0.312589183205168,-0.12667157305768
-0.307292200964544,-0.123227914314751
-0.302036380576811,-0.119853131009121
-0.296822031528331,-0.116546495981995
-0.291649460841632,-0.113307283988537
-0.286518973054501,-0.110134771635406
-0.281430870199257,-0.107028237319964
-0.276385451782218,-0.103986961171117
-0.271383014763343,-0.101010224991756
-0.266423853536075,-0.0980973122027598
-0.261508259907356,-0.0952475077885197
-0.256636523077848,-0.0924600982439607
-0.251808929622322,-0.0897343715230196
-0.247025763470256,-0.0870696169885467
-0.242287305886607,-0.0844651253636033
-0.237593835452788,-0.0819201886841195
-0.232945628047819,-0.079434100252886
-0.228342956829686,-0.077006154594844
-0.223786092216885,-0.0746356474136514
-0.219275301870152,-0.0723218755494912
-0.214810850674404,-0.0700641369380967
-0.210393000720853,-0.0678617305709656
-0.206022011289335,-0.0657139564567366
-0.201698138830815,-0.0636201155837036
-0.197421636950103,-0.061579509883439
-0.19319275638876,-0.0595914421955047
-0.189011745008201,-0.0576552162332244
-0.184878847772993,-0.0557701365504943
-0.18079430673436,-0.0539355085096074
-0.176758361013879,-0.0521506382500714
-0.172771246787374,-0.0504148326583947
-0.168833197269021,-0.0487273993388206
-0.164944442695637,-0.0470876465849879
-0.16110521031119,-0.0454948833524966
-0.157315724351488,-0.0439484192323582
-0.153576206029093,-0.0424475644253108
-0.14988687351842,-0.040991629716979
-0.146247941941049,-0.0395799264538588
-0.14265962335124,-0.0382117665201095
-0.139122126721647,-0.0368864623151335
-0.135635657929244,-0.0356033267319252
-0.132200419741451,-0.0343616731361722
-0.128816611802473,-0.0331608153460901
-0.125484430619836,-0.0320000676129744
-0.122204069551138,-0.0308787446024526
-0.118975718791005,-0.0297961613764194
-0.115799565358255,-0.0287516333756386
-0.112675793083269,-0.0277444764029964
-0.109604582595576,-0.0267740066073898
-0.106586111311643,-0.0258395404682347
-0.103620553422877,-0.0249403947805781
-0.100708079883836,-0.0240758866408007
-0.0978488584006547,-0.0232453334328932
-0.0950430534196765,-0.022448052815294
-0.0922908261163023,-0.0216833627082721
-0.0895923343840487,-0.0209505812818425
-0.0869477328238198,-0.0202490269442
-0.0843571727333922,-0.0195780183306573
-0.0818208020971136,-0.0189368742930746
-0.0793387655758156,-0.0183249138897672
-0.0769112044969402,-0.0177414563758784
-0.0745382568448817,-0.017185821194205
-0.0722200572515438,-0.0166573279664612
-0.0699567369871117,-0.0161552964849719
-0.0677484239510403,-0.015679046704779
-0.0655952426632583,-0.0152278987361517
-0.0634973142555896,-0.0148011728374872
-0.0614547564633903,-0.0143981894085912
-0.0594676836174042,-0.014018268984325
-0.0575362066358344,-0.0136607322286093
-0.0556604330166334,-0.013324899928772
-0.0538404668300113,-0.0130100929902303
-0.0520764087111618,-0.0127156324314937
-0.0503683558532066,-0.0124408393794794
-0.0487164020003592,-0.012185035065128
-0.0471206374413073,-0.011947540819308
-0.0455811490028142,-0.0117276780690004
-0.0440980200435398,-0.0115247683337512
-0.0426713304480817,-0.0113381332223817
-0.0413011566212349,-0.0111670944299475
-0.0399875714824728,-0.0110109737349335
-0.0387306444606474,-0.010869092996678
-0.0375304414889102,-0.0107407741530123
-0.0363870249998533,-0.0106253392181087
-0.0353004539208714,-0.0105221102805253
-0.034270783669744,-0.0104304095014387
-0.0332980661504384,-0.0103495591130542
-0.0323823497491342,-0.0102788814171839
-0.0315236793304678,-0.0102176987839834
-0.0307220962339986,-0.0101653336508375
-0.0299776382708956,-0.0101211085213847
-0.0292903397208461,-0.0100843459646719
-0.028660231329184,-0.0100543686144296
-0.0280873403042406,-0.0100304991684574
-0.027571690314916,-0.0100120603881121
-0.0271133014884714,-0.00999837509788759
-0.0267121904085424,-0.009988766185078
-0.0263683701133744,-0.00998255659951464
-0.0260818500942773,-0.00997906935336775
-0.0258526362943027,-0.00997762752100359
-0.0256807311071407,-0.00997755423888793
-0.0255661333762387,-0.00997817270552662
-0.0255088383941394,-0.00997880618143432
-0.0255088379020407,-0.00997877798912203
-0.0255661200895753,-0.00997741151309447
-0.0256806695948105,-0.00997403019984827
-0.0258524675044682,-0.00996795755786159
-0.0260814913543652,-0.00995851715756637
-0.0263677151300728,-0.00994503263129393
-0.0267111092677958,-0.00992682767318485
-0.0271116406554716,-0.009903226039054
-0.0275692726340874,-0.00987355154620159
-0.028083964999217,-0.009837128073161
-0.0286556740027759,-0.00979327955937447
-0.0292843523549949,-0.00974133000478689
-0.0299699492266112,-0.00968060346934932
-0.030712410251278,-0.00961042407242199
-0.0315116775281914,-0.00953011599206831
-0.0323676896249336,-0.00943900346423009
-0.033280381580534,-0.00933641078177466
-0.0342496849087459,-0.0092216622934048
-0.0352755276015398,-0.00909408240242131
-0.0363578341328118,-0.00895299556532957
-0.0374965254623076,-0.00879772629027989
-0.0386915190397614,-0.00862759913533221
-0.0399427288092493,-0.00844193870653551
-0.0412500652137559,-0.00824006965581206
-0.0426134351999556,-0.00802131667863695
-0.0440327422232063,-0.00778500451150242
-0.0455078862527552,-0.00753045792915786
-0.0470387637771578,-0.00725700174161457
-0.0486252678099076,-0.00696396079090567
-0.0502672878952769,-0.00665065994759082
-0.0519647101143685,-0.00631642410699528
-0.0537174170913766,-0.00596057818517315
-0.0555252880000581,-0.00558244711458391
-0.0573881985704112,-0.00518135583947192
-0.0593060210955635,-0.0047566293109382
-0.0612786244388668,-0.00430759248169326
-0.0633058740411992,-0.00383357030048034
-0.0653876319284728,-0.00333388770615808
-0.0675237567193478,-0.00280786962143075
-0.0697141036331509,-0.00225484094621564
-0.071958524497998,-0.00167412655063518
-0.0742568677591203,-0.00106505126762296
-0.0766089784873935,-0.000426939885131187
-0.0790146983880682,0.000240882862071941
-0.0814738658097025,0.000939092301026784
-0.0839863157532944,0.00166836382964208
-0.0865518798816138,0.00242937292620098
-0.0891703865287338,0.00322279515932693
-0.0918416607097596,0.00404930619842215
-0.0945655241307548,0.00490958182459078
-0.0973417951988641,0.00580429794206104
-0.100170289032631,0.00673413059011906
-0.103050817472511,0.00769975595556783
-0.105983189091576,0.00870185038572566
-0.108967209206417,0.00974109040197746
-0.112002679888231,0.0108181527138937
-0.115089399974103,0.0119337142339308
-0.11822716507848,0.0130884520927287
-0.12141576760483,0.0142830436550188
-0.124654996757489,0.0155181665361597
-0.127944638553698,0.0167944986193143
-0.131284475835822,0.0181127180732851
-0.134674288283756,0.0194735033710231
-0.138113852427518,0.0208775333088271
-0.141602941660012,0.0223254870262495
-0.145141326249994,0.0238180440267262
-0.148728773355191,0.0253558841989466
-0.152365047035629,0.0269396878389828
-0.156049908267111,0.0285701356731947
-0.159783114954893,0.03024790888193
-0.163564421947525,0.0319736891240363
-0.167393581050867,0.0337481585622066
-0.171270341042285,0.0355719998891753
-0.175194447685008,0.037445896354786
-0.179165643742667,0.0393705317939488
-0.183183668993996,0.0413465906555121
-0.187248260247704,0.0433747580320646
-0.191359151357512,0.0454557196906927
-0.195516073237358,0.0475901621047132
-0.199718753876763,0.0497787724864047
-0.203966918356365,0.0520222388207596
-0.208260288863605,0.0543212499002811
-0.212598584708582,0.0566764953608465
-0.216981522340064,0.0590886657186655
-0.221408815361651,0.0615584524083535
-0.2258801745481,0.0640865478221484
-0.2303953078618,0.0666736453502964
-0.2349539204694,0.0693204394226317
-0.239555714758591,0.0720276255513806
-0.244200390355032,0.0747959003752126
-0.248887644139426,0.0776259617045739
-0.253617170264747,0.0805185085683254
-0.2583886601736,0.08347424126172
-0.263201802615737,0.0864938613957464
-0.268056283665704,0.0895780719478742
-0.272951786740632,0.0927275773142278
-0.277887992618166,0.0959430833632257
-0.282864579454528,0.0992252974907171
-0.287881222802714,0.10257492867665
-0.292937595630824,0.105992687543306
-0.298033368340526,0.109479286415139
-0.303168208785639,0.113035439380253
-0.308341782290858,0.116661862353561
-0.313553751670586,0.120359273141653
-0.318803777247902,0.124128391509431
-0.324091516873645,0.127969939248536
-0.329416625945621,0.131884640247612
-0.334778757427917,0.135873220564458
-0.340177561870342,0.139936408500104
-0.345612687427973,0.14407493467486
-0.351083779880815,0.148289532106379
-0.356590482653569,0.152580936289794
-0.362132436835505,0.156949885279963
-0.367709281200441,0.161397119775883
-0.373320652226823,0.165923383207319
-0.378966184117905,0.170529421823705
-0.384645508822027,0.175215984785366
-0.390358256052986,0.179983824257123
-0.396104053310506,0.184833695504339
-0.401882525900786,0.189766356991449
-0.407693296957149,0.194782570483066
-0.413535987460771,0.19988310114769
-0.41941021626149,0.205068717664113
-0.425315600098699,0.210340192330563
-0.431251753622317,0.215698301176679
-0.437218289413833,0.221143824078356
-0.443214818007423,0.226677544875568
-0.449240947911139,0.232300251493208
-0.45529628562816,0.238012736065047
-0.461380435678114,0.24381579506087
-0.467493000618453,0.24971022941689
-0.473633581065894,0.255696844669501
-0.47980177571791,0.261776451092473
-0.485997181374278,0.267949863837669
-0.492219392958672,0.274217903079364
-0.498468003540302,0.280581394162286
-0.504742604355603,0.287041167753444
-0.511042784829955,0.293598059997862
-0.517368132599443,0.300252912678313
-0.523718233532655,0.307006573379155
-0.530092671752499,0.313859895654389
-0.536491029658057,0.32081373920003
-0.542912887946456,0.327868970030922
-0.549357825634758,0.335026460662115
-0.555825420081871,0.342287090294908
-0.562315247010462,0.349651745007709
-0.568826880528887,0.357121317951817
-0.575359893153121,0.364696709552277
-0.581913855828687,0.372378827713938
-0.588488337952586,0.380168588032857
-0.595082907395209,0.38806691401319
-0.60169713052225,0.39607473728974
-0.608330572216591,0.404192997856288
-0.614982795900168,0.4124226442999
-0.621653363555817,0.420764634041353
-0.628341835749086,0.429219933581858
-0.635047771650009,0.437789518756268
-0.641770729054844,0.446474374992939
-0.648510264407766,0.455275497580439
-0.655265932822511,0.464193891941308
-0.662037288103958,0.473230573913054
-0.668823882769664,0.482386570036615
-0.675625268071321,0.491662917852485
-0.682440994016144,0.501060666204732
-0.68927060938819,0.510580875553151
-0.696113661769586,0.520224618293769
-0.702969697561672,0.52999297908796
-0.709838262006045,0.539887055200441
-0.71671889920551,0.54990795684637
-0.723611152144917,0.560056807547875
-0.730514562711883,0.570334744500242
-0.737428671717399,0.580742918948101
-0.744353018916303,0.591282496571877
-0.751287143027622,0.601954657884844
-0.758230581754771,0.612760598641095
-0.7651828718056,0.623701530254764
-0.772143548912286,0.634778680230856
-0.779112147851052,0.645993292608034
-0.786088202461726,0.657346628413754
-0.793071245667106,0.668839966132115
-0.800060809492133,0.680474602184843
-0.807056425082874,0.692251851425817
-0.814057622725287,0.704173047649568
-0.821063931863768,0.716239544114209
-0.828074881119474,0.728452714079237
-0.835089998308401,0.740813951358725
-0.842108810459218,0.753324670890367
-0.849130843830836,0.76598630932092
-0.856155623929712,0.778800325608569
-0.863182675526862,0.79176820164278
-0.870211522674587,0.804891442882219
-0.87724168872289,0.818171579011339
-0.884272696335569,0.831610164616263
-0.891304067505985,0.845208779880616
-0.898335323572478,0.858969031301971
-0.905365985233424,0.872892552429627
-0.912395572561922,0.886981004624442
-0.919423605020083,0.90123607784147
-0.926449601472924,0.915659491436209
-0.933473080201832,0.930252994995275
