0.704122014712979,-0.701693760020141
0.584991861262015,-0.806048410097865
0.584063920321728,-0.804898187583665
0.582563587187383,-0.802947964456495
0.580530721885978,-0.800173571098921
0.578006790049913,-0.796553576834378
0.575034690167093,-0.792069382971573
0.675710624260768,-0.664387861948687
0.563876082340513,-0.773289737131958
0.559562614913816,-0.765222023650705
0.555030569811479,-0.756242059187948
0.550327554437735,-0.746349548792267
0.54059939077191,-0.723841494671035
0.53566921665871,-0.711241125916273
0.530757629948691,-0.697758519355771
0.525910826920026,-0.68340901962984
0.521174143131638,-0.668210993826449
0.615458195132176,-0.551754698897876
0.51220705847117,-0.635357553193303
0.508061370742566,-0.617753357269442
0.504194880352715,-0.599402889540127
0.500645921704791,-0.580338451927052
0.611289527749045,-0.444369929317614
0.401726202190294,-0.639814036460034
0.492258191886077,-0.519220683694314
0.490322508616012,-0.497670908191798
0.488864659365577,-0.475603101944007
0.487909503215011,-0.453062321912051
0.487479234239976,-0.430095205903984
0.487593288918123,-0.406749798198228
0.48826826464081,-0.38307536965901
0.489517849654259,-0.359122233054635
0.493780716650574,-0.310585160428558
0.496806364134988,-0.286105344875054
0.402720608787825,-0.376072716608328
0.390326034308721,-0.340391268825985
0.509469967625283,-0.212451168283743
0.514871508920239,-0.188003038900524
0.617745908540804,-0.0268056693813789
0.534468116383099,-0.115690473977484
0.542075698236436,-0.0920968940918933
0.550186172803617,-0.0688391382745783
0.558774533893652,-0.0459634498924145
0.567813154541131,-0.0235144498162186
0.577271894987948,-0.00153497087358471
0.587118220811884,0.01993410058257
0.690839010867831,0.152743543148275
0.607832293597179,0.0611881038021711
0.618624193975909,0.0809023092025425
0.629652285834762,0.0999649118783214
0.652245880222809,0.136021749690155
0.66372222090782,0.152966085327804
0.67525678291898,0.169159194072741
0.686802209648356,0.184583379911905
0.590543691992665,0.0828529846468444
0.709732544271859,0.213069339229703
0.72101962935711,0.226110988995978
0.732122323246067,0.238343525222174
0.742991327301399,0.249764690360681
0.75357754197678,0.260375356452862
0.763832263047747,0.270179510220741
0.773707376454703,0.279184225829598
0.783155550984796,0.287399625432347
0.792130428028012,0.294838827655008
0.800586807654318,0.301517884230426
0.808480830273274,0.307455705034378
0.815770153154995,0.312673971824188
0.822414121111686,0.31719704102481
0.828373930662094,0.321051835950718
0.838096053332394,0.326876413548219
0.841791391427436,0.328911768279397
0.846701205773488,0.331408044723359
0.847863638374407,0.331946298925192
0.848134269964205,0.332065559823137
0.845926817508624,0.331218187947161
0.843419492778118,0.330339926537784
0.839962011066882,0.329219042962109
0.835547428988868,0.327901708856465
0.830171944864807,0.326434544595689
0.823834919085641,0.324864424115756
0.927400452150902,0.415024016295791
0.808289529958294,0.321602901315516
0.788969379307327,0.31848975414137
0.753160846031643,0.314891059522739
0.623792636887131,0.204561802412296
0.608995650234091,0.214257218812049
0.709678941047568,0.313603842925959
0.796327686365294,0.425527422181272
0.676810039229622,0.31455179484673
0.65931450004855,0.315672811522021
0.641162817760443,0.317267014724221
0.622396029760488,0.319362856728771
0.603057069405237,0.321986308335343
0.583190603535861,0.325160747357307
0.542061468652408,0.333242538170372
0.499394052923635,0.34373982321279
0.477608568166362,0.349922650055941
0.455590120083645,0.356737392526565
0.433390481291875,0.36418707484009
0.411061674233032,0.37227163914237
0.280198482401821,0.286895020105639
0.366224709688157,0.390329741843136
0.321492905018788,0.410849636891103
0.277271360936294,0.433720779396036
0.3551953786157,0.536461345267554
0.191900091778893,0.485842210038623
0.171459902062257,0.500042683519573
0.151463895513819,0.514646587009167
0.131950111532089,0.529617546498572
0.0945100027864299,0.560504742727265
0.0766480053127834,0.576338287033365
0.0593966507149484,0.592373820585997
0.0427815249943336,0.608565978040794
-0.0169047489305265,0.673951934866883
-0.147242594280682,0.594779358665939
-0.0424781442277489,0.706327142290587
-0.0541674768484869,0.722259690156483
-0.0651220973396846,0.737954876422783
-0.0753435412204517,0.753362451762342
-0.084836435472788,0.768432597754247
-0.0936084689887407,0.783116121680355
-0.101670350830265,0.79736464901679
-0.109035756470134,0.81113081285757
-0.115721262229916,0.824368439519663
-0.121746268177883,0.837032729593841
-0.127132909795458,0.849080433723749
-0.139722878293758,0.881118306561269
-0.142828436238484,0.890303973805328
-0.145443508649729,0.898685756651646
-0.151747802196122,0.923600613927809
-0.152486433494708,0.92755656513656
-0.153383982094799,0.933690676575649
-0.153394738730087,0.933788688487331
-0.153338164454413,0.932903443862978
-0.0472767640733626,1.04724370813753
-0.153229714384442,0.924352007482027
-0.153368303440348,0.919553414682902
-0.154180464700427,0.907097790062786
-0.15494228944544,0.899472754252702
-0.155998323653029,0.89094253396266
-0.259578378547081,0.768670285726621
-0.163964467861087,0.848277692540245
-0.170704216738819,0.822248174915418
-0.179622504205094,0.793471746856758
-0.184965428736233,0.778155460490443
-0.190928057967277,0.762278488884292
-0.19752989491085,0.745886324551923
-0.204787626643916,0.729025826091584
-0.212715047489928,0.711745036831643
-0.230619290222617,0.676119563760685
-0.160560751909552,0.752345356420823
-0.363095428473738,0.511099158749656
-0.274737093728976,0.602026346887921
-0.287484895800509,0.58320841878593
-0.329693964975037,0.526856827741753
-0.360963654936381,0.489864172611176
-0.394521026151439,0.453768510173986
-0.520200255533744,0.31386596807045
-0.467521122346442,0.385633163575586
-0.486787431880387,0.369668166065364
-0.546366487041842,0.324862393803231
-0.628236683236164,0.273262856842539
-0.6488129128939,0.261941066454286
-0.669331234511846,0.251274460660482
-0.730023598904232,0.223256580478729
-0.749795267107629,0.215246076829774
-0.769252337276811,0.20789299940693
-0.902159317430388,0.0951550896809602
-0.825238792222771,0.189675856391265
-0.860096721537718,0.180579044280299
-0.876649017147566,0.176884090319334
-0.922297401403888,0.168898187253011
-0.930032197351584,0.164202774929704
-0.958041360230647,0.191543117397743
-1.00137122337165,0.170712143950792
-1.0221386006261,0.158747659966535
-1.01372323698918,0.153888751280808
-1.03245192583887,0.166764556383616
-0.908857958878882,0.228177141224431
-1.02152495031075,0.169025980574507
-1.03420712752176,0.189848079251632
-0.90235339304913,0.27198478251541
-0.875640758790987,0.244974223199972
-0.974521807830082,0.164309513318029
-0.965546950386506,0.135796964300289
-0.884729764310594,0.0799900460134403
-0.767327432960774,0.144163397848811
-0.839500777171576,0.0395798674201742
-0.819980890228155,0.0176327011572342
-0.75432902236345,-0.054179091187032
-0.740406217668161,-0.0722487398759396
-0.679526588109558,-0.153256209448664
-0.650487431665552,-0.186931770107458
-0.659302163055672,-0.235399442938626
-0.618461972993615,-0.269551161727533
-0.622136372974016,-0.311262117008081
-0.600436987703389,-0.347484981712211
-0.589699050610172,-0.391551877536482
-0.563179343635544,-0.446429705722035
-0.536096234112585,-0.482611283727459
-0.55276785286512,-0.493067286429527
-0.548480262918611,-0.516087675251356
-0.640565735250537,-0.653881694681888
-0.649254979082044,-0.699883766723412
-0.537248544594452,-0.60498734233738
-0.650834675190404,-0.756683535275534
-0.534590806516101,-0.666955902507876
-0.534684349242207,-0.686471771325645
-0.535220735908989,-0.705347607065739
-0.424634223852315,-0.608616975721875
-0.537493074717173,-0.741025797796165
-0.543362331254073,-0.788845356543571
-0.63999641641858,-0.91193147263184
-0.548455016236117,-0.816586347277856
-0.554092138291281,-0.840802220726834
-0.562773968739868,-0.870244414806711
-0.565541518775912,-0.878185884257712
-0.570604034338808,-0.891241436777551
-0.686595199441922,-1.01981022300703
-0.576315111695517,-0.903816536349913
-0.578524356501028,-0.907993868000304
-0.57782956120236,-0.906917658619923
-0.565023474632192,-0.890210048979147
-0.560376749129256,-0.884844723649
-0.554973036503959,-0.878894903898254
-0.541812405911496,-0.865411948977269
-0.401332504047777,-0.731525284922054
-0.441580166500249,-0.78775153132374
-0.393299253242063,-0.75972239677553
-0.338196267605225,-0.732746089301341
-0.233259891101165,-0.69320971209816
-0.0916277272784582,-0.659947287474337
-0.0172915826374669,-0.650605356746919
0.131490113801867,-0.647765384177493
0.203122742702113,-0.654036271323142
0.313849840260248,-0.6743086976783
0.618116481594485,-0.63412561167081
0.5797833517481,-0.800823250048018
