0.629145498509713,-0.476866220636096
0.613636847869303,-0.438967957084361
0.617283488133658,-0.456548107373032
0.616301980253656,-0.455929314517689
0.626302505212488,-0.466323463706948
0.633179132538072,-0.410365851185174
0.57859993512907,-0.503163429017191
0.624119578112997,-0.464231312958001
0.600484098603372,-0.466749103016496
0.579069095452652,-0.454301850548099
0.598936842895319,-0.444083517237573
0.584559475794208,-0.442988355057969
0.590771350260978,-0.438137350309127
0.58618624112062,-0.434716152461307
0.581275516895775,-0.430991477453292
0.57604641747866,-0.426960101856193
0.569311797070424,-0.430161394832048
0.572810218363223,-0.416600252107133
0.559640482401403,-0.417759904247289
0.517352159696646,-0.379120018317714
0.524303832687902,-0.418933304899045
0.534477098757843,-0.393599826065624
0.531177705637182,-0.389939432382267
0.50922118196711,-0.385260284356259
0.557221633684368,-0.371959055039275
0.474605733599503,-0.358136763378275
0.522365875197643,-0.385208983050265
0.507813717290494,-0.355286656701618
0.475922506247693,-0.342909868366975
0.473904451558992,-0.337174881562824
0.464889107555165,-0.328347660751651
0.4556935625101,-0.319201095024139
0.448356541598271,-0.310947213349172
0.436800225420354,-0.299957332977092
0.427121737442984,-0.289864610273442
0.417301637272489,-0.279461489071773
0.388639772038169,-0.274965387899912
0.407993410932395,-0.252797360472543
0.394157285432008,-0.266867628523976
0.376799984244396,-0.234809717852541
0.378002391029366,-0.200665031147119
0.384162817383708,-0.223743762023836
0.356214969743253,-0.191074785434822
0.354763515892092,-0.203345272929291
0.293412822635218,-0.190019268285829
0.280720507846456,-0.124843360545616
0.287902289919578,-0.130639928251417
0.291954561999474,-0.131809456227459
0.283981122799263,-0.113710149208384
0.252491553372308,-0.0700781154466072
0.259604291428548,-0.0889260721513382
0.212125570229939,-0.0579781271490266
0.232528358596825,-0.0586384268657135
0.227349625789792,-0.0440015198237396
0.221566421220555,-0.036289703265225
0.199222336596718,-0.0638905399591218
0.195425982679053,0.00275363302902787
0.192011378492457,-0.0354340858279192
0.176339062183103,0.030150136357587
0.164056903739237,0.0511098060178012
0.157856730200979,0.0531257910694088
0.128485670221429,0.0604171054153786
0.137010617068498,0.0527359339903747
0.126238895718604,0.12287405987224
0.110319123233247,0.12698286701289
0.0928064160352771,0.150665859771587
0.0929767009723966,0.202523326966228
0.0823723471977671,0.184759655761222
0.0906746564345393,0.220401407429592
0.063656524372038,0.219773202817264
0.044437794834446,0.256087393448304
0.0333126756993241,0.243918904223612
0.0691988093725612,0.28840863943421
0.0216623399738113,0.305523730066808
0.0223010327663618,0.307758155234823
0.0383851296075103,0.318699258744265
0.0106392876415725,0.375386893414101
-0.0240323630197731,0.330186766178475
0.00468274580021908,0.363278940959032
-0.00488988357231366,0.405030330797594
-0.0245031127711738,0.411976699306431
-0.0057253943800304,0.420702549200086
-0.0385993114166834,0.446221891872601
-0.0598214943305032,0.445191774352099
-0.0642727261861968,0.473104562094348
-0.0582691128395847,0.496808899737677
-0.0665571269265379,0.511587648785101
-0.0197680380224788,0.51487839242276
-0.0761375718159878,0.546183607525546
-0.0926943021514573,0.563010439465086
-0.087040682822227,0.578275310899735
-0.116174174694722,0.597007225025217
-0.0883551126948385,0.645477663768097
-0.0923657893190195,0.617444807494807
-0.101508819433007,0.640945233872142
-0.111465439616172,0.669272001229918
-0.105987151729123,0.643980988831234
-0.118894146625566,0.684011003461818
-0.10828394742824,0.737978453644334
-0.1262373843061,0.711989522090911
-0.129626690415846,0.725555980184139
-0.13283155325801,0.738827635145287
-0.132101980330766,0.746321614998969
-0.165147278396538,0.789375096850317
-0.141371939137509,0.776780180056316
-0.14387265264147,0.788780064385939
-0.146206883463789,0.800439937977326
-0.141648217002468,0.80910664173362
-0.150297004461215,0.797158809137189
-0.133968198591135,0.829031344532518
-0.143325565429178,0.827795475331679
-0.133970023708295,0.839821688615849
-0.156969218875266,0.862807499544219
-0.132976019799083,0.884402481217738
-0.159441470604637,0.880526560707475
-0.142771200666993,0.894073822300755
-0.161429548330628,0.896621644485979
-0.154807520897308,0.914462492731338
-0.157487870064059,0.870347476326872
-0.172482546816472,0.915207601463717
-0.164147185821204,0.923759049061863
-0.182756744435106,0.954683426955443
-0.132657163597884,0.952644221429475
-0.165286678462739,0.939539636027767
-0.166813181448834,0.95300651948954
-0.167073095506014,0.956655385945809
-0.165686389515799,0.942654738200472
-0.165955680753586,0.954290768467042
-0.146614006098322,0.950529084248065
-0.156911838329461,0.936018638954276
-0.165840788621251,0.976621470129053
-0.167243643060525,0.965473388621071
-0.133616782447297,0.926202970021494
-0.157708690909758,0.942590925848609
-0.166065771234801,0.962402623837258
-0.152799797823756,0.935130183895947
-0.166132641330832,0.960547125506473
-0.1766877862022,0.957729752082747
-0.177848636016136,0.95796924679187
-0.181175618006315,0.954677911285439
-0.166691972358284,0.951301495063888
-0.175743900458472,0.933308246275862
-0.185269071026479,0.941756255114996
-0.167708834024324,0.939585576773888
-0.168198809055339,0.934784318462802
-0.182647629137753,0.951881834100632
-0.182197857609898,0.9462667243214
-0.170216210065096,0.917744399901624
-0.183924273639913,0.934257014931924
-0.182878901100658,0.858730989600657
-0.165080807080404,0.921092019901209
-0.182509728025673,0.885659641053518
-0.175787621259103,0.880836596268027
-0.189071498922418,0.854464858199754
-0.187082650774463,0.897190940843182
-0.180719418344611,0.853832400142173
-0.183667840802323,0.844368061490297
-0.185019779718893,0.804774250165773
-0.184540464725286,0.797980266622403
-0.199252936985007,0.838173527683966
-0.191063756180142,0.828612937495987
-0.170121797863145,0.781545924083119
-0.231611015345734,0.780166431451899
-0.196475935938364,0.767686923333638
-0.204238543954682,0.753092045932155
-0.203089998986072,0.742072533605144
-0.172267720080448,0.730435548575316
-0.215711878852827,0.708178420756262
-0.228788556455612,0.706813937860287
-0.217414371978723,0.687102171132174
-0.259625159626949,0.681049066052783
-0.252339965286184,0.597413345497858
-0.238325749718828,0.61262057999892
-0.2429949509575,0.627629496766477
-0.231547731563706,0.632107097131776
-0.253854869736481,0.597106481269593
-0.255313126290709,0.595780322647336
-0.26577038156582,0.552706047051481
-0.274231006506547,0.592733545083804
-0.279675651166668,0.547258865555732
-0.284654963354092,0.51759409250134
-0.291437836218455,0.501231384112388
-0.320253796792783,0.489363897486429
-0.305617928078795,0.468136244329557
-0.306599592005987,0.444996347533823
-0.320605378515902,0.43462427567635
-0.350635990651564,0.418345046430963
-0.336382143519769,0.400787100046561
-0.350318572630389,0.365541696972881
-0.352925727401712,0.366716345990391
-0.374681511758702,0.378488467022836
-0.364617657258217,0.330725275831816
-0.360731525590578,0.302579105959576
-0.390059299417482,0.2850715153407
-0.422335605376578,0.312580658923729
-0.397881501337222,0.269592928968138
-0.416439763675274,0.246941056852632
-0.448966245750707,0.237031709942219
-0.428102487498341,0.194888951463152
-0.430344431772275,0.206531545552564
-0.449765443045032,0.204346254233991
-0.49730722284535,0.124214025092865
-0.512735554221425,0.126355268083892
-0.487408710377396,0.129232219897108
-0.512364166108112,0.128451979116978
-0.493541748469066,0.10772296495223
-0.514120808533846,0.0766722898115578
-0.536156485704645,0.0481783650043617
-0.541496343053233,0.0484071483712226
-0.542920680810447,0.0412433033748463
-0.56368510670402,0.0171516058052107
-0.57486603661664,0.00178988612169048
-0.614558500703837,-0.00839827125325413
-0.597358750887393,-0.0283593708395401
-0.573412188681684,-0.0610987682213406
-0.632401126382154,-0.0341458315981776
-0.604318027935614,-0.0467724113474395
-0.626758269653722,-0.0906249315801052
-0.656484825379467,-0.126612418193818
-0.632496899544899,-0.115811733236801
-0.639847971612633,-0.152242870106756
-0.688182044568535,-0.151566531421129
-0.69896584894308,-0.153056153044262
-0.652619577783839,-0.128269477625322
-0.721187190632514,-0.178009206938217
-0.732191266934286,-0.190075343588275
-0.723223523482116,-0.194410097234895
-0.733090858137152,-0.214870796881319
-0.764659099673606,-0.22457624687168
-0.775267317770452,-0.2354968950918
-0.793400629757148,-0.308148618989856
-0.803989054980986,-0.234696819269685
-0.783907180528991,-0.277327907732824
-0.817849774942882,-0.278369120510033
-0.801428573656063,-0.285676708353095
-0.835974059834414,-0.294702183702072
-0.836538584349702,-0.339815007345618
-0.845035298714086,-0.332081251256474
-0.864040117111086,-0.323206519239539
-0.872925898666458,-0.327989547331148
-0.906710221720739,-0.347954707577171
-0.890116092895027,-0.342748204000228
-0.879248079516685,-0.353065204913101
-0.91224653130575,-0.354449492167092
-0.924514837477821,-0.381292567358314
-0.901046230980729,-0.383291440143421
-0.928752555176001,-0.374148946969925
-0.935665654883644,-0.379494347368795
-0.926488925062415,-0.361474595825248
-0.948610367448871,-0.389263615073454
-0.952888271272319,-0.361431736707082
-0.960326589212701,-0.397819891636919
-0.934457981264317,-0.380047491031402
-0.986741069786409,-0.434972199438707
-0.974119649375359,-0.386089670666598
-1.00670923238232,-0.420786563762895
-1.0003584224786,-0.398450847094402
-0.987510353950512,-0.416458609826661
-0.990807810073919,-0.418579796698716
-0.975109767575666,-0.406060388817969
-0.996290227618987,-0.42201792272316
-0.998464132076853,-0.423344952982111
-0.99095534883564,-0.433755402941155
-1.01829971240274,-0.407338949163935
-1.00265598203938,-0.425822901646461
-1.03109021577178,-0.429800489992582
-0.985711500064053,-0.396624703339273
-0.988298520819014,-0.450443843470346
-1.01063343358448,-0.430287373061899
-1.00161991146166,-0.425299353598238
-1.0001775561216,-0.424554141380551
-1.01020463465191,-0.451916166789298
-0.999189704593959,-0.464309206518934
-0.971463101878632,-0.428399987159545
-0.966176057484211,-0.43146667160489
-0.973968986462003,-0.405578437860214
-0.982678581409827,-0.41618360214577
-0.978275582226788,-0.414207303814306
-0.962275705713913,-0.367638806543187
-0.968190904659716,-0.409824939483474
-0.976472155337034,-0.436579735995729
-0.95640405598167,-0.4049216199222
-0.934861385379375,-0.385776309400354
-0.942923004216492,-0.399560559919335
-0.933375691694242,-0.419041349386688
-0.920496716534333,-0.400331909728496
-0.926647742391488,-0.378619374995374
-0.910936954666498,-0.387720645596248
-0.894094979566558,-0.383942876861928
-0.897933160893503,-0.404609429450216
-0.896591672590625,-0.380885247485427
-0.866137954809723,-0.352181598732111
-0.81543393926156,-0.383011618308967
-0.864956342005235,-0.344351586349637
-0.839356374806556,-0.364746708403331
-0.810505852864132,-0.375460088955754
-0.842523499583013,-0.382529901061711
-0.795752477064753,-0.340663625451438
-0.790026322904941,-0.351193220216825
-0.787107274101255,-0.332457481623141
-0.776063686603386,-0.329667488798854
-0.757393496857523,-0.327505004992554
-0.744164075523153,-0.375398471538861
-0.712941841902316,-0.321064108069226
-0.720267741098064,-0.358532598604855
-0.69037372547044,-0.328444339129713
-0.67487363279181,-0.32540525195848
-0.637097579585064,-0.338126746320386
-0.667548864200263,-0.29267800175312
-0.654137274641169,-0.330754222760546
-0.610056217935945,-0.314026629052567
-0.593194365767715,-0.31140491089319
-0.621086261857638,-0.321195423825153
-0.541174648450827,-0.332641555280668
-0.559839235217891,-0.338020431663158
-0.563829432485955,-0.292992193795287
-0.505436935888585,-0.299891714787673
-0.487269080889306,-0.297940156401779
-0.456424933551944,-0.308555046010049
-0.45780933395313,-0.304881619998953
-0.410966772639313,-0.289206817010154
-0.412907263369211,-0.291435724287911
-0.393950827816174,-0.290151521628873
-0.346536571016547,-0.303352762013534
-0.355679732245967,-0.288012966672277
-0.337423365143123,-0.264614488521443
-0.290703762765153,-0.304800301334179
-0.267298071294581,-0.2694522744117
-0.303276201216648,-0.276628694988216
-0.258465366540468,-0.285268645969785
-0.238855122783545,-0.285177354014826
-0.195950695079901,-0.306770248720852
-0.194028693573559,-0.267381483379226
-0.143677425318226,-0.269809524256115
-0.14405116136119,-0.290407735412821
-0.0930453449884687,-0.304616459720513
-0.104950193390796,-0.292569576889588
-0.0721627005416353,-0.294803395238452
-0.0820052142194041,-0.29000042800711
-0.0625851698313142,-0.29128800199237
-0.0432466883604744,-0.292723178078471
-0.020562135470843,-0.291905108478272
-0.00486192801752058,-0.296027718110489
0.0141608071026537,-0.297892128097922
0.059780996488943,-0.285244943980723
0.041192580987072,-0.252666215912759
0.0568100403607523,-0.310109544966542
0.0888509081329089,-0.306694438841349
0.118808833621058,-0.313629705559027
0.150330867679632,-0.303550834446257
0.143082444168054,-0.314607379520448
0.131879369775597,-0.372579544520938
0.190485914736598,-0.281591407922131
0.238063699720514,-0.320011794130972
0.185556857276113,-0.308956741518213
0.217224015855925,-0.321531040438284
0.245698898399144,-0.333289052517837
0.2299032858769,-0.341045443826192
0.277877689741298,-0.340209268854761
0.298750892581186,-0.356766968488588
0.336571375161732,-0.357363383375788
0.323990264807895,-0.351076785171133
0.338751932640736,-0.354803447421827
0.353195426146319,-0.358570989946659
0.356840913951531,-0.401454752517476
0.371520057902143,-0.379883202196961
0.398362988870919,-0.362537052339201
0.423741096490401,-0.362960525802618
0.431377578731332,-0.403600717813641
0.432759954160978,-0.38163695774896
0.422238356521121,-0.400958940378041
0.458923625497431,-0.398673991010479
0.482706325050943,-0.352164082179031
0.459918820577407,-0.395685645881753
0.460155749246531,-0.429870239778808
0.499924889497008,-0.413409182017281
0.508867039897163,-0.407948989624002
0.477483544006579,-0.414902390013989
0.520634249688094,-0.37642350691442
0.564162534278252,-0.384910175011652
0.555742769282508,-0.419692901179256
0.561653313404811,-0.445245006529031
0.534652158674907,-0.404337941313803
0.56543227233151,-0.431034981959983
0.567277969800478,-0.460227330010032
0.577863551494114,-0.436650550862508
0.617064980292487,-0.435941334093884
0.562867614287268,-0.45473609090303
0.593361088319859,-0.444016355892537
0.581961672707646,-0.454647811025954
0.568235821533508,-0.44777331714208
0.605076622582626,-0.449925538497376
0.607196935757695,-0.478867496537468
0.626948910643451,-0.454856338462241
0.594710326741782,-0.467373781484991
0.596717402884419,-0.453694405214076
0.628492894897139,-0.473759503875008
0.635379742864574,-0.452812214824873
0.617874195327561,-0.456917062343329
0.61807366385532,-0.457035902660378
