-0.463193494097244,-0.114424750375
-0.398169912514812,-0.152741427472038
-0.433334570343274,-0.176178317515655
-0.44476781362871,-0.16341899973357
-0.444649234428707,-0.162979484244861
-0.444470053508584,-0.162417236269435
-0.467451834855763,-0.169086582449863
-0.438579116831603,-0.116782091837086
-0.466556499066759,-0.119536980352405
-0.442914749366169,-0.158967350464581
-0.448601033276413,-0.130525313582405
-0.441476514129106,-0.156540732113891
-0.440554585551034,-0.155156773276675
-0.439483876649978,-0.153660872112954
-0.476290090984823,-0.170312506071365
-0.436117261419369,-0.166520428545124
-0.478975911908631,-0.190523704548881
-0.42095514420099,-0.135595603616206
-0.423414837801333,-0.101068230513371
-0.399894908451678,-0.183034834568238
-0.379956787676602,-0.153117560165166
-0.412050073870192,-0.0967680860113235
-0.43605797467322,-0.0860283871019675
-0.44991685245121,-0.139042061221648
-0.415388158689332,-0.130201542252388
-0.436420645620476,-0.139540831220926
-0.441674169470554,-0.129905328003339
-0.419955573676588,-0.155904361127474
-0.381764706064634,-0.0859284156982509
-0.438056983992716,-0.133263003893305
-0.385761764187713,-0.109089044405231
-0.376358829310205,-0.0687065382069013
-0.339197774098419,-0.0726122305200851
-0.369312872777586,-0.098686340699721
-0.381870108380896,-0.0593045352475358
-0.318420297827879,-0.101385349579662
-0.395589385110898,-0.0929273618213073
-0.347040514824596,-0.0355282522106201
-0.370694879376738,-0.0671470751324845
-0.374349622820127,-0.0513151384066002
-0.335096730501835,-0.0608360264000239
-0.339058121170767,-0.0213376461411234
-0.290580409615165,-0.0540571442661276
-0.307676699116017,-0.0760673416488578
-0.285505867447049,0.0050707636771611
-0.231024878533708,-0.0568935816217247
-0.206210019690773,-0.0653614088647561
-0.21651405240396,-0.0330149193607019
-0.259406789592883,-0.0540555937595661
-0.227971649954534,-0.0206280585057829
-0.25505452386242,0.0277875574987399
-0.208835587118463,-0.0103860562292113
-0.158145317078394,0.0355096968106483
-0.228173373631057,-0.0141604406670226
-0.177038320211831,-0.029570576992493
-0.145711404922075,-0.0303355970528602
-0.12782092757921,0.0290554672788683
-0.149528829186654,0.0221440994494374
-0.156286950298199,0.0286233673057946
-0.124349914210832,0.0456954746658406
-0.0955763049838897,0.0375309715248529
-0.117126164612254,0.0384057323992573
-0.143743360309837,0.0836379758614318
-0.109671995583422,0.0250240995129774
-0.0697465170739274,0.0690128116741013
-0.0911968687282406,0.0241978746060445
-0.0159152613975669,0.113052351171974
-0.0509111403586877,0.0822451449893467
-0.0860358351710011,0.110898571591855
-0.0166551243952532,0.143228454962738
-0.023146674084304,0.101672510925626
-0.0142115632337586,0.108287977392208
0.00643848511910226,0.110673834951822
0.0247903265911199,0.153151320394518
0.0195689828577298,0.135434401688488
0.0274593791037632,0.142389120120722
0.0892451852520664,0.189572119691657
0.0564386344770555,0.170858949717609
0.0469344753377885,0.184284971561062
0.119181301656881,0.213290182723246
0.124974915407257,0.207104679853164
0.0686277642623505,0.201721691646072
0.129856123897795,0.243580869936918
0.119254413243157,0.235782340636557
0.110155349396526,0.186539442784814
0.107292229361193,0.246252766078413
0.0961457064998916,0.27756490924402
0.0967921033948998,0.224715177492205
0.115682736232407,0.26991039249397
0.124785896077466,0.273168272652449
0.121577962231396,0.302076109460033
0.122095480862917,0.310216235309817
0.122230085494627,0.318391816957036
0.121538599837469,0.30046517705469
0.087344335464234,0.363636881216315
0.164301406438536,0.390705107402869
0.118968522619675,0.351405215490445
0.114467144576327,0.407394592083394
0.125829979423915,0.360764906883906
0.12086834669061,0.355701288681646
0.151226306434901,0.376414132491657
0.0991793871500015,0.41001046844405
0.0949787426203751,0.418428042277302
0.0979054573691121,0.469136934649708
0.0856236006869623,0.43526974318641
0.100826844633399,0.427151404823096
0.0750582644015599,0.452100927988208
0.00811473813347665,0.468245184880782
0.0912564702178641,0.5353388893367
0.0355439968125788,0.47652554389375
-0.00602095351781477,0.529388663739085
0.00531663606400842,0.528051633421296
0.00713197994945458,0.535253655156682
0.0245566137263749,0.591783193271389
-0.0169430431657107,0.559568873990458
0.0240399836608343,0.587724661357771
0.015170662964379,0.56067135930916
-5.01517531040913e-05,0.612527786421821
-0.050690371138788,0.566608629187369
-0.0956217143634642,0.634942845787984
-0.0546134727332619,0.566690877079784
-0.0716172505253982,0.608985480173873
-0.0956162145617857,0.678472224754249
-0.1144789409241,0.658237544898624
-0.155855104436887,0.696326914013135
-0.0962250584165473,0.688931499416772
-0.162268013507704,0.6865139541399
-0.198998427072214,0.672185077926067
-0.249393851750948,0.695995469799658
-0.17266136660734,0.777441530108663
-0.223714742183217,0.737158103415098
-0.226681172307218,0.776268290256962
-0.250309654768258,0.759716331853482
-0.233909921773631,0.746848996799479
-0.229176501499756,0.811629044862903
-0.322816419969841,0.75863792454005
-0.283573042581659,0.837435083429602
-0.293266618422454,0.798714309315305
-0.297617126783938,0.802988128141079
-0.301738189186949,0.807124773782752
-0.312736018166666,0.818703694032557
-0.354112000331388,0.847819228102351
-0.352486230556253,0.85628429188139
-0.326673443235747,0.835197344532092
-0.319719181099118,0.879562424238993
-0.350997028923452,0.850712602674037
-0.335626287620179,0.848155946573244
-0.330445991507881,0.84563494094562
-0.30579136066467,0.874253222077686
-0.327155937320684,0.827865380754362
-0.356295269070874,0.870254374224818
-0.341046577109116,0.859060734206531
-0.342159847239455,0.862642342031055
-0.29792805324041,0.863920355980391
-0.342504689901028,0.864350618249277
-0.342591961688559,0.865003626115063
-0.342638026831978,0.865523867411772
-0.353711449485224,0.846304392620887
-0.332645100884017,0.876256089155231
-0.342648362769632,0.866298718492623
-0.342717541357049,0.865918622065623
-0.372351178489685,0.841776353995361
-0.343171565242438,0.864416789442547
-0.312487170357768,0.870469387293578
-0.344922999067986,0.860730078978162
-0.332808299506423,0.810097818063087
-0.393914412077995,0.891384421917452
-0.321479524764079,0.894988720124558
-0.361734802619324,0.841336287300526
-0.412023435203032,0.839856786528503
-0.399395113799967,0.812197534335659
-0.432495377972728,0.843726742221168
-0.367450810664065,0.855538067019401
-0.4026193830868,0.797662294985875
-0.421173359053044,0.799202770251635
-0.482300660163234,0.829419207873123
-0.415336306371847,0.804289094306755
-0.416434489705162,0.763296992702096
-0.505194631643627,0.774637768790169
-0.484076415875238,0.748110850147467
-0.494594225204414,0.805245055709053
-0.483926454298269,0.755124411239453
-0.518395517768478,0.74488077670798
-0.538475531243883,0.737798428112246
-0.570750375673221,0.736129337798021
-0.629961763204804,0.677173855869921
-0.622998642143586,0.688566436885216
-0.630103925934797,0.663448377750552
-0.596829890773671,0.673965547447367
-0.673055619551808,0.659973626868825
-0.654544667029931,0.626468802750815
-0.715524348122472,0.680738599179863
-0.712588056680697,0.635784045061504
-0.753186255837836,0.663540444373923
-0.7598471170802,0.603935472765994
-0.768868502917852,0.597354709210525
-0.827710777942951,0.572987114655467
-0.810503074310103,0.525840075212815
-0.88593726854208,0.489825380613598
-0.853667288435019,0.520530194474123
-0.870334455574759,0.51137570172279
-0.847533146134542,0.460480340834108
-0.884538285837067,0.465961028569667
-0.861500342931141,0.462132440535878
-0.863279521834538,0.46744174514493
-0.893095426051302,0.459973813571733
-0.885887263816583,0.495765788023985
-0.899432675744716,0.444298330038991
-0.904278504899159,0.428432250394074
-0.926565886466607,0.381173130808588
-0.864806420030186,0.433181850033811
-0.952379502762508,0.390061071496
-0.867298547955039,0.406794734031531
-0.9056641618367,0.346764104515032
-0.951273535840907,0.28165009900366
-0.853228721826722,0.347379564835011
-0.895749270405724,0.313327703195399
-0.884645337022095,0.288107606750017
-0.848475565383244,0.236994570363166
-0.852592441216415,0.220400582615396
-0.881061083501996,0.239911795964838
-0.853027487925226,0.193078281608479
-0.779855909531272,0.165744065797252
-0.820910093764501,0.195886175770865
-0.7985408617081,0.171162254559536
-0.758484581878422,0.127061137379023
-0.797421322955709,0.0883175792626473
-0.739959830432093,0.103141713583148
-0.629384276755169,0.0192024028405127
-0.596196500301995,-0.0152451679084142
-0.625917938025098,-0.0404032794199457
-0.605059878139801,-0.000757902604778316
-0.574565727462659,-0.0258784934957372
-0.541030760263652,-0.0537041003996552
-0.478795170282034,-0.082321514792243
-0.523744540108197,-0.154276178207657
-0.466454586369898,-0.144656832634106
-0.495646916117203,-0.194453022360914
-0.447383729925125,-0.154479146433722
-0.446751749395697,-0.156017293038112
-0.444879098243227,-0.163988368533823
