0.757988980716253,0.104679282680978
0.750311942767055,0.0988140271695855
0.743001721848705,0.0923692712008452
0.735920387423409,0.0855629185333404
0.729016617024263,0.078476048807712
0.722259721327651,0.0711571452610418
0.715628330512909,0.0636399681056589
0.709106284139342,0.0559500477340663
0.702680704354816,0.0481077286792969
0.696340950308819,0.0401298214414627
0.690077992844915,0.0320305903535801
0.683884013464369,0.0238223871420186
0.677752133143098,0.0155160793436361
0.671676221170008,0.00712135230448613
0.665650755791617,-0.00135307066544477
0.659670719768134,-0.00989926329090474
0.65373152025154,-0.0185099697541325
0.647828926090593,-0.0271785056488085
0.641959017925926,-0.0358986791398869
0.636118147869384,-0.0446647272647032
0.630302906497143,-0.053471263788436
0.624510095514269,-0.0623132360193548
0.618736704880341,-0.0711858886717103
0.61297989348919,-0.0800847333434201
0.607236972712876,-0.0890055225187206
0.601505392278106,-0.0979442272556206
0.595782728060082,-0.106897017902517
0.590066671466276,-0.115860247326609
0.584355020149095,-0.124830436241683
0.57864566983736,-0.133804260303429
0.572936607116136,-0.142778538702948
0.567225903015429,-0.151750224038129
0.56151170729282,-0.16071639328131
0.555792243314661,-0.169674239692551
0.550065803456183,-0.178621065552685
0.544330744953583,-0.187554275610416
0.538585486151579,-0.196471371154171
0.532828503098394,-0.205369944632837
0.527058326447203,-0.214247674760635
0.521273538628899,-0.223102322050634
0.515472771265906,-0.231931724729079
0.509654702800876,-0.240733794989179
0.50381805631754,-0.249506515548477
0.497961597533909,-0.258247936478485
0.492084132950501,-0.26695617227925
0.486184508138414,-0.275629399174826
0.480261606153842,-0.284265852608522
0.474314346067248,-0.292863824919274
0.468341681596711,-0.301421663182599
0.462342599836181,-0.309937767201476
0.456316120070358,-0.318410587634089
0.45026129266882,-0.326838624246758
0.444177198052803,-0.335220424281655
0.43806294572871,-0.34355458092992
0.431917673383016,-0.351839731901806
0.425740546033801,-0.360074558086246
0.419530755234572,-0.368257782293051
0.413287518326462,-0.37638816807153
0.407010077735277,-0.384464518599957
0.400697700310173,-0.39248567564081
0.394349676701043,-0.400450518557158
0.387965320771954,-0.408357963386007
0.381543969048219,-0.416206961964779
0.37508498019488,-0.423996501107416
0.368587734524591,-0.431725601826931
0.362051633533044,-0.439393318601465
0.355476099460238,-0.446998738681183
0.34886057487604,-0.454540981433535
0.342204522288604,-0.462019197724635
0.335507423774331,-0.46943256933467
0.328768780628162,-0.476780308405432
0.321988113033094,-0.484061656918206
0.315164959747871,-0.491275886200396
0.308298877811929,-0.498422296459387
0.301389442266695,-0.505500216342252
0.29443624589245,-0.512509002520045
0.287438898959991,-0.519448039295479
0.28039702899642,-0.526316738232911
0.273310280564405,-0.533114537809622
0.266178315054335,-0.539840903087461
0.259000810488817,-0.546495325403989
0.251777461339018,-0.553077322082326
0.244507978352374,-0.559586436158977
0.23719208839125,-0.566022236128939
0.229829534282151,-0.572384315707482
0.222420074675115,-0.578672293608019
0.214963483912956,-0.584885813335539
0.207459551910053,-0.591024542995106
0.199908084040391,-0.597088175115
0.192308901034618,-0.603076426484074
0.184661838885858,-0.608989038002965
0.176966748764092,-0.614825774548824
0.169223496938896,-0.620586424853269
0.161431964710384,-0.626270801393276
0.15359204834819,-0.631878740294789
0.145703659038358,-0.637410101248817
0.137766722838039,-0.642864767439859
0.129781180637875,-0.648242645486483
0.121746988132008,-0.653543665393941
0.11366411579564,-0.658767780518725
0.105532548870103,-0.663914967544972
0.0973522873553971,-0.668985226472682
0.0891233460101908,-0.673978580617718
0.0808457543592813,-0.678895076623589
0.0725195567085268,-0.683734784485042
0.0641448121672849,-0.688497797583508
0.0557215946784061,-0.693184232734489
0.0472499930558445,-0.697794230246976
0.0387301110299669,-0.702327953995026
0.0301620673006599,-0.706785591501661
0.0215459955983459,-0.711167354035264
0.0128820447530454,-0.715473476718684
0.00417037877163337,-0.719704218651284
-0.00458882307653657,-0.723859863044211
-0.0133953661654513,-0.727940717369186
-0.0222490404094889,-0.731947113521143
-0.0311496201514635,-0.735879407995095
-0.040096864041413,-0.739737982077627
-0.0490905149058422,-0.743523242053471
-0.0581302996071169,-0.747235619427627
-0.0672159288926733,-0.750875571163594
-0.0763470972336765,-0.754443579938249
-0.0855234826527345,-0.757940154414032
-0.094744746540237,-0.761365829529095
-0.104010533458852,-0.764721166806156
-0.11332047093568,-0.768006754680857
-0.122674169241521,-0.771223208850486
-0.132071221156652,-0.774371172643989
-0.141511201722502,-0.777451317414293
-0.150993667978507,-0.780464342954013
-0.160518158683413,-0.783410977935746
-0.170084194020212,-0.786291980378205
-0.17969127528385,-0.7891081381396
-0.189338884550726,-0.791860269439742
-0.199026484328994,-0.794549223412518
-0.20875351718852,-0.797175880690478
-0.218519405369305,-0.799741154023458
-0.228323550367039,-0.802245988933315
-0.238165332494377,-0.804691364407038
-0.248044110416362,-0.807078293630682
-0.257959220658306,-0.809407824766829
-0.267909977084276,-0.81168104177847
-0.277895670344164,-0.813899065302537
-0.287915567287127,-0.816063053576553
-0.297968910338972,-0.818174203422242
-0.308054916840831,-0.820233751290296
-0.31817277834621,-0.822242974370905
-0.32832165987319,-0.824203191775133
-0.338500699108248,-0.826115765792731
-0.348709005557783,-0.827982103232556
-0.358945659643033,-0.829803656852438
-0.369209711733577,-0.831581926886055
-0.379500181114114,-0.833318462675225
-0.389816054878593,-0.835014864416967
-0.400156286745095,-0.836672785035764
-0.410519795784081,-0.838293932192683
-0.420905465051747,-0.839880070444412
-0.431312140119189,-0.841433023566899
-0.441738627486927,-0.842954677060095
-0.45218369287297,-0.844446980852489
-0.462646059361051,-0.845911952226539
-0.47312440539382,-0.847351678989033
-0.483617362593703,-0.84876832291373
-0.494123513391592,-0.850164123487558
-0.504641388440661,-0.851541401996297
-0.515169463789135,-0.852902565991061
-0.52570615778173,-0.854250114183422
-0.536249827654645,-0.855586641824674
-0.546798765783109,-0.856914846633988
-0.557351195533475,-0.858237535351301
-0.567905266663326,-0.859557631004277
-0.578459050202664,-0.860878180995025
-0.589010532736556,-0.862202366132445
-0.599557609993823,-0.863533510760847
-0.610098079626873,-0.864875094166445
-0.620629633043177,-0.866230763482039
-0.631149846117936,-0.867604348359233
-0.641656168577858,-0.868999877740018
-0.652145911795004,-0.870421599140156
-0.662616234663204,-0.871874000961732
-0.673064127142037,-0.873361838490493
-0.683486390936568,-0.874890164418171
-0.693879616622974,-0.876464364979587
-0.704240156313101,-0.878090203137406
-0.714564090647581,-0.879773870726672
-0.724847188475171,-0.881522052153706
-0.735084856947854,-0.88334200323627
-0.745272078825837,-0.885241650249614
-0.755403332355639,-0.887229716503726
-0.765472486826167,-0.889315887344659
-0.775472663213337,-0.89151103030927
-0.785396043018414,-0.89382749712393
-0.795233597084961,-0.896279552121655
-0.804974684562468,-0.898884005802557
-0.814606427598799,-0.901661202699668
-0.82411266575326,-0.904636673205492
-0.833472029205188,-0.907844177532358
-0.842653828630965,-0.911332198917348
-0.851606741563689,-0.915181817001102
-0.860192837465565,-0.919610935542204
0.757988980716253,0.104679282680978
0.749402884814378,0.100250164139876
0.740449971881654,0.0964005460561217
0.731268172455877,0.0929125246711324
0.721908809003949,0.0897050203442664
0.712402570849488,0.0867295498384423
0.702770827813156,0.083952352941331
0.69302974033565,0.0813478992604292
0.683192186269102,0.0788958442627043
0.673268806464026,0.0765793774480442
0.663268630076856,0.0743842344834326
0.653199475606328,0.0722980636424997
0.643068222076526,0.0703099973883879
0.632881000198543,0.0684103503750437
0.62264333172586,0.0665903992924803
0.61236023389827,0.064842217865446
0.60203629956379,0.0631585502761796
0.591675759873663,0.0615327121183611
0.581282534187257,0.0599585115569453
0.570860270392726,0.0584301856292672
0.560412377913892,0.0569423481005057
0.549942055045693,0.0554899462789303
0.539452311828547,0.0540682248787915
0.528945989368625,0.052672695498007
0.518425776293866,0.0512991106208132
0.507894222877562,0.049943441305219
0.497353753244512,0.0486018578996213
0.486806675987244,0.0472707132712187
0.476255193453353,0.0459465281337986
0.465701409914014,0.0446259781430505
0.455147338784164,0.0433058824900753
0.444594909033798,0.0419831937727616
0.434045970905334,0.040654988963448
0.423502301032418,0.0393184613221955
0.412965607039823,0.0379709131298346
0.40243753169135,0.0366097491350711
0.39191965664228,0.0352324706263323
0.381413505844392,0.0338366700525036
0.370920548644509,0.0324200261278073
0.360442202611739,0.0309802993653128
0.349979836123659,0.0295153279912628
0.339534770737615,0.028023024198869
0.329108283369877,0.0265013707056725
0.318701608302435,0.0249484175831862
0.30831593903477,0.0233622793314568
0.297952429995783,0.0217411321745381
0.287612198129282,0.0200832115557407
0.277296324364802,0.0183868098139985
0.267005854984265,0.0166502740248287
0.256741802893722,0.0148720039912118
0.246505148808471,0.0130504503713298
0.236296842358936,0.011184112931505
0.226117803123879,0.0092715389139072
0.215968921596899,0.00731132150967873
0.20585106009152,0.0053020984290697
0.19576505358966,0.00324255056101563
0.185711710537816,0.00113140071532636
0.175691813594853,-0.00103258755868929
0.165706120334964,-0.00325061108275609
0.155755363908994,-0.00552382809439711
0.145840253667051,-0.00785335923054364
0.135961475745066,-0.0102402884541885
0.126119693617728,-0.0126856639279109
0.116315548619994,-0.0151904988377682
0.106549660439209,-0.0177557721707478
0.0968226275796822,-0.0203824294487078
0.0871350278014143,-0.0230713834214843
0.0774874185345385,-0.0258235147216265
0.0678803372709011,-0.0286396724830207
0.0583143019341013,-0.0315206749254799
0.048789811229196,-0.0344673099072127
0.0393073449731909,-0.0374803354469332
0.0298673644073404,-0.0405604802172369
0.0204703124922092,-0.0437084440107405
0.0111166141863691,-0.0469248981803694
0.00180667670954063,-0.0502104860550705
-0.00745911020907433,-0.053565823332131
-0.0166803740965768,-0.0569914984471939
-0.025856759515635,-0.0604880729229771
-0.0349879278566382,-0.0640560816976322
-0.0440735571421944,-0.0676960334335989
-0.0531133418434691,-0.0714084108077554
-0.0621069927078982,-0.0751936707835987
-0.0710542365978478,-0.0790522448661315
-0.0799548163398225,-0.0829845393400829
-0.08880849058386,-0.0869909354920397
-0.0976150336727749,-0.0910717898170146
-0.106374235520945,-0.0952274342099418
-0.115085901502357,-0.0994581761425416
-0.123749852347657,-0.103764298825962
-0.132365924049971,-0.108146061359566
-0.140933967779278,-0.1126036988662
-0.149453849805156,-0.11713742261425
-0.157925451427718,-0.121747420126737
-0.166348668916596,-0.126433855277718
-0.174723413457838,-0.131196868376184
-0.183049611108593,-0.136036576237637
-0.191327202759502,-0.140953072243508
-0.199556144104709,-0.145946426388544
-0.207736405619415,-0.151016685316254
-0.215867972544952,-0.156163872342501
-0.223950844881319,-0.161387987467285
-0.231985037387186,-0.166689007374743
-0.23997057958735,-0.172066885421367
-0.247907515787669,-0.177521551612409
-0.255795905097501,-0.183052912566437
-0.263635821459696,-0.18866085146795
-0.271427353688207,-0.194345228007957
-0.279170605513404,-0.200105878312402
-0.28686569563517,-0.205942614858261
-0.294512757783929,-0.211855226377152
-0.302111940789703,-0.217843477746226
-0.309663408659364,-0.223907109866121
-0.317167340662268,-0.230045839525688
-0.324623931424426,-0.236259359253207
-0.332033391031463,-0.242547337153744
-0.339395945140561,-0.248909416732287
-0.346711835101685,-0.255345216702249
-0.35398131808833,-0.2618543307789
-0.361204667238129,-0.268436327457238
-0.368382171803646,-0.275090749773765
-0.375514137313716,-0.281817115051604
-0.382600885745732,-0.288614914628315
-0.389642755709303,-0.295483613565747
-0.396640102641761,-0.30242265034118
-0.403593299016006,-0.309431436518974
-0.41050273456124,-0.316509356401839
-0.417368816497182,-0.32365576666083
-0.424191969782405,-0.33086999594302
-0.430972637377474,-0.338151344455794
-0.437711280523642,-0.345499083526556
-0.444408379037916,-0.352912455136591
-0.451064431625352,-0.360390671427691
-0.457679956209549,-0.367932914180043
-0.464255490282355,-0.375538334259761
-0.470791591273902,-0.383206051034295
-0.477288836944191,-0.39093515175381
-0.48374782579753,-0.398724690896447
-0.490169177521265,-0.406573689475218
-0.496553533450354,-0.414481134304068
-0.502901557059484,-0.422445977220416
-0.509213934484588,-0.430467134261269
-0.515491375075773,-0.438543484789697
-0.521734611983884,-0.446673870568175
-0.527944402783113,-0.45485709477498
-0.534121530132327,-0.46309192095942
-0.540266802478021,-0.471377071931306
-0.546381054802115,-0.479711228579571
-0.552465149418131,-0.488093028614468
-0.558519976819669,-0.496521065227138
-0.564546456585493,-0.50499388565975
-0.570545538346022,-0.513509989678627
-0.576518202816559,-0.522067827941952
-0.582465462903153,-0.530665800252704
-0.588388364887725,-0.539302253686401
-0.594287989699812,-0.547975480581976
-0.60016545428322,-0.556683716382741
-0.606021913066852,-0.565425137312749
-0.611858559550187,-0.574197857872047
-0.617676628015217,-0.582999928132147
-0.62347739537821,-0.591829330810592
-0.629262183196514,-0.600683978100591
-0.635032359847705,-0.609561708228389
-0.64078934290089,-0.618460281707055
-0.646534601702894,-0.627377377250811
-0.652269660205494,-0.636310587308541
-0.657996100063972,-0.645257413168675
-0.663715564042131,-0.654215259579916
-0.66942975976474,-0.663181428823097
-0.675140463865447,-0.672153114158277
-0.680849526586671,-0.681127392557797
-0.686558876898406,-0.690101216619543
-0.692270528215588,-0.699071405534617
-0.697986584809394,-0.708034634958709
-0.703709249027418,-0.716987425605605
-0.709440829462187,-0.725926130342505
-0.715183750238502,-0.734846919517806
-0.720940561629653,-0.743745764189516
-0.72671395226358,-0.752618416841871
-0.732506763246455,-0.76146038907279
-0.738322004618695,-0.770266925596523
-0.744162874675237,-0.779032973721339
-0.750032782839905,-0.787753147212418
-0.755935377000851,-0.796421683107093
-0.761874576517445,-0.805032389570321
-0.767854612540928,-0.813578582195781
-0.773880077919319,-0.822053005165712
-0.779955989892409,-0.830447732204862
-0.786087870213681,-0.838754040003245
-0.792281849594226,-0.846962243214806
-0.79854480705813,-0.855061474302689
-0.804884561104127,-0.863039381540523
-0.811310140888653,-0.870881700595292
-0.817832187262221,-0.878571620966885
-0.824463578076962,-0.886088798122268
-0.831220473773575,-0.893407701668938
-0.83812424417272,-0.900494571394566
-0.845205578598017,-0.907300924062071
-0.852515799516367,-0.913745680030811
-0.860192837465565,-0.919610935542204
