0.689246919909601,-0.638144701760865
0.688856151538977,-0.63773355387722
0.687719689048979,-0.636468738196652
0.685894106331903,-0.634306619369251
0.683439430585634,-0.631208348384091
0.680418758289435,-0.627140116243405
0.676897852367199,-0.622073376596134
0.672944723037155,-0.615985035948126
0.668629194948106,-0.60885761026706
0.664022463287165,-0.600679347008393
0.659196641612259,-0.591444311802832
0.654224304213862,-0.581152439264745
0.649178025844308,-0.56980954760322
0.644129921669237,-0.557427316941708
0.639151190294347,-0.544023231477021
0.634311662701463,-0.529620485832489
0.629679359891317,-0.514247856181884
0.625320061976366,-0.497939536938985
0.621296891396018,-0.480734944020981
0.617669912839049,-0.462678485900976
0.614495752354408,-0.443819303864446
0.611827238012674,-0.424210983075238
0.609713064346799,-0.403911236237588
0.608197482653414,-0.382981561810346
0.607320019075617,-0.361486878887324
0.607115222216026,-0.33949514100214
0.607612441845776,-0.317076931246585
0.608835640082441,-0.294305041207225
0.610803236208597,-0.271254036325226
0.613527986094225,-0.247999810368483
0.617016896971701,-0.224619131772567
0.621271178092955,-0.201189184657348
0.626286227576042,-0.177787107359164
0.632051655524004,-0.154489531333723
0.638551343274119,-0.131372123282633
0.645763538411698,-0.10850913333648
0.653660984960883,-0.0859729520897731
0.662211087946907,-0.0638336792282724
0.671376111311204,-0.042158706417311
0.681113407954058,-0.0210123170313813
0.691375680480304,-0.000455305200871744
0.702111271033314,0.0194553834678711
0.713264478422187,0.0386669872772774
0.724775900577863,0.0571312378542892
0.736582800216885,0.074804641684216
0.748619491447663,0.0916487320226061
0.76081774492425,0.107630289628583
0.773107209037648,0.122721530956294
0.785415844535237,0.136900262642769
0.797670369875616,0.150150001339307
0.809796714559599,0.162460058148293
0.821720477628562,0.17382558714662
0.833367388489315,0.184247597699458
0.84466376721012,0.193732930492453
0.855536981435751,0.202294197435265
0.865915897090311,0.209949685813213
0.875731320074986,0.216723227285307
0.884916426223634,0.222644032544785
0.893407176851781,0.227746492671016
0.901142717323815,0.232069948408037
0.908065756168311,0.235658428803676
0.91412292239188,0.238560360833117
0.919265098776965,0.240828251810482
0.923447729097733,0.242518346560652
0.926631097349763,0.243690261479907
0.928780577262575,0.244406597757164
0.929866850548098,0.244732536156703
0.929866092531847,0.24473541587751
0.928760124015597,0.244484300103017
0.926536528429531,0.244049530937459
0.923188733546826,0.243502276490844
0.918716057253186,0.242914072923128
0.913123717086455,0.242356364289428
0.906422803485884,0.241900043041695
0.898630216915438,0.241614994038193
0.889768569249274,0.241569644890365
0.879866050028926,0.241830525437373
0.868956258419337,0.242461839082023
0.85707800190331,0.243525048648264
0.844275062960043,0.245078479330443
0.830595935171671,0.247176941198558
0.816093530391155,0.249871373602569
0.800824858784075,0.253208513683079
0.784850683724914,0.257230591046316
0.768235153684161,0.261975050499198
0.751045413385086,0.267474304566333
0.733351196637409,0.273755517326283
0.715224403368573,0.280840420910285
0.696738663471177,0.28874516580421
0.677968890166777,0.297480205885079
0.658990825651134,0.307050218908147
0.639880581833781,0.317454062940916
0.62071417901511,0.328684769017618
0.601567085356904,0.340729570063271
0.582513759997265,0.353569965911623
0.563627202638258,0.3671818240176
0.544978512394429,0.381535515243683
0.5266364586329,0.396596083882243
0.508667066461425,0.412323450863699
0.491133219429938,0.4286726488947
0.474094281904428,0.445594088072598
0.457605743450042,0.463033850333667
0.441718887423873,0.480934010913722
0.426480485827837,0.499232984832457
0.411932522309281,0.517865896257655
0.398111945022508,0.536764968463634
0.385050450879332,0.555859931970626
0.372774302522214,0.575078448339091
0.361304179150773,0.59434654699589
0.350655062122597,0.613589072388483
0.340836156033819,0.632730138699203
0.331850845765004,0.651693589304849
0.323696689755005,0.670403458137281
0.316365449540947,0.688784430088956
0.309843155377712,0.706762297613151
0.304110207526732,0.724264410692152
0.299141512582805,0.741220117387746
0.294906653990554,0.757561192246617
0.291370095690216,0.773222249908468
0.28849141762716,0.788141141356316
0.286225581662068,0.802259330355875
0.284523226230287,0.815522247753685
0.283330987920698,0.827879621440729
0.282591847977629,0.839285779939027
0.282245501574861,0.849699927732065
0.282228747569635,0.859086390634953
0.282475896317686,0.867414829685749
0.28291919301832,0.874660422234427
0.28348925396236,0.88080400910909
0.284115512975775,0.885832206949237
0.284726675288613,0.889737485011574
0.285251176012816,0.892518205974022
0.285617640383954,0.89417863048651
0.2857553429109,0.89472888544176
0.285594662584264,0.894184896163983
0.285067531318786,0.892568282936912
0.284107872846794,0.889906222513514
0.282652029338972,0.886231275466611
0.280639173104745,0.881581180451252
0.278011700816964,0.875998616654626
0.274715607813918,0.869530935906358
0.270700840155054,0.862229866109963
0.265921622244682,0.854151187833837
0.260336757989276,0.845354386066454
0.253909903617979,0.835902279294211
0.246609810471501,0.825860628200847
0.238410536250648,0.81529772641353
0.229291623411177,0.804283975831912
0.219238243595208,0.792891449171893
0.208241307199887,0.781193442434982
0.196297537399986,0.769264020076521
0.183409508161399,0.75717755569118
0.16958564600559,0.74500827106186
0.154840195509679,0.732829776428207
0.139193148751538,0.720714614823298
0.122670139132677,0.708733813301814
0.105302300232441,0.69695644384021
0.0871260905637108,0.685449196629431
0.0681830853115678,0.674275968403818
0.0485197363410143,0.663497468356665
0.0281871019564098,0.653170844083801
0.00724054808276193,0.64334932987244
-0.0142605772839342,0.634081919513982
-0.0362532943444547,0.625413065667457
-0.0586713643161881,0.617382407635694
-0.0814456824992853,0.610024529240193
-0.104504689157898,0.603368748294095
-0.12777479567485,0.597438938976817
-0.151180823343477,0.592253388209934
-0.174646452082008,0.587824686923205
-0.198094676294395,0.584159656883324
-0.221448265057173,0.581259313537603
-0.244630223785132,0.579118865101534
-0.267564254519373,0.577727747894567
-0.290175211989853,0.577069697703731
-0.312389552630678,0.577122856731469
-0.334135773770049,0.577859915463465
-0.355344840277618,0.579248288575827
-0.375950596029693,0.581250323789996
-0.395890157646807,0.583823542379534
-0.415104288067946,0.586920909836778
-0.43353774765067,0.590491135020375
-0.451139620625567,0.594478995928195
-0.46786361488617,0.598825690075077
-0.483668333260652,0.603469207302342
-0.498517514588295,0.608344722706948
-0.512380243110781,0.613385007253438
-0.525231124884652,0.618520853522219
-0.537050430125611,0.62368151395383
-0.54782420060637,0.628795148871401
-0.557544321446262,0.633789281502848
-0.566208556851449,0.638591257180906
-0.573820549587864,0.64312870387318
-0.580389784193718,0.64732999118608
-0.585931514163054,0.651124684995916
-0.590466653555008,0.654443994887458
-0.594021633703842,0.657221211624797
-0.596628225921006,0.659392131941028
-0.598323331291169,0.660895468011819
-0.599148738868,0.661673239072764
-0.599150853771249,0.661671142751031
-0.598380396873122,0.66083890380742
-0.596892077937933,0.659130598124922
-0.594744244243478,0.656504949933148
-0.59199850686442,0.652925600423809
-0.58871934693636,0.648361346089666
-0.584973704343251,0.642786345306874
-0.580830551379672,0.636180291877429
-0.576360454032531,0.628528554453057
-0.571635123603419,0.619822280973269
-0.566726961452647,0.610058467467045
-0.561708599688545,0.599239990788377
-0.556652440650696,0.587375605079317
-0.551630198043171,0.574479901978915
-0.546712442563567,0.560573234821019
-0.541968154845735,0.545681607286991
-0.537464288488705,0.529836527199639
-0.533265345881749,0.513074826360562
-0.529432969456215,0.495438447543539
-0.526025550899069,0.476974199960007
-0.52309786075176,0.457733484708045
-0.520700700691636,0.437771991902186
-0.518880580652544,0.417149371356866
-0.517679422787247,0.395928878860126
-0.51713429410796,0.374177000225399
-0.517277169463485,0.351963055446914
-0.518134726323447,0.329358785407441
-0.519728172642948,0.306437923695247
-0.52207310887593,0.283275756179326
-0.525179424993881,0.259948671067822
-0.529051233149548,0.236533702233477
-0.533686836404393,0.213108068631687
-0.539078733714998,0.189748712660849
-0.545213661148897,0.166531840321312
-0.55207266907575,0.143532466018003
-0.559631234856814,0.120823964823048
-0.567859410335609,0.0984776349684437
-0.576722003217018,0.0765622732754457
-0.586178791211966,0.0551437661471454
-0.59618476762177,0.0342846986542758
-0.606690416841348,0.0140439841321533
-0.617642018075041,-0.00552348342045674
-0.628981975383905,-0.0243671519910264
-0.640649172020123,-0.0424411072566415
-0.652579346853616,-0.0597043395131439
-0.664705490558977,-0.0761209801804401
-0.676958259108348,-0.0916605064228983
-0.689266402008554,-0.106297912621312
-0.701557202629387,-0.120013847638333
-0.713756927894926,-0.132794717031226
-0.725791284551726,-0.144632749582985
-0.737585879186854,-0.155526027743969
-0.749066679145464,-0.165478481799817
-0.760160471491966,-0.174499847806173
-0.770795317170874,-0.182605589555272
-0.780900997553117,-0.189816785062263
-0.7904094506007,-0.196159978279061
-0.799255193946853,-0.201666996958887
-0.807375732269821,-0.206374737804471
-0.814711946435706,-0.210324920235544
-0.821208461998648,-0.21356381030572
-0.826813994774484,-0.216141916483808
-0.831481671346013,-0.218113659188914
-0.835169322513257,-0.21953701613133
-0.837839747869675,-0.220473145661091
-0.839460949864125,-0.220985990462347
-0.840006335897404,-0.221141864053472
-0.839454887200144,-0.221009022659338
-0.837791293444667,-0.220657225112835
-0.835006052255599,-0.220157283516839
-0.831095533001509,-0.219580607455095
-0.826062004471082,-0.218998744580423
-0.819913626261066,-0.218482920431067
-0.812664403927975,-0.218103580330808
-0.804334108180062,-0.217929936215478
-0.79494815860875,-0.218029521198019
-0.784537472678436,-0.218467754636197
-0.773138280908743,-0.219307520402042
-0.760791909392711,-0.220608760970202
-0.747544530996788,-0.222428089844397
-0.733446886782426,-0.224818424727467
-0.718553979373574,-0.22782864371198
-0.702924740168107,-0.231503266625674
-0.686621672453255,-0.235882163510111
-0.669710472634319,-0.241000292042774
-0.652259631921541,-0.246887465533459
-0.63434002094099,-0.253568152936337
-0.616024459841115,-0.261061312120635
-0.597387276556379,-0.269380257436801
-0.578503855962757,-0.27853256240244
-0.55945018271623,-0.288519998114683
-0.540302380604496,-0.299338507774254
-0.521136251263693,-0.310978217482655
-0.502026815115754,-0.323423483249152
-0.483047857368261,-0.336652973919791
-0.464271481887193,-0.350639789518075
-0.445767675704147,-0.365351614267466
-0.427603886853669,-0.380750903350922
-0.409844618153659,-0.396795102253604
-0.392551039443008,-0.413436897332947
-0.375780620676172,-0.430624496066758
-0.359586788145124,-0.448301935246029
-0.344018605955778,-0.466409415206007
-0.329120484729415,-0.484883658027626
-0.314931919330934,-0.503658287492866
-0.301487257245828,-0.522664228442729
-0.288815499037832,-0.541830123066271
-0.276940132120363,-0.561082761544178
-0.265878998868412,-0.580347524381322
-0.255644199884716,-0.599548833690329
-0.246242033016169,-0.618610610632619
-0.237672968494872,-0.637456736185178
-0.229931660354346,-0.656011512380692
-0.223006994046605,-0.674200121165648
-0.216882169961469,-0.691949078035719
-0.211534822326951,-0.709186677640078
-0.206937172750331,-0.725843428595946
-0.203056217444812,-0.741852474821539
-0.199853946977921,-0.757150000778982
-0.197287597176241,-0.771675618118466
-0.195309929628002,-0.78537273133006
-0.193869540041602,-0.798188880139619
-0.192911192545518,-0.810076056529284
-0.192376177854274,-0.820990994420208
-0.192202693077234,-0.830895430224498
-0.192326240812854,-0.839756332653793
-0.192680045051495,-0.847546100362332
-0.193195481305729,-0.854242726201609
-0.19380251829886,-0.859829927070515
-0.194430168470794,-0.864297238558024
-0.19500694450566,-0.867640073793511
-0.195461319048309,-0.869859746141559
-0.195722184757001,-0.870963455602043
-0.1957193118375,-0.870964239001117
-0.195383800219378,-0.869880884283012
-0.1946485235685,-0.867737809434957
-0.19344856238025,-0.864564906796567
-0.191721623465669,-0.860397353719513
-0.189408443226997,-0.855275390751669
-0.186453172219536,-0.849244068721145
-0.182803738612669,-0.842352966288198
-0.178412188293646,-0.834655879715998
-0.173234999502409,-0.826210486783217
-0.167233370043592,-0.817077986921643
-0.160373475291668,-0.807322719809218
-0.152626695386249,-0.797011764782336
-0.143969810205402,-0.78621452355005
-0.13438516090449,-0.775002288796164
-0.123860777015243,-0.763447801342646
-0.112390468313111,-0.751624798618531
-0.0999738808793144,-0.739607557232336
-0.0866165170057733,-0.727470432482447
-0.0723297188152427,-0.715287397658867
-0.0571306156937157,-0.703131585990907
-0.0410420358564424,-0.691074838078972
-0.0240923825911355,-0.679187257614521
-0.00631547594078895,-0.667536778140849
0.0122496391972765,-0.656188743538891
0.0315589173714732,-0.645205504837107
0.0515635678896397,-0.634646035843288
0.0722103395687814,-0.624565569979445
0.0934418331607684,-0.615015260569503
0.11519683952255,-0.60604186668408
0.137410701439747,-0.597687466488296
0.160015696866065,-0.589989199867963
0.182941441208158,-0.582979041928124
0.206115306167566,-0.576683608766486
0.229462852548807,-0.571123996724245
0.252908274356038,-0.566315656109345
0.27637485143087,-0.562268300173476
0.299785407830834,-0.558985849905676
0.323062773112555,-0.556466414983354
0.346130243665536,-0.554702310997478
0.368912041242231,-0.553680112843819
0.391333765847367,-0.55338074394801
0.413322840184406,-0.553779600770032
0.434808942909401,-0.554846711815137
0.455724428011709,-0.556546930164281
0.476004727727069,-0.558840158329416
0.495588736490498,-0.561681604038633
0.514419173553941,-0.565022065364415
0.532442922025752,-0.568808243426394
0.549611342235219,-0.572983080729095
0.565880557484269,-0.577486123036207
0.581211710419736,-0.582253902537075
0.595571188441402,-0.587220339929076
0.608930816752995,-0.592317162922277
0.621268017863685,-0.597474338570989
0.632565936555517,-0.602620516751042
0.642813529546169,-0.607683482032542
0.652005619295089,-0.612590611145754
0.660142911623283,-0.617269333203058
0.667231977041118,-0.621647589822781
0.673285195903427,-0.625654292301282
0.678320667735222,-0.629219772997858
0.682362085293335,-0.632276228132898
0.685438574147743,-0.63475814925282
0.687584498779957,-0.636602740685507
0.688839236403269,-0.637750320396739
0.689246919909601,-0.638144701760865
