-0.555137758442234,-0.983064075792225
-0.555032979370059,-0.98307550174365
-0.554926120860697,-0.983087040540714
-0.554817131530142,-0.983098692114043
-0.554705958477191,-0.983110456305578
-0.554592547231422,-0.983122332862444
-0.554476841699155,-0.983134321430459
-0.554358784107289,-0.983146421547257
-0.554238314944932,-0.983158632634991
-0.554115372902727,-0.983170953992614
-0.553989894809774,-0.983183384787686
-0.55386181556803,-0.983195924047702
-0.553731068084091,-0.983208570650896
-0.553597583198229,-0.983221323316497
-0.553461289610559,-0.983234180594398
-0.553322113804213,-0.983247140854212
-0.553179979965386,-0.983260202273665
-0.553034809900099,-0.983273362826297
-0.552886522947549,-0.983286620268418
-0.552735035889871,-0.983299972125285
-0.552580262858154,-0.983313415676436
-0.552422115234543,-0.983326947940149
-0.552260501550235,-0.983340565656947
-0.552095327379181,-0.98335426527212
-0.551926495227297,-0.983368042917165
-0.551753904416963,-0.983381894390117
-0.551577450966596,-0.983395815134667
-0.551397027465056,-0.983409800218006
-0.551212522940642,-0.983423844307318
-0.550633357192669,-0.983466270747958
-0.550431342738052,-0.983480488626554
-0.550224633995813,-0.983494731917727
-0.550013095542252,-0.983508992307287
-0.549796587300915,-0.983523260870446
-0.549574964357703,-0.983537528033805
-0.549348076767646,-0.983551783534957
-0.549115769352971,-0.983566016379558
-0.548877881491982,-0.983580214795689
-0.54863424689832,-0.983594366185336
-0.548384693390107,-0.983608457072792
-0.548129042648444,-0.983622473049782
-0.54786710996475,-0.983636398717083
-0.547598703976332,-0.983650217622413
-0.547323626389608,-0.983663912194327
-0.547041671690335,-0.983677463671857
-0.546152374990846,-0.98371705247823
-0.545840701357342,-0.983729817451926
-0.545521003589514,-0.983742324884535
-0.545193025945659,-0.983754547122615
-0.54485650300906,-0.983766454684236
-0.544511159266323,-0.983778016142128
-0.54415670866504,-0.983789197999062
-0.543792854149634,-0.983799964554885
-0.543419287174214,-0.983810277764658
-0.543035687191181,-0.983820097087217
-0.542641721114247,-0.983829379323505
-0.542237042754468,-0.983838078443926
-0.541821292227792,-0.983846145403921
-0.541394095332528,-0.98385352794692
-0.540503790082164,-0.983866013417467
-0.540039855677565,-0.983870993802652
-0.539072230710666,-0.983878092789984
-0.53856760875585,-0.983880063109576
-0.537514271166383,-0.983880437403891
-0.536964503213949,-0.983878661842023
-0.536398597265261,-0.983875448174104
-0.535815970035475,-0.9838706911083
-0.535216013380271,-0.983864278370059
-0.534598093085603,-0.983856090223662
-0.533961547591883,-0.983845998958903
-0.533305686648748,-0.983833868340149
-0.531933105368476,-0.983802897878266
-0.531214847913942,-0.983783737391038
-0.530474197529555,-0.983761894845694
-0.529710297601233,-0.983737181578156
-0.528922253046653,-0.983709396119744
-0.52810912835391,-0.98367832328488
-0.52726994550988,-0.983643733189292
-0.52640368181165,-0.983605380193027
-0.523631458724097,-0.983465026536594
-0.522645667028081,-0.983408808681708
-0.521626924905656,-0.983347320309601
-0.520573888061816,-0.983280193989941
-0.519485148267411,-0.983207036440073
-0.517194586535069,-0.983040913506741
-0.515989596705316,-0.982947014114704
-0.514742560265877,-0.98284521078106
-0.513451693901592,-0.982734948666843
-0.510730895012314,-0.982486625371033
-0.509296938046282,-0.982347241624517
-0.507811091810663,-0.982196747004866
-0.506271083757588,-0.982034352850911
-0.50467452668626,-0.981859212220942
-0.503018912361558,-0.981670415282648
-0.5013016047599,-0.981466984312426
-0.499519832921418,-0.981247868268903
-0.495751092194698,-0.980757974356715
-0.491687525225708,-0.980190621978719
-0.489536590398457,-0.979874306790731
-0.487301276358787,-0.979534092573048
-0.484977629601314,-0.979168218278891
-0.482561487551323,-0.978774785327691
-0.48004846680809,-0.978351746096457
-0.477433950750442,-0.977896891387281
-0.474713076480349,-0.977407836775769
-0.471880721081686,-0.976882007736193
-0.468931487173254,-0.976316623429335
-0.4658596877378,-0.975708679028307
-0.462659330212269,-0.975054926445977
-0.455847342203871,-0.9735956600576
-0.452222045172558,-0.97278223486782
-0.448440819889082,-0.971907126412078
-0.440379027377778,-0.96995217525922
-0.436081619126388,-0.968861450274636
-0.431594558161326,-0.967687203239033
-0.422012657819987,-0.965060962013568
-0.416897127705148,-0.963593915992163
-0.411550518463702,-0.962013139099503
-0.405961103277049,-0.960309399120292
-0.387609749749779,-0.954355728227176
-0.380919698627397,-0.95205082010164
-0.373918934846944,-0.94956335307561
-0.366591903259428,-0.946878130120521
-0.350893391934739,-0.94084688950672
-0.342487376586682,-0.937463380981663
-0.333686037774288,-0.933806873844031
-0.324470444844884,-0.929854290505832
-0.314821049733249,-0.925580549850329
-0.29413986830485,-0.915958241414183
-0.283066400979265,-0.910547936173043
-0.271475956377051,-0.904692610968439
-0.259346969691123,-0.898354447423225
-0.246657849028473,-0.891492465193444
-0.233387174314764,-0.884062298158612
-0.21951393800149,-0.876015966313353
-0.205017833830698,-0.867301646605705
-0.174081428155261,-0.847641189144015
-0.157607434660431,-0.836570206923616
-0.0847367796859644,-0.782339798987234
-0.0647570611681335,-0.765888071667232
-0.0440845503893063,-0.748098717481085
-0.0227380031671318,-0.72887373247884
-0.000745505920757061,-0.70811112909212
0.0218540466010225,-0.685705579534759
0.0450093480948384,-0.661549291150232
0.0686549642314037,-0.635533154821699
0.0927095236347462,-0.607548210328924
0.117073847484036,-0.577487474089802
0.141629061565093,-0.545248174458919
0.166234749479104,-0.510734436936635
0.190727222703819,-0.473860455409629
0.214918001946454,-0.434554174936369
0.261509908708241,-0.348450984543544
0.354481306521281,-0.0902973816965766
0.382139210381933,0.150569009876982
0.379540206074503,0.212907441686761
0.344104881070614,0.39666412535703
0.32246769231438,0.454686868770241
0.295800934197957,0.509939138285805
0.264168454481204,0.561709356113406
0.227732221811569,0.609299756949022
0.186754122693944,0.652046828580582
0.141593784082788,0.689342007203855
0.0406115310813105,0.745534341447007
-0.014079341939942,0.763656923101616
-0.0707214893101911,0.774804259112283
-0.128635284310218,0.778886168539477
-0.187130575646875,0.775938724993666
-0.465849243740624,0.665053692985154
-0.561205664570747,0.58450266688294
-0.604004622205568,0.538818703965332
-0.643315273987115,0.490367619762784
-0.679054497492982,0.439761276990108
-0.711206029083437,0.387583005695929
-0.739812312865465,0.334378115801352
-0.764965663018095,0.280646945807536
-0.821191333252102,0.120543732286681
-0.83414372430921,0.0686952156317551
-0.844549790488495,0.0180572846840356
-0.852627707338245,-0.031170457336437
-0.858594601396282,-0.0788308387268696
-0.862662699407433,-0.124805049580131
-0.865909715408786,-0.211386183468246
-0.865465383456366,-0.251909430479961
-0.863873221139159,-0.290571209526285
-0.861289951192421,-0.327382969369233
-0.857859013413793,-0.362371298536282
-0.853710744202838,-0.395575004930891
-0.843720660289812,-0.456829707236427
-0.838078464647113,-0.484997787664007
-0.832119629992039,-0.511611808664494
-0.82591772470166,-0.536739181281476
-0.819537265995071,-0.560448528708336
-0.806458290063433,-0.60388814185575
-0.793247596198148,-0.642471865301481
-0.786679824808182,-0.660105389779989
-0.780173198795457,-0.676715914657167
-0.773749368319738,-0.692362345755561
-0.767426259907378,-0.707101017404441
-0.737742051591109,-0.768964486429803
-0.732243188489795,-0.779291892755507
-0.721711337804517,-0.798222994066058
-0.716679616080679,-0.806896623328354
-0.711803372744823,-0.815085387598231
-0.702511124595971,-0.830125713868752
-0.685697081010239,-0.855580343916291
-0.681843858559645,-0.861112304658697
-0.678123542553059,-0.866351188976156
-0.671066323865026,-0.876018966502928
-0.661380773950005,-0.888727052174619
-0.655478886936562,-0.896161113252354
-0.644873607070017,-0.908944459595557
-0.64245141608136,-0.911761804075575
-0.640114195455232,-0.914444539912687
-0.637858775972457,-0.917000152655891
-0.635682088947507,-0.919435663757392
-0.622413037967859,-0.933627083666004
-0.620767671990158,-0.935308145548287
-0.614720730256011,-0.941335729636878
-0.613332637556379,-0.942685739257484
-0.610691926782439,-0.945218979232913
-0.607044601419904,-0.948641645776227
-0.60480433773645,-0.950699536004023
-0.60170323429606,-0.953491572970093
-0.599794160300429,-0.955177206048355
-0.59888368283966,-0.955972094958245
-0.596315955106113,-0.958182006324045
-0.594730936515218,-0.959522351761054
-0.589260323180643,-0.964004452121131
-0.588662339071231,-0.96448044461159
-0.588081289683808,-0.964940250764284
-0.586434115569281,-0.966229024275596
-0.585915278198782,-0.966630407523396
-0.583978049985746,-0.968109334572781
-0.581439711239258,-0.969998554107309
-0.58067954557059,-0.970553217896875
-0.580314079969271,-0.970818012509469
-0.579272581793771,-0.971565837331567
-0.578307674710708,-0.972249525174696
-0.577703583866944,-0.972672974184766
-0.57741259347703,-0.972875668179872
-0.576851637672526,-0.973264025680971
-0.576317354668116,-0.973630954375283
-0.573592531453277,-0.975455300728139
-0.573020899767579,-0.975827561829663
-0.57166939558988,-0.976692269003398
-0.570401078752646,-0.977482928533625
-0.570274217553356,-0.977560845259575
-0.570028105752576,-0.977711378002378
-0.569564613894601,-0.977992583359237
-0.569034500638516,-0.978310438609536
-0.568934531471163,-0.978369916853783
-0.56883646949264,-0.978428114891878
-0.568462416204011,-0.978648765065449
