0.991789305623618,-0.261497034871538
0.993080308523272,-0.246930055335152
0.993208278290971,-0.232261278272732
0.992172376708671,-0.217538692617065
0.989975306791513,-0.202810337485726
0.986623305427182,-0.188124099873772
0.982126122714401,-0.173527513095165
0.976496988078062,-0.159067556789353
0.969752563290326,-0.144790459303115
0.961912882578365,-0.130741503248149
0.95300128004999,-0.116964835022105
0.943044304718147,-0.10350327906486
0.932071623453845,-0.0903981576027715
0.92011591224434,-0.0776891166116911
0.907212736179268,-0.0654139587045525
0.893400418631489,-0.053608483621628
0.878719900141743,-0.0423063369710879
0.863214587556502,-0.031538867834468
0.846930194006488,-0.0213349958161607
0.829914570349163,-0.0117210880782473
0.812217528731804,-0.00272084686202445
0.793890658962539,0.00564479204438617
0.774987138404731,0.0133577494767594
0.75556153613532,0.0204028813336973
0.735669612129995,0.0267680449605951
0.715368112257358,0.032444153203708
0.694714559880385,0.0374252159087319
0.673767044876569,0.0417083686885609
0.652584010897888,0.0452938888358458
0.631224041698391,0.0481851983074404
0.609745647360459,0.0503888537595896
0.588207051250847,0.0519145236645691
0.566665978534387,0.0527749525912376
0.545179447066674,0.0529859127833865
0.523803561477358,0.0525661432206884
0.502593311242656,0.0515372763972178
0.481602373529635,0.0499237531017874
0.460882921575591,0.0477527255324759
0.440485439343669,0.0450539491245507
0.42045854317074,0.041859663516324
0.400848811095593,0.038204463121127
0.381700620524871,0.0341251578153894
0.363055994860904,0.0296606242925927
0.344954459679919,0.0248516486704712
0.327432909011073,0.0197407609741128
0.310525482226576,0.0143720621504224
0.294263452011002,0.00879104429962846
0.278675123833843,0.00304440483700547
0.263785747303689,-0.00282014467734282
0.249617439735246,-0.00875407428105623
0.236189122211945,-0.014708235146129
0.223516468377337,-0.0206330621156045
0.211611866137995,-0.0264787784339049
0.200484392409464,-0.0321956018550579
0.190139800985155,-0.0377339513070299
0.180580523556057,-0.0430446532875862
0.171805683857127,-0.0480791471675814
0.163811124864234,-0.0527896885813437
0.156589448913913,-0.0571295500908309
0.150130070567095,-0.0610532183204853
0.144419281987582,-0.0645165867731525
0.139440330556605,-0.0674771435540086
0.135173508396467,-0.0698941532490902
0.131596253429284,-0.0717288322276701
0.128683261551293,-0.0729445166632754
0.126406609459407,-0.0735068225965034
0.124735887624712,-0.0733837973938488
0.123638342867629,-0.0725460619903758
0.123079029951735,-0.0709669433401376
0.123020971577758,-0.0686225965366035
0.123425326126303,-0.0654921161058567
0.1242515624675,-0.061557636017819
0.125457641128087,-0.0568044180050583
0.127000201081651,-0.0512209278246812
0.128834751405807,-0.0447988991462209
0.130915867031257,-0.0375333847971024
0.13319738779184,-0.0294227951470215
0.135632619972053,-0.0204689234632147
0.138174539539066,-0.0106769581199111
0.140775996240058,-5.54815970535139e-05
0.143389917742738,0.0113835437445513
0.145969512997241,0.0236248030723623
0.148468474001195,0.0366496695842205
0.150841175156571,0.0504362579605119
0.153042869417057,0.0649594905723342
0.155029880437904,0.0801911762012746
0.15675978995663,0.0961001009770081
0.158191619652424,0.112652131190683
0.159286006754544,0.129810327595138
0.160005372695365,0.147535070757616
0.160314084131908,0.165784196986964
0.160178605690495,0.184513144315484
0.159567643822621,0.203675107975862
0.158452281195969,0.223221204776021
0.156806101082607,0.243100645739551
0.154605301246702,0.263260916346626
0.151828796876331,0.283647963680236
0.148458312148001,0.304206389755175
0.144478460058208,0.324879650282731
0.139876810203499,0.345610258102421
0.134643944238884,0.366339990493595
0.128773498793962,0.387010099564277
0.122262195676432,0.407561524902323
0.115109859243721,0.427935107664941
0.107319420874942,0.448071805276758
0.0988969105271483,0.467912905904125
0.089851435411695,0.487400241874038
0.0801951458781881,0.506476401210119
0.0699431886448136,0.525084936465339
0.0591136475646352,0.543170570041716
0.0477274721674452,0.56067939520091
0.035808394265816,0.577559071986497
0.0233828329619087,0.593759017298624
0.0104797884381544,0.609230588384653
-0.00286927504003402,0.623927259035247
-0.0166305564380349,0.637804787803939
-0.0307680550693395,0.650821377599565
-0.0452437169640747,0.662937826034788
-0.060017589899172,0.674117665950264
-0.0750479864657764,0.684327295572579
-0.0902916545171055,0.693536097804809
-0.105703954310223,0.701716548191255
-0.12123904162817,0.708844311142408
-0.136850056144713,0.714898324052309
-0.152489314272732,0.719860868988065
-0.16810850571907,0.723717631680081
-0.183658892953509,0.726457747591491
-0.199091512787621,0.728073834896006
-0.21435737925045,0.72856201424483
-0.229407686942477,0.727921915255173
-0.24419401404705,0.726156669705037
-0.2586685241795,0.723272891471148
-0.272784166258406,0.719280643298921
-0.286494871591046,0.714193390545034
-0.299755747375792,0.708027942084301
-0.312523265838148,0.700804378622835
-0.324755448234197,0.69254596870891
-0.336412042975317,0.68327907278109
-0.347454697151118,0.673033035640083
-0.357847120753546,0.661840067776051
-0.367555242933822,0.649735116026752
-0.376547359655343,0.636755724083541
-0.384794272139615,0.62294188340194
-0.392269415538691,0.608335875110915
-0.398948977306209,0.592982103550063
-0.404812004779908,0.576926922096502
-0.409840501531168,0.560218451973221
-0.41401951208168,0.542906394757796
-0.417337194633347,0.525041839334819
-0.419784881505139,0.506677064056702
-0.421357127019297,0.487865334895955
-0.422051742629109,0.468660700387266
-0.421869819131119,0.44911778416983
-0.420815735855877,0.429291575949255
-0.418897156783083,0.409237221704018
-0.416125013578923,0.389009813963809
-0.412513475605336,0.368664182986216
-0.408079907002812,0.348254689654007
-0.402844810999659,0.327835020907819
-0.396831761651567,0.307457988518457
-0.39006732326528,0.287175331989082
-0.382580957809269,0.267037526360673
-0.374404920662125,0.247093595674058
-0.365574145095908,0.227390932818834
-0.356126115936604,0.207975126473568
-0.34610073288702,0.188889795813012
-0.335540164038751,0.170176433626684
-0.324488690139061,0.151874258459296
-0.312992540215474,0.134020076347154
-0.301099719195522,0.116648152686136
-0.28885982819116,0.0997900947260987
-0.276323878146802,0.0834747451439755
-0.26354409757667,0.0677280871033787
-0.250573735140933,0.0525731611624935
-0.237466857831011,0.0380299943446113
-0.224278145552238,0.0241155416369626
-0.211062682906808,0.0108436401337932
-0.197875748991449,-0.00177502401094509
-0.184772606032617,-0.0137329357071
-0.171808287687068,-0.0250257580655003
-0.159037387837467,-0.0356523265381368
-0.146513850711213,-0.0456146301025873
-0.134290763145907,-0.0549177795836336
-0.122420149816885,-0.0635699632563597
-0.110952772230988,-0.0715823899257584
-0.0999379322763514,-0.078969219727828
-0.0894232811004175,-0.085747482946103
-0.0794546340678192,-0.0919369871853396
-0.0700757925261802,-0.0975602132904835
-0.0613283730814422,-0.102642200443895
-0.0532516450550989,-0.107210420916913
-0.0458823767638162,-0.111294644993047
-0.0392546912275047,-0.114926796619219
-0.0333999318750729,-0.118140800378385
-0.0283465387780164,-0.120972420411393
-0.0241199359008138,-0.123459091947961
-0.0207424298139827,-0.125639746136066
-0.0182331202707674,-0.127554628885622
-0.0166078230019504,-0.12924511446616
-0.0158790050354074,-0.13075351461899
-0.0160557327979231,-0.132122883962151
-0.0171436332066722,-0.133396822481099
-0.019144867906825,-0.134619275909633
-0.0220581207601744,-0.13583433481383
-0.0258785986376972,-0.137086033196843
-0.0305980455167677,-0.138418147444192
-0.0362047698315372,-0.139873996427734
-0.0426836849729939,-0.141496243581724
-0.0500163627836156,-0.143326701756431
-0.0581810998405485,-0.145406141643545
-0.0671529962710577,-0.147774104553271
-0.0769040467948422,-0.150468720305513
-0.0874032436398327,-0.153526530977037
-0.0986166909315363,-0.15698232122302
-0.110507730110986,-0.160868955865044
-0.123037075893133,-0.165217225408482
-0.136162962236208,-0.170055700120483
-0.14984129775336,-0.175410593265447
-0.164025829960905,-0.181305634058264
-0.178668317722948,-0.187761950856666
-0.193718711220096,-0.194797965073053
-0.209125338740536,-0.202429296243271
-0.224835099565208,-0.210668678645141
-0.240793662194964,-0.21952588981333
-0.256945667146896,-0.229007691249519
-0.27323493352924,-0.23911778157803
-0.289604668589682,-0.249856762347222
-0.30599767942045,-0.261222116626363
-0.322356585995394,-0.273208200496439
-0.338624034709271,-0.285806247481704
-0.354742911587828,-0.299004385916976
-0.370656554338848,-0.312787669193819
-0.386308962419237,-0.327138118777162
-0.40164500430134,-0.342034779832705
-0.416610621133084,-0.357453789254879
-0.431153026001047,-0.373368455835424
-0.445220898023223,-0.389749352263873
-0.458764570518993,-0.406564418603761
-0.471736212527439,-0.423779076842271
-0.484090002971739,-0.44135635606651
-0.495782296796671,-0.459257027776866
-0.506771782438223,-0.47743975080709
-0.517019630018813,-0.49586122528204
-0.5264896296985,-0.514476355007549
-0.535148319651675,-0.53323841765284
-0.542965103179942,-0.552099242054368
-0.549912354515023,-0.571009391941115
-0.555965512910396,-0.589918355355254
-0.561103164666832,-0.608774739018894
-0.565307112784833,-0.627526466877385
-0.568562433986012,-0.646120982032431
-0.570857522895509,-0.664505451264248
-0.572184123228362,-0.682626971331039
-0.572537345874235,-0.700432776226462
-0.571915673826737,-0.717870444571267
-0.570320953955615,-0.734888106314195
-0.567758375672158,-0.751434647919319
-0.564236436589935,-0.767459915222404
-0.55976689533442,-0.782914913147513
-0.554364711705795,-0.797752001486927
-0.548047974449183,-0.811925085962472
-0.540837816935453,-0.825389803804476
-0.532758321103459,-0.838103703105715
-0.523836410060837,-0.850026415231874
-0.514101729785184,-0.861119819596967
-0.503586520410371,-0.871348200141914
-0.492325477623712,-0.88067839288684
-0.480355604738621,-0.889079923962493
-0.467716056043964,-0.896525137563447
-0.454447972065614,-0.902989313305188
-0.440594307407337,-0.908450772508709
-0.426199651867205,-0.912890972979655
-0.411310045551996,-0.91629459189423
-0.39597278873538,-0.918649596450743
-0.380236247226124,-0.919947301993769
-0.364149654029891,-0.920182417367136
-0.34776290810244,-0.919353077302154
-0.331126371003079,-0.917460861698547
-0.314290662265078,-0.914510801707075
-0.297306454304313,-0.910511372574874
-0.28022426768873,-0.905474473266588
-0.263094267589283,-0.899415392926536
-0.245966062227745,-0.892352764298959
-0.228888504128346,-0.884308504274831
-0.21190949496852,-0.875307741784449
-0.195075794809185,-0.865378733304927
-0.178432836467069,-0.854552766300575
-0.162024545770597,-0.842864050961748
-0.14589316841695,-0.830349600653912
-0.130079104121124,-0.817049101533257
-0.114620748718324,-0.803004771827945
-0.0995543448488394,-0.788261211324871
-0.0849138418199596,-0.772865241640533
-0.0707307652024296,-0.756865737890987
-0.0570340966797587,-0.740313452409862
-0.0438501646274069,-0.723260831194842
-0.0312025458556916,-0.705761823791767
-0.0191119789053844,-0.687871687351481
-0.00759628923850861,-0.669646785617593
0.00332967338093601,-0.651144383623415
0.0136540850705621,-0.632422438893328
0.0233681853816763,-0.613539389957716
0.0324663020747461,-0.594553943001269
0.040945863024428,-0.575524857471919
0.0488073952119914,-0.556510731481871
0.0560545108147892,-0.537569787833047
0.0626938804541992,-0.518759661496965
0.0687351937149988,-0.500137189373345
0.074191107100193,-0.4817582031429
0.079077179635748,-0.463677326017609
0.0834117963892354,-0.445947774176513
0.0872160802149008,-0.428621163656666
0.0905137920849258,-0.411747323447472
0.0933312204124835,-0.395374115512213
0.0956970598163828,-0.379547262433414
0.0976422798195201,-0.364310183348653
0.0991999840137985,-0.349703838810854
0.100405260262509,-0.33576658517198
0.101295022547215,-0.32253403905161
0.101907845099812,-0.310038952412183
0.102283789491523,-0.298311098720974
0.102464225378982,-0.287377170635274
0.102491645633174,-0.277260689601867
0.102409476599724,-0.267981927715087
0.102261884258762,-0.259557842129467
0.102093577069268,-0.25200202227364
0.101949606296349,-0.245324650061806
0.101875164630271,-0.239532473247943
0.101915383913205,-0.234628792016293
0.102115132793557,-0.230613458849608
0.102518815128334,-0.227482891664447
0.103170169951402,-0.225230100150681
0.104112073819555,-0.223844725200505
0.105386346339153,-0.223313091260817
0.107033559663796,-0.223618271392107
0.109092852737926,-0.224740164767108
0.111601751042731,-0.226655586293657
0.114595992579057,-0.229338367998682
0.11810936079754,-0.232759471764094
0.122173525158745,-0.236887112960929
0.126817889976046,-0.241686894485399
0.132069452161218,-0.24712195065981
0.137952668457568,-0.253153100422778
0.144489332707865,-0.259739009196859
0.151698463664635,-0.26683635878792
0.159596203808634,-0.274400024639254
0.168195729597658,-0.282383259734875
0.177507173522604,-0.290737884420663
0.187537558300797,-0.299414481389082
0.198290743488497,-0.308362595053373
0.209767384745162,-0.317530934520231
0.221964905931859,-0.326867579356354
0.234877484175177,-0.336320187333686
0.24849604797653,-0.345836203330974
0.262808288394852,-0.355363068565212
0.277798683278702,-0.36484842932582
0.293448534471915,-0.374240344386979
0.309736017865261,-0.383487490279309
0.326636246115479,-0.392539363611176
0.344121343802572,-0.401346479642143
0.362160534746703,-0.409860566326531
0.380720241157551,-0.418034753063531
0.399764194241798,-0.425823753411876
0.419253555848687,-0.433184041051544
0.439147050689499,-0.440074018302256
0.459401108624598,-0.446454176538602
0.479970016471313,-0.452287247874234
0.500806078747981,-0.457538347522742
0.521859786733473,-0.462175106280243
0.543079995188361,-0.466167792614412
0.564414106052908,-0.469489423886341
0.585808258409149,-0.472115866275197
0.607207523968903,-0.474025923020871
0.628556107327342,-0.475201410646597
0.649797550202269,-0.475627222871593
0.670874938863038,-0.47529138197302
0.691731113939914,-0.474185077406705
0.712308881794718,-0.472302691547002
0.732551226626892,-0.469641812457601
0.752401522485727,-0.466203233656883
0.771803744359289,-0.461990940893337
0.790702677513725,-0.457012085998388
0.809044124263031,-0.451276947935523
0.826775107358945,-0.4447988812157
0.84384406920354,-0.43759425189936
0.860201066102999,-0.429682361454884
0.875797956800199,-0.421085358791691
0.89058858454582,-0.411828140833332
0.904528951992644,-0.401938242041557
0.91757738822573,-0.391445713346334
0.929694707271526,-0.380382990979006
0.940844357462349,-0.368784755745912
0.950992561068163,-0.356687783317908
0.960108443645662,-0.344130786146877
0.968164152594762,-0.331154247653698
0.975134964454795,-0.317800249362802
0.980999380516747,-0.304112291686506
0.985739210373544,-0.290135109087525
0.989339643077636,-0.275914480370351
0.991789305623618,-0.261497034871538
