0.947028842737969,-0.356804553521495
0.940231556722556,-0.353786600927336
0.920833821897259,-0.343145108331431
0.89078172192651,-0.322845473797311
0.852522332094729,-0.291422953307479
0.713902116261997,-0.350807199190034
0.762713659539804,-0.192777502133995
0.717059114953898,-0.126188985507319
0.674613632934104,-0.0497285403089196
0.637729070093466,0.0345572471037312
0.608231676231372,0.124101448106554
0.58730876620867,0.215967957325611
0.575436422890931,0.307026117928214
0.572352785903189,0.394137822327739
0.577078599645033,0.474345315398435
0.587983707099326,0.545047882014637
0.602895272057282,0.604156301571093
0.61924087486162,0.650215354855624
0.634217422200254,0.682486684659176
0.552264900791843,0.593217030467609
0.648805274041913,0.706477952030838
0.536743287792217,0.594195973304181
0.626606218159516,0.684832766807069
0.597366819340913,0.662238261062188
0.555000274317083,0.635419004066223
0.499654212805082,0.6072753686618
0.536435982345032,0.691421756808063
0.24284700195648,0.449183753221185
0.268123402959146,0.541656603418076
0.176355573214373,0.533038983259956
0.0820253179388332,0.53310046826684
-0.0117052930017208,0.542026086245054
-0.101718404925856,0.559264827888173
-0.185126152950915,0.583564391504243
-0.259441932240825,0.613050911931828
-0.322726392613452,0.645348636398818
-0.281525019340433,0.774439739433945
-0.411808038914434,0.707300383898746
-0.330492106906538,0.841601111612052
-0.566930462763464,0.629668118204668
-0.454550378271123,0.751390673449131
-0.450135055665802,0.743639899163796
-0.558337257269121,0.628898970805162
-0.42775691951909,0.686738568207668
-0.415417248010238,0.637489660284855
-0.40595795292173,0.575557804288623
-0.401766758430802,0.502699728512808
-0.501694038275176,0.321512659752386
-0.428216998833753,0.348445322509081
-0.43687504261951,0.243998799112125
-0.481016251459118,0.169409678069541
-0.530612986749294,0.06033675862323
-0.547255889040955,0.0260686774820994
-0.465289374415117,0.053124741754088
-0.645860557861628,-0.142993140475806
-0.663268225598066,-0.19893730455587
-0.74538965739946,-0.231523909434422
-0.795857537359069,-0.274138635105511
-0.769884094238591,-0.294571215856688
-0.811993992865893,-0.288194700878415
-0.838161204911107,-0.284013274077478
-0.828692765157065,-0.28209448694557
-0.89140437126543,-0.387106099170575
-0.766247706862389,-0.278582693423662
-0.714988260845513,-0.282349173209926
-0.652665074840395,-0.292873942174614
-0.567233666531489,-0.31096792560274
-0.502488658061968,-0.354559839203728
-0.428829441274902,-0.354708438924669
-0.371783182619813,-0.417616992705658
-0.275739829922108,-0.503729454810207
-0.201866408011009,-0.54628810714507
-0.134811303126281,-0.615253535290262
-0.0990324489612614,-0.690589972543552
-0.0449089498120661,-0.7488946948019
0.0912081871743788,-0.696865829737746
-0.024559384546731,-0.870428951670891
-0.0728404846822862,-1.02536326048882
0.0151624276413362,-0.939198893220921
0.0278797939898006,-0.964234335032931
0.027941674213015,-0.968700131321614
0.0291668891916828,-0.958371504325793
0.0342790681590515,-0.933891245253874
0.0457502401129552,-0.896619485854013
0.0656336463815529,-0.848548546364108
0.095423066880261,-0.792178558763885
0.135947586932235,-0.730361713708301
0.187308493102364,-0.666124958113784
0.248862325542826,-0.602482328447202
0.319251198901375,-0.542248756583654
0.396478518007583,-0.48786708950322
0.363648054036618,-0.544738537178651
0.56100012116506,-0.403710757198317
0.642312287184045,-0.375796348241906
0.718858938213456,-0.357350586061858
0.787712696268506,-0.347486066815358
0.846299007085304,-0.344657573979791
0.892551682592127,-0.346768254261683
0.925036896670802,-0.351311053619202
0.943037829899616,-0.355536446289714
