0.773837855679862,-0.473924188008636
0.773761879893822,-0.473848730969849
0.773543159598783,-0.473612525401855
0.773195503740004,-0.473200879758368
0.772732691782415,-0.472599211897737
0.772168439738678,-0.471793085465158
0.771516366418275,-0.470768246018576
0.770789959973734,-0.469510656816692
0.77000254481939,-0.46800653418823
0.769167248997253,-0.466242382402534
0.7876105596004,-0.460620491306685
0.760474076444671,-0.455114100524207
0.766501742197633,-0.459259829398451
0.787372353123218,-0.45278318429163
0.78072880482891,-0.438650284590972
0.74793378095726,-0.44699604652332
0.76302649758627,-0.445554845592684
0.763531651900044,-0.469339062916695
0.725032986527899,-0.442239236166216
0.750965047379872,-0.428790438555116
0.760283899811218,-0.426202463058382
0.745100424810191,-0.419745034574322
0.765734282031173,-0.411311948366158
0.759068021389559,-0.407648204722921
0.736601748029108,-0.416275423870124
0.791060771570989,-0.417342091301269
0.755858119288351,-0.38656954426349
0.758945133361176,-0.377202671378606
0.759362190005619,-0.357100836419374
0.75297042230715,-0.363886502657316
0.76015974859025,-0.349958646511759
0.760831979935646,-0.340028698154696
0.761641153998942,-0.329674695540569
0.768243995681533,-0.308581669624157
0.763673398086066,-0.307700715243693
0.770775340956553,-0.246096916111881
0.791367359618962,-0.305327801654632
0.76369483233984,-0.28033332371407
0.782251887818282,-0.238451766964883
0.754900099638051,-0.229469355484179
0.773013371343459,-0.231906524844013
0.775015277336004,-0.217892567058031
0.777132908874183,-0.203503822543578
0.779360501537505,-0.188749477791563
0.781691667126923,-0.17363944963188
0.784119408270919,-0.158184368809919
0.786636134484648,-0.142395561989847
0.789233679646181,-0.126285032223362
0.791903320850732,-0.109865437926112
0.794635798600626,-0.0931500704072295
0.797421338285788,-0.076152830000715
0.800249672906615,-0.0588882008504853
0.803110066988295,-0.0413712244039062
0.805991341632975,-0.0236174716715253
0.808881900653591,-0.00564301431345064
0.811769757730758,0.0125356053845463
0.814642564531802,0.0309014055796588
0.817487639728856,0.0494369969175284
0.820291998850887,0.068124615484525
0.823042384902688,0.0869461565947461
0.825725299682065,0.105883209337795
0.82832703572495,0.124917091811699
0.830833708806665,0.144028886963794
0.833231290926375,0.163199478961064
0.8355056437006,0.182409590010208
0.837642552090781,0.201639817546741
0.839627758389077,0.220870671711575
0.84144699638602,0.240082613032908
0.843086025643173,0.259256090230768
0.844530665793737,0.278371578061312
0.845766830793934,0.297409615117838
0.846780563048082,0.31635084150562
0.847558067330557,0.335176036307914
0.848085744428264,0.353866154760943
0.848350224427828,0.372402365056354
0.848338399572499,0.390766084690408
0.848037456614716,0.408939016280224
0.847434908591361,0.426903182768543
0.846518625950008,0.444640961939855
0.845276866955906,0.462135120172266
0.843698307311023,0.479368845351157
0.841772068918204,0.49632577887258
0.839487747725392,0.512990046666338
0.8368354405869,0.529346289170886
0.833805771080895,0.545379690194517
0.83038991422455,0.561076004599776
0.826579620030784,0.576421584750653
0.822367235853068,0.591403405664876
0.817745727467457,0.606009088816492
0.812708698843814,0.620226924536912
0.807250410561094,0.634045892965758
0.801365796824581,0.647455683506015
0.795050481046044,0.660446712741373
0.788300789951005,0.673010140777033
0.781113766180546,0.685137885968752
0.773487179358456,0.696822638008525
0.765419535597912,0.708057869338911
0.756910085425349,0.718837844871753
0.747958830102716,0.729157629990815
0.738566526332837,0.739013096821656
0.728734689336232,0.748400928755935
0.718465594291329,0.757318623221214
0.707762276133676,0.765764492691216
0.696628527713384,0.773737663935433
0.68506889631368,0.781238075510868
0.673088678537134,0.788266473502614
0.660693913569677,0.794824405523871
0.647891374836226,0.800914212989854
0.634688560065234,0.806539021683904
0.621093679783057,0.811702730637889
0.607115644262522,0.816409999352725
0.592764048953511,0.820666233388572
0.578049158426742,0.824477568357827
0.562981888865268,0.827850852357621
0.547573789141397,0.830793626881984
0.531837020519941,0.833314106257209
0.515784335031701,0.835421155647232
0.499429052564089,0.837124267679016
0.482785036718636,0.838433537740986
0.465866669487868,0.839359638010507
0.448688824806658,0.839913790269215
0.431266841035694,0.840107737567697
0.413616492437025,0.839953714803565
0.395753959703952,0.83946441827937
0.377695799609575,0.838652974309066
0.359458913840319,0.837532906943836
0.341060517082532,0.836118104890035
0.322518104431941,0.834422787693786
0.303849418197233,0.832461471268394
0.2850724141704,0.830248932842167
0.266205227437645,0.827800175405531
0.247266137805692,0.825130391737402
0.228273534919179,0.822254928091713
0.20924588314551,0.819189247625721
0.190201686304049,0.815948893652268
0.171159452316896,0.812549452798569
0.152137657858644,0.809006518154249
0.13315471308252,0.805335652491397
0.114228926500158,0.801552351639173
0.095378470091866,0.79767200809519
0.0766213447237901,0.793709874955296
0.0579753459476455,0.78968103024269
0.0394580302578539,0.785600341716352
0.0210866818799056,0.78148243223772
0.00287828016256542,0.777341645773233
-0.0151505323547828,0.773192014108958
-0.0329834811298809,0.769047224351882
-0.0506046899923196,0.764920587290684
-0.0679987106389204,0.760825006686856
0.0297537900500098,0.646320912287469
-0.202227692053456,0.637840765473245
-0.227248963353633,0.634877017158598
-0.02532791864297,0.851939677115315
-0.044112170626138,0.636959203800645
-0.0474944191627634,0.842600019576631
-0.0657554296048602,0.826107001144082
-0.104592426018884,0.843240794098993
-0.106724551629487,0.840833372979979
-0.126042971027388,0.843154457077362
-0.127858468061789,0.81261168065724
-0.254083138016706,0.718121280964321
-0.166970404679515,0.598402293975717
-0.180359172502347,0.60961961282473
-0.179539710090759,0.800694589366245
-0.304857386261948,0.708056539952651
-0.43455697407479,0.591868485501172
-0.327859029829018,0.703996632574767
-0.338748692319449,0.702216538719234
-0.455683815926735,0.817962311607776
-0.456516479560823,0.6032609279218
-0.368944850587481,0.697876681911396
-0.378182513724352,0.696759507628833
-0.387006460275835,0.695803210006237
-0.294655968922987,0.802040584824781
-0.28486217687215,0.798257172791704
-0.293532468606816,0.603773520769155
-0.51842843188601,0.582979553459079
-0.322502988709675,0.594436271693169
-0.524494803589019,0.806932846715592
-0.4373812018861,0.693240438349426
-0.442998426123461,0.693390749128717
-0.448237993621639,0.693646866707372
-0.453107202605505,0.693999507887372
-0.457613942669575,0.694438829854421
-0.461766672522575,0.694954454386744
-0.465574396521525,0.695535493343391
-0.469046640048847,0.696170575374597
-0.472193423788559,0.696847873793999
-0.475025236960069,0.697555135549893
-0.477553009570384,0.698279711230247
-0.479788083747722,0.699008586033854
-0.481742184221567,0.699728411637846
-0.483427388016067,0.700425538889738
-0.484856093425437,0.701086051250356
-0.486040988341604,0.70169579891227
-0.486995018005765,0.702240433516843
-0.487731352256779,0.702705443391651
-0.488263352350452,0.703076189228845
-0.488604537424685,0.703337940124028
-0.488768550686233,0.703475909894394
-0.488769125395439,0.703475293594224
-0.488620050725727,0.703321304145402
-0.488335137574896,0.702999209000309
-0.487928184405362,0.702494366754384
-0.48741294319039,0.70179226362572
-0.486803085543121,0.700878549719366
-0.486112169104756,0.69973907499443
-0.485353604267674,0.698359924852773
-0.484540621308486,0.696727455268861
-0.48368623800509,0.694828327381403
-0.482803227810704,0.692649541468527
-0.481904088656568,0.690178470229668
-0.481001012453618,0.687402891298822
-0.480105855361807,0.684311018915553
-0.479230108894063,0.680891534681985
-0.478384871919954,0.677133617336044
-0.477580823632119,0.673026971473402
-0.47682819753635,0.668561855152879
-0.476136756523904,0.663729106322586
-0.475515769082181,0.658520168006645
-0.474973986697365,0.652927112195134
-0.474519622499906,0.646942662382755
-0.474160331200959,0.640560214704715
-0.473903190364977,0.633773857621469
-0.473754683060657,0.626578390107143
-0.473720681929333,0.618969338299843
-0.473806434706727,0.610942970575422
-0.474016551230721,0.602496311009816
-0.474354991964433,0.59362715119864
-0.474825058060529,0.584334060406378
-0.47542938298919,0.574616394021229
-0.476169925748685,0.56447430029544
-0.477047965673906,0.553908725354764
-0.478064098854678,0.542921416464551
-0.479218236171985,0.531514923543841
-0.480509602956681,0.519692598922744
-0.481936740271563,0.507458595342293
-0.48349750781406,0.494817862199881
-0.485189088433152,0.481776140047289
-0.487007994250503,0.4683399533522
-0.488950074372186,0.454516601537991
-0.491010524173815,0.440314148320381
-0.493183896138358,0.425741409363358
-0.495464112222414,0.410807938280511
-0.49784447772332,0.395524011011613
-0.500317696616052,0.379900608607889
-0.502875888325615,0.363949398462976
-0.505510605897365,0.347682714030029
-0.508212855524572,0.331113533068808
-0.510973117389489,0.314255454469854
-0.513781367771229,0.297122673706034
-0.51662710237089,0.279729956964795
-0.519499360801671,0.262092614017412
-0.52238675218904,0.244226469884312
-0.525277481823573,0.226147835358285
-0.52815937880667,0.207873476449867
-0.531019924627126,0.18942058282167
-0.533846282604463,0.170806735280602
-0.536625328132918,0.152049872399109
-0.539343679658233,0.133168256338425
-0.541987730317681,0.114180437948672
-0.544543680172306,0.0951052212222254
-0.546997568958983,0.0759616271782061
-0.549335309288715,0.0567688572572495
-0.551542720216616,0.0375462563067718
-0.553605561108097,0.0183132752378965
-0.55550956572518,-0.000910566564087431
-0.557240476456276,-0.020105718993296
-0.558784078612458,-0.0392526390580454
-0.560126234713105,-0.0583318287138783
-0.561252918683751,-0.0773238726118484
-0.562150249889183,-0.0962094756792381
-0.562804526925169,-0.114969500450295
-0.56320226109272,-0.133585004065097
-0.563330209479457,-0.152037274855401
-0.563175407573542,-0.170307868437259
-0.562725201336627,-0.188378643231255
-0.561967278663483,-0.206231795332502
-0.560889700157305,-0.22384989265399
-0.559480929151204,-0.241215908268479
-0.557729860908062,-0.258313252875916
-0.555625850932725,-0.275125806325289
-0.553158742332503,-0.291637948121965
-0.550318892164,-0.307834586853772
-0.547097196706608,-0.323701188471515
-0.543485115605303,-0.339223803362176
-0.539474694827943,-0.354389092155684
-0.535058588384871,-0.369184350209022
-0.530230078761366,-0.383597530714323
-0.524983096016352,-0.3976172663807
-0.519312235503737,-0.411232889642727
-0.513212774175779,-0.424434451351742
-0.506680685431083,-0.437212737909541
-0.499712652472997,-0.449559286807482
-0.492306080147527,-0.461466400537581
-0.484459105233264,-0.472927158845773
-0.476170605159232,-0.48393542930124
-0.467440205130082,-0.494485876159406
-0.458268283641581,-0.504573967500043
-0.448655976372942,-0.514195980625715
-0.438605178446114,-0.523349005709705
-0.428118545045819,-0.532030947686434
-0.417199490397746,-0.540240526381287
-0.405852185105963,-0.547977274880693
-0.394081551854259,-0.555241536147208
-0.381893259479768,-0.562034457888241
-0.369293715430855,-0.568357985690973
-0.356290056624803,-0.574214854439837
-0.342890138724443,-0.579608578036778
-0.329102523856363,-0.584543437448253
-0.31493646679679,-0.589024467106671
-0.300401899654665,-0.593057439697618
-0.285509415084769,-0.596648849367797
-0.270270248067015,-0.599805893392127
-0.254696256291235,-0.602536452341859
-0.238799899189859,-0.604849068798893
-0.222594215663937,-0.606752924664717
-0.2060928005508,-0.608257817115503
-0.189309779884536,-0.609374133257879
-0.172259785003045,-0.610112823542818
-0.154957925558105,-0.610485373997789
-0.137419761487226,-0.610503777339977
-0.119661274008463,-0.610180503035825
-0.101698835701464,-0.609528466374502
-0.0835491797400992,-0.608560996625066
-0.065229368343906,-0.607291804349145
-0.0467567605172939,-0.60573494794278
-0.0281489791470649,-0.603904799482818
-0.00942387753022533,-0.601816009954743
0.00940049459468917,-0.599483473940217
0.0283059254384137,-0.596922293843757
0.0472740758986107,-0.594147743739034
0.0662865145683315,-0.591175232916039
0.0853247529386255,-0.588020269211067
0.10437028071823,-0.58469842220191
0.123404601192978,-0.581225286350922
0.142409266547523,-0.577616444178725
0.161365913072015,-0.57388742955124
0.180256296176666,-0.570053691162436
0.199062325137537,-0.56613055629475
0.217766097497513,-0.56213319493847
0.236349933047147,-0.558076584350579
0.254796407311087,-0.553975474132513
0.27308838446677,-0.549844351905154
0.291209049623479,-0.545697409657991
0.309141940391167,-0.541548510847853
0.326870977670082,-0.537411158320969
0.344380495594007,-0.533298463130175
0.361655270561704,-0.529223114317143
0.378680549293325,-0.52519734972728
0.395442075850576,-0.521232927922651
0.411926117561878,-0.517341101255767
0.428119489796074,-0.51353259016453
0.444009579530899,-0.509817558745798
0.459584367665052,-0.506205591662241
0.474832450025531,-0.502705672434083
0.489743057024814,-0.499326163164283
0.504306071925431,-0.496074785742424
0.518512047672631,-0.492958604569307
0.532352222258977,-0.489984010840796
0.545818532588038,-0.487156708425977
0.558903626807609,-0.484481701371107
0.571600875086392,-0.48196328305718
0.583904378811436,-0.479605027035218
0.595808978187245,-0.477409779559644
0.607310258220948,-0.47537965383626
0.61840455308155,-0.473516025997529
0.629088948824924,-0.471819532813959
0.639361284479771,-0.470290071146513
0.649220151493519,-0.468926799141038
0.658664891540684,-0.46772813916182
0.667695592699943,-0.466691782457449
0.676313084009735,-0.465814695548307
0.684518928415858,-0.465093128321109
0.692315414128081,-0.464522623812116
0.699705544406333,-0.464098029656832
0.706693025800535,-0.463813511180271
0.713282254871565,-0.463662566098178
0.719478303424228,-0.463638040795992
0.725286902286421,-0.463732148148785
0.730714423671884,-0.463936486841956
0.735767862167122,-0.464242062149072
0.740454814386086,-0.464639308120012
0.744783457339203,-0.465118111129359
0.748762525566183,-0.465667834731954
0.752401287084758,-0.466277345769586
0.755709518210172,-0.466935041669972
0.758697477302716,-0.467628878876504
0.761375877502983,-0.468346402344691
0.76375585851678,-0.469074776038839
0.765848957513706,-0.469800814360231
0.767667079205404,-0.470511014436008
0.769222465171279,-0.471191589195971
0.770527662501149,-0.471828501162781
0.771595491825802,-0.472407496879401
0.772439014807781,-0.472914141896189
0.773071501165911,-0.473333856238787
0.773506395308084,-0.473651950276847
0.773757282647705,-0.473853660912737
0.773837855679862,-0.473924188008636
