0.435613922690913,-0.524307788681265
0.435440912484166,-0.524064326225245
0.434932325482708,-0.523326991794983
0.434104249497837,-0.522086017540182
0.432973303672788,-0.520332525383598
0.431556597736024,-0.518058549719691
0.429871690205762,-0.515257058134513
0.427936545639908,-0.511921970099879
0.425769491027678,-0.508048173599343
0.423389171421078,-0.503631539648138
0.42081450490611,-0.498668934673908
0.418064637015041,-0.493158230729812
0.415158894682275,-0.487098313516409
0.412116739847419,-0.48048908819363
0.408957722809859,-0.473331482969027
0.405701435439753,-0.465627450453461
0.402367464350605,-0.457379966780352
0.398975344138702,-0.448593028489598
0.395544510794507,-0.439271647182238
0.3920942553907,-0.429421841956908
0.388643678150947,-0.419050629644054
0.385211643002604,-0.408166012858806
0.381816732715457,-0.396776965898229
0.378477204727299,-0.384893418513515
0.3720354392926,-0.359687206791428
0.368967704079753,-0.346389004163522
0.366024273654065,-0.332645177828157
0.363221147057955,-0.318470119739111
0.360573752800453,-0.303879037606327
0.358096912155346,-0.288887925033881
0.355804803878709,-0.273513529939626
0.353710930425104,-0.257773321325965
0.351828085738357,-0.241685454474877
0.350168324689301,-0.225268734643812
0.347562406323612,-0.191526979273337
0.346636412727805,-0.174242458022795
0.345973781660051,-0.156710030590504
0.345582476425694,-0.138951160849691
0.345469576039848,-0.120987718031496
0.345641257892462,-0.102841932329613
0.346102782494791,-0.0845363497231708
0.346858480341673,-0.0660937861175611
0.347911740919283,-0.0475372809044416
0.349265003883215,-0.0288900500434289
0.35091975242689,-0.0101754387690634
0.352876508855385,0.00858312597254693
0.357693319102595,0.0461382859471448
0.360549604298393,0.0648880484822238
0.363700366811704,0.083588194423825
0.370867299252676,0.120747360151074
0.374872115652692,0.139160796891206
0.379148726498814,0.157433543402696
0.383689171911899,0.175543570237416
0.388484607939616,0.193469233640045
0.393525325971479,0.211189319190079
0.398800774156592,0.228683084481389
0.40429958077638,0.245930300745228
0.410009579520178,0.262911293324969
0.415917836607318,0.279606980913428
0.422010679695202,0.29599891346636
0.434691927123387,0.327801087153187
0.441249577827933,0.343177905554559
0.447930376494318,0.358184188725539
0.454717449372584,0.37280515964505
0.461593391230472,0.387026867792476
0.468540304751873,0.40083621564592
0.475539841106168,0.414220983286509
0.482573241597751,0.427169851054955
0.489621380302658,0.439672420210984
0.496664807596935,0.451719231550667
0.510658377589868,0.474412538737648
0.51756840482151,0.485044952049833
0.524393581426353,0.495193464834394
0.537707769810133,0.514021570035477
0.544155898659936,0.522695072572517
0.550437505021272,0.53087249950393
0.556532282492371,0.538553332028277
0.562420063178745,0.545738058200745
0.568080864324345,0.552428167473081
0.578642799933089,0.564335451906699
0.58350530881272,0.569560533011225
0.58806367690726,0.574306782911788
0.592299530955788,0.578580539589493
0.602895339190619,0.588643951926149
0.605667111381415,0.591109259531017
0.608032140240487,0.593147173082183
0.609975386172361,0.594769224628675
0.611482498756928,0.595987718452942
0.612539851254115,0.59681569966654
0.61288861654728,0.59709742712759
0.61202625354631,0.596507438206862
0.610657946865253,0.595602066849035
0.60877504449324,0.59439805870621
0.606369812258502,0.592912639661528
0.603435454046053,0.591163473786135
0.599966129978612,0.589168620365437
0.586304630763279,0.581895530890941
0.580656688227061,0.57910487642051
0.574459412958949,0.576163202155191
0.560418530513261,0.569904824551635
0.552578316265746,0.566627281240496
0.544195554503327,0.563276944559614
0.535274496119189,0.559873328812482
0.525820405384188,0.556435838088762
0.515839551831057,0.552983720037787
0.505339199941139,0.549536020048671
0.494327596655747,0.546111535940005
0.48281395673911,0.542728773260904
0.445367115838054,0.5330105672914
0.43195620372209,0.52997237858217
0.418103187843369,0.527062545850019
0.389130047636704,0.521690808177174
0.374041515568878,0.519258847218318
0.358574001961383,0.51701505893049
0.342745150709381,0.514972771597059
0.310077360891094,0.511542401244965
0.293276948755525,0.510177274424498
0.276192174391742,0.509059505936148
0.258843688170581,0.508198558762448
0.223440543222221,0.507280714079622
0.205429417489407,0.507238415694135
0.187241557543295,0.507482101181895
0.168899581168303,0.508016799698378
0.150426364515587,0.508846607432387
0.1318449955338,0.509974677154251
0.0944509288860206,0.513133449088926
0.075685041270321,0.515165676252502
-0.0178964735179471,0.529799152526919
-0.0910811796231114,0.546617310214727
-0.108957419698041,0.551475010246028
-0.126622850422829,0.556575432492566
-0.211085408946671,0.585313881984674
-0.227072722991403,0.591617155401826
-0.242717264132934,0.598071713003163
-0.258002878223276,0.604661702100493
-0.27291418686226,0.61137067265672
-0.287436617068279,0.618181614425074
-0.301556429159206,0.625076995411465
-0.341375792636062,0.646087469166223
-0.353765272058249,0.653136265097058
-0.388153793981372,0.674145547236221
-0.398665714160956,0.681036268996666
-0.435824047010332,0.707495526922105
-0.45143405552861,0.719777237752845
-0.481829827394992,0.746426959142226
-0.490614055703261,0.755058811206166
-0.494307512963492,0.758866381114583
-0.497546081206673,0.762311821460549
-0.500339020902392,0.765378387085204
-0.506149257564771,0.772146416783505
-0.507348090046195,0.773484782591702
-0.506366470119008,0.771988602625235
-0.505090476481451,0.769975806553309
-0.501725153241976,0.764371302991053
-0.494915832873051,0.751933387146311
-0.483341508186087,0.727693481977559
-0.480131406229778,0.720262355014102
-0.47683383083009,0.712286161028483
-0.473468348428704,0.7037683868864
-0.463158715086344,0.675015681409121
-0.45971506742985,0.664386705447461
-0.456299291172524,0.653248691666519
-0.440270331044439,0.590286660855978
-0.437395087435298,0.576325367985493
-0.434667935553105,0.561940347072094
-0.427523164353962,0.516402780220591
-0.425533251536346,0.500486431586596
-0.422216551599074,0.467657846912353
-0.42091233161445,0.450784436125267
-0.41985791409131,0.433631778318877
-0.418534643084994,0.398572290102721
-0.4182817113675,0.380708376559004
-0.418310386899192,0.362650962720841
-0.418626390405877,0.344422442366767
-0.419234518899362,0.326045502210129
-0.424651277770299,0.251514931446714
-0.434879313803635,0.176468974192173
-0.44562616382619,0.12074447283201
-0.45884649601149,0.0661839630999859
-0.463765839845248,0.0483584653336158
-0.474313892890789,0.0133759925757742
-0.485730656481403,-0.0205812216643497
-0.517366518513855,-0.100013559718918
-0.537850006384316,-0.143269124408211
-0.558887570352596,-0.182762789447551
-0.565935803063708,-0.195038602704326
-0.572969491987258,-0.206854286118405
-0.579968785275732,-0.218201820132476
-0.600558874215727,-0.249370048485824
-0.607218524692725,-0.258784481758708
-0.632294194387952,-0.291492891772247
-0.638070969764471,-0.298430060999675
-0.643610858129991,-0.304873731265982
-0.648894241087607,-0.310826879054273
-0.663013942424319,-0.325787543556826
-0.670800427723631,-0.333406633850692
-0.67969231758856,-0.341466191329515
-0.705632174550353,-0.326900462319954
-0.680429059723222,-0.34297468437627
-0.632559595406822,-0.328505801302005
-0.631044079080228,-0.382020365381739
-0.666539597671874,-0.33504128767845
-0.632927111408637,-0.339873706048188
-0.668074805738177,-0.289204562217098
-0.675094788209527,-0.339339073507483
-0.629357360896575,-0.317561627809179
-0.604839447740533,-0.341371792719668
-0.571233016990681,-0.322827746662457
-0.547078415495321,-0.2965612019262
-0.485141206210532,-0.290939798277734
-0.417348046167715,-0.245442273967078
-0.322868032155534,-0.257152371832171
-0.25087930281067,-0.256998048863659
-0.195311908401202,-0.259936538517126
-0.100774517257361,-0.246989111379591
0.141595269343225,-0.388651813965719
0.176261087858666,-0.34558667062995
0.239635945668619,-0.376215102418591
0.359415622630033,-0.47251731954835
0.355242119503303,-0.433216924462828
0.389945730538121,-0.48057761194327
0.406546560142539,-0.493355540824937
0.415803195119235,-0.502309864355083
0.426206749200421,-0.513178740777959
0.432785394120635,-0.483954419027217
