-0.835212072616115,0.578150461814256
-0.822796259073031,0.575276363540978
-0.810510594995698,0.572370983792311
-0.798353820285698,0.569434994286256
-0.786324697953374,0.566469061076451
-0.774422013477771,0.563473844685161
-0.762644574185254,0.560450000231727
-0.750991208646183,0.557398177556641
-0.739460766089031,0.554319021341375
-0.72805211583137,0.551213171224124
-0.716764146727166,0.54808126191159
-0.70559576662985,0.54492392328694
-0.69454590187064,0.541741780514073
-0.683613496751623,0.53853545413831
-0.672797513053117,0.53530556018362
-0.662096929554854,0.532052710246517
-0.651510741570541,0.528777511586709
-0.641037960495356,0.525480567214623
-0.630677613366004,0.52216247597591
-0.62042874243289,0.518823832633004
-0.610290404744069,0.515465227943863
-0.600261671740573,0.512087248737954
-0.590341628862781,0.508690477989585
-0.580529375167481,0.505275494888666
-0.570824022955295,0.501842874908978
-0.561224697408148,0.498393189874029
-0.551730536236474,0.494927008020575
-0.542340689335872,0.491444894059885
-0.533054318452908,0.487947409236797
-0.523870596859806,0.484435111386676
-0.514788709037749,0.480908554990289
-0.505807850368539,0.477368291226706
-0.496927226834372,0.473814868024259
-0.488146054725472,0.470248830109635
-0.479463560355378,0.46667071905515
-0.470878979783633,0.463081073324263
-0.462391558545686,0.459480428315395
-0.454000551389772,0.455869316404083
-0.445705222020592,0.452248266983541
-0.437504842849585,0.448617806503658
-0.429398694751599,0.4449784585085
-0.4213860668278,0.441330743672344
-0.413466256174615,0.437675179834297
-0.405638567658564,0.434012282031541
-0.397902313696798,0.430342562531246
-0.390256814043193,0.426666530861191
-0.382701395579847,0.422984693839128
-0.37523539211382,0.419297555600933
-0.367858144178984,0.415605617627579
-0.360568998842843,0.411909378770959
-0.353367309518173,0.408209335278604
-0.346252435779377,0.404505980817321
-0.339223743183394,0.400799806495788
-0.332280603095076,0.397091300886137
-0.325422392516883,0.393380950044546
-0.318648493922801,0.389669237530887
-0.311958295096357,0.385956644427443
-0.305351188972637,0.382243649356727
-0.298826573484187,0.378530728498429
-0.292383851410711,0.374818355605525
-0.286022430232447,0.371107002019555
-0.279741721987151,0.367397136685115
-0.273541143130573,0.363689226163571
-0.267420114400347,0.359983734646032
-0.261378060683208,0.356281123965585
-0.255414410885447,0.352581853608841
-0.249528597806521,0.348886380726788
-0.243720058015746,0.34519516014498
-0.237988231731986,0.341508644373093
-0.232332562706272,0.337827283613851
-0.226752498107269,0.33415152577135
-0.221247488409526,0.330481816458797
-0.215816987284444,0.326818599005682
-0.210460451493882,0.323162314464397
-0.205177340786354,0.319513401616324
-0.199967117795736,0.315872296977409
-0.194829247942436,0.312239434803231
-0.189763199336959,0.308615247093586
-0.184768442685816,0.305000163596606
-0.179844451199715,0.301394611812416
-0.174990700503978,0.297799016996359
-0.170206668551143,0.294213802161787
-0.165491835535681,0.29063938808244
-0.160845683810798,0.287076193294433
-0.156267697807254,0.283524634097848
-0.151757363954167,0.279985124557954
-0.147314170601745,0.276458076506071
-0.142937607945911,0.272943899540075
-0.138627167954762,0.269443001024577
-0.134382344296845,0.265955786090763
-0.130202632271172,0.26248265763593
-0.126087528738978,0.259024016322713
-0.122036532057139,0.255580260578016
-0.118049142013243,0.252151786591663
-0.114124859762265,0.248738988314778
-0.110263187764808,0.245342257457893
-0.106463629726878,0.241961983488817
-0.10272569054116,0.238598553630242
-0.0990488762297561,0.235252352857134
-0.095432693888361,0.231923763893878
-0.0918766516318328,0.228613167211226
-0.0883802585411385,0.225320941023017
-0.0849430246116369,0.22204746128271
-0.0815644607026715,0.21879310167972
-0.0782440784884456,0.215558233635569
-0.0749813904101504,0.212343226299863
-0.0717759096293187,0.209148446546096
-0.0686271499823785,0.205974258967299
-0.0655346259363781,0.202821025871531
-0.0624978525458612,0.199689107277218
-0.0595163454108626,0.196578860908367
-0.0565896206360037,0.19349064218963
-0.0537171947906626,0.190424804241251
-0.050898584870196,0.187381697873893
-0.0481333082581896,0.184361671583348
-0.0454208826897167,0.181365071545142
-0.0427608262155817,0.178392241609037
-0.0401526571675277,0.175443523293443
-0.037595894124389,0.172519255779733
-0.0350900558791658,0.16961977590648
-0.0326346614070051,0.166745418163615
-0.0302292298340639,0.163896514686516
-0.0278732804072409,0.161073395250017
-0.0255663324647533,0.158276387262377
-0.0233079054075454,0.155505815759172
-0.0210975186715075,0.152762003397149
-0.0189346917004904,0.150045270448025
-0.0168189439200972,0.147355934792254
-0.0147497947122368,0.144694311912748
-0.0127267633904218,0.142060714888573
-0.0107493691757962,0.139455454388611
-0.00881713117387683,0.13687883866521
-0.00692956835199243,0.134331173547801
-0.00508619951740717,0.131812762436515
-0.00328654329611238,0.129323906295784
-0.00153011811227343,0.126864903647934
0.000183557831683522,0.124436050566781
0.0018549665743574,0.122037640671231
0.00348459041404556,0.11966996511888
0.00507291192681664,0.117333312599633
0.00662041398399691,0.11502796932933
0.00812757976908233,0.112754219043394
0.0095948927940892,0.110512342990504
0.0110228369153554,0.108302619926286
0.0124118963488046,0.106125326107037
0.0137625556846856,0.103980735283487
0.0150752999017974,0.101869118694585
0.016350614381213,0.099790745061336
0.0175889849195121,0.097745880580676
0.0187908977415342,0.0957347889193917
0.0199568395126631,0.093757731208092
0.0210872973506535,0.0918149660352317
0.0221827588370103,0.0899067494411901
0.0232437120279306,0.0880333349124084
0.0242706454648197,0.0861949733755898
0.0252640481843901,0.0843919131919627
0.0262244097283538,0.0826244001516132
0.0271522201527182,0.080892677467887
0.0280479700366947,0.079196985771865
0.0289121504912295,0.0775375631069154
0.0297452531671667,0.075914644923324
0.0305477702630517,0.0743284640730069
0.0313201945325861,0.0727792508043069
0.0320630192917403,0.0712672327568773
0.0327767384255358,0.0697926349566544
0.033461846394503,0.0683556798109234
0.0341188382408263,0.0669565871034775
0.0347482095941823,0.0655955739898752
0.035350456677281,0.0642728549927961
0.0359260763111187,0.0629886419974997
0.03647556591995,0.0617431442473876
0.0369994235359874,0.0605365683396729
0.0374981478038374,0.0593691182211586
0.0379722379846794,0.0582409951841268
0.0384221939601983,0.0571523978623419
0.0388485162362747,0.0561035222271697
0.0392517059464444,0.0550945615838135
0.039632264855133,0.0541257065676719
0.0399906953606728,0.0531971451408171
0.0403275004981115,0.0523090625885993
0.0406431839418183,0.0514616415163761
0.0409382500078966,0.0506550618463717
0.0412132036564093,0.049889500814666
0.0414685504934258,0.0491651329683163
0.0417047967728955,0.0484821301626143
0.0419224493983584,0.0478406615584789
0.0421220159244975,0.047240893619988
0.0423040045585409,0.0466829901120511
0.0424689241615218,0.0461671120982236
0.0426172842494023,0.0456934179386659
0.0427495949940684,0.0452620632882488
0.0428663672242046,0.0448732010948067
0.0429681124260524,0.0445269815975409
0.0430553427440635,0.0442235523255742
0.0431285709814512,0.04396305809666
0.0431883106006489,0.0437456410160455
0.0432350757236833,0.0435714404754931
0.0432693811324667,0.0434405931524604
0.0432917422690185,0.0433532330094399
0.0433026752356204,0.043309491293463
0.043302696794914,0.0433094965357661
0.0432923243699465,0.0433533745516239
0.0432720760441722,0.0434412484403496
0.0432424705614164,0.0435732385854644
0.0432040273258088,0.0437494626550383
0.0431572664016939,0.0439700356022026
0.043102708513524,0.0442350696658377
0.0430408750457432,0.0445446743714363
0.0429722880426687,0.0448989565321434
0.0428974702083767,0.0452980202499773
0.0428169449065995,0.0457419669172294
0.0427312361606415,0.0462308952180479
0.0426408686533208,0.046764901130205
0.0425463677269432,0.0473440779270495
0.0424482593833166,0.0479685161796475
0.0423470702838124,0.0486383037591112
0.0422433277494807,0.0493535258391189
0.0421375597612274,0.0501142648986264
0.0420302949600606,0.050920600724773
0.0419220626474118,0.0517726104159819
0.0418133927855417,0.0526703683852585
0.041704815998037,0.0536139463636864
0.0415968635704043,0.054603413404124
0.0414900674507713,0.0556388358851028
0.0413849602507009,0.0567202775149293
0.0412820752461259,0.0578477993359911
0.0411819463784133,0.0590214597292705
0.0410851082555648,0.060241314419066
0.0409920961535613,0.0615074164779232
0.0409034460178605,0.062819816331778
0.0408196944650534,0.0641785617653123
0.0407413787846908,0.0655836979275247
0.0406690369412844,0.0670352673375177
0.0406032075764941,0.0685333098905027
0.0405444300115069,0.0700778628640254
0.0404932442496177,0.0716689609244117
0.04045019097902,0.0733066361334378
0.0404158115758144,0.0749909179552244
0.0403906481072449,0.076721833263358
0.0403752433351695,0.0784994063482402
0.0403701407197777,0.0803236589246674
0.0403758844235591,0.0821946101396422
0.0403930193155372,0.0841122765804182
0.0404220909757733,0.0860766722827813
0.0404636457001529,0.0880878087395667
0.0405182305054623,0.0901456949094169
0.0405863931347664,0.0922503372257789
0.0406686820630957,0.0944017396061458
0.0407656465034545,0.0965999034615426
0.0408778364131581,0.0988448277062585
0.0410058025005116,0.101136508767829
0.0411500962318381,0.103474940597267
0.0413112698388691,0.105860114679549
0.041489876326506,0.108292020044353
0.041686469480965,0.110770643277058
0.0419016038783147,0.113295968529998
0.04213583489342,0.115867977533978
0.0423897187093005,0.118486649610057
0.0426638123269185,0.121151961681589
0.042958673575405,0.123863888286545
0.0432748611227389,0.126622401590087
0.0436129344868884,0.129427471397434
0.0439734540474297,0.132279065166986
0.0443569810576535,0.135177148023736
0.0447640776571747,0.138121682772958
0.0451953068850545,0.14111262991418
0.0456512326934529,0.144149947655434
0.0461324199618214,0.147233591927805
0.0466394345116514,0.150363516400261
0.0471728431217927,0.153539672494784
0.0477332135443554,0.156762009401783
0.0483211145212106,0.160030474095826
0.0489371158011052,0.163345011351653
0.0495817881574047,0.166705563760508
0.0502557034064808,0.170112071746771
0.0509594344267598,0.173564473584904
0.0516935551784464,0.177062705416708
0.0524586407239418,0.180606701268898
0.0532552672489709,0.184196393071004
0.0540840120844366,0.187831710673583
0.0549454537290199,0.191512581866773
0.055840171872542,0.195238932399167
0.0567687474201074,0.199010685997027
0.0577317625170479,0.202827764383832
0.0587298005746855,0.206690087300173
0.0597634462969331,0.210597572523992
0.0608332857077559,0.214550135891168
0.0619399061795108,0.218547691316462
0.0630838964621876,0.222590150814818
0.0642658467135696,0.226677424523023
0.0654863485303415,0.230809420721746
0.0667459949801615,0.23498604585793
0.0680453806347226,0.239207204567581
0.0693851016038278,0.243472799698923
0.070765755570502,0.247782732335945
0.0721879418271653,0.25213690182234
0.0736522613128939,0.256535205785839
0.0751593166517926,0.260977540162947
0.0767097121925086,0.265463799224085
0.0783040540489099,0.269993875599149
0.079942950141959,0.274567660303482
0.0816270102428096,0.279185042764275
0.0833568460171552,0.2838459108474
0.0851330710708593,0.288550150884672
0.0869563009968997,0.293297647701565
0.0888271534236552,0.29808828464537
0.0907462480645712,0.302921943613819
0.0927142067692324,0.307798505084159
0.0947316535758821,0.312717848142713
0.0967992147654182,0.31767985051491
0.0989175189169038,0.322684388595804
0.10108719696463,0.327731337481086
0.103308882256765,0.332820570998604
0.105583210615636,0.337951961740383
0.107910820399673,0.343125381095176
0.110292352567061,0.348340699281538
0.112728450741146,0.353597785381434
0.115219761277632,0.358896507374396
0.117766933333614,0.364236732172243
0.120370618938496,0.369618325654356
0.123031473066835,0.375041152703537
0.125750153713166,0.38050507724245
0.128527321968852,0.386009962270666
0.131363642101011,0.391555669902313
0.134259781633571,0.397142061404345
0.137216411430513,0.402768997235446
0.140234205781344,0.40843633708558
0.143313842488875,0.414143939916194
0.146456002959342,0.419891664001097
0.149661372294943,0.425679366968014
0.152930639388859,0.431506905840848
0.156264497022795,0.437374137082648
0.159663641967142,0.443280916639301
0.1631287750838,0.44922709998397
0.166660601431744,0.45521254216229
0.170259830375401,0.461237097838335
0.173927175695913,0.467300621341371
0.177663355705356,0.473402966713427
0.181469093364005,0.47954398775768
0.185345116400713,0.485723538087689
0.189292157436489,0.491941471177491
0.193310954111367,0.498197640412576
0.197402249214647,0.504491899141764
0.201566790818606,0.510824100730009
0.205805332415755,0.517194098612138
0.210118633059766,0.523601746347566
0.214507457510139,0.530046897675993
0.218972576380738,0.536529406574117
0.223514766292274,0.543049127313378
0.228134810028873,0.549605914518773
0.232833496698813,0.556199623228756
0.237611621899576,0.562830108956244
0.2424699878873,0.56949722775078
0.247409403750787,0.57620083626186
0.252430685590176,0.582940791803458
0.257534656700416,0.589716952419792
0.262722147759674,0.596529176952343
0.267993997022827,0.603377325108184
0.273351050520172,0.610261257529623
0.278794162261505,0.617180835865224
0.284324194445738,0.624135922842228
0.28994201767619,0.631126382340406
0.295648511181742,0.638152079467402
0.301444563044003,0.645212880635584
0.307331070430692,0.652308653640458
0.313308939835387,0.659439267740692
0.319379087323856,0.666604593739779
0.325542438787152,0.673804504069396
0.331799930201677,0.681038872874512
0.338152507896427,0.688307576100276
0.344601128827628,0.695610491580755
0.351146760860994,0.702947499129569
0.35779038306184,0.71031848063247
0.364532985993278,0.717723320141936
0.371375572022759,0.725161903973827
0.378319155637211,0.732634120806172
0.385364763767042,0.740139861780146
0.392513436119281,0.747679020603305
0.399766225520147,0.755251493655148
0.407124198267347,0.762857180095072
0.414588434492394,0.770495981972801
0.422160028533284,0.778167804341359
0.429840089317852,0.785872555372667
0.437629740758147,0.793610146475851
0.445530122156192,0.801380492418334
0.453542388621485,0.80918351144982
0.461667711500635,0.817019125429238
0.469907278819525,0.824887259954761
0.47826229573841,0.832787844496989
0.486733985020389,0.840720812535398
0.495323587513686,0.848686101698168
0.504032362648199,0.856683653905497
0.512861588946812,0.864713415516509
0.521812564551942,0.872775337479895
0.530886607767872,0.880869375488388
0.540085057619369,0.888995490137218
0.549409274427179,0.897153647086674
0.558860640400965,0.905343817228919
0.568440560250285,0.91356597685919
0.578150461814256,0.921820107851553
