-0.120511269692644,-0.315974586704938
-0.117334826692526,-0.323838585915871
-0.113883544866882,-0.331640215351176
-0.110158230245095,-0.339369924509727
-0.10616001902653,-0.347018152712262
-0.101890378991395,-0.3545753404626
-0.0973511105223262,-0.362031940886676
-0.0925443472332039,-0.369378431236092
-0.0874725562022001,-0.376605324442761
-0.082138537806483,-0.383703180711094
-0.076545425156485,-0.390662619134069
-0.0706966831281017,-0.397474329319411
-0.0645961069916585,-0.404129083012074
-0.0582478206369553,-0.410617745699106
-0.0516562743941792,-0.416931288182969
-0.0448262424509473,-0.423060798109332
-0.0377628198662291,-0.428997491435366
-0.0304714191823728,-0.434732723824539
-0.0229577666369455,-0.440258001953972
-0.0152278979765754,-0.445564994720409
-0.00728815387546973,-0.450645544330943
0.000854825038244703,-0.455491677264681
0.00919410354472563,-0.460095615091636
0.0177224575790642,-0.464449785135231
0.0264323803577978,-0.468546830964904
0.0353160888802427,-0.472379622705468
0.0443655307991345,-0.475941267149991
0.0535723916546023,-0.479225117663171
0.0629281024650503,-0.482224783862326
0.0724238476680656,-0.484934141063339
0.0820505734040329,-0.487347339479107
0.0917989961346936,-0.489458813158281
0.10165961158846,-0.491263288652296
0.111622704023876,-0.492755793399003
0.121678355802189,-0.493931663811444
0.131816457259619,-0.494786553060614
0.142026716869475,-0.495316438541369
0.152298671683929,-0.495517629010943
0.162621698044839,-0.495386771389866
0.172985022552682,-0.49492085721543
0.18337773328228,-0.494117228738193
0.193788791233672,-0.492973584652397
0.204207042006151,-0.491487985451537
0.214621227683171,-0.489658858400726
0.225019998915516,-0.487485002117903
0.235391927189841,-0.484965590756338
0.245725517269413,-0.48210017778132
0.256009219793608,-0.478888699334358
0.2662314440225,-0.475331477178644
0.276380570712593,-0.471429221220015
0.286444965109581,-0.467183031598085
0.296412990043785,-0.462594400342704
0.306273019113733,-0.457665212591381
0.316013449943179,-0.452397747363781
0.325622717496706,-0.446794677889905
0.335089307438908,-0.440859071489069
0.344401769522033,-0.434594388997285
0.353548730986849,-0.428004483741158
0.362518909961419,-0.421093600056947
0.371301128842402,-0.413866371353913
0.379884327643417,-0.406327817721643
0.388257577295001,-0.398483343081525
0.396410092880655,-0.390338731883089
0.404331246793469,-0.381900145346452
0.412010581797843,-0.373174117252633
0.419437823980847,-0.364167549284021
0.426602895577812,-0.354887705917819
0.433495927656819,-0.345342208875797
0.440107272646849,-0.335539031134225
0.446427516694427,-0.325486490498364
0.452447491833764,-0.315193242746424
0.458158287955501,-0.304668274348397
0.463551264559333,-0.293920894765708
0.468618062275979,-0.2829607283381
0.473350614144117,-0.271797705764713
0.477741156628162,-0.260442055186756
0.481782240362956,-0.248904292879728
0.485466740611689,-0.237195213563558
0.488787867423649,-0.225325880339559
0.49173917547864,-0.213307614263535
0.494314573605237,-0.201151983564837
0.496508333960335,-0.188870792521618
0.49831510085776,-0.176476070002981
0.499729899234084,-0.16398005768913
0.500748142740102,-0.151395197981054
0.50136564144683,-0.138734121611704
0.501578609155237,-0.126009634970965
0.501383670299337,-0.11323470715718
0.500777866432672,-0.100422456768282
0.499758662288648,-0.0875861384459906
0.498323951405591,-0.0747391291868642
0.496472061307886,-0.0618949144343122
0.494201758234975,-0.0490670739660045
0.491512251410477,-0.0362692675914048
0.488403196844198,-0.0235152206744395
0.484874700660233,-0.0108187094965826
0.480927321944928,0.00180645352410988
0.476562075108927,0.0143464347422477
0.471780431758079,0.0267873943066499
0.466584322068495,0.0391155012779935
0.460976135661572,0.0513169488261958
0.454958721975363,0.0633779694909883
0.44853539012919,0.0752848504889919
0.441709908278979,0.0870239490504756
0.43448650246133,0.0985817077688619
0.426869854924919,0.109944669945953
0.418865101948373,0.121099494915776
0.41047783114435,0.132032973329887
0.401714078250111,0.142732042386935
0.392580323405461,0.153183800989269
0.383083486919504,0.163375524809383
0.373230924528226,0.173294681248981
0.363030422145515,0.182928944273536
0.352490190110797,0.192266209105219
0.341618856937018,0.201294606757188
0.330425462563335,0.210002518392315
0.318919451117369,0.218378589489545
0.307110663192515,0.226411743801204
0.295009327646334,0.234091197084761
0.282626052926596,0.241406470592671
0.269971817932141,0.248347404304183
0.257057962416245,0.254904169883139
0.24389617694071,0.261067283346087
0.230498492389481,0.26682761742522
0.216877269051063,0.272176413610966
0.203045185279576,0.277105293859306
0.189015225744776,0.281606271949229
0.174800669281879,0.28567176447601
0.160415076352514,0.289294601466394
0.145872276128621,0.292468036602057
0.131186353211568,0.29518575703814
0.116371633999235,0.297441892804005
0.101442672714247,0.299231025773779
0.0864142371069811,0.300548198194662
0.0713012938473884,0.301388920761419
0.0561189936200859,0.301749180225906
0.0408826559375524,0.301625446530965
0.0256077536866596,0.301014679458467
0.0103098974241184,0.299914334781804
-0.00499518056323271,0.298322369913611
-0.0202916424170252,0.296237249040013
-0.0355635610682754,0.293657947733227
-0.0507949367837379,0.290583957034879
-0.0659697138805438,0.287015287002947
-0.0810717975917102,0.282952469715781
-0.0960850710648542,0.27839656172725
-0.110993412476228,0.273349145967616
-0.125780712241984,0.267812333085308
-0.140430890308378,0.261788762225413
-0.154927913502478,0.255281601241221
-0.169255812924755,0.248294546335845
-0.18339870136485,0.240831821131486
-0.197340790721667,0.23289817516457
-0.211066409408863,0.224498881805565
-0.224560019726748,0.215639735602969
-0.237806235181549,0.206327049051504
-0.250789837732966,0.196567648785265
-0.263495794950933,0.186368871197149
-0.275909277062549,0.175738557486533
-0.288015673870115,0.164685048137821
-0.299800611521339,0.153217176833091
-0.311249969112789,0.141344263802715
-0.32234989510782,0.129076108618447
-0.333086823550279,0.116422982434115
-0.343447490055464,0.103395619679665
-0.353418947559964,0.0900052092149259
-0.36298858181217,0.0762633849500856
-0.372144126585488,0.0621822159404832
-0.380873678596461,0.047774195963909
-0.389165712110295,0.0330522325892266
-0.397009093216517,0.0180296357457065
-0.404393093757777,0.00272010580304199
-0.411307404895138,-0.0128622788273889
-0.417742150293478,-0.0287030745589077
-0.423687898910994,-0.0447874859518878
-0.429135677377171,-0.0611003794798597
-0.434076981943909,-0.0776262977266108
-0.438503789994958,-0.094349474001015
-0.442408571099182,-0.111253847355793
-0.445784297593607,-0.128323077995938
-0.448624454682698,-0.145540563062021
-0.450923050040713,-0.162889452773168
-0.452674622904512,-0.180352666913986
-0.453874252644679,-0.197912911649342
-0.454517566803319,-0.215552696650416
-0.454600748587432,-0.23325435251509
-0.454120543807296,-0.251000048465303
-0.453074267249863,-0.268771810303659
-0.451459808477702,-0.286551538611214
-0.449275637044659,-0.30432102716801
-0.446520807119933,-0.322061981577636
-0.443194961512927,-0.339756038076765
-0.439298335091801,-0.357384782510378
-0.434831757589307,-0.374929769453065
-0.429796655790111,-0.392372541456618
-0.424195055094439,-0.409694648403862
-0.418029580453545,-0.426877666948498
-0.411303456673158,-0.44390322002054
-0.404020508081714,-0.460752996376788
-0.396185157560868,-0.477408770175619
-0.387802424936445,-0.49385242055529
-0.37887792472866,-0.510065951194844
-0.369417863261153,-0.526031509836636
-0.35942903512903,-0.541731407749469
-0.348918819026818,-0.55714813911128
-0.337895172937938,-0.572264400290336
-0.326366628687954,-0.587063109003914
-0.3143422858646,-0.601527423333479
-0.301831805108237,-0.615640760575445
-0.288845400777104,-0.629386815906695
-0.275393832992402,-0.642749580844153
-0.26148839906896,-0.655713361477812
-0.247140924337875,-0.668262796456817
-0.232363752368226,-0.680382874708355
-0.217169734595637,-0.692058952869313
-0.201572219366104,-0.703276772410894
-0.185585040404179,-0.714022476436634
-0.169222504715265,-0.72428262613451
-0.152499379932403,-0.734044216864152
-0.135430881118578,-0.743294693860447
-0.1180326570362,-0.752021967535206
-0.100320775896019,-0.760214428358859
-0.0823117105983609,-0.767860961304574
-0.0640223234801556,-0.774950959837562
-0.0454698505817894,-0.781474339432745
-0.0266718854484272,-0.787421550604413
-0.00764636248096716,-0.792783591431952
0.01158846014765,-0.797552019566167
0.0310140179945298,-0.801718963701264
0.0506114582505539,-0.805277134498027
0.0703616580285049,-0.808219834944263
0.0902452430178408,-0.810540970139144
0.110242606487943,-0.81223505648861
0.130333928621188,-0.813297230299614
0.150499196156781,-0.81372325576152
0.170718222325899,-0.813509532303639
0.190970667058255,-0.812653101318453
0.211236057439892,-0.811151652240746
0.231493808401611,-0.809003527973484
0.251723243617144,-0.806207729651958
0.271903616589869,-0.802763920738373
0.292014131906567,-0.798672430439737
0.312033966636484,-0.793934256442604
0.3319422918537,-0.78855106695892
0.351718294260585,-0.782525202077943
0.371341197889966,-0.775859674419896
0.390790285863397,-0.768558169087767
0.410044922182834,-0.76062504291439
0.429084573532857,-0.752065323002663
0.447888831070488,-0.742884704557528
0.466437432179589,-0.733089548009049
0.48471028216676,-0.722686875426722
0.502687475875623,-0.711684366225832
0.520349319196411,-0.700090352167511
0.537676350447734,-0.687913811654823
0.554649361607525,-0.675164363328018
0.571249419370167,-0.661852258962816
0.587457886006933,-0.647988375676355
0.603256440006997,-0.633584207446166
0.618627096476378,-0.618651855948314
0.633552227272415,-0.60320402072156
0.648014580851482,-0.587253988665153
0.661997301807947,-0.570815622878598
0.675483950082571,-0.553903350852463
0.688458519818827,-0.536532152020004
0.700905457845915,-0.518717544680124
0.712809681767537,-0.500475572302871
0.724156597635872,-0.481822789229349
0.734932117190512,-0.462776245778663
0.745122674642521,-0.44335347277513
0.754715242984203,-0.423572465509679
0.763697349805532,-0.40345166715002
0.772057092598723,-0.38300995161478
0.779783153532832,-0.362266605927439
0.786864813680789,-0.341241312066499
0.793291966681791,-0.319954128328912
0.799055131822472,-0.298425470224393
0.804145466520865,-0.27667609091876
0.808554778197712,-0.254727061245031
0.812275535520268,-0.232599749301501
0.815300879004356,-0.21031579965655
0.817624630961056,-0.187897112180408
0.819241304775042,-0.165365820524579
0.820146113502232,-0.142744270270058
0.820334977775104,-0.120054996765941
0.819804533004707,-0.0973207026803683
0.818552135869075,-0.0745642352861974
0.816575870078506,-0.0518085635041158
0.81387455140886,-0.0290767547262538
0.810447731994769,-0.00639195144368276
0.806295703875425,0.0162226522985284
0.801419501786336,0.0387438345947746
0.795820905191236,0.0611483694966872
0.789502439549097,0.0834130509308338
0.782467376811971,0.105514716691742
0.774719735150215,0.127430272485477
0.766264277902386,0.149136715998881
0.757106511747977,0.17061116096942
0.747252684101907,0.191830861230547
0.736709779730518,0.212773234707384
0.725485516589664,0.233415887337495
0.713588340886255,0.253736636891526
0.701027421365469,0.273713536668485
0.687812642826666,0.293324899040477
0.673954598871821,0.312549318821774
0.659464583891161,0.33136569643722
0.644354584291481,0.349753260865036
0.628637268973399,0.367691592329308
0.612325979064694,0.385160644717543
0.59543471691759,0.402140767698934
0.577978134378716,0.418612728519168
0.55997152034121,0.434557733447883
0.541430787589279,0.449957448855134
0.522372458946228,0.464794021893566
0.502813652737827,0.479050100763292
0.48277206758356,0.492708854536837
0.462265966529119,0.505753992521901
0.441314160534169,0.518169783140081
0.419935991330208,0.529941072300135
0.398151313664012,0.541053301244811
0.375980476942842,0.551492523850746
0.353444306298316,0.561245423361454
0.330564083086479,0.570299328533906
0.307361524842266,0.578642229179791
0.283858764707185,0.586262791083091
0.260078330349673,0.593150370276187
0.236043122398156,0.599295026657335
0.211776392407442,0.604687536932958
0.187301720379622,0.609319406868878
0.16264299186119,0.613182882835243
0.137824374638637,0.616270962630607
0.11287029505523,0.618577405571326
0.0878054139721877,0.620096741833137
0.0626546023979186,0.620824281032531
0.0374429168093828,0.62075612003628
0.0121955741900912,0.619889149988236
-0.0130620731904085,0.618221062543311
-0.0383045632303293,0.61575035529932
-0.0635063496571773,0.612476336418188
-0.0886418278711534,0.60839912842884
-0.113685360944319,0.603519671204888
-0.138611305749085,0.597839724111122
-0.16339403918949,0.591361867313578
-0.188007984508372,0.584089502248907
-0.212427637643541,0.576026851249527
-0.236627593605776,0.567178956321977
-0.260582572851404,0.557551677076757
-0.284267447622211,0.547151687808766
-0.307657268225188,0.535986473728399
-0.330727289224834,0.524064326344184
-0.353452995520467,0.511394337998789
-0.375810128281284,0.497986395561044
-0.39777471071174,0.48385117327757
-0.419323073620059,0.469000124788469
-0.440431880762725,0.453445474312397
-0.461078153937955,0.437200207007257
-0.481239297801356,0.420278058513595
-0.500893124377115,0.402693503688667
-0.520017877238357,0.384461744540028
-0.538592255330503,0.365598697368324
-0.556595436411811,0.34612097912983
-0.574007100085504,0.326045893030164
-0.590807450398344,0.305391413361355
-0.606977237980745,0.284176169595379
-0.622497781704045,0.262419429747989
-0.63735098983087,0.240141083027518
-0.651519380635016,0.217361621784166
-0.664986102467775,0.194102122775936
-0.677734953248049,0.170384227768305
-0.68975039935422,0.146230123485292
-0.701017593896182,0.121662520930495
-0.711522394346634,0.0967046340972056
-0.721251379511206,0.0713801580875719
-0.730191865817705,0.0457132466612979
-0.738331922905363,0.0197284892351729
-0.745660388495624,-0.00654911264473682
-0.752166882526734,-0.0330941693357593
-0.757841820535058,-0.0598809276130489
-0.762676426266794,-0.0868832956421431
-0.766662743504501,-0.11407486838544
-0.769793647093612,-0.141428953417865
-0.772062853154877,-0.168918597126476
-0.773464928469507,-0.196516611268343
-0.773995299024562,-0.224195599860455
-0.773650257706991,-0.251927986375156
-0.772426971135557,-0.279686041214016
-0.77032348562074,-0.307441909432849
-0.767338732243579,-0.335167638690117
-0.763472531045319,-0.362835207390665
-0.758725594320572,-0.39041655299652
-0.753099529007671,-0.41788360047608
-0.746596838170746,-0.445208290862948
-0.73922092156902,-0.472362609895292
-0.730976075309726,-0.499318616706606
-0.721867490581984,-0.526048472538458
-0.711901251469936,-0.552524469445781
-0.701084331844362,-0.578719058965147
-0.689424591332958,-0.604604880716402
-0.676930770370407,-0.630154790908057
-0.663612484330342,-0.655341890716765
