-0.00581743455467965,1.03786231787084
-0.00185872224340589,1.02612162601806
0.00200767795023932,1.01447266366077
0.00578296500234399,1.0029147309404
0.00946832140730902,0.991447144229194
0.0130649136145778,0.980069235668523
0.0165738924520734,0.968780352720228
0.0199963935367985,0.957579857730725
0.0233335376730249,0.94646712750736
0.0265864312384866,0.935441552906639
0.0297561665589751,0.924502538433934
0.0328438222717214,0.913649501854287
0.0358504636779318,0.902881873813951
0.038777143084833,0.892199097472324
0.0416249001375684,0.881600628143925
0.044394762141275,0.871085932950109
0.0470877443736559,0.860654490480191
0.0497048503883566,0.850305790461693
0.052247072309436,0.840039333439423
0.054715391117216,0.829854630463089
0.0571107769257869,0.819751202783218
0.0594341892524234,0.809728581555082
0.0616865772791743,0.799786307550406
0.0638688801068628,0.789923930876614
0.0659820270017377,0.780141010703374
0.0680269376350023,0.770437114996229
0.0700045223154392,0.760811820257088
0.0719156822153438,0.751264711271385
0.0737613095899722,0.741795380861685
0.075542287990697,0.732403429647563
0.0772594924720666,0.723088465811561
0.0789137897929466,0.713850104871037
0.0805060386119263,0.704687969455749
0.0820370896771575,0.695601689090985
0.0835077860107928,0.686590899986098
0.0849189630881856,0.677655244828275
0.0862714490120013,0.66879437258139
0.0875660646813971,0.660007938289808
0.0888036239564066,0.651295602886976
0.0899849338176747,0.642657033008694
0.091110794521676,0.634091900810904
0.0921819997515465,0.625599883791889
0.0931993367636586,0.617180664618759
0.0941635865300553,0.608833930958089
0.0950755238768691,0.600559375310614
0.0959359176188352,0.592356694849851
0.0967455306900115,0.584225591264562
0.0975051202708136,0.57616577060492
0.0982154379114659,0.568176943132324
0.0988772296519733,0.560258823172716
0.0994912361387064,0.55241112897334
0.100058192737699,0.544633582562843
0.100578829644745,0.536925909614618
0.10105387199239,0.529287839313316
0.101484039953889,0.52171910422444
0.101870048844237,0.514219440166942
0.102212609218327,0.506788586088738
0.10251242696633,0.499426283945074
0.102770203406374,0.49213227857967
0.102986635374579,0.484906317608559
0.103162415312543,0.477748151306569
0.10329823135232,0.470657532496372
0.103394767398989,0.46363421644003
0.10345270321085,0.45667796073299
0.103472714477329,0.449788525200457
0.103455472894642,0.442965671796087
0.103401646239289,0.436209164502944
0.103311898439421,0.429518769236669
0.103186889644151,0.422894253750798
0.103027276290851,0.416335387544195
0.102833711170499,0.409841941770518
0.102606843491114,0.403413689149711
0.102347318939348,0.39705040388143
0.102055779740257,0.390751861560393
0.101732864715329,0.384517839093588
0.101379209338786,0.378348114619303
0.100995445792226,0.372242467427931
0.100582203017635,0.366200677884517
0.100140106768818,0.360222527352996
0.099669779661287,0.354307798122094
0.099171841220647,0.348456273332848
0.0986469079295168,0.342667736907704
0.0980955932730252,0.336941973481171
0.0975185077829169,0.331278768331982
0.0969162590803052,0.325677907316739
0.0962894519171043,0.320139176804998
0.0956386882161773,0.314662363615772
0.0949645671102313,0.309247254955423
0.094267684979492,0.303893638356896
0.0935486354881886,0.298601301620288
0.0928080096198806,0.293370032754703
0.092046395711654,0.288199619921384
0.0912643794872183,0.283089851378077
0.0904625440889297,0.278040515424614
0.08964147010877,0.273051400349685
0.0888017356183066,0.268122294378771
0.0879439161976601,0.263252985623218
0.0870685849635048,0.258443262030428
0.0861763125961271,0.253692911335138
0.0852676673655645,0.249001721011774
0.0843432151568509,0.244369478227853
0.0834035194943893,0.239795969798408
0.0824491415654751,0.235280982141425
0.0814806402429919,0.230824301234258
0.0804985721073007,0.226425712571022
0.0795034914673428,0.22208500112092
0.0784959503809787,0.217801951287506
0.0774764986745801,0.21357634686886
0.0764456839618965,0.209407971018646
0.0754040516622145,0.205296606208052
0.0743521450178274,0.20124203418859
0.0732905051108351,0.197244035955724
0.0722196708792901,0.193302391713341
0.071140179132707,0.189416880839015
0.0700525645669549,0.185587281850075
0.0689573597785442,0.181813372370447
0.0678550952783288,0.178094929098263
0.0667462995046364,0.174431727774212
0.0656314988358442,0.17082354315064
0.0645112176024127,0.167270148961356
0.0633859780983948,0.163771317892161
0.062256300592433,0.160326821552059
0.0611227033382595,0.156936430445162
0.0599857025847122,0.153599913943259
0.0588458125852817,0.150317040259039
0.0577035456072005,0.14708757641997
0.0565594119400883,0.143911288242804
0.0554139199041672,0.140787940308705
0.0542675758580563,0.137717295938989
0.0531208842061618,0.134699117171471
0.0519743474056703,0.131733164737389
0.0508284659731601,0.128819198038916
0.0496837384908415,0.12595697512724
0.0485406616124348,0.123146252681196
0.0473997300687012,0.120386785986455
0.0462614366726335,0.117678328915248
0.0451262723243193,0.115020633906617
0.043994726015487,0.112413451947191
0.0428672848337436,0.109856532552466
0.0417444339665161,0.107349623748596
0.0406266567047042,0.10489247205467
0.039514434446056,0.102484822465475
0.0384082466982749,0.100126418434735
0.0373085710818671,0.0978170018588173
0.0362158833327394,0.095556313060902
0.035130657304556,0.0933440907755954
0.0340533649708629,0.0911800721339925
0.0329844764269883,0.0890639926491731
0.0319244598917294,0.086995586202126
0.0308737817088309,0.0849745850280934
0.0298329063482662,0.0830007197033288
0.0288022964073281,0.0810737191322602
0.0277824126115367,0.0791933105350519
0.0267737138153739,0.0773592194355583
0.0257766570028506,0.0755711696496612
0.0247916972879145,0.0738288832739862
0.0238192879147069,0.072132080674989
0.0228598802576755,0.0704804804784064
0.0219139238215497,0.0688737995590652
0.0209818662411867,0.0673117530310422
0.0200641532812946,0.0657940542381691
0.0191612288360401,0.0643204147448766
0.0182735349285478,0.0628905443273701
0.0174015117102963,0.0615041509651323
0.0165455974604205,0.0601609408327457
0.0157062285849244,0.0588606182920301
0.0148838396158117,0.0576028858844873
0.014078863210141,0.0563874443240492
0.0132917301490117,0.0552139924901222
0.0125228693364867,0.0540822274209232
0.0117727077984579,0.0529918443070998
0.011041670681462,0.0519425364856317
0.0103301812514505,0.0509339954340048
0.00963866089252198,0.0499659107646552
0.00896752910562107,0.0490379702196759
0.00831720350721118,0.0481498596657812
0.00768809982792573,0.0473012630895239
0.0070806319112046,0.0464918625927596
0.00649521171192062,0.0457213383883526
0.00593224929500263,0.0449893687961189
0.00539215283405997,0.0442956302390005
0.00487532861001436,0.0436397972394656
0.00438218100974456,0.0430215424161306
0.00391311252474936,0.0424405364805976
0.00346852374983406,0.0418964482345032
0.0030488133818261,0.0413889445667733
0.00265437821832513,0.0409176904510783
0.00228561315649259,0.0404823489434849
0.00194291119188637,0.0400825811802983
0.00162666341734556,0.0397180463760902
0.00133725902193056,0.0393884018219086
0.00107508528992384,0.0390933028836631
0.000840527599896144,0.0388324030006811
0.000633969423843792,0.0386053536844308
0.000455792326401583,0.0384118045174054
0.000306375964136802,0.0382514031521636
0.000186098084929201,0.0381237953105215
9.53345274419738e-05,0.0380286247828918
3.44592206888018e-05,0.0379655334277641
3.8441837019153e-06,0.0379341611713225
3.8595253061883e-06,0.0379341460071954
3.48734440042173e-05,0.0379651239963318
9.72522279773506e-05,0.0380267292670006
0.000191360255207626,0.0381185940149069
0.000317559993725566,0.0382403485034206
0.000476212001988755,0.038391621063913
0.000667674929396172,0.0385720380961958
0.000892305516943159,0.0387812240690575
0.00115045859802204,0.039018801520893
0.00144248709937331,0.0392843910604206
0.00176874204219218,0.0395776113674823
0.00212957254339581,0.0398980791939207
0.00252532581705571,0.0402454093645303
0.0029563471760007,0.0406192147780749
0.00342298003359507,0.0410191064083684
0.00392556590569724,0.0414446933054129
0.00446444441280368,0.0418955825965893
0.00503995328238313,0.0423713794878945
0.00565242835140653,0.0428716872652213
0.00630220356907711,0.0433961072956744
0.00698961099976625,0.0439442390289182
0.00771498082615997,0.0445156799985505
0.00847864135262123,0.0451100258234973
0.00928091900877333,0.0457268702094221
0.0101221383533092,0.0463658049501466
0.0110026220780327,0.0470264199290741
0.0119226910121358,0.0477083031206133
0.0128826641267184,0.0484110405915945
0.0138828585395551,0.0491342165026735
0.0149235895201152,0.0498774131097179
0.01600517049484,0.0506402107651693
0.0171279130526842,0.051422187919376
0.0182921269509267,0.0522229211218899
0.0194981201212555,0.0530419850227225
0.0207461986761332,0.0538789523735531
0.0220366669154484,0.0547333940288832
0.0233698273334592,0.0556048789471322
0.0247459806260334,0.0564929741916662
0.0261654256981931,0.0573972449317552
0.0276284596719674,0.0583172544434513
0.0291353778945618,0.0592525641103828
0.0306864739468474,0.0602027334244553
0.0322820396521789,0.0611673199864561
0.0339223650855458,0.0621458795065529
0.0356077385830628,0.0631379658046807
0.037338446751808,0.0641431308108106
0.039114774480013,0.065160924565093
0.0409370049476119,0.0661908952178672
0.042805419637158,0.0672325890295323
0.0447202983451108,0.06828555037027
0.0466819191935049,0.0693493217196135
0.0486905586420039,0.0704234436658532
0.0507464915003479,0.0715074549052735
0.0528499909412027,0.0726008922412115
0.0550013285134156,0.0737032905829303
0.0572007741556871,0.0748141829442988
0.0594485962106657,0.0759331004422694
0.0617450614394727,0.0770595722951465
0.0640904350366648,0.0781931258206355
0.0664849806456435,0.0793332864336657
0.0689289603745181,0.0804795776439765
0.0714226348124307,0.0816315210534603
0.0739662630463526,0.0827886363532498
0.0765601026783581,0.0839504413205442
0.0792044098433875,0.085116451815162
0.0818994392275052,0.0862861817758126
0.0846454440866641,0.0874591432160758
0.0874426762659834,0.0886348462200804
0.0902913862195505,0.0898127989378709
0.0931918230307563,0.0909925075804525
0.0961442344331727,0.0921734764145042
0.0991488668319829,0.0933552077567479
0.102205965325975,0.0945372019679651
0.105315773730107,0.0957189574466472
0.108478534598656,0.0968999706222706
0.111694489248964,0.0980797359481834
0.114963877785783,0.0992577458940927
0.11828693912624,0.10043349093814
0.121663911025431,0.101606459558551
0.125095030102648,0.102776138224857
0.128580531868264,0.103942011388651
0.132120650751279,0.105103561473899
0.135715620127534,0.106260268866764
0.139365672348628,0.107411611904946
0.143071038771521,0.108557066866517
0.146831949788862,0.109696107958235
0.150648634860039,0.110828207303335
0.154521322542976,0.111952834928764
0.158450240526679,0.113069458751857
0.16243561566456,0.114177544566437
0.166477674008543,0.115276556028321
0.170576640843971,0.116365954640211
0.174732740725329,0.117445199735966
0.178946197512801,0.118513748464226
0.183217234409676,0.119571055771376
0.187546074000616,0.120616574383828
0.191932938290811,0.121649754789614
0.196378048746034,0.122670045219256
0.200881626333612,0.123676891625902
0.205443891564336,0.12466973766471
0.210065064535327,0.125648024671456
0.214745364973876,0.126611191640346
0.219485012282283,0.127558675201016
0.224284225583708,0.128489909594686
0.229143223769062,0.129404326649463
0.234062225544954,0.130301355754758
0.239041449482722,0.131180423834791
0.244081114068567,0.13204095532118
0.249181437754809,0.132882372124561
0.254342639012302,0.133704093605241
0.259564936384017,0.134505536542835
0.264848548539831,0.135286115104884
0.27019369433254,0.136045240814403
0.275600592855124,0.136782322516352
0.281069463499298,0.137496766342987
0.286600526015364,0.138187975678066
0.292194000573411,0.13885535111989
0.29785010782587,0.139498290443128
0.303569068971478,0.140116188559413
0.309351105820666,0.140708437476669
0.315196440862409,0.141274426257128
0.321105297332572,0.141813540974023
0.327077899283785,0.142325164666897
0.333114471656882,0.142808677295514
0.339215240353938,0.143263455692314
0.345380432312949,0.143688873513399
0.351610275584181,0.144084301187977
0.357904999408242,0.144449105866264
0.364264834295899,0.144782651365762
0.370690012109703,0.145084298115902
0.377180766147448,0.145353403100989
0.383737331227514,0.145589319801412
0.390359943776146,0.145791398133071
0.397048841916704,0.145958984384971
0.403804265560938,0.146091421154935
0.410626456502344,0.146188047283388
0.417515658511637,0.146248197785154
0.424472117434412,0.146271203779218
0.431496081291033,0.146256392416389
0.438587800378811,0.146203086804824
0.445747527376535,0.14611060593333
0.452975517451401,0.145978264592406
0.460272028368419,0.145805373292947
0.467637320602343,0.145591238182557
0.475071657452207,0.145335160959395
0.482575305158515,0.145036438783489
0.490148533023175,0.144694364185457
0.497791613532233,0.144308224972543
0.505504822481489,0.143877304131911
0.513288439105071,0.143400879731111
0.521142746207037,0.142878224815641
0.529068030296105,0.142308607303515
0.537064581723574,0.141691289876767
0.545132694824538,0.141025529869786
0.553272668062474,0.140310579154408
0.561484804177303,0.139545684021657
0.569769410337013,0.138730085060049
0.57812679829295,0.13786301703036
0.586557284538874,0.13694370873674
0.595061190473882,0.135971382894096
0.603638842569322,0.134945255991599
0.612290572539794,0.133864538152232
0.62101671751836,0.132728432988243
0.629817620236089,0.131536137452395
0.638693629206059,0.130286841684876
0.647645098911936,0.128979728855748
0.656672390001275,0.127613975002799
0.665775869483682,0.12618874886466
0.674955910933965,0.124703211709047
0.684212894700438,0.123156517155967
0.69354720811852,0.121547810995759
0.702959245729794,0.119876231001788
0.71244940950669,0.118140906737639
0.722018109082952,0.116340959358646
0.731665761990079,0.114475501407571
0.741392793899911,0.112543636604251
0.751199638873554,0.110544459629037
0.761086739616841,0.108477055899817
0.771054547742521,0.106340501342422
0.781103524039405,0.10413386215422
0.791234138748668,0.101856194560657
0.801446871847537,0.0995065445645424
0.811742213340615,0.0970839476878325
0.822120663559062,0.0945874287056764
0.832582733467887,0.092016001372468
0.843128944981643,0.0893686681396506
0.853759831288742,0.0866444198649988
0.864475937184728,0.0838422355131006
0.875277819414757,0.0809610818467489
0.886166047025614,0.077999913108938
0.897141201727567,0.0749576706951561
0.908203878266391,0.0718332828156459
0.919354684805906,0.0686256641472959
0.930594243321371,0.0653337154748115
0.941923190004109,0.0619563233208023
0.953342175677748,0.0584923595644072
0.964851866226459,0.0549406810480595
0.976452943035623,0.0513001291719879
0.988146103445339,0.0475695294760276
0.999932061217231,0.0437476912082922
