0.305140443237127,-0.821552984383944
0.220486496700881,-0.914983077856186
0.331900368745857,-0.806807943474129
0.437651697137083,-0.680593398406346
0.356050882155778,-0.787249848403011
0.25278307923213,-0.867463350395135
0.377274011478133,-0.763246406423718
0.386711973531526,-0.749721965321915
0.395339039153255,-0.735271150272039
0.403141822348898,-0.719966927475107
0.410113589273679,-0.703886622998166
0.416254408985406,-0.687111260727335
0.421571242629523,-0.669724874797678
0.426077969821014,-0.651813802546452
0.429795351554208,-0.633465964182052
0.432750929545569,-0.614770135451976
0.434978862491139,-0.595815219628636
0.43651970029427,-0.576689525111624
0.437420097885439,-0.55748005486941
0.43773247080922,-0.538271813813138
0.437514595288904,-0.519147140011552
0.436829155991881,-0.500185065420702
0.435743245204251,-0.481460711517307
0.434327817576608,-0.463044724892995
0.432657105020635,-0.445002757491186
0.430807996714025,-0.42739499575256
0.428859389506023,-0.410275742482602
0.42689151430441,-0.393693054769814
0.531236642737608,-0.285319224566729
0.423221390787764,-0.362296617636266
0.421679993478112,-0.347545332316538
0.420439610275272,-0.333455246376785
0.308797444260232,-0.434160048238757
0.419164501691911,-0.307305653128624
0.419273222392973,-0.295251909260256
0.31854220935506,-0.382595822063344
0.42131136747915,-0.273149012923611
0.423357284598291,-0.263064932060433
0.313048684082256,-0.360076706940686
0.434177146588302,-0.236344372031175
0.439465183802849,-0.228488895599541
0.353923466176022,-0.340588042157972
0.452703306544387,-0.214079566585245
0.460672644329011,-0.207420545192366
0.469541451390791,-0.201050341634101
0.479298893974695,-0.194910035476809
0.489925888322303,-0.188939286718934
0.501395171385227,-0.183076970648747
0.513671440488048,-0.177261814182663
0.526711561064836,-0.17143302773632
0.540464841001899,-0.165530926744077
0.554873369539634,-0.159497537059468
0.569872418123211,-0.153277178638383
0.585390900050344,-0.146817022126632
0.601351885249393,-0.140067613242138
0.723647957042509,-0.0416914446354405
0.634267869255652,-0.125522979439704
0.651045109782386,-0.11764989652572
0.667910680032617,-0.109332597098455
0.684767769763496,-0.100544926254286
0.701517710209089,-0.0912663327994096
0.81137470405429,0.0194759024369848
0.734296761034095,-0.0711832570742775
0.750126154270787,-0.0603670827488163
0.765450521530875,-0.04903667979462
0.689899477665864,-0.134164063630563
0.79420138578128,-0.0248753964645152
0.819815779075105,0.00115887997449057
0.831235301357606,0.0148101680182846
0.850922008842477,0.0432012392886282
0.859057053890156,0.0578560094912089
0.865976727627136,0.072754005612558
0.871633032897685,0.0878440694977759
0.875985934932248,0.103072504876833
0.87900367099339,0.118383633505374
0.78387472449968,0.0405539962940672
0.879856954524284,0.164238875152153
0.877388888090169,0.179304810987035
0.873556991799985,0.194165904206691
0.868381792487424,0.208767015951263
0.977071921738757,0.327162809055619
0.854125844556958,0.236980132870023
0.845127594767652,0.250494909169075
0.834950350047717,0.263556286393754
0.928712483365713,0.393533584693806
0.811305147008477,0.288167591527924
0.797976364488321,0.299653946361589
0.783745801709681,0.310560480047953
0.768696450935274,0.320869000959716
0.868863095345245,0.422606545492997
0.702102797840234,0.355969260179183
0.684326029925711,0.363226611323912
0.66629112204588,0.369904989201349
0.648095000495538,0.376029176277733
0.629833561090917,0.381629835573352
0.611600924578465,0.386743266541297
0.593488711458503,0.391411104384798
0.540738844440441,0.403229643945997
0.507680357819586,0.40984827484533
0.491990932443316,0.412964873952203
0.476939100278697,0.416040972677382
0.462574568862269,0.419144326689854
0.448939791033815,0.422343342261502
0.436069712396811,0.42570642082926
0.423991584440869,0.429301296828148
0.412724844552307,0.433194374825855
0.402281063550503,0.43745007202298
0.392663960795267,0.442130172161864
0.261972470661522,0.354672664270305
0.461327696569655,0.564764840453668
0.356575013639017,0.473797739035862
0.351574893624748,0.482098414548148
0.347222587747632,0.491133046146665
0.340252935419748,0.511480005283207
0.335203044322852,0.534918715251098
0.333236305632015,0.547790205002977
0.328729904247099,0.590796610215963
0.326162324944182,0.622797088961777
0.324791762985074,0.639659221745912
0.323268910483574,0.657019248556987
0.436986795994516,0.79430817961249
0.319495984935698,0.692966165105331
0.314334020377427,0.730050565828881
0.311089417829289,0.748815209724365
0.426112683114517,0.861248285640583
0.303028208818944,0.786349509419952
0.298129622672867,0.804935562394706
0.29260735129712,0.823275883756796
0.378524989160608,0.940054181115894
0.279593373228313,0.858841163723656
0.254947445483792,0.908004136327914
0.245356957623963,0.922917520092498
0.235093929199778,0.936953767150438
0.22417662233277,0.950035328167212
0.187767388865079,0.982858203359946
0.160805645376076,0.998806166777513
0.102100567921633,1.01502723073216
-0.0286172595703757,0.905040783064509
0.0712322467264626,1.01502272732234
0.0556234721033297,1.01299893625566
0.0243522141628303,1.00501639366483
0.00880527908469712,0.999126305040916
-0.0218360028700708,0.983780699218903
-0.0368280696975185,0.974440822622622
-0.0515384437236363,0.964078296285453
-0.0659250098732899,0.952767638450862
-0.0799500592455656,0.940589060935774
-0.0935806640106392,0.927627846733482
-0.00968045643302887,1.02833196432324
-0.119552639121717,0.899719980890754
-0.13185473314344,0.884963110265835
-0.155035876024142,0.854335775725137
-0.165910434795169,0.838666133537853
-0.186260524322876,0.807117357465742
-0.195766633727415,0.791436092089509
-0.204856472466511,0.775945300506256
-0.213558938078323,0.760737521735681
-0.22190788392526,0.745901435295104
-0.237703247362212,0.717675750483476
-0.245238744306984,0.704438341567526
-0.252597951052409,0.691875870499413
-0.259833314788028,0.680048456303363
-0.266999485534002,0.669008995298936
-0.281350381779176,0.649467249174885
-0.296109520604761,0.633516909341868
-0.303785230873968,0.626935613907228
-0.320004555766915,0.61658131387812
-0.328651891143802,0.612791397728474
-0.347257856711851,0.607882622488524
-0.357299216995258,0.606698958096205
-0.367880327304625,0.606306975854013
-0.494153942871913,0.48786121121803
-0.390772966906425,0.607690990373572
-0.30021050062837,0.706239504011075
-0.416099828124601,0.611560655526487
-0.429700269854099,0.614256244462911
-0.458765771321883,0.620789438906446
-0.565937837524749,0.520879243223902
-0.490225394861889,0.628304415680318
-0.577738377585217,0.646959114919308
-0.672698981728788,0.657289432566332
-0.691830184224318,0.657564408935847
-0.729590320067802,0.655867582163148
-0.766117627399496,0.650895671768284
-0.817121095922435,0.636801710682689
-0.874716474095339,0.605253632866265
-0.886783151926651,0.595147948246575
-0.916471135357085,0.5599395712593
-1.02073201348611,0.454868766005749
-0.930425048838401,0.532807241755836
-0.943516965069751,0.471664421436919
-0.942652629355262,0.438642531182482
-0.932601086865838,0.387530584062395
-0.913154444128023,0.336088891672826
-0.792780342207049,0.416747454705946
-0.875733215683841,0.269727132168003
-0.928427607557999,0.0963882687591922
-0.760034512322199,0.129873617119038
-0.739210678225274,0.10711624773009
-0.801304947046516,-0.0487138481004531
-0.69884758162797,0.0560675968330754
-0.688609835693773,0.0371529634011918
-0.680475977711523,0.00919419166976221
-0.679741700397523,-0.000221744464401707
-0.679991794921042,-0.00977166655804407
-0.686451152116981,-0.0397146991996371
-0.580558030301312,0.0670049971259994
-0.700715588137767,-0.0725188452672873
-0.706965150295901,-0.0842615959845256
-0.713853610564731,-0.096455446163354
-0.72130698899781,-0.109121057829341
-0.729246214199238,-0.122273576146375
-0.73758777642715,-0.135922370900066
-0.891665334283004,-0.323314480360272
-0.799625638492209,-0.244867260889409
-0.807883785096039,-0.26209080780472
-0.815712709006742,-0.279621137442858
-0.845495408645369,-0.369977279654342
-0.840297905859039,-0.522973276838028
-0.826960889005107,-0.551129599937878
-0.818630392024343,-0.56401906621525
-0.747477557677064,-0.621772605215995
-0.732548238691278,-0.62784049216239
-0.71690392362601,-0.632849242425341
-0.6486189459318,-0.642420238499272
-0.482308863726401,-0.612046144648058
-0.464422621071731,-0.605606660448323
-0.412984431155191,-0.584695442793549
-0.297344830342108,-0.533145228670222
-0.262540563419318,-0.521904030067389
-0.251845821019733,-0.519700007136626
-0.194502388047178,-0.525611448255562
-0.150268004892907,-0.556874029834261
0.0241300623651996,-0.508942045084701
0.0329477001681896,-0.515883279613059
-0.0460283269059025,-0.673573105048303
0.0754397161533358,-0.596781850412257
0.114590988147307,-0.804266831756362
0.0778385927078773,-0.937634396885929
0.29090175716862,-0.827038041496509
0.420623508492349,-0.719054618051575
