-0.95171411080502,0.31687285040831
-0.943529934065798,0.315432203274607
-0.935180408568411,0.314594590785024
-0.926727708751939,0.314133259856204
-0.918194969055226,0.313963838109112
-0.909596023191332,0.314035873346085
-0.900940503955386,0.314314234313353
-0.892235695929554,0.314772353799515
-0.883487404015676,0.315389061056416
-0.874700424750638,0.316146862890008
-0.865878828173935,0.31703091567614
-0.857026138601367,0.318028366070484
-0.848145456865211,0.319127905192887
-0.839239546483463,0.320319454364141
-0.830310896476546,0.321593936010507
-0.82136176844711,0.322943101961486
-0.812394232696292,0.324359401732131
-0.803410196484509,0.325835879454614
-0.794411426526909,0.327366091836276
-0.785399567168561,0.328944041873845
-0.77637615526285,0.330564124591244
-0.76734263249337,0.332221082101064
-0.758300355684923,0.333909965999876
-0.749250605512446,0.335626105606376
-0.740194593918824,0.337365080908249
-0.731133470481328,0.339122699343491
-0.722068327913742,0.340894975733898
-0.713000206851792,0.342678114832369
-0.70393010003957,0.344468496054835
-0.69485895601162,0.346262660051503
-0.685787682347558,0.348057296837129
-0.676717148562064,0.349849235251061
-0.667648188682078,0.351635433558088
-0.658581603554188,0.353412971033304
-0.649518162918104,0.355179040400028
-0.640458607276398,0.356930941010796
-0.63140364958598,0.358666072678457
-0.622353976792964,0.360381930078448
-0.61331025122939,0.362076097654879
-0.60427311188765,0.363746244972653
-0.59524317558625,0.36539012246587
-0.586221038038713,0.367005557539483
-0.577207274835871,0.368590450986849
-0.568202442350456,0.370142773690619
-0.559207078571822,0.371660563578496
-0.550221703877622,0.373141922808875
-0.541246821748489,0.374585015164369
-0.532282919431038,0.375988063633812
-0.523330468553907,0.377349348165539
-0.514389925701014,0.378667203576669
-0.505461732945773,0.379940017604814
-0.496546318349582,0.381166229090063
-0.487644096427564,0.382344326276404
-0.478755468584228,0.383472845222835
-0.469880823521458,0.38455036831544
-0.461020537620969,0.385575522872519
-0.452174975303201,0.386546979835706
-0.443344489364401,0.387463452540611
-0.434529421293491,0.388323695561187
-0.425730101570167,0.389126503622542
-0.416946849945558,0.389870710577375
-0.408179975706625,0.390555188441698
-0.399429777925401,0.391178846485832
-0.390696545694077,0.391740630377056
-0.381980558346829,0.392239521370584
-0.373282085669232,0.392674535545817
-0.36460138809603,0.393044723085087
-0.355938716897943,0.393349167592335
-0.347294314358187,0.393586985449361
-0.33866841393927,0.393757325207495
-0.330061240440627,0.393859367012691
-0.321473010147599,0.393892322062214
-0.312903930972201,0.393855432091228
-0.304354202586133,0.393747968887725
-0.295824016546399,0.393569233834359
-0.287313556413928,0.393318557475845
-0.278822997865515,0.392995299110715
-0.270352508799391,0.392598846406271
-0.26190224943473,0.392128615035704
-0.253472372405336,0.391584048336404
-0.245063022847768,0.390964616988559
-0.236674338484131,0.390269818713221
-0.228306449699734,0.389499177989074
-0.21995947961582,0.388652245787198
-0.211633544157536,0.387728599323166
-0.203328752117313,0.386727841825903
-0.195045205213806,0.385649602322719
-0.186782998146536,0.384493535440039
-0.178542218646352,0.383259321219362
-0.170322947521838,0.381946664948004
-0.162125258701767,0.380555297004276
-0.153949219273699,0.379084972716719
-0.145794889518801,0.377535472237096
-0.137662322942983,0.375906600426855
-0.1295515663044,0.374198186756824
-0.121462659637389,0.372410085219901
-0.113395636272896,0.370542174256571
-0.105350522855428,0.368594356693074
-0.0973273393565734,0.366566559692095
-0.0893260990851151,0.364458734715879
-0.0813468086937646,0.362270857501677
-0.0733894681825215,0.36000292804949
-0.065454070898675,0.357654970622066
-0.0575406035334413,0.35522703375716
-0.0496490461152326,0.352719190292086
-0.041779371999542,0.350131537400606
-0.0339315478554239,0.347464196642234
-0.0261055336485403,0.344717314024071
-0.0183012826207368,0.341891060075292
-0.0105187412661041,0.338985629934445
-0.00275784930347328,0.336001243449769
0.00498146035471403,0.332938145292724
0.0126992616372312,0.329796605084998
0.0203956353526626,0.326576917539274
0.0280706692318573,0.323279402614056
0.0357244579743352,0.319904405682916
0.0433571032987524,0.316452297718543
0.0509687139975401,0.312923475492017
0.0585594059958447,0.30931836178776
0.0661293024149088,0.305637405634695
0.0736785336400421,0.301881082554137
0.0812072373933495,0.298049894825033
0.08871555881139,0.294144371767197
0.0962036505279677,0.290165070043237
0.103671672762256,0.286112573979964
0.111119793412487,0.281987495910075
0.118548188155454,0.277790476535038
0.125957040552087,0.273522185310137
0.133346542159391,0.26918332085272
0.140716892649064,0.264774611374794
0.148068299933122,0.260296815141195
0.155400980296906,0.255750720954658
0.162715158539852,0.251137148669229
0.170011068124467,0.246456949733577
0.177288951333965,0.241711007765903
0.184549059439071,0.236900239162267
0.191791652874523,0.232025593740336
0.199017001425901,0.227088055420708
0.206225384427378,0.222088642948172
0.213417090971146,0.217028410655445
0.220592420129239,0.211908449272209
0.227751681188617,0.206729886782451
0.234895193900407,0.201493889333471
0.242023288744309,0.196201662200163
0.249136307209242,0.190854450808573
0.256234602091455,0.18545354182309
0.263318537811386,0.180000264302083
0.270388490750752,0.174495990927247
0.277444849611435,0.168942139312504
0.284488015797945,0.163340173398851
0.291518403825406,0.157691604942303
0.298536441755215,0.151997995102769
0.305542571660785,0.14626095614264
0.312537250126035,0.140482153244793
0.319520948779603,0.134663306460896
0.326494154868105,0.128806192802113
0.333457371872172,0.122912648485833
0.340411120169459,0.11698457135366
0.347355937749318,0.111023923477891
0.354292380984483,0.105032733975875
0.361221025465783,0.0990131020542539
0.368142466906745,0.0929672003080761
0.375057322125873,0.086897278303242
0.381966230115558,0.0808056664748482
0.388869853207841,0.0746947803787841
0.395768878348837,0.0685671253396124
0.402664018495454,0.0624253015444849
0.409556014150266,0.0562720096408663
0.416445635052981,0.0501100569054351
0.423333682050188,0.0439423640631002
0.430220989168827,0.0377719728490713
0.437108425923579,0.0316020544240002
0.443996899894058,0.0254359187731303
0.45088735961481,0.0192770252462566
0.457780797829925,0.0131289944274463
0.464678255175131,0.00699562156380101
0.47158082436421,0.000880891833524161
0.478489654974434,-0.00521100220137852
0.485405958948689,-0.0112756405285939
0.49233101696191,-0.0173083524668172
0.4992661858389,-0.0233041896126202
0.506212907263254,-0.0292578940785918
0.513172718088355,-0.0351638608886575
0.520147262659274,-0.041016093039544
0.527138307691157,-0.0468081472385915
0.534147760444422,-0.0525330676179745
0.541177691220207,-0.0581833036927434
0.54823036162116,-0.0637506072924006
0.555308260667706,-0.0692259008432069
0.562414151877838,-0.0745991056659547
0.569551136083837,-0.0798589128804894
0.5767227376015,-0.0849924691424847
0.583933026470324,-0.0899849308277898
0.591186799227193,-0.0948188047423544
0.598489860773949,-0.0994729201380255
0.605849495692756,-0.103920709803402
0.613275336778745,-0.108127042484713
0.620781217744974,-0.112041465984297
0.628390273030289,-0.115579607923117
0.636164677073768,-0.118514715217817
-0.95171411080502,0.31687285040831
-0.94393970676154,0.31393774311361
-0.936330651476226,0.31039960117479
-0.928824770509997,0.306485177675207
-0.921398929424008,0.302278844993895
-0.914039294505201,0.297831055328519
-0.906736232958445,0.293176939932848
-0.899482460201576,0.288343066018283
-0.892272171332752,0.283350604332978
-0.88510056981509,0.278217048070983
-0.87796358560909,0.272957240856448
-0.870857694398958,0.267584036033701
-0.863779795352412,0.262108742482894
-0.856727124951459,0.256541438883237
-0.849697194175674,0.250891202808468
-0.842687741422409,0.245166282429085
-0.835696696390526,0.239374228230038
-0.828722151819607,0.233521996079151
-0.821762340994506,0.227616029269085
-0.814815619570152,0.221662324803114
-0.807880450693162,0.215666487657311
-0.800955392679941,0.209633775719088
-0.794039088705686,0.203569137391872
-0.787130258095462,0.197477243356969
-0.780227688906383,0.191362513626693
-0.773330231561177,0.185229140763047
-0.766436793346062,0.179081109944237
-0.75954633362531,0.172922216417363
-0.752657859654831,0.166756080766493
-0.745770422900079,0.160586162341422
-0.73888311578144,0.154415771127393
-0.731995068784233,0.148248078285058
-0.725105447881518,0.142086125549627
-0.718213452226706,0.135932833646009
-0.711318312080089,0.129791009850881
-0.704419286939093,0.123663354811709
-0.69751566384681,0.117552468715645
-0.690606755857124,0.111460856887252
-0.683691900637997,0.105390934882417
-0.676770459197035,0.0993450331362397
-0.669841814715735,0.0933254012146188
-0.66290537148057,0.0873342117126026
-0.655960553900711,0.0813735638368338
-0.649006805603424,0.0754454867046608
-0.642043588599357,0.0695519423883801
-0.635070382510855,0.0636948287295979
-0.628086683857287,0.0578759819457007
-0.621092005392037,0.0520971790478541
-0.614085875486467,0.0463601400877243
-0.607067837556658,0.0406665302481908
-0.600037449529197,0.0350179617916427
-0.592994283342687,0.0294159958779902
-0.585937924482004,0.0238621442632463
-0.578867971542638,0.0183578708884111
-0.571784035822707,0.0129045933674035
-0.564685740940494,0.00750368438192078
-0.557572722475561,0.00215647299033049
-0.550444627631659,-0.00313575414297733
-0.543301114919869,-0.0083717515919573
-0.536141853860491,-0.0135503140817151
-0.528966524702398,-0.0186702754649518
-0.52177481815863,-0.0237305077576781
-0.514566435157153,-0.0287299202302148
-0.507341086605775,-0.0336674585498421
-0.500098493170323,-0.0385421039717733
-0.492838385065217,-0.0433528725754095
-0.485560501855719,-0.0480988145430835
-0.478264592271104,-0.052779013478735
-0.470950414028158,-0.0573925857641642
-0.463617733664374,-0.0619386799507012
-0.456266326380316,-0.0664164761843001
-0.448895975890643,-0.0708251856622263
-0.441506474283339,-0.0751640501196436
-0.434097621886706,-0.0794323413445444
-0.426669227143739,-0.0836293607195811
-0.419221106493508,-0.0877544387894707
-0.41175308425922,-0.091806934852744
-0.404264992542642,-0.0957862365767031
-0.396756671124601,-0.0996917596345399
-0.389227967371294,-0.103522947363643
-0.381678736146161,-0.107279270444201
-0.374108839727097,-0.110960226597266
-0.366518147728792,-0.114565340301523
-0.358906537030004,-0.11809416252805
-0.351273891705587,-0.121546270492422
-0.343620102963109,-0.124921267423562
-0.335945069083915,-0.128218782348781
-0.328248695368483,-0.131438469894505
-0.320530894085966,-0.13458001010223
-0.312791584427779,-0.137643108259276
-0.305030692465148,-0.140627494743951
-0.297248151110515,-0.143532924884798
-0.289443900082712,-0.146359178833578
-0.281617885875828,-0.14910606145174
-0.27377006173171,-0.151773402210112
-0.265900387616019,-0.154361055101592
-0.258008830197811,-0.156868898566666
-0.250095362832577,-0.159296835431572
-0.242159965548731,-0.161644792858997
-0.234202625037487,-0.163912722311183
-0.226223334646137,-0.166100599525385
-0.218222094374679,-0.168208424501602
-0.210198910875824,-0.17023622150258
-0.202153797458356,-0.172184039066078
-0.194086774093863,-0.174051950029407
-0.185997867426852,-0.17584005156633
-0.177887110788269,-0.177548465236362
-0.169754544212451,-0.179177337046603
-0.161600214457553,-0.180726837526226
-0.153424175029485,-0.182197161813782
-0.145226486209414,-0.18358852975751
-0.1370072150849,-0.184901186028868
-0.128766435584716,-0.186135400249546
-0.120504228517446,-0.187291467132225
-0.112220681613939,-0.18836970663541
-0.103915889573716,-0.189370464132673
-0.0955899541154317,-0.190294110596704
-0.0872429840315179,-0.191141042798581
-0.0788750952471211,-0.191911683522727
-0.0704864108834838,-0.192606481798065
-0.062077061325916,-0.193225913145911
-0.0536471842965216,-0.193770479845211
-0.0451969249318608,-0.194240711215777
-0.0367264358657371,-0.194637163920221
-0.0282358773173236,-0.194960422285351
-0.0197254171848533,-0.195211098643865
-0.0111952311451192,-0.195389833697232
-0.00264550275905051,-0.195497296900734
0.00592357641634689,-0.19553418687172
0.0145118067093753,-0.195501231822197
0.0231189802080177,-0.195399190017001
0.0317448806269354,-0.195228850258868
0.0403892831666913,-0.194991032401842
0.0490519543647777,-0.194686587894594
0.0577326519379802,-0.194316400355323
0.0664311246155765,-0.19388138618009
0.0751471119628251,-0.193382495186562
0.0838803441941492,-0.192820711295338
0.0926305419753731,-0.192197053251205
0.101397416214307,-0.191512575386882
0.110180667838915,-0.190768368432048
0.118979987562239,-0.189965560370694
0.12779505563315,-0.189105317350117
0.136625541571949,-0.188188844645213
0.145471103889717,-0.187217387682026
0.154331389790206,-0.186192233124946
0.163206034852976,-0.185114710032342
0.172094662696312,-0.18398619108591
0.18099688461833,-0.182808093899569
0.189912299214521,-0.18158188241432
0.198840491969762,-0.180309068386175
0.207781034822655,-0.178991212975045
0.216733485699786,-0.177629928443319
0.225697388017237,-0.176226879973875
0.23467227014637,-0.174783787618381
0.24365764484057,-0.173302428388002
0.252653008619204,-0.171784638500125
0.261657841104618,-0.170232315796355
0.270671604307461,-0.16864742234899
0.279693741854998,-0.167031987275377
0.288723678156398,-0.165388109782159
0.297760817498138,-0.163717962464385
0.306804543061712,-0.162023794887954
0.315854215854728,-0.160307937487963
0.324909173545146,-0.158572805820303
0.333968729186852,-0.156820905209534
0.343032169822936,-0.15505483584281
0.352098754950826,-0.153277298367595
0.361167714830812,-0.151491100060567
0.370238248616306,-0.149699161646635
0.379309522280368,-0.14790452486101
0.388380666308318,-0.146110360864342
0.39745077312054,-0.144319979641875
0.40651889418249,-0.142536840543405
0.415584036750076,-0.140764564152998
0.424645160187572,-0.139006945717756
0.433701171781194,-0.137267970415882
0.442750921953672,-0.135551830809383
0.451793198762118,-0.133862946910571
0.460826721531598,-0.132205989400751
0.469850133437309,-0.130585906683351
0.478861992795657,-0.129007956645783
0.487860762753257,-0.12747774426412
0.49684479896504,-0.126001266541637
0.505812334715858,-0.124584966770993
0.514761462745294,-0.123235800820013
0.523690112752211,-0.121961319173648
0.532596023133959,-0.120769770002394
0.541476704870115,-0.119670230879991
0.550329394442683,-0.118672780485646
0.559150991019386,-0.117788727699515
0.567937970284424,-0.117030925865923
0.576686262198302,-0.116414218609021
0.585391070224134,-0.11595609912286
0.59404658946008,-0.115677738155592
0.602645535323974,-0.115605702918619
0.611178275020686,-0.115775124665711
0.619630974837159,-0.11623645559453
0.627980500334546,-0.117074068084114
0.636164677073768,-0.118514715217817
