0.714553238774937,-0.636720682635154
0.723585955705883,-0.624380993919808
0.732227222611554,-0.611764121789936
0.740469109424274,-0.598882906477833
0.74830450015557,-0.585750673253978
0.755727117258268,-0.572381186148279
0.762731542941594,-0.558788600148594
0.769313237353103,-0.544987412067135
0.775468553553481,-0.530992410270496
0.781194749222895,-0.516818623473422
0.786489995050336,-0.502481268800029
0.791353379770445,-0.4879956993189
0.795784911825459,-0.473377351260482
0.799785517643159,-0.458641691126262
0.803357036534998,-0.443804162899528
0.806502212231871,-0.428880135566929
0.809224681088183,-0.41388485115868
0.811528956997983,-0.398833373513048
0.813420413079844,-0.383740537967699
0.814905260199878,-0.368620902176682
0.81599052241471,-0.353488698247183
0.816684009428341,-0.338357786384774
0.816994286168576,-0.323241610229776
0.816930639600023,-0.308153154060428
0.816503042901547,-0.293104902031036
0.815722117146402,-0.278108799605004
0.814599090633131,-0.263176217333794
0.813145756024516,-0.248317917123388
0.811374425460524,-0.233544021119792
0.809297883819119,-0.218863983334563
0.806929340306146,-0.204286564120319
0.804282378562006,-0.189819807594695
0.801370905478703,-0.175471022099395
0.798209098925904,-0.161246763768729
0.794811354588937,-0.147152823269575
0.791192232125112,-0.133194215761933
0.787366400847455,-0.11937517411633
0.783348585146767,-0.105699145411216
0.77915350986392,-0.0921687907203757
0.774795845824516,-0.0787859881871164
0.770290155747336,-0.0655518393688532
0.765650840736535,-0.0524666788225419
0.760892087565203,-0.0395300868884377
0.756027816954794,-0.0267409056167994
0.751071633050937,-0.0140972577695591
0.746036774291454,-0.0015965688166283
0.740936065856849,0.0107644081655053
0.735781873887324,0.0229895647968909
0.730586061643342,0.0350834070141683
0.7253599477791,0.0470510221335755
0.72011426688994,0.0588980434931917
0.714859132485681,0.0706306128204268
0.709604002532348,0.0822553404799189
0.704357647694567,0.0937792637655208
0.699128122400249,0.105209803407942
0.69392273883807,0.116554718476794
0.68874804398661,0.127822059862263
0.683609799762127,0.139020122527388
0.67851296635956,0.15015739672688
0.673461688848807,0.161242518392621
0.668459287075452,0.172284218889394
0.66350824890209,0.183291274346941
0.658610226813221,0.194272454776273
0.653766037893428,0.205236473179018
0.648975667175242,0.216191934858753
0.644238274339831,0.227147287142504
0.639552203740426,0.238110769719039
0.634914997705311,0.249090365798209
0.630323413064301,0.260093754292352
0.625773440829916,0.271128263216832
0.621260328952064,0.282200824501909
0.61677860805295,0.293317930402674
0.612322120037204,0.304485591687388
0.607884049460922,0.315709297777604
0.603456957532479,0.326993979005693
0.59903281860764,0.338343971147041
0.594603059031703,0.349762982375145
0.590158598172227,0.361254062778271
0.585689891477293,0.372819576566126
0.58118697538635,0.384461177084388
0.576639513913447,0.396179784743719
0.57203684671614,0.407975567958377
0.567368038457576,0.419847927177527
0.562621929264256,0.431795482080112
0.557787186077737,0.443816061991518
0.5528523546951,0.455906699567479
0.547805912290415,0.468063627777652
0.542636320207614,0.480282280208181
0.537332076814241,0.492557294689294
0.531881770205421,0.50488252024081
0.526274130548089,0.517251027315125
0.520498081857063,0.529655121304168
0.514542792996929,0.542086359263742
0.508397727706857,0.554535569795858
0.502052693449484,0.56699287601704
0.495497888889761,0.57944772152826
0.488723949815199,0.591888899290145
0.481721993315252,0.604304583295493
0.474483660044575,0.61668236291991
0.467001154402602,0.629009279820675
0.459267282470255,0.641271867243693
0.451275487553603,0.653456191588728
0.443019883193855,0.665547896074045
0.434495283513242,0.677532246333108
0.425697230776992,0.689394177768201
0.416622020062735,0.701118344478721
0.407266720940238,0.712689169575516
0.397629196076315,0.724090896686985
0.38770811669204,0.73530764245779
0.377502974811944,0.746323449836925
0.367014092257699,0.757122341948614
0.356242626351761,0.767688376337033
0.345190572309566,0.778005699374181
0.333860762312094,0.788058600619456
0.322256861263826,0.797831566919454
0.310383359254337,0.807309336037422
0.298245560754904,0.816476949603434
0.285849570594505,0.825319805178911
0.273202276772413,0.833823707232412
0.260311330177188,0.841974916827768
0.247185121294175,0.84976019983055
0.233832753995607,0.857166873444527
0.220264016519019,0.864182850896252
0.206489349750856,0.870796684093004
0.192519812942885,0.876997604087202
0.17836704699922,0.882775559188893
0.164043235481427,0.88812125057704
0.149561063488238,0.893026165270079
0.134933674574862,0.897482606326451
0.120174625884636,0.901483720156653
0.105297841672877,0.905023520839538
0.0903175654091701,0.908096911347345
0.0752483106499452,0.910699701595938
0.0601048108780748,0.912828623249165
0.0449019685103203,0.914481341218886
0.0296548032767152,0.915656461815142
0.0143784001784573,0.916353537514022
-0.0009121427674713,0.916573068323975
-0.0162017667879241,0.916316499744626
-0.0314755044084391,0.915586217325464
-0.0467185310951436,0.914385537845047
-0.0619162162772312,0.912718697144581
-0.0770541735460287,0.910590834662798
-0.0921183098299752,0.908007974731948
-0.107094873348972,0.904977004707375
-0.121970500156432,0.901505650015493
-0.13673225908305,0.897602446217039
-0.151367694902689,0.893276708194101
-0.165864869547931,0.888538496580658
-0.180212401210603,0.883398581567112
-0.194399501171114,0.877868404219512
-0.208416008209457,0.871960035463871
-0.222252420460462,0.865686132895049
-0.235899924586072,0.859059895578111
-0.249350422148157,0.852095017017906
-0.262596553076583,0.844805636479654
-0.275631716138851,0.837206288849749
-0.288450086329616,0.829311853231598
-0.301046629110741,0.821137500476157
-0.313417111445075,0.812698639850935
-0.325558109580035,0.804010865054474
-0.337467013550022,0.795089899785758
-0.349142028379842,0.785951543079671
-0.360582171984508,0.776611614620346
-0.371787269773993,0.767085900244263
-0.382757945984724,0.757390097844038
-0.393495611772674,0.747539763882129
-0.404002450115885,0.737550260721174
-0.414281397587045,0.727436704974273
-0.424336123069265,0.717213917074428
-0.434171003500434,0.706896372257351
-0.443791096743493,0.696498153146197
-0.453202111691424,0.686032904120286
-0.462410375726914,0.675513787642737
-0.471422799667216,0.664953442714069
-0.480246840334878,0.654363945610304
-0.488890460904516,0.643756773054988
-0.497362089184802,0.6331427679648
-0.505670574003106,0.622532107898155
-0.513825139867926,0.611934276325423
-0.521835340091187,0.601358036828141
-0.529711008558719,0.590811410322919
-0.53746221034272,0.580301655393712
-0.545099191354744,0.569835251803745
-0.552632327241662,0.559417887245737
-0.560072071730191,0.549054447376217
-0.567428904627895,0.538749009166629
-0.574713279690039,0.528504837590806
-0.581935572562351,0.518324385655091
-0.589106029009549,0.50820929776416
-0.596234713638476,0.498160416402346
-0.603331459322865,0.48817779209712
-0.610405817534063,0.478260696618372
-0.617467009778569,0.468407639354325
-0.624523880338988,0.458616386792313
-0.631584850509895,0.44888398502039
-0.638657874514336,0.439206785153745
-0.645750397280081,0.429580471578383
-0.652869314247511,0.420000092893336
-0.660020933373037,0.410460095422055
-0.667210939483332,0.400954359153479
-0.674444361126465,0.391476235963666
-0.681725540056158,0.382018589959935
-0.689058103475068,0.372573839781055
-0.696444939152136,0.363134002679369
-0.703888173517685,0.353690740203715
-0.711389152828281,0.344235405295759
-0.718948427481195,0.334759090606793
-0.726565739545936,0.325252677837336
-0.734240013567606,0.315706887897865
-0.741969350683904,0.306112331685871
-0.749751026084538,0.296459561272068
-0.757581489828592,0.286739121287071
-0.765456371022105,0.276941600299141
-0.773370485344878,0.267057681973779
-0.781317845902234,0.257078195806889
-0.789291677364323,0.246994167225047
-0.797284433342562,0.236796866849044
-0.805287816939976,0.226477858720307
-0.813292804399627,0.216029047294028
-0.821289671763077,0.205442723007855
-0.829268024438856,0.194711606240782
-0.837216829569432,0.183828889483372
-0.845124451074011,0.172788277547695
-0.852978687233939,0.16158402565325
-0.860766810677353,0.150210975233713
-0.86847561061019,0.138664587318538
-0.876091437131769,0.12694097335318
-0.883600247464834,0.115036923332007
-0.890987653922344,0.102949931128806
-0.898238973426361,0.0906782169209844
-0.905339278388213,0.0782207466153119
-0.912273448753629,0.0655772481950198
-0.919026225011917,0.052748224920483
-0.925582261964341,0.03973496532831
-0.931926183043805,0.026539549986516
-0.938042634975698,0.0131648549764805
-0.943916342568312,-0.000385447914493478
-0.949532163420698,-0.0141068942929963
-0.95487514233602,-0.0279942335414786
-0.959930565229609,-0.0420414384589744
-0.964684012322781,-0.0562417181241219
-0.969121410416259,-0.0705875339310769
-0.973229084040587,-0.0850706187362085
-0.976993805285249,-0.0996819990409583
-0.980402842113372,-0.114412020124072
-0.98344400497478,-0.12925037402457
-0.986105691536774,-0.144186130265371
-0.988376929359393,-0.159207769196458
-0.990247416349922,-0.174303217825989
-0.991707558840082,-0.189459887997695
-0.992748507138662,-0.204664716763504
-0.993362188422201,-0.219904208791476
-0.993541336836754,-0.235164480640936
-0.993279520694714,-0.250431306729145
-0.992571166661993,-0.265690166807015
-0.991411580842691,-0.280926294755285
-0.989796966680516,-0.296124728507189
-0.987724439608674,-0.311270360899063
-0.985192038392705,-0.326347991246566
-0.982198733123677,-0.341342377441162
-0.978744429832276,-0.356238288359367
-0.974829971707551,-0.371020556375896
-0.970457136917383,-0.385674129771341
-0.965628633041041,-0.400184124825323
-0.960348088137432,-0.414535877387208
-0.954620038485859,-0.428714993718465
-0.94844991304905,-0.442707400403531
-0.941844014721115,-0.45649939312966
-0.934809498435578,-0.470077684140643
-0.927354346220946,-0.48342944817445
-0.91948733930319,-0.496542366700801
-0.911218027366001,-0.509404670281324
-0.902556695090805,-0.522005178882366
-0.893514326109096,-0.53433333997854
-0.884102564509713,-0.546379264293829
-0.874333674053207,-0.558133759036373
-0.86422049525432,-0.569588358492929
-0.853776400501874,-0.580735351859465
-0.843015247392956,-0.591567808195231
-0.831951330465155,-0.602079598399026
-0.820599331516787,-0.612265414118183
-0.808974268710427,-0.622120783512886
-0.797091444659716,-0.631642083810918
-0.784966393703233,-0.640826550600627
-0.772614828572262,-0.64967228382282
-0.760052586661485,-0.658178250435382
-0.747295576113031,-0.666344283737585
-0.734359721924839,-0.674171079354331
-0.721260912294019,-0.681660187893775
-0.708014945404777,-0.688814004305016
-0.694637476868507,-0.695635753975607
-0.681143968020903,-0.702129475621596
-0.667549635277328,-0.70830000103554
-0.653869400743348,-0.71415293177042
-0.640117844272122,-0.719694612849561
-0.626309157154485,-0.724932103604481
-0.61245709762086,-0.729873145754022
-0.598574948326825,-0.734526128849097
-0.584675475986077,-0.738900053217854
-0.5707708933059,-0.743004490556053
-0.556872823370914,-0.746849542316794
-0.542992266611038,-0.750445796062552
-0.52913957047918,-0.753804279950589
-0.515324401953275,-0.756936415530275
-0.501555722965939,-0.759853969037623
-0.487841768853269,-0.762569001378338
-0.474190029902165,-0.765093816995981
-0.460607236063172,-0.76744091182632
-0.447099344883125,-0.769622920542642
-0.433671532698982,-0.771652563299695
-0.420328189121194,-0.773542592185981
-0.407072914821769,-0.775305737595383
-0.393908522628984,-0.776954654729486
-0.380837041917469,-0.778501870441541
-0.367859726269227,-0.779959730631742
-0.354977064368042,-0.78134034840139
-0.342188794076865,-0.782655553170618
-0.329493919635003,-0.783916840960589
-0.316890731899518,-0.785135326036604
-0.304376831543057,-0.786321694103203
-0.291949155108565,-0.787486157236339
-0.279604003809908,-0.788638410730877
-0.267337074956498,-0.789787592034188
-0.255143495869541,-0.790942241928454
-0.243017860147591,-0.792110268115448
-0.23095426612973,-0.793298911348172
-0.218946357395949,-0.794514714243708
-0.206987365136172,-0.795763492901116
-0.195070152211939,-0.797050311437216
-0.183187258728008,-0.79837945954159
-0.171330948925167,-0.799754433140293
-0.159493259200236,-0.801177918245549
-0.147666047054826,-0.802651778056141
-0.135841040770683,-0.804177043360472
-0.124009889606605,-0.805753906281221
-0.112164214309843,-0.807381717387418
-0.100295657733661,-0.809058986186496
-0.0883959353523655,-0.810783384995556
-0.0764568854654883,-0.812551756177816
-0.0644705188841314,-0.81436012271694
-0.0524290678945515,-0.816203702088831
-0.0403250342969439,-0.818076923377465
-0.0281512363211693,-0.819973447568596
-0.0159008542256012,-0.821886190942649
-0.00356747439060433,-0.823807351475913
0.00885486827581013,-0.825728438147314
0.0213716497958915,-0.82764030303661
0.033987818611811,-0.82953317608887
0.0467077592672199,-0.831396702409613
0.0595352584319784,-0.833219981945016
0.072473473412029,-0.83499161139224
0.0855249032763654,-0.836699728176135
0.0986913627226161,-0.83833205632049
0.111973958791769,-0.839875954034531
0.125373070531164,-0.841318462828636
0.138888331693075,-0.842646357967275
0.152518616544029,-0.843846200061872
0.166262028847577,-0.844904387601909
0.180115894070485,-0.845807210218851
0.194076754849438,-0.846540902474674
0.208140369742226,-0.847091697964722
0.222301715274298,-0.847445883523405
0.236554991278263,-0.847589853320931
0.250893629510791,-0.847510162639675
0.265310305518181,-0.847193581120149
0.279796953708815,-0.84662714526863
0.294344785577891,-0.845798210021492
0.308944311017103,-0.844694499165015
0.32358536262961,-0.843304154414042
0.338257122958473,-0.841615782958161
0.352948154525116,-0.839618503290178
0.367646432562935,-0.837301989138491
0.382339380320447,-0.834656511332465
0.397013906797894,-0.831672977438123
0.411656446771469,-0.828342969010302
0.426253002950042,-0.82465877631686
0.440789190100641,-0.820613430400529
0.455250280970959,-0.816200732354563
0.469621253829839,-0.811415279699339
0.483886841440101,-0.806252489758537
0.498031581272209,-0.800708619945418
0.512039866762172,-0.794780784881898
0.52589599941273,-0.78846697028567
0.539584241533403,-0.781766043573362
0.553088869412167,-0.774677761140747
0.566394226709732,-0.767202772294067
0.579484777866261,-0.759342619819835
0.592345161310126,-0.751099737193691
0.604960242258988,-0.742477442442172
0.617315164904784,-0.733479928684467
0.629395403776607,-0.724112251394283
0.641186814078431,-0.714380312434928
0.652675680802592,-0.70429084093337
0.663848766424567,-0.693851371071539
0.674693356990068,-0.683070216885212
0.68519730641166,-0.671956444172651
0.695349078799024,-0.660519839626476
0.70513778865464,-0.648770877313184
0.714553238774937,-0.636720682635154
