0.256524942967309,-0.607320681563106
0.256513623941624,-0.607253255769485
0.256488103978884,-0.607049304664081
0.256461015509194,-0.606706348237475
0.256444934941059,-0.606221952255928
0.256452351494872,-0.605593734486511
0.256495636246488,-0.604819370871544
0.256587011450713,-0.603896601638402
0.25673852021393,-0.602823237330782
0.256961996584293,-0.60159716474776
0.257269036126973,-0.600216352777099
0.257670967050875,-0.598678858109543
0.258178821951986,-0.596982830821018
0.25880331023715,-0.595126519810009
0.259554791290542,-0.593108278077629
0.260443248443428,-0.590926567838278
0.261478263806043,-0.588579965449114
0.262668994018438,-0.586067166146984
0.264024146975133,-0.583386988581834
0.265551959576215,-0.580538379136109
0.267260176555217,-0.577520416020062
0.269156030431729,-0.574332313133415
0.271246222634142,-0.570973423684306
0.273536905835345,-0.567443243556975
0.276033667541448,-0.563741414420218
0.278741514970826,-0.559867726569149
0.28166486125788,-0.555822121493462
0.284807513012945,-0.551604694165898
0.288172659266756,-0.54721569504532
0.291762861824771,-0.542655531789336
0.295580047053498,-0.537924770672118
0.29962549911778,-0.533024137703652
0.303899854684739,-0.527954519447349
0.308403099106795,-0.522716963533572
0.31313456409287,-0.517312678867331
0.318092926873566,-0.511743035529041
0.323276210862755,-0.506009564367916
0.328681787814664,-0.500113956288269
0.334306381472215,-0.494058061229613
0.340146072699011,-0.487843886842181
0.34619630608408,-0.481473596860109
0.35245189800514,-0.474949509175213
0.358907046132947,-0.468274093614931
0.365555340356,-0.46144996942867
0.372389775101746,-0.454479902487403
0.379402763027278,-0.447366802202036
0.386586150049456,-0.440113718166628
0.393931231681381,-0.432723836533199
0.401428770639244,-0.425200476125413
0.409069015680695,-0.417547084299013
0.416841721633148,-0.409767232557442
0.424736170567749,-0.401864611931596
0.432741194072201,-0.393843028133206
0.440845196573116,-0.385706396491812
0.449036179656292,-0.377458736685782
0.457301767331,-0.369104167278271
0.46562923218229,-0.36064690006944
0.474005522353338,-0.352091234276667
0.482417289297949,-0.343441550554842
0.490850916241658,-0.334702304869192
0.499292547288223,-0.325878022233414
0.50772811710691,-0.316973290326162
0.516143381134591,-0.307992752999221
0.524523946225602,-0.298941103690921
0.532855301681207,-0.289823078758554
0.541122850589732,-0.280643450743725
0.549311941407673,-0.271407021584721
0.55740789971157,-0.262118615790073
0.565396060050011,-0.2527830735876
0.573261797824934,-0.243405244063225
0.580990561131281,-0.233989978303921
0.588567902484157,-0.224542122559091
0.595979510362892,-0.215066511434657
0.603211240501775,-0.205567961134044
0.610249146857812,-0.196051262760162
0.617079512186548,-0.1865211756923
0.623688878157864,-0.176982421051722
0.630064074944661,-0.167439675269533
0.63619225021853,-0.157897563770131
0.642060897487802,-0.148360654783343
0.647657883714819,-0.138833453298011
0.652971476150882,-0.129320395169498
0.657990368329061,-0.119825841393229
0.662703705156893,-0.110354072556012
0.667101107053032,-0.100909283476482
0.671172693074008,-0.0914955780455881
0.674909102979488,-0.0821169642775941
0.67830151818681,-0.0727773495815948
0.681341681568011,-0.0634805362630504
0.684021916045151,-0.0542302172643323
0.686335141942378,-0.0450299721527374
0.688274893055992,-0.0358832633638731
0.689835331406546,-0.026793432707748
0.69101126064001,-0.0177636981443136
0.691798138048002,-0.0087971508346048
0.692192085180141,0.000103247526993339
0.692189897024737,0.00893466709444576
0.69178904973721,0.0176944119614703
0.690987706898821,0.0263799219590219
0.689784724291631,0.0349887741558947
0.688179653178831,0.0435186840601372
0.686172742082969,0.0519675065196441
0.683764937057897,0.0603332363209524
0.680957880453633,0.0686140084859485
0.67775390817668,0.0768080982668568
0.674156045451676,0.0849139208405555
0.670168001093598,0.0929300307039331
0.66579416030305,0.100855120772658
0.661039576000441,0.1086880211864
0.655909958718107,0.116427697824186
0.650411665072654,0.12407325053422
0.644551684842942,0.131623911083126
0.638337626682218,0.139079040830199
0.631777702495969,0.146438128132858
0.624880710520015,0.153700785490081
0.617656017136247,0.160866746431187
0.610113537466237,0.167935862157905
0.602263714785645,0.174908097948187
0.594117498804979,0.18178352933078
0.585686322864784,0.18856233804004
0.576982080095725,0.195244807761001
0.568017098596377,0.201831319675128
0.558804115683649,0.208322347817646
0.549356251272889,0.214718454257752
0.539686980446615,0.221020284113386
0.529810105272614,0.227228560412627
0.519739725933844,0.23334407881407
0.509490211234071,0.239367702198912
0.499076168544562,0.245300355147674
0.488512413258411,0.251143018314809
0.477813937820134,0.256896722714617
0.466995880399133,0.262562543932085
0.456073493276395,0.268141596272452
0.445062111014441,0.273635026863395
0.433977118480986,0.279044009723856
0.422833918797134,0.284369739813556
0.411647901281028,0.289613427077337
0.400434409457946,0.294776290498399
0.389208709207616,0.299859552174534
0.377985957119251,0.304864431431353
0.366781169124305,0.309792138986443
0.355609189476345,0.314643871178219
0.344484660146629,0.319420804273149
0.33342199070307,0.324124088864769
0.322435328739147,0.328754844377744
0.311538530918128,0.333314153689961
0.300745134696548,0.337803057885363
0.2900683307894,0.342222551149942
0.279520936437808,0.346573575822966
0.269115369538162,0.350857017615156
0.25886362368977,0.355073701005154
0.248777244216024,0.359224384825205
0.238867305211883,0.363309758046534
0.229144387668212,0.367330435774459
0.219618558721072,0.371286955462778
0.210299352071556,0.375179773356484
0.201195749619155,0.379009261171319
0.192316164348914,0.382775703018168
0.183668424509828,0.386479292579685
0.175259759119066,0.390120130546018
0.167096784823611,0.39369822231587
0.159185494147915,0.397213475968547
0.15153124515303,0.40066570051201
0.144138752529537,0.404054604411338
0.137012080143402,0.407379794401345
0.130154635050629,0.410640774586459
0.123569162993294,0.413836945830318
0.117257745386247,0.416967605436861
0.111221797800439,0.420031947124049
0.105462069945471,0.423029061290653
0.0999786471506385,0.425957935575913
0.0947709533403668,0.428817455711167
0.0898377554966346,0.431606406661909
0.085177169597623,0.434323474058059
0.0807866680185558,0.436967245909564
0.0766630883774231,0.439536214603815
0.0728026438050553,0.442028779180702
0.0692009346158325,0.444443247880504
0.065852961352191,0.446777840959171
0.0627531391730169,0.44903069376498
0.0598953135530215,0.451199860069891
0.0572727772572622,0.453283315648393
0.0548782885521292,0.455278962096046
0.0527040906113581,0.457184630879361
0.0507419320729598,0.458998087608139
0.0489830887003921,0.460717036520884
0.0474183860988335,0.462339125173405
0.0460382234350632,0.463861949320239
0.0448325981072145,0.46528305797811
0.0437911313085486,0.466599958660193
0.0429030944274009,0.467810122769562
0.0421574362235888,0.468910991139826
0.0415428107198356,0.469899979710622
0.0410476057451742,0.470774485325303
0.0406599720658376,0.47153189163788
0.040367853037836,0.472169575116012
0.0401590147142579,0.4726849111266
0.0400210763393188,0.473075280090372
0.0399415411603214,0.473338073691618
0.0399078274879833,0.473470701129157
0.0399072999350379,0.473470595394467
0.0399273007626177,0.473335219562847
0.0399551812636928,0.473062073083437
0.0399783331127572,0.472648698053904
0.0399842196110345,0.472092685465609
0.0399604067567115,0.471391681405156
0.0398945940701021,0.470543393198254
0.0397746451041937,0.469545595481973
0.0395886175717381,0.468396136191612
0.0393247930209027,0.467092942448557
0.0389717059925165,0.465634026335729
0.0385181725931014,0.464017490547443
0.0379533184191914,0.462241533900776
0.0372666057698919,0.460304456695826
0.0364478600862283,0.458204665912571
0.0354872955575605,0.455940680232377
0.0343755398372052,0.4535111348726
0.0331036578114033,0.450914786223093
0.0316631743678855,0.448150516273904
0.0300460961125274,0.44521733682385
0.028244931984943,0.442114393460177
0.0262527127263228,0.438840969299955
0.0240630091553956,0.435396488484434
0.0216699492110573,0.431780519418077
0.0190682337229684,0.427992777744557
0.0162531508742689,0.424033129052595
0.0132205893234848,0.41990159130506
0.00996704995569817,0.415598336985414
0.00648965623612172,0.411123694956145
0.00278616314234298,0.406478152024495
-0.00114503534531735,0.401662354211426
-0.00530490021265967,0.396677107720389
-0.00969374285373997,0.391523379603162
-0.0143112219970513,0.386202298120637
-0.019156342123201,0.380715152797138
-0.0242274533781985,0.375063394167514
-0.0295222529831153,0.369248633216906
-0.0350377881375384,0.363272640513797
-0.0407704604108905,0.357137345037577
-0.0467160316123653,0.350844832702572
-0.0528696311269118,0.344397344581115
-0.0592257647014296,0.337797274828924
-0.0657783246620791,0.33104716831667
-0.0725206015404209,0.324149717972308
-0.0794452970829343,0.317107761839326
-0.0865445386153725,0.309924279856746
-0.0938098947303816,0.302602390367254
-0.101232392263839,0.295145346360501
-0.108802534522492,0.287556531459141
-0.11651032072266,0.279839455655773
-0.124345266597074,0.271997750809471
-0.132296426124276,0.264035165911143
-0.140352414332521,0.255955562127425
-0.148501431127692,0.247762907633345
-0.156731286092449,0.239461272244423
-0.165029424201654,0.23105482185932
-0.173382952397069,0.222547812724563
-0.181778666962373,0.21394458553326
-0.19020308163776,0.205249559370087
-0.198642456411737,0.196467225515153
-0.207082826926169,0.187602141119656
-0.215510034429291,0.178658922766537
-0.223909756210145,0.169642239929564
-0.232267536446804,0.160556808344516
-0.240568817399844,0.151407383306316
-0.248798970881716,0.142198752906121
-0.256943329932036,0.132935731222514
-0.264987220628373,0.123623151481015
-0.27291599396177,0.114265859196218
-0.28071505770608,0.104868705310889
-0.288369908210227,0.0954365393463312
-0.295866162042611,0.085974202578347
-0.303189587417263,0.0764865212530029
-0.310326135331748,0.0669782998563615
-0.317261970347532,0.0574543144521872
-0.323983500944239,0.0479193061014811
-0.330477409380206,0.0383779743775298
-0.336730680992825,0.0288349709899129
-0.342730632873387,0.0192948935306821
-0.348464941852541,0.00976227935564158
-0.353921671733995,0.000241599613358054
-0.359089299715753,-0.00926274656580764
-0.363956741939996,-0.0187464377087133
-0.368513378114623,-0.0282052354549454
-0.372749075151542,-0.0376349898176888
-0.376654209768987,-0.0470316442392664
-0.380219690007421,-0.0563912404310971
-0.383436975611006,-0.0657099229883292
-0.386298097229136,-0.0749839437698902
-0.388795674395158,-0.0842096660352301
-0.3909229322421,-0.093383568329573
-0.392673716918072,-0.102502248110062
-0.394042509666831,-0.111562425105749
-0.395024439542041,-0.120560944404979
-0.395615294726732,-0.129494779264348
-0.395811532432605,-0.138361033633982
-0.395610287356959,-0.147156944394591
-0.395009378678236,-0.155879883302318
-0.394007315574427,-0.164527358638117
-0.392603301251861,-0.173097016559002
-0.390797235475213,-0.181586642149219
-0.388589715592904,-0.189994160170015
-0.385982036055392,-0.198317635507387
-0.382976186427244,-0.206555273317842
-0.379574847897167,-0.214705418872875
-0.375781388293584,-0.22276655710355
-0.371599855616603,-0.230737311847223
-0.367034970100571,-0.238616444799123
-0.362092114824638,-0.246402854172133
-0.356777324892015,-0.2540955730688
-0.351097275201757,-0.261693767570208
-0.345059266840066,-0.269196734546989
-0.338671212121158,-0.276603899198358
-0.331941618310731,-0.28391481232568
-0.324879570068032,-0.291129147347618
-0.317494710645327,-0.298246697064533
-0.309797221886383,-0.305267370180333
-0.301797803068194,-0.312191187590509
-0.29350764863279,-0.31901827844561
-0.284938424858424,-0.325748875999906
-0.276102245521765,-0.332383313255463
-0.267011646605006,-0.338922018412299
-0.257679560103878,-0.345365510135716
-0.248119286994581,-0.35171439265231
-0.238344469419497,-0.357969350686523
-0.228369062153296,-0.364131144249964
-0.218207303412613,-0.370200603296036
-0.207873685073974,-0.376178622252701
-0.197382922365914,-0.382066154446482
-0.186749923102413,-0.38786420643103
-0.175989756525805,-0.393573832233785
-0.165117621828141,-0.399196127534455
-0.154148816420728,-0.40473222378914
-0.143098704022108,-0.410183282314081
-0.131982682635114,-0.415550488343076
-0.12081615248392,-0.420835045072638
-0.109614483982057,-0.426038167709025
-0.0983929858022782,-0.431161077531218
-0.0871668731189496,-0.436204995983909
-0.0759512360932354,-0.441171138814454
-0.0647610086707755,-0.446060710267668
-0.0536109377609005,-0.450874897352165
-0.0425155528654978,-0.455614864191812
-0.03148913622471,-0.460281746475626
-0.0205456935454123,-0.464876646019245
-0.00969892537715597,-0.469400625450819
0.00103780080119159,-0.473854703033894
0.0116514777225149,-0.478239847639533
0.0221294846402902,-0.482556973879574
0.0324596127472076,-0.486806937412567
0.0426300896474946,-0.490990530433504
0.052629602829059,-0.49510847735807
0.0624473220837409,-0.49916143071166
0.0720729208263603,-0.503149967232969
0.0814965962656909,-0.507074584201444
0.0907090883830597,-0.510935695997386
0.0997016976769517,-0.514733630902964
0.108466301634734,-0.518468628151827
0.116995369895488,-0.522140835234467
0.125281978070833,-0.525750305465865
0.133319820193666,-0.52929699582138
0.141103219767751,-0.532780765046209
0.148627139394289,-0.536201372043135
0.155887188954701,-0.539558474542638
0.162879632332164,-0.542851628058797
0.169601392657633,-0.546080285133761
0.176050056069419,-0.549243794872911
0.182223873978718,-0.552341402772169
0.188121763836784,-0.555372250838233
0.193743308402835,-0.558335378001877
0.199088753515089,-0.561229720823738
0.204159004370703,-0.564054114491405
0.208955620323681,-0.56680729410589
0.213480808213174,-0.569487896254973
0.217737414237834,-0.57209446087019
0.22172891439514,-0.574625433363626
0.225459403507853,-0.577079167040034
0.228933582862859,-0.579453925779132
0.232156746490787,-0.581747886982371
0.235134766117832,-0.583959144777805
0.237874074824142,-0.586085713476133
0.240381649446058,-0.588125531270403
0.242664991762267,-0.590076464171295
0.244732108506649,-0.591936310169379
0.246591490253241,-0.593702803615196
0.248252089221218,-0.595373619807528
0.249723296050238,-0.596946379779734
0.251014915598772,-0.598418655273569
0.252137141820236,-0.599787973889474
0.253100531773772,-0.601051824401907
0.253915978828503,-0.602207662227909
0.254594685121832,-0.60325291503673
0.25514813333405,-0.604184988488017
0.255588057843049,-0.605001272085772
0.25592641532428,-0.605699145134973
0.256175354862384,-0.606275982787568
0.256347187641955,-0.606729162164277
0.256454356285891,-0.607056068538486
0.256509403910512,-0.60725410156835
0.256524942967309,-0.607320681563106
