0.506197663354589,0.493617998163453
0.502928857550592,0.485920099446767
0.500340094849498,0.477834835168701
0.498175665447731,0.469507862525378
0.496340422482669,0.460993378990012
0.494777470932806,0.452323793055316
0.49344719322881,0.44352167164671
0.492319629485204,0.434604080488125
0.491370905416479,0.42558461882933
0.490581293920591,0.41647452360505
0.489934055819575,0.407283329771292
0.489414696377113,0.398019293807163
0.489010462551525,0.388689680089184
0.488709988600644,0.379300962761532
0.488503037730497,0.369858972897895
0.488380308466426,0.360369008796186
0.488333286114851,0.350835920588763
0.488354126532844,0.341264176449506
0.488435563609284,0.331657915294316
0.488570834514284,0.322020989360479
0.488753618507638,0.312356999062538
0.488977986261562,0.302669321859035
0.489238357453839,0.292961136408259
0.489529464949923,0.283235442970816
0.489846324295076,0.273495080787482
0.490184207530627,0.263742742993968
0.490538620564938,0.253980989510847
0.490905283491969,0.244212258254479
0.491280113373457,0.23443887494461
0.491659209095275,0.224663061730478
0.492038837981933,0.214886944815453
0.49241542391065,0.205112561227487
0.492785536711913,0.195341864856756
0.493145882679717,0.185576731861214
0.4934932960438,0.175818965524166
0.493824731279829,0.166070300634537
0.494137256152723,0.156332407449525
0.494428045404089,0.146606895290362
0.494694375007807,0.136895315814439
0.494933616928605,0.127199166000924
0.495143234327532,0.117519890881817
0.495320777165783,0.107858886046091
0.495463878164775,0.0982174999409187
0.495570249085727,0.0885970359908834
0.49563767729667,0.0789987545534859
0.495664022598683,0.0694238747269759
0.495647214286573,0.0598735760246464
0.495585248422094,0.0503489999280594
0.495476185300316,0.0408512513302521
0.495318147091924,0.0313813998787268
0.495109315646124,0.0219404812269595
0.494847930440465,0.0125294982022189
0.494532286665347,0.00314942189666761
0.494160733432235,-0.00619880731200162
0.493731672095717,-0.0155142788047773
0.493243554680513,-0.0247961108253267
0.492694882405444,-0.0340434496392158
0.492084204297081,-0.0432554687442218
0.491410115886544,-0.0524313681280006
0.490671257983465,-0.0615703735697166
0.489866315521728,-0.0706717359825511
0.488994016472039,-0.0797347307942836
0.48805313081685,-0.0887586573633858
0.487042469583517,-0.0977428384282944
0.485960883931966,-0.106686619587724
0.484807264293411,-0.115589368810068
0.483580539556998,-0.124450475970091
0.482279676301468,-0.133269352411275
0.480903678069209,-0.142045430532299
0.479451584680235,-0.150778163396275
0.477922471583868,-0.159467024361449
0.476315449246042,-0.168111506732198
0.474629662570325,-0.176711123429238
0.472864290350907,-0.185265406678026
0.471018544755923,-0.193773907714462
0.469091670839613,-0.202236196506997
0.467082946081937,-0.210651861494394
0.464991679954361,-0.21902050933839
0.462817213510639,-0.227341764690595
0.460558919001482,-0.235615269973007
0.458216199512117,-0.243840685171549
0.455788488621795,-0.252017687642129
0.453275250084394,-0.260145971928694
0.450675977529302,-0.268225249592858
0.447990194181867,-0.276255249054658
0.445217452602732,-0.284235715444075
0.442357334445418,-0.292166410462952
0.439409450231612,-0.300047112256991
0.436373439143614,-0.307877615297526
0.433248968833475,-0.315657730272809
0.430035735248399,-0.323387283988548
0.426733462472,-0.331066119277494
0.423341902581082,-0.338694094917849
0.419860835517597,-0.34627108556034
0.416290068975534,-0.353796981663784
0.412629438302457,-0.361271689439003
0.408878806415513,-0.368695130800982
0.405038063731702,-0.376067243329148
0.401107128112271,-0.383387980235695
0.397085944821118,-0.390657310341892
0.392974486497104,-0.397875218062312
0.388772753140231,-0.405041703396956
0.384480772111635,-0.412156781931249
0.380098598147419,-0.419220484843924
0.375626313386336,-0.426232858922785
0.371064027411386,-0.433193966588407
0.366411877305423,-0.440103885925804
0.361670027720881,-0.446962710724153
0.356838670963772,-0.453770550524639
0.351918027092143,-0.460527530676534
0.346908344029193,-0.467233792401635
0.341809897691305,-0.473889492867193
0.336622992131276,-0.480494805267498
0.331347959697055,-0.4870499189143
0.325985161206342,-0.493555039336263
0.320534986137451,-0.500010388387687
0.314997852836858,-0.506416204366727
0.309374208743924,-0.512772742143404
0.303664530633298,-0.519080273297679
0.297869324875593,-0.52533908626794
0.291989127716931,-0.531549486510238
0.286024505578062,-0.537711796668668
0.279976055373757,-0.543826356757303
0.273844404853305,-0.549893524354147
0.267630212962955,-0.555913674807591
0.261334170231238,-0.561887201455897
0.254956999178195,-0.567814515860301
0.248499454749586,-0.573696048052353
0.241962324777276,-0.579532246796154
0.235346430467076,-0.585323579866246
0.228652626915416,-0.591070534341912
0.221881803656363,-0.596773616918777
0.215034885240595,-0.602433354238593
0.208112831848098,-0.60805029323825
0.201116639936484,-0.613625001519068
0.194047342927012,-0.619158067737564
0.186906011930536,-0.624650102018975
0.179693756515842,-0.630101736394907
0.172411725523005,-0.635513625266645
0.165061107924666,-0.640886445895753
0.157643133738376,-0.64622089892376
0.150159074993429,-0.651517708922884
0.142610246755939,-0.656777624979946
0.134998008216275,-0.66200142131578
0.127323763843318,-0.667189897942732
0.119588964610494,-0.672343881363023
0.111795109298986,-0.677464225311088
0.10394374588407,-0.682551811543259
0.0960364730111616,-0.687607550678549
0.0880749415687942,-0.692632383094649
0.0800608563665676,-0.697627279883722
0.0719959779269324,-0.702593243873037
0.0638821244006837,-0.70753131071607
0.0557211736171359,-0.712442550060324
0.0475150652812188,-0.717328066798835
0.039265803331179,-0.722189002413165
0.0309754584722089,-0.727026536416608
0.0226461709032295,-0.731841887907414
0.0142801532562115,-0.736636317243082
0.00587969376993333,-0.741411127848197
-0.00255284027701999,-0.74616766816993
-0.0110149988458454,-0.750907333797255
-0.0195042450975901,-0.755631569762173
-0.0280179509969835,-0.760341873043851
-0.0365533925179042,-0.76503979529968
-0.04510774440196,-0.769726945850891
-0.0536780744140695,-0.774404994954684
-0.0622613370299004,-0.779075677399982
-0.0708543664791909,-0.783740796470092
-0.0794538690559344,-0.788402228322966
-0.0880564145906195,-0.793061926848782
-0.0966584269604645,-0.797721929075491
-0.105256173489979,-0.802384361206462
-0.113845753065037,-0.807051445390934
-0.122423082747375,-0.811725507348654
-0.130983882630953,-0.81640898499598
-0.139523658624133,-0.821104438253487
-0.148037682768243,-0.825814560256885
-0.156520970608548,-0.83054219024695
-0.164968255010498,-0.835290328484287
-0.173373955651879,-0.840062153627186
-0.181732143204906,-0.84486104313419
-0.190036496929373,-0.849690597419841
-0.198280253995392,-0.854554668721424
-0.206456148291845,-0.859457395954842
-0.214556335675801,-0.864403247293973
-0.22257230145368,-0.869397072871177
-0.230494744150826,-0.874444170984365
-0.238313426973265,-0.879550372707227
-0.246016984178829,-0.884722152183939
-0.253592662725841,-0.889966773791021
-0.261025967877979,-0.895292494007581
-0.268300160457282,-0.900708847789627
-0.275395513361702,-0.906227072071883
-0.282288152305733,-0.911860766104117
-0.288948117403897,-0.917626995610262
-0.295335791086862,-0.923548327515736
-0.301394278333121,-0.929657170313254
-0.307028432280055,-0.936007721476028
-0.311982543124085,-0.942745638200184
0.506197663354589,0.493617998163453
0.501243552510559,0.486880081439297
0.495609398563625,0.480529530276523
0.489550911317366,0.474420687479005
0.483163237634401,0.468499355573531
0.476503272536237,0.462733126067386
0.469610633592206,0.457099432035152
0.462515280687786,0.451581207752896
0.455241088108483,0.44616485397085
0.447807782956345,0.44083913375429
0.440232104409333,0.435594512147208
0.432528547203769,0.430422732670496
0.424709864381331,0.425316530947634
0.416787421684184,0.420269432834446
0.408771455906305,0.415275607257242
0.400671268522349,0.410329755918111
0.392495374225896,0.405427028684693
0.384251617159877,0.40056295738311
0.37594726343541,0.395733403097459
0.367589075882383,0.390934513590455
0.359183375241002,0.386162688447556
0.350736090839052,0.381414550210219
0.342252802998747,0.376686920220154
0.333738778854637,0.371976798216756
0.325199002861456,0.367281344959249
0.316638202977879,0.362597867311923
0.308060873295541,0.357923805354203
0.299471293720483,0.353256721169731
0.290873547190968,0.34859428903876
0.282271534821124,0.343934286812051
0.273668989286439,0.339274588286235
0.265069486709695,0.334613156433361
0.256476457260404,0.329948037363251
0.247893194644573,0.325277354917953
0.239322864632464,0.32059930581416
0.230768512748408,0.315912155262949
0.222233071227487,0.311214233007119
0.213719365328094,0.306503929725442
0.20523011907635,0.301779693760525
0.196767960507524,0.297040028133199
0.188335426460571,0.292283487811466
0.179934966974292,0.287508677206351
0.171568949327274,0.282714247870683
0.163239661758295,0.277898896379878
0.154949316899325,0.273061362376434
0.146700054949285,0.268200426762104
0.138493946613368,0.263314910023593
0.13033299582982,0.258403670679339
0.122219142303572,0.253465603836306
0.114154263863936,0.248499639846991
0.10614017866171,0.243504743057918
0.0981786472193424,0.238479910641818
0.0902713743464336,0.233424171506528
0.0824200109315181,0.228336585274357
0.0746261556200098,0.223216241326292
0.0668913563871865,0.218062257906001
0.0592171120142291,0.212873781279049
0.0516048734745648,0.207649984943215
0.0440560452370754,0.202390068886153
0.0365719864921275,0.197093258887028
0.0291540123058378,0.191758805859022
0.0218033947074991,0.186385985229914
0.0145213637146616,0.180974096358176
0.00730910829996778,0.175522461982244
0.000167777303492322,0.170030427700833
-0.00690151970597996,0.164497361482336
-0.0138977116175937,0.158922653201519
-0.0208197650100911,0.153305714201862
-0.0276666834258588,0.147645976882046
-0.0344375066849117,0.141942894305181
-0.0411313102365716,0.136195939829514
-0.0477472045467718,0.130404606759423
-0.0542843345190817,0.124568408015622
-0.060741878947691,0.11868687582357
-0.0671190500007341,0.112759561419166
-0.0734150927324509,0.10678603477086
-0.0796292846228011,0.100765884317416
-0.0857609351432526,0.0946987167205714
-0.0918093853475577,0.0885841566319366
-0.0977740074864273,0.0824218464735071
-0.103654204645089,0.076211446231209
-0.109449410402794,0.0699526332609481
-0.11515908851342,0.0636451021066732
-0.120782732606354,0.0572885643299963
-0.126319865906947,0.0508827483509557
-0.131770040975838,0.0444273992995321
-0.137132839466551,0.0379222788775686
-0.142407871900772,0.031367165230767
-0.147594777460801,0.0247618528304616
-0.152693223798689,0.0181061523649036
-0.157702906861639,0.0113998906398027
-0.162623550733268,0.0046429104879078
-0.167454907490377,-0.00216492931257789
-0.172196757074919,-0.00902375411092723
-0.176848907180882,-0.0159336734483244
-0.181411193155832,-0.0228947811139457
-0.185883477916915,-0.029907155192807
-0.190265651881131,-0.036970858105482
-0.194557632909727,-0.0440859366397754
-0.1987593662666,-0.0512524219744186
-0.202870824590614,-0.0584703296948389
-0.206892007881767,-0.0657396598010364
-0.210822943501198,-0.0730603967075834
-0.214663686185009,-0.0804325092357488
-0.218414318071953,-0.0878559505977282
-0.22207494874503,-0.0953306583729475
-0.225645715287093,-0.102856554476391
-0.229126782350578,-0.110433545118882
-0.232518342241496,-0.118061520759237
-0.235820615017895,-0.125740356048183
-0.239033848602971,-0.133469909763922
-0.24215831891311,-0.141250024739205
-0.245194330001108,-0.14908052777974
-0.248142214214914,-0.156961229573779
-0.251002332372228,-0.164891924592656
-0.253775073951363,-0.172872390982073
-0.256460857298798,-0.180902390443873
-0.25906012985389,-0.188981668108037
-0.261573368391291,-0.197109952394602
-0.264001079281613,-0.205286954865182
-0.266343798770978,-0.213512370063724
-0.268602093280135,-0.221785875346136
-0.270776559723857,-0.230107130698341
-0.272867825851433,-0.238475778542337
-0.274876550609109,-0.246891443529734
-0.276803424525419,-0.255353732322269
-0.278649170120403,-0.263862233358705
-0.280414542339821,-0.272416516607493
-0.282100329015538,-0.281016133304533
-0.283707351353364,-0.289660615675282
-0.285236464449731,-0.298349476640456
-0.286688557838705,-0.307082209504432
-0.288064556070964,-0.315858287625456
-0.289365419326494,-0.32467716406664
-0.290592144062907,-0.333538271226663
-0.291745763701462,-0.342441020449007
-0.292827349353013,-0.351384801608436
-0.293838010586346,-0.360368982673345
-0.294778896241535,-0.369392909242447
-0.295651195291224,-0.37845590405418
-0.296456137752961,-0.387557266467015
-0.29719499565604,-0.396696271908731
-0.297869084066577,-0.405872171292509
-0.29847976217494,-0.415084190397515
-0.299028434450009,-0.424331529211404
-0.299516551865213,-0.433613361231954
-0.299945613201731,-0.442928832724729
-0.300317166434843,-0.452277061933399
-0.300632810209961,-0.46165713823895
-0.30089419541562,-0.471068121263691
-0.30110302686142,-0.480509039915458
-0.301261065069812,-0.489978891366983
-0.30137012819159,-0.49947663996479
-0.301432094056069,-0.509001216061377
-0.301448902368179,-0.518551514763707
-0.301422557066166,-0.528126394590217
-0.301355128855223,-0.537724676027614
-0.301248757934271,-0.54734513997765
-0.301105656935279,-0.556986526082823
-0.300928114097028,-0.566647530918548
-0.300718496698101,-0.576326806037655
-0.300479254777303,-0.58602295585117
-0.300212925173585,-0.595734535327093
-0.299922135922219,-0.605460047486256
-0.299609611049325,-0.615197940671268
-0.299278175813296,-0.624946605560897
-0.298930762449213,-0.634704371897945
-0.298570416481409,-0.644469504893487
-0.298200303680146,-0.654240201264218
-0.297823717751429,-0.664014584852184
-0.297444088864771,-0.673790701767209
-0.297064993142953,-0.683566514981341
-0.296690163261465,-0.69333989829121
-0.296323500334434,-0.703108629547578
-0.295969087300123,-0.712870383030699
-0.295631204064572,-0.722622720824214
-0.295314344719419,-0.732363083007547
-0.295023237223335,-0.74208877644499
-0.294762866031058,-0.751796961895765
-0.294538498277134,-0.761484639099269
-0.29435571428378,-0.77114862939721
-0.29422044337878,-0.780785555331047
-0.29413900630234,-0.790391816486237
-0.294118165884347,-0.799963560625494
-0.294165188235922,-0.809496648832917
-0.294287917499993,-0.818986612934626
-0.29449486837014,-0.828428602798263
-0.294795342321021,-0.837817320125915
-0.295199576146609,-0.847146933843894
-0.295718935589072,-0.856410969808023
-0.296366173690087,-0.865602163641781
-0.297155785185975,-0.874712258866061
-0.2981045092547,-0.883731720524856
-0.299232072998306,-0.892649311683441
-0.300562350702302,-0.901451433092047
-0.302125302252165,-0.910121019026743
-0.303960545217227,-0.918635502562109
-0.306124974618994,-0.926962475205432
-0.308713737320088,-0.935047739483498
-0.311982543124085,-0.942745638200184
