0.801839003432864,-0.368100320623666
0.804348460524161,-0.394958045139365
0.799623760658784,-0.366506477084259
0.79868966462651,-0.336146690428094
0.793354481727108,-0.361293668648206
0.82600259693843,-0.365959286971482
0.810730325096112,-0.353280161534889
0.778366547980007,-0.335008549622696
0.771375455521418,-0.344140410277199
0.798813316014316,-0.326710258439109
0.735930909091009,-0.324745226163784
0.755330046549676,-0.30656781269746
0.714158312285532,-0.268177389312384
0.734429167466317,-0.281460842246328
0.717979941407719,-0.25068889539029
0.706729245756387,-0.245670919063025
0.712385262790586,-0.233033466034362
0.699919649418876,-0.242060145223037
0.687670905167593,-0.191964505522228
0.693804047754555,-0.174929717101359
0.68879684416134,-0.15371759758788
0.689727985299028,-0.128494315421678
0.689721395097199,-0.134556564939834
0.689022146277844,-0.0768536021126197
0.71052489280388,-0.0516284641605585
0.675729415669613,-0.0377917821997526
0.689830062478974,-0.0221860555851129
0.677544153527181,0.0521284986122096
0.67402232605527,0.0232393620682118
0.658465822817288,0.0815935135985225
0.685974966903758,0.0849369178755099
0.710411685402985,0.100209343941127
0.668518647535791,0.113137026366438
0.703396588025614,0.156054007431374
0.710879848511157,0.178696343117016
0.741482130198211,0.187689494739848
0.725446804389305,0.223382171518333
0.737492773025957,0.242114529492478
0.747491965538735,0.261480537113318
0.773773018541599,0.276689775050072
0.752920442369751,0.292763076711641
0.792123849791468,0.307771257743435
0.790673003497265,0.328404202550659
0.80175085308219,0.34229000500801
0.815983070065924,0.329001055618564
0.823489074805065,0.366493680411495
0.851000133561265,0.401258874355542
0.843938642586801,0.385948980297068
0.8540391672688,0.394450927345374
0.914079580429405,0.359765482475718
0.894745564368942,0.370431630091344
0.877585856235477,0.411394041217657
0.889207208057193,0.44048088771971
0.889244055906079,0.418159049414041
0.909003780747338,0.416740986492852
0.915778694878474,0.450047872681424
0.887596154083857,0.388643293391341
0.875821242367379,0.468923915175858
0.877382402564777,0.424902488517624
0.904001645349853,0.401166359408582
0.91807761696019,0.423634608577172
0.868234059632547,0.42622531467049
0.882884764555662,0.423151369742957
0.845662753350765,0.418836436985547
0.866475192886342,0.418001711242721
0.828950929357752,0.460965440345174
0.842218370904478,0.398936833921663
0.839569985423842,0.396914017639777
0.82602630035242,0.382483198097658
0.816855089952226,0.414133374324627
0.801930942716831,0.407293993441902
0.772926558352034,0.427443298315772
0.726674782470557,0.431608810522289
0.729413081988234,0.469526062652205
0.719209220631756,0.443194876853276
0.700168711520482,0.450420070288401
0.711908077738056,0.453982345399992
0.661033558925305,0.467991830059427
0.641162150254916,0.478355893468057
0.594157680400988,0.48392587051526
0.601372110399895,0.502206237466734
0.581674467707428,0.51564786776799
0.581443472259508,0.535724452816071
0.558525385542065,0.549298680385429
0.485709209373555,0.542639161488097
0.531237160233892,0.628291947106876
0.505508124432558,0.619741588069077
0.387340705728104,0.731266039275272
0.338994319518978,0.729259618905182
0.565402170548923,0.809484116797329
0.427947157155725,0.672545806083403
0.523494828403682,0.575060917223981
0.397676147655901,0.755102578867874
0.396449152778848,0.719484979401191
0.289869188365169,0.847713949662999
0.499173877118979,0.842156863915534
0.365151697503053,0.792346814542745
0.289288050550804,0.910927775397636
0.26701538053629,0.737896727591377
0.35495720592008,0.866190755649844
0.367019800803503,0.845847755018007
0.436372406390261,0.801319845118702
0.249020500459703,1.01882689532802
0.426035666415425,0.822569246701353
0.221234802772206,1.053553966925
0.237605327883727,0.835414443382483
0.234592024095464,0.836148779340492
0.430519433984798,0.866583201507547
0.455536528720229,1.05888977217169
0.234521334140704,1.08833576875338
0.266420933485871,1.08594067883509
0.246785199130772,0.875416767428578
0.195627498968695,1.09832945538906
0.225200572966268,0.875564123865441
0.259934360831399,1.10695492370679
0.180452237039345,1.10637051427675
0.338885551806869,0.980728230763013
0.331178651099343,0.960596799017659
0.331694436508465,0.999647653507905
0.330443923041422,1.02370126784407
0.332822225377154,0.989200074833609
0.350022859552654,0.959548096232142
0.318861287838782,0.955397581206926
0.321229129621616,0.948165184431627
0.338366119466698,0.969186054801526
0.29032032123405,0.92336403605492
0.308883684980432,0.883201442513812
0.27203773784247,0.906828879258417
0.294702139068011,0.890230563951869
0.268037742731987,0.88390315922905
0.285130376786178,0.893105829811153
0.213310400708909,0.863938023856991
0.21483001364159,0.828729830615313
0.177217510002853,0.843516910653017
0.138419884656785,0.870635600503289
0.150029612678495,0.835595677722493
0.11581514986591,0.816377820481667
0.0937032246479652,0.808602242810966
0.0500539934733627,0.793418380881426
0.0244007306540397,0.788795066479628
0.0236854389392637,0.790043371941817
-0.0177540433388249,0.766106418303689
-0.0572961542306222,0.775143326889788
-0.049695772172402,0.779607191007001
-0.0762470772748159,0.757312653204026
-0.100334300642669,0.785134273333143
-0.0598487965871909,0.753130794214506
-0.143468711183638,0.729095979108877
-0.172984403948772,0.779375213064511
-0.167999175064224,0.776387187370618
-0.217186326242879,0.788574385925533
-0.23909222256707,0.793309193114582
-0.248384317352031,0.813030335873017
-0.280418831283543,0.804817378118919
-0.277156663850049,0.834205197073459
-0.300046613789155,0.806999124567889
-0.306736461675741,0.835159332638533
-0.351054857751603,0.833665048573384
-0.363778081450595,0.838898683139241
-0.389947150733979,0.86642960306782
-0.364968452709056,0.835683237916992
-0.379500266947214,0.862440769582335
-0.396241127603008,0.879149673519638
-0.414342836703643,0.872177949830334
-0.429024487735552,0.886212430904548
-0.43530118722506,0.892221615190398
-0.45663324364127,0.90565901579255
-0.435325615607497,0.928341281263583
-0.456700734690546,0.869369141890323
-0.449574527558801,0.908456541946522
-0.493758253461252,0.917164465109837
-0.464534340929582,0.931686189694175
-0.443435965572154,0.902453701479762
-0.456654348449414,0.942573275571513
-0.456512256137948,0.88940973154146
-0.460662224890977,0.909707420799543
-0.424444336904007,0.876387986308655
-0.441792348416926,0.88823477529633
-0.417300814192152,0.911530313830908
-0.436758652251684,0.870286568707414
-0.434362533378034,0.859356234897409
-0.43218711216699,0.84715770689856
-0.445199426268641,0.808191067523243
-0.428900728404737,0.819123920178523
-0.424416986308221,0.772569834372611
-0.430907232129661,0.7929267034921
-0.428018407158,0.768855397532563
-0.445752944961711,0.745090887776458
-0.409934460852814,0.76390942402692
-0.433869723525905,0.710568580270719
-0.448146359832011,0.693424268571194
-0.44229253188683,0.668504543262681
-0.447974942171163,0.646825131226277
-0.415665601057059,0.615773701447832
-0.449329469887305,0.573146401256246
-0.471094674137171,0.580530684129424
-0.507356243848749,0.573569207963919
-0.488450689314048,0.53139130277295
-0.486537885840438,0.444023320202454
-0.510506017982673,0.473403168273702
-0.543700340971208,0.464482229816023
-0.549891462324045,0.441335727103123
-0.527552509996376,0.402890358710736
-0.573749513303649,0.413786429117155
-0.589851308846092,0.395744562438159
-0.606417634843612,0.378591387929058
-0.631529077977744,0.350792890386625
-0.640551246865401,0.347175106945062
-0.660657172481046,0.326141851869973
-0.691101393662449,0.331897247569317
-0.721666392399681,0.298925847770231
-0.707291543260617,0.301839929639091
-0.726757425058904,0.287091736351333
-0.748457793681207,0.276308685031996
-0.755704052236016,0.290732032310932
-0.778325740803705,0.254818718410243
-0.785831910543884,0.259084415333215
-0.8085678440902,0.258535000696201
-0.809445953174017,0.25397870952584
-0.808936988700236,0.255095148828637
-0.814698760689824,0.227224694488845
-0.827695640182953,0.252637743788864
-0.854108603380216,0.265238734111957
-0.897159550901761,0.241719677707564
-0.861308872794506,0.244141346161735
-0.87576754492233,0.240154797055335
-0.879170564221526,0.24023199670608
-0.904331124590904,0.247782978799582
-0.859019477630581,0.208264435594579
-0.874124431798356,0.225462517264007
-0.858320849473049,0.23584810426843
-0.875885262095755,0.239197915438387
-0.884654447439681,0.250637723125706
-0.8654839456646,0.236171936871256
-0.875791930531889,0.271278088246832
-0.850434904029494,0.230494991132659
-0.830160979412495,0.235062738679157
-0.839030955169994,0.216973567530587
-0.809272793528478,0.210822451078447
-0.808751125808946,0.208683960169705
-0.767597782596155,0.228120149191528
-0.783567306637978,0.191611229524547
-0.776217258699592,0.189783059292781
-0.756585973292589,0.170045360405386
-0.768381294414601,0.147828776726039
-0.728683752622046,0.143900422547037
-0.729408702443908,0.177867975156218
-0.700743215612571,0.113256581148951
-0.687028287330719,0.0963176660626284
-0.716565608409937,0.111247074177855
-0.660621248568509,0.0594327220692583
-0.648120254612935,0.0396054177875406
-0.636205396590902,0.0189484404890453
-0.625849992281379,-0.00196138321499791
-0.63162893852186,-0.0424587069204704
-0.599994831856734,-0.00876508196729561
-0.595888682366944,-0.0702726478541883
-0.587942890593225,-0.0937462607839776
-0.571803154325132,-0.106649831691241
-0.574850635402134,-0.123115498988704
-0.580136950381068,-0.182284661158676
-0.581920270688478,-0.21457741971343
-0.53040680148696,-0.220643640814588
-0.569328139248092,-0.194735283359232
-0.562307208972662,-0.246153791144104
-0.559156679870847,-0.281443129047951
-0.519379142463933,-0.268132420437423
-0.570064952620227,-0.303005815301151
-0.563345785780214,-0.34454422170863
-0.643209255266839,-0.333961697167825
-0.569630725919657,-0.382261475338875
-0.542915658353306,-0.392412537066546
-0.579949839581321,-0.440839540711666
-0.590169755518849,-0.412164332724675
-0.557976592488939,-0.435691062880958
-0.576369260704044,-0.467227942450642
-0.565778361064334,-0.449966772649489
-0.612306201185526,-0.453502356085239
-0.607466734490622,-0.487286311025212
-0.632865317866693,-0.51605772394892
-0.636330761923545,-0.513824321676399
-0.606849251493906,-0.503120181373909
-0.617366845242969,-0.523823218158287
-0.644996817176231,-0.507367760102875
-0.655204819856878,-0.513025994832917
-0.6188273139335,-0.515837676673651
-0.610101250091131,-0.511809561021957
-0.621044508965254,-0.527532321228108
-0.603454928169592,-0.517305478052398
-0.623992025785645,-0.52401053509642
-0.612872575481062,-0.504101675435047
-0.605829564646616,-0.499345660504116
-0.599051236591129,-0.495875378677469
-0.626659558572016,-0.489057348180654
-0.579656205139954,-0.489378684850912
-0.529076408399639,-0.444981081384526
-0.52509175296821,-0.505396253061781
-0.542087811838988,-0.472237056534714
-0.542934865081902,-0.440947093635518
-0.52373852804088,-0.446314213332026
-0.493275960955173,-0.460191058315976
-0.44731822381983,-0.433023004849637
-0.446564402908291,-0.474673714966988
-0.438046257154104,-0.48331092433836
-0.414059315560406,-0.451938657020299
-0.392264820550106,-0.451777135120629
-0.369864501392532,-0.45249295250133
-0.346962490741493,-0.454128667279576
-0.353678728703266,-0.443669676394617
-0.300087570145253,-0.460281122233044
-0.303105269863841,-0.463613432142976
-0.229577496168104,-0.446388293106724
-0.228778709134021,-0.476900377652328
-0.209303804362319,-0.521627688740357
-0.192810435085067,-0.494816994270438
-0.119111494193592,-0.493769837456574
-0.136530950651202,-0.512299467868143
-0.12169719450456,-0.483768943606745
-0.0935085850556727,-0.534941499786647
-0.0865272368793827,-0.563534259471202
-0.0611093700739564,-0.570967694889224
-0.0287200555734741,-0.616129274932902
-0.0171928948919876,-0.5873330899882
-0.00996255450466563,-0.625030843008854
0.0150478786373997,-0.615632549918121
0.0343758035947981,-0.643716903792832
0.0733698271167305,-0.589985932522133
0.0667324457383926,-0.65891073090156
0.0632798104731582,-0.673047917508779
0.0984620090516775,-0.666527053696696
0.0736441550193142,-0.710851362462327
0.0787518641178547,-0.746430923965495
0.0993488916202798,-0.723116315687664
0.158069454421981,-0.752246274232467
0.103326969948678,-0.779237008892001
0.113620958846563,-0.753444536354664
0.115487422077697,-0.755535182171718
0.118989535290838,-0.768606322331788
0.126909760777148,-0.758657622250488
0.121802567950822,-0.779067238976308
0.141305299893997,-0.755044368780466
0.106803126371409,-0.782988578321892
0.0919041444062606,-0.789100757805072
0.172946299793406,-0.805307927183439
0.129824227082156,-0.79368520876402
0.109779560753224,-0.732584029889147
0.102176752005169,-0.77817039272009
0.123397253403335,-0.768155201254277
0.124246941483707,-0.760806372824804
0.125583139460044,-0.752220231244854
0.118051583605184,-0.736442868130176
0.11166852082299,-0.750661319528538
0.133415594682078,-0.719629657194485
0.134528878495852,-0.711912661178738
0.137112451165689,-0.67510665226646
0.148612563759441,-0.678376693178556
0.144736996026404,-0.664961274683057
0.170412927050495,-0.690949704515424
0.172730461336816,-0.630948099307609
0.178063998447911,-0.640272203265282
0.232186724795338,-0.576426524338385
0.22466599256322,-0.548053248021159
0.241958135580285,-0.561449975132603
0.261340805140917,-0.544555459024716
0.223150888891164,-0.523865859133452
0.269669790063693,-0.522443675866063
0.284155226332051,-0.496288368805553
0.288894270080816,-0.43305308952266
0.321698920753958,-0.465400562797545
0.349316652947085,-0.443399069111139
0.361892583022041,-0.399653768173631
0.378272070171293,-0.412418280823439
0.404863167820489,-0.412048406861079
0.426800690896504,-0.400847562532108
0.426642843337848,-0.406973614498132
0.471326950478087,-0.38132839865382
0.487780032410262,-0.383384594657086
0.515983684117894,-0.365807863112748
0.538079513194315,-0.359566710004414
0.554172217685265,-0.342576700488493
0.574081063626641,-0.351183300610616
0.602097601862758,-0.346765584571424
0.585008872844903,-0.307876295864565
0.651668714987887,-0.343277293116851
0.631734262463306,-0.365183850964045
0.648273612204243,-0.360281261284861
0.695026254162682,-0.342772040147499
0.710642021145785,-0.31014576683424
0.734980965897742,-0.322305359801324
0.750887302084456,-0.370738229652525
0.768932125238166,-0.351242910437938
0.756957897726902,-0.319533945287543
0.771302661768522,-0.355622415257133
0.767448212200595,-0.348728034143807
0.788545488869116,-0.393760587348013
0.770100997231439,-0.383350337049612
0.80819269638307,-0.361526200979253
0.77631741956331,-0.366109995275209
0.779653241583002,-0.370488046438432
0.761359080401457,-0.382439678133973
