-0.21063350905778,-0.183417140758909
-0.205515346313038,-0.191582259306693
-0.20010396744978,-0.199621654093273
-0.194402252380759,-0.207524917939439
-0.188413446844959,-0.215281701569142
-0.18214116157809,-0.222881726364299
-0.175589371041479,-0.230314797123526
-0.168762411708306,-0.237570814809618
-0.161664979906698,-0.244639789270502
-0.15430212921968,-0.251511851918372
-0.146679267442528,-0.258177268351687
-0.138802153098578,-0.26462645090469
-0.130676891515096,-0.270849971109141
-0.122309930461317,-0.276838572052966
-0.113708055351307,-0.282583180620597
-0.104878384014818,-0.28807491959981
-0.0958283610398325,-0.293305119639982
-0.0865657516910209,-0.298265331046776
-0.0770986354088516,-0.302947335398386
-0.0674353988946078,-0.307343156968614
-0.0575847287870832,-0.311445073942193
-0.0475556039372316,-0.315245629407973
-0.0373572872875499,-0.318737642115741
-0.0269993173634703,-0.321914216982684
-0.0164914993845284,-0.324768755335719
0.00493318231738397,-0.329486869353344
0.0158291872851029,-0.331338817934564
0.0268333430978259,-0.332845494258001
0.0379346571020202,-0.334001925156875
0.0491219307730017,-0.334803489042346
0.0603837710083419,-0.335245923933579
0.0717086017226898,-0.335325335123559
0.0830846757322173,-0.33503820246964
0.0945000869165013,-0.334381387298206
0.105942782645272,-0.333352138913207
0.117400576457091,-0.331948100698742
0.128861160976665,-0.330167315806292
0.140312121057157,-0.328008232417652
0.151740947133542,-0.325469708575021
0.163135048772711,-0.322551016570221
0.174481768405781,-0.319251846885449
0.185768395227723,-0.315572311678461
0.196982179249217,-0.311512947805584
0.20811034548534,-0.307074719376441
0.219140108265503,-0.302259019834802
0.230058685648805,-0.297067673560485
0.240853313928789,-0.291502936987741
0.251511262211412,-0.285567499236143
0.262019847049846,-0.279264482250467
0.27236644711963,-0.272597440446683
0.282538517917514,-0.265570359861653
0.292523606467271,-0.258187656804747
0.302309366015638,-0.250454176010125
0.311883570701485,-0.242375188289002
0.321234130181268,-0.23395638768179
0.33034910419376,-0.225203888110584
0.339216717047092,-0.216124219533028
0.347825372011082,-0.206724323599172
0.356163665597908,-0.197011548813522
0.364220401714203,-0.186993645205038
0.371984605667695,-0.176678758508438
0.37944553801166,-0.166075423860717
0.386592708210482,-0.155192559017369
0.393415888109802,-0.144039457093386
0.40605075562072,-0.120961544425883
0.411843416998519,-0.109057124842009
0.417274060921563,-0.0969232327500292
0.422333965215953,-0.0845709129694663
0.427014745900141,-0.0720115324996264
0.431308368838355,-0.0592567701226488
0.43520716107299,-0.0463186055917754
0.438703821821411,-0.0332093084147948
0.444463470121734,-0.00652777287754589
0.446713810973043,0.00701858409813241
0.448536746357813,0.0206843360432629
0.449926988594581,0.0344559463343049
0.451455183767646,0.0762674251233636
0.451070504629694,0.0903230188641427
0.450233307628828,0.104413848355847
0.448941002141799,0.118525301424448
0.44719147067414,0.132642638031558
0.444983074331834,0.146751005631842
0.439185553774147,0.174880954745776
0.435595586974797,0.188872409796173
0.427034843792197,0.216632572675938
0.422066204918118,0.230370908754821
0.416640982463649,0.243994489323998
0.410761501770918,0.257488137243525
0.397651589649377,0.28402511073386
0.382765160215384,0.309861383750625
0.374666919791914,0.322479470660164
0.366138953850808,0.334877853057137
0.357187103158525,0.347041941092729
0.338037576414387,0.370609646823191
0.327854035882996,0.381984906897371
0.317274872439208,0.393069190436498
0.306308353234932,0.403848828834141
0.294963214947489,0.414310386884211
0.271174335658286,0.434226784217146
0.258750354030723,0.443656063581557
0.232896017715382,0.461395083667498
0.219488035871128,0.469681088134523
0.205775120718646,0.477562823701774
0.191769484457937,0.485029282453473
0.177483730776782,0.492069826211267
0.133077435366461,0.510535418299635
0.117804675826966,0.515773789270361
0.102320280259638,0.520539069626624
0.0707756864441137,0.528618243285383
0.02224859086329,0.537000362874234
0.0058131943227896,0.538772505544132
-0.0107250814340751,0.540024548223229
-0.0273497274493337,0.540751771023473
-0.0607911355296599,0.540615512982478
-0.0943753595959014,0.538336617200234
-0.144717172651615,0.530863079340223
-0.17805117376035,0.523166784969944
-0.194597116353372,0.518505174237138
-0.211038770826342,0.51330291305471
-0.22735844809903,0.507561967601561
-0.243538480192902,0.501284883434291
-0.259561239224284,0.494474786085208
-0.275409156455369,0.487135381037281
-0.291064741382603,0.479270953073013
-0.336704171980688,0.452579037717322
-0.351417755796921,0.442668893879586
-0.379994473080053,0.421371388740132
-0.393824576200109,0.410000007806063
-0.407327525981225,0.398158451019128
-0.420487390920155,0.38585608362711
-0.433288506123327,0.373102809051428
-0.445715491434972,0.359909061344299
-0.457753269353328,0.346285797036866
-0.480602512123949,0.317797104013884
-0.511599727498917,0.272145625641753
-0.521004776814249,0.256203430050879
-0.538348358641604,0.223316807699866
-0.553658565644021,0.18919445833245
-0.560523642640025,0.1717091375773
-0.566848333891117,0.153962764560115
-0.572622994100526,0.135972082799082
-0.577838498167351,0.117754184741869
-0.582486253606982,0.0993264955579337
-0.586558212465046,0.0807067564943517
-0.592945339087635,0.0429635713116827
-0.596946804391063,0.00467222229115576
-0.598382954239986,-0.0534602375481752
-0.596250343943307,-0.0924520018615432
-0.59424892800948,-0.111959625775228
-0.591621984425035,-0.131448431700755
-0.588368725394173,-0.150898319428879
-0.574852905084827,-0.208812578674883
-0.569099497405498,-0.227904748102781
-0.562725601954336,-0.246856899838688
-0.548129540363894,-0.284260442901598
-0.539915614389127,-0.302671650011494
-0.52168149238516,-0.338813208515188
-0.511673463844101,-0.356504052744179
-0.501080650180668,-0.373915531916644
-0.489910751627743,-0.391028319051594
-0.478172106977479,-0.407823296079561
-0.465873688028107,-0.424281574932049
-0.453025093334568,-0.44038451848738
-0.439636541266539,-0.456113761349966
-0.425718862378174,-0.47145123044012
-0.411283491094654,-0.486379165371636
-0.314513733021504,-0.566396394627279
-0.29682334856666,-0.577990726340527
-0.278727268717959,-0.589047055274687
-0.241384051291449,-0.609489903786385
-0.222171124688164,-0.618849789231394
-0.202620893512659,-0.627618436355173
-0.162581862698024,-0.643334667445142
-0.0363475992800175,-0.675167567576105
0.00722849863861809,-0.68044160647692
0.0292023629972249,-0.682046827936522
0.0512710887645239,-0.682957194066818
0.0956048563898377,-0.682676539533504
0.117825332263246,-0.681478864163173
0.140051582367585,-0.679573037526883
0.184430859414846,-0.673631483626205
0.206538408835312,-0.669594845935208
0.228560823996664,-0.664848243775901
0.250475266570692,-0.659393050828146
0.272258900823058,-0.653231376585232
0.293888917353804,-0.646366067535789
0.31534255691431,-0.638800707578741
0.336597134275883,-0.630539617667667
0.357630062125024,-0.621587854681755
0.398941252965552,-0.601636204426838
0.419175045834437,-0.59065008952065
0.439098296520577,-0.579000838572566
0.458689264888422,-0.566697143989852
0.584752309813265,-0.463124909943219
0.600936086685429,-0.445982567162397
0.616605501672559,-0.428295144812713
0.63174224464688,-0.410078078129102
0.646328468803968,-0.391347415894819
0.686612937970828,-0.332243249959365
0.731624953040784,-0.247322307342904
0.741226705720511,-0.225129360790965
0.750141403957729,-0.202592351847442
0.77264488070566,-0.133132161462518
0.784006902896936,-0.0855066850582738
0.792370433211147,-0.0370405598440375
0.795408281117976,-0.0125512850852511
0.799791139703136,0.086548728863614
0.787507352540244,0.211132993645612
0.755396354834265,0.333556741025607
0.726751466334197,0.404654108598747
0.715673275186811,0.427809573168443
0.703842728314776,0.450651923140381
0.691268586094959,0.473156695465868
0.617605878966278,0.579779077083814
0.600798195140321,0.599760018997524
0.5833300963431,0.619240357198659
0.443902061523721,0.739812312905368
0.399087559021523,0.768594066556316
0.20238023650203,0.854658043608873
0.176209786867571,0.861913498898837
0.096181834744307,0.878732768279466
0.0690868623540795,0.882660145396498
0.0418264688384814,0.885735038475444
-0.0406773345657341,0.889783810747273
-0.123689263763283,0.885976684359184
-0.288227987450557,0.854629618175453
-0.445746434569331,0.792087050297366
-0.495660631094228,0.764542360069164
-0.590318795549303,0.699900499989308
-0.634653206615347,0.663015798337299
-0.846992782779634,0.386521314922859
-0.859865307716,0.359884680963457
-0.883117970781053,0.305305463476875
-0.919256250111374,0.191658631982847
-0.946171231509827,0.0132930827627663
-0.942528779873267,-0.13856814952404
-0.805372850796155,-0.545675784465854
-0.771154162920379,-0.598269349792615
