1.0141428402222,-0.390780994249726
1.01415715806043,-0.390718429449066
1.01417169115247,-0.390654614939428
1.0141864430889,-0.390589519637803
1.01420141751387,-0.39052311153728
1.01421661812513,-0.39045535767515
1.01423204867393,-0.390386224099764
1.01424771296479,-0.390315675836072
1.01426361485525,-0.390243676849813
1.01427975825546,-0.390170190010267
1.01429614712771,-0.390095177051524
1.01431278548581,-0.390018598532198
1.01432967739435,-0.389940413793516
1.01434682696784,-0.389860580915709
1.01436423836965,-0.389779056672625
1.01438191581084,-0.389695796484492
1.0143998635488,-0.389610754368736
1.01443658716664,-0.389435133100675
1.01445537177785,-0.389344454497614
1.01447444414429,-0.389251794951987
1.01449380872725,-0.389157100655104
1.01451347002157,-0.389060316054326
1.01453343255258,-0.38896138378754
1.01455370087272,-0.38886024461484
1.0145742795578,-0.388756837347276
1.01459517320288,-0.388651098772546
1.01461638641774,-0.388542963577465
1.01463792382197,-0.388432364267068
1.01465979003947,-0.388319231080186
1.01468198969257,-0.388203491901311
1.0147045273955,-0.38808507216858
1.01472740774735,-0.387963894777684
1.01475063532434,-0.387839879981497
1.01477421467145,-0.387712945285217
1.01479815029325,-0.387583005336802
1.01482244664403,-0.387449971812441
1.01484710811699,-0.387313753296849
1.01487213903256,-0.387174255158084
1.01489754362574,-0.387031379416642
1.01492332603233,-0.386885024608513
1.01494949027408,-0.38673508564191
1.01497604024252,-0.386581453647322
1.01500297968157,-0.386424015820573
1.01503031216862,-0.386262655258499
1.01505804109415,-0.386097250786876
1.01508616963963,-0.385927676780181
1.0151147007537,-0.385753802972764
1.01514363712636,-0.385575494260976
1.01517298116116,-0.385392610495758
1.01520273494507,-0.385205006265214
1.01526347832804,-0.384815027067127
1.01529447021291,-0.384612332853148
1.01532587633978,-0.384404279166785
1.01535769667085,-0.384190690629617
1.01538993061382,-0.383971385052553
1.01542257697046,-0.383746173131159
1.01545563388125,-0.383514858125657
1.0154890987655,-0.383277235524716
1.01552296825683,-0.383033092692147
1.01555723813352,-0.38278220849554
1.01559190324329,-0.382524352915815
1.01562695742222,-0.382259286636623
1.01566239340722,-0.381986760612431
1.01569820274149,-0.381706515614093
1.01573437567255,-0.381418281750605
1.0157709010422,-0.381121777965668
1.01580776616759,-0.380816711507615
1.01584495671299,-0.380502777371144
1.01588245655119,-0.380179657709214
1.01592024761388,-0.379847021213358
1.01595830973005,-0.379504522460556
1.01599662045141,-0.37915180122469
1.0160351548638,-0.378788481750486
1.01607388538331,-0.378414171987711
1.01611278153608,-0.378028462783239
1.01615180972012,-0.377630927028483
1.01619093294791,-0.377221118759481
1.01623011056793,-0.376798572206802
1.01626929796358,-0.376362800792214
1.01630844622735,-0.375913296068887
1.01634750180825,-0.375449526601686
1.0163864061303,-0.374970936783893
1.01642509517933,-0.374476945586451
1.01646349905565,-0.37396694523559
1.01650154148951,-0.373440299814417
1.01653913931604,-0.372896343783757
1.01657620190631,-0.372334380417276
1.01661263055051,-0.371753680145522
1.01664831778921,-0.371153478803258
1.01668314668786,-0.370532975774053
1.0167169900498,-0.369891332025719
1.01674970956209,-0.369227668029792
1.01678115486817,-0.368541061557812
1.01681116256095,-0.367830545346715
1.01683955508892,-0.367095104625148
1.01686613956758,-0.366333674492047
1.01689070648748,-0.365545137138242
1.01691302830953,-0.364728318901343
1.01693285793709,-0.363881987143517
1.01694992705367,-0.363004846941211
1.01697459337279,-0.361152628808568
1.01698438345302,-0.359159920618117
1.01698274650656,-0.358106876402994
1.01697618010017,-0.357013734059384
1.01696420659776,-0.355878651565798
1.01694630722663,-0.354699689822765
1.0169219184725,-0.353474807042821
1.01689042814425,-0.35220185280405
1.01685117107663,-0.350878561748284
1.01680342443624,-0.349502546904409
1.01667925151109,-0.346582147056938
1.01660104262513,-0.345032314300966
1.01651076613076,-0.343418845945494
1.01628952022428,-0.339988392757336
1.01615605549266,-0.338164666443364
1.01600551411225,-0.336263801258224
1.01583635520769,-0.334281943158134
1.0154353233649,-0.330058752091687
1.01519963159354,-0.327808594032968
1.01493765560949,-0.325459766758299
1.01464703014113,-0.323007220862322
1.01432517633117,-0.320445626564246
1.01314281923655,-0.312048727394292
1.01213958527256,-0.305793803346502
1.01156146878588,-0.302448313535974
1.01092614646793,-0.298947277014123
1.0102284247921,-0.295282534243021
1.0066918860364,-0.278807839514548
1.00558578059951,-0.27418647246557
1.00437428873502,-0.269342801963461
1.00304774306368,-0.26426532080904
1.0015955771563,-0.25894199799671
1.00000624282295,-0.253360276218077
0.998267120535288,-0.247507074391814
0.996364422636548,-0.241368796376539
0.994283089039873,-0.234931347219409
0.992006675184517,-0.228180158515903
0.989517232115886,-0.221100224708111
0.986795178687094,-0.21367615243186
0.97701016583694,-0.189180846226058
0.968878503524699,-0.170837617838903
0.964240259090633,-0.161014484406916
0.959174453437346,-0.150736778473747
0.953643097889511,-0.139990322828548
0.947605206602274,-0.128762112935158
0.925994904232029,-0.0920829192973241
0.917456994856366,-0.0788357458880167
0.908159037047111,-0.0650749960823891
0.898040430085495,-0.0508050855538305
0.887037504266487,-0.0360357917001175
0.875083805575134,-0.0207831928879911
0.848047005658563,0.0110698242339413
0.816362677891014,0.0444580074132461
0.798599577054738,0.06158861170388
0.779464417525512,0.0789105313276326
0.75889373030338,0.0963308300213353
0.736830610836616,0.113740605436527
0.713227177252696,0.131013970356604
0.688047368465597,0.148007276034354
0.661270067286411,0.16455867290546
0.632892512166316,0.180488115548484
0.571439328023631,0.209674042667672
0.538483218091206,0.222488044134557
0.432106991503047,0.250926278402627
0.206602373303903,0.241652334178179
0.171299499783058,0.229429700012412
-0.00406072613939612,0.0599438994390964
-0.0148070897317443,0.0264736055994377
-0.021370034953776,-0.00826528584675937
-0.0160596183463932,-0.115891683149404
0.043301413124274,-0.25274427046458
0.0902222407942618,-0.31274962991717
0.144828681926484,-0.365144044596598
0.174114273876758,-0.388278611553752
0.297018100336855,-0.460440696503033
0.327849890051221,-0.473677898627721
0.358293291894285,-0.485177118676624
0.388184514912078,-0.495050688614911
0.417387411399365,-0.503416454877793
0.445791571264158,-0.510394629065063
0.473310132801185,-0.516105171206137
0.499877438682093,-0.520665679686439
0.617334679639325,-0.529994165991261
0.637710220015414,-0.52983248986698
0.657078077987294,-0.529185372792255
0.675464557859481,-0.52812058388097
0.709418016702831,-0.524976774274008
0.725054002639368,-0.523002073376217
0.767042729708888,-0.515979594217371
0.812948648110746,-0.505230271888182
0.832227308066052,-0.49966868668688
0.849405708146248,-0.494142816032268
0.87174208492832,-0.486088404612565
0.878377046139829,-0.48349265834743
0.884646273742076,-0.48094913982725
0.896173197131983,-0.476030961279932
0.90147064850067,-0.473660600414233
0.931426615021606,-0.458794268173443
0.938114044532221,-0.455093333512097
0.941204371419077,-0.453329595746046
0.949575187583147,-0.448369953395415
0.962970039344524,-0.439815316066374
0.966633060078114,-0.437325545253391
0.968338190520196,-0.436142086041963
0.969965115152743,-0.434997755449914
0.978302496666183,-0.42888136340854
0.980619469558772,-0.427099288550556
0.983738563862752,-0.42463674064915
0.985607197884655,-0.423123973757534
0.986484417940344,-0.422403529029672
0.988133765241122,-0.421030271034503
0.991057001538557,-0.418532404900612
0.991717958099723,-0.417955514344706
0.994664504889677,-0.415324205988919
0.995695261731155,-0.414379077110733
0.997542186585473,-0.412650379205739
0.998370278460961,-0.411859591625259
0.99914178613176,-0.41111347847596
0.999507783530658,-0.410756237493435
1.00020294775534,-0.410071634496692
1.00085228791166,-0.409424685542136
1.00202765220368,-0.408234120112832
1.00305908695424,-0.407166994972466
1.00329699036393,-0.406917683745245
1.0035275130763,-0.406674919493607
1.00513688974386,-0.404945201719365
1.00531213627478,-0.404752900332922
1.00548229646734,-0.404565382831277
1.00654518890555,-0.40337522716625
1.0068121817856,-0.403070819616411
1.00706482460059,-0.402780608352474
1.00718605971069,-0.402640574099387
1.00774565207356,-0.401987405100357
1.00784894010824,-0.401865569208443
1.00794956305323,-0.40174647801008
1.00814314659098,-0.401516230601556
1.00841553556035,-0.401189636970495
1.00874813356683,-0.40078648963742
1.00890248144911,-0.400597687326554
1.00897687314199,-0.400506285695525
1.00904948285745,-0.400416814590344
1.00957212046891,-0.399764862000434
1.0097991598527,-0.399476995284222
1.01037050733936,-0.398738524918355
