0.854796051146378,0.853030303030303
0.846890107083337,0.842832921437982
0.839552785585437,0.832123549788328
0.83257027319906,0.821094706579706
0.825863012241967,0.809818025870958
0.819383429563376,0.798336342719446
0.813098398669097,0.786679484354516
0.80698286840155,0.774870006939765
0.80101687611806,0.762925884919393
0.795183926870999,0.750861970410954
0.789470024085339,0.738690865987212
0.783863047890865,0.726423484428322
0.778352334746925,0.714069427229414
0.772928381112586,0.70163725141718
0.767582627424455,0.689134664057117
0.762307296192612,0.676568668032603
0.757095267799366,0.663945673876201
0.751939983312418,0.651271587277079
0.746835367124608,0.638551878736495
0.741775764450731,0.625791639845918
0.736755890161808,0.612995629356855
0.731770786410961,0.600168311334685
0.726815787174643,0.587313887085883
0.721886488303255,0.574436322124557
0.716978722011806,0.56153936914117
0.712088534986194,0.548626587715728
0.707212169461797,0.535701361354693
0.702346046766702,0.52276691230873
0.697486752924914,0.509826314535631
0.692631025993901,0.496882505101645
0.687775744872217,0.483938294259136
0.682917919361004,0.47099637439525
0.678054681301202,0.458059328012002
0.673183276638619,0.445129634870927
0.668301058293388,0.432209678413442
0.663405479730075,0.41930175155035
0.658494089140807,0.406408061899378
0.653564524166981,0.393530736537763
0.648614507096033,0.380671826327113
0.643641840478784,0.367833309859552
0.638644403120466,0.355017097067431
0.633620146404832,0.342225032533102
0.628567090916142,0.329458898530503
0.623483323328318,0.316720417826174
0.618366993534416,0.304011256263889
0.613216311992867,0.291333025154113
0.608029547269748,0.278687283486955
0.602805023758762,0.2660755399851
0.597541119562724,0.253499255011333
0.592236264522159,0.240959842343595
0.586888938378184,0.228458670829133
0.581497669058238,0.215997065928036
0.576061031074431,0.203576311155363
0.57057764402533,0.191197649430147
0.565046171192937,0.178862284338681
0.559465318227424,0.166571381318785
0.553833831912933,0.154326068771084
0.54815049900838,0.142127439102758
0.542414145157765,0.1299765497087
0.536623633865019,0.117874423894564
0.530777865528859,0.105822051745795
0.524875776533528,0.09382039094632
0.518916338391669,0.081870367550317
0.512898556935894,0.0699728767101205
0.506821471555933,0.0581287833631049
0.500684154478462,0.0463389228801214
0.494485710087014,0.03460410167786
0.488225274279529,0.0229250977973108
0.481902013861342,0.0113026614503184
0.475515125971571,-0.000262484463930984
0.469063837541015,-0.0117696438708025
0.462547404779845,-0.0232181470589264
0.455965112693491,-0.0346073502443002
0.449316274625252,-0.0459366351584525
0.442600231824271,-0.0572054086594482
0.435816353037628,-0.0684131023646045
0.428964034125384,-0.0795591723038775
0.422042697697512,-0.0906430985929518
0.415051792771723,-0.101664385125146
0.407990794451273,-0.112622559281308
0.400859203621902,-0.123517171656941
0.393656546667133,-0.134347795805854
0.386382375201203,-0.145114027999691
0.379036265818955,-0.155815487002736
0.371617819862093,-0.166451813861449
0.364126663201219,-0.177022671708206
0.356562446033145,-0.1875277455788
0.348924842692985,-0.197966742243254
0.341213551480619,-0.208339390049558
0.333428294501099,-0.218645438779977
0.325568817518657,-0.228884659519595
0.31763488982397,-0.239056844536809
0.309626304114408,-0.24916180717549
0.301542876386971,-0.259199381758592
0.293384445843707,-0.26916942350299
0.285150874809387,-0.279071808445352
0.276842048661272,-0.288906433378898
0.268457875770806,-0.298673215800906
0.259998287457126,-0.30837209387085
0.251463237952274,-0.318003026379075
0.242852704378054,-0.327565992725961
0.234166686734465,-0.337060992911508
0.225405207899705,-0.346488047535336
0.21656831364173,-0.355847197807099
0.207656072641405,-0.365138505567325
0.198668576527284,-0.374362053318736
0.189605939922108,-0.38351794426811
0.180468300501104,-0.392606302378779
0.171255819062226,-0.40162727243387
0.161968679608472,-0.410581020110429
0.152607089442474,-0.419467732064581
0.143171279273553,-0.428287616027935
0.133661503337479,-0.437040900915403
0.124078039529198,-0.445727836944721
0.114421189548832,-0.454348695767899
0.104691279061265,-0.462903770614913
0.0948886578696866,-0.471393376449973
0.0850137001034943,-0.479817850140699
0.075066804420984,-0.488177550640634
0.0650483942273119,-0.496472859185493
0.0549589179082425,-0.504704179503632
0.0447988490802527,-0.512871938041242
0.0345686868576011,-0.520976584202819
0.0242689561370325,-0.529018590607517
0.0139002079008363,-0.536998453362016
0.00346301953903889,-0.544916692350631
-0.00704200480842078,-0.552773851543408
-0.0176142338886223,-0.560570499323027
-0.0282530089507093,-0.568307228831425
-0.0389576433379798,-0.575984658337073
-0.049727422055864,-0.583603431623974
-0.0605616013145334,-0.591164218403496
-0.0714594080447872,-0.598667714750276
-0.0824200393857421,-0.606114643563498
-0.0934426621427349,-0.613505755055009
-0.104526412213705,-0.620841827265797
-0.115670393982184,-0.628123666612554
-0.12687367967485,-0.635352108466129
-0.138135308681431,-0.642528017763898
-0.149454286834541,-0.649652289658195
-0.160829585646821,-0.656725850203197
-0.172260141502516,-0.663749657082834
-0.183744854800341,-0.670724700382547
-0.195282589044229,-0.677652003407993
-0.206872169878179,-0.684532623554064
-0.218512384061106,-0.69136765322794
-0.230201978377153,-0.698158220830246
-0.241939658476493,-0.704905491798802
-0.253724087641126,-0.711610669719901
-0.26555388546962,-0.718274997512576
-0.277427626474086,-0.724899758691886
-0.289343838581962,-0.731486278717919
-0.301301001534364,-0.738035926437924
-0.313297545171818,-0.744550115629842
-0.325331847597139,-0.751030306656455
-0.337402233204032,-0.757478008240451
-0.34950697055857,-0.763894779371938
-0.361644270119186,-0.770282231361381
-0.373812281778937,-0.776642030052554
-0.386009092211744,-0.782975898211997
-0.398232722001866,-0.789285618113647
-0.410481122533058,-0.795573034339859
-0.42275217261055,-0.80184005682298
-0.435043674785164,-0.808088664155137
-0.447353351344337,-0.814320907197937
-0.459678839929464,-0.820538913028617
-0.472017688732674,-0.826744889264904
-0.484367351218531,-0.8329411288176
-0.49672518030717,-0.839130015128125
-0.509088421944397,-0.84531402795801
-0.521454207971153,-0.851495749809273
-0.533819548188581,-0.857677873069059
-0.546181321495234,-0.863863207989732
-0.558536265948579,-0.87005469163754
-0.570880967572622,-0.876255397970278
-0.583211847695451,-0.882468549238608
-0.595525148552443,-0.888697528948992
-0.607816916829496,-0.894945896681439
-0.620082984741617,-0.901217405126409
-0.632318948139212,-0.907516019798011
-0.644520140998729,-0.91384594200272
-0.656681605473292,-0.920211635805914
-0.668798056433923,-0.926617859959102
-0.680863839095415,-0.933069706053752
-0.692872877850609,-0.939572644591122
-0.704818613767207,-0.94613258126038
-0.716693927227517,-0.952755926594088
-0.728491040741618,-0.959449683475627
-0.740201394746119,-0.966221558970491
-0.751815485700085,-0.973080110105373
-0.763322650062865,-0.980034938375402
-0.774710767964245,-0.987096956560736
-0.785965842829196,-0.994278767234135
-0.797071379710089,-1.00159522251316
-0.80800741596425,-1.009064296842
-0.818748900434101,-1.01670854638426
-0.829262706625448,-1.02455779836928
-0.839501261387511,-1.03265488785443
-0.849385007038052,-1.04107144889855
-0.858700130123451,-1.05
0.854796051146378,0.853030303030303
0.845480928060979,0.844101751928852
0.835597182410439,0.835685190884734
0.825358627648376,0.827588101399584
0.814844821457028,0.819738849414561
0.804103336987178,0.812094599872301
0.793167300733017,0.804625525543459
0.782061763852123,0.797309070264438
0.770806688987172,0.790127259591039
0.759418571085793,0.783065241405705
0.747911406723013,0.776110413135676
0.736297315769047,0.769251862000794
0.724586961764546,0.76247998650593
0.712789848250444,0.755786229624392
0.700914534790135,0.749162884290683
0.688968798873537,0.742602947621425
0.676959760118342,0.736100009084055
0.664893977456851,0.729648162989405
0.65277752649622,0.723241938836217
0.640616062021657,0.716876245033022
0.628414869162139,0.710546322828314
0.616178905764545,0.704247708156712
0.603912837852423,0.697976199711742
0.591621069575371,0.691727831979296
0.579307768718379,0.685498852268911
0.56697688859555,0.679285701000582
0.554632186971507,0.673084994667844
0.542277242518161,0.666893511020035
0.529915469211509,0.660708176099362
0.517550128994081,0.654526052839577
0.505184342967325,0.648344330988313
0.492821101330098,0.642160318158428
0.480463272241459,0.635971431847904
0.468113609755601,0.629775192295207
0.455774760952392,0.62356921605892
0.443449272367264,0.61735121022824
0.431139595808092,0.611118967185441
0.418848093633477,0.604870359853283
0.406577043555985,0.598603337370162
0.394328643024794,0.592315921143951
0.382105013234671,0.5860062012423
0.369908202801865,0.579672333082857
0.357740191142114,0.573312534391684
0.345602891581497,0.566925082402241
0.333498154226959,0.560508311270755
0.321427768620067,0.554060609686758
0.309393466194746,0.547580418660145
0.297396922557292,0.541066229468227
0.285439759604889,0.534516581748223
0.273523547497013,0.527930061722189
0.261649806492548,0.521305300542879
0.249820008664054,0.514640972750204
0.23803557949942,0.507935794829105
0.22629789940008,0.501188523860549
0.214608305084033,0.494397956258243
0.202968090901106,0.487562926584368
0.191378510067156,0.480682306438296
0.179840775823269,0.47375500341285
0.168356062525444,0.466779960113137
0.156925506669749,0.459756153233501
0.145550207857468,0.452682592688498
0.134231229704359,0.445558320794201
0.122969600697778,0.438382411496432
0.111766315005111,0.431153969642857
0.100622333236632,0.4238721302961
0.0895385831656624,0.416536058085312
0.0785159604086697,0.409144946593802
0.0675553290677148,0.401698017780579
0.056657522337461,0.394194521433799
0.0458233430787916,0.386633734654277
0.0350535643609074,0.379014961367377
0.0243489299736368,0.371337531861729
0.0137101549115498,0.36360080235333
0.00313792583134835,0.355804154573711
-0.00736709851611133,0.347946995380935
-0.0178042868779087,0.340028756392319
-0.028173035114105,0.33204889363782
-0.0384727658346735,0.324006887233123
-0.0487029280573251,0.315902241071545
-0.0588629968853149,0.307734482533935
-0.0689524732043843,0.299503162215796
-0.0789708833980564,0.291207853670937
-0.0889177790805667,0.282848153171002
-0.098792736846759,0.274423679480276
-0.108595358038338,0.265934073645217
-0.118325268525905,0.257378998798202
-0.12798211850627,0.248758139975024
-0.137565582314551,0.240071203945706
-0.147075358250626,0.231317919058238
-0.156511168419547,0.222498035094885
-0.165872758585544,0.213611323140732
-0.175159898039298,0.204657575464174
-0.184372379478177,0.195636605409082
-0.19351001889918,0.186548247298413
-0.202572655504356,0.177392356349039
-0.211560151618477,0.168168808597628
-0.220472392618803,0.158877500837402
-0.229309286876777,0.149518350565639
-0.238070765711538,0.140091295941811
-0.246756783355126,0.130596295756264
-0.255367316929347,0.121033329409378
-0.263902366434198,0.111402396901153
-0.272361954747879,0.101703518831209
-0.280746127638344,0.0919367364092007
-0.289054953786459,0.0821021114756548
-0.297288524820779,0.0721997265332935
-0.305446955364043,0.0622296847888956
-0.31353038309148,0.052192110205793
-0.321538968801042,0.0420871475671124
-0.329472896495729,0.0319149625498986
-0.337332373478172,0.0216757418102799
-0.345117630457692,0.0113696930798611
-0.352828921670057,0.000997045273557443
-0.360466525010217,-0.00944195139089632
-0.368030742178292,-0.0199470252614906
-0.375521898839165,-0.0305178831082478
-0.382940344796027,-0.0411542099669605
-0.390286454178275,-0.0518556689700061
-0.397560625644206,-0.0626219011638428
-0.404763282598974,-0.0734525253127556
-0.411894873428345,-0.0843471376883886
-0.418955871748796,-0.0953053118445507
-0.425946776674585,-0.106326598376745
-0.432868113102457,-0.117410524665819
-0.439720432014701,-0.128556594605092
-0.446504310801344,-0.139764288310249
-0.453220353602325,-0.151033061811244
-0.459869191670564,-0.162362346725397
-0.466451483756917,-0.173751549910771
-0.472967916518087,-0.185200053098894
-0.479419204948643,-0.196707212505766
-0.485806092838414,-0.208272358420015
-0.492129353256601,-0.219894794767008
-0.498389789064087,-0.231573798647557
-0.504588233455535,-0.243308619849818
-0.510725550533005,-0.255098480332802
-0.516802635912966,-0.266942573679817
-0.522820417368741,-0.278840064520014
-0.5287798555106,-0.290790087916017
-0.534681944505931,-0.302791748715491
-0.540527712842091,-0.314844120864261
-0.546318224134837,-0.326946246678397
-0.552054577985452,-0.339097136072455
-0.557737910890005,-0.351295765740781
-0.563369397204496,-0.363541078288482
-0.568950250170009,-0.375831981308378
-0.574481723002402,-0.388167346399844
-0.579965110051503,-0.400546008125059
-0.58540174803531,-0.412966762897732
-0.590793017355257,-0.42542836779883
-0.596140343499232,-0.437929539313292
-0.601445198539796,-0.45046895198103
-0.606709102735834,-0.463045236954797
-0.611933626246821,-0.475656980456651
-0.61712039096994,-0.48830272212381
-0.622271072511488,-0.500980953233586
-0.627387402305391,-0.513690114795871
-0.632471169893215,-0.5264285955002
-0.637524225381904,-0.539194729502798
-0.642548482097538,-0.551986794037127
-0.647545919455856,-0.564803006829249
-0.652518586073105,-0.577641523296809
-0.657468603144054,-0.59050043350746
-0.662398168117879,-0.603377758869075
-0.667309558707148,-0.616271448520047
-0.672205137270461,-0.629179375383139
-0.677087355615692,-0.642099331840624
-0.681958760278274,-0.655029024981699
-0.686821998338076,-0.667966071364946
-0.691679823849289,-0.680907991228833
-0.696535104970974,-0.693852202071342
-0.701390831901987,-0.706796011505328
-0.706250125743774,-0.719736609278427
-0.711116248438869,-0.73267105832439
-0.715992613963267,-0.745596284685424
-0.720882800988878,-0.758509066110867
-0.725790567280327,-0.771406019094254
-0.730719866151715,-0.78428358405558
-0.735674865388034,-0.797138008304382
-0.74065996913888,-0.809965326326552
-0.745679843427803,-0.822761336815615
-0.75073944610168,-0.835521575706192
-0.75584406228949,-0.848241284246776
-0.760999346776439,-0.860915370845897
-0.766211375169684,-0.8735383650023
-0.771486706401528,-0.886104361026814
-0.776832460089659,-0.898606948386877
-0.782256413723997,-0.911039124199111
-0.787767126867937,-0.923393181398018
-0.793374103062411,-0.935660562956908
-0.799088005848071,-0.947831667380651
-0.804920955095133,-0.959895581889089
-0.810886947378622,-0.971839703909462
-0.81700247764617,-0.983649181324213
-0.823287508540449,-0.995306039689143
-0.829767091219039,-1.00678772284065
-0.836474352176132,-1.0180644035494
-0.843456864562509,-1.02909324675803
-0.850794186060409,-1.03980261840768
-0.858700130123451,-1.05
