0.548195374677474,0.63957774026772
0.548114898043022,0.639608992916915
0.548032800126624,0.639640775678356
0.547949040259685,0.639673099390335
0.547863576554434,0.639705975142614
0.547776365861471,0.639739414282605
0.547687363725632,0.639773428421696
0.547596524340097,0.639808029441708
0.547503800498663,0.639843229501501
0.547409143546106,0.639879041043728
0.547312503326531,0.639915476801727
0.547213828129641,0.639952549806563
0.547113064634811,0.639990273394218
0.547010157852873,0.640028661212923
0.54690505106552,0.64006772723064
0.546797685762199,0.640107485742684
0.546688001574388,0.640147951379498
0.546575936207142,0.640189139114559
0.546461425367765,0.640231064272437
0.546344402691487,0.640273742536979
0.546224799664001,0.640317189959636
0.546102545540707,0.640361422967921
0.545977567262518,0.640406458373979
0.54584978936805,0.640452313383298
0.545719133902035,0.640499005603508
0.545585520319769,0.640546553053308
0.545448865387405,0.640594974171471
0.545309083077893,0.640644287825943
0.545166084462346,0.640694513323018
0.545019777596613,0.640745670416566
0.544870067402834,0.64079777931731
0.5447168555457,0.640850860702138
0.544560040303195,0.640904935723416
0.5443995164315,0.640960026018295
0.544235175023809,0.641016153717984
0.544066903362716,0.641073341456962
0.543894584765871,0.641131612382101
0.54371809842455,0.641190990161667
0.543537319234778,0.641251498994163
0.543352117620628,0.641313163616981
0.543162359349289,0.641376009314805
0.542967905337478,0.641440061927734
0.542768611448739,0.641505347859058
0.542564328281159,0.641571894082637
0.542354900945001,0.641639728149813
0.542140168829702,0.641708878195789
0.541919965359696,0.641779372945394
0.541694117738451,0.641851241718145
0.54146244668009,0.641924514432517
0.541224766127926,0.64199922160932
0.540980882959213,0.642075394374055
0.540730596675353,0.642153064458144
0.540473699076761,0.642232264198877
0.540209973921565,0.642313026537948
0.539939196567224,0.642395385018387
0.539661133594137,0.642479373779744
0.539375542410231,0.642565027551287
0.539082170835468,0.642652381643032
0.538780756665131,0.642741471934348
0.538471027210714,0.642832334859883
0.538152698817116,0.642925007392527
0.537825476354806,0.643019527023101
0.537489052685531,0.643115931736428
0.537143108100015,0.643214259983413
0.536787309726071,0.643314550648729
0.536421310905367,0.643416843013653
0.536044750537046,0.643521176713566
0.535657252386242,0.64362759168958
0.535258424355432,0.643736128133703
0.534847857716414,0.643846826426903
0.534425126300595,0.643959727069354
0.53398978564507,0.64407487060211
0.533541372091867,0.644192297519342
0.533079401837526,0.644312048170228
0.532603369930014,0.644434162649468
0.532112749209775,0.644558680675317
0.53160698919151,0.644685641453925
0.53108551488306,0.644815083528625
0.530547725537521,0.644947044612729
0.529992993334479,0.64508156140421
0.529420661985964,0.645218669380508
0.528830045262443,0.645358402571539
0.528220425433869,0.645500793308766
0.527591051620457,0.645645871948027
0.526941138047511,0.645793666563542
0.526269862198251,0.645944202610318
0.525576362858197,0.646097502551844
0.524859738044199,0.646253585449717
0.524119042810805,0.646412466511467
0.523353286926097,0.646574156592493
0.522561432408678,0.646738661647633
0.521742390916866,0.646905982127405
0.520895020980618,0.647076112313516
0.520018125066034,0.647249039587634
0.519110446461637,0.647424743626874
0.51817066597492,0.647603195518727
0.517197398426859,0.647784356787504
0.51618918893133,0.647968178323476
0.51514450894547,0.64815459920507
0.514061752076145,0.648343545403448
0.512939229626719,0.648534928357746
0.511775165867309,0.648728643408002
0.510567693010641,0.648924568071514
0.509314845874506,0.649122560146876
0.508014556210622,0.649322455628303
0.506664646678504,0.649524066411087
0.505262824441619,0.649727177767013
0.503806674361789,0.649931545566343
0.50229365176642,0.65013689322059
0.500721074761677,0.650342908317548
0.499086116063309,0.650549238917097
0.497385794315289,0.650755489472972
0.495616964864959,0.650961216342044
0.49377630996188,0.651165922838598
0.491860328346087,0.651369053786623
0.489865324190042,0.651569989518169
0.487787395357235,0.651768039260329
0.485622420939142,0.651962433847378
0.483366048031217,0.65215231768785
0.481013677707723,0.652336739908966
0.478560450154704,0.652514644592631
0.476001228920188,0.652684860008194
0.473330584241056,0.652846086737204
0.470542775406872,0.652996884574443
0.467631732122639,0.653135658077416
0.464591034834944,0.653260640623213
0.461413893989643,0.653369876817096
0.45809312819417,0.653461203081142
0.454621141264211,0.653532226233824
0.450989898143022,0.653580299852298
0.447190899692577,0.653602498188366
0.443215156369469,0.653595587386509
0.439053160815502,0.65355599372792
0.434694859413975,0.653479768598141
0.430129622888346,0.653362549847607
0.425346216051241,0.653199519184242
0.420332766849602,0.652985355205315
0.415076734897228,0.652714181642113
0.40956487974047,0.652379510356109
0.403783229167852,0.651974178589376
0.397717047951607,0.651490279935761
0.391350807500609,0.650919088463581
0.38466815701209,0.650250975386267
0.377651896836386,0.649475317646131
0.370283954917667,0.648580397749838
0.362545367347094,0.647553294174807
0.354416264266752,0.646379761656539
0.345875862596546,0.64504410067157
0.336902467326049,0.643529015454132
0.327473483423161,0.641815459932477
0.317565440765443,0.639882471050341
0.307154034902335,0.637706989059018
0.296214186910618,0.635263664536473
0.284720126114636,0.632524652124561
0.27264550000856,0.629459391288852
0.259963516340635,0.626034374815508
0.246647122996191,0.622212906286811
0.232669232041322,0.617954848445004
0.218002995051522,0.613216365190107
0.202622137631941,0.607949660991024
0.186501361812407,0.602102722753216
0.169616825734747,0.595619070714461
0.151946710692178,0.588437526767447
0.133471886064604,0.580492010766569
0.114176682933407,0.57171137789391
0.0940497870457574,0.56201931305401
0.0730852611958572,0.551334301540805
0.0512837058343635,0.539569698852153
0.0286535646122422,0.5266339264625
0.00521257838656269,0.512430824501977
-0.0190106132876058,0.496860196468868
-0.0439747302509393,0.479818585083383
-0.06962398444926,0.461200321840376
-0.0958861123572684,0.440898895291592
-0.122670344585949,0.418808684012307
-0.149865364904612,0.394827098877509
-0.177337327987038,0.368857174853999
-0.204928024277218,0.340810644064567
-0.232453300836044,0.310611508396836
-0.259701867844701,0.278200110432181
-0.286434640089859,0.243537675122669
-0.312384779191305,0.206611260920308
-0.33725861296315,0.16743901795841
-0.36073761005955,0.126075603160419
-0.382481577575234,0.0826175495877765
-0.402133223175028,0.0372083329617509
-0.419324178676842,-0.00995717348095079
-0.433682516882918,-0.0586292080201493
-0.444841707600263,-0.108500973646328
-0.45245085433154,-0.159208220866512
-0.456185935100946,-0.210330920548459
-0.455761647578525,-0.261397326062455
-0.450943341427859,-0.311890623430836
-0.441558423312181,-0.361258229071405
-0.427506556895511,-0.408923622938666
-0.408767965102525,-0.45430041193664
-0.385409185157256,-0.496808121124488
-0.35758573317946,-0.535889028993329
-0.325541301627228,-0.571025219888064
-0.289603328655739,-0.601754941668013
-0.25017502484972,-0.627687345032306
-0.207724195424953,-0.648514749650305
-0.162769428058921,-0.664021728568293
-0.11586440263248,-0.674090513478026
-0.0675811992939332,-0.67870247795086
-0.0184935237042171,-0.67793572678551
0.0308392686482221,-0.671959078809917
0.0798865754770609,-0.661022952093455
0.128158767983065,-0.645447825000663
0.175216815749109,-0.625611042689254
0.220679112106993,-0.601932764436971
0.264225494183044,-0.574861808733237
0.305598623011047,-0.544862062815645
0.344603021842198,-0.512399997353856
0.381102159913904,-0.477933682362485
0.415014014829285,-0.441903552948794
0.446305554026976,-0.404725036056842
0.474986552053285,-0.366783031093763
0.501103114222678,-0.328428143457016
0.524731217488634,-0.289974502260348
0.545970513717084,-0.251698950935543
0.564938575329045,-0.213841378895945
0.581765703013435,-0.176605960023437
0.596590362794933,-0.140163074936464
0.609555276617453,-0.104651714515274
0.6208041570715,-0.0701821882023023
0.630479052437854,-0.0368389890442508
0.638718251810099,-0.00468369592046408
0.645654690400015,0.0262421797632461
0.651414790855151,0.0559144715035152
0.656117676218366,0.0843238069672212
0.659874692866188,0.111473259382353
0.662789186388614,0.13737621725511
0.66495647912151,0.16205447762354
0.666464004301386,0.185536559792302
0.667391558132036,0.207856230552068
0.66781163712243,0.229051227866538
0.667789833675808,0.249162167530054
0.667385267968279,0.268231616018901
0.666651038602352,0.2863033123852
0.66563467835327,0.303421522327378
0.664378604570813,0.319630508314636
0.662920556502048,0.334974100684974
0.661294014017297,0.349495355853715
0.659528594011929,0.363236289068909
0.65765042217998,0.376237670463433
0.655682478968013,0.388538874433246
0.653644919370663,0.400177773584866
0.651555366868536,0.411190669622929
0.649429182274798,0.421612254579848
0.647279708583022,0.431475596720014
0.645118493124796,0.440812146281273
0.642955488475428,0.449651756950498
0.640799233609743,0.458022719613744
0.638657016823794,0.465951805481878
0.636535021915396,0.473464316177378
0.634438459067183,0.480584138784852
0.63237168180874,0.487333804224485
0.630338291355533,0.493734547611045
0.628341229537021,0.499806369518089
0.626382861437986,0.50556809728361
0.624465048788708,0.511037445675078
0.622589215053097,0.516231076383464
0.620756403080598,0.521164655941881
0.618967326108729,0.525852911768519
0.617222412828835,0.530309686119112
0.615521847158619,0.534547987803951
0.613865603301086,0.53858004158104
0.612253476610861,0.542417335182487
0.61068511073519,0.54607066396737
0.609160021448031,0.549550173222825
0.60767761755136,0.552865398157141
0.606237219177697,0.55602530164541
0.604838073791727,0.559038309800694
0.603479370156369,0.56191234545256
0.602160250499433,0.56465485962077
0.600879821090846,0.567272861075589
0.599637161417005,0.569772944077947
0.598431332117884,0.572161314392975
0.597261381833866,0.574443813669605
0.596126353092595,0.576625942277146
0.595025287351332,0.578712880687333
0.593957229297106,0.58070950948741
0.592921230495189,0.582620428106528
0.591916352466029,0.584449972334224
0.590941669261503,0.586202230706058
0.589996269603101,0.587881059827796
0.589079258637412,0.58949009870575
0.588189759357763,0.591032782147197
0.587326913735158,0.592512353291192
0.586489883596577,0.593931875326521
0.585677851284172,0.595294242450182
0.584890020124947,0.596602190116473
0.584125614736937,0.597858304623663
0.583383881194822,0.599065032082219
0.582664087075093,0.600224686805764
0.581965521398501,0.601339459163237
0.581287494485305,0.602411422928208
0.580629337736965,0.603442542158936
0.579990403356193,0.604434677640478
0.579370064015832,0.605389592918113
0.578767712485668,0.606308959949316
0.578182761225145,0.607194364399701
0.577614641948917,0.608047310606645
0.577062805171253,0.608869226232625
0.576526719734543,0.609661466628887
0.576005872326401,0.610425318928561
0.575499766989297,0.611162005887115
0.575007924626046,0.611872689486752
0.574529882504055,0.612558474320256
0.574065193760767,0.613220410768704
0.573613426912387,0.613859497986517
0.573174165367661,0.614476686706344
0.572747006948159,0.615072881875474
0.572331563416309,0.615648945134649
0.571927460012171,0.616205697149412
0.571534334999776,0.616743919803436
0.571151839223676,0.617264358262663
0.570779635676209,0.617767722918446
0.570417399075868,0.618254691217365
0.570064815457032,0.61872590938487
0.569721581771253,0.61918199404941
0.569387405500188,0.619623533773274
0.569062004280204,0.620051090495955
0.568745105538638,0.620465200895455
0.56843644614162,0.620866377672601
0.568135772053345,0.621255110763101
0.567842838006635,0.62163186848175
0.56755740718461,0.621997098602941
0.567279250913242,0.622351229381309
0.567008148364591,0.62269467051615
0.566743886270446,0.623027814062972
0.566486258646135,0.623351035295343
0.566235066524235,0.623664693519994
0.5659901176979,0.623969132847948
0.565751226473541,0.624264682924251
0.565518213432569,0.624551659618754
0.565290905201933,0.624830365680201
0.56506913423316,0.625101091355767
0.564852738589636,0.625364114978028
0.564641561741837,0.62561970352126
0.564435452370252,0.625868113128793
0.564234264175731,0.626109589613097
0.564037855696994,0.626344368930125
0.563846090135044,0.626572677629377
0.563658835184245,0.626794733281044
0.563475962869811,0.627010744881515
0.563297349391479,0.627220913238442
0.56312287497313,0.627425431336507
0.562952423718143,0.627624484684945
0.562785883470253,0.627818251647819
0.56262314567972,0.628006903757999
0.562464105274594,0.628190606015719
0.56230866053689,0.62836951717255
0.562156712983471,0.628543790001569
0.562008167251475,0.62871357155447
0.561862930988091,0.628879003406295
0.561720914744529,0.629040221888465
0.561582031874009,0.629197358310704
0.561446198433627,0.629350539172453
0.561313333089921,0.629499886364319
0.561183357028022,0.629645517360074
0.561056193864225,0.629787545399693
0.560931769561858,0.6299260796639
0.56081001235031,0.630061225440641
0.560690852647108,0.630193084283914
0.560574222982902,0.630321754165322
0.560460057929267,0.630447329618745
0.560348294029187,0.630569901878441
0.560238869730135,0.630689559010942
0.560131725319633,0.630806386041019
0.560026802863208,0.630920465072038
0.559924046144627,0.631031875400965
0.559823400608353,0.63114069362829
0.559724813304105,0.631246993763118
0.559628232833453,0.63135084732366
0.559533609298379,0.63145232343335
0.559440894251696,0.631551488912791
0.559350040649288,0.631648408367739
0.559261002804074,0.631743144273307
0.559173736341643,0.631835757054576
0.559088198157486,0.63192630516377
0.55900434637577,0.632014845154175
0.55892214030959,0.632101431750937
0.558841540422647,0.632186117918893
0.558762508292282,0.632268954927575
0.558685006573839,0.632349992413507
0.558608998966282,0.632429278439938
0.55853445017903,0.632506859554104
0.558461325899961,0.632582780842156
0.558389592764541,0.632657085981838
0.558319218326033,0.632729817293038
0.558250171026747,0.632801015786287
0.558182420170288,0.632870721209314
0.558115935894772,0.632938972091734
0.558050689146967,0.633005805787961
0.557986651657319,0.633071258518405
0.557923795915845,0.63313536540906
0.557862095148849,0.633198160529522
0.55780152329643,0.633259676929523
