-0.820778491990613,-0.169825029344875
-0.82066276211672,-0.169812464677677
-0.82031356280895,-0.169789277647673
-0.819727929212203,-0.169777186179744
-0.818902968733948,-0.169797808442316
-0.81783586854006,-0.169872609254728
-0.816523902985332,-0.170022846856719
-0.814964440961795,-0.170269520160117
-0.81315495314814,-0.170633316601749
-0.811093019143713,-0.171134560715265
-0.808776334470812,-0.171793163537909
-0.80620271742924,-0.17262857296646
-0.803370115787421,-0.173659725174378
-0.800276613294674,-0.174904997199888
-0.796920435999652,-0.176382160812034
-0.793299958360322,-0.178108337758955
-0.789413709131336,-0.180099956499479
-0.785260377015088,-0.182372710515847
-0.78083881606326,-0.184941518301842
-0.776148050816187,-0.187820485116835
-0.771187281167939,-0.19102286659232
-0.765955886945598,-0.194561034273369
-0.760453432191813,-0.198446443173103
-0.754679669140354,-0.202689601413785
-0.748634541875073,-0.20730004202346
-0.742318189663302,-0.212286296952256
-0.735730949955486,-0.217655873367499
-0.728873361043519,-0.223415232281686
-0.721746164371007,-0.229569769562161
-0.714350306489439,-0.236123799365991
-0.706686940655,-0.243080540038135
-0.698757428061548,-0.25044210250549
-0.69056333870605,-0.258209481193783
-0.68210645188359,-0.266382547488694
-0.673388756309846,-0.274960045756846
-0.664412449869753,-0.283939591936616
-0.655179938991864,-0.293317674702938
-0.645693837648759,-0.303089659204552
-0.635956965984634,-0.313249793366352
-0.625972348572044,-0.323791216743793
-0.615743212300537,-0.334705971910565
-0.605272983900768,-0.345985018355123
-0.594565287108424,-0.35761824885599
-0.583623939473105,-0.369594508300261
-0.572452948818075,-0.381901614904229
-0.561056509357526,-0.394526383789695
-0.549438997478794,-0.407454652864255
-0.537604967197634,-0.420671310948671
-0.525559145295426,-0.434160328089461
-0.513306426147828,-0.447904787989872
-0.500851866255097,-0.46188692248773
-0.488200678484926,-0.47608814800403
-0.475358226039265,-0.490489103881725
-0.46233001615722,-0.50506969252995
-0.449121693566654,-0.519809121284861
-0.435739033697688,-0.534685945894406
-0.42218793567181,-0.549678115530745
-0.408474415080767,-0.564763019230557
-0.394604596569893,-0.579917533660307
-0.380584706240917,-0.595118072100556
-0.366421063889712,-0.610340634540651
-0.352120075094788,-0.625560858772654
-0.337688223172622,-0.640754072371096
-0.323132061016264,-0.655895345443179
-0.308458202833836,-0.670959544032261
-0.293673315803793,-0.685921384056052
-0.27878411166398,-0.700755485659651
-0.263797338251643,-0.715436427862695
-0.248719771011658,-0.729938803379141
-0.233558204490294,-0.744237273487845
-0.218319443831866,-0.758306622831954
-0.203010296295574,-0.772121814025254
-0.187637562809831,-0.785658041944043
-0.172208029581219,-0.798890787583774
-0.156728459775136,-0.811795871360659
-0.141205585285,-0.824349505739657
-0.125646098606671,-0.836528347071724
-0.110056644834514,-0.848309546524983
-0.094443813795259,-0.859670799996435
-0.0788141323354488,-0.870590396893125
-0.0631740567779937,-0.881047267674136
-0.0475299655628917,-0.891021030047574
-0.0318881520868044,-0.900492033719634
-0.0162548177557085,-0.909441403596107
-0.000636065264363592,-0.917851081340069
0.0149621078841702,-0.92570386519316
0.0305338156062726,-0.932983447971724
0.0460732892006444,-0.939674453153112
0.0615748830347966,-0.945762468971709
0.077033079944244,-0.951234080448642
0.09244249633414,-0.956076899283755
0.107797886973755,-0.960279591543129
0.123094149474894,-0.963831903080382
0.138326328446046,-0.966724682634979
0.153489619314793,-0.968949902555952
0.168579371811743,-0.97050067710473
0.183591093110012,-0.971371278296114
0.198520450615026,-0.971557149241967
0.213363274400244,-0.971054914967663
0.228115559285122,-0.96986239067704
0.242773466552509,-0.967978587447201
0.257333325303409,-0.96540371534027
0.271791633447883,-0.962139183924924
0.286145058331666,-0.958187600206307
0.300390436998882,-0.953552763968657
0.314524776092046,-0.948239660540772
0.328545251391362,-0.942254451000135
0.342449206996097,-0.935604459837232
0.356234154151646,-0.928298160107245
0.369897769726646,-0.920345156101863
0.383437894345303,-0.911756163579513
0.396852530180849,-0.902542987597686
0.410139838416778,-0.892718497996406
0.423298136383293,-0.882296602587094
0.436325894377044,-0.871292218106175
0.449221732173002,-0.859721238997757
0.461984415237949,-0.847600504094512
0.47461285065574,-0.834947761270599
0.487106082775124,-0.821781630144927
0.499463288591514,-0.808121562917416
0.511683772874697,-0.793987803425067
0.523766963054999,-0.779401344508574
0.535712403880996,-0.764383883783993
0.547519751862307,-0.748957777917507
0.559188769511518,-0.733145995504643
0.570719319399692,-0.716972068658419
0.58211135804034,-0.700460043413719
0.593364929617095,-0.683634429057859
0.604480159570658,-0.666520146499655
0.6154572480609,-0.649142475791454
0.62629646332025,-0.631527002920441
0.636998134914746,-0.613699565987159
0.647562646929312,-0.595686200890538
0.657990431093957,-0.577513086639787
0.668281959867754,-0.559206490414346
0.678437739497473,-0.540792712493624
0.688458303067857,-0.522298031178531
0.69834420356045,-0.503748647826805
0.708096006937928,-0.485170632123882
0.717714285270747,-0.466589867710489
0.727199609922851,-0.448031998287358
0.736552544813018,-0.42952237431636
0.745773639768223,-0.411086000436015
0.754863423985204,-0.392747483707728
0.763822399616121,-0.374530982807233
0.772651035493931,-0.356460158273602
0.781349761012749,-0.338558123925802
0.789918960178116,-0.320847399554162
0.798358965841681,-0.303349864991264
0.80667005413439,-0.286086715663654
0.814852439111778,-0.269078419722491
0.822906267624519,-0.252344676847685
0.830831614426802,-0.235904378816333
0.838628477534602,-0.219775571922327
0.846296773845305,-0.203975421329856
0.853836335029541,-0.18852017743918
0.861246903705478,-0.1734251443386
0.868528129905128,-0.158704650411827
0.87567956784159,-0.144372021165159
0.882700672985433,-0.130439554333926
0.889590799457708,-0.116918497322527
0.896349197746363,-0.103819027027206
0.902975012752069,-0.0911502320853677
0.909467282168736,-0.0789200975897987
0.915824935203184,-0.0671354923006829
0.922046791637691,-0.055802158382687
0.928131561238334,-0.0449247036887626
0.934077843511236,-0.0345065966066243
0.939884127808043,-0.0245501634781235
0.945548793781143,-0.0150565885960042
0.95107011218833,-0.0060259167767579
0.956446246045827,0.00254294149745689
0.961675252127747,0.010652202380602
0.966755082809309,0.0183051984267385
0.971683588250303,0.0255063658403517
0.976458518914528,0.0322612292427852
0.981077528420143,0.0385763839901025
0.985538176715113,0.0444594760831594
0.989837933571171,0.0499191797160449
0.993974182388986,0.0549651725143302
0.997944224306502,0.0596081085197147
1.0017452826017,0.0638595889826993
1.00537450738041,0.0677321310298046
1.00882898053895,0.0712391342766011
1.0121057209911,0.0743948454624042
1.0152016901478,0.0772143211869021
1.01811379763785,0.0797133888332243
1.02083890725697,0.0819086057660042
1.02337384313224,0.0838172168968417
1.02571539608839,0.0854571107132148
1.02786033020186,0.0868467738703187
1.02980538952823,0.0880052444485162
1.03154730498798,0.0889520639820645
1.03308280139552,0.0897072283675202
1.03440860461573,0.0902911377627273
1.03552144883207,0.0907245455895409
1.03641808391015,0.0910285067554415
1.03709528284026,0.0912243252109316
1.03754984924211,0.0913335009610917
1.03777862491514,0.0913776766508825
1.03777849741736,0.0913785838447326
1.03754640765559,0.091357989121629
1.03707935747014,0.0913376401073352
1.0363744171968,0.0913392115654988
1.03542873318896,0.0913842516692744
1.03423953528288,0.0914941285746825
1.03280414418921,0.0916899774162424
1.03111997879397,0.0919926478444766
1.02918456335229,0.0924226522236612
1.02699553455856,0.0930001146067268
1.02455064847686,0.0937447206024663
1.02184778731574,0.0946756682482137
1.0188849660318,0.0958116199989053
1.01566033874691,0.0971706559409371
1.01217220496423,0.0987702283364921
1.00841901556859,0.100627117601035
1.00439937859743,0.102757389813462
1.00011206476869,0.105176355854978
0.995556012752822,0.107898532269104
0.99073033417649,0.110937603931406
0.985634318346161,0.114306388613448
0.980267436680334,0.118016803521276
0.974629346839844,0.122079833884285
0.968719896546279,0.126505503665763
0.962539127079231,0.13130284846166
0.956087276443799,0.136479890649219
0.949364782200464,0.142043616842079
0.942372283950191,0.147999957703334
0.935110625468352,0.154353770162701
0.927580856481828,0.161108822078629
0.919784234084411,0.168267779380679
0.911722223786428,0.175832195721971
0.90339650019527,0.183802504665876
0.894808947324353,0.192178014425475
0.885961658528792,0.200956905168572
0.876856936066926,0.21013622889534
0.867497290287607,0.219711911889902
0.857885438444008,0.229678759741404
0.848024303135493,0.240030464924385
0.837917010379909,0.250759616922516
0.827566887319467,0.26185771487411
0.816977459564165,0.273315182712144
0.806152448177508,0.285121386765955
0.795095766310027,0.297264655786277
0.783811515486914,0.30973230334985
0.772303981556791,0.322510652594498
0.760577630309389,0.335585063230395
0.748637102770639,0.348939960768087
0.736487210184372,0.362558867898921
0.724132928690486,0.376424437958698
0.711579393710126,0.390518490400677
0.698831894049047,0.40482204819961
0.685895865730924,0.419315377104094
0.672776885572989,0.433978026650461
0.659480664516895,0.448788872847389
0.646013040728287,0.463726162436761
0.632379972478991,0.478767558632698
0.618587530826272,0.493890188237408
0.604641892103991,0.509070690029391
0.590549330240936,0.524285264316678
0.57631620892194,0.539509723545187
0.561948973607761,0.554719543849866
0.547454143429989,0.569889917434212
0.532838302977496,0.584995805661853
0.518108093991201,0.600011992742301
0.503270206984092,0.61491313989161
0.488331372803605,0.629673839847612
0.473298354153581,0.644268671618596
0.4581779370931,0.658672255343739
0.442976922529515,0.67285930714333
0.42770211772304,0.686804693836857
0.412360327820178,0.70048348740726
0.396958347433223,0.713871019090229
0.381502952282942,0.726942932968234
0.366000890921406,0.739675238950057
0.350458876551728,0.752044365017948
0.334883578961278,0.764027208626134
0.319281616584637,0.775601187136298
0.303659548712299,0.786744287177749
0.288023867860762,0.797435112822419
0.272380992319298,0.807652932467399
0.256737258888302,0.817377724320631
0.241098915823652,0.826590220388447
0.225472116001082,0.835271948866967
0.209862910314059,0.843405274842926
0.194277241318112,0.850973439213229
0.178720937134051,0.857960595736493
0.163199705621874,0.864351846133998
0.1477191288366,0.870133273161776
0.132284657776621,0.875291971580088
0.116901607434482,0.879816076951203
0.101575152159363,0.883694792201228
0.0863103213398197,0.886918411886677
0.0711119954146123,0.889478344111617
0.0559849022187383,0.891367130046396
0.0409336136710314,0.892578461004319
0.0259625428089095,0.893107193038076
0.0110759411751118,0.892949359023192
-0.00372210343955136,0.892102178201421
-0.0184276688941853,0.890564063162587
-0.0330370002340927,0.888334624249123
-0.0475465108637103,0.885414671373247
-0.0619527833553718,0.881806213242508
-0.0762525698938737,0.877512453995144
-0.0904427923576361,0.872537787252511
-0.104520542038052,0.866887787601542
-0.11848307899942,0.860569199525926
-0.132327831082675,0.85358992381036
-0.146052392556871,0.845959001447862
-0.159654522423217,0.837686595085669
-0.173132142377176,0.828783968050712
-0.186483334434941,0.81926346100106
-0.199706338231295,0.809138466254982
-0.212799547996654,0.798423399854448
-0.225761509221723,0.787133671424927
-0.238590915018955,0.77528565189823
-0.251286602190607,0.7628966391699
-0.263847547013907,0.749984821767235
-0.276272860754382,0.736569240608462
-0.288561784919063,0.722669748937795
-0.300713686261828,0.708306970525197
-0.31272805155367,0.693502256223478
-0.324604482131225,0.678277638979047
-0.33634268823735,0.662655787396032
-0.347942483168006,0.646659957956721
-0.359403777240111,0.630313946004235
-0.370726571595444,0.613642035596108
-0.381910951855983,0.596668948339914
-0.392957081646424,0.579419791324402
-0.403865195999902,0.561920004261502
-0.414635594663146,0.544195305956418
-0.425268635317562,0.52627164022441
-0.435764726732876,0.508175121374154
-0.446124321870113,0.489931979378478
-0.456347910950784,0.471568504853963
-0.466436014509226,0.453110993971322
-0.476389176445028,0.434585693418591
-0.486207957092509,0.416018745539035
-0.495892926324104,0.397436133765273
-0.505444656704457,0.378863628470456
-0.514863716711892,0.360326733356339
-0.524150664043728,0.341850632496967
-0.533306039021741,0.323460138155104
-0.542330358113802,0.3051796394869
-0.551224107587463,0.287033052248209
-0.559987737310943,0.269043769613779
-0.568621654716594,0.251234614218031
-0.577126218941597,0.233627791523342
-0.585501735160155,0.21624484461889
-0.593748449121071,0.199106610549774
-0.601866541904055,0.182233178272828
-0.609856124907649,0.165643848331791
-0.617717235081079,0.149357094340728
-0.625449830411806,0.133390526360507
-0.633053785679938,0.117760856248922
-0.640528888490052,0.102483865060615
-0.647874835590342,0.0875743725683828
-0.655091229488322,0.0730462089727122
-0.662177575371656,0.0589121888614748
-0.669133278341964,0.0451840874767004
-0.675957640968738,0.0318726193401664
-0.682649861169754,0.0189874192843145
-0.68920903042364,0.00653702592955216
-0.695634132319447,-0.00547113235637839
-0.701924041447354,-0.0170307489869156
-0.708077522633791,-0.0281366481485883
-0.714093230523523,-0.0387847912375043
-0.719969709510394,-0.0489722807273537
-0.725705394017659,-0.0586973614615344
-0.731298609128022,-0.0679594193678366
-0.736747571562655,-0.076758977599808
-0.742050391007737,-0.0850976901147417
-0.747205071786175,-0.0929783327038858
-0.752209514871433,-0.10040479149623
-0.757061520239565,-0.107382048962811
-0.761758789554793,-0.113916167454108
-0.766298929183178,-0.120014270308566
-0.770679453528194,-0.125684520575757
-0.774897788681252,-0.130936097402965
-0.778951276379499,-0.135779170139246
-0.782837178262513,-0.140224870216073
-0.786552680418794,-0.144285260868665
-0.790094898212309,-0.147973304766916
-0.793460881378674,-0.151302829629493
-0.796647619379935,-0.154288491899195
-0.799652047006303,-0.156945738561982
-0.802471050212624,-0.159290767196225
-0.805101472176807,-0.161340484342684
-0.807540119566904,-0.163112462289472
-0.809783769003071,-0.164624894369788
-0.811829173700131,-0.165896548873534
-0.813673070276071,-0.16694672167702
-0.815312185711378,-0.167795187697819
-0.816743244443775,-0.16846215128445
-0.817962975582568,-0.168968195652962
-0.818968120226535,-0.169334231484594
-0.819755438869018,-0.169581444800567
-0.820321718873673,-0.169731244231685
-0.820663782004121,-0.169805207801746
-0.820778491990613,-0.169825029344875
