0.384669931639629,0.211459840595504
0.384422242280927,0.211559592448395
0.383700473713048,0.211922285988944
0.382536669371991,0.212642102749699
0.423561731676644,0.247516417197177
0.356360382407052,0.257006476550614
0.398913594873506,0.191900569195624
0.374091287135061,0.220885408289413
0.40162780830483,0.197138425135102
0.334946547914641,0.226903196231711
0.389976285225929,0.247332550104979
0.349457426516756,0.280262937382673
0.327865125394603,0.28925079976348
0.353172274205775,0.257610817005205
0.372824447184125,0.279329074814417
0.387000124252402,0.310688778774284
0.383253511578329,0.251294968026677
0.355578898910746,0.325849051715752
0.287952431236803,0.2803504344723
0.349457823482293,0.282726124260915
0.359735884120308,0.317496557691822
0.282477048948115,0.323652416140211
0.311097118669014,0.383379355671318
0.30663426715538,0.445974427245431
0.300305220285631,0.422111060067117
0.294668154979624,0.442616793580085
0.262620306666717,0.422174022725424
0.264128735072061,0.502568569252392
0.281934576683337,0.510242801602366
0.221727594778809,0.563905640788423
0.263386313335005,0.552952963711951
0.25636578148132,0.575860183481257
0.249037263445965,0.598786964530971
0.280991918228177,0.594079698810935
0.22551937684257,0.625997502193036
0.224964536902062,0.666511452973925
0.250525211316924,0.661474912262542
0.208270249685309,0.702968243357876
0.226592474409228,0.74334694960408
0.187138188613693,0.749999453604073
0.176520130194618,0.768913201608321
0.168343132485139,0.743527466918069
0.132569951504473,0.811380421696335
0.0995499481194482,0.835073769695797
0.124121442414117,0.864555219917831
0.115714487824932,0.846948711521638
0.0665614015655927,0.860047542920045
0.0494958620733931,0.868237062749191
0.0644353479171888,0.881524243123549
0.057461021466819,0.885351607616167
0.0415858811436027,0.891243495861287
0.0252100640161351,0.895617755721235
0.00835167976201773,0.898475684829047
0.0381501034733179,0.859764946407246
0.0012980326292905,0.930530224450663
-0.0448864371671265,0.898120614920499
-0.0634261261715771,0.89513299123543
-0.0823078041430623,0.890788454541285
-0.101494203784053,0.885147264001215
-0.120945418811481,0.878278016764211
-0.140619129768557,0.870257017913239
-0.16047085141396,0.86116758487463
-0.180454199610603,0.85109929250858
-0.20052117546206,0.840147165626554
-0.220622464290562,0.828410826147184
-0.24070774691765,0.815993602503638
-0.260726020598274,0.803001609248971
-0.280625926872299,0.789542805068564
-0.300356083534888,0.775726037598153
-0.319865417889534,0.761660083560433
-0.339103498435008,0.747452692771727
-0.358020862150298,0.733209644532525
-0.376569334579532,0.719033824801981
-0.394702339981729,0.705024332367909
-0.412375198897266,0.691275621961975
-0.429545410593546,0.677876691937094
-0.446172917985467,0.664910323723404
-0.462220352780722,0.652452379814209
-0.477653258774352,0.640571166508116
-0.492440291409806,0.62932686705294
-0.506553391933213,0.618771050205912
-0.519967934691925,0.608946258549077
-0.532662846365486,0.599885680184402
-0.544620696165045,0.591612906686481
-0.555827756293583,0.58414177941848
-0.566274032221846,0.577476325525952
-0.575953262601356,0.571610784120544
-0.58486288890378,0.566529722358384
-0.593003995143014,0.562208240313538
-0.600381218300098,0.558612262752262
-0.607002630329306,0.555698915136187
-0.612879592873959,0.553416980428814
-0.618026586060687,0.551707432556615
-0.622461012968655,0.550504041689994
-0.626202981583832,0.549734045866563
-0.629275066245691,0.549318882885307
-0.631702050773052,0.549174975860576
-0.633510655615596,0.54921456534425
-0.63472925151635,0.549346580507226
-0.635387562287029,0.54947754152115
-0.635516359391428,0.54951248500141
-0.6351471511013,0.549355904165077
-0.63431186903367,0.548912695224776
-0.633042554897992,0.548089101482452
-0.631371050275711,0.546793646606225
-0.629328692223771,0.544938048668845
-0.626946017437649,0.54243810669678
-0.624252477629117,0.539214551723166
-0.621276168669838,0.535193854653635
-0.618043575925059,0.53030898363846
-0.614579338053182,0.524500104094187
-0.610906031378188,0.517715215028941
-0.607043976754312,0.509910715893267
-0.60301107063765,0.501051898797755
-0.598822641859411,0.491113361604121
-0.594491335362174,0.480079338102133
-0.590027023915991,0.467943942224244
-0.585436748577567,0.454711324016705
-0.580724688395344,0.440395735873157
-0.575892159598505,0.425021508337471
-0.57093764424095,0.408622935589566
-0.565856848004673,0.391244071534072
-0.560642786602997,0.372938438209643
-0.555285899965197,0.353768649019522
-0.549774193132461,0.333805950044517
-0.544093402553155,0.313129683431073
-0.538227186235133,0.291826677543223
-0.532157335996413,0.269990569221471
-0.525864009854916,0.247721064098432
-0.519325982414787,0.225123141474814
-0.512520910942963,0.202306210755187
-0.505425614686286,0.179383226876449
-0.498016364858162,0.156469772529234
-0.490269182625375,0.133683115270242
-0.482160142351247,0.111141247849174
-0.473665677301419,0.0889619202253829
-0.464762884993668,0.0672616718253238
-0.455429829373497,0.0461548725916707
-0.445645837022872,0.025752781298498
-0.435391784660018,0.00616262945498602
-0.424650375263383,-0.0125132611059982
-0.413406400251915,-0.0301783191563778
-0.401646985275832,-0.0467425160880798
-0.389361817316095,-0.0621231020186322
-0.376543350955356,-0.0762452794871156
-0.363186991867009,-0.0890428087946511
-0.349291255770274,-0.100458539650832
-0.33485790131633,-0.110444864442268
-0.319892035601417,-0.1189640891359
-0.304402191245446,-0.125988718561759
-0.288400374226906,-0.131501653580842
-0.27190208192441,-0.135496298426942
-0.254926291079811,-0.137976577309733
-0.237495415665102,-0.138956860172865
-0.219635234902828,-0.138461798308281
-0.201374791955194,-0.136526071329067
-0.182746264058011,-0.133194047790844
-0.163784805129818,-0.128519362518918
-0.144528362131579,-0.122564414438351
-0.125017466686281,-0.115399789410113
-0.105295003688199,-0.10710361324232
-0.0854059588368977,-0.0977608406652581
-0.0653971472190552,-0.0874624866269326
-0.0453169252305128,-0.076304806777201
-0.0252148882798874,-0.0643884344586073
-0.00514155684239431,-0.0518174819067744
0.0148519464629685,-0.0386986136792537
0.0347142260189069,-0.0251401005762439
0.054393945767695,-0.0112508624873632
0.0738401623396852,0.00286049130576715
0.0930026559045699,0.0170866158218986
0.111832255916594,0.0313223695750469
0.130281158969117,0.045465730911955
0.148303236042879,0.0594186833392813
0.165854326525332,0.0730880619674326
0.182892516494749,0.0863863535479656
0.199378398901349,0.0992324429985442
0.215275313437267,0.111552299789887
0.230549564066328,0.123279598108624
0.24517061238176,0.134356265303761
0.25911124517331,0.144732953767148
0.272347714812992,0.154369432084291
0.284859851308649,0.163234892014863
0.29663114512475,0.171308168615967
0.307648800127905,0.178577871598755
0.317903756278361,0.185042426803637
0.327390681955764,0.190710027483702
0.33610793607542,0.195598495893211
0.34405750041775,0.199735056480632
0.351244882856234,0.203156022776767
0.35767899242555,0.205906400840765
0.363371987419561,0.208039412873553
0.368339097946042,0.209615945322623
0.372598424589475,0.210703926477891
0.376170715042906,0.211377639189462
0.379079120762841,0.211716974918896
0.381348935875724,0.211806635860933
0.383007320719262,0.211735292337673
0.384083012535141,0.211594703068101
0.384606025940591,0.211478806248641
