0.610959079306847,-0.569231505597223
0.619653325374195,-0.557040389329797
0.627562318799203,-0.544298027700817
0.63466799848059,-0.531038003332015
0.640955765161144,-0.517295899295471
0.646414588217613,-0.50310906580139
0.543224347721831,-0.600697975080005
0.654819619973167,-0.473557982128773
0.657762279656302,-0.458275044594471
0.659868962259515,-0.442709483991432
0.661147342585726,-0.426903709363585
0.661608855673329,-0.410900353408897
0.661268651404962,-0.394742006641915
0.660145527125011,-0.378470953578044
0.658261838607717,-0.362128912605341
0.655643389850293,-0.345756781182987
0.652319302295187,-0.329394387968784
0.648321864211829,-0.313080253431233
0.643686361090052,-0.296851360445249
0.638450888014121,-0.280742936304741
0.632656145097238,-0.264788247510537
0.626345217160822,-0.249018408608965
0.619563338940157,-0.233462206265288
0.612357647187505,-0.218145939657743
0.508637779284682,-0.297104508786327
0.596871312772278,-0.188325137270696
0.588692068736144,-0.173859573274837
0.58029124510468,-0.159711697715105
0.571721417129748,-0.145893611732897
0.563035385416663,-0.132414360925175
0.55428588036184,-0.119279910875477
0.545525266591641,-0.106493143487544
0.640635261688701,0.0156371385687201
0.528176583230065,-0.0819588892651191
0.519688789026333,-0.0702020048137588
0.61562706733817,0.0348578457128742
0.503326061521843,-0.0476634347322955
0.495541534970513,-0.0368553262095311
0.488078186571433,-0.0263327226794494
0.480975384664826,-0.0160761348997704
0.474269753472048,-0.00606384741690469
0.467994969108535,0.00372789914906496
0.462181572705689,0.0133247120557777
0.456856801749997,0.0227538379147271
0.347074264272196,-0.0731716094196385
0.44776469133031,0.0412248842489571
0.44403406486577,0.0503274711942031
0.44086529437318,0.0593832224822799
0.43826727008586,0.0684241164724855
0.436244996733758,0.0774823388054497
0.329579951730512,-0.0316863659463547
0.433928197007494,0.0957790220012804
0.433624186212751,0.105080603742194
0.433877030850382,0.114525253375488
0.539415569583961,0.217059985651424
0.435992540576196,0.133960197749058
0.43781577735111,0.144005267621823
0.440117259623947,0.154302505050487
0.442868807955005,0.164874856352709
0.446039147481322,0.175743124440014
0.449594097610067,0.186925785430326
0.453496778239786,0.198438820197045
0.457707831253547,0.210295561984761
0.462185655937189,0.222506561120934
0.46688665689333,0.235079467745558
0.471765502948002,0.248018933367643
0.476775395482265,0.261326531938945
0.481868344566213,0.275000701012527
0.486995451227889,0.289036703427235
0.492107194154862,0.303426609829737
0.49715371910199,0.318159302214269
0.502085129265167,0.333220498527471
0.506851774877856,0.348592798252453
0.511404540294828,0.364255748753437
0.515695126845809,0.380185932030702
0.519676329770476,0.396357071405993
0.523302307585355,0.412740157531863
0.526528842282283,0.429303592995342
0.529313588817031,0.44601335466767
0.531616312414957,0.462833172838357
0.623810897629526,0.581519324141061
0.534626630521686,0.496647850562756
0.535266244709221,0.51356076288605
0.535288243561381,0.530420294523795
0.534665984140393,0.547182137008034
0.416336890483936,0.472496538980933
0.53139826960145,0.5802313529541
0.528716013724734,0.596426732295737
0.525316072417913,0.612340973225375
0.521188810025937,0.627928003711317
0.516328178678997,0.643142215429928
0.510731729901946,0.657938737794959
0.504400604384929,0.672273709392753
0.497339500059621,0.686104545130492
0.489556618759051,0.699390197427162
0.481063591870705,0.712091409809892
0.566815007270649,0.837491566464781
0.36658572611385,0.625242069834533
0.451489265914999,0.746327765337131
0.440336832847953,0.756342794154307
0.428579860086416,0.765612115494212
0.416247901977626,0.774111926368005
0.403372894261323,0.781821651371875
0.489976452888489,0.903444431393133
0.37613208922466,0.79480550719346
0.255947522972847,0.708687930885269
0.4397752100941,0.922214011086627
0.43458179501198,0.913139200809263
0.224058138649715,0.719994559576176
0.301121596138485,0.812672799639457
0.2852624264778,0.813745745064259
0.269216337426345,0.814005264712925
0.25302586761586,0.813467427503187
0.236733184236624,0.812151929569899
0.220379824088515,0.810081999889799
0.204006440363167,0.807284284870276
0.187652556748835,0.803788712538198
0.171356330400254,0.799628337090027
0.155154325256976,0.794839164685123
0.13908129712554,0.789459961479451
0.123169991863925,0.783532045006331
-0.0087080730674287,0.673695497439914
0.0919523743950882,0.770206740761384
0.0766998956600775,0.762902659074289
0.061716513531778,0.755235963116629
0.0470224377957982,0.747257104934781
0.0326349958313966,0.73901756046728
0.0185685519279702,0.730569542976406
0.00483444676931219,0.721965711695428
-0.00855904256864845,0.713258877416369
-0.0216067218918507,0.704501706763354
-0.0343064783512868,0.695746426906101
-0.0466592581454508,0.68704453246695
-0.0586690236443947,0.678446496362972
-0.0703426902487586,0.670001486302215
-0.0816900434261494,0.661757088620131
-0.092723636493388,0.65375904109904
-0.103458669835653,0.646050976360105
-0.113912852371666,0.638674177354399
-0.124106246187044,0.631667346407246
-0.134061095365037,0.625066389188925
-0.23784418079868,0.502647728184153
-0.153353917628555,0.613210553823763
-0.162745550352484,0.608011793428173
-0.172005524098197,0.603330833819384
-0.181163956409618,0.599186963568192
-0.19025185732426,0.595595756539326
-0.19930088388549,0.592568990361301
-0.208343090040325,0.590114587005678
-0.320925425028957,0.494307509581868
-0.226535721620474,0.586935079192222
-0.235749956758382,0.586206320996741
-0.350667438192064,0.481174621949286
-0.358105044061987,0.488987360865009
-0.264234273865464,0.587361046667018
-0.274106455185119,0.588809066180923
-0.190315074366949,0.697406119660254
-0.294576250940351,0.593171094836429
-0.192022255702574,0.705072311532182
-0.31616594792133,0.599300195566337
-0.327429805095656,0.602945636524578
-0.441232223419403,0.487841215984177
-0.350972051615284,0.611210920042007
-0.363272926022443,0.61574869816883
-0.37593715533837,0.620498472170782
-0.388968628306273,0.625414518523672
-0.402368139499379,0.630449714624808
-0.416133335574629,0.635555816618597
-0.520526800384893,0.546696436650265
-0.444735451531452,0.645783861826889
-0.459551731595305,0.65080628118944
-0.474692455575537,0.655701138896193
-0.490139452901456,0.660418891932912
-0.505871520675303,0.664910602583182
-0.621115761134491,0.576765200510918
-0.538091464856276,0.673024855198352
-0.554522698235718,0.676555048684457
-0.571125995862998,0.679675027712206
-0.58786675553716,0.68234295306456
-0.604708175758548,0.684519153051497
-0.62161145432745,0.686166343633882
-0.638536001179688,0.687249833345183
-0.655439664172457,0.687737711819141
-0.6722789664497,0.687601020834325
-0.689009353940583,0.686813906895815
-0.705585451477892,0.685353754489507
-0.721961325965764,0.683201299264931
-0.842644524528177,0.588319088666434
-0.753927499134027,0.676759712547975
-0.769425576559776,0.672449534333897
-0.784539537748404,0.667405037629819
-0.799224739098422,0.661624673061857
-0.920979378233581,0.550661563981004
-0.921117013280118,0.548698106972626
-0.840279083027331,0.639906381399141
-0.967349867976403,0.514889230607676
-0.86474686639551,0.621878746071796
-0.966607887038017,0.512028107721993
-0.886557314628252,0.601166325899956
-0.896388318787724,0.589860125061597
-0.905467370550537,0.577956538700104
-0.913771459578648,0.565485735775107
-1.02155292357084,0.450877592493132
-0.927979167457122,0.538974586453965
-0.933853614501771,0.525005347850418
-0.938894968600369,0.510610642020073
-0.943097707049695,0.495830012054555
-0.946460051299522,0.480704146746037
-0.948983999273971,0.465274620930357
-0.843104378605702,0.566876183588664
-0.951543619395634,0.433673734006153
-0.951602150268587,0.417587571807899
-0.950867911587048,0.401367615668748
-0.949361492375409,0.385055899261577
-0.947106987596593,0.368693761964187
-0.94413187757625,0.352321597324687
-0.940466887205736,0.33597860924015
-0.936145825715758,0.319702577377023
-0.931205407931899,0.303529633300591
-0.925685058037214,0.287494048710426
-0.91962669697483,0.27162803709974
-0.913074514724431,0.255961570069358
-0.90607472877997,0.240522209432157
-0.898675330241405,0.225334956141944
-0.890925819010145,0.210422116972436
-0.990903908773115,0.105737306680591
-0.990039852300062,0.0650974196782722
-0.866088430789933,0.16751046462994
-0.857453898322512,0.153860857706241
-0.84872955458444,0.140553454467634
-0.839967983963577,0.127592677814999
-0.831221257846173,0.114979872937099
-0.822540642345101,0.102713334774972
-0.813976310395446,0.0907883559985888
-0.805577059929242,0.0791972951499428
-0.895039298918767,-0.0497292089885971
-0.789460485126372,0.0569722368684721
-0.781831463512869,0.0463091711400007
-0.774543633851523,0.0359221548811917
-0.871115577471303,-0.0838178794447147
-0.873337679644711,-0.0992735485471319
-0.755093088137763,0.00620066565948618
-0.749520812319697,-0.00330880389614696
-0.744449494348046,-0.012664756227692
-0.739901142282231,-0.0218964820895798
-0.735894124852519,-0.0310343448505753
-0.732443073651468,-0.0401095395220747
-0.824152940515129,-0.163938292657998
-0.625131834481336,0.037645935534353
-0.725514535153739,-0.0672783292803087
-0.724356728927494,-0.0764227199300719
-0.832269277807919,-0.190992156457286
-0.60987672076789,-0.00206174884668703
-0.621198932906019,0.0113471736515218
-0.725332453555699,-0.114274846123613
-0.726907015150654,-0.124203053355801
-0.728972696706764,-0.134371212301212
-0.731502932146718,-0.144803267874796
-0.734467971686918,-0.155521118501359
-0.838510006007439,-0.266813849420691
-0.74156864845558,-0.177890438083349
-0.745630580875483,-0.189573830673411
-0.749980350427968,-0.201606561074578
-0.754575327344941,-0.213997743020285
-0.759371015350904,-0.22675353843541
-0.764321315481696,-0.239877068672654
-0.769378798523173,-0.253368345565569
-0.774494984423515,-0.267224222802975
-0.779620626993019,-0.281438368001437
-0.784706002175679,-0.296001255721919
-0.78970119815791,-0.310900181544483
-0.794556405571357,-0.326119297181781
-0.79922220604909,-0.341639666479018
-0.803649857407399,-0.357439342015675
-0.807791573748985,-0.373493461893662
-0.811600798817251,-0.389774366168303
-0.815032470975563,-0.406251732253564
-0.818043278239419,-0.422892728512011
-0.820591901853105,-0.439662185123794
-0.822639246975246,-0.456522781218337
-0.824148659119239,-0.473435247147945
-0.927304418029426,-0.59353474808516
-0.82542045721025,-0.507250275834275
-0.825123459893892,-0.524066562870005
-0.824170077415181,-0.540762658133544
-0.822538522238659,-0.557293022063412
-0.820210383076664,-0.573611623874129
-0.817170712126915,-0.589672211255223
-0.813408091026235,-0.605428583426543
-0.808914675194133,-0.620834865861157
-0.803686216373685,-0.635845784972719
-0.797722063311919,-0.650416941060347
-0.791025140656811,-0.664505077810792
-0.783601906282284,-0.678068346675012
-0.775462287385323,-0.691066564464035
-0.766619595829797,-0.703461462547062
-0.75709042333886,-0.715216926082931
-0.746894517261259,-0.726299221773968
-0.736054637755587,-0.736677212698644
-0.724596397349856,-0.746322558855816
-0.610070461848547,-0.641955853075411
-0.69994046839963,-0.763317034546492
-0.578586665301182,-0.6558044350274
-0.673181577282554,-0.777118468638209
-0.659102336979343,-0.7827853631245
-0.644607393805065,-0.787617435567234
-0.629736601345338,-0.791610095070187
-0.614530894425628,-0.794762505032272
-0.599032028331429,-0.797077609957731
-0.583282314579155,-0.79856214009702
-0.567324354917626,-0.79922659382046
-0.551200775247568,-0.799085197762519
-0.53495396114349,-0.798155844910302
-0.566778835482228,-0.835749221336168
-0.510913537162848,-0.811134622806416
-0.408592987565882,-0.713925532127886
-0.469559183594995,-0.787039770884375
-0.453305605475004,-0.782560318988107
-0.405699866379185,-0.745527043978759
-0.421167738607958,-0.771812245463627
-0.405348894693718,-0.765626202865925
-0.389736717926876,-0.758957713092049
-0.327390070634542,-0.800239250110561
-0.35923751027879,-0.744361840986433
-0.370022000600914,-0.733612286268057
-0.481139832131892,-0.798883230301085
-0.331464027742442,-0.720512909280804
-0.301723639902803,-0.711534132518487
-0.238679281470928,-0.696874099865299
-0.284328495027977,-0.704024632766038
-0.262064169709274,-0.685370920534831
-0.157510399954159,-0.560258146022126
-0.261279106667027,-0.704948276115084
-0.225516948466776,-0.659452177733535
-0.230672708745393,-0.646603302384378
-0.20257157155979,-0.627387478774279
-0.217052088503996,-0.678773025065358
-0.181382875983262,-0.638110083987989
-0.178582471454862,-0.651660143882877
-0.0589909783217865,-0.504898257359795
-0.193240596793403,-0.651567564758848
-0.141464651851369,-0.601247419896982
-0.096527597636517,-0.639901786119174
-0.000361336358262507,-0.46517807375604
-0.0211556997710445,-0.435836648347252
-0.0861242666695734,-0.546058169262203
-0.078087555772197,-0.602419770401294
0.0625406847709546,-0.47391327520622
0.0405559699777461,-0.471751770764341
-0.031827274376905,-0.59269117925468
-0.0561259269533732,-0.616603438490412
-0.0496640013845386,-0.571304808987602
-0.0402579230310321,-0.571419632100835
-0.00772653333726069,-0.544388745083413
-0.0299733066280339,-0.542327731169
0.0339119808785349,-0.534793011246566
-0.0658854730044452,-0.684016659668288
-0.0849063234444787,-0.685238245250398
-0.0812364521020522,-0.694831237429719
0.0134616956411188,-0.570181438509438
-0.00135151295062513,-0.636269823246105
0.0548915566562243,-0.594285697786406
0.0895053834171693,-0.555627653043378
0.119041088371558,-0.608323402065397
-0.0023261839574153,-0.701439878558271
0.105558179594363,-0.613170544160838
0.119141025679162,-0.61824728274818
0.133087188338931,-0.623370473259531
0.147389536759365,-0.628490722911639
0.162037748613523,-0.633558233477929
0.177018329403216,-0.638523091584243
0.19231465281361,-0.64333555866287
0.310191495726672,-0.541338402938695
0.223772750757329,-0.652306962938358
0.239886266320602,-0.656369867184478
0.256219229561249,-0.66008886448347
0.272740675540016,-0.663419307124698
0.289417171401441,-0.666318359075167
0.306212991407987,-0.668745236464948
0.323090307966217,-0.670661434835024
0.340009397499165,-0.672030941815212
0.356928859923329,-0.672820433991575
0.373805850400566,-0.672999456821992
0.390596321955186,-0.672540586564661
0.407255277475369,-0.671419573296753
0.423737029555747,-0.669615464218279
0.439995466585542,-0.667110706558975
0.455984323443782,-0.663891229532766
0.471657455130559,-0.659946504914348
0.486969111641062,-0.655269585944891
0.501874212377244,-0.649857124407941
0.516328618390943,-0.643709365851463
0.530289400761495,-0.636830123066812
0.543715103431005,-0.629226728069349
0.556565998850641,-0.620909962957712
0.568804334832073,-0.611893970158459
0.580394571048708,-0.60219614268923
0.591303603691744,-0.591836995195885
0.601500976855729,-0.580840016636528
0.610959079306847,-0.569231505597224
