-0.33151049102363,0.712105907560453
-0.323813777664243,0.704219196805653
-0.315478470980159,0.696849608728898
-0.306744694829596,0.689802694863812
-0.297701796712848,0.683006103031254
-0.288403203803554,0.67641656875907
-0.278886118913138,0.670003965804581
-0.269178675821345,0.663745511882154
-0.259303293635569,0.657623052356583
-0.249278497057595,0.651621586220144
-0.239120004984157,0.645728384561243
-0.228841428672859,0.639932425200798
-0.218454743845906,0.634224010390183
-0.207970623484238,0.628594497319846
-0.197398680431911,0.623036101662157
-0.186747649222957,0.61754175033092
-0.17602552556597,0.61210496852898
-0.165239675490089,0.606719791363553
-0.154396922224664,0.601380693492458
-0.143503616393651,0.596082532281812
-0.132565693477443,0.590820501274364
-0.12158872140126,0.585590091653175
-0.110577940357232,0.580387059994324
-0.0995382964391417,0.575207401030042
-0.0884744702907712,0.570047324449728
-0.0773909016937097,0.56490323498914
-0.0662918108171019,0.559771715222687
-0.0551812166994696,0.554649510597146
-0.0440629534170792,0.549533516338774
-0.0329406843045473,0.54442076593769
-0.0218179145244746,0.539308420969186
-0.0106980022289061,0.534193762055356
0.000415831487284357,0.529074180805002
0.0115204936750466,0.523947172597366
0.0226130115231746,0.5188103300974
0.0336905251371996,0.513661337408228
0.0447502810067315,0.508497964781099
0.055789626077659,0.503318063815156
0.0668060023578642,0.498119563089224
0.0777969419952744,0.492900464176099
0.088760062775565,0.487658837996656
0.0996930639939451,0.482392821476892
0.110593722661466,0.477100614475849
0.121459890011377,0.471780476956521
0.13228948827537,0.466430726375309
0.143080507703272,0.461049735268612
0.153831003802877,0.455635929017686
0.164539094779366,0.450187783775136
0.175202959156108,0.444703824538269
0.185820833560663,0.439182623356238
0.196391010661607,0.433622797659315
0.20691183724331,0.428023008699882
0.217381712407204,0.422381960095838
0.227799085889207,0.416698396468082
0.238162456484046,0.410971102164556
0.248470370568158,0.405198900064106
0.258721420713613,0.399380650454066
0.268914244386268,0.393515249976044
0.279047522721998,0.387601630634929
0.289119979375391,0.381638758866585
0.299130379435834,0.375625634660116
0.309077528406374,0.369561290730961
0.318960271241112,0.363444791741394
0.328777491437301,0.357275233565318
0.338528110178613,0.351051742594494
0.34821108552636,0.344773475083609
0.357825411655704,0.338439616531772
0.367370118134164,0.332049381098252
0.376844269239904,0.325602011050447
0.386246963317535,0.319096776242219
0.395577332169306,0.312532973620894
0.40483454047976,0.305909926761349
0.414017785272038,0.299226985425747
0.423126295394217,0.292483525147572
0.432159331034115,0.285678946838733
0.441116183261195,0.278812676418599
0.449996173594235,0.27188416446391
0.458798653593587,0.264892885878593
0.467523004476891,0.257838339582574
0.476168636757241,0.250720048218767
0.48473498990283,0.243537557877464
0.493221532017213,0.236290437837418
0.501627759539375,0.22897828032296
0.509953196962851,0.221600700276545
0.518197396573212,0.214157335146177
0.526359938203285,0.20664784468719
0.534440429005519,0.199071910777907
0.542438503240963,0.191429237248768
0.550353822084365,0.183719549724492
0.558186073444948,0.175942595478952
0.565934971802447,0.168098143302396
0.573600258058049,0.160185983380741
0.581181699399894,0.152205927186662
0.588679089182847,0.144157807382226
0.59609224682227,0.136041477732878
0.603421017701575,0.127856813032574
0.610665273093341,0.119603709039902
0.617824910093835,0.111282082425065
0.624899851570802,0.102891870727592
0.631890046124397,0.0944330323247093
0.63879546806119,0.0859055464102887
0.645616117381181,0.0773094129843298
0.652352019777801,0.0686446528529617
0.659003226650892,0.0599113076389584
0.665569815132713,0.0511094398027887
0.672051888126994,0.0422391326742518
0.678449574361157,0.0333004904947582
0.684763028451791,0.0242936384703532
0.690992430983532,0.0152187228355917
0.697137988601517,0.00607591092840501
0.703199934117604,-0.00313460872387988
0.709178526630607,-0.0124126263071809
0.715074051660791,-0.0217579106117466
0.720886821298933,-0.0311702089114483
0.726617174370286,-0.0406492468310074
0.732265476613799,-0.0501947282008611
0.737832120877024,-0.0598063348993348
0.743317527327134,-0.0694837266817608
0.748722143678558,-0.0792265409961433
0.754046445437761,-0.0890343927849387
0.759290936165759,-0.0989068742724772
0.764456147758995,-0.108843554737511
0.769542640749277,-0.118843980270333
0.774551004623511,-0.128907673513857
0.779481858164057,-0.13903413338801
0.784335849810564,-0.149222834796717
0.789113658044252,-0.159473228316719
0.79381599179566,-0.169784739867386
0.798443590876967,-0.180156770360625
0.8029972264401,-0.190588695329921
0.807477701461915,-0.201079864537437
0.81188585125787,-0.21162960155805
0.816222544025716,-0.222237203339087
0.820488681420843,-0.232901939734407
0.824685199165085,-0.243623053011411
0.828813067690925,-0.254399757329368
0.832873292823199,-0.265231238187385
0.836866916500596,-0.27611665184015
0.840795017539444,-0.287055124679424
0.84465871244249,-0.29804575257911
0.848459156255633,-0.309087600201483
0.852197543475827,-0.320179700261979
0.855875109013683,-0.331321052749706
0.859493129214614,-0.342510624100525
0.863052922942746,-0.353747346319326
0.866555852732219,-0.365030116047718
0.870003326010966,-0.376357793573032
0.873396796402551,-0.387729201774117
0.876737765112242,-0.399143124998915
0.880027782404125,-0.410598307868323
0.883268449176768,-0.422093454000241
0.886461418645798,-0.433627224647052
0.889608398142643,-0.445198237239025
0.89271115103974,-0.456805063825317
0.895771498813722,-0.468446229403232
0.898791323259406,-0.480120210125376
0.901772568868999,-0.491825431373005
0.904717245392675,-0.503560265682518
0.90762743059874,-0.515323030510317
0.910505273253946,-0.527111985819394
0.913352996347242,-0.538925331468792
0.916172900583418,-0.550761204384508
0.918967368176799,-0.562617675487417
0.921738866979457,-0.574492746350316
0.924489954983512,-0.586384345552028
0.927223285243073,-0.598290324691697
0.929941611268531,-0.610208454020573
0.932647792954355,-0.622136417641778
0.935344803111751,-0.634071808220264
0.938035734689769,-0.646012121135275
0.940723808783282,-0.657954747995613
0.943412383544336,-0.66989696942337
0.946104964135532,-0.681835946993839
0.948805213891486,-0.693768714197139
0.951516966888465,-0.705692166259528
0.954244242164989,-0.717603048627781
0.956991259890205,-0.729497943876308
0.959762459845701,-0.741373256740867
0.962562522675259,-0.753225196910857
0.965396394472662,-0.765049759118509
0.968269315430041,-0.776842699939903
0.971186853472615,-0.788599510558098
0.974154944080775,-0.800315384515844
0.977179937878481,-0.811985179179258
0.980268658095079,-0.82360336920616
0.983428470759712,-0.835163989703763
0.986667371580971,-0.846660565874915
0.98999409509289,-0.85808602463342
0.993418254139522,-0.869432581651646
0.996950521701811,-0.880691594120042
1.00060287350196,-0.891853364289982
1.00438892079757,-0.902906869982384
1.00832438248538,-0.913839382285655
1.01242778326717,-0.924635900192069
1.01672154225034,-0.935278269066421
1.02123379321464,-0.945743706623078
1.02600173897148,-0.956002086619361
1.0310788066945,-0.966010144583117
1.036554343884,-0.975695528335203
1.0426684743982,-0.984863789409244
-0.33151049102363,0.712105907560453
-0.325396360509431,0.702937646486412
-0.319920823319929,0.693252262734326
-0.314843755596905,0.68324420477057
-0.310075809840067,0.672985824774287
-0.305563558875774,0.66252038721763
-0.301269799892604,0.651878018343278
-0.297166399110812,0.641081500436864
-0.293230937423001,0.630148988133593
-0.289444890127388,0.619095482441191
-0.285792538327241,0.607933712271251
-0.282260270764952,0.596674699802855
-0.278836111718319,0.585328142784629
-0.275509388206401,0.573902684026124
-0.272270487385141,0.562406107854972
-0.269110674720509,0.550845487357369
-0.26602195450391,0.539227297330467
-0.262996960706205,0.527557502667053
-0.260028870098044,0.515841628709307
-0.257111332055471,0.504084818091111
-0.254238411098092,0.492291877269718
-0.251404539300689,0.480467315062066
-0.24860447647113,0.468615374892076
-0.245833276515635,0.456740062027516
-0.243086258790419,0.44484516677899
-0.240358983513894,0.432934284410737
-0.237647230516916,0.421010832348348
-0.234946980760962,0.409078065145048
-0.232254400169766,0.397139087574579
-0.229565825408712,0.385196866146822
-0.226877751315198,0.373254239286484
-0.224186819737181,0.361313926371473
-0.221489809579785,0.349378535792987
-0.218783627893961,0.337450572171781
-0.216065301868503,0.325532442842906
-0.213331971608941,0.313626463703237
-0.210580883604887,0.301734864501525
-0.207809384802228,0.289859793638626
-0.205014917208847,0.278003322535717
-0.202195012972671,0.266167449620001
-0.199347289879375,0.254354103970602
-0.196469447224169,0.242565148661526
-0.193559262018104,0.230802383833727
-0.190614585494429,0.219067549524214
-0.187633339884836,0.207362328276585
-0.184613515439152,0.195688347554441
-0.18155316766517,0.184047181976526
-0.178450414768072,0.172440355390234
-0.175303435271228,0.160869342798261
-0.172110465802198,0.149335572151451
-0.168869799029555,0.137840426019532
-0.165579781737672,0.126385243150124
-0.16223881302798,0.114971319925326
-0.158845342636396,0.103599911724241
-0.155397869357649,0.0922722341989267
-0.151894939568175,0.0809894644705355
-0.148335145840043,0.0697527422517343
-0.144717125639112,0.0585631709009149
-0.141039560101257,0.0474218184131885
-0.137301172881063,0.0363297183526917
-0.13350072906792,0.0252878707303193
-0.129637034164874,0.0142972428306329
-0.125708933126025,0.00335876999135865
-0.121715309448628,-0.00752664366140576
-0.117655084316354,-0.0183581245194234
-0.113527215790514,-0.0291348288373801
-0.109330698046272,-0.0398559421143838
-0.105064560651146,-0.0505206785097046
-0.1007278678833,-0.0611282802907408
-0.0963197180873444,-0.0716780173113543
-0.09183924306553,-0.08216918651887
-0.0872856075023971,-0.0926011114881662
-0.0826580084210896,-0.102973141981406
-0.0779556746696817,-0.113284653532072
-0.0731778664359936,-0.123535047052074
-0.0683238747894869,-0.133723748460781
-0.063393021248941,-0.143850208334934
-0.0583846573747063,-0.153913901578458
-0.0532981643844246,-0.16391432711128
-0.0481329527911886,-0.173851007576314
-0.042888462063191,-0.183723489063852
-0.0375641603039879,-0.193531340852648
-0.032159543952564,-0.20327415516703
-0.0266741375024537,-0.212951546949456
-0.0211074932392284,-0.22256315364793
-0.0154591909957151,-0.232108635017784
-0.0097288379243628,-0.241587672937343
-0.00391606828622021,-0.250999971237044
0.00197945674396371,-0.26034525554161
0.00795804925696686,-0.269623273124911
0.0140199947730538,-0.278833792777196
0.020165552391038,-0.287976604684383
0.0263949549227795,-0.297051520319144
0.0327084090134135,-0.306058372343549
0.0391060952475765,-0.314997014523043
0.0455881682418574,-0.32386732165158
0.052154756723678,-0.332669189487749
0.0588059635967697,-0.341402534701753
0.0655418659933889,-0.350067294833121
0.07236251531338,-0.35866342825908
0.0792679372501731,-0.3671909141735
0.0862581318037682,-0.375649752576383
0.0933330732807354,-0.384039964273856
0.10049271028123,-0.392361590888693
0.107736965672995,-0.400614694881365
0.115065736552301,-0.408799359581669
0.122478894191724,-0.416915689231017
0.129976283974676,-0.424963809035453
0.137557725316521,-0.432943865229533
0.145223011572123,-0.440856025151187
0.152971909929622,-0.448700477327743
0.160804161290205,-0.456477431573283
0.168719480133608,-0.464187119097559
0.176717554369051,-0.471829792626699
0.184798045171285,-0.479405726535981
0.192960586801358,-0.486915216994968
0.201204786411719,-0.494358582125336
0.209530223835195,-0.501736162171751
0.217936451357357,-0.509048319686209
0.226422993471741,-0.516295439726255
0.234989346617329,-0.523477930067558
0.243634978897679,-0.530596221431365
0.252359329780984,-0.537650767727385
0.261161809780336,-0.544642046312702
0.270041800113376,-0.55157055826739
0.278998652340455,-0.558436828687524
0.288031687980354,-0.565241406996363
0.297140198102532,-0.571984867274538
0.306323442894811,-0.57866780861014
0.315580651205264,-0.585290855469685
0.324911020057036,-0.59185465809101
0.334313714134666,-0.598359892899238
0.343787865240406,-0.604807262947043
0.353332571718866,-0.611197498380563
0.362946897848211,-0.617531356932401
0.372629873195957,-0.623809624443285
0.382380491937269,-0.630033115414109
0.392197712133458,-0.636202673590185
0.402080454968196,-0.642319172579752
0.412027603938736,-0.648383516508907
0.42203800399918,-0.654396640715376
0.432110460652572,-0.66035951248372
0.442243738988302,-0.666273131824835
0.452436562660958,-0.672138532302857
0.462687612806412,-0.677956781912897
0.472995526890524,-0.683728984013347
0.483358897485364,-0.689456278316873
0.493776270967366,-0.695139841944629
0.50424614613126,-0.700780890548673
0.514766972712964,-0.706380679508106
0.525337149813907,-0.711940505205029
0.535955024218463,-0.71746170638706
0.546618888595205,-0.722945665623927
0.557326979571694,-0.728393810866477
0.568077475671298,-0.733807617117403
0.5788684950992,-0.7391886082241
0.589698093363194,-0.744538358805312
0.600564260713104,-0.74985849632464
0.611464919380625,-0.755150703325683
0.622397920599005,-0.760416719845447
0.633361041379296,-0.76565834602489
0.644351981016706,-0.770877444938015
0.655368357296911,-0.776075945663947
0.666407702367839,-0.78125584662989
0.677467458237371,-0.786419219257019
0.688544971851396,-0.791568211946191
0.699637489699524,-0.796705054446157
0.710742151887286,-0.801832062653793
0.721855985603477,-0.806951643904147
0.732975897899045,-0.812066302817978
0.744098667679118,-0.817178647786481
0.75522093679165,-0.822291398187565
0.76633920007404,-0.827407392445937
0.777449794191672,-0.832529597071478
0.78854888506828,-0.837661116837931
0.799632453665342,-0.842805206298519
0.810696279813712,-0.847965282878833
0.821735923731803,-0.853144941843115
0.83274670477583,-0.858347973501966
0.843723676852013,-0.863578383123155
0.854661599768221,-0.868840414130603
0.865554905599234,-0.874138575341249
0.87639765886466,-0.879477673212344
0.88718350894054,-0.884862850377771
0.897905632597527,-0.890299632179711
0.908556663806482,-0.895793983510948
0.919128606858808,-0.901352379168637
0.929612727220476,-0.906981892238974
0.93999941204743,-0.912690307049588
0.950277988358727,-0.918486266410034
0.960436480432166,-0.924379468068935
0.970461277010139,-0.930380934205374
0.980336659195915,-0.936503393730945
0.990044102287708,-0.942761847653372
0.999561187178125,-0.949174450607861
1.00885978008742,-0.955763984880045
1.01790267820417,-0.962560576712603
1.02663645435473,-0.969607490577689
1.03497176103881,-0.976977078654444
1.0426684743982,-0.984863789409244
