0.680447842586233,-0.88586488367673
0.691898301837705,-0.875621591678973
0.813479283246235,-0.965057478292588
0.711828264558788,-0.851866428087028
0.720246331363591,-0.838470675666202
0.636301621921857,-0.942940788660438
0.639788172326433,-0.928079965941623
0.832713350207957,-0.694294910980345
0.629437496576958,-0.87590069410514
0.84648497603194,-0.655782499110602
0.63311811496346,-0.624405540455385
0.63649466920807,-0.837746554617236
0.851983367852982,-0.809429908084906
0.859362357565593,-0.782679480823031
0.842217321833041,-0.766213574310541
0.746999036090171,-0.649451061634679
0.635245154144844,-0.727286519022623
0.852235031031793,-0.50617652728311
0.637063883064152,-0.709621087246098
0.841173796100983,-0.688544877073016
0.731368640122042,-0.559021467102189
0.72765815258072,-0.541988973125684
0.724005751299113,-0.525439264100523
0.720520411224407,-0.509412254607712
0.717309191787767,-0.493938967865821
0.714476010814069,-0.479041371343793
0.712120442742371,-0.464732329386815
0.71033655526099,-0.451015672272051
0.709211798086537,-0.437886379662785
0.708825957077638,-0.425330875013218
0.709250186177128,-0.41332742610931
0.712765139530077,-0.390852084395888
0.715947615053217,-0.380300908844787
0.720122443656861,-0.370144653272953
0.725306579245472,-0.360330036477774
0.731504746035045,-0.350799831692959
0.738709277780274,-0.341493778088097
0.74690009407771,-0.332349521642027
0.756044814681127,-0.323303572890057
0.766099011172048,-0.314292268894331
0.777006593738564,-0.305252726795662
0.788700329248078,-0.296123776473633
0.801102485272934,-0.286846860167096
0.814125593260194,-0.277366887385121
0.827673322645596,-0.267633034062555
0.841641456413356,-0.257599475676662
0.855918957413628,-0.247226044932019
0.870389113682115,-0.236478805628521
0.899419492741971,-0.213761111527399
0.913729072347834,-0.201757794207046
0.927732651452542,-0.189315405191263
0.941304161205716,-0.176436398345316
0.954319632352857,-0.163130822268139
0.966658505617821,-0.149416175433402
0.978204906745002,-0.135317156020852
0.988848871880434,-0.120865309939245
0.99848750953277,-0.10609858186747
1.00702608607702,-0.0910607754036463
1.02047079220092,-0.0603726202315167
1.02523670695633,-0.0448331952099635
1.02862358711607,-0.0292429542661415
1.03110819030308,0.00183924052293327
1.03016131655281,0.0172037746504086
1.02774662518584,0.0323661327859752
1.02387392669631,0.0472647127606756
1.01856575477602,0.061840404458906
1.01185708354055,0.0760374701271947
0.994437708293982,0.103094623230649
0.97956572288176,0.0962890592355828
0.980538098292423,0.119512215805735
0.948217955125895,0.110630147033614
0.950162502867332,0.155745707349509
0.935950105992653,0.195833885240481
0.933519016396341,0.171986703007418
0.899638967878643,0.180220642515378
0.869849006897401,0.200064516372987
0.875919054380137,0.164596688096843
0.869874898285908,0.17576258522686
0.819362933695774,0.199236189063509
0.796868673544815,0.197893753896719
0.797076197046047,0.223868513786668
0.766926281395758,0.240467929060305
0.758747641509436,0.238343708878727
0.795592268866455,0.254848559071898
0.762462280872767,0.271474276258009
0.733977847456959,0.244668790336907
0.678276792904732,0.192585803932921
0.683031796621556,0.194937088302836
0.673773906943294,0.2654366001318
0.661417884274535,0.270878949862436
0.649915583870095,0.276636743636432
0.634951593343477,0.279131708203237
0.629550570539901,0.289392013699872
0.632781187942274,0.308112879216237
0.612722212547882,0.30424412791579
0.60559904545275,0.312601113714812
0.617832647360476,0.323605638018027
0.593771955567693,0.331403102224146
0.58897381472138,0.341913365407624
0.584841905684254,0.353191223521047
0.578299230514213,0.378074634033238
0.573528201796307,0.405999751503156
0.571593541010148,0.421040442451558
0.569839388760769,0.436745775391456
0.568173791863027,0.453062589286737
0.564740699869494,0.487270634680005
0.555006393752448,0.559696973424435
0.551507448870889,0.578081988119093
0.54744388567987,0.596366653168381
0.542758535556562,0.614439424296801
0.537402135074381,0.632187378163137
0.531333801910977,0.649497432390607
0.524521399644871,0.666257580602396
0.516941788022451,0.682358128200608
0.508580956721076,0.697692914535148
0.499434042095317,0.712160507187849
0.489505227853975,0.725665354345779
0.47880753205747,0.738118881653624
0.455199697738319,0.759558655539283
0.428876535130641,0.775947747084381
0.414810626844778,0.782127413104047
0.400214446130603,0.786922155701942
0.385148459450207,0.790315769398726
0.369676889628382,0.792304427918905
0.321507731552137,0.789989806451873
0.288628170616934,0.781910493765841
0.255769392030391,0.769159862021843
0.239505507132668,0.761235378395135
0.223428154853055,0.752404671265056
0.207588221983544,0.74277256769125
0.192030804532854,0.732450536674868
0.17679465439862,0.721555526309606
0.147406777944288,0.698534350646012
0.133297186248312,0.686658211266848
0.119592718806593,0.6747065029921
0.106295526263621,0.662804409063752
0.0934001975608234,0.651074785604288
0.068756802430481,0.628604961005092
0.0569621527502827,0.618087320024891
0.0454770461937253,0.608184915067135
0.0124678842692004,0.583048477273663
0.0017874187897915,0.576436576833351
-0.00881998744376644,0.57080224555858
-0.0194106063199899,0.566184174577573
-0.0300416810028,0.56260861359864
-0.0407705048314126,0.560089130473051
-0.0516534944657706,0.558626510314335
-0.0627452697331102,0.558208795033146
-0.074097752574815,0.558811462537402
-0.0857592972782189,0.560397743248711
-0.0977738638079531,0.562919070016987
-0.1101802455302,0.566315655994072
-0.123011361957183,0.570517193571987
-0.136293626336467,0.575443666119131
-0.150046396979989,0.581006262974493
-0.16428152018266,0.587108387000447
-0.19420660037942,0.600512494112728
-0.27673413889376,0.635710538772849
-0.312061320949593,0.648007600309517
-0.366077994593972,0.661768764001726
-0.401898952543252,0.666710752157352
-0.419506633010353,0.66767469318626
-0.436799043697343,0.667550414153827
-0.453690926103755,0.666288321104361
-0.485938612940211,0.660207484357158
-0.529293869614773,0.641956120226894
-0.542126509611341,0.63345383644124
-0.554050151254535,0.623781473307363
-0.565016350748177,0.612978328046886
-0.583925867986625,0.588185057917439
-0.59181727888973,0.574319553820537
-0.604418426758487,0.544019373058072
-0.615513816010332,0.493428076270615
-0.610995233786438,0.364560600853106
-0.607938370053354,0.346273151116791
-0.604560864016445,0.328263832136123
-0.600968724137356,0.310600732007037
-0.589992780170993,0.260255083485128
-0.586631285815667,0.244501620967512
-0.583596339559335,0.22931400260766
-0.580989835682477,0.214709642926781
-0.576679184991101,0.174434887764372
-0.577543066233074,0.150420633840295
-0.581991195447958,0.128420791207269
-0.585666973901411,0.118073454647972
-0.619113046740392,0.0707150563305827
-0.628718798303095,0.0616943612333714
-0.63920740916392,0.0526767130277465
-0.650517145076756,0.043599970426521
-0.662575435135464,0.0344041595638007
-0.675299576311618,0.0250323526837846
-0.688597553204884,0.0154314965102346
-0.730894769195586,-0.0152021734793648
-0.774361939729749,-0.0492889968241188
-0.828338342425048,-0.100779934423469
-0.84029512254522,-0.114690292215339
-0.851403635534768,-0.12897007974448
-0.870657211835082,-0.158492575230438
-0.878613057291046,-0.173647831988943
-0.885344190883368,-0.188998860930366
-0.890780414000433,-0.204490100906021
-0.897543885677232,-0.23565497209757
-0.898788979390359,-0.2512040549357
-0.898575673996397,-0.266646045396316
-0.889154708482544,-0.311699680951353
-0.833615381842019,-0.391086065245138
-0.79114887496268,-0.423289982038713
-0.759200969293292,-0.441699756445743
-0.708161613831712,-0.464974853695085
-0.673458993245129,-0.477980502453711
-0.656256276539716,-0.483873065266202
-0.6065356792421,-0.49985237757819
-0.470104947373479,-0.574136639923074
-0.46419730769475,-0.583533541437063
-0.450762228452145,-0.616224331256651
-0.447500567333316,-0.628666865985707
-0.444723647397253,-0.641879707559347
-0.433397470879908,-0.73564778081115
-0.431552566830784,-0.753199174752265
-0.4243213520306,-0.807604210127143
-0.40792430513657,-0.880464270331112
-0.39577960079011,-0.915056357854715
-0.340934092198511,-1.00102907202889
-0.32912598756991,-1.0117573167587
-0.260493574130526,-1.04589782368925
-0.0991975374802764,-1.01403010847346
-0.0832328819703386,-1.00478515819239
-0.02236807011119,-0.96150784084113
-0.00805910593565162,-0.949716794324215
0.0324444092969419,-0.914013675363598
0.125127602938616,-0.836726414282496
0.212129700240055,-0.816587604933737
0.223962566385118,-0.818648195798171
0.261837387465369,-0.829998357501373
0.289345895942927,-0.841099384897051
