0.268567641176976,-1.03467067323001
0.24428057643424,-1.05113359459077
0.24830226971665,-1.03731147029288
0.262710586686345,-1.03327360274259
0.290688653772747,-1.02659985081576
0.298056843765463,-1.02541334210587
0.316714615683037,-0.995289920467747
0.317731628607769,-0.989163569425174
0.349811065117459,-1.00690184958772
0.336201448914337,-0.967774568098723
0.380699361402957,-0.969406719532095
0.346154413654054,-0.947815650057792
0.382548851301562,-0.923463770499921
0.400500741676571,-0.913022296698358
0.400530746604226,-0.897759990515229
0.381653830547964,-0.868888709018563
0.435504618307773,-0.874635884558833
0.430509887849473,-0.844942684306337
0.430918950876842,-0.842405005442581
0.449682743450774,-0.821029948860723
0.421383779346517,-0.838165736036924
0.449035185230484,-0.79865462005996
0.463986381168257,-0.750797942781177
0.471516800701299,-0.754189249986157
0.455452827489053,-0.76245719799929
0.469303681492516,-0.702387434027453
0.483685900886944,-0.72023409293231
0.517417725242827,-0.738443223157893
0.478314737772534,-0.695202200253772
0.481357352409213,-0.680754663311175
0.465912230691055,-0.673074965996593
0.494418459480696,-0.681913461538952
0.497019387312367,-0.637456555914228
0.477395093090849,-0.623541136476787
0.500926242231786,-0.607073317742943
0.477720695246516,-0.604318089522326
0.528235766031303,-0.553851984529602
0.463914964388415,-0.559374119702136
0.550285576653527,-0.602794082969601
0.489200722863532,-0.538901284875714
0.490625376897205,-0.506855096632785
0.513660216563999,-0.52780910312248
0.514431336031726,-0.514313227369335
0.536979926037725,-0.507840066799186
0.537932011128528,-0.482613136048068
0.535804157822052,-0.503970744606576
0.47661421981754,-0.482145413160705
0.534724578291169,-0.461827681126019
0.5305237958679,-0.462319548559842
0.543631130796946,-0.480022167733652
0.532033843004175,-0.447856732058097
0.564296365439722,-0.429749599872942
0.558766502535613,-0.416220470502307
0.547869075208627,-0.427992748490922
0.552767359447202,-0.391523260137498
0.585917440478667,-0.380115106722755
0.593596018972092,-0.372511273525164
0.561760686369551,-0.363493829001995
0.62353389426337,-0.345818166207217
0.543732885590123,-0.232977043871148
0.544189906721277,-0.240680070653351
0.646085418388836,-0.319225098263454
0.777440493232283,-0.207444954007404
0.753555598932711,-0.407477643241384
0.685855708767877,-0.270507423805604
0.763644371127421,-0.214410654629001
0.637904817518937,-0.346460600970956
0.738277791005208,-0.250231588847036
0.6039939012481,-0.15143605085069
0.641116284113705,-0.343702129971467
0.817692126390043,-0.323455834981664
0.748324545435355,-0.198413273498637
0.87675766526859,-0.0981196144583728
0.891332699144143,-0.256204500130307
0.903310289275598,-0.262247386112428
0.914743592490017,-0.222876379931519
0.904902170483439,-0.24013769179695
0.914911926208021,-0.22271203516598
0.711022973409088,-0.218296469070534
0.819094138303994,-0.0641233266840842
0.723857635575747,-0.144259982694302
0.747806630446362,0.0394618506773736
0.745252077968874,0.0626111341665206
0.85531526236959,-0.0266183603131734
0.763540238782543,0.131416428338778
0.8396832449175,0.0255736272768554
0.737527231987571,0.15366965087157
0.876141788132997,0.0393638791054673
0.95911219948162,0.183834856900962
0.782240885395522,-0.0229677950449906
0.849298830341068,0.0702779782219039
0.868920562317699,0.110763451409772
0.849743134164077,0.139708271255902
0.876621822975502,0.164029914820455
0.845308566633675,0.161960178292714
0.841753992101149,0.168841396981174
0.848099165659821,0.18526517212045
0.831114504912619,0.220093593880149
0.815214725382443,0.198229368872287
0.831579536656422,0.221036619927995
0.808074958088784,0.272570141312538
0.776898865082361,0.276266782742044
0.76350526547985,0.309240888772768
0.768517668503113,0.295146781514343
0.74045894959778,0.302617749427321
0.748693736905224,0.326073646237461
0.702299876194329,0.355338805506847
0.676120158461079,0.33689103348797
0.685452064614728,0.343236712054579
0.720177316829481,0.4101101841018
0.612331895783486,0.328923392114355
0.640917065819787,0.335478462115114
0.613249358275749,0.375083541233988
0.544019464248813,0.384029458313982
0.565824188284466,0.401575871937613
0.545539760331581,0.3888737170984
0.556606883471751,0.389191768464318
0.495457319312027,0.406793168482746
0.458162362648347,0.398867680954005
0.46718648525787,0.412226954143914
0.439782508531659,0.417146349657383
0.426449306111177,0.419494984037315
0.393891197505026,0.476204384951196
0.400586162084136,0.424135355249392
0.38807484172385,0.426492709577027
0.393368917647044,0.380698304941014
0.369448161659547,0.425646110952718
0.352279580390319,0.434095876118378
0.321119325781142,0.459255902292802
0.307673018856223,0.45979403308536
0.315593830565546,0.417873269676381
0.298290559308663,0.450281052952522
0.288271037007992,0.454273084185018
0.268898952358179,0.463173031927756
0.253099263210942,0.474839718624042
0.233860473641703,0.490303741821533
0.252427655841383,0.455386303642528
0.223447904708535,0.491347451894218
0.185701076404659,0.511125289993655
0.179931021355344,0.528359038615955
0.162359300037407,0.545467251075795
0.169551058070151,0.578431138449118
0.135201854071147,0.573184548180464
0.119563056040442,0.580174716611112
0.106125960145152,0.604762138312945
0.0865707961041969,0.635830274703364
0.131095820304176,0.630737913070113
0.0960960791245287,0.623042580921208
0.0214313801721339,0.664828492984395
0.0502967346492309,0.693281056265692
0.00191574704636446,0.683187374220858
0.0118969823445692,0.713817145833546
-0.0310094982046782,0.721401714646337
-0.0716841503846682,0.745811900914903
-0.138442841810005,0.773741427641474
-0.114461597278371,0.766002353643989
-0.158836425837608,0.781062446082113
-0.123172282100499,0.794720053139729
-0.188994790963924,0.787874419937417
-0.217616366275591,0.754930906694337
-0.203078742569712,0.777265536341652
-0.236692783525823,0.787053282630809
-0.24971064021622,0.792991572424011
-0.264801500564798,0.792415205980857
-0.309378554700648,0.786120325407295
-0.323874566859788,0.770591380440751
-0.352285239723864,0.773002435356016
-0.351058640462573,0.753091088498951
-0.403185097211319,0.750753290723297
-0.42921904481952,0.720300451819421
-0.453068780200458,0.707138899252625
-0.463888317841511,0.696141619561307
-0.4659870560626,0.666096845044796
-0.479116638074707,0.639844575856678
-0.502628893912776,0.647327701523987
-0.511152465876553,0.634097320377254
-0.561711153293584,0.613857710079129
-0.533938482806062,0.592547057106874
-0.547151268791336,0.573395472719774
-0.546873458735707,0.563686274453222
-0.556498818301247,0.554942017844954
-0.563131996131081,0.519424746121667
-0.519146467856395,0.549782487916954
-0.572081645726007,0.4897017734405
-0.585118121616491,0.443807657635607
-0.583127274312218,0.445477945572075
-0.591234432780036,0.430089852550281
-0.616529582575976,0.424728716053457
-0.613769822419767,0.391307203727435
-0.599366116377317,0.380059538357179
-0.631555336121692,0.353700411069247
-0.606430842402838,0.322139192216855
-0.590819027573758,0.326503631737564
-0.616493778344193,0.274122470116214
-0.610226084672098,0.287937846457678
-0.6448645190578,0.221919666669547
-0.637028029485186,0.210510070262072
-0.641397541452946,0.200773007820664
-0.651109185730252,0.181898316922467
-0.6564751085243,0.172720658474696
-0.673294450933112,0.133998402001777
-0.794794748832193,0.0148659485194177
-0.785731197234164,-0.0050800097141076
-0.808723353610808,-0.00528614869315387
-0.827951920890656,-0.0128713887451776
-0.869793091786141,-0.0371196637146742
-0.850915518232635,-0.03808029218773
-0.877905393329102,-0.0711594333728983
-0.952783576042293,-0.170457453293348
-0.943113333431269,-0.178887536186488
-0.954658744981804,-0.208083431429217
-0.963771806792274,-0.237879517034021
-0.995576649761444,-0.313146376595838
-0.941398137535616,-0.395754962208308
-0.950661182026201,-0.48704977132092
-0.924949456652732,-0.484038674091695
-0.896738607357814,-0.519960700466178
-0.883723375744995,-0.538758447847939
-0.838717992536551,-0.571221675200631
-0.832768422966756,-0.589130921666601
-0.812446531753625,-0.588502704620595
-0.775995010220272,-0.594162794849631
-0.784871353288173,-0.603921582449476
-0.730136213274042,-0.625547780462915
-0.725996703761283,-0.624252769027879
-0.747184575530791,-0.662131806621998
-0.599870491609383,-0.624660763082342
-0.580508513322047,-0.650916598538692
-0.576222296602913,-0.663832836308311
-0.433093709784229,-0.694904360432388
-0.415551544814169,-0.688723477088923
-0.387890137388873,-0.715950730859812
-0.389766230447301,-0.713383606200904
-0.355304144433687,-0.7135017358514
-0.361299916330701,-0.727710463491
-0.372658066167836,-0.747731724719039
-0.327149279331481,-0.769407264219671
-0.294984237797218,-0.771788520517393
-0.273200084023394,-0.798081442361253
-0.2207638435957,-0.828963010716147
-0.187568932716232,-0.885265952308187
-0.167516607110302,-0.895696277098387
-0.135808028023247,-0.943001033918448
-0.138605515748973,-0.921034158323548
-0.0687924991987626,-0.982723749072159
-0.013580332498408,-1.01349792011733
-0.0143081036515754,-1.01598773246192
0.071532942353825,-1.03740428037392
0.0685103053667933,-1.04964176858895
0.135720440997746,-1.05
0.179455222090014,-1.04424719381427
0.215988671845819,-1.03123762291915
