0.903178723471418,-0.23422850105765
0.905664608545641,-0.219009200426478
0.906178595512108,-0.203423324743577
0.90473664130146,-0.187562314059265
0.901378416540523,-0.171519516969019
0.896166858003446,-0.155388379377018
0.889187388228535,-0.139260651551971
0.880546812657217,-0.123224645107815
0.870371909467035,-0.107363570546097
0.858807731866163,-0.0917539844885401
0.846015646922269,-0.0764643737333841
0.832171138947697,-0.0615539008215244
0.817461408995175,-0.0470713329395281
0.802082805079607,-0.0330541727642256
0.786238120284682,-0.0195280063217084
0.770133797899248,-0.0065060791511061
0.753977084126952,0.00601089190650594
0.737973169702047,0.0180346680652531
0.722322361912534,0.0295892000138554
0.707217328076091,0.0407101064430489
0.69284045044175,0.0514439287723243
0.679361330817362,0.0618471750614315
0.666934480975225,0.0719851697700832
0.655697232100411,0.0819307294298086
0.645767893261021,0.0917626873581754
0.637244185147299,0.101564293226278
0.630201971204421,0.111421515540426
0.624694303835087,0.121421276880306
0.620750798640891,0.131649653018174
0.618377344777879,0.142190067804543
0.617556154496581,0.153121515931679
0.618246149896545,0.164516845372016
0.620383679926918,0.176441130438092
0.623883555784037,0.188950165036585
0.628640388168534,0.202089103812544
0.634530205439172,0.215891276530569
0.641412327605548,0.230377198254737
0.649131467398546,0.245553794712986
0.657520026401618,0.261413858715418
0.666400551466133,0.277935749696341
0.675588314410924,0.295083344428135
0.684893976352238,0.312806242776581
0.694126296949009,0.331040228100022
0.703094848394142,0.349707977608369
0.71161269414014,0.36872001376257
0.719498993112375,0.387975883680404
0.726581491521678,0.407365549588174
0.732698866316497,0.426770969684967
0.737702886781837,0.446067845427906
0.741460363757426,0.465127508259412
0.743854859363232,0.483818916231412
0.744788133932085,0.502010728880508
0.744181310996151,0.519573427108916
0.741975745590776,0.536381443756934
0.738133585756265,0.552315270034066
0.732638021863017,0.567263503018894
0.725493223184002,0.581124800044819
0.71672396591606,0.593809706953144
0.706374961533836,0.605242328900927
0.694509898874991,0.615361814634216
0.681210217633148,0.624123627844895
0.666573634910353,0.631500582380648
0.650712450093246,0.637483621624629
0.633751656511911,0.642082326249739
0.615826891069903,0.645325138721911
0.5970822552578,0.647259297312515
0.577668042648681,0.647950476913424
0.55773840909859,0.647482138558112
0.537449022423714,0.645954594165747
0.516954728293096,0.643483797569415
0.496407268465066,0.640199877292139
0.475953086319901,0.636245430724837
0.455731252922355,0.631773603271508
0.435871544615795,0.626945979595684
0.41649270044299,0.62193031727038
0.397700884552778,0.616898155849688
0.3795883752391,0.612022336598639
0.362232498427272,0.607474469801787
0.345694819334739,0.603422387690971
0.330020601756619,0.600027621568628
0.315238540029486,0.597442941643586
0.301360764281228,0.595809997439499
0.288383115151876,0.595257095389424
0.276285679841097,0.595897148410132
0.265033577171603,0.597825829882261
0.254577975420334,0.601119961581699
0.244857323023309,0.605836161756072
0.235798768962773,0.612009775767874
0.22731974674843,0.619654107589195
0.219329693452953,0.628759965994816
0.211731873293254,0.6392955346279
0.204425273792875,0.65120657027698
0.197306541638516,0.66441692877833
0.190271924967875,0.678829413019737
0.183219189000159,0.694326932646118
0.176049472639806,0.710773960329603
0.168669054933892,0.728018264939915
0.160991002021945,0.745892897705286
0.152936667452504,0.764218403555844
0.144437021415354,0.782805226351045
0.135433787506387,0.801456273665092
0.125880369051648,0.819969604286834
0.115742550711174,0.838141199623169
0.104998964999824,0.855767778809035
0.0936413174363504,0.872649616544817
0.0816743681956789,0.888593322516991
0.06911567232378,0.903414541713465
0.0559950847104323,0.916940536015639
0.0423540400342229,0.929012609119391
0.0282446217300797,0.939488339082329
0.0137284376192289,0.948243585581275
-0.00112467687433902,0.955174242250361
-0.0162381040720478,0.960197708206554
-0.0315300115874552,0.963254056999603
-0.0469150136369976,0.964306885684532
-0.0623058960946379,0.963343831439259
-0.0776153741935137,0.960376748065879
-0.092757851227388,0.955441539746865
-0.107651146589899,0.948597654500255
-0.122218162010548,0.939927244813739
-0.136388455894424,0.929534007859727
-0.15009969723071,0.917541722427049
-0.163298972577332,0.904092504178169
-0.175943922122265,0.889344804985451
-0.188003683724899,0.873471185853583
-0.199459627105834,0.856655896240671
-0.21030586392678,0.839092295398113
-0.22054952332497,0.820980153616814
-0.230210786475787,0.80252287296088
-0.239322677886865,0.783924668164633
-0.247930615308627,0.765387748848845
-0.256091724310829,0.74710954407131
-0.263873927653225,0.72928000946849
-0.271354823503081,0.712079055881826
-0.278620370257723,0.695674136416453
-0.285763399154548,0.68021802638257
-0.292881978936557,0.665846827559965
-0.30007765953637,0.652678224751574
-0.307453624000022,0.640810018706702
-0.315112779654804,0.630318955259302
-0.323155820801759,0.621259866007275
-0.331679295960219,0.613665131125209
-0.340773712894448,0.607544470028498
-0.350521714305353,0.602885060666621
-0.360996356176715,0.599651983293426
-0.372259519337433,0.597788979718325
-0.384360482859881,0.597219514358398
-0.397334685488858,0.597848118958926
-0.411202698422861,0.599561998696521
-0.425969429494311,0.602232873587475
-0.441623575168948,0.60571902575124
-0.458137332864092,0.6098675201753
-0.475466381932964,0.614516564235951
-0.493550137343669,0.619497969384378
-0.512312275665922,0.624639677134941
-0.531661528536845,0.629768310809947
-0.551492734380759,0.634711714410032
-0.571688134877872,0.639301440490271
-0.592118898582708,0.643375150018259
-0.612646850251706,0.646778888851844
-0.633126380913854,0.64936920767216
-0.653406510566535,0.651015094905154
-0.673333072653715,0.651599695317185
-0.692750987230852,0.651021790525908
-0.711506587979291,0.649197021568717
-0.729449967032776,0.646058837854586
-0.746437300942427,0.641559161224014
-0.76233312104709,0.635668758385701
-0.777012492037738,0.628377319615287
-0.790363063602302,0.6196932462178
-0.802286961696934,0.609643153798654
-0.812702488187923,0.598271102786645
-0.821545600313589,0.585637571837732
-0.828771144587602,0.57181819365531
-0.83435382335676,0.556902276330724
-0.838288876183157,0.540991136482264
-0.840592462482637,0.524196273203324
-0.841301736353177,0.506637414079957
-0.840474609199165,0.488440466271279
-0.838189200528151,0.469735406838376
-0.834542982091601,0.450654147142388
-0.829651625285689,0.43132840620308
-0.823647566348181,0.411887627417542
-0.816678308310372,0.39245697199537
-0.808904482819313,0.373155420891727
-0.800497698769364,0.354094014940991
-0.791638208112722,0.335374260347639
-0.782512422201175,0.317086723720919
-0.773310314497831,0.299309837496065
-0.764222747447569,0.282108932923267
-0.755438762676195,0.265535513887254
-0.747142874477261,0.249626780710158
-0.739512406727834,0.234405408855909
-0.732714912945315,0.219879583165495
-0.726905718161014,0.206043283979018
-0.722225619656675,0.192876817312433
-0.718798781410533,0.180347577222294
-0.716730854361867,0.168411024676053
-0.716107351367766,0.157011863710344
-0.716992302041183,0.146085392462041
-0.719427208580565,0.135559003848038
-0.723430319289863,0.125353808294621
-0.728996231810277,0.115386349013497
-0.736095833212622,0.105570378919023
-0.744676579105755,0.0958186674016002
-0.754663108878167,0.0860448048285262
-0.765958189183488,0.0761649728402777
-0.778443972882741,0.0660996492425412
-0.791983555941602,0.0557752175490976
-0.806422810321952,0.045125452986028
-0.821592466771802,0.0340928589936578
-0.83731041766983,0.022629830921515
-0.853384206777602,0.0106996266586279
-0.869613669944935,-0.00172287267432295
-0.885793688544774,-0.0146506251796625
-0.901717015718335,-0.0280841231085323
-0.9171771344152,-0.0420113255430067
-0.931971105733255,-0.0564078299928135
-0.945902366207422,-0.0712372799190327
-0.958783433461673,-0.0864520011010799
-0.970438481014193,-0.101993855785167
-0.980705744989616,-0.117795299758454
-0.989439728014874,-0.133780623946447
-0.996513168617603,-0.149867358891032
-1.00181874796163,-0.165967817587034
-1.0052705096888,-0.181990749684581
-1.00680497293007,-0.197843078044625
-1.00638192313548,-0.213431687099824
-1.00398487018218,-0.228665231449164
-0.99962116817863,-0.243455932620118
-0.993321796415206,-0.257721331976278
-0.985140805940578,-0.271385968331758
-0.975154441192134,-0.284382949948073
-0.96345995090234,-0.296655392217619
-0.950174107068478,-0.308157694454993
-0.935431455041458,-0.318856631789649
-0.919382321695923,-0.328732241139921
-0.902190612129912,-0.337778483601337
-0.884031428355803,-0.346003669247513
-0.865088545940277,-0.353430634260551
-0.845551786493139,-0.360096664416303
-0.82561432526474,-0.366053163181358
-0.805469973870779,-0.371365066964171
-0.785310478311542,-0.37611001433243
-0.76532287199019,-0.380377280192398
-0.745686922370706,-0.384266489954861
-0.726572708269218,-0.387886132519812
-0.708138362570095,-0.391351894434918
-0.690528012436662,-0.394784840762367
-0.673869945889478,-0.398309470971332
-0.65827503000427,-0.402051680511828
-0.643835401994412,-0.406136660579908
-0.630623450152461,-0.410686769921293
-0.618691097099501,-0.415819413316375
-0.608069393100884,-0.421644961628213
-0.598768422425922,-0.428264747969877
-0.590777520931741,-0.435769173660405
-0.584065798312404,-0.444235956200994
-0.578582953846959,-0.453728549534858
-0.574260370075274,-0.464294764384203
-0.571012464696073,-0.475965613522785
-0.568738277180516,-0.488754403486877
-0.567323263184628,-0.502656090502633
-0.566641266876264,-0.517646914371089
-0.566556638811023,-0.533684319766047
-0.566926465033117,-0.550707169931804
-0.567602871669429,-0.568636253186996
-0.568435368447089,-0.587375078020004
-0.569273194306909,-0.606810947973371
-0.569967628607834,-0.62681630303238
-0.570374232312869,-0.647250309927849
-0.570354984997523,-0.667960679704154
-0.56978028550144,-0.688785687156024
-0.568530786518483,-0.709556363362244
-0.566499036347931,-0.730098829596296
-0.56359090436061,-0.750236738421634
-0.559726770413595,-0.769793785823926
-0.554842462414806,-0.788596256827647
-0.548889930429704,-0.806475566214429
-0.541837650067929,-0.823270755721535
-0.533670752317989,-0.83883090945727
-0.524390881441232,-0.853017450223367
-0.51401578692126,-0.865706280970344
-0.502578659721217,-0.876789737709265
-0.490127227161368,-0.886178322832278
-0.476722624528583,-0.893802190916221
-0.462438065007791,-0.899612362652168
-0.447357332628555,-0.903581646505761
-0.431573125599329,-0.905705252008675
-0.415185279616339,-0.906001083145651
-0.398298902449614,-0.904509705064635
-0.381022452300071,-0.901293982227067
-0.363465793071686,-0.896438391056156
-0.345738259803476,-0.890048015057324
-0.327946767058176,-0.882247235201004
-0.310193992077615,-0.873178132999268
-0.292576663007345,-0.862998628102511
-0.275183980491839,-0.851880376322328
-0.258096198481176,-0.840006457688276
-0.241383387212739,-0.827568887411617
-0.22510439808578,-0.814765985407198
-0.209306046587466,-0.801799642271497
-0.19402252561569,-0.788872521295015
-0.179275057540308,-0.776185237173457
-0.165071789216998,-0.763933552556923
-0.151407929985217,-0.752305633430812
-0.138266128512937,-0.741479403557788
-0.125617080264914,-0.73162003683721
-0.113420353435655,-0.72287762447722
-0.101625417467783,-0.715385051354027
-0.0901728548325278,-0.709256112890711
-0.0789957336381941,-0.704583900269802
-0.0680211159058439,-0.701439477853116
-0.0571716740538673,-0.699870872378515
-0.0463673863023629,-0.699902388901738
-0.035527280374299,-0.701534263622034
-0.0245711940552334,-0.70474265874654
-0.0134215208902214,-0.709479999485942
-0.00200490955015921,-0.715675648209967
0.00974611381409944,-0.723236905802805
0.0218916296057614,-0.732050325421441
0.034482942776271,-0.741983319247766
0.0475613600792604,-0.752886034508161
0.0611571491803099,-0.764593471077668
0.0752886991282583,-0.776927809449693
0.0899618982676223,-0.789700914789903
0.10516974196602,-0.802716980250727
0.120892178606379,-0.815775270738648
0.13709619821588,-0.828672926929807
0.153736163939324,-0.841207788540683
0.170754382382802,-0.853181195690784
0.188081904723385,-0.864400727644895
0.20563954647066,-0.874682839285396
0.223339109942871,-0.883855357322942
0.241084789948154,-0.891759800479983
0.258774739899476,-0.898253490640568
0.276302772695563,-0.903211425208508
0.293560168218113,-0.906527884603092
0.310437557270589,-0.90811775288972
0.326826850250806,-0.907917533928676
0.342623177835655,-0.90588605006075
0.357726810480255,-0.902004815161714
0.372045023605976,-0.896278078814483
0.385493875972943,-0.88873254329235
0.397999869895548,-0.879416759942986
0.409501463647219,-0.868400216335982
0.419950408588425,-0.855772130113621
0.429312886206219,-0.841639969795617
0.437570423333477,-0.826127726768588
0.444720567273672,-0.809373966279814
0.450777306337818,-0.791529688398913
0.455771225344883,-0.772756032563577
0.459749389880917,-0.753221861447807
0.462774957487998,-0.733101261452571
0.46492651839163,-0.712570998097934
0.466297172803297,-0.691807964980016
0.466993356181857,-0.670986664742407
0.467133428033077,-0.650276759706243
0.466846043802482,-0.629840728421254
0.466268333107791,-0.609831662466329
0.465543910902778,-0.590391235375227
0.46482075110895,-0.571647872632125
0.464248954745613,-0.553715148320739
0.463978446590466,-0.536690430274956
0.464156635876982,-0.52065379152833
0.464926077455324,-0.505667201560054
0.466422170192463,-0.491774006354686
0.468770929155963,-0.478998701703409
0.472086867314958,-0.467346999549067
0.476471021110833,-0.456806182588323
0.482009152317785,-0.447345737864689
0.488770156157269,-0.438918255785738
0.496804702686256,-0.431460576943905
0.506144135091013,-0.424895165375485
0.516799644736699,-0.419131683514797
0.528761738705769,-0.414068741141363
0.542000011167918,-0.40959578812233
0.556463225328385,-0.405595118757317
0.572079707970789,-0.401943954067638
0.588758053818617,-0.398516567456732
0.606388132160382,-0.395186418815531
0.624842383492047,-0.391828262357788
0.643977389399941,-0.388320194239799
0.663635694609289,-0.384545607331088
0.683647856125593,-0.380395022333474
0.703834690761533,-0.375767766763305
0.724009689129142,-0.370573476075619
0.743981561436812,-0.36473339437258
0.763556878207924,-0.358181455648561
0.782542767368833,-0.350865130322072
0.800749628066367,-0.342746025827331
0.817993821088264,-0.333800234219185
0.834100295883242,-0.324018424015512
0.84890511491148,-0.313405677791192
0.862257837391445,-0.301981081277061
0.874023726427129,-0.289777073836986
0.884085745972839,-0.27683857412931
0.892346317084741,-0.263221898441805
0.89872880637475,-0.248993492562457
0.903178723471418,-0.23422850105765
