-0.216903752690645,0.921897353681661
-0.204321146679381,0.904255818555363
-0.192138296106296,0.886826601973271
-0.180345917231043,0.869607574900581
-0.16893499939024,0.852596750110364
-0.157896790584931,0.835792273948843
-0.147222783909009,0.819192418542085
-0.13690470476389,0.802795574415569
-0.126934498808751,0.786600243500224
-0.117304320599375,0.770605032500495
-0.108006522872072,0.754808646601781
-0.0990336464322472,0.739209883496217
-0.0903784106101079,0.72380762770729
-0.0820337042486379,0.708600845195198
-0.073992577191403,0.693588578226089
-0.0662482322400169,0.678769940489541
-0.0587940175531651,0.664144112449713
-0.0516234194610024,0.649710336916598
-0.0447300556705062,0.635467914824754
-0.0381076688390082,0.621416201207715
-0.0317501204946316,0.607554601357111
-0.0256513852837674,0.593882567156233
-0.0198055455270124,0.580399593578471
-0.0142067860661984,0.567105215341667
-0.00884938938624753,0.553999003710037
-0.0037277309966283,0.541080563435807
0.00116372494185912,0.528349529833279
0.00583042975834896,0.51580556597843
0.0102777541937788,0.50344836002764
0.014510992115144,0.491277622649537
0.0185353640332082,0.479293084564272
0.0223560204340658,0.467494494184976
0.0259780449343411,0.455881615356371
0.0294064572692226,0.444454225185908
0.0326462161219962,0.433212111963005
0.0357022218032346,0.422155073162272
0.0385793187873322,0.411282913526844
0.041282298113637,0.400595443228149
0.0438158996590169,0.390092476098684
0.0461848142883196,0.379773827934554
0.0483936858888227,0.369639314864708
0.0504471132944394,0.359688751784008
0.0523496521051257,0.349921950847397
0.0541058164066477,0.340338720022604
0.0557200803955855,0.330938861698975
0.0571968799141976,0.321722171350118
0.0585406138995229,0.312688436248222
0.0597556457508749,0.30383743422799
0.060846304619664,0.295168932498246
0.0618168866252904,0.286682686499399
0.0626716560006545,0.278378438805012
0.0634148461706625,0.270255918065838
0.0640506607669333,0.262314837994761
0.17146439333339,0.158833623556282
0.166965329269613,0.147204118937166
0.16331343466768,0.355777606253833
0.0656032451062868,0.232358622242083
0.168118979881035,0.344456765332428
0.161304754597898,0.31824723338596
0.0658421102419755,0.211779997525703
-0.0524315535102676,0.105541381270354
-0.0538621234346845,0.0990386063620527
-0.0306492491727583,0.0836278037070204
0.175633561888097,0.0867981511151575
-0.0323344985030223,0.27587786151872
-0.0370224165556168,0.28305469608241
0.166529456768731,0.277934319717952
0.0634797665234791,0.164720756239126
0.0629480485741067,0.159628229874871
0.172934505859255,0.0468760423973784
-0.0401113341861303,0.038938280893003
0.155598376046797,0.26363739857279
-0.0308257112725501,0.0398409149504077
0.0597687021589287,0.136753526795724
0.0590549008565975,0.132690946261258
-0.0501226033708593,0.245821150040046
-0.0328364374896266,0.027032049352172
-0.0339194327207655,0.0149578303890378
0.16855943563822,0.0260072415571396
0.165871021619769,0.0198989512578489
0.0545361096579441,0.111831249823354
0.053777487210378,0.108931817847147
0.159057723810671,0.209320284728462
0.149925246015541,0.204247351024648
0.0515637357961006,0.101202443562551
0.0508582824344054,0.098945244179031
0.0501748960031671,0.0968457355573439
0.0495170510585148,0.0949027055582926
0.048888204527739,0.0931149091619043
0.0482917957137701,0.0914810683243967
0.0477312462947709,0.0899998718481857
0.0472099603196292,0.0886699752645556
0.0467313242001197,0.0874900007286177
0.0462987067004923,0.0864585369261872
0.045915458925236,0.085574138992211
0.0455849143057527,0.0848353284403813
0.0453103885866711,0.0842405931035741
0.0450951798125192,0.08378838708475
0.0449425683154695,0.0834771307179586
0.0448558167048643,0.0833052105390851
0.0448381698592234,0.083270979265982
0.0448928549214331,0.0833727557876223
0.0450230812978129,0.0836088251619155
0.045232040661754,0.0839774386218215
0.0455229069626224,0.0844768135893965
0.0458988364406208,0.0851051336974049
0.0463629676483039,0.0858605488181229
0.0469184214794427,0.0867411750989606
0.04756830120594,0.0877450950045226
0.0483156925234983,0.0888703573647218
0.0491636636067515,0.0901149774285588
0.0501152651745751,0.0914769369231687
0.0511735305662972,0.0929541841177356
0.0523414758295421,0.0945446338918639
0.0536220998204466,0.0962461678079915
0.0550183843170012,0.0980566341874182
0.0565332941462784,0.0999738481895168
0.0581697773263246,0.101995591893683
0.0599307652235075,0.104119614383573
0.0618191727261231,0.10634363183316
0.0638378984350884,0.108665327594136
0.0659898248725591,0.111082352284179
0.0682778187093366,0.11359232387557
0.070704731011945,0.116192827783656
0.0732733975102877,0.118881416954624
0.0759866388868117,0.12165561195205
0.0788472610881401,0.124512901041647
0.0818580556601574,0.127450740273648
0.0850218001075649,0.13046655356222
0.0883412582789552,0.133557732761289
0.0918191807784899,0.136721637736151
0.0954583054052997,0.139955596430193
0.0992613576217682,0.143256904926062
0.1032310510519,0.146622827500562
0.10737008801102,0.150050596672545
0.111681160068092,0.153537413243057
0.116166948642013,0.157080446326925
0.12083012563326,0.160676833374994
0.125673354092361,0.164323680186136
0.130699288926695,0.16801806090818
0.1359105776472,0.171757018026811
0.141309861156631,0.175537562341511
0.146899774581092,0.179356672927515
0.152682948146634,0.183211297082777
0.158662008102791,0.187098350258826
0.16483957769502,0.191014715974409
0.171218278188096,0.194957245710725
0.177800729942618,0.198922758787017
0.184589553546873,0.202908042215231
0.191587371006435,0.206909850532397
0.198796806993966,0.210924905609304
0.20622049016184,0.214949896434005
0.213861054520322,0.218981478868579
0.22172114088418,0.223016275377542
0.22980339839077,0.227050874726181
0.238110486092768,0.231081831647023
0.246645074628919,0.23510566647256
0.255409847976343,0.239118864732235
0.264407505288124,0.243117876711616
0.273640762820118,0.247099116971556
0.283112355951151,0.251058963825035
0.292825041300973,0.254993758769246
0.302781598950624,0.258899805870365
0.31298483477011,0.262773371098284
0.323437582858573,0.266610681608473
0.334142708102444,0.270407924967931
0.345103108857397,0.274161248322053
0.356321719760252,0.277866757499034
0.367801514677367,0.281520516048257
0.37954550979643,0.285118544208874
0.391556766869,0.288656817804591
0.403838396611599,0.292131267060428
0.416393562273639,0.29553777533695
0.429225483380975,0.298872177777213
0.442337439664465,0.302130259861353
0.455732775183482,0.305307755863468
0.469414902654988,0.308400347205055
0.483387307999449,0.311403660698941
0.497653555115652,0.314313266677245
0.512217290897213,0.317124676996483
0.527082250504504,0.319833342912484
0.542252262906584,0.322434652817303
0.557731256708744,0.324923929829783
0.573523266282344,0.327296429230868
0.589632438214773,0.329547335734166
0.606063038098608,0.331671760581577
0.622819457680384,0.333664738453146
0.639906222390872,0.33552122417948
0.657327999280297,0.337236089244297
0.675089605383639,0.338804118063742
0.69319601654303,0.340220004028159
0.711652376716196,0.341478345290972
0.730464007802115,0.342573640288159
0.749636420017364,0.343500282970619
0.769175322859184,0.344252557730355
0.789086636694081,0.344824633999986
0.809376505013746,0.34521056050348
0.830051307403382,0.345404259134325
0.85111767327107,0.345399518435471
0.872582496390707,0.34518998665332
