0.627954943962432,0.868518518518519
0.606738662813966,0.828011345756113
0.590713303661039,0.783300647244158
0.577458866351795,0.736346100465957
0.565992112854938,0.687943915880085
0.55569094950793,0.638597855001616
0.546103868621846,0.588673541547906
0.536879029308247,0.538455890652637
0.527730267913746,0.488176633073205
0.518418267970013,0.438029563464543
0.479855144190411,0.426418217316236
0.498516624033145,0.338770039998529
0.484762994861028,0.317158752855812
0.473317846554501,0.203660228735815
0.46314856979291,0.194347190166816
0.442379116612824,0.176173856568765
0.480830052619706,0.0918454093946986
0.418383216310892,0.0575341232162542
0.400972437302718,0.0139453155823499
0.411611445849573,-0.0198606436176657
0.371326088266086,-0.0433436333056222
0.332513400055105,-0.0970328327523798
0.331321923231976,-0.114257441957142
0.263779691266792,-0.231666379676559
0.258335433646856,-0.223976600136425
0.253995186987476,-0.245029452235651
0.20984709309558,-0.292786660181492
0.187073576629803,-0.361042496708325
0.196577443312178,-0.360520674639893
0.0780408521207449,-0.424400893731344
0.201032041815163,-0.282640711734297
0.189068952052672,-0.574620188231135
0.0815777823195496,-0.372666513857436
-0.144935131553283,-0.396314195136512
0.0291007503098551,-0.403834545634832
-0.0770124662291875,-0.574477274728918
-0.161334008351874,-0.56908791560771
-0.067595865298603,-0.501570563007623
-0.239335894992664,-0.633825981736437
-0.185913827823056,-0.746437553964302
-0.195236762640298,-0.745216982444152
-0.463644638844985,-0.57497616114546
-0.547195204428934,-0.784901796506244
-0.323465599336112,-0.779517251307821
-0.676284890930303,-0.860664548884786
-0.528859689959268,-0.692448176777398
-0.547857787853643,-0.894589247492415
-0.646644778443973,-0.828412756530395
-0.820507549962881,-0.936468070298868
-0.798065190220949,-0.882414697363584
0.711541487299874,0.749119815731502
0.476604280591378,0.735695938952967
0.456271934657759,0.711074171580287
0.535503444170308,0.825102611565752
0.464209126621603,0.770366152982748
0.53315722009095,0.865285932578052
0.228225540331617,0.869050412048071
0.44794605622082,0.580454592416709
0.380922299138063,0.786636501273989
0.370179397076341,0.545578563490112
0.212542257835869,0.665618324542375
0.136694480658829,0.631767834559446
0.0911863983594105,0.610931774506629
0.0465092574125057,0.589422831414025
0.00278104856282101,0.567145458260506
-0.0398945132737331,0.544015668363163
-0.0814264096923924,0.519959756471092
-0.121735084291403,0.494913299080414
-0.160751467395311,0.468820364670768
-0.198416200565068,0.441632885725977
-0.234679018762369,0.413310158420595
-0.269498259851474,0.383818445422309
-0.302840479419619,0.353130663979665
-0.334680154894612,0.321226146321214
-0.364999467409934,0.288090463013362
-0.393788153323495,0.25371530272262
-0.42104342008482,0.218098404086201
-0.446769923517959,0.181243537316083
-0.470979805737342,0.143160534902661
-0.493692795005233,0.103865372477718
-0.51493637102888,0.0633803026694211
-0.534746001652149,0.0217340467714258
-0.553165459825365,-0.0210379485800115
-0.570247233409127,-0.0648931795534384
-0.586053045165198,-0.109781664041897
-0.600654506773937,-0.15564541205004
-0.614133939758175,-0.202417760923092
-0.626585409158131,-0.250022538293403
-0.638116034936027,-0.298373000125926
-0.648847675200659,-0.347370467669844
-0.658919121147719,-0.396902550030939
-0.668489018493684,-0.446840778441071
-0.677739858180428,-0.497037374649309
-0.68688360988198,-0.547320688998103
-0.696170015794697,-0.597488484244428
-0.705899489074537,-0.647297490611226
-0.716444714250326,-0.696445914117636
-0.728290837975785,-0.744540890749717
-0.742123541670731,-0.791027166641843
-0.759090412787379,-0.834975443798514
