-0.229803835964742,0.347372915214945
-0.164499826863053,0.246115658740562
-0.227676743880908,0.464634000794799
-0.300903813554081,0.449572431620789
-0.445802894314374,0.287244905612855
-0.584846222081754,0.323811895559079
-0.383055930657544,0.0310538694841287
-0.381443383400256,-0.0329474336724908
-0.438900254733135,-0.0135381994937291
-0.279088416016172,0.0195676757061368
-0.383765958288908,-0.21873054095204
-0.0656077434038576,-0.0154938131292379
0.0385263823870891,0.00333989015404465
-0.0857097738992736,-0.14611055639006
0.220571193102594,-0.0691785149332506
0.151316429872621,0.155046666468857
0.0506176205317855,0.400909838850239
0.0288916713964226,0.310078238889679
0.0533832786763913,0.532638055513179
-0.0587049984183955,0.624504221691195
-0.198778829105088,0.678461541800967
-0.248026500130054,0.580356202061325
-0.615022309010962,0.523723402793368
-0.646465870397891,0.551557410149139
-0.660692189651406,0.304775704894645
-0.695975581512041,0.131872372181064
-0.920132915345819,0.185137361732139
-0.657465837169859,-0.204142158478267
-0.55204605680155,-0.363816741774068
-0.383600020432193,-0.501685125916814
-0.307610781971946,-0.450606378652173
-0.100415007806856,-0.453628295736594
0.102368679410063,-0.390386759505026
0.279594255305333,-0.264102599452983
0.411759394151715,-0.0847168941579938
0.483127422615302,0.131842807302018
0.483544459011286,0.365060203073431
0.409746510232246,0.59177103524968
0.265997621153953,0.788463663105551
0.063965108897772,0.933710950458379
