0.0375123685905007,0.62143208464781
0.0374365758065167,0.621391598184064
0.0373593312233668,0.621350231541118
-0.0798521526237343,0.521015657336283
0.0372003474362936,0.621264762265695
0.0371185361369714,0.621220609985882
0.0370351287820856,0.621175478174932
0.0368633700639937,0.621082167578832
0.036774937950651,0.62103393237819
0.0366847482054736,0.620984604747818
0.0365927574505532,0.62093415410019
0.036498921033303,0.620882548829811
0.0364031929831642,0.620829756274017
0.155584608086946,0.727701814962946
0.0362058712406676,0.620720473122505
0.149926093491431,0.73212377777781
0.0360003963469794,0.620606020601238
0.035894471199076,0.620546761711583
0.0357863482745689,0.620486094938947
0.0356759710159885,0.620423978968372
0.0355632811353611,0.620360371045022
0.0354482185531206,0.620295226916174
0.0353307213345886,0.620228500770569
0.035210725623917,0.620160145174988
0.0350881655753807,0.620090111007888
0.0349629732819029,0.620018347389977
0.125997765014558,0.721953776353642
0.0347044095758514,0.619869419056423
0.125751217778686,0.713843958708485
0.0344344471196952,0.619712915137322
0.144450600498968,0.710427334941095
0.0340067514939037,0.619462899251674
0.033857783224088,0.619375231806929
0.0337054654527335,0.619285284700133
0.0335497050232302,0.619192984853171
0.0332274680968846,0.619001020619037
0.0328902636646746,0.618798696703388
-0.0853751424519926,0.510849219182298
0.0325372279638939,0.618585320078212
0.0323544873749744,0.618474255455673
0.0321674379407445,0.618360142460453
0.0319759542462393,0.618242878085531
0.131803461498989,0.724070646628899
0.0311630139528873,0.617740098356295
0.0309473206349397,0.617605380884093
0.0307263437575205,0.617466800443219
0.0304999238664567,0.617324220823992
0.0302678958349542,0.617177500137078
0.0300300886334597,0.617026490540944
0.0297863250891724,0.616871037954568
0.0292801880453583,0.616546154455375
0.029017427164482,0.616376381372788
0.0287479346162989,0.616201480267582
0.0284714985056228,0.616021260970277
0.128067067064843,0.714310517378486
0.0278969085202546,0.615644065068112
0.0275982903587912,0.61544666479053
0.0272917993581483,0.615243098064964
0.0266541711942598,0.614816509645303
0.0263224957092009,0.614592982900578
0.0259818698981392,0.614362278467514
0.0252725735280943,0.613878193906188
0.0249032770843521,0.613624209043303
0.0245237775323831,0.613361835590385
0.0241337306095718,0.613090734462261
0.0237327785282265,0.612810550442207
0.0233205493808119,0.612520911303366
0.022896656517084,0.612221426876533
0.0224606978917807,0.611911688060702
0.0220122553814682,0.611591265772499
-0.0698251738861744,0.50609815082107
0.0210761614946482,0.610916547768968
0.0205875868705993,0.610561283579222
0.0195669317164109,0.60981233893577
-0.0748408898725289,0.500383963711196
0.0184847635466476,0.609008383864582
0.0179192156568709,0.608584246143486
0.0173365672858585,0.60814445448752
0.0167361940503298,0.607688305356944
0.016117445479421,0.607215058199352
0.0141440264980304,0.60568472028793
0.111388227431263,0.697379090569422
0.0127233262455195,0.604563549889121
0.0119790487613343,0.603969791634246
0.0112110057057068,0.603352509053893
0.0104182904996585,0.602710571902582
0.00875502129335126,0.601347892550128
0.00698117951817925,0.599871372125173
0.00605008241671134,0.59908684774931
0.00508799422555289,0.598269408193864
0.00409369727507689,0.597417385621746
0.00090457514901357,0.594635632254605
-0.00140734459983075,0.59257291794989
-0.10244087379762,0.497377465627276
-0.00388212996615447,0.590322492884223
-0.00518472952046309,0.589120520102478
-0.00653314551015197,0.587863659582509
-0.00792922975111818,0.586548907892026
0.0943409186450521,0.698715251539767
-0.115752862380696,0.479100069621433
-0.0124231884771727,0.582224360733145
-0.0156950594373699,0.57898768645638
-0.0174205623210676,0.577250969278944
-0.0192090087293347,0.575429242926876
-0.0210629394473942,0.573517565285964
-0.0229849906548442,0.571510668170891
-0.0249778951043139,0.569402933881945
-0.0270444828455851,0.567188370011004
-0.033716104628578,0.559837573543768
-0.0361076631624176,0.557127282526143
-0.0411619883570152,0.551267517494935
-0.0438316128126614,0.548099663445774
-0.0466009078286006,0.544759845199635
-0.0524529621025851,0.537520146408478
-0.0555430538282293,0.533596243919689
-0.0690831256276166,0.515552379087432
-0.0727811084285782,0.510375590605621
-0.0766111455796788,0.504897058266863
-0.0805763728962622,0.499096906654439
-0.0846796657821583,0.49295389184987
-0.0889235691034675,0.486445315667562
-0.0978412338274879,0.472232883500775
-0.102517636604854,0.464475556810347
-0.21388340256979,0.339786284070271
-0.0145557719129942,0.518810666867929
-0.139213199473651,0.395041898707196
-0.244112603406364,0.253664207256297
-0.156752071989633,0.355049147885969
-0.174850484175958,0.307105341810632
-0.180889681076154,0.289106942733688
-0.186874047123651,0.270005492995055
-0.192760033296713,0.249743017747079
-0.204028345268384,0.20550351484052
-0.20928717773631,0.181413388178656
-0.218680441337082,0.129028590117303
-0.222636546857892,0.100641575524838
-0.225962679469694,0.0707410900121476
-0.228542878090371,0.0393007140085528
-0.230249859069809,0.00630591965345317
-0.230945007589009,-0.0282432723010321
-0.228690830878965,-0.101914193448171
-0.225412230712712,-0.140935574687837
-0.213670207199603,-0.222897955268564
-0.065361108470759,-0.296811657888413
-0.155881733276925,-0.71754349690352
0.0277133120028226,-0.68810376033099
0.0665420079991315,-0.720905672884405
0.0817455699941523,-0.776364562697595
0.0405671359199214,-0.882450707464933
0.227253680303879,-0.80770400166206
0.279117988492586,-0.827618324012629
0.321440640229059,-0.814413601346519
0.431273217531041,-0.816221188897749
0.456989281482032,-0.811232011211092
0.405986302816426,-0.910939605532695
0.668027841211533,-0.645834093380672
0.65343323744772,-0.677654578821974
0.70639171222491,-0.630207088628498
0.82497923953533,-0.478578144880608
0.630978042563869,-0.585741672034491
0.670882539094125,-0.500177471820862
0.780344916053872,-0.314363405346517
0.772819143791265,-0.229548215495242
0.647848410187934,-0.276050521557503
0.741095443004204,-0.0622896527210394
0.707300324750624,-0.0248836124045851
0.688904302373287,0.0186649599818493
0.675478973120132,0.117390821081929
0.657581202113294,0.152220222539437
0.63362846453215,0.18849848319295
0.609191392665662,0.276721253744498
0.590412928757647,0.297429366796648
0.545108674015265,0.320788975048593
0.526710880373532,0.34276611220248
0.473759662356154,0.399856098549513
0.467136435755683,0.427122908436353
0.451480828784864,0.423466796540497
0.42406918762112,0.443579740648685
0.395174667414054,0.470557423795533
0.354419996976006,0.501625379990649
0.34189037070004,0.510476624356038
0.329872295294304,0.518667283827242
0.30731943140951,0.533261850191521
0.286647407865069,0.545765639981303
0.276977717662618,0.55133118116175
0.364406442396685,0.673305246269877
0.234644474747036,0.57358643166172
0.327301193059754,0.68037527228961
0.200898106953673,0.588851842794573
0.297488594151091,0.709639850254133
0.17888781252922,0.597593036351176
0.173974336049201,0.599409296418447
0.169274438124538,0.601099455319902
0.16477794635004,0.60267281494409
0.152414152564579,0.606774582697199
0.135056137407277,0.611956739553672
0.123578463447644,0.614992820155797
0.120993206222865,0.615631581137584
0.113837785438576,0.61730954501186
0.107489975650683,0.618683540043622
0.101844671412508,0.619810706960537
0.100103055808291,0.620139765092318
0.0968117751949742,0.620736797344342
0.0952565385604311,0.621007385391764
-0.0185463322443187,0.523154149663999
0.0794200468732644,0.623308186653811
0.0766752678950657,0.6236152652243
0.0758197101671831,0.62370489726537
0.177098769243613,0.725659551426247
0.0741907581449297,0.623867312641915
0.0734152468118192,0.623940762205481
0.0726643792207902,0.624009449263993
0.0719372113082793,0.624073657144467
0.1742597603415,0.740475056967487
0.0668726391330006,0.62445477381662
0.0657886899251049,0.624520519542096
0.0633436178796308,0.624646799393345
0.0616266802971422,0.624716294929148
0.159365066938865,0.740018337755738
0.060838233955626,0.624742629341194
0.0597345138212959,0.624773351481795
0.0583961916009908,0.624800606514252
0.0569112057595582,0.6248173463193
0.0566366847107299,0.624818816394769
0.0563691140662657,0.624819746507325
0.0546735977433196,0.624813679934992
0.164869680871383,0.743777836275454
0.0536292781493847,0.624799114918831
0.0534350275052769,0.62479544503684
0.0528790257449788,0.624783214642503
0.0521955157329675,0.624764565287471
0.0517223290349032,0.624749228936521
0.0506045262247827,0.62470467329054
0.0501142407039955,0.624681232199832
0.0497727778087866,0.624663423032275
