1.01677835197524,-0.0405816671094323
0.977764900532971,0.114645153802684
0.73359314106866,0.20722543994751
0.642617477351453,0.283660335047133
0.736751326188403,0.470761723796102
0.786971935269692,0.610221286630874
0.752535232423292,0.75786457721484
0.5565176731133,0.734080468569046
0.353413023490354,0.639648263802233
0.315266978453596,0.663679576016892
0.174371156454374,0.876182866263928
0.130101269246544,1.04833544691237
-0.0379843008990181,0.99040405616775
-0.165136129981142,0.831192100934297
-0.113124925286608,0.648476925115802
-0.267364846478172,0.616416102257919
-0.510576366307309,0.635198274014421
-0.604419435070864,0.703612578716803
-0.631174601974676,0.523727043637883
-0.525462950980481,0.312689606661957
-0.442299940696464,0.18330530523123
-0.578641410044222,0.108452627663741
-0.783356857166853,-0.0227227623240155
-0.807902995450711,-0.133013688887286
-0.584168105524264,-0.21018770816562
-0.364387465166709,-0.272702794186353
-0.285861148048562,-0.349869389378474
-0.366291184786862,-0.463355381217735
-0.301480606850166,-0.743021199213531
-0.174101834323677,-0.749132592883023
-0.0104138054477232,-0.614312615888836
0.0652756649632439,-0.509356713798311
0.215048166567461,-0.494851935903675
0.3444003647882,-0.605681935574181
0.553135962371735,-0.697215184340143
0.612762733332887,-0.583963457396412
0.581478957337621,-0.363292305859665
0.542321124244668,-0.235375229093329
0.66284481103454,-0.206190140587237
0.914041971404982,-0.175216350923735
