-0.283321923421091,0.118358562217517
-0.290144207105289,0.125528560610495
-0.271517119436241,0.160448425386836
-0.279907327462567,0.14990817888004
-0.235674212883646,0.13817797328394
-0.237188925261893,0.150331996816202
-0.279115723323737,0.148893140744471
-0.165455075240309,0.262780318287029
-0.278449623008037,0.148061683731547
-0.16805827470935,0.266918936336165
-0.368777269042754,0.0535736820410466
-0.178890158612838,0.238492007605466
-0.372290631964167,0.0127208446491107
-0.276053611946187,0.145206747829793
-0.175569865821521,0.22176446563534
-0.180305464720867,0.0392825901205896
-0.396735563062077,0.0186484131613407
-0.13849205325811,0.0422936452729757
-0.16666622165136,0.021261289893897
-0.364829417632846,0.234982141819699
-0.166849698057185,0.0291320898477354
-0.3615898790195,0.0359614608990889
-0.265943686307737,0.134613380381295
-0.149715870876525,0.019399511519055
-0.14593740853445,0.249021791326285
-0.352107684968468,0.247502133853867
-0.153582667094727,0.0292415323184728
-0.358940679629697,0.224325100763059
-0.3496250514983,0.22259539557613
-0.341369204134635,0.00577598662298619
-0.2352329817669,0.109181202891965
-0.118636163929015,0.00414926884668886
-0.218089457813656,0.097427842340547
-0.102475519600159,-0.00607954771881551
-0.192613323624583,0.0820679885585101
-0.175288464027959,0.0727715472285437
-0.15376925461056,0.0623014101321292
-0.0358357155128218,-0.0539324946561336
-0.0931571285397277,0.0380486144287533
-0.0506930398342748,0.0248639017301727
0.00279859816470651,0.0120095918441709
0.0699760242839323,0.00112018961728988
0.153614192359069,-0.00503241124024445
0.255992948574262,-0.00207285033337884
0.377683445051555,0.0163455261795139
0.515551116733943,0.0583872332872432
0.660183492520195,0.132618239662254
0.793915707793271,0.244550766541387
0.891901508980233,0.391372431237626
0.928695859063401,0.557535347281141
0.889373306746707,0.715984910927174
0.778496867999945,0.837452260054884
0.619210945966553,0.902968522346905
0.442436045872163,0.91053922026598
0.27450276737634,0.872127543136485
0.130837585716626,0.805367086148605
0.0164637671239291,0.726419198280867
-0.0702644571610755,0.64671989519951
-0.133957372294224,0.572839154792772
-0.179794683277569,0.507705893040082
-0.212380766149296,0.451993570198671
-0.235385238810908,0.405183036470059
-0.251563969815158,0.366239453387615
-0.262917683736176,0.333991681419873
-0.270871444346358,0.307320596215772
-0.276430208145556,0.285237672570337
-0.280299673749925,0.266905975419706
-0.282975102472436,0.251633798924211
-0.284804658770567,0.238857261970123
-0.286033849057331,0.228120066569697
-0.286836448602718,0.219054194767632
-0.287335961847692,0.211363020459719
-0.28762051908875,0.204807187495596
-0.287753242617976,0.199193100577002
-0.287779487827092,0.194363684635545
-0.287731924961323,0.190191028156077
-0.287634123783988,0.186570551814192
-0.287503095746202,0.183416393738978
-0.287351106569651,0.180657756831667
-0.287186975479265,0.178236013332497
-0.287017011227141,0.176102404270571
-0.286845689702,0.174216206187937
-0.286676146670154,0.172543265321932
-0.286510537553894,0.171054821337986
-0.286350301087085,0.169726559827559
-0.286196353140349,0.168537846103583
-0.286049229582724,0.167471103160503
-0.285909191789762,0.166511304681084
-0.285776304665536,0.16564556019257
-0.285650494367337,0.164862774309561
-0.28553159099431,0.164153365767035
-0.285419360107215,0.163509034888197
-0.285313525933298,0.162922570435565
-0.285213788370338,0.162387688603966
-0.285119835361243,0.161898898341176
-0.285031351810741,0.161451388310889
-0.28494802592005,0.161040931708832
-0.284869553595853,0.160663805856705
-0.284795641426363,0.160316724069268
-0.284726008595039,0.159996777747648
