0.707003715688786,-0.41325080930584
0.706837233839436,-0.413001480567303
0.706348469701025,-0.41224682892015
0.705553850129175,-0.410977523477315
0.704470309114396,-0.409185141616537
0.703115246236229,-0.406862190565446
0.701506484122905,-0.40400212697065
0.699662225012345,-0.400599374406437
0.697601006512348,-0.396649338783312
0.695341656659584,-0.39214842162125
0.692903248378558,-0.387094031157292
0.690305053443031,-0.381484591261947
0.687566496043509,-0.375319548143706
0.684707106065243,-0.368599374825947
0.681746472181845,-0.361325573385406
0.678704194869995,-0.353500674946432
0.675599839450918,-0.345128237430178
0.672452889264192,-0.336212841062943
0.669282699079169,-0.326760081652797
0.666108448848737,-0.316776561648656
0.662949097909376,-0.306269879000852
0.659823339730448,-0.295248613847188
0.656749557314427,-0.283722313053261
0.653745779348295,-0.27170147264065
0.650829637204666,-0.259197518141252
0.648018322889251,-0.246222782920663
0.64532854802919,-0.232790484518025
0.642776503994414,-0.218914699054184
0.640377823241652,-0.204610333764287
0.638147541967997,-0.189893097715147
0.636100064157937,-0.174779470771704
0.634249127104705,-0.159286670880863
0.632607768483446,-0.14343261974468
0.631188295050239,-0.127235906958497
0.63000225303737,-0.110715752693012
0.629060400311447,-0.093891969002523
0.628372680356997,-0.0767849198446528
0.627948198144092,-0.0594154798997039
0.627795197934351,-0.041804992280487
0.627921043075282,-0.0239752252259209
0.628332197828521,-0.00594832787396843
0.629034211272941,0.0122532147884831
0.63003170331896,0.0306066276993549
0.631328352865657,0.0490888921176772
0.632926888127505,0.0676767925400247
0.634829079152661,0.0863469640335001
0.637035732549865,0.105075939880757
0.639546688436031,0.123840199431864
0.642360819611656,0.14261621605734
0.645476032966185,0.161380505096506
0.648889273110465,0.180109671695263
0.652596528228436,0.198780458427701
0.656592838135258,0.217369792596406
0.660872304524095,0.235854833107065
0.665428103378906,0.254213016813907
0.670252499525732,0.272422104233718
0.675336863290167,0.290460224527574
0.680671689224009,0.308305919651069
0.686246616859419,0.325938187575669
0.692050453444397,0.34333652448592
0.698071198608949,0.360480965859495
0.704296070906965,0.377352126339573
0.710711536174643,0.393931238311746
0.717303337642242,0.410200189100533
0.724056527731959,0.426141556703655
0.730955501471015,0.441738643985503
0.737984031445353,0.456975511254657
0.745125304215934,0.471837007153919
0.752361958116313,0.486308797795106
0.759676122347088,0.500377394074735
0.767049457279897,0.514030177110818
0.774463195880929,0.527255421745151
0.781898186161379,0.540042318059823
0.789334934560002,0.552380990861079
0.796753650160781,0.564262517088204
0.804134289646875,0.575678941109742
0.811456602890345,0.586623287874056
0.818700179075698,0.597089573886018
0.825844493254119,0.607072815986497
0.832868953224235,0.616569037916154
0.83975294663456,0.625575274650063
0.846475888202211,0.634089574494584
0.853017266942233,0.642110998942941
0.859356693301831,0.649639620290946
0.86547394609399,0.656676517019291
0.871349019125397,0.663223766953827
0.876962167414252,0.669284438220177
0.882293952894448,0.674862578013979
0.887325289503716,0.679963199212888
0.892037487554718,0.684592264861301
0.896412297289625,0.688756670563491
0.900431951520535,0.692464224825512
0.904079207260114,0.695723627390798
0.907337386249066,0.698544445618844
0.910190414289493,0.700937088960725
0.912622859295857,0.702912781589442
0.914619967978093,0.704483533247203
0.916167701074449,0.705662108375688
0.917252767054886,0.706461993599215
0.917862654219222,0.706897363634347
0.9179856611178,0.706983045703009
0.91761092522618,0.706734482529501
0.916728449809231,0.706167694004949
0.915329128914032,0.705299237605692
0.913404770435143,0.704146167654884
0.910948117200096,0.702725993519155
0.907952866027373,0.701056636834533
0.904413684713609,0.699156387857997
0.900326226911424,0.697043861042961
0.895687144863918,0.694737949938722
0.890494099966671,0.692257781515381
0.884745771132924,0.689622670017033
0.878441860942474,0.686852070447061
0.871583099559784,0.683965531790166
0.864171246411755,0.680982650076357
0.856209089620593,0.677923021392448
0.847700443192202,0.674806194946722
0.838650141965543,0.671651626292289
0.829064034333352,0.668478630814308
0.818948972749609,0.665306337585605
0.808312802044044,0.662153643694436
0.797164345568868,0.659039169147026
0.785513389207731,0.655981212446261
0.773370663281675,0.652997706946346
0.760747822391532,0.650106178081533
0.7476574232408,0.647323701565031
0.734112900487536,0.644666862652052
0.720128540678202,0.642151716558533
0.705719454320634,0.639793750124504
0.690901546157493,0.63760784480826
0.675691483705525,0.635608241094532
0.660106664129843,0.633808504396649
0.64416517952613,0.63222149252937
0.627885780687214,0.630859324825516
0.611287839433861,0.629733352965862
0.594391309592767,0.628854133587908
0.577216686707823,0.628231402735153
0.559784966573473,0.627874052204398
0.542117602681641,0.627790107844305
0.524236462676128,0.627986709854133
0.506163783910555,0.628470095127028
0.487922128207954,0.629245581677707
0.469534335921855,0.630317555189695
0.451023479400308,0.631689457712516
0.432412815955557,0.633363778534455
0.413725740443211,0.635342047251592
0.394985737555637,0.637624829048931
0.376216333934878,0.640211722204478
0.35744105021086,0.643101357822133
0.338683353070769,0.646291401794285
0.319966607465422,0.649778558990013
0.301314029058159,0.653558579659778
0.2827486370212,0.657626268042569
0.26429320728368,0.661975493156507
0.24597022633453,0.666599201749029
0.227801845682127,0.671489433377929
0.209809837071215,0.676637337589782
0.192015548555842,0.682033193157555
0.174439861525189,0.687666429334601
0.157103148777036,0.693525649077728
0.140025233731244,0.699598654187608
0.123225350873123,0.705872472310505
0.106722107513778,0.712333385741116
0.090533446951605,0.718966961962295
0.0746766131159877,0.72575808585354
0.0591681167709083,0.732690993496348
0.0440237033527359,0.73974930750102
0.0292583225128027,0.746916073776018
0.0148860994315581,0.754173799657791
0.000920307967160916,0.761504493315908
-0.0126266543027315,0.768889704345475
-0.0257432890914512,0.776310565456154
-0.0384190184158801,0.783747835164622
-0.050644203565357,0.79118194139507
-0.0624101619857497,0.798593025890278
-0.0737091820421639,0.80596098933399
-0.0845345356284902,0.8132655370837
-0.0948804885967979,0.820486225411585
-0.10474230898443,0.827602508150161
-0.114116273021587,0.834593783638329
-0.122999668907109,0.841439441862776
-0.131390798345169,0.84811891168926
-0.139288975840556,0.85461170807807
-0.146694525755243,0.860897479177976
-0.153608777133912,0.866956053193263
-0.160034056311089,0.87276748491888
-0.165973677317481,0.878312101839507
-0.17143193010802,0.883570549689277
-0.17641406663895,0.888523837370071
-0.180926284826131,0.893153381127744
-0.184975710421404,0.897441047887235
-0.188570376848525,0.901369197649428
-0.191719203044735,0.904920724854656
-0.194431969358445,0.908079098620077
-0.19671929155786,0.9108284017606
-0.19859259300958,0.913153368505781
-0.200064075090281,0.915039420827968
-0.201146685898508,0.916472703300082
-0.201854087337414,0.917440116404667
-0.202200620642888,0.917929348219296
-0.202201270434985,0.917928904407015
-0.201871627373842,0.917428136444294
-0.201227849504398,0.916417268022835
-0.200286622377107,0.914887419565696
-0.199065118034605,0.912830630802332
-0.197580952956757,0.910239881351515
-0.195852145058879,0.907109109265486
-0.193897069839987,0.903433227493261
-0.191734415779831,0.899208138225623
-0.189383139085141,0.894430745089038
-0.186862417886931,0.889098963160546
-0.18419160599195,0.883211726780497
-0.181390186292318,0.876768995144921
-0.178477723938173,0.869771755664251
-0.175473819378625,0.862222025080104
-0.172398061376644,0.854122848336791
-0.169269980103517,0.845478295209252
-0.166109000418331,0.836293454694078
-0.162934395437518,0.826574427175289
-0.159765240498828,0.816328314381465
-0.156620367623204,0.805563207155756
-0.153518320576918,0.794288171065171
-0.150477310634953,0.782513229880343
-0.147515173145063,0.770249346961713
-0.14464932499011,0.757508404592738
-0.141896723044297,0.744303181305303
-0.139273823716641,0.730647327246969
-0.136796543672628,0.716555337644074
-0.134480221822314,0.702042524418912
-0.13233958266032,0.687124986023359
-0.130388701040128,0.671819575555256
-0.128640968461858,0.656143867227686
-0.127109060949334,0.640116121264979
-0.125804908588667,0.62375524730272
-0.124739666796869,0.607080766372446
-0.123923689385128,0.590112771554773
-0.123366503477365,0.572871887387748
-0.123076786340526,0.555379228119928
-0.123062344178774,0.537656354900283
-0.123330092939381,0.519725231999389
-0.123886041173559,0.501608182158512
-0.124735274990923,0.483327841165148
-0.125881945141554,0.464907111755282
-0.12732925625487,0.446369116944142
-0.129079458259705,0.42773715288847
-0.131133840005075,0.409034641384419
-0.13349272509623,0.390285082105912
-0.136155469955567,0.371512004688976
-0.139120464113069,0.352738920767802
-0.142385132725879,0.333989276068462
-0.14594594132167,0.315286402666037
-0.149798402755461,0.296653471510557
-0.153937086364602,0.278113445326552
-0.158355629301698,0.259689031990161
-0.163046750020389,0.241402638486705
-0.168002263884063,0.223276325550306
-0.173213100862835,0.205331763085614
-0.178669325279446,0.187590186469964
-0.184360157560137,0.17007235383233
-0.190273997942071,0.152798504403221
-0.196398452084491,0.135788318027316
-0.202720358526525,0.119060875928023
-0.209225817930432,0.102634622810341
-0.215900224045048,0.0865273303854378
-0.222728296320368,0.0707560623971625
-0.229694114100481,0.0553371412273857
-0.236781152318531,0.040286116153511
-0.24397231861401,0.0256177333278327
-0.251249991789513,0.0113459075445656
-0.258596061521047,-0.00251630414360648
-0.265991969233205,-0.0159567269017622
-0.273418750047867,-0.028964090628276
-0.2808570757127,-0.0415280504605801
-0.288287298413508,-0.0536392052265418
-0.295689495372509,-0.0652891138014339
-0.303043514132829,-0.0764703093351523
-0.310329018427962,-0.0871763113190635
-0.317525534533615,-0.0974016354667082
-0.324612497998278,-0.107141801387441
-0.331569300647976,-0.11639333803702
-0.338375337760043,-0.125153786934108
-0.34501005530036,-0.133421703136634
-0.351452997118345,-0.141196653976949
-0.357683851994038,-0.14847921555972
-0.363682500431979,-0.155270967031478
-0.369429061097074,-0.161574482635713
-0.374903936788464,-0.167393321572335
-0.380087859848406,-0.172732015685227
-0.384961936904433,-0.17759605500644
-0.389507692844509,-0.181991871190367
-0.393707113926611,-0.185926818875936
-0.397542689926077,-0.189409155019456
-0.400997455226189,-0.192448016245315
-0.404055028759792,-0.195053394266089
-0.406699652712323,-0.197236109427967
-0.408916229899337,-0.199007782441552
-0.410690359734593,-0.200380804362128
-0.412008372707865,-0.201368304887414
-0.412857363294965,-0.201984119044525
-0.413225221225954,-0.202242752341494
-0.413100661041141,-0.202159344462086
-0.412473249868307,-0.201749631585897
-0.411333433358516,-0.201029907418784
-0.409672559721995,-0.200016983021532
-0.407482901809756,-0.198728145527359
-0.404757677191021,-0.197181115841281
-0.401491066180935,-0.195394005416688
-0.397678227777615,-0.193385272206456
-0.393315313472262,-0.191173675887814
-0.388399478900754,-0.18877823246175
-0.382928893309974,-0.186218168329153
-0.37690274681697,-0.183512873947011
-0.370321255443965,-0.180681857168964
-0.363185663917177,-0.177744696375126
-0.355498246222401,-0.174720993496622
-0.347262303915266,-0.171630327040469
-0.338482162189128,-0.168492205220412
-0.329163163708492,-0.165326019299102
-0.319311660220876,-0.162150997246486
-0.308935001964954,-0.158986157818605
-0.298041524897727,-0.155850265159982
-0.286640535768312,-0.152761784031658
-0.274742295070762,-0.149738835765493
-0.262357997913021,-0.146799155043716
-0.249499752843768,-0.143960047600862
-0.236180558683466,-0.141238348943147
-0.222414279410336,-0.138650384178067
-0.208215617156361,-0.136211929044495
-0.193600083372574,-0.133938172230861
-0.178583968226998,-0.131843679066119
-0.163184308302532,-0.129942356665117
-0.147418852665858,-0.12824742060673
-0.131306027382055,-0.126771363219675
-0.114864898553105,-0.125525923547324
-0.0981151339617082,-0.124522059059085
-0.081076963404985,-0.123769919171969
-0.0637711378055072,-0.123278820641956
-0.0462188871898533,-0.123057224880542
-0.0284418776273909,-0.123112717247549
-0.0104621672243094,-0.123451988366871
0.00769783873000274,-0.124080817507277
0.0260154333651852,-0.125004058065767
0.0444676544801357,-0.126225625186287
0.0630313313390645,-0.127748485541808
0.0816831319101146,-0.129574649302939
0.100399610442222,-0.131705164311343
0.119157255275141,-0.134140112471294
0.137932536777135,-0.136878608367739
0.156701955304398,-0.139918800114242
0.175442089076422,-0.143257872429212
0.194129641861498,-0.146892051933789
0.212741490367192,-0.150816614659839
0.231254731231103,-0.155025895751499
0.249646727508234,-0.159513301338868
0.267895154552382,-0.164271322557504
0.285978045190305,-0.16929155168264
0.303873834089037,-0.174564700342266
0.321561401218473,-0.180080619768563
0.339020114313433,-0.185828323042631
0.356229870241571,-0.191796009282965
0.373171135186029,-0.197971089723788
0.389824983554277,-0.204340215625117
0.406173135527527,-0.210889307952325
0.422197993168064,-0.217603588758994
0.437882675005093,-0.224467614203053
0.453211049023103,-0.231465309122504
0.468167763980265,-0.238580003093567
0.482738278988189,-0.245794467890735
0.496908891288136,-0.253090956265072
0.510666762162931,-0.260451241954173
0.523999940927843,-0.267856660834365
0.536897386948121,-0.275288153123251
0.549348989635151,-0.282726306538232
0.561345586377813,-0.290151400314608
0.572878978370137,-0.29754344998481
0.583941944301111,-0.304882252818689
0.594528251877225,-0.312147433823232
0.60463266715317,-0.319318492198851
0.614250961651028,-0.326374848148319
0.623379917253178,-0.333295889933662
0.632017328859132,-0.340061021075705
0.640162004801501,-0.346649707590655
0.647813765021275,-0.353041525158014
0.654973437007593,-0.359216206114223
0.661642849512189,-0.365153686166826
0.667824824053615,-0.370834150724557
0.673523164231315,-0.376238080739568
0.678742642874476,-0.381346297959119
0.683488987055403,-0.386140009485319
0.687768861001953,-0.390600851543063
0.691589846948212,-0.394710932358036
0.694960423967211,-0.398452874048647
0.697889944833966,-0.401809853437909
0.700388610971515,-0.404765641693724
0.702467445536894,-0.407304642708558
0.70413826470814,-0.409411930132367
0.705413647237409,-0.411073282975562
0.706306902339157,-0.412275219702007
0.706832035986049,-0.413005030735392
0.707003715688786,-0.41325080930584
