0.740778984533932,-0.529437167172957
0.740137669590192,-0.528909051635326
0.738284427854977,-0.527247589274098
0.735334664322982,-0.524346528948174
0.73141509207831,-0.520113219220088
0.726662171626784,-0.514469764726395
0.72122043240984,-0.507354003780356
0.715240696880026,-0.498720295332187
0.708878228700754,-0.488540105726206
0.702290827553868,-0.476802388124335
0.695636893686572,-0.463513749982049
0.689073485696436,-0.448698406535584
0.682754395135185,-0.432397920856643
0.676828261307635,-0.414670733621552
0.671436749154152,-0.395591488294328
0.666712812339069,-0.375250159906459
0.662779062633124,-0.353750998000169
0.659746265387537,-0.331211296557725
0.657711979366669,-0.307760005839365
0.656759357453708,-0.283536202971465
0.656956122790936,-0.258687439840998
0.658353732786439,-0.233367988341682
0.660986741138536,-0.207737004263134
0.664872365625407,-0.181956632101864
0.670010266909522,-0.156190073790035
0.676382541044926,-0.130599644775829
0.683953925781194,-0.105344841042781
0.692672218162553,-0.0805804405225785
0.702468898355669,-0.0564546619383249
0.713259952136102,-0.0331074034180695
0.72494688205188,-0.0106685822500889
0.737417894992149,0.0107434040763694
0.750549251747448,0.0310230768734355
0.764206762181615,0.0500791183275339
0.77824740786766,0.0678354415752829
0.792521072492553,0.0842320758026248
0.806872359027565,0.0992258556328288
0.821142471607421,0.112790906444696
0.835171139275889,0.124918919739444
0.848798558247109,0.135619215223294
0.861867329107013,0.14491858886177
0.874224365440501,0.152860948759759
0.885722750716704,0.159506743296882
0.896223520892603,0.164932188469483
0.905597351096812,0.169228303827902
0.913726125919496,0.172499768721094
0.920504374247118,0.174863612741883
0.925840551224804,0.176447756278713
0.929658151784622,0.17738941889926
0.931896642222462,0.177833414895602
0.932512198514751,0.177930356690345
0.931478242411922,0.177834787921511
0.928785768800198,0.17770326887763
0.924443460356777,0.177692437532807
0.918477588105323,0.177957069727745
0.910931699077424,0.178648162053027
0.901866094869755,0.179911060715366
0.891357107424771,0.181883659109332
0.879496180824059,0.184694685983057
0.866388770238053,0.188462104986673
0.852153071395152,0.1932916450402
0.836918595990399,0.199275479369568
0.820824610323808,0.206491069254811
0.8040184561185,0.215000186535023
0.78665377389883,0.224848126744781
0.768888650491328,0.236063122442675
0.750883713132205,0.248655963862474
0.732800193313117,0.262619831500804
0.714797983864102,0.277930342682522
0.697033712854547,0.294545811547535
0.679658857688758,0.312407719312087
0.66281792228463,0.331441389105064
0.646646699458085,0.351556857196496
0.631270639601469,0.372649930051485
0.616803345453731,0.394603414387022
0.603345211229484,0.417288505309071
0.590982222621572,0.440566315688373
0.579784932238882,0.464289528218861
0.569807622911415,0.488304150113342
0.561087669014092,0.512451349145141
0.553645103556923,0.536569348756863
0.547482396291341,0.560495359240399
0.542584445520901,0.584067521554338
0.538918783710354,0.607126840191455
0.536435994391759,0.629519081641807
0.535070335301286,0.651096615414473
0.534740560176919,0.671720175278146
0.535350929235637,0.691260519349173
0.536792396058244,0.709599968883318
0.53894395646854,0.726633807099884
0.541674143027002,0.742271521065699
0.544842646991506,0.756437871571425
0.54830204805019,0.769073778020493
0.551899630823251,0.780137007596355
0.555479266077123,0.789602660349438
0.558883333808817,0.797463444322342
0.561954664849875,0.803729737380342
0.564538477414487,0.808429435003301
0.566484285077556,0.811607585893076
0.567647753015233,0.813325819826051
0.567892479968347,0.813661574702172
0.567091684290682,0.812707132179219
0.565129773608245,0.810568473604461
0.561903779028365,0.807363970137042
0.557324636481578,0.803222922967064
0.55131829963473,0.798283971356797
0.543826670858168,0.792693387833801
0.534808338938358,0.786603281235447
0.524239114573058,0.78016972942274
0.512112357140695,0.773550864334956
0.498439088769222,0.766904932634989
0.483247894311492,0.76038835549146
0.466584608432941,0.754153811054
0.448511793601485,0.748348362902516
0.429108015307574,0.743111657193064
0.408466923303683,0.738574210388907
0.386696150007082,0.734855808365649
0.363916039429052,0.732064036327263
0.340258222050852,0.730292957381805
0.315864052936637,0.729621955820959
0.290882932033641,0.730114759148149
0.265470527039917,0.731818650730001
0.239786920402595,0.734763882631946
0.213994702930526,0.738963295768604
0.188257037153131,0.744412151982946
0.162735713924493,0.75108818009555
0.13758922585367,0.758951835367824
0.112970880937897,0.767946769232358
0.0890269792873322,0.778000503591063
0.0658950750640757,0.789025301498444
0.0437023447238038,0.800919223663343
0.0225640813579317,0.813567357946763
0.00258233340351035,0.826843206933289
-0.0161552957644071,0.840610216734698
-0.0335766727961016,0.854723428469795
-0.04962597145409,0.869031232375267
-0.06426431167205,0.883377203256399
-0.077470192838019,0.89760199499896
-0.0892397160519871,0.911545271146522
-0.0995865926695903,0.925047648109528
-0.108541939037799,0.937952627418941
-0.116153859923871,0.950108493570135
-0.122486825703813,0.961370154420236
-0.127620850880068,0.971600901799281
-0.131650483909785,0.980674070963914
-0.134683620615396,0.988474578750095
-0.136840155590778,0.994900321753588
-0.1382504879827,0.999863417565894
-0.139053899795024,1.00329127399826
-0.139396826410437,1.00512747331424
-0.139431040332895,1.0053324607366
-0.139311770207251,1.00388402887021
-0.139195777958236,1.00077759215955
-0.139239417399288,0.996026248048114
-0.139596697886621,0.989660624095922
-0.140417376532699,0.981728512909444
-0.141845102146553,0.972294299313726
-0.144015633440468,0.961438186718246
-0.147055153141031,0.949255232065406
-0.151078698478392,0.935854201073997
-0.156188727114814,0.921356257671132
-0.162473835929565,0.9058935035188
-0.170007648221668,0.88960738536063
-0.178847882847605,0.872646989518833
-0.189035616602629,0.85516724424098
-0.200594748808518,0.837327051714686
-0.213531674616104,0.819287372421885
-0.227835170997283,0.801209285082779
-0.243476496819468,0.783252045735669
-0.260409705796648,0.765571169509266
-0.27857216852718,0.748316558368466
-0.297885297290326,0.731630697556375
-0.318255464812275,0.715646942621348
-0.339575105857805,0.700487917818112
-0.361723988284397,0.686264045319944
-0.384570638138542,0.673072223090896
-0.407973901503993,0.660994667462376
-0.431784624151711,0.650097934458979
-0.455847428611196,0.64043213174856
-0.480002567100253,0.632030330777481
-0.504087827829365,0.62490818622187
-0.527940471548854,0.619063767369034
-0.551399174839831,0.614477603470556
-0.574305956567968,0.611112942511077
-0.596508064123466,0.60891622024613
-0.617859796558587,0.607817733809843
-0.638224242500057,0.607732511710028
-0.657474911748041,0.608561369644163
-0.675497240763802,0.610192139314049
-0.692189953778902,0.612501055316845
-0.707466263011227,0.615354283271195
-0.721254893426081,0.618609570622711
-0.733500919610249,0.622118000083725
-0.744166404607544,0.625725824416343
-0.753230832968132,0.629276360280272
-0.760691332761838,0.632611918149836
-0.766562683867178,0.635575744866685
-0.770877112442076,0.638013955241156
-0.773683874077622,0.639777429248151
-0.775048630701151,0.640723651780863
-0.775052628798469,0.640718472622897
-0.773791688936609,0.639637765267666
-0.771375018858972,0.637368964441684
-0.767923864566159,0.633812463660681
-0.76357001576231,0.628882855846371
-0.758454183814481,0.622510001936648
-0.752724271919935,0.614639914509814
-0.746533558484602,0.605235445688868
-0.740038815769289,0.594276770967527
-0.733398386645884,0.581761663076845
-0.726770242814149,0.567705552559817
-0.7203100480546,0.55214137431035
-0.714169250031727,0.535119201931043
-0.7084932238151,0.516705674339667
-0.703419489657985,0.496983221576071
-0.699076026671582,0.47604909919854
-0.69557970286883,0.454014242982047
-0.693034840638966,0.431001957812082
-0.691531935070026,0.407146456680296
-0.691146540680875,0.382591267507717
-0.691938340080033,0.357487527125619
-0.69395040586002,0.331992183113817
-0.697208664690213,0.306266125314619
-0.701721570116637,0.280472269694219
-0.70747998804356,0.254773617801727
-0.714457296289938,0.229331315372196
-0.72260969701503,0.204302733630342
-0.731876738223439,0.179839596576051
-0.742182038021707,0.156086176974588
-0.753434202837348,0.133177582940385
-0.765527928456617,0.111238155903563
-0.778345270517947,0.0903799993963094
-0.791757069040949,0.0707016565081603
-0.80562450970086,0.0522869520546373
-0.819800802898334,0.0352040135042206
-0.834132960244403,0.0195044825387426
-0.848463646897821,0.00522292680824228
-0.86263308727109,-0.00762354098879957
-0.876481000973506,-0.0190354320855884
-0.889848545492377,-0.0290308366459224
-0.9025802420316,-0.0376451653377496
-0.914525861131112,-0.0449306806279592
-0.925542245178753,-0.0509558234974806
-0.935495045691984,-0.0558043437591111
-0.944260354281336,-0.0595742445444756
-0.951726207497853,-0.062376553782266
-0.957793947297531,-0.0643339375899959
-0.962379420608224,-0.0655791724204568
-0.965414003437401,-0.0662534945185823
-0.966845437088816,-0.0665048467337057
-0.966638466336781,-0.066486043978146
-0.9647752718105,-0.0663528796105731
-0.961255691338813,-0.0662621957396778
-0.95609722756728,-0.0663699408816081
-0.949334841753728,-0.0668292385581285
-0.941020536243775,-0.067788490289624
-0.931222730692789,-0.0693895360195394
-0.920025439604264,-0.0717658943096795
-0.907527261166194,-0.0750411036774516
-0.893840189657426,-0.0793271852183744
-0.879088265837511,-0.0847232451849049
-0.86340608170002,-0.0913142344937159
-0.84693715773702,-0.099169880228617
-0.829832212409788,-0.108343802118479
-0.812247344829148,-0.118872824724135
-0.79434215270223,-0.130776493692521
-0.77627780838804,-0.144056801959216
-0.758215116412606,-0.158698129231943
-0.740312576019401,-0.174667395498644
-0.722724472269446,-0.1919144267057
-0.705599018858806,-0.210372528176348
-0.689076575193311,-0.229959258817603
-0.673287959358765,-0.250577396726648
-0.658352877460741,-0.272116084484231
-0.644378488395396,-0.294452140241405
-0.631458121468569,-0.317451518693377
-0.619670162425018,-0.340970904214708
-0.609077121405166,-0.364859416825806
-0.599724894138303,-0.388960410290928
-0.591642225335372,-0.413113340529511
-0.584840380789966,-0.43715568166904
-0.57931303216256,-0.460924866489279
-0.575036355841201,-0.484260227711546
-0.571969344673156,-0.507004916576349
-0.570054328777933,-0.529007775428317
-0.569217699113986,-0.550125141585559
-0.569370825010163,-0.570222560604592
-0.570411154518333,-0.589176388151715
-0.572223484224353,-0.606875261043785
-0.574681383097368,-0.623221419609338
-0.57764875308757,-0.638131865325686
-0.580981507522409,-0.651539339687053
-0.584529346921316,-0.663393112428691
-0.588137610666254,-0.673659569546029
-0.591649182044618,-0.682322593977951
-0.594906423532949,-0.689383734340036
-0.59775311882279,-0.694862159666219
-0.600036398008034,-0.698794400714825
-0.601608622557444,-0.701233880985596
-0.602329207184027,-0.702250243146894
-0.602066356488893,-0.701928479055538
-0.6006986952916,-0.700367873935769
-0.598116772849432,-0.69768077753957
-0.594224422698756,-0.693991217210638
-0.588939961604079,-0.689433369693295
-0.582197213053348,-0.684149910242117
-0.573946342867723,-0.678290259077357
-0.564154496774619,-0.672008746477178
-0.552806232196677,-0.665462718785253
-0.539903739007126,-0.658810608329335
-0.525466846563616,-0.652209990684356
-0.509532816926814,-0.645815652867129
-0.492155926765379,-0.63977769591684
-0.473406843013955,-0.634239694898058
-0.453371799854282,-0.629336938665769
-0.432151587001145,-0.625194770763633
-0.409860361565296,-0.621927051598896
-0.386624297906969,-0.619634760565116
-0.362580091860125,-0.618404755084949
-0.337873337475234,-0.618308701640311
-0.312656795975797,-0.619402191769383
-0.287088577932137,-0.621724053764551
-0.261330260709368,-0.625295868429685
-0.235544964032059,-0.630121694778002
-0.209895407016494,-0.636188009003243
-0.184541970246319,-0.643463857467873
-0.159640786406124,-0.651901221854018
-0.135341882640781,-0.661435592047315
-0.111787397180484,-0.671986739802123
-0.089109891869837,-0.683459683799183
-0.0674307810752684,-0.695745834383413
-0.0468588960322209,-0.708724304088301
-0.0274892020495682,-0.722263368040812
-0.00940168413316254,-0.736222056521176
0.00733958545399251,-0.750451860347663
0.0226871863859102,-0.764798528386694
0.0366108872588864,-0.779103935370244
0.0490979738591659,-0.793207997348911
0.0601533647378816,-0.80695061153062
0.0697995126999511,-0.820173596958774
0.0780760934123561,-0.832722612473366
0.08503948492129,-0.844449028674074
0.090762044405797,-0.855211731162695
0.095331190956752,-0.864878833176153
0.0988483055246696,-0.873329276821168
0.10142746139912,-0.88045430347366
0.103194000639662,-0.886158775494005
0.104282973748128,-0.890362333213946
0.104837461532166,-0.893000373150353
0.10500679953996,-0.894024835570977
0.104944726628692,-0.893404791851365
0.104807480150224,-0.891126824492243
0.10475186088544,-0.887195195183339
0.104933291225881,-0.881631798872268
0.105503890183261,-0.874475904394611
0.106610588603158,-0.865783684811979
0.10839330747112,-0.855627543157394
0.110983221433539,-0.844095241770628
0.114501128621233,-0.831288845790164
0.119055946573265,-0.817323493624172
0.124743352527802,-0.802326009322964
0.131644584594375,-0.786433373694406
0.139825418368958,-0.769791072718202
0.149335331423615,-0.752551343304339
0.160206865821877,-0.734871337686862
0.172455196407202,-0.716911228731686
0.186077910113998,-0.698832279154285
0.201054998989137,-0.680794898080915
0.217349067017642,-0.662956708540679
0.234905748250941,-0.645470649342759
0.253654331170995,-0.628483134375741
0.27350858172026,-0.612132291668684
0.294367755015694,-0.596546303585354
0.316117783474726,-0.581841868295173
0.338632626939541,-0.568122801192255
0.361775768419544,-0.55547879323495
0.385401837304247,-0.543984341273354
0.40935834035133,-0.53369786334446
0.433487479446397,-0.524661009669209
0.457628034077531,-0.516898177709996
0.481617285682137,-0.510416237170083
0.505292960515203,-0.5052044682678
0.52849516746322,-0.501234714029418
0.551068307289213,-0.498461744746593
0.572862930141133,-0.496823830168707
0.593737518783663,-0.496243512478757
0.613560175915124,-0.496628570664017
0.632210195095298,-0.497873164569349
0.649579496222665,-0.499859144739798
0.665573908143749,-0.502457512146541
0.680114282832619,-0.505530010070742
0.693137427623186,-0.508930828815574
0.704596844185241,-0.512508402546926
0.714463265281099,-0.516107276444929
0.722724982794173,-0.519570021494822
0.72938796305443,-0.522739173667302
0.73447574806747,-0.52545917394234
0.738029143852701,-0.527578285620104
0.740105699680205,-0.528950465638244
0.740778984533932,-0.529437167172958
