0.11316184076143,-0.576997245179063
0.11313405006589,-0.576923032506586
0.11305990743116,-0.576696624174712
0.112953237353987,-0.576312404642389
0.112827810714494,-0.575764822841327
0.112697310692176,-0.57504840615172
0.112575298909713,-0.57415777427385
0.112475181880973,-0.573087652964226
0.112410177838895,-0.571832887605164
0.112393284018069,-0.570388456577087
0.112437244465826,-0.568749484403244
0.112554518454445,-0.566911254637033
0.112757249565759,-0.564869222462675
0.113057235517896,-0.562619026980609
0.113465898802261,-0.560156503149658
0.113994258197031,-0.557477693358776
0.114652901221463,-0.554578858601982
0.115451957593224,-0.551456489230975
0.116401073748682,-0.548107315260825
0.117509388483741,-0.544528316205152
0.118785509770266,-0.540716730418185
0.120237492800522,-0.536670063922249
0.121872819309312,-0.532386098700284
0.123698378220608,-0.527862900434247
0.125720447662531,-0.523098825671414
0.127944678391457,-0.518092528401901
0.13037607866287,-0.512842966031998
0.133019000583349,-0.507349404739245
0.135877127974751,-0.501611424196569
0.138953465778284,-0.49562892165415
0.142250331022685,-0.489402115369149
0.145769345377245,-0.482931547374837
0.149511429306861,-0.476218085582149
0.153476797842711,-0.469262925208148
0.157664957978517,-0.462067589527375
0.162074707698754,-0.454633929943561
0.166704136641464,-0.446964125380688
0.171550628394716,-0.439060680993875
0.176610864422062,-0.430926426202085
0.181880829608711,-0.422564512046136
0.187355819416503,-0.413978407877021
0.193030448632169,-0.405171897380978
0.198898661689784,-0.396149073949263
0.204953744544807,-0.38691433540201
0.21118833807361,-0.377472378076989
0.217594452968993,-0.367828190295491
0.224163486098834,-0.357987045218936
0.230886238291716,-0.34795449311116
0.237752933510214,-0.337736353022644
0.244753239369386,-0.327338703914236
0.251876288954997,-0.316767875239147
0.259110703893116,-0.306030437003214
0.266444618619884,-0.295133189324574
0.273865705797585,-0.284083151514988
0.281361202820563,-0.272887550706135
0.288917939352103,-0.261553810045186
0.296522365831033,-0.250089536484931
0.304160582884699,-0.238502508194617
0.311818371582845,-0.226800661618505
0.319481224465106,-0.214992078209935
0.327134377273034,-0.203084970869383
0.334762841316026,-0.191087670115684
0.342351436399065,-0.179008610020143
0.349884824238927,-0.166856313933808
0.357347542294417,-0.154639380038638
0.364724037935221,-0.142366466753641
0.371998702873235,-0.130046278027446
0.379155907779595,-0.117687548548959
0.386180037010219,-0.105299028907955
0.393055523362415,-0.0928894707375836
0.399766882785019,-0.0804676118707605
0.406298748964621,-0.0680421615424228
0.412635907710681,-0.0556217856694933
0.418763331062812,-0.0432150922402314
0.424666211044051,-0.0308306168444056
0.430329992984771,-0.0184768083753955
0.435740408342802,-0.00616201493495116
0.440883506946423,0.00610553002911491
0.445745688588205,0.0183177213225559
0.45031373389907,0.0304665953124763
0.454574834433559,0.0425443429147621
0.458516621899013,0.0545433222333654
0.46212719646331,0.0664560708244231
0.465395154077782,0.0782753175590332
0.468309612754194,0.0899939940594061
0.470860237736909,0.101605245684058
0.473037265513869,0.113102442038724
0.474831526612573,0.124479186990717
0.476234467129934,0.135729328165583
0.477238168947715,0.146846965906034
0.477835368588144,0.15782646167436
0.478019474667344,0.168662445880746
0.477784583907338,0.179349825121206
0.477125495670548,0.189883788810163
0.476037724984046,0.200259815194042
0.474517514024123,0.210473676733639
0.472561842035196,0.220521444844404
0.470168433660536,0.230399493985253
0.467335765665821,0.24010450508791
0.464063072040133,0.249633468320318
0.460350347462559,0.258983685179076
0.456198349126248,0.268152769907395
0.451608596915403,0.277138650236544
0.446583371934337,0.285939567450275
0.44112571339141,0.294554075773199
0.435239413844313,0.302981041085625
0.428929012816793,0.311219638968824
0.422199788800565,0.319269352086211
0.415057749659703,0.327129966907387
0.40750962145842,0.334801569783442
0.399562835736563,0.342284542383387
0.391225515260703,0.349579556502961
0.382506458281983,0.356687568258485
0.373415121335309,0.363609811679785
0.363961600617626,0.37034779171754
0.354156611986237,0.376903276681706
0.344011469621161,0.383278290128934
0.333538063398509,0.389475102218122
0.322748835024715,0.395496220554406
0.311656752984215,0.401344380543036
0.300275286355801,0.407022535275678
0.288618377555402,0.412533844972681
0.27670041406541,0.417881666005877
0.264536199212929,0.423069539527362
0.252140922061454,0.428101179730605
0.239530126482409,0.432980461771027
0.226719679474857,0.437711409373941
0.213725738803297,0.442298182158445
0.200564720025028,0.446745062706454
0.187253262979878,0.451056443406639
0.173808197816304,0.455236813103528
0.160246510628895,0.459290743582425
0.146585308783147,0.463222875921182
0.132841786004096,0.467037906740137
0.119033187305906,0.470740574381729
0.105176773839831,0.474335645051468
0.0912897877381851,0.477827898951996
0.077389417031917,0.481222116441976
0.0634927607192458,0.484523064251491
0.0496167940624394,0.487735481785474
0.0357783341893307,0.490864067546499
0.0219940060754554,0.493913465707971
0.00828020898185122,0.496888252868397
-0.00534691657746295,0.499792925017026
-0.0188715212655117,0.502631884740626
-0.0322780786784081,0.505409428700636
-0.0455514163574559,0.508129735409312
-0.0586767459890167,0.510796853332786
-0.0716396927256484,0.513414689348226
-0.0844263235640131,0.515986997581483
-0.0970231747171391,0.518517368650728
-0.109417277920887,0.521009219340676
-0.12159618561684,0.523465782731019
-0.133547994956371,0.525890098801632
-0.14526137057323,0.528285005536081
-0.156725566074818,0.530653130543788
-0.167930444205095,0.532996883220073
-0.1788664956351,0.535318447462034
-0.189524856340101,0.537619774957019
-0.19989732352554,0.539902579059095
-0.209976370067216,0.542168329267641
-0.219755157434411,0.54441824632079
-0.229227547068109,0.546653297915071
-0.238388110189869,0.548874195061209
-0.24723213602043,0.551081389084552
-0.255755638390673,0.553275069277198
-0.263955360731167,0.555455161207368
-0.27182877943012,0.557621325690136
-0.279374105553211,0.55977295842209
-0.286590284922455,0.561909190281024
-0.293476996554866,0.564028888290259
-0.300034649465403,0.566130657245671
-0.30626437784227,0.568212842002029
-0.312168034606344,0.570273530413739
-0.317748183370034,0.572310556923627
-0.323008088814514,0.574321506791907
-0.327951705507746,0.57630372095607
-0.332583665189227,0.578254301510953
-0.336909262550792,0.580170117796896
-0.340934439546161,0.582047813082476
-0.344665768265207,0.583883811827006
-0.34811043241212,0.58567432750662
-0.351276207429744,0.587415370986543
-0.354171439315407,0.589102759420872
-0.356805022176441,0.590732125660008
-0.359186374576451,0.59229892814474
-0.36132541472603,0.593798461264855
-0.363232534574244,0.595225866159106
-0.364918572859613,0.59657614193237
-0.366394787181674,0.597844157264871
-0.367672825156363,0.599024662387449
-0.368764694720501,0.600112301396025
-0.369682733652578,0.601101624877636
-0.370439578378739,0.601987102819693
-0.37104813213451,0.602763137773486
-0.371521532554193,0.603424078242336
-0.371873118761154,0.603964232264315
-0.372116398033335,0.604377881158981
-0.372265012119246,0.604659293407187
-0.372332703280487,0.604802738632723
-0.372333280137446,0.604802501654296
-0.37228058339524,0.604652896576173
-0.372188451527244,0.604348280885719
-0.372070686493637,0.603883069526023
-0.371941019572284,0.60325174891184
-0.371813077379069,0.602448890857191
-0.371700348154285,0.601469166383142
-0.371616148391177,0.600307359374521
-0.371573589881871,0.598958380054679
-0.371585547255057,0.597417278247758
-0.371664626078643,0.595679256398402
-0.371823131599344,0.593739682319377
-0.37207303818973,0.591594101638146
-0.372425959571695,0.589238249914091
-0.372893119883527,0.586668064398824
-0.373485325655896,0.583879695412774
-0.374212938760041,0.580869517312088
-0.37508585038923,0.577634139020808
-0.376113456132279,0.574170414104182
-0.377304632195467,0.570475450360049
-0.378667712826578,0.566546618906222
-0.380210468992162,0.562381562742964
-0.381940088356247,0.557978204770775
-0.383863156605856,0.553334755244905
-0.385985640165647,0.548449718649277
-0.38831287034089,0.543321899973754
-0.390849528924794,0.537950410380019
-0.39359963530292,0.532334672242682
-0.396566535084063,0.526474423553606
-0.399752890283563,0.520369721678853
-0.403160671081541,0.514020946459074
-0.40679114917501,0.507428802645634
-0.410644892739264,0.500594321666219
-0.41472176301033,0.493518862715146
-0.419020912496636,0.486204113165121
-0.423540784824422,0.47865208829866
-0.428279116217722,0.470865130358901
-0.433232938610133,0.462845906921066
-0.43839858438189,0.454597408587283
-0.443771692712161,0.44612294600904
-0.449347217532824,0.437426146242978
-0.455119437066429,0.428510948447229
-0.461081964927494,0.419381598926968
-0.467227762762762,0.410042645539287
-0.473549154402625,0.400498931468893
-0.48003784149252,0.390755588387579
-0.486684920569787,0.380818029011711
-0.493480901548238,0.370691939073376
-0.500415727569544,0.360383268722087
-0.50747879617746,0.349898223375213
-0.514658981767963,0.339243254036541
-0.521944659265497,0.328425047103531
-0.529323728972799,0.317450513684963
-0.536783642539101,0.306326778451772
-0.544311429989038,0.29506116804488
-0.551893727752182,0.28366119906483
-0.559516807630886,0.272134565668946
-0.56716660664201,0.260489126802603
-0.574828757666136,0.24873289309202
-0.582488620836062,0.236874013426715
-0.590131315594702,0.224920761260464
-0.597741753351018,0.212881520660215
-0.605304670661229,0.200764772132967
-0.612804662861407,0.188579078261125
-0.620226218076491,0.176333069177244
-0.627553751529947,0.164035427909434
-0.634771640077565,0.151694875629009
-0.641864256888422,0.139320156832115
-0.648816006195643,0.126920024487282
-0.655611358039463,0.114503225180877
-0.662234882925081,0.102078484292433
-0.668671286317956,0.0896544912317857
-0.674905442899563,0.0772398847697905
-0.680922430507146,0.0648432384941683
-0.686707563681677,0.0524730464217808
-0.692246426749107,0.0401377087982424
-0.697524906361016,0.0278455181153965
-0.702529223421949,0.015604645376662
-0.707245964332096,0.00342312663972153
-0.711662111475481,-0.00869115013460825
-0.715765072885477,-0.02073045789916
-0.719542711021319,-0.0326872429754437
-0.722983370591211,-0.0445541371203123
-0.726075905359779,-0.0563239691785278
-0.728809703879849,-0.0679897762964113
-0.731174714090908,-0.07954481467275
-0.733161466729146,-0.0909825698241468
-0.734761097496589,-0.102296766343102
-0.735965367939607,-0.113481377128235
-0.736766684989922,-0.124530632067228
-0.737158119124237,-0.135439026154311
-0.737133421101662,-0.146201327025342
-0.736687037241269,-0.15681258189485
-0.735814123205353,-0.167268123880741
-0.73451055625731,-0.177563577703723
-0.732772945966407,-0.187694864749895
-0.730598643335189,-0.197658207486386
-0.727985748328779,-0.207450133221335
-0.724933115788849,-0.217067477200984
-0.721440359718665,-0.226507385038141
-0.71750785592922,-0.235767314467717
-0.713136743040084,-0.244845036426591
-0.70832892183231,-0.253738635456515
-0.703087052954353,-0.262446509430294
-0.697414552985644,-0.270967368602994
-0.6913155888661,-0.279300233991397
-0.684795070703506,-0.287444435086449
-0.677858642974275,-0.295399606904914
-0.67051267413671,-0.303165686387901
-0.662764244679371,-0.310742908155414
-0.654621133630679,-0.318131799627474
-0.646091803559272,-0.325333175523782
-0.637185384098009,-0.332348131755271
-0.627911654027773,-0.339178038722237
-0.618281021960462,-0.345824534035067
-0.608304505663637,-0.352289514674841
-0.597993710072342,-0.358575128612352
-0.587360804036493,-0.364683765905266
-0.576418495855096,-0.370618049294305
-0.565180007651202,-0.376380824320455
-0.553659048644102,-0.381975148986244
-0.541869787377719,-0.387404282985146
-0.529826822966466,-0.392671676524133
-0.517545155422021,-0.397780958765279
-0.505040155126512,-0.402735925913156
-0.492327531519497,-0.407540528975572
-0.479423301067873,-0.412198861225864
-0.466343754589444,-0.416715145395681
-0.45310542400228,-0.421093720627717
-0.43972504857332,-0.425339029218417
-0.426219540740731,-0.429455603181136
-0.412605951585517,-0.43344805066058
-0.398901436028619,-0.43732104222974
-0.385123217830358,-0.441079297100709
-0.371288554469517,-0.444727569281019
-0.357414701979601,-0.448270633707177
-0.343518879819916,-0.451713272387186
-0.329618235859008,-0.455060260583728
-0.315729811547764,-0.458316353069654
-0.301870507359029,-0.461486270487191
-0.288057048569985,-0.464574685842079
-0.274305951462813,-0.467586211163482
-0.26063349001814,-0.470525384360195
-0.247055663174752,-0.473396656303158
-0.233588162727712,-0.476204378163806
-0.220246341935637,-0.478952789037184
-0.207045184906295,-0.4816460038781
-0.193999276827903,-0.484288001777886
-0.181122775111676,-0.486882614608559
-0.168429381509068,-0.489433516060329
-0.155932315265048,-0.491944211097515
-0.143644287366343,-0.494418025856984
-0.131577475941218,-0.496858098012217
-0.119743502864738,-0.499267367625043
-0.10815341162078,-0.501648568506005
-0.0968176464692526,-0.504004220103135
-0.0857460329640583,-0.506336619937747
-0.0749477598643364,-0.508647836604601
-0.0644313624783857,-0.51093970335253
-0.054204707476487,-0.513213812260285
-0.0442749792055457,-0.515471509021056
-0.0346486675351555,-0.517713888347672
-0.025331557261209,-0.519941790009181
-0.0163287190897727,-0.522155795507982
-0.00764450222034947,-0.524356225405316
0.000717471455874585,-0.526543137301415
0.00875431153081307,-0.528716324475135
0.0164638616189689,-0.530875315186415
0.0238447002569034,-0.53301937264342
0.0308961401616798,-0.535147495634685
0.0376182258508747,-0.537258419825126
0.0440117296304679,-0.53935061971324
0.0500781459605083,-0.541422311245353
0.0558196842121178,-0.543471455081271
0.0612392598329518,-0.545495760504225
0.0663404839418016,-0.547492689966554
0.0711276513765282,-0.549459464261107
0.0756057272229559,-0.551393068306958
0.0797803318557544,-0.553290257536628
0.0836577245256483,-0.55514756487063
0.0872447855305397,-0.556961308263868
0.0905489970112817,-0.558727598807067
0.0935784224159149,-0.560442349365207
0.0963416846791348,-0.562101283733686
0.0988479431666393,-0.563699946291777
0.101106869436739,-0.565233712131801
0.103128621874262,-0.566697797641379
0.104923819254301,-0.568087271515077
0.106503513295709,-0.569397066170796
0.107879160266531,-0.570621989545322
0.109062591705664,-0.571756737242596
0.110065984326975,-0.572795905007469
0.110901829173968,-0.573734001496932
0.111582900094737,-0.574565461320158
0.112122221608445,-0.575284658318059
0.112533036235943,-0.575885919052522
0.112828771368314,-0.576363536474973
0.113023005748168,-0.576711783743542
0.113129435639347,-0.576924928157709
0.11316184076143,-0.576997245179063
