-0.916207529843894,-0.0954053285764293
-0.916094524946839,-0.0953996772782918
-0.915754380076304,-0.0953969133399228
-0.915185445759149,-0.0954182776180153
-0.914386137002229,-0.0954849100898595
-0.913354937536972,-0.0956177974278154
-0.912090404021041,-0.0958377209288356
-0.910591170187497,-0.0961652049165292
-0.908855950931966,-0.0966204657321955
-0.906883546328447,-0.0972233614299435
-0.904672845564509,-0.0979933422894328
-0.902222830786781,-0.0989494022579459
-0.899532580847814,-0.100110031431423
-0.896601274945602,-0.101493169681763
-0.893428196147231,-0.103116161535144
-0.890012734788383,-0.104995712403289
-0.88635439174066,-0.107147846266632
-0.88245278153897,-0.109587864905019
-0.878307635361487,-0.112330308768196
-0.873918803855018,-0.115388919574609
-0.869286259798923,-0.118776604723214
-0.864410100601053,-0.122505403598926
-0.859290550619545,-0.126586455848104
-0.853927963304665,-0.131029971696068
-0.848322823155244,-0.135845204374083
-0.842475747484694,-0.141040424718514
-0.836387487991925,-0.146622898000021
-0.830058932132945,-0.152598863035658
-0.823491104289326,-0.158973513631645
-0.816685166730135,-0.165750982399378
-0.809642420364396,-0.172934326981927
-0.802364305281559,-0.18052551872287
-0.794852401077924,-0.188525433803896
-0.787108426967415,-0.196933846872027
-0.779134241675547,-0.205749427171791
-0.770931843115908,-0.214969737192068
-0.762503367848925,-0.224591233831675
-0.753851090323143,-0.234609272082178
-0.744977421899732,-0.245018111220741
-0.73588490966137,-0.255810923500229
-0.726576235007121,-0.266979805318213
-0.71705421203539,-0.278515790840935
-0.707321785717476,-0.290408868052853
-0.697382029864687,-0.302647997196923
-0.687238144892449,-0.315221131565432
-0.676893455385224,-0.32811524059596
-0.666351407466526,-0.341316335221848
-0.655615565978705,-0.354809495421563
-0.644689611477587,-0.368578899906355
-0.63357733704745,-0.382607857880898
-0.622282644942196,-0.39687884280688
-0.610809543058943,-0.411373528095107
-0.599162141250631,-0.42607282464729
-0.587344647484559,-0.440956920164599
-0.575361363854101,-0.456005320136072
-0.563216682451174,-0.471196890416233
-0.550915081107296,-0.486509901297668
-0.538461119011368,-0.501922072981008
-0.52585943221258,-0.517410622341592
-0.513114729017043,-0.532952310889185
-0.500231785287022,-0.548523493814454
-0.487215439651798,-0.564100170013453
-0.474070588639408,-0.579658032979174
-0.46080218173864,-0.595172522447261
-0.447415216400828,-0.610618876681293
-0.433914732991099,-0.625972185281588
-0.420305809698818,-0.6412074424003
-0.406593557417068,-0.65629960024465
-0.392783114601048,-0.671223622749471
-0.378879642115307,-0.685954539299869
-0.364888318079753,-0.700467498384624
-0.350814332724349,-0.714737821061157
-0.336662883262402,-0.728741054113226
-0.322439168792266,-0.742453022783228
-0.308148385237245,-0.755849882961888
-0.29379572033335,-0.768908172719307
-0.279386348674459,-0.781604863062816
-0.264925426824316,-0.79391740780875
-0.250418088504599,-0.805823792457256
-0.235869439868148,-0.817302581961409
-0.221284554866237,-0.828332967284402
-0.206668470718532,-0.83889481064122
-0.192026183494179,-0.848968689324157
-0.17736264381218,-0.858535938014645
-0.162682752668954,-0.867578689487246
-0.147991357400691,-0.876079913615214
-0.133293247787797,-0.884023454590798
-0.118593152308409,-0.891394066277433
-0.103895734547606,-0.898177445615101
-0.089205589768629,-0.904360264004486
-0.0745272416519969,-0.909930196600007
-0.0598651392080889,-0.914875949446491
-0.0452236538683296,-0.919187284399021
-0.0306070767597321,-0.922855041770411
-0.016019616167138,-0.925871160655841
-0.00146539518706972,-0.928228696889311
0.0130515504233146,-0.929921838591863
0.0275272741991128,-0.930945919276863
0.0419579207198077,-0.931297428483064
0.0563397271584716,-0.930974019911667
0.0706690246263422,-0.92997451704915
0.0849422393115153,-0.928298916263228
0.09915589341096,-0.925948387364907
0.113306605855528,-0.922925271635249
0.127391092828079,-0.919233077321087
0.14140616807531,-0.914876472609578
0.155348743014332,-0.909861276097044
0.169215826635497,-0.904194444773176
0.183004525203416,-0.897884059547154
0.196712041758576,-0.890939308347737
0.210335675422381,-0.883370466834728
0.223872820508898,-0.875188876764586
0.237320965446997,-0.866406922058107
0.250677691517006,-0.857038002623254
0.263940671406396,-0.847096505991185
0.27710766758942,-0.83659777682838
0.29017653053601,-0.825558084392507
0.303145196755612,-0.813994588004218
0.316011686681996,-0.801925300611483
0.328774102405429,-0.789369050527308
0.341430625258927,-0.776345441425729
0.353979513265625,-0.762874810684855
0.366419098454596,-0.748978186169392
0.378747784052737,-0.734677241548549
0.390964041560617,-0.719994250248469
0.403066407720402,-0.704952038141368
0.415053481384246,-0.689573935076356
0.426923920291691,-0.673883725359479
0.438676437764872,-0.657905597292849
0.450309799330446,-0.641664091884831
0.461822819277328,-0.62518405084504
0.473214357159469,-0.608490563979536
0.484483314252993,-0.591608916102874
0.495628629977099,-0.57456453358477
0.506649278288234,-0.557382930649913
0.517544264057035,-0.540089655549996
0.528312619437619,-0.522710236727306
0.538953400238746,-0.505270129089229
0.549465682306412,-0.487794660512734
0.559848557927347,-0.47030897869739
0.570101132262853,-0.452837998484682
0.58022251982233,-0.43540634976031
0.590211840985713,-0.418038326054869
0.600068218583953,-0.400757833956712
0.609790774546493,-0.383588343448972
0.61937862662454,-0.366552839280664
0.628830885198742,-0.34967377347943
0.638146650179679,-0.33297301911096
0.647325008009331,-0.316471825387314
0.656365028771481,-0.300190774223331
0.665265763418686,-0.284149738337096
0.674026241123248,-0.268367840986949
0.68264546675924,-0.252863417433877
0.691122418522391,-0.237653978214244
0.699456045694277,-0.222756174303788
0.707645266556919,-0.208185764249549
0.715688966463551,-0.193957583342027
0.723585996070925,-0.180085514895271
0.731335169738175,-0.166582463697899
0.738935264096821,-0.153460331693193
0.74638501679613,-0.140729995941429
0.753683125427621,-0.128401288912487
0.760828246632067,-0.116482981151602
0.767818995391947,-0.104982766355765
0.774653944511832,-0.0939072488929562
0.78133162428876,-0.083261933790868
0.787850522374213,-0.0730512192163011
0.794209083828857,-0.0632783914608328
0.800405711370722,-0.0539456224427485
0.806438765817097,-0.0450539697296211
0.81230656671991,-0.0366033790802741
0.818007393193924,-0.0285926894992421
0.823539484936641,-0.0210196407912294
0.828901043438314,-0.0138808835974761
0.834090233380068,-0.00717199189039888
0.839105184217631,-0.000887477897382527
0.843943991947788,0.00497919058083129
0.848604721054195,0.0104355704970617
0.8530854066288,0.0154902215750707
0.857384056664658,0.0201526820677368
0.861498654515571,0.0244334423113822
0.865427161517533,0.02834391613655
0.86916751976661,0.0318964102003057
0.872717655047489,0.0351040913097852
0.876075479906583,0.0379809518111977
0.879238896863202,0.0405417731228095
0.882205801752007,0.0428020874945826
0.884974087189602,0.0447781380810996
0.887541646157839,0.0464868374181763
0.889906375696125,0.0479457243971244
0.892066180694728,0.0491729198339823
0.894018977780856,0.0501870807341706
0.895762699289017,0.0510073533559399
0.897295297306988,0.0516533251786589
0.898614747788487,0.0521449758844394
0.899719054723497,0.0525026274637914
0.900606254357017,0.0527468935579617
0.901274419446882,0.0528986281523091
0.901721663551192,0.0529788737365177
0.901946145335774,0.0530088090486394
0.901946072892049,0.053009696520884
0.901719708055616,0.0530028295457389
0.901265370715834,0.0530094796813997
0.90058144310668,0.0530508439156264
0.899666374069181,0.0531479921070089
0.898518683275733,0.0533218147222216
0.897136965406705,0.0535929709871916
0.895519894269786,0.0539818375691692
0.893666226852636,0.0545084579055081
0.891574807299537,0.0551924922935119
0.889244570802856,0.0560531688540008
0.886674547400334,0.0571092354793012
0.883863865669348,0.058378912874155
0.880811756309549,0.0598798487956059
0.87751755560546,0.0616290735952345
0.873980708760874,0.0636429571642058
0.870200773097165,0.0659371673784537
0.866177421107877,0.0685266301379753
0.861910443362264,0.0714254910906418
0.857399751250768,0.0746470791271668
0.852645379565747,0.0782038717299172
0.847647488911085,0.0821074622541014
0.842406367934719,0.0863685292155538
0.836922435378429,0.0909968076548466
0.831196241939676,0.0960010626428216
0.825228471940618,0.101389064987841
0.819019944799876,0.10716756920014
0.812571616303016,0.113342293763617
0.805884579668142,0.119917903760236
0.798960066403441,0.126897995886952
0.791799446953923,0.134285085899743
0.784404231135108,0.142080598513866
0.77677606835179,0.150284859784005
0.768916747600523,0.15889709198241
0.760828197254908,0.167915410987538
0.75251248463321,0.177336826190109
0.743971815348323,0.187157242917855
0.735208532440552,0.197371467374588
0.726225115294129,0.207973214083634
0.717024178338865,0.218955115820026
0.707608469538777,0.23030873601032
0.697980868669999,0.242024583573376
0.688144385390719,0.25409213016995
0.678102157106335,0.266499829823614
0.667857446633461,0.279235140870154
0.657413639666839,0.292284550187428
0.646774242053622,0.30563359965255
0.63594287687993,0.319266914768273
0.624923281374949,0.333168235395601
0.613719303638246,0.347320448524937
0.602334899196349,0.361705623013515
0.590774127395011,0.376305046212454
0.579041147633882,0.391099262402552
0.567140215450718,0.406068112953871
0.555075678462507,0.421190778120305
0.542851972171232,0.436445820376674
0.53047361564226,0.451811229202401
0.517945207063619,0.467264467212611
0.505271419194679,0.482782517534447
0.49245699471296,0.498341932323614
0.479506741468042,0.513918882313597
0.466425527651697,0.529489207287672
0.453218276893574,0.545028467361766
0.439889963291899,0.560511994964374
0.426445606388776,0.575914947398192
0.41289026609981,0.591212359866783
0.399229037607842,0.606379198848555
0.385467046230642,0.62139041569954
0.371609442272488,0.636221000365908
0.357661395869551,0.65084603508691
0.343628091838995,0.665240747968953
0.32951472454175,0.679380566311743
0.315326492768772,0.693241169567999
0.301068594660639,0.706798541819033
0.286746222670172,0.720029023649533
0.272364558577711,0.732909363306241
0.25792876856853,0.745416767026752
0.243443998381718,0.757528948426545
0.228915368539709,0.769224176834374
0.214347969667434,0.780481324468551
0.199746857909865,0.791279912349142
0.185117050456507,0.801600154843955
0.170463521181119,0.811423002749197
0.155791196404716,0.82073018480894
0.141104950789596,0.829504247580984
0.126409603371843,0.837728593560407
0.111709913739461,0.845387517475907
0.0970105783629226,0.852466240678158
0.0823162270846279,0.858950943543583
0.067631419773349,0.864828795821404
0.0529606431494175,0.87008798485635
0.038308307785983,0.874717741624177
0.0236787452913123,0.878708364521953
0.00907620567666403,0.882051240860105
-0.00549514508612961,0.884738866008304
-0.0200312273136644,0.886764860152477
-0.0345280496632914,0.888123982625561
-0.0489817109859219,0.888812143779989
-0.0633884019769374,0.888826414375382
-0.0777444066232651,0.888165032460426
-0.0920461034451391,0.886827407733493
-0.106289966531525,0.884814123372174
-0.120472566368647,0.882126935327515
-0.134590570461506,0.878768769084368
-0.148640743748761,0.874743713894946
-0.162619948811768,0.87005701449823
-0.176525145879069,0.864715060343518
-0.190353392628043,0.858725372341923
-0.204101843785894,0.852096587175131
-0.2177677505326,0.84483843919617
-0.23134845970887,0.836961739962274
-0.244841412832601,0.828478355445216
-0.258244144927728,0.819401180969616
-0.271554283169815,0.809744113934805
-0.284769545353068,0.799522024380741
-0.297887738183923,0.788750723463264
-0.310906755406672,0.777446929908623
-0.323824575767017,0.765628234521693
-0.336639260819736,0.753313062826641
-0.349348952587036,0.740520635922923
-0.361951871074471,0.727270929643471
-0.374446311651593,0.713584632105703
-0.386830642304842,0.69948309974954
-0.399103300770409,0.68498831195999
-0.411262791555091,0.670122824374976
-0.423307682853388,0.65490972098203
-0.435236603369319,0.639372565110134
-0.447048239051613,0.623535349425429
-0.45874132975115,0.607422445041768
-0.470314665809651,0.591058549858974
-0.481767084588777,0.574468636243431
-0.493097466948906,0.557677898167045
-0.504304733686984,0.540711697921833
-0.51538784194286,0.523595512528305
-0.526345781583661,0.50635487995647
-0.537177571575711,0.489015345278735
-0.54788225635356,0.471602406874036
-0.558458902195677,0.454141462802476
-0.568906593616314,0.436657757469301
-0.579224429782992,0.419176328696411
-0.589411520969031,0.401721955318646
-0.599466985050376,0.384319105420959
-0.609389944055934,0.366991885331052
-0.619179520780434,0.349763989480463
-0.628834835468713,0.332658651245021
-0.638355002580136,0.315698594873467
-0.64773912764163,0.298905988610601
-0.656986304197669,0.282302399118536
-0.666095610865223,0.26590874729688
-0.675066108501512,0.249745265599374
-0.683896837492066,0.233831456941309
-0.692586815166356,0.218186055288348
-0.701135033347928,0.202826988013719
-0.709540456045648,0.187771340106723
-0.71780201729236,0.173035320311384
-0.725918619136871,0.158634229269741
-0.733889129794838,0.144582429739794
-0.741712381963754,0.130893318953486
-0.74938717130683,0.117579303175303
-0.756912255110174,0.104651774517155
-0.764286351117287,0.0921210900601652
-0.771508136544409,0.0799965533288247
-0.778576247279921,0.0682863981577064
-0.785489277270467,0.0569977749856123
-0.79224577809611,0.0461367396065524
-0.798844258736338,0.0357082444015047
-0.805283185528305,0.0257161320693542
-0.811560982318228,0.0161631318697843
-0.817676030806428,0.0070508583853473
-0.823626671086018,-0.00162018719576471
-0.829411202374805,-0.00985061328028687
-0.835027883939511,-0.017642131563517
-0.840474936210952,-0.0249975482312883
-0.845750542088388,-0.0319207526911713
-0.850852848430785,-0.0384167038592746
-0.855779967732299,-0.0444914140344988
-0.860529979978857,-0.0501519303974837
-0.865100934682266,-0.0554063141767866
-0.869490853087888,-0.0602636175300527
-0.873697730551462,-0.064733858193033
-0.877719539080298,-0.0688279919542985
-0.881554230033632,-0.0725578830183496
-0.885199736976593,-0.075936272324544
-0.888653978681806,-0.0789767438938195
-0.891914862272369,-0.0816936892796105
-0.89498028649953,-0.0841022702035711
-0.897848145148125,-0.0862183794607887
-0.900516330562474,-0.0880586001830262
-0.902982737285165,-0.0896401635521971
-0.905245265800877,-0.0909809050597487
-0.907301826377119,-0.0920992194108589
-0.909150342993523,-0.0930140141753954
-0.910788757351107,-0.0937446622903681
-0.912215032952716,-0.0943109535211807
-0.913427159245665,-0.0947330449913059
-0.914423155817439,-0.0950314108920886
-0.915201076635154,-0.0952267914862115
-0.915759014319371,-0.0953401415199342
-0.916095104442745,-0.0953925781605328
-0.916207529843894,-0.0954053285764293
