0.538549083109297,-0.564629478954546
0.531271682009262,-0.528319453458599
0.532433981884967,-0.42296819417059
0.570015368602675,-0.269934031951537
0.654673366892055,-0.104655184486882
0.775032382552173,0.036375535133762
0.901527280220842,0.128950578597554
0.997339490107992,0.169698497137181
1.03223834041006,0.176582100685212
0.994022230907835,0.181172433406799
0.893172312805153,0.215684540482663
0.758933233753934,0.299771900087885
0.628322669420127,0.432168878801646
0.532282199277501,0.590409144519709
0.484276203432132,0.738747105029684
0.475702991643393,0.841259333365062
0.479865132724688,0.875112704816232
0.462958544135628,0.838919546900334
0.397844153359728,0.752983047616037
0.275296579462103,0.651345836988945
0.108391780818289,0.568697575603433
-0.0716713492374519,0.527167317615751
-0.226732483993846,0.528067347307645
-0.325550588070238,0.55175148876861
-0.355095130731837,0.565633314146982
-0.324931318196433,0.537274888285953
-0.263031455756224,0.447507949038136
-0.204632921592503,0.298534760022209
-0.178429316304329,0.113880968575057
-0.195401920168788,-0.0698011880915829
-0.244582004879038,-0.215953850508925
-0.297371071742912,-0.30130517386218
-0.318758098051044,-0.323989216817046
-0.281122442927553,-0.303497614329157
-0.175315559436778,-0.272500502430941
-0.0147562510067517,-0.263693249796742
0.169046814761843,-0.296732663934412
0.337843441842635,-0.370289543907354
0.460523825228699,-0.462277930270984
0.524225685028634,-0.538180013590024
