-1.02941285016104,-0.836146486765808
-1.02142832048646,-0.822875659307968
-1.0134565122737,-0.809767005814535
-1.00549772867374,-0.796818817608493
-0.997552274968999,-0.784029414849083
-0.989620458486695,-0.771397145742084
-0.981702588513925,-0.75892038577338
-0.973798976214501,-0.746597536965051
-0.965909934547435,-0.734427027153201
-0.958035778187016,-0.722407309286832
-0.950176823444452,-0.71053686074705
-0.942333388191009,-0.69881418268594
-0.934505791782606,-0.687237799384449
-0.926694354985826,-0.675806257628689
-0.918899399905289,-0.664518126104028
-0.911121249912352,-0.653371994806413
-0.903360229575093,-0.64236647447037
-0.895616664589547,-0.631500196013143
-0.887890881712145,-0.620771809994461
-0.880183208693324,-0.610179986091435
-0.872493974212287,-0.599723412588109
-0.864823507812855,-0.589400795879217
-0.8571721398404,-0.579210859987677
-0.849540201379822,-0.569152346095424
-0.841928024194535,-0.559224012087144
-0.834335940666441,-0.549424632106538
-0.826764283736857,-0.539752996124705
-0.819213386848378,-0.530207909520297
-0.811683583887646,-0.520788192671075
-0.804175209128995,-0.511492680556532
-0.796688597178957,-0.502320222371243
-0.7892240829216,-0.493269681148617
-0.781782001464688,-0.484339933394762
-0.774362688086619,-0.475529868732137
-0.766966478184146,-0.46683838955272
-0.759593707220846,-0.458264410680407
-0.752244710676322,-0.449806859042372
-0.74491982399612,-0.441464673349129
-0.737619382542347,-0.43323680378304
-0.730343721544963,-0.425122211695035
-0.723093176053746,-0.417119869309295
-0.715868080890901,-0.409228759435683
-0.708668770604301,-0.401447875189694
-0.701495579421354,-0.393776219719718
-0.694348841203469,-0.386212805941402
-0.687228889401116,-0.378756656278919
-0.680136057009466,-0.371406802412955
-0.673070676524593,-0.364162285035203
-0.666033079900239,-0.357022153609224
-0.659023598505107,-0.349985466137459
-0.6520425630807,-0.343051288934252
-0.645090303699673,-0.336218696404706
-0.638167149724689,-0.329486770829215
-0.631273429767788,-0.322854602153522
-0.624409471650237,-0.316321287784149
-0.617575602362856,-0.309885932389064
-0.610772148026829,-0.303547647703429
-0.603999433854969,-0.297305552340313
-0.597257784113432,-0.291158771606218
-0.590547522083889,-0.285106437321312
-0.583868970026128,-0.279147687644227
-0.577222449141088,-0.273281666901316
-0.570608279534319,-0.267507525420239
-0.564026780179856,-0.261824419367781
-0.557478268884499,-0.256231510591784
-0.550963062252504,-0.25072796646708
-0.544481475650664,-0.245312959745342
-0.53803382317378,-0.239985668408731
-0.531620417610525,-0.234745275527259
-0.525241570409672,-0.229590969119763
-0.518897591646712,-0.224521942018403
-0.512588789990828,-0.2195373917366
-0.506315472672234,-0.214636520340319
-0.50007794544988,-0.209818534322615
-0.493876512579498,-0.205082644481367
-0.487711476782005,-0.200428065800118
-0.481583139212253,-0.19585401733194
-0.475491799428104,-0.191359722086254
-0.469437755359862,-0.186944406918531
-0.46342130328002,-0.182607302422806
-0.457442737773342,-0.178347642826932
-0.451502351707268,-0.174164665890512
-0.445600436202646,-0.170057612805437
-0.439737280604769,-0.166025728098982
-0.433913172454738,-0.162068259539375
-0.428128397461128,-0.158184458043809
-0.422383239471969,-0.15437357758881
-0.416677980447027,-0.150634875122924
-0.411012900430385,-0.146967610481662
-0.405388277523331,-0.143371046304648
-0.399804387857537,-0.139844447954919
-0.394261505568534,-0.13638708344033
-0.388759902769475,-0.132998223337004
-0.383299849525197,-0.129677140714796
-0.377881613826557,-0.126423111064709
-0.372505461565065,-0.123235412228222
-0.367171656507788,-0.120113324328484
-0.361880460272549,-0.117056129703339
-0.356632132303387,-0.114063112840127
-0.351426929846312,-0.111133560312223
-0.346265107925321,-0.108266760717289
-0.341146919318693,-0.105462004617175
-0.336072614535558,-0.102718584479449
-0.331042441792727,-0.100035794620513
-0.326056646991803,-0.0974129311502716
-0.321115473696544,-0.0948492919183108
-0.316219163110508,-0.0923441764615592
-0.311367954054944,-0.089896885953397
-0.30656208294696,-0.0875067231541765
-0.301801783777943,-0.0851729923631262
-0.297087288092248,-0.0828949993716035
-0.292418824966132,-0.0806720514176682
-0.287796620986962,-0.0785034571419453
-0.283220900232665,-0.0763885265447495
-0.278691884251442,-0.0743265709444391
-0.274209792041735,-0.0723169029369775
-0.269774840032444,-0.0703588363566694
-0.265387242063396,-0.0684516862380489
-0.261047209366075,-0.0665947687788904
-0.256754950544588,-0.0647874013043201
-0.252510671556889,-0.0630289022320012
-0.248314575696254,-0.0613185910383675
-0.244166863572997,-0.0596557882258856
-0.240067733096436,-0.0580398152913174
-0.236017379457108,-0.0564699946949641
-0.232015995109227,-0.054945649830867
-0.228063769753387,-0.0534661049979452
-0.224160890319507,-0.0520306853720462
-0.220307540950027,-0.0506387169788922
-0.21650390298334,-0.0492895266678973
-0.212750154937467,-0.0479824420868391
-0.209046472493977,-0.0467167916573641
-0.205393028482148,-0.0454919045513055
-0.201789992863363,-0.0443071106677977
-0.198237532715753,-0.0431617406111671
-0.194735812219076,-0.0420551256695814
-0.191284992639837,-0.0409865977944396
-0.187885232316643,-0.0399554895804857
-0.184536686645798,-0.038961134246628
-0.181239508067139,-0.0380028656174485
-0.177993846050103,-0.0370800181053846
-0.174799847080035,-0.0361919266935677
-0.171657654644731,-0.0353379269193027
-0.168567409221215,-0.0345173548581728
-0.165529248262755,-0.0337295471087535
-0.162543306186113,-0.0329738407779223
-0.159609714359024,-0.0322495734667475
-0.156728601087919,-0.031556083256943
-0.153900091605874,-0.030892708697874
-0.151124308060796,-0.0302587887940994
-0.148401369503838,-0.0296536629934382
-0.145731391878056,-0.0290766711755443
-0.143114488007287,-0.0285271536409784
-0.140550767585263,-0.0280044511007623
-0.138040337164965,-0.0275079046664032
-0.135583300148192,-0.0270368558403757
-0.133179756775374,-0.0265906465070476
-0.130829804115613,-0.0261686189240377
-0.128533536056947,-0.0257701157139949
-0.126291043296857,-0.0253944798567833
-0.124102413332986,-0.0250410546820643
-0.121967730454105,-0.0247091838622626
-0.119887075731298,-0.024398211405905
-0.117860527009371,-0.0241074816513197
-0.115888158898505,-0.0238363392606865
-0.113970042766119,-0.023584129214425
-0.112106246728969,-0.0233501968059107
-0.11029683564548,-0.0231338876365081
-0.108541871108287,-0.02293454761091
-0.106841411437024,-0.0227515229327719
-0.10519551167132,-0.022584160100632
-0.103604223564033,-0.0224318059041056
-0.102067595574702,-0.0222938074203434
-0.100585672863228,-0.0221695120107446
-0.0991584972837791,-0.022058267317914
-0.0977861073789156,-0.0219594212628531
-0.0964685383739431,-0.0218723220423751
-0.0952058221714872,-0.0217963181267353
-0.0939979873462904,-0.0217307582574655
-0.0928450591402326,-0.0216749914454036
-0.0917470594575723,-0.0216283669689091
-0.0907040068604104,-0.0215902343722549
-0.0897159165643742,-0.021559943464185
-0.0887828004345227,-0.0215368443166307
-0.0879046669814718,-0.0215202872635739
-0.0870815213577389,-0.0215096229000502
-0.0863133653543077,-0.0215042020812814
-0.0856001973974104,-0.0215033759219285
-0.0849420125455292,-0.0215064957954564
-0.0843388024866156,-0.021512913333602
-0.0837905555355262,-0.0215219804259347
-0.0832972566316756,-0.0215330492195027
-0.0828588873369063,-0.0215454721185548
-0.0824754258335727,-0.0215586017843289
-0.0821468469228419,-0.0215717911348996
-0.0818731220232076,-0.0215843933450745
-0.0816542191692193,-0.0215957618463314
-0.0814901030104238,-0.0216052503267872
-0.0813807348105203,-0.0216122127311909
-0.0813260724467271,-0.0216160032609298
-0.0813260704093606,-0.0216159763740422
-0.0813806798016245,-0.0216114867852278
-0.08148984833961,-0.0216018894658452
-0.081653520352505,-0.0215865396438899
-0.0818716367830127,-0.0215647928039438
-0.0821441351879784,-0.0215360046870862
-0.082470949739224,-0.0214995312907588
-0.0828520112245892,-0.0214547288685762
-0.0832872470491789,-0.0214009539300715
-0.0837765812368161,-0.0213375632403711
-0.0843199344316993,-0.0212639138197867
-0.0849172239002645,-0.0211793629433182
-0.0855683635332487,-0.0210832681400575
-0.086273263847958,-0.0209749871924852
-0.0870318319907349,-0.0208538781356499
-0.087843971739628,-0.0207192992562231
-0.0887095835072604,-0.0205706090914194
-0.0896285643438979,-0.020407166427773
-0.0906008079407146,-0.0202283302997632
-0.0916262046332561,-0.0200334599882768
-0.0927046414050989,-0.0198219150189019
-0.0938360018917048,-0.0195930551600405
-0.0950201663844704,-0.0193462404208332
-0.0962570118349692,-0.0190808310488855
-0.0975464118593869,-0.0187961875277865
-0.0988882367431475,-0.0184916705744104
-0.10028235344573,-0.0181666411359927
-0.101728625605676,-0.0178204603869689
-0.103226913545781,-0.0174524897255683
-0.104777074278481,-0.0170620907701529
-0.106378961511415,-0.0166486253552898
-0.108032425653184,-0.0162114555275499
-0.109737313819281,-0.0157499435410201
-0.111493469838217,-0.0152634518525213
-0.113300734257818,-0.0147513431165205
-0.115158944351711,-0.014212980179727
-0.117067934125979,-0.0136477260753623
-0.119027534326003,-0.0130549440170936
-0.12103757244348,-0.0124339973926198
-0.123097872723608,-0.0117842497568985
-0.125208256172455,-0.0111050648250047
-0.127368540564495,-0.0103958064646091
-0.129578540450318,-0.00965583868806421
-0.131838067164506,-0.00888452564408841
-0.134146928833688,-0.00808123160903563
-0.136504930384743,-0.00724532097773846
-0.138911873553193,-0.00637615825391418
-0.14136755689174,-0.00547310804012071
-0.143871775778974,-0.00453553502725032
-0.146424322428247,-0.00356280398354987
-0.149024985896696,-0.00255427974315345
-0.151673552094432,-0.00150932719411601
-0.154369803793885,-0.000427311265934562
-0.157113520639297,0.000692403083456264
-0.15990447915638,0.00185045088122714
-0.162742452762113,0.00304746715374968
-0.165627211774699,0.00428408694125775
-0.168558523423663,0.00556094531308905
-0.171536151860101,0.00687867738352084
-0.17455985816707,0.0082379183282142
-0.177629400370125,0.00963930340128217
-0.180744533447991,0.0110834679529956
-0.183905009343378,0.0125710474481429
-0.187110576973933,0.0141026774850591
-0.190360982243328,0.0156789938153395
-0.193655968052471,0.0173006323642537
-0.196995274310868,0.0189682292518786
-0.200378637948091,0.0206824208149633
-0.20380579292539,0.0224438436295467
-0.207276470247421,0.0242531345343425
-0.210790397974103,0.0261109306549106
-0.214347301232582,0.0280178694286323
-0.217946902229335,0.0299745886305083
-0.221588920262364,0.0319817263997974
-0.225273071733527,0.0340399212675157
-0.228999070160964,0.0361498121848157
-0.232766626191636,0.038312038552265
-0.236575447613977,0.0405272402500454
-0.240425239370636,0.0427960576690922
-0.244315703571336,0.0451191317431966
-0.248246539505818,0.0474971039820906
-0.252217443656889,0.0499306165055395
-0.256228109713559,0.0524203120784604
-0.260278228584271,0.0549668341470957
-0.264367488410218,0.0575708268762589
-0.268495574578745,0.0602329351876812
-0.272662169736832,0.0629538047994826
-0.276866953804657,0.0657340822667914
-0.281109603989234,0.0685744150235408
-0.285389794798126,0.0714754514254639
-0.289707198053226,0.074437840794322
-0.294061482904605,0.0774622334633857
-0.298452315844425,0.080549280824203
-0.302879360720911,0.0836996353746798
-0.307342278752378,0.0869139507685056
-0.311840728541319,0.0901928818659518
-0.31637436608853,0.0935370847860761
-0.320942844807296,0.0969472169603635
-0.325545815537608,0.100423937187838
-0.330182926560426,0.103967905691676
-0.334853823611979,0.107579784177359
-0.339558149898085,0.111260235892398
-0.344295546108516,0.115009925687668
-0.34906565043137,0.11882952008039
-0.353868098567478,0.12271968731879
-0.358702523744809,0.126681097448488
-0.363568556732907,0.13071442238065
-0.368465825857314,0.134820335961938
-0.373393957014014,0.13899951404631
-0.37835257368386,0.143252634568704
-0.383341296947006,0.147580377620667
-0.38835974549732,0.151983425527946
-0.393407535656785,0.156462462930113
-0.398484281389878,0.161018176862268
-0.403589594317924,0.165651256838851
-0.408723083733415,0.170362394939639
-0.413884356614302,0.175152285897956
-0.41907301763823,0.180021627191174
-0.424288669196745,0.184971119133533
-0.429530911409432,0.190001464971359
-0.434799342138006,0.195113370980725
-0.44009355700033,0.200307546567613
-0.445413149384369,0.205584704370655
-0.450757710462068,0.210945560366491
-0.456126829203142,0.216390833977829
-0.461520092388783,0.221921248184261
-0.466937084625268,0.227537529635912
-0.472377388357468,0.233240408769983
-0.477840583882242,0.239030619930272
-0.483326249361726,0.244908901489734
-0.488833960836485,0.250875995976166
-0.494363292238548,0.256932650201095
-0.499913815404291,0.263079615391945
-0.505485100087191,0.26931764732757
-0.511076713970407,0.275647506477239
-0.516688222679216,0.282069958143162
-0.522319189793269,0.288585772606642
-0.52796917685867,0.295195725277962
-0.533637743399869,0.30190059685008
-0.539324446931359,0.308701173456256
-0.545028842969164,0.315598246831701
-0.550750485042113,0.322592614479347
-0.55648892470289,0.32968507983987
-0.56224371153885,0.336876452466054
-0.568014393182584,0.344167548201621
-0.573800515322235,0.351559189364658
-0.579601621711542,0.359052204935742
-0.58541725417961,0.366647430750908
-0.591246952640389,0.374345709699587
-0.59709025510185,0.382147891927641
-0.602946697674851,0.390054835045651
-0.608815814581674,0.398067404342577
-0.614697138164227,0.406186473004972
-0.620590198891893,0.414412922341873
-0.626494525369013,0.422747642015543
-0.63240964434199,0.431191530278227
-0.638335080705999,0.439745494215086
-0.644270357511292,0.448410449993489
-0.650214995969075,0.457187323118837
-0.656168515456947,0.466077048697117
-0.662130433523886,0.475080571704358
-0.668100265894763,0.484198847263212
-0.67407752647436,0.493432840926852
-0.680061727350892,0.502783528970396
-0.686052378798992,0.51225189869009
-0.692048989282162,0.521838948710471
-0.698051065454659,0.531545689299733
-0.704058112162786,0.541373142693568
-0.710069632445601,0.551322343427702
-0.716085127534974,0.561394338679411
-0.722104096855022,0.571590188618267
-0.728126038020854,0.581910966766411
-0.734150446836636,0.592357760368627
-0.740176817292925,0.602931670772525
-0.746204641563275,0.613633813819139
-0.752233410000064,0.62446532024426
-0.758262611129523,0.635427336090841
-0.764291731645951,0.646521023132807
-0.770320256405073,0.657747559310643
-0.776347668416511,0.669108139179113
-0.782373448835353,0.680603974367508
-0.788397076952771,0.692236294052799
-0.794418030185662,0.704006345446143
-0.800435784065282,0.715915394293119
-0.806449812224829,0.727964725388188
-0.812459586385947,0.740155643103794
-0.818464576344107,0.752489471934617
-0.824464249952835,0.764967557057443
-0.830458073106724,0.77759126490719
-0.836445509723228,0.790361983769602
-0.842426021723144,0.80328112439118
-0.848399069009784,0.816350120606919
-0.854364109446759,0.829570429986442
-0.860320598834336,0.842943534499166
-0.866267990884322,0.856470941199125
-0.872205737193418,0.870154182930141
-0.878133287214985,0.883994819052023
-0.884050088229175,0.897994436188524
-0.88995558531136,0.91215464899781
-0.895849221298801,0.926477100966222
