0.878833792470156,0.123106029651354
0.877498162489171,0.123650233233322
0.873680864811113,0.125968482655603
0.867664617950863,0.131050196892246
0.859721457501881,0.1398014147053
0.850102821501802,0.153008225897353
0.839030722929751,0.171304430656406
0.826690323125518,0.195144595677978
0.813224168642686,0.224783483708927
0.798728293431133,0.26026260627693
0.78325032045267,0.301404395726345
0.766789624285972,0.347814221305835
0.749299541561683,0.398890194607783
0.730691541851089,0.453840432093941
0.710841200559473,0.511707176638923
0.689595749983729,0.571396935447713
0.666782927315974,0.631715577064255
0.642220791058321,0.691407153129029
0.615728141747751,0.749195077369983
0.587135160344774,0.803824209766893
0.556293868922049,0.85410236092669
0.523088023713442,0.898939751620511
0.487442069960823,0.937385034456248
0.449328820638391,0.968656606231932
0.408775565883576,0.992168106310558
0.365868375228959,1.00754720244076
0.320754418545999,1.01464700348688
0.273642201708796,1.01354970005488
0.224799686870608,1.00456230970079
0.174550342288414,0.988204683473572
0.123267240160736,0.965190205007975
0.0713653903441726,0.936399872477435
0.0192925606140457,0.902850688222103
-0.0324811119014415,0.865659482437957
-0.0834743702778082,0.826003458777558
-0.133206569596127,0.785078865327102
-0.181209494732802,0.744059260076039
-0.227038864391115,0.704054853351838
-0.270285132288259,0.666074370282029
-0.310583220842733,0.630990785575921
-0.347620860041951,0.599512144025202
-0.381145253082172,0.572158498054929
-0.410967849123814,0.549245774900457
-0.436967070006673,0.530877138333625
-0.45908890965711,0.516942142134029
-0.477345399637628,0.507123694233716
-0.491811009181995,0.500912571566733
-0.5026171204643,0.497628956061358
-0.509944787194617,0.49645021152385
-0.51401604452431,0.496443898306251
-0.515084088553192,0.496604835564072
-0.513422682672429,0.495894876255851
-0.509315174170247,0.493283962967763
-0.503043517044617,0.487790986620633
-0.494877695368174,0.478522976774081
-0.485065925897849,0.464711211347637
-0.473825989478001,0.445742943028268
-0.346963938059213,0.317466565812512
-0.329274167609356,0.507205371911608
-0.55229572039245,0.453672016268231
-0.523695687895996,0.201369398246484
-0.400932901661808,0.265758957062925
-0.490401737748448,0.108322077323704
-0.46978312071879,0.251095615656828
-0.225964881975884,0.00374290874915331
-0.229264360872824,0.155750863714786
-0.192877068760301,-0.124414155601867
-0.387733867883707,0.0197255122855802
-0.129959026718951,-0.0345595539183117
-0.219677490070941,-0.190653417272455
-0.294505538513471,-0.134394241802141
-0.251056490625551,-0.398018212563249
-0.0269797259082055,-0.210177545948507
-0.0806637240233994,-0.352312683163038
-0.0398102812511851,-0.374823449866038
0.122810717248359,-0.503371302541512
0.0487584556278987,-0.3952369564008
-0.00044246825006726,-0.273275414409903
0.038971955407523,-0.291719965831665
0.292410347944639,-0.267114899026921
0.246923752501913,-0.342170597247084
0.405534296765886,-0.425595328959647
0.468434727723272,-0.376195548475923
0.296951277082533,-0.124446388382772
0.453497819878507,-0.201215810567502
0.503039083071492,-0.160216077497415
0.646657691883217,-0.0159447783223285
0.479138037453034,-0.195736849362585
0.639218755259178,-0.0417972909237543
0.679125201963467,-0.00712926345091092
0.71573623043412,0.0238581332029166
0.7488068543757,0.0506696293264084
0.778156788563533,0.0730155787710543
0.803672912573922,0.0908196338643256
0.825309602272164,0.104218610885007
0.843086931915738,0.113554562204975
0.857086824456559,0.119359349475488
0.867447299536631,0.122332279981038
0.874355035210232,0.123311615964627
0.878036518228476,0.123240985523844
