-0.843109632949423,0.948110671458421
-0.815782953698114,0.937573705350897
-0.847301660799782,0.935320130951593
-0.81634816286938,0.915329459219116
-0.804638978624123,0.902167970615959
-0.813451371071166,0.909164309125225
-0.809583357939162,0.87499963181206
-0.768832632212931,0.846509852616402
-0.776666285996621,0.876317565142838
-0.805051724434043,0.840749552672326
-0.778646687800562,0.852958255506173
-0.724008669190331,0.898805332438766
-0.730827652793979,0.84311854070926
-0.761722930295767,0.820154614280271
-0.723848466730753,0.832425132079661
-0.714696838188181,0.825305651493275
-0.693980981162336,0.79293800064379
-0.690248307705451,0.788586882741554
-0.655560720596862,0.816389394129331
-0.65451691858928,0.816209230758739
-0.666311851216783,0.768039373988024
-0.658477760827638,0.783324518223347
-0.648950138509965,0.776416323227354
-0.639392350060382,0.769525079759318
-0.644429022612188,0.772676633847558
-0.620205590991212,0.755782592865297
-0.627790176660036,0.772198575493411
-0.619119802717766,0.751117327469383
-0.64455434535523,0.737469993258
-0.602999644027108,0.724704146561077
-0.588248252878572,0.751787587346191
-0.562383277901955,0.714702380381596
-0.605977207776972,0.727034927813476
-0.54311684641645,0.744425874608818
-0.529386824164792,0.718904012244771
-0.523911789301516,0.687272460023415
-0.548145831652587,0.673275880214231
-0.488533256023245,0.665262114305821
-0.460827533643171,0.682893903747801
-0.476257339437578,0.652740666158747
-0.478031451530034,0.603584394083187
-0.440317082639523,0.638979730172646
-0.420664760854975,0.618817159939041
-0.417319913482684,0.642562361082241
-0.464269229380155,0.589159454130141
-0.398781688057542,0.574339651811049
-0.401753915850803,0.596509944965672
-0.401710686776466,0.609453256714586
-0.383569817662147,0.58220402375403
-0.377840083225698,0.570883486996889
-0.347069558486058,0.533027230557132
-0.383633761743153,0.591671890134519
-0.368169349459493,0.542256274843074
-0.339040562319497,0.5459160610024
-0.330306975358523,0.538561666520555
-0.321634243995479,0.531173074900916
-0.313023746645733,0.523749511558037
-0.32781074304575,0.541818203153424
-0.289950047399338,0.496415203032794
-0.287578782982812,0.501261616129434
-0.286719331734293,0.495382271157102
-0.292291632756893,0.493456459104632
-0.24711777403755,0.489675141723487
-0.261915080385404,0.4678967061163
-0.211656690569557,0.453448854473291
-0.222440580380056,0.437176893122164
-0.230612009130784,0.423560263713401
-0.207301345983626,0.423751262290069
-0.22105430394722,0.414448426189387
-0.18606271472262,0.371840412833636
-0.184873234147954,0.357915153160205
-0.140844779449623,0.35483461883328
-0.12574214449818,0.324122865519088
-0.134726711247873,0.341912402949585
-0.108063652969171,0.318967485514441
-0.0747718443399371,0.335597578576633
-0.114564100535471,0.316456147043429
-0.149453837304537,0.325000442166843
-0.085651109783885,0.30078915667598
-0.0647905419974721,0.301428301973108
-0.0752979562289814,0.295423689435052
-0.0641975811644442,0.277002813176683
-0.0846612754176473,0.24373659366757
-0.0645785065317547,0.246447899620765
-0.0252317597752333,0.24553858972724
-0.0529553632854144,0.228455121523905
-0.0135377930170103,0.220881990884173
-0.0416849814290255,0.210264113021439
-0.0408422465182538,0.225629867171562
-0.0307683294459739,0.191874329884718
-0.0254428369009167,0.18260479401366
-0.0202059447473235,0.173285470121472
-0.0150576529851938,0.163916358208153
-0.0154399682902248,0.142098765701504
-0.00014397714891351,0.135510520745923
0.00465045040411244,0.125942558709835
0.00935668084511254,0.116325035271087
0.0139748757721456,0.106658041237941
0.0230742127467212,0.0939447304065088
0.022947941276141,0.0871760809326029
0.0268781298699136,0.0500550447879498
0.0315714843527273,0.0674977103212403
0.0110017794805226,0.0440858023253771
0.0268116365275925,0.0537691794799857
0.0683063235794995,0.0366345967686622
0.0577691197326641,0.0194678958404412
0.0931669838517628,0.0399980803216485
0.0553699783911028,0.00729818477533401
0.0299342640728421,-0.0211464203212069
0.052542558451003,-0.0312347177574519
0.0661236416062543,-0.0234453262892381
0.0396958154611885,-0.036398136544425
0.122335650895153,-0.0552624180030899
0.10423791544181,-0.118092538570013
0.0959157533326796,-0.108620874344642
0.0965573569197749,-0.119295968597252
0.0802259454848756,-0.129354248203945
0.0993097314866619,-0.139680285866028
0.107123459928851,-0.16417148396916
0.10434034238578,-0.161377665425491
0.0928992992434491,-0.201874192650297
0.113536777847518,-0.205258381769699
0.115661912843876,-0.216326323569058
0.117719733546303,-0.227432091899805
0.0692418385245882,-0.246942505484857
0.125302642004099,-0.272219512099819
0.106577456740896,-0.312800077272872
0.133424265965834,-0.328966345185322
0.131400928796216,-0.347562846728507
0.107640451871102,-0.346108608381752
0.146968253274119,-0.408082899068714
0.105136167258152,-0.410784406652474
0.142611284946977,-0.409638767533909
0.14484411622938,-0.43290832875502
0.108436788794531,-0.430710537177515
0.137577416108337,-0.468891377211786
0.134632552021831,-0.456812119319175
0.148895700421554,-0.47968013801076
0.141925193364915,-0.501504150882051
0.0760236740784888,-0.496588696805295
0.175749092074088,-0.596106204655963
0.156912712820926,-0.548306595344208
0.188363409127911,-0.604546651235909
0.165024421925304,-0.639168773594154
0.184442251452358,-0.613118580094516
0.190574274985396,-0.640686295336204
0.160110401799916,-0.628670064372846
0.161852149439401,-0.656331475745479
0.162490124146483,-0.683456524975806
0.18166494590105,-0.74215841607251
0.18828780565799,-0.684415965461279
0.167908833157564,-0.726500817592581
0.15331383669056,-0.751316177493169
0.193555339788703,-0.782399202517808
0.17090642215058,-0.764229175161149
0.177871376339078,-0.806737442597194
0.165439834048077,-0.790446241396842
0.199839171976576,-0.882230881012112
0.194372022774137,-0.883300051973209
0.20144044744607,-0.903852304366711
0.154644202283525,-0.895509019585952
-0.860001674170176,0.971456794714238
-0.86399787509809,0.926879087150645
-0.835898018566515,0.882968517879579
-0.801213072088511,0.871070813475892
-0.789671948481531,0.869082083737859
-0.810149212331195,0.845240062655826
-0.780912763656431,0.841502415706615
-0.810508462522265,0.834253585402621
-0.778661228279644,0.771224601819723
-0.788203269039196,0.760812814562427
-0.789747250827677,0.746315029442483
-0.79834973441676,0.753773544865309
-0.812221318716574,0.763889597622124
-0.796159016005951,0.730480318776513
-0.770424593132146,0.722799519303218
-0.763248664423983,0.704144799366525
-0.788225645114531,0.710532213435878
-0.79088028199981,0.645074472108382
-0.789678376488557,0.648287076082768
-0.788836534475567,0.636498001824326
-0.78800270791645,0.624704423369229
-0.80129709081943,0.631607114675302
-0.766676959758178,0.565984728354041
-0.782964615986119,0.553962695005345
-0.794606525480786,0.523711033898985
-0.744333801609545,0.556136099542174
-0.802978921491056,0.511511816543557
-0.777458316904483,0.469456203393979
-0.770658139916452,0.413732526595987
-0.767724254421805,0.375194660415136
-0.768086877228509,0.390653143202442
-0.734474773937495,0.310852188572557
-0.767090094380204,0.312727655475287
-0.76231627874716,0.299779252337988
-0.756691149146965,0.251393574898969
-0.720582015165575,0.288632307311286
-0.743977679106714,0.232531109042426
-0.716008691483194,0.169634020086658
-0.745875956773094,0.173662511535208
-0.726323989123742,0.187123259812182
-0.705959795739224,0.172288248307363
-0.684472831022425,0.165125524975731
-0.726056518404485,0.111460992110948
-0.706572655932731,0.0818805183794781
-0.690413604773886,0.0616187126913499
-0.724018627082503,0.064872250987066
-0.669726073792311,0.0555711685173677
-0.722970123356189,0.0359307578167109
-0.687535019445043,0.0296140680194423
-0.672604998483926,-0.00441401953413863
-0.664301892977649,-0.0620939938843816
-0.630253956372885,-0.0949952599911621
-0.630296924110283,-0.108237793473195
-0.615347812092204,-0.15805437323954
-0.612122473781721,-0.170420163906845
-0.561962701724318,-0.138113886347977
-0.599631334915033,-0.223555929108741
-0.558346587401292,-0.290633759428243
-0.486911161449653,-0.302018877434844
-0.457928612595079,-0.317978674162573
-0.467658333613868,-0.347922546655656
-0.438799147822771,-0.366847912144119
-0.435871253711381,-0.379590067770704
-0.43947899343177,-0.355259006832084
-0.430757121806038,-0.388497005058356
-0.367701495048451,-0.451160690496933
-0.331961723871324,-0.454918418445395
-0.296496225857081,-0.449050803829193
-0.2871409297894,-0.497561980369027
-0.2914003389397,-0.518643333729672
-0.273756341373802,-0.533252758580225
-0.264848921006669,-0.540509469280362
-0.151463680945299,-0.667343727530724
-0.154183561821619,-0.62546793888602
-0.0391271299526005,-0.707958893213685
0.018509237250768,-0.749143595954626
0.115841882511553,-0.787881492035219
0.17592020522489,-0.86313249694109
0.180552123495897,-0.927030720317195
