0.460250786375418,-0.798721996617905
0.460318807006733,-0.798642514195891
0.460388084205176,-0.798561390603139
0.460458646678851,-0.798478583685604
0.460530523912506,-0.798394049996075
0.460603746191631,-0.798307744748108
0.460678344627391,-0.798219621768093
0.460754351182426,-0.798129633445377
0.46083179869755,-0.798037730680338
0.460910720919384,-0.797943862830334
0.46099115252896,-0.797847977653414
0.46107312917133,-0.797750021249702
0.46115668748622,-0.797649938000331
0.46124186513977,-0.797547670503828
0.461328700857398,-0.797443159509816
0.461417234457833,-0.797336343849922
0.46150750688837,-0.797227160365742
0.461599560261376,-0.797115543833738
0.461693437892113,-0.797001426886916
0.461789184337918,-0.796884739933122
0.461886845438801,-0.79676541106981
0.461986468359506,-0.796643365995096
0.462088101633099,-0.796518527914922
0.462191795206141,-0.796390817446147
0.462297600485506,-0.796260152515359
0.46240557038691,-0.796126448253185
0.462515759385211,-0.795989616883908
0.462628223566566,-0.795849567610123
0.462743020682492,-0.795706206492201
0.462860210205926,-0.795559436322304
0.462979853389358,-0.795409156492655
0.463102013325104,-0.795255262857804
0.463226755007825,-0.795097647590546
0.463354145399355,-0.794936199031199
0.463484253495951,-0.794770801529873
0.46361715039804,-0.794601335281392
0.463752909382571,-0.79442767615246
0.463891605978068,-0.794249695500693
0.464033318042495,-0.794067259985066
0.464178125844028,-0.793880231367333
0.464326112144859,-0.793688466303944
0.464477362288149,-0.793491816127944
0.464631964288231,-0.793290126620319
0.464790008924214,-0.793083237770219
0.464951589837097,-0.792870983523471
0.465116803630531,-0.792653191518714
0.465285749975372,-0.792429682810508
0.465458531718155,-0.792200271578688
0.465635254993644,-0.7919647648232
0.465816029341603,-0.791722962043622
0.466000967827948,-0.791474654902507
0.466190187170421,-0.791219626871642
0.466383807868978,-0.790957652860266
0.466581954341023,-0.790688498824215
0.466784755061686,-0.790411921354911
0.466992342709301,-0.790127667247046
0.467204854316269,-0.789835473043724
0.467422431425482,-0.78953506455777
0.467645220252487,-0.789226156367808
0.467873371853585,-0.788908451287643
0.468107042300031,-0.788581639807372
0.468346392858546,-0.788245399504556
0.468591590178295,-0.787899394423686
0.468842806484545,-0.787543274422033
0.469100219779167,-0.787176674479887
0.469364014048162,-0.786799213973023
0.469634379476393,-0.786410495905121
0.469911512669673,-0.786010106097687
0.470195616884385,-0.785597612334888
0.470486902264763,-0.785172563460527
0.470785586087982,-0.78473448842419
0.471091893017151,-0.784282895273428
0.471406055362335,-0.783817270088581
0.471728313349646,-0.783337075856679
0.47205891539847,-0.782841751280545
0.47239811840683,-0.782330709519022
0.472746188044861,-0.781803336853933
0.473103399056319,-0.781258991279083
0.473470035568009,-0.780697001006305
0.473846391406938,-0.780116662883177
0.47423277042495,-0.779517240716705
0.474629486830497,-0.778897963496817
0.475036865527138,-0.778258023513138
0.475455242458225,-0.777596574357998
0.47588496495715,-0.776912728808181
0.476326392102345,-0.776205556577364
0.476779895076132,-0.77547408193062
0.477245857526293,-0.774717281151767
0.477724675929069,-0.773934079853673
0.478216759952045,-0.773123350120916
0.47872253281515,-0.772283907473448
0.479242431647683,-0.771414507639096
0.479776907838986,-0.77051384312185
0.480326427379976,-0.769580539551957
0.480891471192366,-0.768613151802816
0.481472535441913,-0.767610159858614
0.482070131831512,-0.76656996441545
0.482684787869339,-0.765490882197469
0.483317047106592,-0.764371140968186
0.483967469338598,-0.763208874215748
0.484636630762193,-0.762002115489354
0.485325124081327,-0.760748792362414
0.48603355855174,-0.759446719996258
0.486762559954315,-0.758093594276369
0.487512770485359,-0.756686984491065
0.488284848550449,-0.755224325520467
0.489079468446777,-0.753702909501295
0.489897319916887,-0.752119876930614
0.49073910755452,-0.750472207169112
0.491605550040723,-0.748756708301753
0.492497379185589,-0.746970006310785
0.49341533874778,-0.745108533513051
0.494360183000429,-0.743168516210373
0.495332675007973,-0.741145961498428
0.496333584573945,-0.739036643176071
0.497363685814652,-0.736836086693426
0.49842375430794,-0.734539553073337
0.4995145637598,-0.732142021736932
0.500636882124342,-0.729638172160174
0.501791467104506,-0.727022364284302
0.502979060951781,-0.724288617599221
0.504200384472922,-0.721430588815033
0.505456130140152,-0.718441548033274
0.506746954188449,-0.715314353326066
0.508073467569038,-0.712041423628381
0.509436225612016,-0.70861470984622
0.510835716232901,-0.7050256640818
0.512272346497631,-0.701265206876163
0.513746427337885,-0.697323692370116
0.515258156183322,-0.693190871286595
0.516807597249195,-0.688855851641643
0.51839465918645,-0.684307057097813
0.520019069766635,-0.679532182883514
0.521680347235381,-0.674518149215274
0.523377767925568,-0.669251052177944
0.525110329674242,-0.663716112041563
0.526876710535649,-0.657897619023948
0.52867522222608,-0.651778876546691
0.530503757674396,-0.64534214208045
0.532359731985024,-0.638568565735428
0.534240016047748,-0.631438126826654
0.53614086195104,-0.623929568733962
0.538057819273163,-0.616020332486164
0.539985641238595,-0.60768648963146
0.541918179637313,-0.598902675115445
0.543848267312703,-0.589642021078743
0.545767586932323,-0.579876092713424
0.547666524667339,-0.569574827586622
0.549534007324904,-0.558706480157704
0.55135732140821,-0.547237573588779
0.553121912527868,-0.535132861385118
0.55481116356403,-0.522355301910175
0.556406149991963,-0.508866049407816
0.557885370847847,-0.494624465840665
0.559224453942958,-0.479588158626158
0.560395834153374,-0.463713050228305
0.561368403943547,-0.446953486548573
0.562107135755123,-0.429262392156452
0.562572676542404,-0.410591481607399
0.562720915603958,-0.390891537405078
0.562502527993559,-0.370112766559824
0.561862497246577,-0.348205249147996
0.56073962298953,-0.325119493744333
0.559066021274598,-0.30080711601889
0.556766628263492,-0.275221658074272
0.553758721240362,-0.248319567130278
0.549951474918674,-0.220061352787389
0.545245575663802,-0.190412942121225
0.539532921597265,-0.159347251031872
0.532696442554933,-0.126845988297206
0.524610080456228,-0.092901705306417
0.51513897763886,-0.0575200990766885
0.50413992785086,-0.0207225684401443
0.491462151458572,0.0174509872326753
0.476948462448927,0.0569391511808472
0.460436899205873,0.0976557960931088
0.441762892839644,0.139486777761369
0.420762044842071,0.18228660388282
0.397273578633875,0.225875195156584
0.371144515626192,0.270034887442506
0.342234604174676,0.314507856787531
0.310421997837061,0.358994181447161
0.275609636609258,0.403150783674849
0.237732230951001,0.446591515210267
0.19676368410402,0.488888659500527
0.152724715560222,0.529576115663695
0.10569037142336,0.56815449892043
0.0557970316755995,0.604098335151155
0.0032484578408941,0.63686544032168
-0.0516796232866663,0.665908458152969
-0.108636922914312,0.690688384427138
-0.167198483110708,0.710689740795765
-0.2268674939047,0.725436886563716
-0.287081349303209,0.734510789635056
-0.347221085799669,0.737565436743768
-0.406624132387217,0.734342968458582
-0.464600058076878,0.7246865947396
-0.520448753052491,0.70855039561496
-0.573480249049045,0.686005244489698
-0.62303520080576,0.657240304240091
-0.668504938259476,0.622559823295352
-0.70934997636296,0.582375275350916
-0.745115943635048,0.537193210413759
-0.775446057278837,0.487599482392729
-0.800089515537448,0.434240757913692
-0.818905470850919,0.377804368311123
-0.831862558580125,0.318997628455899
-0.839034252916018,0.258527711147759
-0.840590575250284,0.197083044835487
-0.836786869459133,0.135317015244171
-0.827950471679491,0.0738345234167687
-0.814466137764049,0.0131817104567643
-0.796761057073085,-0.0461610726852842
-0.775290190465532,-0.103783174358924
-0.750522540743949,-0.159344714207612
-0.722928813588289,-0.212575213557987
-0.692970772793944,-0.263270243271252
-0.661092448853243,-0.311286568395777
-0.627713234083904,-0.356536253874591
-0.593222796097296,-0.398980154392875
-0.557977666336188,-0.438621153505167
-0.522299310814574,-0.475497450820924
-0.486473463243117,-0.509676128089531
-0.45075049249763,-0.54124716059974
-0.415346582549412,-0.570317982766901
-0.380445519301196,-0.597008667991986
-0.346200901490641,-0.621447743499776
-0.312738618803078,-0.643768630675162
-0.280159467144096,-0.664106679607332
-0.248541796901951,-0.682596751982304
-0.217944113815614,-0.699371297862842
-0.188407573082689,-0.714558867996876
-0.159958325297954,-0.728283002935947
-0.132609687689135,-0.740661442408192
-0.106364126078628,-0.751805602230796
-0.0812150423284756,-0.761820270889644
-0.0571483690582184,-0.770803483241472
-0.034143978515786,-0.778846534225774
-0.0121769159743506,-0.786034100744113
0.00878152975999384,-0.792444444799403
0.0287629049333924,-0.798149675484294
0.0478008042741901,-0.803216051416221
0.0659302051270273,-0.807704308725302
0.0831869086530789,-0.811670002724377
0.099607075225994,-0.815163853958971
0.115226842083982,-0.818232091489385
0.130082012315324,-0.820916788042537
0.144207805300138,-0.82325618313333
0.157638659764298,-0.825284991438768
0.170408081593692,-0.827034694654137
0.182548529489983,-0.828533815806842
0.194091332411833,-0.829808175583534
0.205066633532822,-0.830881130669074
0.215503356157745,-0.831773794426908
0.22542918767425,-0.832505240491069
0.234870578180255,-0.833092690008285
0.243852750924046,-0.833551683379678
0.252399722128639,-0.833896237417773
0.260534328150604,-0.834138988866217
0.268278258251665,-0.83429132523505
0.275652091544466,-0.834363503890279
0.282675336917153,-0.834364760308343
0.289366474949553,-0.83430340636789
0.295743001011194,-0.834186919506694
0.301821468882139,-0.834022023522917
0.307617534365165,-0.833814761749406
0.313145998465348,-0.833570563278677
0.318420849803421,-0.833294302865937
0.323455306004845,-0.832990355088615
0.328261853869408,-0.832662643294009
0.332852288178352,-0.832314683822221
0.337237749038995,-0.831949625949712
0.341428757702113,-0.831570287959704
0.345435250815982,-0.831179189709286
0.349266613104245,-0.830778582029476
0.352931708473219,-0.830370473263483
0.356438909569027,-0.829956653219944
0.359796125816275,-0.829538714791864
0.363010829978805,-0.829118073468174
0.366090083289522,-0.828695984943121
0.369040559200984,-0.828273561008962
0.371868565811628,-0.827851783899518
0.374580067024406,-0.827431519235852
0.377180702495622,-0.827013527710625
0.37967580643186,-0.826598475634338
0.382070425292457,-0.826186944454607
0.384369334453984,-0.825779439348709
0.386577053891874,-0.825376396979829
0.388697862932669,-0.82497819249852
0.390735814128538,-0.824585145862892
0.392694746303701,-0.824197527543832
0.394578296820337,-0.823815563675009
0.396389913109375,-0.82343944070159
0.398132863509434,-0.823069309576263
0.399810247455018,-0.822705289546415
0.401425005052944,-0.822347471572017
0.402979926083901,-0.821995921409895
0.404477658464022,-0.821650682396573
0.405920716199385,-0.821311777958737
0.407311486864492,-0.820979213877554
0.408652238633958,-0.820652980330493
0.409945126894912,-0.820333053732037
0.411192200465987,-0.820019398392572
0.412395407447203,-0.819711968012888
0.413556600723561,-0.819410707030048
0.414677543143773,-0.819115551828832
0.41575991239423,-0.818826431831644
0.416805305587042,-0.818543270478479
0.417815243579838,-0.818265986107478
0.418791175043868,-0.817994492745574
0.419734480295934,-0.817728700817809
0.420646474908696,-0.81746851778312
0.421528413112946,-0.817213848703615
0.422381491004643,-0.816964596753711
0.423206849568617,-0.816720663674901
0.424005577530163,-0.816481950181359
0.424778714044978,-0.816248356321113
0.42552725123728,-0.816019781797064
0.426252136595267,-0.815796126251719
0.426954275232561,-0.815577289519154
0.427634532023672,-0.815363171847379
0.428293733621043,-0.815153674093989
0.428932670360759,-0.814948697897708
0.429552098063544,-0.814748145828192
0.430152739737254,-0.814551921516228
0.430735287186698,-0.814359929766282
0.431300402536242,-0.814172076653133
0.431848719670304,-0.813988269604216
0.432380845596554,-0.813808417469096
0.4328973617363,-0.813632430577386
0.433398825146301,-0.813460220786305
0.433885769675941,-0.813291701518944
0.434358707063507,-0.813126787794205
0.434818127975038,-0.812965396249313
0.435264502989031,-0.812807445155683
0.435698283530068,-0.812652854428878
0.436119902754261,-0.812501545633294
0.436529776389218,-0.81235344198219
0.436928303531089,-0.812208468333579
0.437315867401076,-0.812066551182467
0.437692836063661,-0.811927618649889
0.438059563108679,-0.811791600469125
0.43841638829921,-0.811658427969465
0.43876363818718,-0.811528034057829
0.439101626698416,-0.811400353198558
0.439430655688831,-0.811275321391616
0.439751015473288,-0.811152876149444
0.440062985328618,-0.811032956472696
0.440366833972178,-0.810915502825017
0.440662820017246,-0.810800457107071
0.4409511924065,-0.810687762629939
0.441232190824716,-0.810577364088045
0.441506046091797,-0.81046920753174
0.441772980537157,-0.810363240339625
0.442033208356426,-0.810259411190744
0.442286935951405,-0.810157670036714
0.442534362254123,-0.810057968073876
0.442775679035828,-0.80996025771554
0.443011071201665,-0.809864492564372
0.443240717071792,-0.809770627384996
0.443464788649601,-0.809678618076833
0.443683451877706,-0.809588421647245
0.443896866882314,-0.809499996184993
0.444105188206554,-0.809413300834062
0.444308565033314,-0.809328295767866
0.444507141398114,-0.809244942163853
0.444701056392496,-0.809163202178542
0.444890444358403,-0.809083038922999
0.445075435073987,-0.809004416438756
0.445256153931261,-0.808927299674205
0.445432722105992,-0.808851654461449
0.445605256720207,-0.808777447493635
0.445773870997672,-0.808704646302769
0.445938674412666,-0.808633219237998
0.446099772832393,-0.808563135444392
0.446257268653306,-0.808494364842187
0.446411260931649,-0.808426878106524
0.446561845508482,-0.80836064664765
0.446709115129449,-0.808295642591598
0.446853159559522,-0.808231838761332
0.44699406569298,-0.808169208658353
0.447131917658806,-0.808107726444763
0.44726679692175,-0.808047366925775
0.447398782379226,-0.807988105532668
0.447527950454252,-0.807929918306176
0.4476543751846,-0.807872781880307
0.447778128308334,-0.807816673466576
0.447899279345895,-0.80776157083866
0.44801789567889,-0.807707452317443
0.44813404262573,-0.807654296756471
0.448247783514253,-0.807602083527784
0.44835917975147,-0.807550792508127
0.448468290890564,-0.807500404065541
0.448575174695248,-0.807450899046302
0.448679887201614,-0.807402258762225
0.448782482777568,-0.807354464978302
0.448883014179966,-0.807307499900691
0.448981532609542,-0.807261346165016
0.449078087763723,-0.807215986825004
0.449172727887429,-0.807171405341421
