0.617064585246403,0.0535241081306126
0.609929144264372,0.0522518880938468
0.602835677897568,0.0503246632505716
0.59576840285142,0.0479887285043005
0.588721446332083,0.0453357275347867
0.581691296581809,0.0424204605633603
0.574675508267026,0.0392810864923378
0.567672232159855,0.0359464621234519
0.560679994656721,0.0324395827222864
0.553697578132572,0.0287794490648262
0.546723949387378,0.024982184014425
0.539758213755821,0.0210617486301957
0.532799584076005,0.0170304264035255
0.525847358814965,0.0128991646048389
0.518900906122328,0.00867782312276483
0.511959651878869,0.00437536096384418
0.505023070528215,-2.06782081570503e-08
0.498090677902699,-0.00444076647153223
0.491162025512783,-0.00893987783370346
0.484236695933186,-0.0134908409333739
0.477314299025936,-0.0180875677517127
0.470394468812387,-0.0227243472710194
0.46347686085573,-0.0273958046292335
0.456561150050181,-0.0320968666208034
0.449647028737932,-0.0368227323120876
0.442734205093002,-0.0415688478216597
0.435822401724492,-0.0463308845244506
0.428911354461781,-0.0511047200949561
0.42200081129178,-0.0558864219233508
0.415090531424217,-0.0606722325294218
0.408180284465434,-0.0654585566699021
0.401269849684749,-0.0702419498901668
0.394359015360222,-0.0750191083150535
0.387447578192913,-0.0797868595084969
0.380535342780517,-0.0845421542597498
0.373622121142728,-0.0892820591766976
0.366707732291841,-0.094003749985314
0.359792001843126,-0.0987045054495201
0.352874761660256,-0.103381701838269
0.345955849531795,-0.108032807877108
0.339035108875257,-0.11265538013017
0.332112388465764,-0.117247058765872
0.325187542186683,-0.121805563665728
0.318260428799993,-0.126328690840913
0.311330911734388,-0.130814309125667
0.304398858889377,-0.135260357120392
0.297464142453866,-0.139664840360547
0.290526638737847,-0.144025828690269
0.283586228016015,-0.148341453822021
0.276642794382241,-0.152609907065707
0.269696225613963,-0.156829437212461
0.262746413045639,-0.160998348559964
0.255793251450515,-0.165114999067473
0.248836638930036,-0.169177798630007
0.24187647681027,-0.173185207462183
0.234912669544823,-0.177135734583146
0.22794512462373,-0.181027936394873
0.220973752487887,-0.18486041534688
0.21399846644861,-0.18863181868099
0.207019182611963,-0.192340837250444
0.200035819807513,-0.195986204408139
0.193048299521205,-0.199566694959235
0.186056545832098,-0.203081124173815
0.179060485352682,-0.206528346855653
0.17206004717257,-0.209907256463463
0.165055162805334,-0.213216784281327
0.158045766138303,-0.216455898635289
0.151031793385139,-0.21962360415331
0.144013183041026,-0.222718941066039
0.136989875840332,-0.225740984546062
0.129961814716586,-0.228688844083445
0.122928944764666,-0.231561662895601
0.115891213205058,-0.23435861736963
0.108848569350098,-0.237078916535444
0.101800964572072,-0.239721801568114
0.0947483522731162,-0.242286545317995
0.0876906878567902,-0.244772451867289
0.080627928701282,-0.247178856111819
0.0735600341341473,-0.249505123366875
0.0664869654085264,-0.251750648996075
0.0594086856807722,-0.253914858062266
0.0523251599894349,-0.255997204999571
0.0452363552355466,-0.257997173305745
0.0381422401641599,-0.259914275254081
0.031042785347092,-0.261748051624145
0.0239379631668365,-0.26349807145071
0.0168277478016,-0.265163931790268
0.00971211521143235,-0.266745257504586
0.00259104312541562,-0.268241701060799
-0.00453548897011659,-0.269652942347576
-0.0116674998423558,-0.270978688506945
-0.0188050065218165,-0.272218673781401
-0.0259480243111773,-0.273372659375954
-0.0330965667931826,-0.274440433334807
-0.0402506458376256,-0.275421810432402
-0.0474102716074247,-0.276316632078593
-0.0545754525638083,-0.277124766237736
-0.0617461954706186,-0.277846107361534
-0.0689225053977439,-0.278480576335476
-0.0761043857236859,-0.27902812043877
-0.0832918381372691,-0.279488713317681
-0.090484862638493,-0.279862354972208
-0.0976834575385339,-0.280149071756088
-0.10488761945889,-0.280348916390111
-0.112097343329672,-0.280461967988789
-0.119312622387039,-0.28048833210042
-0.126533448169762,-0.280428140760646
-0.133759810514923,-0.280281552559615
-0.140991697552729,-0.280048752722883
-0.148229095700434,-0.279729953206248
-0.155471989655361,-0.279325392804701
-0.162720362386995,-0.278835337275746
-0.169974195128144,-0.278260079477354
-0.177233467365143,-0.277599939520857
-0.184498156827072,-0.276855264939121
-0.191768239473983,-0.276026430870378
-0.199043689484081,-0.275113840258135
-0.206324479239861,-0.274117924067621
-0.213610579313139,-0.273039141519267
-0.220901958448967,-0.271877980339784
-0.228198583548379,-0.270634957031414
-0.235500419649925,-0.269310617160036
-0.242807429909956,-0.267905535662801
-0.250119575581614,-0.266420317176093
-0.257436815992454,-0.264855596384621
-0.264759108520664,-0.263212038392561
-0.272086408569805,-0.261490339117712
-0.27941866954201,-0.25969122570972
-0.286755842809569,-0.257815456993512
-0.294097877684815,-0.255863823939178
-0.301444721388235,-0.253837150159616
-0.308796319014707,-0.251736292437415
-0.31615261349776,-0.249562141282507
-0.323513545571762,-0.247315621522307
-0.330879053731897,-0.244997692926166
-0.338249074191828,-0.242609350866124
-0.345623540838882,-0.240151627016136
-0.353002385186632,-0.237625590092119
-0.360385536324691,-0.23503234663536
-0.367772920865549,-0.232373041842087
-0.375164462888265,-0.229648860442213
-0.382560083878785,-0.22686102763058
-0.389959702666674,-0.224010810054292
-0.397363235357996,-0.221099516860106
-0.40477059526407,-0.2181285008062
-0.412181692825788,-0.215099159443059
-0.419596435533189,-0.212012936368704
-0.427014727839876,-0.208871322563992
-0.434436471071919,-0.205675857814304
-0.44186156333076,-0.202428132224622
-0.449289899389648,-0.19912978783569
-0.456721370583041,-0.195782520349826
-0.464155864688375,-0.192388080975895
-0.471593265799522,-0.188948278403995
-0.479033454191177,-0.185464980921661
-0.486476306173333,-0.181940118684757
-0.493921693934893,-0.178375686157824
-0.501369485375369,-0.174773744740461
-0.508819543923455,-0.171136425598427
-0.516271728341127,-0.167465932720545
-0.523725892511756,-0.163764546225305
-0.531181885210461,-0.160034625944288
-0.538639549854757,-0.15627861531336
-0.546098724233208,-0.152499045606975
-0.553559240209488,-0.148698540556181
-0.561020923398864,-0.144879821397054
-0.568483592813635,-0.141045712403623
-0.575947060473492,-0.137199146968001
-0.583411130976131,-0.133343174300936
-0.590875601022612,-0.129480966838492
-0.598340258890996,-0.125615828455833
-0.605804883850598,-0.121751203607584
-0.613269245507764,-0.117890687537011
-0.620733103072219,-0.114038037724327
-0.628196204530875,-0.110197186779357
-0.635658285713111,-0.106372257027607
-0.643119069228028,-0.102567577094144
-0.650578263249645,-0.0987877008603953
-0.658035560120154,-0.0950374292600027
-0.665490634733772,-0.0913218354985174
-0.672943142653687,-0.0876462944380001
-0.680392717901257,-0.084016517096151
-0.687838970338506,-0.0804385914918013
-0.695281482540157,-0.0769190314562986
-0.702719806016669,-0.0734648355720677
-0.710153456600376,-0.0700835591709685
-0.717581908734905,-0.0667834034467159
-0.725004588301032,-0.0635733274058508
-0.732420863448382,-0.0604631909370019
-0.73983003264399,-0.0574639413105941
-0.747231308725963,-0.0545878620180144
-0.75462379702898,-0.0518489141183756
-0.762006464353012,-0.0492632204750315
-0.769378093073007,-0.0468497818639671
-0.776737209585391,-0.044631593550766
-0.784081964662282,-0.0426375123371611
-0.791409912970112,-0.0409056971254687
-0.79871754275113,-0.039490948137019
-0.805998981211492,-0.0384849090515652
-0.813238445056627,-0.038133874772621
0.617064585246403,0.0535241081306126
0.609825121401269,0.0538751424095568
0.602543682940906,0.0548811814950106
0.595236053159888,0.0562959304834603
0.587908104852059,0.0580277456951527
0.580563349775167,0.0600218269087577
0.573204233262784,0.0622400152219587
0.565832604542789,0.0646534538330231
0.558449937218757,0.0672391474763672
0.55105744891574,0.069978095376006
0.543656172833767,0.0728541746685857
0.536247003638158,0.0758534242949935
0.528830728490808,0.0789635607638423
0.521408048924682,0.0821736368047075
0.513979596790152,0.0854737925289601
0.506545946206445,0.0888550689300593
0.499107622729933,0.0923092648142902
0.491665110528283,0.0958288248497928
0.484218858091033,0.0994067504541426
0.476769282843464,0.103036527795992
0.469316774923548,0.106712068856509
0.46186170030993,0.110427662617994
0.454404403439421,0.114177934218387
0.446945209417805,0.117957810452135
0.439484425902887,0.121762490385598
0.432022344720652,0.125587420137349
0.424559243261995,0.129428271082318
0.41709538569754,0.133280920895002
0.409631024040375,0.137141436965576
0.402166399080772,0.141006061813825
0.394701741212389,0.144871200196484
0.387237271165907,0.148733407658927
0.379773200663268,0.152589380325992
0.372309733003411,0.156435945761614
0.364847063588641,0.160270054755046
0.357385380399264,0.164088773914172
0.349924864422985,0.167889278964967
0.342465690044534,0.171668848671352
0.335008025400237,0.17542485930228
0.327552032701532,0.179154779583296
0.320097868530904,0.182856166078537
0.312645684113231,0.186526658956418
0.305195625565146,0.190163978098453
0.297747834124669,0.193765919515816
0.290302446363109,0.197330352042749
0.282859594380954,0.200855214279652
0.275419405989299,0.204338511761986
0.267982004878151,0.207778314333886
0.260547510772817,0.211172753707817
0.253116039579425,0.214520021193681
0.245687703520537,0.217818365582614
0.238262611261695,0.221066091172296
0.230840868029652,0.224261555921983
0.223422575722965,0.227403169726696
0.216007833015565,0.230489392801051
0.208596735453846,0.233518734164191
0.201189375547773,0.236489750218098
0.19378584285645,0.239401043412283
0.186386224068561,0.242251260988571
0.178990603078041,0.245039093800204
0.171599061055326,0.247763275200078
0.164211676514467,0.250422579993352
0.156828525376409,0.253015823450111
0.149449681028658,0.255541860374128
0.142075214381604,0.257999584224115
0.134705193921674,0.260387926284158
0.127339685761538,0.262705854880299
0.119978753687537,0.264952374640498
0.112622459204483,0.267126525795406
0.105270861578012,0.269227383517608
0.0979240178745914,0.271254057297169
0.0905819829993455,0.273205690351504
0.0832448097317867,0.275081459067711
0.0759125487595813,0.276880572475703
0.0685852487104403,0.278602271750553
0.0612629561822304,0.280245829742612
0.0539457157713904,0.281810550534084
0.0466335700997325,0.283295769020793
0.0393265598397009,0.284700850518027
0.0320247237381558,0.286025190389406
0.0247280986387438,0.287268213697775
0.0174367195029149,0.288429374877259
0.010150619429637,0.289508157425612
0.00286982967385771,0.290504073616127
-0.00440562033624063,0.291416664228369
-0.0116757029831513,0.292245498297113
-0.0189403924450809,0.292990172878849
-0.0261996646820794,0.293650312835346
-0.0334534974232286,0.294225570633738
-0.0407018701548625,0.294715626162693
-0.0479447641097895,0.29512018656424
-0.0551821622574949,0.295438986080875
-0.0624140492953003,0.295671785917606
-0.0696404116404611,0.295818374118638
-0.0768612374231842,0.295878565458412
-0.0840765164805513,0.295852201346781
-0.0912862403513339,0.295739149748103
-0.0984904022716897,0.295539305114079
-0.105688997171731,0.2952525883302
-0.112882021672954,0.294878946675673
-0.120069474086538,0.294418353796762
-0.12725135441248,0.293870809693467
-0.134427664339605,0.293236340719526
-0.141598407246415,0.292514999595728
-0.148763588202799,0.291706865436584
-0.155923213972598,0.290812043790394
-0.163077293017041,0.289830666692798
-0.170225835499046,0.288762892733946
-0.177368853288407,0.287608907139393
-0.184506359967868,0.286368921864936
-0.191638370840107,0.285043175705568
-0.198764902935639,0.283631934418791
-0.205885975021656,0.282135490862578
-0.213001607611824,0.280554165148259
-0.22011182297706,0.278888304808702
-0.227216645157316,0.277138284982137
-0.234316099974383,0.275304508612073
-0.24141021504577,0.273387406663737
-0.248499019799658,0.271387438357562
-0.255582545490996,0.269305091420257
-0.26266082521875,0.267140882354066
-0.269733893944371,0.264895356724866
-0.276801788511506,0.26256908946981
-0.283864547667014,0.260162685225281
-0.29092221208334,0.257676778675987
-0.297974824382296,0.255112034926106
-0.305022429160321,0.252469149893435
-0.312065073015282,0.249748850727621
-0.319102804574889,0.246951896253593
-0.326135674526809,0.244079077441437
-0.333163735650555,0.241131217904054
-0.34018704285125,0.238109174424031
-0.347205653195362,0.235013837511301
-0.354219625948527,0.231846131993281
-0.361229022615558,0.228607017639318
-0.368233906982794,0.225297489821454
-0.375234345162905,0.221918580213645
-0.382230405642321,0.218471357531806
-0.389222159331429,0.214956928317226
-0.396209679617736,0.211376437766131
-0.403193042422187,0.207731070608436
-0.410172326258833,0.204022052038981
-0.41714761229811,0.200250648704872
-0.424118984433954,0.196418169752865
-0.431086529355047,0.192525967941137
-0.438050336620494,0.188575440820175
-0.44501049874026,0.184568031987999
-0.451967111260739,0.180505232425465
-0.458920272855862,0.176388581917956
-0.465870085424187,0.172219670570453
-0.472816654192465,0.168000140423699
-0.479760087826238,0.163731687180013
-0.486700498548071,0.15941606204826
-0.493638002264089,0.155055073718539
-0.5005727186996,0.150650590478384
-0.507504771544611,0.146204542483659
-0.514434288610217,0.141718924198904
-0.521361401996907,0.13719579702372
-0.528286248275988,0.132637292123864
-0.535208968685481,0.128045613488161
-0.542129709342019,0.123423041235099
-0.54904862147048,0.118771935196261
-0.555965861653349,0.114094738807512
-0.562881592102065,0.109393983343305
-0.569795980952951,0.104672292534689
-0.576709202590741,0.0999323876177415
-0.583621438003136,0.0951770928664885
-0.590532875170446,0.0904093416730452
-0.597443709494973,0.0856321832481584
-0.604354144275657,0.0808487900278938
-0.61126439123444,0.0760624658874134
-0.618174671102004,0.0712766552813424
-0.625085214272004,0.0664949534529477
-0.631996261534715,0.0617211178824423
-0.638908064903225,0.0569590811796512
-0.645820888548155,0.0522129656700792
-0.652735009860404,0.0474870999787951
-0.659650720665954,0.0427860379872251
-0.666568328622611,0.0381145806290111
-0.673488158836159,0.0334778011097043
-0.68041055574341,0.0288810742913656
-0.687335885323007,0.024330111191695
-0.694264537712923,0.0198309998295239
-0.701196930338438,0.0153902540361997
-0.708133511689093,0.0110148723941474
-0.715074765932552,0.00671241023522672
-0.722021218625189,0.00249106875315272
-0.728973443886228,-0.00164019304553382
-0.735932073566044,-0.00567151527220411
-0.742897809197602,-0.00959195065643336
-0.749871437942795,-0.0133892157068346
-0.756853854466944,-0.0170493493642947
-0.763846091970079,-0.0205562287654603
-0.770849368077249,-0.0238908531343462
-0.777865156392032,-0.0270302272053687
-0.784895306142307,-0.029945494176795
-0.791942262661644,-0.0325984951463089
-0.799009537707792,-0.03493442989258
-0.806103004074595,-0.0368616547358553
-0.813238445056627,-0.038133874772621
