-0.989633299795778,0.265299911492598
-0.976542878293774,0.265749341505647
-0.963573342460666,0.266133095752582
-0.950723620007479,0.26645217628306
-0.937992660079854,0.266707573376276
-0.925379432658001,0.266900265843248
-0.912882927973992,0.267031221319638
-0.900502155945808,0.267101396549402
-0.888236145627571,0.267111737659615
-0.876083944675447,0.267063180426731
-0.864044618828677,0.266956650534581
-0.852117251405256,0.266793063824383
-0.840300942811765,0.266573326537018
-0.828594810066912,0.266298335547837
-0.816997986338328,0.265968978594233
-0.805509620492191,0.265586134496218
-0.79412887665527,0.265150673370237
-0.782854933788991,0.264663456836421
-0.771686985275142,0.26412533821951
-0.760624238512859,0.263537162743634
-0.749665914526516,0.262899767721145
-0.738811247584213,0.262213982735707
-0.728059484826493,0.261480629819801
-0.717409885905004,0.260700523626843
-0.706861722630781,0.259874471598061
-0.696414278631862,0.259003274124312
-0.686066849019948,0.258087724702995
-0.675818740065834,0.257128610090192
-0.665669268883349,0.256126710448213
-0.655617763121552,0.255082799488657
-0.645663560664926,0.253997644611153
-0.63580600934134,0.252872007037882
-0.626044466637554,0.251706641944045
-0.616378299422034,0.250502298584358
-0.606806883674873,0.249259720415729
-0.597329604224595,0.247979645216208
-0.587945854491673,0.246662805200332
-0.578655036238524,0.245309927130974
-0.569456559325839,0.243921732427782
-0.560349841475033,0.24249893727234
-0.55133430803666,0.241042252710111
-0.542409391764619,0.239552384749286
-0.533574532595983,0.238030034456613
-0.524829177436303,0.236475898050301
-0.516172779950229,0.234890666990076
-0.507604800357293,0.233275028064483
-0.499124705232729,0.231629663475502
-0.490731967313177,0.229955250920565
-0.482426065307139,0.228252463672036
-0.474206483710069,0.226521970654245
-0.466072712623956,0.224764436518124
-0.458024247581286,0.222980521713531
-0.450060589373275,0.221170882559315
-0.442181243882237,0.219336171311196
-0.434385721917999,0.217477036227517
-0.426673539058243,0.215594121632917
-0.41904421549268,0.213688067980012
-0.411497275870945,0.211759511909104
-0.404032249154127,0.209809086305999
-0.396648668469837,0.207837420357981
-0.389346070970715,0.205845139607979
-0.3821239976963,0.203832866007005
-0.374981993438166,0.201801217964875
-0.36791960660825,0.199750810399299
-0.360936389110287,0.197682254783351
-0.354031896214269,0.195596159191384
-0.347205686433862,0.193493128343431
-0.340457321406701,0.191373763648121
-0.333786365777493,0.189238663244166
-0.32719238708386,0.187088422040451
-0.320674955644848,0.18492363175476
-0.31423364445205,0.182744880951189
-0.307868029063267,0.180552755076266
-0.301577687498647,0.178347836493827
-0.295362200139253,0.176130704518674
-0.289221149627985,0.173901935449046
-0.283154120772818,0.171662102597949
-0.277160700452281,0.169411776323353
-0.271240477523148,0.167151524057314
-0.265393042730257,0.164881910334028
-0.259617988618447,0.162603496816857
-0.253914909446522,0.160316842324351
-0.248283401103233,0.158022502855299
-0.242723061025196,0.155721031612828
-0.237233488116734,0.153412979027581
-0.231814282671574,0.151098892779994
-0.226465046296368,0.148779317821708
-0.221185381836001,0.146454796396123
-0.21597489330063,0.144125868058132
-0.210833185794432,0.141793069693049
-0.205759865446012,0.13945693553476
-0.20075453934044,0.137117997183109
-0.19581681545287,0.134776783620551
-0.190946302583726,0.13243382122808
-0.186142610295401,0.13008963380047
-0.181405348850444,0.127744742560824
-0.176734129151202,0.125399666174475
-0.172128562680885,0.123054920762237
-0.167588261446028,0.120711019913039
-0.163112837920309,0.118368474695953
-0.158701904989699,0.116027793671625
-0.154355075898927,0.113689482903148
-0.150071964199208,0.111354045966368
-0.145852183697229,0.109021983959661
-0.141695348405357,0.106693795513172
-0.137601072493043,0.104369976797564
-0.133568970239396,0.102051021532254
-0.129598655986912,0.0997374209931882
-0.125689744096314,0.0974296640201355
-0.121841848902507,0.095128237023543
-0.1180545846716,0.0928336239909462
-0.114327565558986,0.0905463064929579
-0.110660405568456,0.0882667636888446
-0.107052718512326,0.0859954723317048
-0.103504117972556,0.0837329067732607
-0.100014217262836,0.081479538968275
-0.0965826293916255,0.0792358384786059
-0.0932089670261317,0.0770022724769107
-0.08989284245719,0.0747793057500102
-0.0866338675650463,0.0725674007019239
-0.0834316537860155,0.070367017356588
-0.080285812079997,0.0681786133602658
-0.0771959528988338,0.0660026439836622
-0.0741616861554961,0.0638395621237502
-0.0711826211940736,0.0616898183053225
-0.0682583667605599,0.0595538606822746
-0.0653885309744139,0.0574321350386315
-0.062572721300882,0.0553250847893262
-0.059810544524067,0.0532331509807394
-0.0571016067207268,0.0511567722910092
-0.0544455132347913,0.0490963850301201
-0.051841868652581,0.047052423139779
-0.0492902767787141,0.0450253181930881
-0.0467903406126883,0.0430154993940215
-0.0443416623261248,0.0410233935767145
-0.0419438432406603,0.0390494252045736
-0.0395964838064739,0.0370940163692145
-0.0372991835814379,0.0351575867892362
-0.0350515412108785,0.0332405538088389
-0.0328531544079354,0.0313433323962926
-0.0307036199345072,0.029466335142264
-0.0286025335827721,0.027609972258009
-0.0265494901572718,0.0257746515734372
-0.0245440834575475,0.0239607785350559
-0.0225859062613166,0.0221687562038004
-0.0206745503081801,0.0203989852527565
-0.0188096062838484,0.0186518639647826
-0.016990663804877,0.0169277882300377
-0.0152173114039003,0.0152271515434204
-0.0134891365153537,0.0135503450019274
-0.0118057254616746,0.0118977573019356
-0.0101666634399711,0.0102697747364144
-0.0085715345091505,0.00866678119207463
-0.00701992157749706,0.00708915814645945
-0.00551140639068889,0.00553728466498297
-0.00404556952024666,0.00401153739792226
-0.00262199035240336,0.00251229057736855
-0.00124024707738683,0.00103991601414274
0.000100083320893639,-0.000405216905319278
0.00139942507476603,-0.00182274122210586
0.00265820364232743,-0.00321229240798883
0.00387684571659786,-0.0045735083685968
0.00505577923430479,-0.00590602944659811
0.00619543338430589,-0.00720949842488792
0.00729623861565877,-0.0084835605297748
0.00835862664534543,-0.00972786343416181
0.00938303046565974,-0.0109420572607173
0.0103698843512653,-0.0121257945850305
0.0113196238659321,-0.0132787304387478
0.0122326858689591,-0.0144005223126841
0.0131095085212906,-0.0154908301599055
0.013950531291334,-0.0165493163987785
0.014756194960487,-0.0175756459159815
0.0155269416283793,-0.0185694860694731
0.0162632147178397,-0.019530506691415
0.0169654589795927,-0.0204583800910426
0.0176341204966937,-0.0213527810574811
0.018269646688709,-0.0222133868625019
0.0188724863156476,-0.023039877263215
0.019443089481653,-0.0238319345046938
0.0199819076384605,-0.0245892433225283
0.0204893935886277,-0.0253114909453016
0.0209660014885447,-0.025998367096987
0.0214121868512317,-0.0266495639992606
0.0218284065489292,-0.0272647763737268
0.022215118815489,-0.0278437014440507
0.0225727832485724,-0.0283860389379961
0.0229018608116612,-0.0288914910893628
0.0232028138358897,-0.0293597626398216
0.0234761060217036,-0.0297905608406409
0.0237222024403517,-0.0301835954543033
0.0239415695352185,-0.0305385787560074
0.0241346751230027,-0.0308552255350505
0.024301988394749,-0.03113325309609
0.0244439799167402,-0.0313723812602788
0.0245611216312538,-0.0315723323662709
0.024653886857193,-0.0317328312710945
0.0247227502905956,-0.0318536053508882
0.0247681880050287,-0.031934384501497
0.0247906774518754,-0.031974901138924
0.0247906974605203,-0.0319748901996358
0.0247687282384387,-0.0319340891407158
0.0247252513711988,-0.0318522379398634
0.0246607498223804,-0.0317290790952356
0.0245757079334183,-0.0315643576251265
0.0244706114233768,-0.0313578210674818
0.0243459473886604,-0.031109219479245
0.0242022043026696,-0.0308183054355312
0.0240398720154059,-0.0304848340286256
0.0238594417530338,-0.030108562866803
0.0236614061174064,-0.029689252072964
0.0234462590855608,-0.0292266642830861
0.0232144960091898,-0.0287205646444848
0.0229666136140969,-0.0281707208138813
0.022703109999641,-0.0275769029552744
0.022424484638178,-0.0269388837376117
0.0221312383745046,-0.0262564383322573
0.0218238734253132,-0.025529344410253
0.0215028933786633,-0.024757382139368
0.0211688031934754,-0.0239403341809348
0.0208221091990573,-0.0230779856864676
0.0204633190946661,-0.0221701242940594
0.0200929419491156,-0.0212165401245535
0.0197114882004349,-0.0202170257774878
0.0193194696555854,-0.0191713763268055
0.0189173994902436,-0.0180793893163316
0.0185057922486568,-0.0169408647550092
0.018085163843579,-0.0157556051118925
0.0176560315562941,-0.0145234153108941
0.0172189140367341,-0.0132441027252807
0.0167743313036997,-0.0119174771719154
0.0163228047451909,-0.0105433509052418
0.015864857118855,-0.00912153861100612
0.0154010125525598,-0.00765185739971386
0.0149317965450997,-0.00613412679981704
0.0144577359670433,-0.00456816875062787
0.0139793590617296,-0.00295380759495511
0.0134971954464202,-0.00129087007145929
0.0130117761136183,0.000420814693277698
0.0125236334325594,0.00218141519297226
0.0120333011508851,0.00399109755015229
0.0115413143965054,0.00585002552496799
0.0110482096796616,0.00775836052430482
0.0105545248951951,0.00971626161120222
0.0100607993250328,0.011723885514583
0.00956757364089831,0.0137813866392974
0.00907538990725633,0.0158889170764866
0.00858479158450088,0.0180466266142697
0.00809632353239634,0.0202546627487586
0.00761053201378013,0.0225131706954067
0.00712796469853742,0.0248222934006939
0.00664917066785725,0.0271821715541547
0.00617470041877985,0.0295929436007528
0.00570510586904537,0.032054745753608
0.0052409403622541,0.0345677120070796
0.00478275867334886,0.0371319741502119
0.00433111701442958,0.0397476617805465
0.00388657304091122,0.0424149023183073
0.00344968585803577,0.0451338210209621
0.00302101602774926,0.0479045409981683
0.00260112557595556,0.0507271832271055
0.00219057800015762,0.0536018665682032
0.00178993827749867,0.0565287077812677
0.00139977287321472,0.0595078215420135
0.00102064974951073,0.0625393204590078
0.000653138374872395,0.0656233150910301
0.000297809733826898,0.0687599139648563
-4.47636628357687e-05,0.0719492235934726
-0.000374007767366548,0.075191348494724
-0.000689346983874101,0.0784863912104064
-0.000990204156640157,0.0818344523258071
-0.00127600055792017,0.0852356304897008
-0.00154615587521482,0.0886900224348081
-0.00180008819799828,0.0921977229987243
-0.00203721400388904,0.0957588251453242
-0.00225694814424673,0.0993734199866504
-0.00245870382918213,0.103041596805295
-0.00264189261196209,0.106763443077277
-0.00280592437279625,0.110539044495432
-0.00295020730198699,0.11436848499331
-0.0030741478824272,0.118251846769602
-0.00317715087142898,0.122189210313095
-0.00325861928186581,0.126180654428168
-0.00331795436260981,0.130226256260834
-0.00335455557824758,0.134326091325344
-0.00336782058805498,0.138480233531356
-0.00335714522421202,0.142688755211676
-0.00332192346923922,0.146951727150589
-0.00326154743263497,0.151269218612785
-0.00317540732669536,0.155641297372888
-0.00306289144149272,0.160068029745603
-0.00292338611899511,0.164549480616489
-0.00275627572630335,0.169085713473363
-0.00256094262798393,0.173676790438363
-0.00233676715747481,0.178322772300659
-0.00208312758754192,0.183023718549845
-0.0017994000997613,0.187779687410003
-0.00148495875300417,0.192590735874471
-0.00113917545089796,0.197456919741315
-0.000761419908240822,0.202378293649519
-0.000351059616340403,0.207354911115912
9.25401927478267e-05,0.212386824572843
0.000570016583110962,0.217474085406607
0.00108200895302504,0.222616743996662
0.0016291590741876,0.227814849755621
0.00221211113216405,0.233068451170055
0.00283151176808007,0.238377595842119
0.00348801012158904,0.243742330532005
0.00418225787514858,0.249162701201255
0.00491490929963697,0.254638753056939
0.00568662130134332,0.260170530596721
0.00649805347036692,0.265758077654822
0.00734986813045992,0.271401437448915
0.00824273039034976,0.277100652627949
0.00917730819657902,0.282855765320941
0.0101542723879003,0.28866681718674
0.0111742967512649,0.294533849464794
0.0122380580794476,0.300456903026936
0.0133462362303462,0.306436018430209
0.0144995141879994,0.312471235970756
0.0156985781253671,0.318562595738794
0.0169441174689183,0.324710137674698
0.0182368249650702,0.330913901626217
0.0195773967485285,0.337173927406847
0.020966532412577,0.343490254855385
0.022404935081365,0.349862923896697
0.0238933114842464,0.356291974603713
0.0254323720322207,0.362777447260693
0.0270228308965326,0.369319382427779
0.0286654060894846,0.375917821006869
0.030360819547522,0.382572804308843
0.0321097972166466,0.389284374122169
0.033913069140223,0.396052572782925
0.0357713695492398,0.402877443246266
0.0376854369550875,0.409759029159371
0.0396560142449235,0.416697374935907
0.0416838487796907,0.423692525832044
0.0437696924948595,0.430744528024062
0.0459143020039671,0.437853428687578
0.0481184387050295,0.445019276078448
0.0503828688899015,0.45224211961537
0.0527083638566638,0.459522009964239
0.0550957000251234,0.466858999124297
0.0575456590555054,0.474253140516115
0.0600590279704271,0.481704489071465
0.0626365992802439,0.489213101325116
0.0652791711118577,0.496779035508616
0.0679875473410856,0.504402351646103
0.0707625377286829,0.512083111652198
0.0736049580601274,0.519821379432038
0.0765156302892653,0.527617220983497
0.0794953826859287,0.535470704501662
0.0825450499876348,0.543381900485618
0.0856654735554847,0.551350881847601
0.0888575015343736,0.559377724024591
0.0921219890176465,0.567462505092401
0.0954597982163118,0.575605305882333
0.0988717986329559,0.583806210100477
0.102358867240487,0.592065304449715
0.105921888665846,0.60038267875451
0.109561755378841,0.608758426088563
0.113279367886228,0.617192642905403
0.117075634931229,0.625685429172006
0.12095147369861,0.634236888505527
0.124907810025503,0.642847128313223
0.128945578618146,0.651516259935672
0.133065723274698,0.66024439879337
0.137269197114328,0.669031664536817
0.141556962812758,0.677878181200178
0.145929992844455,0.686784077358644
0.15038926973168,0.69574948628957
0.154935786300586,0.704774546137548
0.159570545944605,0.713859400083477
0.164294562895318,0.723004196517803
0.169108862501075,0.732209089218015
0.17401448151356,0.741474237530543
0.179012468382595,0.750799806557196
0.184103883559404,0.760185967346264
0.189289799808621,0.769632897088443
0.194571302529318,0.779140779317723
0.199949490085325,0.788709804117396
0.205425474145155,0.798340168331346
0.211000380031836,0.808032075780784
0.216675347082956,0.817785737486609
0.222451529021271,0.827601371897554
0.228330094336208,0.837479205124334
0.234312226676615,0.847419471179958
0.240399125255136,0.857422412226423
0.246592005264589,0.867488278827993
0.252892098306742,0.877617330211279
0.259300652833911,0.887809834532344
0.265818934603787,0.89806606915106
0.272448227147966,0.908386320912977
0.279189832254614,0.918770886438929
0.286045070465771,0.929220072422656
0.293015281589786,0.939734195936714
0.300101825229389,0.950313584746944
0.307306081325968,0.960958577635799
0.314629450720575,0.97166952473484
0.322073355732283,0.982446787866704
