0.863909946358521,-0.245648459801661
0.830966149843265,-0.244166323084094
0.864620079967737,-0.252986597931695
0.858888675322616,-0.243495213412896
0.828187432275371,-0.24850001607246
0.850358612653639,-0.23897705212681
0.859273083586387,-0.183882163287509
0.844138744632596,-0.221109233674032
0.831042563551294,-0.226137480955802
0.823173916796001,-0.220013024528479
0.801805548519944,-0.197728456996033
0.7813120070479,-0.203171526120593
0.790097446874453,-0.189988039126141
0.786921298709789,-0.185305166964738
0.775542543195461,-0.176048148207418
0.76727015041412,-0.161615831202845
0.763743115546363,-0.178788608429613
0.746819641482322,-0.118836941776055
0.73807449209615,-0.118344208368105
0.728792645664432,-0.101980463773481
0.690961993074657,-0.112691743781941
0.699873098513061,-0.0783321443364126
0.733595110486397,-0.0273844570415201
0.716967562438496,-0.0377559894826625
0.700330202997206,-0.0411117494858506
0.699485639224932,0.0162696840551017
0.68546283986749,0.0158261793159096
0.699728012625819,0.0769909143136097
0.660679066978784,0.0717701198941176
0.667730061195673,0.0990155560944009
0.686821821180531,0.120607019649892
0.630501354947554,0.127356451906547
0.636882532505983,0.168796699976255
0.667182964805757,0.207424702289255
0.670009671623259,0.277126734549781
0.646635792102152,0.251995362366347
0.682597625349585,0.273063947200384
0.680956151713537,0.286900480501105
0.68599546641094,0.305025880295886
0.695000687679405,0.294840043356507
0.676541823198056,0.336285136183178
0.690096824154815,0.377645705653947
0.704651536829698,0.371541564231978
0.753498578970638,0.413233766678927
0.762742675127191,0.397691046392961
0.748386729292911,0.43771814946105
0.743918044506322,0.424287924595327
0.716669429119626,0.424373239596391
0.743927531241058,0.450198990626162
0.760727418212543,0.444954949236332
0.744761363160754,0.450073715110617
0.772406406008661,0.450072348752405
0.775252800029174,0.45761142039736
0.795837195398884,0.456528146759265
0.798217604132931,0.460336175377487
0.725541692223997,0.469772182405461
0.77511486648688,0.457826051042934
0.784098291521372,0.406192824721944
0.764761148674717,0.486377010607062
0.763255868432843,0.474658090690706
0.698757653553016,0.431063749553362
0.728471357548918,0.462433861680267
0.722871492462463,0.410403274093538
0.726685280437473,0.441545005443385
0.689772161615296,0.456344937952054
0.686082847597298,0.40762526984849
0.642332040570297,0.406180815844257
0.668348959850424,0.421829890608264
0.64354635053224,0.448792319989126
0.617260543516234,0.437888252805206
0.590512692200999,0.375350833164552
0.55298973868745,0.452886071275981
0.561611073325771,0.44676164354457
0.538488023276506,0.471394361808126
0.516826488757996,0.447579933890928
0.504443308527026,0.442816778096552
0.482711231494447,0.470822251503861
0.462808588386512,0.479081841637162
0.451807086995558,0.457351684954532
0.412211359440471,0.457426164632927
0.366938984227767,0.550018488810823
0.377064261128861,0.559918996580899
0.332291947786271,0.55924648562128
0.308098217864434,0.564857179200067
0.324327861885102,0.588408253907203
0.313213783205382,0.590210715625064
0.266081155863303,0.60433273080448
0.246793441512351,0.648031452349916
0.288832815387629,0.609707625293729
0.221199545162578,0.675425198213917
0.242553484119719,0.687762194084043
0.208531808666626,0.707805551022975
0.215614321338813,0.730931396741493
0.230434852966228,0.711015029147678
0.205651105961875,0.717599487168638
0.182657907464318,0.777554976050058
0.176447533027624,0.763688872370658
0.165849632636009,0.799945765812632
0.173435689282683,0.808974301401873
0.191123953322092,0.842489676029746
0.142681492262086,0.817693837518933
0.172112340797651,0.825158905034051
0.162731770918191,0.83127087760162
0.172193578445425,0.830014154966779
0.174520192337924,0.852088052301951
0.143392482260396,0.874074154188229
0.168053554357294,0.846140907573169
0.165685781539419,0.831860913285295
0.166682881706745,0.809665511798304
0.14603347709362,0.800782127447788
0.160531516365798,0.794235973562332
0.156311551472819,0.785201790445316
0.151248943342185,0.775389343011385
0.145542369735444,0.751408362790966
0.15774525019159,0.734245380373342
0.129363146478886,0.729367230278081
0.100933432943864,0.705101894420716
0.0757909719274692,0.663897535391946
0.0793572261406064,0.64546093797724
0.0545933372433197,0.683446959744827
0.0392027496423566,0.638944617932444
-0.100156854297531,0.573791436015657
-0.0993605282772345,0.570170373793171
-0.082881956876758,0.570210621372657
-0.164270642136613,0.560625175972886
-0.167655365695189,0.535535140672434
-0.170259378272365,0.548716908343261
-0.204687081911149,0.541183631621908
-0.264374596401237,0.565369039214825
-0.270408038104244,0.529139863313507
-0.286825308158054,0.533606713687097
-0.306246143731113,0.533750855084052
-0.322556104824122,0.532308753295353
-0.343118457660964,0.536191653673964
-0.360407982992344,0.538372671460097
-0.357215128742452,0.560122585074096
-0.428421450000391,0.558865917573921
-0.426710527722751,0.566175157730197
-0.454199336949798,0.56456257939782
-0.462073996659298,0.553112904900043
-0.450456089923567,0.579814098921962
-0.499395115828968,0.585570210564643
-0.487888304972882,0.583283674593627
-0.499003539837029,0.571515789623856
-0.495483864134981,0.589305001697586
-0.510652569405965,0.598142045129531
-0.487568668591647,0.612924568681799
-0.499032253786761,0.574489051592268
-0.46284234371468,0.562134410762896
-0.485488620037574,0.578264298148311
-0.474336871911723,0.557465594227757
-0.469904768207432,0.548533571777932
-0.494619031582945,0.557869985862306
-0.460887647645742,0.527249639864575
-0.452301462948314,0.501533451153365
-0.445632335615667,0.512650691682567
-0.476156857087462,0.490869717444826
-0.420476279004341,0.429678391763164
-0.439274731123556,0.438054288660013
-0.456023126934876,0.389980249903019
-0.404675927746221,0.361485414459751
-0.408590614474868,0.288724922089037
-0.429373697170658,0.305765509108099
-0.421056070796427,0.289060019090053
-0.453061978609433,0.26549938299917
-0.454952759057894,0.235718449839012
-0.438291620774499,0.25625225341652
-0.489184521779608,0.160949544447777
-0.488720181672536,0.171468137418343
-0.48158255537813,0.0910377662008974
-0.537544371355674,0.061211715286052
-0.578564461925112,0.0331544122977074
-0.615569189683089,-0.0190750870280596
-0.625453459630909,-0.0255378049437952
-0.653039045410024,-0.0482991272957835
-0.638207839638272,-0.0725143463095917
-0.674439856779209,-0.0640289801828623
-0.708512376648479,-0.079412630605509
-0.720739561767286,-0.0827771505553865
-0.722522703950923,-0.0891581516203847
-0.706886974973018,-0.0607754381525387
-0.720708412686871,-0.0830303732062266
-0.723654989981993,-0.0952968713140439
-0.691958846929043,-0.0708330217126105
-0.678657581268227,-0.0810007972065138
-0.584895177978738,-0.124788052351333
-0.583201799195919,-0.119073082697259
-0.554525214593499,-0.143299464158005
-0.539062597231189,-0.15401544636436
-0.448445552511891,-0.256624203990995
-0.437081116111461,-0.239534178943345
-0.455956167141207,-0.263481280827686
-0.374409916719139,-0.342220815787653
-0.34930832246253,-0.406048429858261
-0.306174702772337,-0.546665982938796
-0.328445535404499,-0.538830520903335
-0.320760761137139,-0.61189479659143
-0.326486075825313,-0.644469423268584
-0.342963808440906,-0.676730520543951
-0.336166198864669,-0.677106104506326
-0.342269078163702,-0.689385405027073
-0.336801661964737,-0.675618829353342
-0.329335021097712,-0.671783148796156
-0.365498072269535,-0.629486181941999
-0.35462010132287,-0.706302639782941
-0.319826797773061,-0.653161424183175
-0.312950742555569,-0.6527829621996
-0.29641018671405,-0.639830292300454
-0.275453427065976,-0.625922719354331
-0.263324274866843,-0.618853954229739
-0.23585608833946,-0.604966874368409
-0.116615728217533,-0.579428004629534
-0.110674233077778,-0.56812671128402
-0.0279583263647693,-0.579151559042281
0.222075856960513,-0.610401599784924
0.282791549883382,-0.604045153146059
0.252783438733618,-0.638818597378318
0.293601506461213,-0.667491576955805
0.360068567518908,-0.739368460710392
0.362784102053417,-0.744060324816718
0.341634841395389,-0.735435526325412
0.367983197676568,-0.723193651948718
0.370352542853235,-0.720754976203696
0.361962790770925,-0.69391150684771
0.381997454456323,-0.592120530192333
0.386604156642935,-0.567169883609281
0.4913272028058,-0.441629714879404
0.546753633920549,-0.354955603460527
0.684850875571625,-0.29964043392925
0.833899093329618,-0.241923023085766
0.858171534732329,-0.270926583004004
