-0.283159892478278,-0.0859276725072889
-0.285270739226303,-0.0846943922850487
-0.287474236634249,-0.0835742933537485
-0.289765295858337,-0.0825719418210082
-0.292138633846962,-0.0816916938706081
-0.294588781566707,-0.0809376881073297
-0.297110092516343,-0.0803138382132821
-0.299696751517299,-0.0798238259262115
-0.302342783768736,-0.0794710943498723
-0.305042064154962,-0.0792588416061068
-0.307788326792623,-0.0791900148378405
-0.31057517480474,-0.0792673045717408
-0.313396090308383,-0.0794931394488244
-0.316244444602451,-0.0798696813308179
-0.319113508541762,-0.080398820789591
-0.321996463083403,-0.0810821729864817
-0.324886409991034,-0.0819210739478294
-0.327776382682616,-0.0829165772425133
-0.330659357206839,-0.0840694510667739
-0.333528263333325,-0.0853801757410636
-0.336375995741518,-0.0868489416231348
-0.339195425293017,-0.0884756474410351
-0.341979410371994,-0.0902598990491269
-0.344720808278191,-0.0922010086096999
-0.347412486656953,-0.0942979942021875
-0.350047334950616,-0.096549579861438
-0.352618275855581,-0.0989541960459326
-0.355118276769324,-0.101509980536274
-0.357540361211596,-0.10421477976371
-0.359877620204095,-0.107066150567885
-0.362123223592867,-0.110061362382459
-0.36427043129781,-0.11319739984665
-0.366312604473652,-0.116470965840212
-0.368243216566919,-0.119878484938804
-0.370055864253467,-0.123416107286117
-0.371744278241327,-0.127079712878619
-0.373302333923714,-0.130864916258186
-0.374724061867241,-0.134767071607375
-0.376003658120562,-0.138781278241547
-0.377135494328862,-0.142902386491508
-0.378114127639841,-0.147125003969822
-0.378934310387081,-0.151443502213432
-0.379590999536943,-0.155852023694728
-0.380079365885404,-0.160344489192667
-0.380394802991575,-0.164914605515107
-0.380532935834907,-0.169555873563014
-0.380489629183453,-0.17426159672672
-0.380260995660895,-0.17902488960399
-0.379843403500394,-0.183838687029185
-0.379233483973701,-0.188695753402371
-0.378428138484387,-0.193588692306843
-0.377424545314409,-0.198509956403083
-0.376220166013689,-0.203451857586808
-0.374812751422816,-0.208406577398389
-0.373200347319402,-0.213366177670545
-0.371381299679122,-0.218322611400889
-0.369354259542908,-0.223267733835565
-0.367118187482287,-0.228193313749905
-0.364672357655316,-0.233091044911744
-0.362016361446101,-0.237952557712748
-0.359150110681389,-0.242769430952854
-0.356073840418262,-0.247533203762682
-0.352788111297477,-0.252235387648549
-0.349293811457564,-0.256867478644516
-0.345592158005332,-0.261420969555718
-0.341684698038985,-0.265887362277046
-0.337573309220629,-0.270258180171121
-0.33326019989551,-0.274524980489371
-0.328747908755896,-0.278679366819889
-0.324039304048103,-0.282713001545719
-0.319137582321738,-0.286617618297078
-0.314046266720814,-0.290385034381053
-0.308769204816994,-0.294007163172216
-0.303310565985782,-0.297476026447647
-0.297674838327089,-0.300783766649851
-0.291866825132186,-0.303922659061077
-0.285891640899622,-0.306885123872642
-0.279754706903298,-0.309663738132894
-0.273461746316457,-0.312251247557582
-0.267018778895917,-0.314640578186517
-0.260432115231479,-0.31682484787051
-0.253708350565978,-0.318797377572788
-0.246854358192044,-0.320551702469225
-0.23987728243217,-0.322081582831936
-0.232784531209261,-0.323381014681023
-0.22558376821537,-0.324444240189455
-0.218282904686861,-0.325265757826374
-0.210890090794789,-0.325840332224353
-0.203413706659783,-0.326163003756452
-0.19586235300124,-0.326229097809224
-0.188244841431139,-0.326034233738154
-0.180570184403259,-0.325574333492365
-0.17284758482908,-0.324845629895791
-0.1650864253721,-0.323844674572411
-0.157296257432737,-0.322568345503509
-0.149486789836452,-0.32101385420538
-0.141667877238132,-0.319178752516311
-0.13384950825618,-0.317060938982107
-0.126041793350154,-0.314658664829918
-0.118254952456185,-0.311970539520568
-0.11049930239475,-0.308995535870114
-0.102785244065717,-0.305732994731819
-0.0951232494459297,-0.302182629230278
-0.0875238484048824,-0.29834452853995
-0.0799976153543339,-0.294219161200861
-0.0725551557479956,-0.289807377964835
-0.0652070924476611,-0.285110414166144
-0.057964051972396,-0.280129891611018
-0.0508366506476104,-0.274867819981077
-0.0438354806710394,-0.269326597746288
-0.0369710961128271,-0.263509012583668
-0.0302539988670643,-0.257418241298539
-0.0236946245722663,-0.25105784924575
-0.0173033285183893,-0.244431789248888
-0.0110903715580735,-0.237544400016116
-0.00506590603987472,-0.230400404051895
0.00076003821870535,-0.223004905064452
0.00637756790055477,-0.215363384869511
0.0117769400828059,-0.207481699791388
0.016948576037383,-0.199366076563209
0.0218830749204503,-0.19102310772862
0.026571227333029,-0.182459746547982
0.0310040287351308,-0.173683301412673
0.0351726926958585,-0.164701429771736
0.0390686639620486,-0.155522131575732
0.0426836313281739,-0.146153742243269
0.0460095402903954,-0.136604925156287
0.0490386054678348,-0.126884663690795
0.0517633227743541,-0.117002252790333
0.0541764813243556,-0.106967290090048
0.0562711750563654,-0.0967896665998409
0.05804081405844,-0.086479556955629
0.0594791355797206,-0.0760474092483265
0.060580214712777,-0.065503934440714
0.0613384747317102,-0.054860095382912
0.0617486970713364,-0.0441270954377112
0.0618060309331409,-0.0333163667275344
0.0615060025040831,-0.02243955801533
0.0608445237747356,-0.0115085222321875
0.0598179009436669,-0.000535303664954023
0.0584228423954175,0.0104678751823864
0.0566564662398782,0.0214886270393621
0.0545163074013522,0.0325144136170302
0.0520003242460735,0.0435325596382762
0.0491069047374614,0.0545302671349002
0.0458348721089076,0.0654946299955958
0.04218349004443,0.0764126487485543
0.0381524673580735,0.0872712455620696
0.0337419621635012,0.0980572794461687
0.0289525855257883,0.108757561637986
0.0237854045880234,0.119358871153284
0.0182419451659102,0.129847970486243
0.0123241938041756,0.140211621439397
0.0060345992892018,0.150436601065311
-0.00062392638706954,0.160509717701428
-0.00764800761628559,0.170417827079269
-0.0150338053195602,0.180147848489004
-0.0227770176531117,0.189686780980277
-0.0308728812760426,0.199021719580002
-0.0393161731819709,0.208139871507744
-0.0481012130955721,0.21702857236924
-0.0572218664344123,0.225675302308488
-0.0666715478357849,0.234067702098848
-0.0764432252475928,0.242193589153536
-0.0865294245816352,0.250040973435926
-0.0969222349269884,0.257598073250063
-0.107613314320493,0.264853330891876
-0.11859389607068,0.271795428141627
-0.129854795630795,0.278413301578237
-0.141386418015923,0.284696157696237
-0.15317876575852,0.29063348780625
-0.165221447396017,0.296215082700061
-0.177503686483499,0.30143104706152
-0.190014331123796,0.306271813604736
-0.202741864006679,0.310728156921251
-0.215674412948236,0.31479120701814
-0.228799761920824,0.318452462529252
-0.242105362563424,0.321703803582116
-0.255578346161559,0.324537504303347
-0.269205536085377,0.326946244945741
-0.282973460673863,0.328923123620588
-0.296868366552609,0.330461667619152
-0.310876232371954,0.331555844307631
-0.324982782951785,0.332200071580356
-0.339173503818732,0.332389227856445
-0.353433656120955,0.332118661605545
-0.36774829190523,0.331384200388823
-0.382102269740511,0.330182159401853
-0.396480270671699,0.328509349506532
-0.41086681448685,0.326363084739749
-0.425246276280632,0.323741189287019
-0.439602903296402,0.320642003909919
-0.453920832028867,0.317064391816694
-0.468184105568887,0.313007743966034
-0.482376691171638,0.308471983794609
-0.496482498028969,0.303457571359597
-0.510485395226476,0.297965506888048
-0.524369229865498,0.291997333725601
-0.538117845329964,0.285555140677713
-0.551715099677729,0.278641563737251
-0.565144884135835,0.27125978719294
-0.578391141678858,0.263413544113911
-0.591437885669365,0.255107116206218
-0.604269218539276,0.246345333037963
-0.616869350490819,0.237133570630346
-0.629222618195598,0.227477749412673
-0.641313503470241,0.217384331540112
-0.653126651906973,0.206860317573671
-0.664646891437421,0.195913242522643
-0.675859250807942,0.184551171250476
-0.686748977944751,0.172782693245762
-0.697301558187129,0.160616916760799
-0.707502732367073,0.148063462320892
-0.7173385147138,0.135132455608306
-0.726795210561602,0.121834519725535
-0.735859433839701,0.108180766843267
-0.744518124322875,0.0941827892391506
-0.752758564621794,0.0798526497342349
-0.760568396892231,0.0652028715346196
-0.767935639242497,0.0502464274866226
-0.77484870181871,0.0349967287544475
-0.781296402547792,0.0194676129300519
-0.787267982518351,0.0036733315856111
-0.792753120979939,-0.0123714627203421
-0.797741949941528,-0.028651729971355
-0.80222506835039,-0.0451520567436348
-0.806193555832955,-0.0618566707657042
-0.809638985979658,-0.0787494559734115
-0.812553439156177,-0.0958139680459442
-0.814929514823946,-0.113033450407884
-0.816760343353308,-0.130390850681739
-0.81803959731312,-0.147868837574797
-0.818761502221215,-0.165449818183579
-0.818920846740587,-0.183115955698615
-0.818512992306774,-0.200849187491731
-0.817533882172455,-0.218631243567511
-0.815980049855892,-0.236443665360106
-0.813848626980445,-0.254267824856071
-0.811137350493015,-0.272084944023454
-0.807844569249932,-0.289876114526934
-0.803969249959429,-0.307622317708355
-0.799510982470551,-0.32530444481163
-0.794469984399036,-0.342903317430611
-0.788847105081361,-0.360399708158147
-0.782643828848933,-0.377774361414249
-0.775862277615071,-0.395008014430952
-0.768505212768193,-0.412081418371196
-0.760576036365371,-0.428975359558774
-0.752078791621157,-0.445670680796177
-0.743018162687384,-0.462148302746951
-0.733399473720377,-0.478389245358983
-0.723228687232832,-0.494374649305008
-0.712512401728401,-0.510085797416458
-0.70125784861778,-0.525504136086708
-0.689472888415968,-0.540611296619653
-0.67716600622109,-0.555389116499532
-0.664346306476039,-0.569819660557886
-0.651023507014979,-0.583885242013501
-0.63720793239756,-0.597568443361274
-0.622910506534503,-0.610852137085943
-0.608142744609037,-0.623719506176736
-0.592916744299464,-0.636154064419091
-0.577245176308924,-0.648139676439739
-0.561141274209267,-0.659660577481603
-0.54461882360669,-0.670701392885167
-0.527692150637632,-0.681247157253165
-0.51037610980417,-0.691283333275712
-0.492686071158973,-0.700795830193248
-0.474637906850591,-0.709771021874977
-0.456247977040695,-0.718195764490788
-0.437533115205528,-0.726057413755034
-0.418510612834698,-0.733343841720857
-0.399198203541047,-0.740043453104221
-0.379614046596145,-0.74614520111717
-0.359776709906606,-0.751638602790326
-0.339705152447138,-0.756513753765108
-0.319418706166899,-0.760761342536613
-0.298937057386421,-0.76437266412868
-0.278280227702959,-0.767339633183154
-0.257468554422796,-0.769654796445947
-0.236522670539624,-0.771311344633092
-0.215463484278693,-0.772303123660574
-0.194312158227029,-0.772624645222366
-0.173090088070543,-0.772271096701742
-0.151818880959386,-0.771238350401595
-0.130520333523425,-0.769522972080199
-0.109216409560194,-0.767122228779533
-0.0879292174181348,-0.764034095934018
-0.0666809870983881,-0.760257263748261
-0.0454940470988026,-0.755791142833137
-0.0243908010242411,-0.750635869090324
-0.00339370398759209,-0.744792307836178
0.0174747611737119,-0.738262057156636
0.0381921078406009,-0.73104745048564
0.0587358696893151,-0.723151558400393
0.0790836248767463,-0.714578189627597
0.099213020308318,-0.705331891255647
0.119101795962297,-0.695417948148621
0.138727809244293,-0.684842381558752
0.158069059345525,-0.673611946934936
0.177103711578322,-0.661734130925696
0.195810121662222,-0.649217147575916
0.214166859933982,-0.636069933717501
0.232152735454755,-0.622302143555047
0.249746819987706,-0.607924142448459
0.266928471819343,-0.592946999895358
0.283677359397896,-0.577382481717
0.299973484762168,-0.561243041452307
0.315797206734372,-0.544541810965527
0.331129263850627,-0.527292590273893
0.345950797002952,-0.509509836602533
0.36024337176678,-0.491208652674783
0.373989000388259,-0.472404774246899
0.387170163405877,-0.453114556897039
0.399769830881177,-0.433354962079241
0.411771483213724,-0.413143542453978
0.423159131515757,-0.3924984265077
0.433917337522374,-0.371438302474595
0.444031233013485,-0.349982401574652
0.453486538724182,-0.328150480582867
0.462269582720654,-0.305962803745273
0.470367318219231,-0.283440124058211
0.47776734082667,-0.26060366392806
0.484457905180312,-0.237475095229366
0.490427940967298,-0.214076518780046
0.49566706830264,-0.190430443253079
0.500165612446515,-0.166559763544761
0.503914617841805,-0.142487738620288
0.506905861453556,-0.118237968858113
0.509131865392703,-0.0938343729151076
0.510585908807112,-0.0693011641352295
0.511262039023696,-0.0446628265249518
0.511155081926137,-0.0199440903192902
0.510260651553456,0.00483009283718029
0.508575158905508,0.0296345750694307
0.506095819942223,0.0544440377857833
0.50282066276428,0.0792330175005594
0.498748533963689,0.103975931939249
0.493879104133641,0.128647106399467
0.488212872527813,0.153220800340566
0.481751170860223,0.17767123417444
0.474496166237605,0.20197261622965
0.466450863217163,0.226099169860807
0.457619104983517,0.250025160674747
0.448005573639522,0.27372492384489
0.437615789606617,0.297172891484912
0.426456110131296,0.320343620052633
0.414533726895203,0.343211817754992
0.401856662727385,0.365752371924686
0.388433767418096,0.387940376339138
0.37427471263461,0.409751158452214
0.359389985940391,0.431160306509261
0.343790883919991,0.452143696515878
0.32748950441298,0.472677519030983
0.310498737861214,0.492738305754734
0.292832257774696,0.512302955881998
0.274504510322263,0.531348762192177
0.255530703054299,0.549853436846351
0.235926792765633,0.567795136862921
0.215709472507738,0.585152489243117
0.194896157760283,0.60190461571806
0.173504971773087,0.618031157089252
0.151554730090362,0.633512297134818
0.12906492427017,0.648328786054045
0.106055704812848,0.66246196342325
0.0825478633130848,0.675893780636357
0.0585628138512808,0.688606822804014
0.0341225736405669,0.700584330085604
0.00924974294690589,0.711810218428913
-0.0160325156996504,0.72226909969285
-0.0417004989834494,0.731946301129092
-0.0677299849517394,0.740827884199165
-0.0940962558124811,0.748900662704055
-0.120774121360153,0.756152220204116
-0.14773794300734,0.762570926707663
-0.174961658399234,0.768145954607393
-0.202418806587464,0.77286729384444
-0.230082553738907,0.776725766280636
-0.257925719354569,0.779713039260328
-0.285920802972875,0.781821638343867
-0.314040011331175,0.783044959195713
-0.342255285958605,0.783377278610919
-0.370538331172954,0.782813764664628
-0.398860642453534,0.781350485970076
-0.427193535161697,0.778984420031484
-0.455508173579967,0.775713460679146
-0.483775600240494,0.771536424574931
-0.511966765512963,0.766453056777373
-0.540052557421743,0.760464035356462
-0.568003831661779,0.753570975049246
-0.595791441782214,0.745776429948322
-0.623386269506654,0.737083895216281
-0.650759255158494,0.727497807820218
-0.677881428159692,0.717023546281389
-0.704723937571002,0.705667429436157
-0.731258082641634,0.693436714205402
-0.757455343336096,0.68033959237058
-0.783287410805907,0.666385186355715
-0.808726217773792,0.651583544015613
-0.833743968797927,0.63594563243167
