1.01514931501805,-0.35216182109488
0.994917199128185,-0.191569348818848
0.824169017280049,-0.0594642475814233
0.783398175726858,0.0704073963165392
0.922217513129226,0.244105934691548
1.02857196695239,0.453210638899039
0.847701445540714,0.500576232013858
0.594979572377423,0.45991652602989
0.49999701362626,0.556663199048197
0.546154333182717,0.780195753149574
0.39277776439478,0.879721861643754
0.247058787878482,0.837881465113689
0.145068318735076,0.625599603895559
0.0170347357911303,0.671800321061356
-0.163884685843843,0.827123313963806
-0.367005116482071,0.908756751169928
-0.405595419458749,0.695228115485776
-0.390346082660589,0.481954081608418
-0.497626001083603,0.442942672592215
-0.691424785115599,0.39958240730202
-0.887055585278424,0.256359458361374
-0.764098548774184,0.133711264217567
-0.603275742590048,-0.00559256521551568
-0.572704476305942,-0.125009841713947
-0.713277079365565,-0.300696052394959
-0.761161878463743,-0.43227320631688
-0.644908890196567,-0.556804990343681
-0.394104373127559,-0.519551291738208
-0.367971294469833,-0.615540699173778
-0.368355347773796,-0.787046849854852
-0.224843028168753,-0.913905656142601
-0.0598796514630312,-0.868993671299399
0.0779867278940278,-0.709841704164203
0.194819451917146,-0.737349290401021
0.375189137698298,-0.890564448344098
0.51439302490652,-0.91598556580233
0.567421313202123,-0.756592731112105
0.611708973870667,-0.553943681741533
0.693226081139571,-0.450749958259978
0.881604138005766,-0.437212107288342
