0.187910548634347,0.130319382335645
0.184000766682377,0.133236425601451
0.179937204138863,0.136040120110149
0.175723185080988,0.138723663020333
0.171362309815861,0.141280350414577
0.166858451884177,0.143703587957867
0.162215754666344,0.145986901463456
0.157438627593985,0.148123947351659
0.15253174197028,0.150108522987214
0.147500026403069,0.151934576880954
0.142348661855207,0.153596218741629
0.137083076317129,0.155087729363927
0.131708939107094,0.156403570338841
0.126232154805084,0.157538393572767
0.1206588568268,0.158487050601889
0.114995400644714,0.15924460168864
0.109248356663567,0.159806324687259
0.103424502758212,0.160167723665711
0.0975308164821283,0.16032453727152
0.0915744669554102,0.160272746829343
0.0855628064414371,0.160008584158403
0.0795033616219001,0.159528539098246
0.07340382458025,0.158829366731578
0.06727204350405,0.157908094293328
0.0611160131171122,0.156762027755407
0.0549438648526731,0.155388758077045
0.0487638567792396,0.153786167110928
0.0425843632910882,0.151952433155824
0.0364138645757449,0.149886036146741
0.0302609358711015,0.147585762474125
0.0241342365251341,0.145050709424027
0.0180424988714927,0.142280289231639
0.0119945169345086,0.139274232741025
0.00599913497743509,0.136032592664385
6.5235907987321e-05,0.132555746434641
-0.005798270444519,0.128844398645633
-0.0115824591659159,0.124899583074727
-0.0172784021931013,0.120722664283111
-0.0228771803342313,0.116315338789597
-0.028369895358125,0.111679635814264
-0.0337476821376733,0.106817917588785
-0.0390017208319194,0.10173287923084
-0.0441232490913644,0.0964275481805216
-0.0491035742709637,0.0909052831972263
-0.0539340856352085,0.085169772916016
-0.0586062665396315,0.0792250339630285
-0.0631117065730439,0.0730754086300372
-0.0674421136447968,0.0667255621088251
-0.0715893260013609,0.060180479286587
-0.0755453241565482,0.0534454611041261
-0.0793022427197357,0.0465261204791679
-0.0828523821065199,0.0394283777976607
-0.0861882201163073,0.0321584559764871
-0.0893024233614503,0.0247228751015546
-0.0921878585326566,0.0171284466457816
-0.0948376034855393,0.00938226727203204
-0.0972449581333329,0.00149171222659428
-0.0994034551309767,-0.00653557167067599
-0.101306870335965,-0.0146916734328951
-0.102949233031573,-0.0229684257022061
-0.104324835898303,-0.0313574129276639
-0.105428244719643,-0.039849979916766
-0.106254307808508,-0.048437240751941
-0.106798165140988,-0.0571100880628251
-0.107055257184386,-0.0658592026446715
-0.107021333406784,-0.0746750634127752
-0.106692460455761,-0.0835479576823333
-0.106065029994212,-0.0924679917627139
-0.105135766181597,-0.101425101854675
-0.103901732789331,-0.110409065238652
-0.102360339939419,-0.119409511741807
-0.100509350455855,-0.128415935471173
-0.0983468858187461,-0.137417706799795
-0.0958714317115379,-0.146404084592445
-0.0930818431521892,-0.155364228657103
-0.0899773491996123,-0.164287212408079
-0.0865575572271634,-0.173162035726321
-0.0828224567554668,-0.18197763800214
-0.0787724228373553,-0.190722911345303
-0.0744082189882239,-0.199386713947181
-0.0697309996556129,-0.207957883579354
-0.0647423122223721,-0.216425251212873
-0.0594440985382967,-0.22477765474214
-0.0538386959756736,-0.23300395279716
-0.0479288380047346,-0.241093038627762
-0.0417176542855755,-0.249033854043193
-0.0352086702736702,-0.256815403390375
-0.0284058063366825,-0.264426767553954
-0.0213133763808604,-0.271857117961212
-0.0139360859858815,-0.27909573057478
-0.00627903004760388,-0.286131999856059
0.00165231007122879,-0.2929554526822
0.0098520698816891,-0.299555762199466
0.0183140055995391,-0.305922761595796
0.0270314984644455,-0.312046457775418
0.0359975595451103,-0.317917044918375
0.0452048350272982,-0.323524917907916
0.0546456119811432,-0.328860685608732
0.0643118246035317,-0.333915183979183
0.0741950609307625,-0.338679489000712
0.0842865700161078,-0.343144929407835
0.0945772695663079,-0.347303099202224
0.105057754030462,-0.351145869934591
0.115718303134205,-0.354665402738277
0.126548890851491,-0.357854160098679
0.137539194805748,-0.360704917342871
0.14867860609163,-0.363210773834051
0.159956239508014,-0.3653651638557
0.171360944192403,-0.367161867170675
0.182881314646339,-0.368595019240726
0.194505702140917,-0.369659121092293
0.20622222649101,-0.370349048814788
0.218018788186294,-0.37066006267792
0.229883080866711,-0.370587815855023
0.241802604129509,-0.370128362739744
0.253764676654568,-0.369278166843869
0.265756449634285,-0.368034108264505
0.277764920493825,-0.366393490709284
0.28977694688719,-0.364354048068713
0.301779260954113,-0.361913950525304
0.313758483822434,-0.359071810189573
0.325701140340244,-0.355826686253549
0.337593674021727,-0.352178089652915
0.349422462190315,-0.348125987229479
0.36117383130245,-0.343670805386179
0.372834072434956,-0.338813433227424
0.384389456918755,-0.333555225178105
0.395826252101392,-0.327898003075216
0.407130737220618,-0.321844057726602
0.418289219371048,-0.315396149931946
0.429288049545705,-0.308557510961724
0.440113638734133,-0.301331842490451
0.45075247405853,-0.293723315981185
0.461191134929296,-0.285736571518849
0.471416309201224,-0.277376716090608
0.481414809311488,-0.26864932131213
0.491173588380521,-0.259560420599207
0.500679756256804,-0.250116505784903
0.509920595486587,-0.240324523182961
0.518883577189529,-0.230191869098921
0.527556376821295,-0.219726384791006
0.535926889804143,-0.208936350883508
0.543983247006641,-0.197830481236024
0.551713830053706,-0.186417916272574
0.559107286448265,-0.174708215775258
0.566152544485982,-0.162711351147751
0.572838827944631,-0.150437697154575
0.57915567052986,-0.137898023142739
0.585092930059298,-0.125103483752947
0.590640802367164,-0.112065609128192
0.595789834911772,-0.0987962946282138
0.600530940068583,-0.0853077900588586
0.604855408091739,-0.0716126884260106
0.608754919727296,-0.0577239142243557
0.612221558461714,-0.0436547112718207
0.615247822389497,-0.0294186301010992
0.617826635684203,-0.0150295149202557
0.619951359657483,-0.00050149015494063
0.621615803391143,0.0141510534147136
0.622814233927692,0.0289134729088968
0.623541386005238,0.0437708879805207
0.62379247132306,0.0587081958105804
0.623563187324667,0.0737100864513772
0.622849725485625,0.0887610585020224
0.621648779093936,0.103845435100187
0.619957550511301,0.118947380213626
0.617773757904102,0.134050915214579
0.615095641433501,0.149139935719753
0.611921968894633,0.164198228678196
0.608252040795432,0.179209489689006
0.604085694866226,0.194157340530484
0.599423309991841,0.209025346881978
0.594265809558588,0.223797036219395
0.5886146642091,0.238455915865043
0.582471893998664,0.252985491172187
0.575840069947314,0.267369283824505
0.568722314982618,0.281590850230334
0.561122304268773,0.295633799991456
0.553044264918262,0.309481814425943
0.544492975083047,0.323118665124465
0.535473762422938,0.336528232519274
0.525992501949466,0.349694524445027
0.516055613244316,0.362601694670462
0.505670057052036,0.37523406137991
0.494843331247479,0.387576125583567
0.483583466179133,0.399612589435434
0.471899019390185,0.411328374437838
0.459799069719908,0.422708639511456
0.44729321078864,0.43373879890986
0.434391543870358,0.444404539957617
0.421104670157541,0.454691840591118
0.40744368242373,0.464586986681423
0.3934201560899,0.474076589118554
0.379046139701443,0.483147600636822
0.364334144823278,0.491787332361014
0.349297135361272,0.499983470053415
0.333948516318842,0.507724090041951
0.318302121998308,0.514997674809955
0.302372203657183,0.521793128228361
0.286173416630314,0.528099790411448
0.269720806929368,0.533907452177571
0.25302979733184,0.539206369096691
0.236116172972389,0.543987275106873
0.21899606644989,0.54824139568233
0.201685942464226,0.551960460536006
0.184202581997439,0.555136715840142
0.16656306605439,0.5577629359487
0.148784758978713,0.559832434606038
0.130885291360317,0.561339075626699
0.112882542551295,0.56227728303171
0.0947946228075433,0.562642050627322
0.0766398550739621,0.56242895101267
0.0584367564315321,0.561634144003412
0.0402040192250465,0.560254384459002
0.0219604918907303,0.558287029501826
0.00372515950337834,0.555730045117097
-0.014482875936935,0.552582012123004
-0.0326444154581492,0.548842131501272
-0.050740183288723,0.544510229078963
-0.0687508472282231,0.53958675955301
-0.086657039194551,0.534072809849675
-0.104439375926069,0.527970101811818
-0.122078479816603,0.521280994207584
-0.139554999861073,0.514008484054815
-0.156849632689256,0.506156207256254
-0.173943143664997,0.497728438541328
-0.190816388028,0.488730090711043
-0.207450332055189,0.479166713183294
-0.223826074218489,0.469044489836633
-0.239924866315784,0.458370236151317
-0.255728134551731,0.447151395647229
-0.271217500545048,0.435396035619025
-0.28637480223889,0.423112842169648
-0.3011821146909,0.410311114544126
-0.315621770719565,0.39700075876635
-0.329676381383563,0.383192280582298
-0.343328856270844,0.368896777713976
-0.35656242357431,0.354125931429086
-0.369360649931088,0.33889199743224
-0.381707460002528,0.323207796084294
-0.39358715577227,0.307086701957152
-0.404984435539891,0.290542632732132
-0.415884412587918,0.273590037450783
-0.426272633500215,0.25624388412775
-0.436135096110065,0.238519646736042
-0.445458267056545,0.220433291575825
-0.454229098928163,0.202001263038513
-0.462435046973047,0.183240468778726
-0.470064085355375,0.164168264307339
-0.477104722938153,0.144802437019546
-0.483546018572848,0.12516118967256
-0.489377595876856,0.105263123328215
-0.494589657480259,0.0851272197764097
-0.499172998723807,0.06477282345595
-0.503119020790611,0.0442196228899912
-0.506419743254524,0.0234876316538689
-0.509067816028803,0.00259716889370141
-0.511056530699189,-0.0184311605852697
-0.512379831226155,-0.0395764866411014
-0.51303232400169,-0.0608176945082844
-0.513009287246632,-0.0821334458810364
-0.512306679735219,-0.103502200345703
-0.510921148834175,-0.124902237140741
-0.508850037844389,-0.146311677222309
-0.506091392633897,-0.167708505613069
-0.502643967551643,-0.189070594011377
-0.498507230612188,-0.210375723637684
-0.493681367942332,-0.231601608294581
-0.488167287481333,-0.252725917616623
-0.481966621927208,-0.273726300485707
-0.475081730922378,-0.294580408587555
-0.467515702472715,-0.315265920084537
-0.459272353594851,-0.335760563379866
-0.450356230187437,-0.356042140947994
-0.440772606122837,-0.376088553205829
-0.430527481556603,-0.395877822399272
-0.419627580452886,-0.415388116479428
-0.408080347324794,-0.434597772942738
-0.395893943189544,-0.453485322609234
-0.383077240739112,-0.472029513313046
-0.369639818727936,-0.490209333479298
-0.355591955580063,-0.508004035561517
-0.34094462221902,-0.525393159313751
-0.325709474124491,-0.542356554871623
-0.309898842620807,-0.558874405616675
-0.293525725403009,-0.574927250798468
-0.276603776307199,-0.590496007889052
-0.259147294332655,-0.605561994644617
-0.241171211924057,-0.620106950849312
-0.222691082523013,-0.634113059716512
-0.203723067398882,-0.64756296892301
-0.184283921769713,-0.660439811251955
-0.164390980224942,-0.672727224820656
-0.144062141462273,-0.684409372869711
-0.123315852351975,-0.695470963090308
-0.102171091342595,-0.705897266466939
-0.080647351222845,-0.715674135613193
-0.0587646212552178,-0.724788022578736
-0.036543368697566,-0.733225996106088
-0.0140045197296546,-0.740975758316283
0.00883056019762163,-0.748025660803026
0.0319400865719551,-0.754364720115545
0.0553018765692098,-0.759982632610854
0.0788933703231397,-0.764869788656795
0.102691652694874,-0.769017286167799
0.126673475521175,-0.772416943455991
0.150815280319881,-0.775061311380883
0.175093221430366,-0.776943684781621
0.199483189566282,-0.778058113176422
0.223960835757325,-0.778399410714581
0.248501595656252,-0.777963165367155
0.27308071418688,-0.776745747343204
0.297673270508332,-0.774744316719219
0.322254203270391,-0.77195683027019
0.346798336134337,-0.768382047491542
0.371280403533327,-0.764019535802014
0.395675076645967,-0.758869674918379
0.419956989556433,-0.75293366039375
0.444100765574123,-0.746213506312073
0.468081043685629,-0.738712047132308
0.491872505111488,-0.730432938676628
0.515449899939996,-0.721380658257916
0.538788073810161,-0.71156050394269
0.561861994615688,-0.700978592946524
0.584646779201797,-0.689641859159934
0.607117720026509,-0.677558049803621
0.629250311758016,-0.664735721212877
0.651020277779672,-0.651184233751904
0.67240359657413,-0.636913745859718
0.693376527958178,-0.621935207230227
0.713915639139856,-0.606260351130037
0.733997830569523,-0.58990168585844
0.753600361556653,-0.572872485354984
0.772700875624242,-0.555186778960967
0.791277425572947,-0.536859340342073
0.809308498227185,-0.517905675580361
0.82677303883572,-0.49834201044467
0.843650475099498,-0.478185276849448
0.85992074079977,-0.457453098512898
0.875564298999864,-0.436163775826246
0.890562164794359,-0.41433626994678
0.904895927579693,-0.391990186128263
0.918547772820761,-0.369145756303066
0.931500503288398,-0.345823820931356
0.943737559743163,-0.322045810133386
0.955243041041314,-0.297833724121831
0.96600172363935,-0.273210112951937
0.975999080474126,-0.248198055607938
0.985221299196001,-0.222821138445132
0.993655299733204,-0.19710343300758
1.00128875116611,-0.171069473242327
1.00811008789087,-0.144744232131575
1.01410852505239,-0.118153097765087
1.01927407322754,-0.0913218488757002
1.02359755233994,-0.0642766298614882
1.02707060478863,-0.0370439253187945
1.02968570777363,-0.00965053411089355
1.03143618480206,0.0178764570022949
1.03231621635955,0.0455097001475198
1.03232084973214,0.0732216135080351
1.03144600796515,0.100984408853005
1.02968849794588,0.12877011939893
1.02704601759828,0.156550627975265
1.02351716217846,0.184297695465752
1.01910142966066,0.211982989496813
1.01379922520458,0.239578113343824
1.00761186469554,0.26705463502578
1.00054157735019,0.294384116558643
0.992591507381134,0.321538143337229
0.983765714715162,0.348488353615405
0.974069174760439,0.375206468053994
0.963507777219163,0.401664319305751
0.952088323943162,0.427833881606468
0.939818525830877,0.453687300341282
0.926706998765189,0.479196921555071
0.912763258592586,0.504335321375795
0.897997715145127,0.529075335319655
0.882421665307718,0.553390087446884
0.866047285134207,0.577253019337061
0.848887621016821,0.600637918852935
0.830956579914484,0.623518948661789
0.81226891864658,0.645870674483584
0.79284023225968,0.66766809303526
0.772686941475857,0.688886659640752
0.75182627923206,0.709502315476607
0.730276276321193,0.729491514423235
0.708055746146337,0.74883124949225
0.685184268600677,0.767499078800618
0.661682173086606,0.785473151062711
0.637570520688375,0.802732230571807
0.612871085513731,0.819255721642937
0.587606335220755,0.835023692489532
0.56179941074719,0.850016898506705
0.535474105260291,0.864216804934659
0.508654842346248,0.877605608876132
0.481366653459002,0.890166260642485
0.453635154649188,0.901882484403576
0.425486522594728,0.912738798117231
0.396947469955416,0.922720532714814
0.368045220074658,0.931813850520033
