-0.798484848484848,0.600911820272489
-0.779741109572329,0.59919967331454
-0.760484237423973,0.599597818315934
-0.740921776215424,0.6012527171028
-0.721133683553776,0.603835539103353
-0.701168984141169,0.607144667217968
-0.681062528214075,0.611036777707946
-0.660841130521681,0.615401593269752
-0.640526470702862,0.620149955056521
-0.620136679032148,0.625207301200317
-0.599687291695554,0.630509738181608
-0.579191867810914,0.63600150329523
-0.558662409554156,0.641633236855261
-0.538109660311591,0.647360756025422
-0.517543323453146,0.653144155100718
-0.49697222733551,0.658947126921845
-0.476404452651091,0.6647364391448
-0.455847432657923,0.670481522039212
-0.4353080334031,0.676154138564562
-0.414792618876309,0.68172811642226
-0.394307104603113,0.687179127649969
-0.373857002226231,0.692484505278375
-0.353447456959765,0.697623089298363
-0.333083279333992,0.702575096108608
-0.312768972312782,0.707322006993534
-0.292508754620666,0.711846472189304
-0.272306580934924,0.716132227842629
-0.252166159461447,0.720164023728956
-0.232090967309127,0.723927560024326
-0.212084263997418,0.72740943175472
-0.192149103369291,0.730597079803295
-0.172288344132744,0.733478747557764
-0.152504659215088,0.736043442440339
-0.132800544082997,0.738280901691002
-0.11317832415616,0.740181561878409
-0.0936401614218583,0.741736531697031
-0.0741880603410035,0.742937567678214
-0.054823873122294,0.743777052499886
-0.0355493044296245,0.744247975627047
-0.0163659155782268,0.744343916054878
0.00272487173311405,0.744059026959776
0.0217217721133352,0.74338802209202
0.0406236335593271,0.742326163768044
0.0594294348956811,0.740869252341238
0.0781382835489251,0.739013617048358
0.0967494136350947,0.736756108144545
0.115262184342912,0.734094090254045
0.133676078597904,0.731025436876325
0.151990701995574,0.727548525998652
0.170205781994258,0.72366223677669
0.188321167360689,0.719365947254343
0.206336827863506,0.714659533103274
0.224252854212081,0.709543367371348
0.242069458240155,0.704018321237847
0.259786973335848,0.698085765781894
0.277405855121714,0.691747574779233
0.294926682390705,0.685006128551444
0.312350158306209,0.677864318901162
0.329677111876744,0.670325555176851
0.346908499718567,0.662393771521643
0.36404540812235,0.654073435372667
0.381089055443313,0.645369557290624
0.398040794837845,0.6362877022143
0.414902117373771,0.626834002251734
0.431674655546154,0.617015171139177
0.448360187236017,0.606838520521569
0.464960640155722,0.596311978234439
0.481478096832256,0.585444108797967
0.497914800188512,0.574244136370359
0.514273159793209,0.562721970451019
0.530555758862719,0.550888234675985
0.546765362113316,0.538754299110799
0.562904924580917,0.526332316522225
0.578977601548059,0.513635263203564
0.594986759745884,0.500676985043484
0.610935990033698,0.48747224967151
0.626829121802378,0.474036805692896
0.642670239403138,0.460387450252957
0.658463700973807,0.446542106461273
0.674214160125908,0.432519912581157
0.689926591074869,0.41834132537917
0.705606317952929,0.404028240676263
0.721259049254944,0.389604135008255
0.736890918653425,0.375094233480211
0.752508533814303,0.360525710524237
0.768119035400254,0.345927932554322
0.783730169244798,0.331332754786713
0.799350375847893,0.31677488929608
0.814988903099571,0.302292368598362
0.830655950855776,0.287927140227817
0.846362860339863,0.273725845662297
0.862122368580035,0.259740866712853
0.877948960703683,0.246031774355841
0.893859376142615,0.23266741053305
0.909873370648016,0.219729021985019
0.926014934712265,0.207315271085644
0.942314407377967,0.195550929011662
0.95881260072258,0.184603837939124
0.975570510637095,0.174724847217327
0.992702657992838,0.166384930965766
-0.798484848484848,0.600911820272489
-0.781047682874755,0.593826310332303
-0.764123650500498,0.584630508432774
-0.747505207186434,0.574177952747774
-0.731112395325468,0.562797473849088
-0.714896190215463,0.550690688836338
-0.698821741619944,0.538000921448226
-0.682862234789724,0.524838448988287
-0.66699599008593,0.511292430303384
-0.651204877234031,0.497437427261453
-0.635473360048012,0.483337333382028
-0.61978787941004,0.469047911370272
-0.604136433144184,0.454618520912107
-0.588508277864136,0.440093344843812
-0.572893710199968,0.425512288870382
-0.557283901794991,0.410911660151121
-0.541670771956797,0.396324691030031
-0.526046887427351,0.381781951237486
-0.510405382159561,0.367311677814001
-0.49473989216374,0.352940043058169
-0.479044501914323,0.338691374932326
-0.463313699768591,0.324588340405786
-0.447542340512444,0.310652099487663
-0.431725613615604,0.296902435779285
-0.415859016114201,0.283357867996225
-0.399938329283704,0.27003574590232
-0.383959598446833,0.256952333350861
-0.367919115397697,0.2441228805664
-0.351813403027404,0.231561687372896
-0.3356392018165,0.219282158744368
-0.319393457922014,0.207296853797659
-0.303073312635948,0.195617529145056
-0.28667609303099,0.184255177364347
-0.270199303640468,0.17322006121555
-0.253640619044692,0.162521744130008
-0.236997877256381,0.152169117413253
-0.220269073814623,0.142170424533936
-0.203452356510719,0.132533282814129
-0.186546020680776,0.123264702788834
-0.16954850500956,0.114371105462869
-0.152458387798288,0.105858337659837
-0.135274383655896,0.0977316856294584
-0.117995340579275,0.0899958870553006
-0.100620237393016,0.0826551415839726
-0.0831481815236469,0.0757131199787183
-0.0655784070872034,0.0691729719843975
-0.0479102732724074,0.063037332976763
-0.0301432630047868,0.0573083294563496
-0.0122769818798435,0.0519875834358886
0.00568884264408591,0.047076215759716
0.0237543618002673,0.0425748483839292
0.0419196058200633,0.038483605636864
0.0601844839941018,0.0348021144706557
0.0785487844886407,0.0315295037060232
0.0970121739155604,0.0286644022638413
0.115574196652308,0.0262049363683688
0.13423427390593,0.0241487256980233
0.152991702513039,0.0224928784501717
0.171845653465117,0.0212339852763486
0.190795170145907,0.0203681120334223
0.209839166264737,0.0198907912842638
0.228976423466387,0.0197970124681735
0.248205588594468,0.0200812106463626
0.267525170581155,0.0207372537107948
0.286933536931386,0.0217584279252175
0.306428909764136,0.0231374216446912
0.326009361367043,0.0248663070336874
0.345672809213123,0.0269365195720251
0.36541701037948,0.0293388351014991
0.385239555297396,0.0320633441227053
0.405137860750498,0.0350994229996054
0.425109162022514,0.0384357016666571
0.445150504077527,0.0420600273570967
0.465258731632998,0.0459594237776241
0.485430477957787,0.0501200450395694
0.505662152192585,0.0545271235134099
0.525949924946518,0.0591649105938891
0.546289711868371,0.0640166091356943
0.566677154820315,0.0690642960292444
0.587107600190827,0.0742888330112257
0.607576073764479,0.0796697633150787
0.628077251409032,0.0851851911198522
0.648605424629631,0.0908116398897255
0.669154459753762,0.0965238845196359
0.689717749115498,0.102294750577476
0.710288152052159,0.108094871649256
0.730857922730229,0.113892392518731
0.751418620649746,0.119652601111231
0.771960997920682,0.125337464910814
0.79247485468709,0.130905036383225
0.812948849725616,0.136308674050611
0.833370246008056,0.141495996101921
0.853724558407022,0.146407431560799
0.873995047490703,0.150974138485456
0.894161957507915,0.155114870135352
0.914201297966279,0.158730964136594
0.93408272982319,0.161697649312441
0.95376544100119,0.163847083486845
0.973188435609288,0.164928417310509
0.992237192776158,0.164470676663935
