0.775773538313349,-0.639077290556917
0.787317746682923,-0.628656931344595
0.797989491446414,-0.617268816774265
0.807753181583114,-0.604953819377804
0.816577483844278,-0.591756781895889
0.824435551351003,-0.577726220258555
0.831305225951151,-0.562914006248589
0.837169212976787,-0.547375031873905
0.842015227211735,-0.531166857583177
0.845836109054592,-0.514349346553812
0.848629910044856,-0.496984287362172
0.850399947107504,-0.479135007412394
0.85115482506333,-0.46086597955179
0.850908427147374,-0.442242424337288
0.849679873474695,-0.423329910438539
0.847493447590242,-0.404193955669032
0.844378491436595,-0.384899631126754
0.840369269268501,-0.365511170900802
0.835504801235326,-0.34609158975989
0.829828667540507,-0.326702311183356
0.823388784269763,-0.307402808025242
0.81623715215593,-0.288250258017876
0.808429579716865,-0.269299216223581
0.800025382362815,-0.250601306432301
0.791087059219927,-0.23220493337985
0.781679949556371,-0.214155017526777
0.771871870825856,-0.196492753992493
0.76173274045944,-0.17925539708419
0.751334183639688,-0.162476071696097
0.740749129380788,-0.14618361268293
0.730051397313667,-0.13040243313294
0.719315277635893,-0.115152422281966
0.708615106731935,-0.100448873621453
0.698024840999811,-0.0863024435616892
0.687617631435105,-0.0727191408177535
0.677465401522679,-0.0597003464910616
0.667638430970183,-0.0472428646251615
0.658204947785657,-0.0353390028217584
0.649230731154438,-0.0239766823130813
0.640778727508438,-0.0131395767007867
0.632908682104013,-0.00280727839081607
0.625676788333632,0.00704450842091467
0.619135356891847,0.0164437495242951
0.613332506798357,0.0254218387033851
0.608311880150953,0.0340133335979065
0.604112382339585,0.042255671177536
0.600767949300658,0.0501888647166335
0.59830734322875,0.0578551842730295
0.596753977992348,0.0652988227778036
0.596125775321926,0.07256554993296
0.596435052653789,0.0797023561899883
0.597688443322799,0.0867570891440214
0.599886849602459,0.0937780847252793
0.603025428893135,0.100813795601425
0.607093613159577,0.107912419221169
0.612075161518642,0.115121527930821
0.617948245678442,0.122487703581527
0.624685567732204,0.130056179015695
0.632254509615266,0.137870488776812
0.640617313342903,0.145972131327788
0.649731290961372,0.154400244989441
0.659549062965727,0.163191299723261
0.670018823766723,0.172378806781744
0.681084632626585,0.181993048135884
0.692686728330466,0.192060827463712
0.70476186571809,0.202605244346739
0.717243672069173,0.213645493173705
0.730063021217614,0.225196688094117
0.743148423163763,0.237269715198538
0.756426426862065,0.249871112929664
0.76982203378354,0.263002981548819
0.783259119789372,0.276662922297842
0.796660862803762,0.290844006707549
0.809950173741374,0.305534776312193
0.823050128127458,0.32071927283583
0.835884395847088,0.336377098722472
0.848377666473941,0.352483507688506
0.86045606765859,0.369009524784379
0.872047574101188,0.38592209526411
0.88308240469336,0.403184261377043
0.893493405488811,0.420755366017511
0.90321641625105,0.438591281995853
0.912190618429174,0.45664466552964
0.920358862528315,0.474865232398003
0.92766797296925,0.493200055055622
0.93406902867117,0.511593878867178
0.939517617741702,0.52998945549865
0.943974064818185,0.548327891389657
0.947403629772772,0.566549009131755
0.949776676670273,0.58459171949177
0.951068812050574,0.602394401747564
0.951260991795875,0.619895289946407
0.95033959603571,0.637032862653833
0.948296471738601,0.653746233733691
0.945128942836928,0.66997554168832
0.940839787930119,0.685662335091383
0.935437185809189,0.700749951664963
0.928934629241862,0.715183888586848
0.921350807650803,0.728912161663439
0.912709459506529,0.741885651067959
0.903039195440457,0.754058431422376
0.892373293260838,0.765388084094109
0.880749466224219,0.775835989684601
0.868209606076311,0.78536759880566
0.854799502527874,0.793952679370238
0.840568540972437,0.801565538766315
0.825569380382533,0.80818521943488
0.809857613438865,0.813795666534761
0.79349141105165,0.818385866547147
0.776531153524754,0.821949955850167
0.759039050690507,0.824487298477634
0.741078753405863,0.826002532464924
0.722714958848424,0.826505584377827
0.70401301208353,0.826011651815795
0.685038506390928,0.824541153878198
0.665856884841346,0.822119649779711
0.646533045599677,0.818777725997603
0.627130953402473,0.814550852528218
0.607713259613269,0.809479209021217
0.588340933200153,0.803607481746869
0.569072904906471,0.796984632532831
0.549965726797865,0.789663640981183
0.53107324926777,0.78170122144299
0.51244631746952,0.773157516385311
0.494132489017121,0.76409576793329
0.476175774659334,0.754581969506991
0.458616403483813,0.744684499597961
0.441490614050599,0.734473739843446
0.424830472688312,0.724021679656009
0.408663720012835,0.713401509752365
0.393013646548407,0.702687206997031
0.377898998145767,0.691953113033473
0.363333911702656,0.681273509217362
0.349327881499617,0.670722190393164
0.335885756269997,0.660372040066354
0.323007766928363,0.650294609518992
0.310689584687647,0.640559703396235
0.298922409103205,0.631234974255767
0.287693085393024,0.622385528521203
0.276984250198541,0.614073546214685
0.26677450477122,0.606357916763447
0.257038614397268,0.599293893080647
0.24774773270762,0.592932766012719
0.238869649363845,0.587321561124674
0.230369059463612,0.58250275966179
0.222207852873001,0.578514045381858
0.214345421567851,0.5753880787975
0.206738982953505,0.573152300203856
0.19934391703222,0.571828762694376
0.192114115201034,0.571433996187365
0.185002338390264,0.571978903299608
0.177960582194824,0.573468687711877
0.170940446607242,0.575902815475636
0.163893507933152,0.579275009511915
0.15677169045714,0.583573277353497
0.149527635429302,0.588779971981277
0.142115064960658,0.594871885406328
0.134489138448592,0.601820374451909
0.126606799201501,0.60959151799573
0.118427108994576,0.618146304743269
0.109911568365671,0.627440850419199
0.101024420551098,0.63742664308688
0.0917329370653228,0.648050815136779
0.0820076830452789,0.659256440324389
0.0718227606086612,0.670982854087881
0.0611560286152512,0.683165995236137
0.0499892973702458,0.695738766969942
0.038308496967743,0.708631415083651
0.0261038181399713,0.721771921092339
0.0133698246525401,0.735086407940932
0.000105536466781297,0.748499555877574
-0.0136855169239364,0.761935026014067
-0.0279952733873838,0.775315889051869
-0.0428111454863061,0.788565056623228
-0.0581160582703258,0.801605712683635
-0.0738885173493251,0.814361742394078
-0.0901027068786968,0.826758155949461
-0.106728616896022,0.838721504842954
-0.123732199261247,0.850180288104725
-0.141075551269546,0.861065346117205
-0.158717125828818,0.871310239687286
-0.176611966923359,0.880851612148231
-0.19471196892273,0.889629532369963
-0.212966158141188,0.897587816675191
-0.231320994909283,0.904674327789676
-0.249720694286195,0.910841249097224
-0.268107563420012,0.916045332622576
-0.286422353454061,0.920248119327568
-0.304604623781467,0.923416130476548
-0.322593116367765,0.925521029005101
-0.340326137793272,0.926539750010562
-0.357741946613414,0.926454599672371
-0.374779143596662,0.925253322103983
-0.391377062376402,0.922929133834445
-0.407476158045112,0.919480725815873
-0.423018391226726,0.914912233051495
-0.437947605185916,0.909233172136538
-0.452209893571196,0.902458347199876
-0.465753956441989,0.894607724926614
-0.478531442297643,0.885706279529739
-0.490497273908729,0.875783808721228
-0.501609955846925,0.864874721908598
-0.511831861719135,0.853017802010703
-0.521129499233329,0.8402559424455
-0.529473751357255,0.826635860991727
-0.536840091975832,0.812207792364882
-0.54320877460784,0.797025161474763
-0.548564992906387,0.781144239446449
-0.552899011839779,0.764623784588082
-0.556206268628518,0.747524670576731
-0.558487442699323,0.729909504207289
-0.559748494107043,0.711842235108449
-0.560000670068974,0.693387759873884
-0.559260479452207,0.674611523085598
-0.557549635252017,0.655579117719865
-0.554894965296691,0.636355887424138
-0.551328291610461,0.617006533135815
-0.546886279059988,0.597594726480906
-0.541610254100133,0.578182732342762
-0.535545994620138,0.558831042928227
-0.528743492070945,0.539598025581464
-0.521256687226798,0.520539586504654
-0.513143181098697,0.501708852440351
-0.504463922672515,0.483155872253245
-0.4952828752897,0.464927340220056
-0.485666663622701,0.447066342696181
-0.475684203319506,0.429612129677331
-0.465406315501449,0.412599912614731
-0.45490532839484,0.396060689674506
-0.444254668459562,0.380021099456634
-0.433528443445881,0.364503304007504
-0.422801019864076,0.349524901773761
-0.41214659738958,0.335098870954842
-0.401638782749121,0.321233543518796
-0.391350165640439,0.307932609951581
-0.381351899229768,0.295195154615494
-0.371713287747184,0.283015721398782
-0.362501383660497,0.271384409147052
-0.353780596853671,0.260286996179059
-0.345612318166237,0.249705093005981
-0.338054559566136,0.239616322195467
-0.331161613130538,0.229994524150759
-0.32498373089786,0.220809987412086
-0.319566827530249,0.212029701933244
-0.314952207589961,0.203617633641937
-0.311176319086055,0.195535018458757
-0.30827053479072,0.187740673827642
-0.306260962658149,0.180191325700903
-0.305168286504329,0.172841948825194
-0.305007637924345,0.16564611809172
-0.305788500236108,0.158556368645001
-0.307514645046747,0.151524562390134
-0.310184101841614,0.144502258498997
-0.313789160797019,0.137441085491509
-0.318316408817754,0.130293112459
-0.323746798600297,0.123011217003061
-0.33005575032367,0.115549447484859
-0.337213285373352,0.107863377216691
-0.34518419131069,0.0999104482792839
-0.35392821711214,0.0916503027146845
-0.363400297520383,0.0830450989251589
-0.373550805174279,0.0740598112027376
-0.384325829017523,0.0646625104214205
-0.395667477328062,0.0548246240438376
-0.40751420356254,0.0445211737256328
-0.419801153073343,0.0337309889431969
-0.432460528630948,0.0224368952226779
-0.445421972572063,0.0106258757095436
-0.458612963295127,-0.00171079501267557
-0.471959223739737,-0.0145774457695179
-0.485385139416009,-0.0279739330415072
-0.498814183494201,-0.0418955951548574
-0.512169346424379,-0.0563332367725724
-0.525373567530922,-0.0712731438487483
-0.538350166017128,-0.0866971290149653
-0.551023268821445,-0.102582607173793
-0.563318232788557,-0.118902700881828
-0.575162058655864,-0.135626374914592
-0.586483794408341,-0.152718599219182
-0.597214925622124,-0.170140539278942
-0.607289750499024,-0.187849772738857
-0.616645737389988,-0.205800530971777
-0.625223862714671,-0.223943964105213
-0.632968927306199,-0.242228427877171
-0.639829849343961,-0.260599790548324
-0.645759932182221,-0.279001757967645
-0.650717105537421,-0.297376214770216
-0.654664138661445,-0.315663579580123
-0.657568824300688,-0.3338031719987
-0.659404132420548,-0.351733589079578
-0.660148332860763,-0.369393088927473
-0.659785086277739,-0.386719979007878
-0.658303502924451,-0.403653006720023
-0.655698169015479,-0.420131749766003
-0.651969140623,-0.436097003844897
-0.647121905247959,-0.451491165211977
-0.641167311407829,-0.46625860566993
-0.634121466777298,-0.480346037600845
-0.626005605609511,-0.493702866704725
-0.616845926352125,-0.506281530181784
-0.606673400553148,-0.518037818181558
-0.595523554325267,-0.528931176441265
-0.58343622380306,-0.538924988148385
-0.570455286184088,-0.547986833187261
-0.556628368091456,-0.556088723066055
-0.54200653313105,-0.563207309967657
-0.526643950640577,-0.569324068525301
-0.51059754773888,-0.574425449089702
-0.493926646882181,-0.578503001428458
-0.47669259121831,-0.581553467979251
-0.458958360100008,-0.583578845964814
-0.440788177173802,-0.584586417868643
-0.422247113501227,-0.584588749964812
-0.403400688194158,-0.583603658791804
-0.384314469055629,-0.581654145657738
-0.36505367571158,-0.578768299461642
-0.345682787697647,-0.574979168311128
-0.326265159928472,-0.570324600609896
-0.306862647925361,-0.564847056477619
-0.287535245111724,-0.558593390548861
-0.268340734405046,-0.551614607375532
-0.249334356239721,-0.543965590827956
-0.230568495047448,-0.535704809051818
-0.212092386101734,-0.526893996691057
-0.193951844501261,-0.517597816229253
-0.176189017924024,-0.50788350043335
-0.158842164631423,-0.497820478002749
-0.141945458039617,-0.487479984633295
-0.125528819005597,-0.476934661798706
-0.109617776798552,-0.46625814563094
-0.0942333595444051,-0.45552464834554
-0.0793920147439434,-0.444808534707473
-0.0651055602739505,-0.434183896067349
-0.0513811660874177,-0.423724124516706
-0.038221366634369,-0.413501489714327
-0.0256241038304225,-0.403586720923208
-0.0135828002070139,-0.394048596769855
-0.0020864616865387,-0.384953545194341
0.0088801907613506,-0.376365256001087
0.0193365615082178,-0.36834430834719
0.0293059938022346,-0.360947815417515
0.0388155577217189,-0.354229088434522
0.0478958139791033,-0.348237322036198
0.0565805551594194,-0.343017302928508
0.0649065261192276,-0.33860914358003
0.0729131254027187,-0.335048042576844
0.0806420896507668,-0.332364073096226
0.08813716308529,-0.330582000789138
0.0954437542445808,-0.329721132185077
0.102608582224935,-0.32979519454948
0.109679314749201,-0.330812247934829
0.116704200433617,-0.33277462997294
0.123731697659985,-0.335678933758842
0.130810102480781,-0.339516018977444
0.137987177990002,-0.344271056223943
0.145309787582407,-0.349923604268983
0.152823534498388,-0.356447719821132
0.160572410011157,-0.363812099143438
0.168598452557501,-0.371980250689005
0.176941420043442,-0.380910697733715
0.18563847747209,-0.39055720980372
0.194723901943399,-0.400869061522016
0.20422880696503,-0.411791317333694
0.214180887890691,-0.423265140413922
0.224604190168105,-0.435228123917735
0.235518901933797,-0.447614642596821
0.246941172337236,-0.46035622268674
0.258882956813444,-0.473381927859075
0.271351890351948,-0.486618758937483
0.284351189632142,-0.499992064995235
0.29787958471158,-0.513425963384887
0.311931280765963,-0.526843766198868
0.326495950188318,-0.54016841062304
0.341558755161844,-0.553322890624201
0.357100400626714,-0.566230687406875
0.373097217367593,-0.578816196084871
0.389521274756467,-0.591005146038766
0.406340522496112,-0.6027250124715
0.423518960524188,-0.613905416730557
0.441016836057748,-0.624478513036193
0.458790866583988,-0.634379359340585
0.476794487436455,-0.643546270141965
0.494978122437767,-0.651921149190248
0.513289475940983,-0.659449800145544
0.531673844463387,-0.666082213387672
0.550074445978997,-0.671772827322266
0.568432764820917,-0.676480762686665
0.586688910041994,-0.680170028525227
0.604781984993005,-0.682809698678255
0.622650465802393,-0.684374057810063
0.640232586380591,-0.684842716188885
0.657466727526027,-0.684200692623068
0.674291807678833,-0.682438465153189
0.690647672852722,-0.679551989297154
0.706475483275206,-0.67554268384373
0.721718094281539,-0.670417384388195
0.73632042903833,-0.664188265000504
0.750229840718452,-0.656872728610519
0.763396461809525,-0.648493266885075
0.775773538313349,-0.639077290556917
