0.88797523678406,-0.0873962253245942
0.887440186304126,-0.087151862600228
0.88586329142593,-0.0863638831518651
0.883292835646051,-0.0849532879233451
0.879784606703033,-0.0828461038228405
0.875401390770285,-0.0799740650697951
0.870212404557813,-0.0762752437549455
0.864292670390757,-0.0716946239831119
0.857722339841207,-0.0661846144716821
0.850585971948694,-0.0597054950266991
0.842971772469714,-0.0522257929082878
0.834970800944234,-0.0437225857225524
0.826676152654111,-0.0341817281324849
0.818182122772252,-0.0235980003599776
0.809583360160148,-0.011975177148681
0.80097401836363,0.000673983433037456
0.792446911381634,0.0143278312547215
0.784092681740082,0.028955994643517
0.775998988293128,0.0445196286453978
0.768249720997963,0.0609717388189118
0.760924249668642,0.0782575776786547
0.754096713411215,0.0963151102576097
0.747835357079443,0.115075544640924
0.74220192067085,0.134463922744117
0.737251087110491,0.15439976607131
0.733029993348905,0.174797770698609
0.729577809135815,0.195568545288689
0.726925387227335,0.216619385558721
0.725094988147136,0.23785507829865
0.724100081956878,0.25917872777319
0.723945228804125,0.280492597141245
0.724626039313169,0.301698957392495
0.726129215171819,0.322700936233808
0.728432669551757,0.343403359358626
0.731505726287783,0.363713576600347
0.735309396038629,0.383542265605638
0.739796726965202,0.402804205864072
0.744913226797283,0.421419016194957
0.750597352522808,0.439311849118173
0.756781063330523,0.456414035920448
0.763390431872461,0.472663676668311
0.770346308392357,0.488006169910058
0.777565031794442,0.502394677347047
0.784959181308206,0.515790519334748
0.792438362042534,0.528163497690974
0.79991001742018,0.539492142937169
0.807280261243691,0.549763883772724
0.814454721968683,0.558975137275946
0.82133939165137,0.567131319032513
0.827841471995496,0.574246773106442
0.833870209949568,0.580344622483684
0.839337715398465,0.585456541327817
0.844159753653112,0.589622451084776
0.848256505666645,0.592890143152842
0.851553289193331,0.595314831489147
0.853981234454796,0.596958639148934
0.855477908283901,0.597890023343127
0.855987881176098,0.598183144148193
0.855463232187328,0.597917182504868
0.853863987171902,0.59717561359468
0.851158486448342,0.596045442081211
0.847323678610654,0.594616406043158
0.842345337861242,0.592980156705547
0.836218202923807,0.591229421291251
0.828946036294098,0.589457156465535
0.820541603296879,0.587755699930197
0.811026571132826,0.586215927740327
0.800431328812707,0.58492642486564
0.788794729581852,0.583972676400087
0.776163758129296,0.583436286639263
0.762593125546856,0.583394232996408
0.748144795647853,0.583918161417047
0.732887446867427,0.585073729581977
0.716895874540974,0.58692000376203
0.700250338889034,0.589508914709334
0.683035864521207,0.592884777443095
0.665341497704109,0.597083879217917
0.647259528015052,0.602134139354361
0.628884681320806,0.608054843970322
0.610313291276492,0.614856457983629
0.591642456731244,0.622540516066832
0.572969192552911,0.631099593530841
0.554389581442722,0.640517357400972
0.535997934301951,0.650768697233521
0.51788596663627,0.661819934509605
0.50014199834034,0.673629108741977
0.4828501839966,0.686146337746116
0.466089780549917,0.699314248865267
0.449934458886318,0.713068477306029
0.43445166545232,0.72733822714242
0.419702039604902,0.742046889987172
0.405738891885005,0.757112715814556
0.392607747863892,0.772449529953706
0.380345961626713,0.787967489859499
0.36898240233637,0.803573874913103
0.358537216668807,0.819173902209613
0.349021669233994,0.834671561058263
0.340438062401143,0.849970458753745
0.332779736238337,0.864974670076476
0.326031148562012,0.879589582946386
0.32016803437711,0.893722732688965
0.31515764328043,0.907284617473857
0.310959052704207,0.92018948765413
0.30752355420039,0.932356101967121
0.304795109314445,0.943708443853245
0.302710870976751,0.954176391504888
0.301201765755127,0.963696335670151
0.300193131769094,0.972211739702175
0.299605406569924,0.979673636859935
0.299354858844757,0.986041060426011
0.299354357412114,0.99128140280611
0.299514170643442,0.995370700408527
0.299742789173894,0.998293841763743
0.299947764557756,1.00004469702902
0.300036556381698,1.00062616772401
0.299917380273525,1.00005015625505
0.299500049236138,0.99833745550093
0.298696800795895,0.995517559446411
0.29742310258114,0.991628396553477
0.295598429139016,0.986715988249834
0.293147003055281,0.980834035581851
0.289998493760255,0.974043437719965
0.286088667781462,0.966411746612356
0.281359984636687,0.958012562652235
0.275762133046034,0.948924876750153
0.269252502674003,0.939232364680797
0.261796587187652,0.929022639999338
0.253368315029665,0.918386472191929
0.243950304949931,0.907416977034977
0.233534044010454,0.896208786385631
0.222119986469991,0.884857204809344
0.209717572660621,0.873457360567678
0.196345167682178,0.862103358539746
0.182029920455726,0.85088744263337
0.166807544387756,0.839899175157239
0.150722021596023,0.829224640474024
0.133825233329853,0.818945680037662
0.116176519876139,0.809139165638003
0.0978421738712892,0.799876317335068
0.0788948715334665,0.79122207216645
0.0594130468832467,0.783234509258335
0.0394802145294327,0.775964336467422
0.0191842470555971,0.769454443132006
-0.00138338655205789,0.763739522920689
-0.0221284146473958,0.758845770141778
-0.0429545817624422,0.75479065222103
-0.0637644852418582,0.751582760375846
-0.0844604222159908,0.749221739816392
-0.104945239362422,0.747698300094578
-0.125123177881073,0.746994305506813
-0.144900706150551,0.747082944742208
-0.164187332643323,0.747928978260929
-0.182896391853341,0.749489061193896
-0.200945796230475,0.75171213888126
-0.218258747419307,0.754539911519023
-0.234764400462839,0.757907363766588
-0.2503984750512,0.761743354588484
-0.265103808367803,0.765971262066064
-0.27883084460634,0.770509677424565
-0.291538056796895,0.775273142081792
-0.303192297183269,0.780172921140834
-0.313769073030901,0.785117806424035
-0.323252745409978,0.79001494188185
-0.331636649185333,0.794770664010534
-0.338923133147605,0.799291349778639
-0.345123519932458,0.80348426449527
-0.350257986090145,0.807258402053437
-0.354355363379958,0.81052531004985
-0.357452863066773,0.81319989241729
-0.359595725683733,0.815201182406242
-0.360836799389897,0.816453079016904
-0.361236050688661,0.816885040308657
-0.360860011876033,0.816432727398677
-0.359781170152228,0.815038593401208
-0.358077303850368,0.812652412050089
-0.355830771707771,0.809231741285119
-0.353127761524133,0.804742317662955
-0.350057504913136,0.799158378070245
-0.346711465156439,0.792462905865141
-0.343182505408859,0.784647799247419
-0.339564044678784,0.775713960351146
-0.335949209116846,0.765671304260947
-0.332429986187654,0.754538687867227
-0.329096389273619,0.742343759190702
-0.326035640166769,0.729122728516001
-0.3233313767448,0.714920063371566
-0.3210628929029,0.699788110072325
-0.319304417525063,0.683786645196706
-0.31812443893027,0.666982360994488
-0.317585080823212,0.64944828931133
-0.317741535319672,0.631263169164246
-0.318641558107491,0.612510763604875
-0.320325030249668,0.59327913195977
-0.322823590541601,0.573659863934902
-0.326160341704989,0.553747282411762
-0.330349633042202,0.533637622041665
-0.335396921492746,0.513428190960695
-0.341298712334,0.493216523098317
-0.348042580057845,0.473099528636462
-0.3556072692395,0.453172650192451
-0.36396287450124,0.433529032247926
-0.373071097967989,0.414258711227838
-0.382885581920464,0.395447833449234
-0.393352313680627,0.377177907910967
-0.404410099119774,0.359525100584618
-0.415991100567359,0.34255957649664
-0.428021434324068,0.32634489546542
-0.440421822450875,0.310937466878253
-0.453108293021536,0.296386068366555
-0.465992922593608,0.282731432667563
-0.478984614276329,0.270005906352535
-0.491989904456109,0.258233183460293
-0.504913790984624,0.247428116406769
-0.517660575442982,0.237596605851811
-0.530134711969751,0.228735570500178
-0.542241655082016,0.220832997100535
-0.553888698927526,0.213868070190853
-0.564985800482337,0.207811380427209
-0.575446379351481,0.20262520963196
-0.585188087038836,0.198263890012854
-0.594133538824609,0.194674234343007
-0.602211001722343,0.191796033258626
-0.609355032379044,0.189562615232632
-0.615507059228491,0.187901464223214
-0.620615903704979,0.186734889481864
-0.624638235868287,0.185980741540107
-0.627538960375656,0.185553167982237
-0.629291529357816,0.185363402256424
-0.629878179408074,0.18532057848184
-0.629290090570348,0.185332564977561
-0.627527465907736,0.185306809071986
-0.624599530941612,0.185151185650888
-0.620524452965944,0.184774841868871
-0.615329180956181,0.184089030483228
-0.609049207500355,0.183007924370712
-0.601728254875501,0.181449404955576
-0.593417888069135,0.179335817510008
-0.584177058197104,0.17659468658358
-0.574071580389922,0.173159385174034
-0.563173550804254,0.16896975166441
-0.551560707959085,0.163972649017453
-0.539315744092759,0.158122461233387
-0.526525572682751,0.151381522636799
-0.513280558661063,0.143720476157586
-0.499673718190797,0.135118557404375
-0.485799895140897,0.125563801990804
-0.471754921603853,0.115053174259718
-0.457634769943397,0.103592616251529
-0.443534703934718,0.0911970164744869
-0.429548436567707,0.0778900987500482
-0.415767302024236,0.0637042321195319
-0.402279449213946,0.0486801635024747
-0.389169064060632,0.0328666754862122
-0.376515627474716,0.0163201722941289
-0.364393215628946,-0.000895802379254268
-0.352869848776935,-0.0187111113703707
-0.342006894421087,-0.0370496290203941
-0.331858530151535,-0.0558298997291179
-0.322471270945334,-0.0749658442193445
-0.313883565140037,-0.0943675072165378
-0.306125462683126,-0.113941839879009
-0.299218358613894,-0.133593510003866
-0.293174814063223,-0.15322573278614
-0.287998456365103,-0.172741114725092
-0.283683959167932,-0.192042503154416
-0.280217102719936,-0.211033833822789
-0.277574913787747,-0.229620968968591
-0.275725883956752,-0.247712518417366
-0.274630264362532,-0.265220636381971
-0.274240434220817,-0.282061786862081
-0.274501339865012,-0.298157470819743
-0.275351000371277,-0.313434908648628
-0.276721075257103,-0.327827671853364
-0.278537489185502,-0.341276258308348
-0.280721108098359,-0.353728605968698
-0.283188460743627,-0.36514054045497
-0.285852499156058,-0.375476152523104
-0.288623391303601,-0.384708102056455
-0.291409338824588,-0.39281784587218
-0.294117412556973,-0.399795787313801
-0.296654398402068,-0.405641346299407
-0.298927645973001,-0.410362949204495
-0.300845912453208,-0.413977938673492
-0.302320194132941,-0.416512404168196
-0.303264538201637,-0.418000934768432
-0.303596827550065,-0.418486296433646
-0.303239531576875,-0.418019036607982
-0.302120416297393,-0.416657019699441
-0.300173207415486,-0.414464897580291
-0.297338200438866,-0.411513519835482
-0.293562812390567,-0.407879289023212
-0.288802070190261,-0.403643466702264
-0.283019031343982,-0.398891436419832
-0.276185133184615,-0.393711930237406
-0.268280467542842,-0.388196225697509
-0.259293978393405,-0.382437320397635
-0.249223580708559,-0.376529091537467
-0.238076199453493,-0.37056544793938
-0.225867728370778,-0.364639482109327
-0.212622908916416,-0.358842629904748
-0.198375130422319,-0.353263845308217
-0.183166153262697,-0.347988797670688
-0.16704575748868,-0.343099098587701
-0.150071320060292,-0.338671565307476
-0.132307324441846,-0.334777527243824
-0.113824806930134,-0.33148218178227
-0.0947007446491551,-0.328844005127886
-0.0750173906654275,-0.326914223452327
-0.0548615621496659,-0.325736349059509
-0.0343238879293893,-0.325345785709322
-0.0134980221392761,-0.325769506621727
0.00752016902151686,-0.327025808035173
0.0286334401759734,-0.329124140519166
0.0497440118754855,-0.332065019547146
0.0707544203924508,-0.335840016128693
0.0915683646241434,-0.340431827585788
0.11209154255855,-0.345814427842883
0.132232469846031,-0.351953295891099
0.151903273180264,-0.358805720389431
0.171020451416693,-0.366321177686585
0.189505597644504,-0.374441779891993
0.207286075776478,-0.383102788999623
0.224295645626806,-0.39223319247884
0.240475030906486,-0.401756335198203
0.255772425075123,-0.411590602045443
0.270143930542328,-0.421650145154543
0.283553927306476,-0.431845649252852
0.295975367748029,-0.442085128300981
0.307389994953401,-0.45227474631903
0.317788482627476,-0.462319655076828
0.327170495352364,-0.472124841175341
0.335544668660551,-0.481595974962553
0.342928509105868,-0.490640253710645
0.3493482152294,-0.499167231532438
0.354838421023087,-0.507089628633228
0.359441864185123,-0.514324112678432
0.363208982132176,-0.520792045306073
0.36619743937787,-0.526420187124033
0.368471590499204,-0.531141354902182
0.370101883487199,-0.534895025095917
0.371164208809807,-0.537627878316269
0.371739199999411,-0.53929427988846
0.371911492009647,-0.539856692210823
0.37176894396298,-0.539286015234304
0.371401833228089,-0.53756185202386
0.370902028021881,-0.534672697031325
0.370362145922455,-0.530616045398666
0.369874705805041,-0.52539842231492
0.369531280771553,-0.519035332163211
0.369421659635513,-0.511551127909634
0.369633024447762,-0.502978801897254
0.370249151405227,-0.493359699909441
0.371349642276421,-0.482743161051212
0.373009193205079,-0.471186086658864
0.375296907419841,-0.458752442081252
0.378275657986235,-0.445512695774783
0.382001506290736,-0.431543200713321
0.386523181449473,-0.416925523628701
0.39188162529066,-0.401745728062852
0.398109606974812,-0.386093617624482
0.405231410695547,-0.370061946198173
0.413262599251819,-0.353745602148512
0.422209855605596,-0.337240773793708
0.432070903843189,-0.320644103590248
0.442834510250176,-0.304051838570684
0.454480564495069,-0.287558984610041
0.466980240202233,-0.271258472062136
0.480296233486347,-0.255240340205489
0.494383077325118,-0.239590947770797
0.509187528970471,-0.224392216589036
0.524649026946729,-0.209720915103905
0.540700213563606,-0.195647988136473
0.557267518287236,-0.182237938877359
0.574271796769608,-0.169548268615728
0.591629019840144,-0.157628979199295
0.609251006317439,-0.146522142659871
0.627046193108226,-0.136261541839758
0.644920435727922,-0.126872385220854
0.662777832105667,-0.118371098496355
0.680521562329038,-0.110765194740277
0.698054736841297,-0.104053224328811
0.715281245528618,-0.0982248050560595
0.732106600126717,-0.0932607321712189
0.748438762435811,-0.0891331673513189
0.764188950959414,-0.0858059049193655
0.779272418774818,-0.083234712928659
0.793609195699721,-0.0813677460660999
0.807124788137875,-0.0801460266866166
0.819750830364034,-0.0795039896829989
0.831425681441717,-0.079370086325933
0.842094962452053,-0.0796674416829258
0.851712029244534,-0.0803145597468116
0.860238376495453,-0.0812260699788737
0.867643969472612,-0.0823135086021406
0.873907500549669,-0.0834861276703605
0.879016568184676,-0.0846517246903513
0.882967776768997,-0.0857174853920246
0.885766756458535,-0.0865908321230529
0.887428102812984,-0.0871802702949412
0.88797523678406,-0.0873962253245942
