-0.928982809784542,-0.678137955040029
-0.68925261868427,-0.652223088027236
-0.886900130358527,-0.634773593948043
-0.899899823393881,-0.414938418083313
-0.893788388523268,-0.421173297319743
-0.769790475706224,-0.489997144452952
-0.658604521714558,-0.461421546030817
-0.821872503812471,-0.524014630242035
-0.766571962243932,-0.490586974248946
-0.688819861248063,-0.627779917285787
-0.783546611053498,-0.490281906441943
-0.896027374525443,-0.593474023743141
-0.848872296406793,-0.420399223012238
-0.643656224582399,-0.618470809037277
-0.665715530837378,-0.42727813437174
-0.697910370110139,-0.424748988867838
-0.728942815509941,-0.540840074181868
-0.656422345572697,-0.646312580318395
-0.853126161685577,-0.427483186502479
-0.836423416166066,-0.426911138195152
-0.739824498943176,-0.540935034872152
-0.706185248909583,-0.522231103639405
-0.744595332668911,-0.537476633006552
-0.709389735420478,-0.517809385915382
-0.709720377767284,-0.547342781477113
-0.746422976900983,-0.550625731499416
-0.71768961705191,-0.550009033368227
-0.725581178259235,-0.572957214980317
-0.675713276825503,-0.559652339762531
-0.635237148135189,-0.587711101678185
-0.655489588885125,-0.567105641302107
-0.644743393498637,-0.571275153113708
-0.645783291322823,-0.550859152254318
-0.654582288408563,-0.58139102169934
-0.609983315410943,-0.585571252352919
-0.597564335121487,-0.590930935407049
-0.557894188690134,-0.632088685865883
-0.589984791670676,-0.649613871993761
-0.510961089057164,-0.577598477074166
-0.543831608106693,-0.615266980568955
-0.511881953928531,-0.589261259785324
-0.514608574245726,-0.629098598014303
-0.499431648724642,-0.636404589425563
-0.469909293589079,-0.680381627597409
-0.467987804667179,-0.651749243741064
-0.451738984017252,-0.659766018178202
-0.435151913658224,-0.667996322767111
-0.451044106839002,-0.649084740716714
-0.401005365734858,-0.685044001607453
-0.383468372321517,-0.693832541313834
-0.317718329379281,-0.668165423889597
-0.317566404880688,-0.685882485742007
-0.329147818861785,-0.721067594850248
-0.265301006939775,-0.733306956983532
-0.291639724828201,-0.739776688099207
-0.319159990639253,-0.732225907001062
-0.275905394100449,-0.800550529582169
-0.224532371149481,-0.788530192418089
-0.214022269217035,-0.777844686860046
-0.180316464058703,-0.819660708462273
-0.174152654768278,-0.796880094097616
-0.184033453046544,-0.776445966247342
-0.121261242472903,-0.773676972305624
-0.113376047112945,-0.824955342922115
-0.0929228907908907,-0.834098207331338
-0.072400069430238,-0.843096059979695
-0.0285155151146935,-0.83499677843039
-0.0744062206919913,-0.871701359044252
-0.00666173015785728,-0.827573567797592
-0.0275627044599512,-0.862143290895448
0.0693385653195782,-0.925639857710547
0.0512667241944713,-0.892779613983104
0.0703504568211148,-0.878235426681344
0.0864688439393482,-0.953997612359165
0.160948222804234,-0.948411378103508
0.0966155267560013,-0.90194526481186
0.153194765614061,-0.926116654203638
0.173263128287439,-0.931649021659607
0.19318946018215,-0.936756422096253
0.224393351171831,-0.928369140299144
0.256916909321255,-0.920145987546869
0.251967893295796,-0.949342622521292
0.252181761012505,-0.977803985447529
0.290177409794261,-0.955278584956643
0.27246998695558,-0.931297948853179
0.327480519789681,-0.959100983262897
0.345760709638464,-0.960183455679277
0.404157610117881,-0.973483717570123
0.381519581313256,-0.960626204986289
0.362506818101108,-0.977805016148451
0.423450021962782,-1.00438016043349
0.437541457782813,-1.00636736719682
0.480877414414087,-0.986099602872287
0.465753177614183,-0.951191731154624
0.481640997240773,-0.947430717111066
0.497190732453485,-0.943030885578382
0.512395682113868,-0.937988332647829
0.492870541066551,-0.946632444445543
0.50587740346501,-0.881723627914899
0.545865032329924,-0.966500977543796
0.597803575328056,-0.89650524227103
0.612639014990627,-0.862036556801239
0.595012068719475,-0.90893113432745
0.57896044992495,-0.932335953308022
0.606312260006016,-0.851758859929972
0.671643936723742,-0.898750297441907
0.631562503800197,-0.80888983051655
0.655606880472863,-0.840093965132597
0.64285210716214,-0.864497610576505
0.676780749606948,-0.814190088851306
0.668163426448147,-0.818539388980207
0.696465549392537,-0.785962846685095
0.664382606412434,-0.732321682853337
0.714684881370213,-0.755515944761467
0.680699317301401,-0.712321616973259
0.749956073252032,-0.720115590171942
0.73933977684862,-0.705948369771584
0.746866044523556,-0.688454290037874
0.754056523689885,-0.670505103558942
0.78737396620497,-0.639647351130898
0.731067821699847,-0.683238802757865
0.812444512709539,-0.567748093573347
0.812135263079474,-0.63040393118779
0.756610080072169,-0.582142380727633
0.795151739129809,-0.522334927801819
0.75846605128976,-0.554079778370527
0.800398598000957,-0.51302128366204
0.790193533101626,-0.516052903175778
0.809195629650947,-0.470620483423684
0.813228525894689,-0.449097954732712
0.860437226173284,-0.401838771919938
0.771397253444004,-0.442752362968545
0.859532533449641,-0.410585186176143
0.802530956372364,-0.384141758604441
0.880142377598098,-0.319718114606718
0.858434426414906,-0.335203805604507
0.835612796364727,-0.294801002010555
0.838104484830253,-0.272547599026088
0.842822363981773,-0.208402143679267
0.870596426540056,-0.261639926235461
0.845868147823626,-0.230770020707207
0.867799405138869,-0.182129406459446
0.838736662517198,-0.203400007451064
0.850402309079122,-0.140419195207983
0.849921254346884,-0.100781051821767
0.85374037842736,-0.0974961990088364
0.869148523127511,-0.0879169340844239
0.877125018885519,-0.0759264504677154
0.881738190486393,-0.00172484872731006
0.891303307867753,-0.0177920964601379
0.822425791373419,0.0117836151534104
0.884119473461287,-0.00142948970142694
0.834429034400195,0.00337393728838626
0.865300459564501,0.0637805240824604
0.830241391455608,0.0748629612875508
0.862676389606896,0.080526143830463
0.832578337020618,0.14823400907568
0.870882153765537,0.136004773057182
0.895481603784592,0.173519704722031
0.854154881872021,0.214576771266263
0.924750973527086,0.192048958610068
0.845892055993846,0.182784580143062
0.896313061752154,0.235418123144949
0.880033067183888,0.231098781220344
0.867253544054211,0.266160314176116
0.889161760578721,0.223042599332436
0.873178717032707,0.233456811536269
0.901377045147784,0.293415254666675
0.905981315782185,0.248947079516899
0.848768013798147,0.311853397841732
0.892551224930934,0.319631942666235
0.942481917299846,0.335326326448333
0.896491021283015,0.340315575603899
0.866111643766424,0.310180789405536
0.852935609180148,0.344248894719981
0.871133283715993,0.322892017410714
0.870308437308242,0.330115903730557
0.910741717246852,0.409718020222435
0.905840158944085,0.405973763429332
0.868302158233325,0.396031061366339
0.87322941142965,0.381052604502609
0.872940068082869,0.450759368603725
0.912539270612557,0.37611797208833
0.919345668673196,0.418847123103701
0.919209503548352,0.39727207671268
0.966104555948665,0.465694505106246
0.925205058642697,0.430889112420646
0.92484283839422,0.458002245355449
0.928798681922384,0.43702106543419
0.921291022786991,0.402490228156639
0.902872931772695,0.419408418439196
0.891827667050105,0.493489108575614
0.942505240687871,0.478210512815833
0.953704238195911,0.435013055856008
0.926437665121255,0.450303382343081
0.911240841947093,0.439153213306786
0.938876887518934,0.449291321988221
0.927455933829098,0.489278276333066
0.939877442044976,0.450038437650345
0.899049269842375,0.445593003578452
0.951554804152013,0.489193415765357
0.988381966119954,0.447690132870872
0.917845194428253,0.42687082542723
0.938711446510911,0.449581763441101
0.929411743783056,0.479103078352669
0.977666615243802,0.496313165170342
0.888556561247298,0.477647220443596
0.969528966792666,0.413326859385871
0.89648802576512,0.418021020096385
0.96205207783806,0.411160061888816
0.933544342741538,0.425302220579028
0.96118774186249,0.478208891470198
0.934182497708309,0.469071066723785
0.940828403999768,0.455927413404591
0.892679356841303,0.422120512576818
0.934331180764684,0.489942142257364
0.893077328232246,0.467048754029928
0.897366996819376,0.449018451870712
0.88088552116579,0.48980240255737
0.880280718457408,0.448505479340537
0.879442065167753,0.4523632660989
0.829718199356855,0.463166219751837
0.863682000102748,0.455945791238212
0.857897526252083,0.457788251028351
0.849891266836977,0.460106857220079
0.841467275654948,0.462694763696033
0.792122395865553,0.434228280877662
0.857546682834,0.50318200947051
0.855085808349001,0.501873618954426
0.75558988367715,0.504858180893325
0.794975255599251,0.485405952829311
0.797637604188057,0.527367353191101
0.792915937679393,0.486694856671563
0.747903519831877,0.518589801209637
0.74667814743132,0.49894870693939
0.734053449733748,0.504455672579836
0.702243610907286,0.46284851949072
0.707583923504291,0.516341985428269
0.693749202781643,0.522712163318876
0.679522311506454,0.529359216434842
0.622598592873894,0.516670949419569
0.649919187436432,0.54345453100764
0.596637155745716,0.540703088742492
0.611344023966931,0.573527183102377
0.565276297097206,0.548980538176675
0.627061097255733,0.543573531773642
0.555954616336743,0.570260861819734
0.505168282565661,0.571289536478492
0.535127065004199,0.600152308858606
0.551481046589041,0.626005017151853
0.471474713989281,0.642581925822242
0.482110158637085,0.623285540333131
0.462714734678802,0.636445819859235
0.445061824027264,0.61636639815599
0.403735118910776,0.696004629136231
0.369567278129336,0.634350738285027
0.386346644523793,0.674257909588502
0.366743161875113,0.683805308357764
0.349684596241156,0.654925495371045
0.31750822657029,0.679850599035847
0.26724330644631,0.756292012129943
0.286741765511155,0.721752659295808
0.223802964354834,0.685268320818298
0.208496820041125,0.771968119692959
0.224123323844218,0.735303712842417
0.204970498228358,0.758268101961164
0.210309167525848,0.804133377305894
0.117198811143045,0.791239651910563
0.127770262328286,0.760035434348469
0.122484732149546,0.791923421134533
0.103967261823257,0.773760423455807
0.0647879379927752,0.808555529522359
0.058669044743168,0.777471231528728
0.0489017450748365,0.803111143969201
-0.00355122434026861,0.843604325936048
-0.00235304786300519,0.802204978323408
-0.0231522961941541,0.831665003677421
-0.078257741455858,0.84082607171003
-0.0602151475406805,0.897804533048412
-0.0799271521415506,0.854313991017266
-0.0551450529052865,0.899094950696816
-0.118746751748558,0.861752553876254
-0.0984050743472779,0.863581568530108
-0.156739414651837,0.867171531909798
-0.175488209637417,0.840352725316712
-0.193800048243047,0.870447207684882
-0.211949968782833,0.871246218888842
-0.229830779829752,0.871469041684881
-0.222098580512119,0.911241996804592
-0.279359294461583,0.919484869537288
-0.281751205352553,0.868569324654821
-0.29845093049542,0.866381195006561
-0.352924885602092,0.826062823810991
-0.341038955339567,0.837480221945899
-0.305133863406578,0.82991604849854
-0.351086981245559,0.886912685862299
-0.377014167268809,0.845959636052582
-0.416186616021399,0.801354646777879
-0.363786637271806,0.81913791767487
-0.404451955438043,0.793853339777706
-0.462490998857411,0.822238336632901
-0.441300950823399,0.765279023856272
-0.449032812757551,0.77253479981549
-0.475467137187406,0.770183871368103
-0.466051088950846,0.783967139686534
-0.533972236242587,0.745989661573625
-0.508544798711654,0.740381117925416
-0.476843504856109,0.707646991222936
-0.524017550598902,0.708653959183549
-0.534963863954937,0.721500342740532
-0.548830046019713,0.703966592579651
-0.592774855662684,0.711342171568262
-0.567413032621909,0.674064024020409
-0.548266782586932,0.660999077733297
-0.539214834004341,0.61826914013542
-0.592595940773595,0.62525335600497
-0.582112837846251,0.603521327949056
-0.642264023268777,0.605894514169342
-0.61998900522897,0.546794565306724
-0.665535336393804,0.545763456139369
-0.605047409123498,0.513524991842907
-0.664691250231099,0.539865111059308
-0.639598837890767,0.495378130007203
-0.645075896407957,0.475294601929265
-0.650268824183944,0.454895253690227
-0.655186891755582,0.434203679405551
-0.675683564569449,0.423575393043252
-0.65476025788315,0.382360135119386
-0.675653936128659,0.406122480098787
-0.711145897485241,0.320248676670786
-0.675997053694926,0.327216860944125
-0.679474567528821,0.305289086863869
-0.641540896694456,0.269835047669175
-0.690882883763594,0.273625621565607
-0.688728776932221,0.238905357914449
-0.691456794599934,0.216663382541577
-0.725398496250694,0.151447739975187
-0.651499448988935,0.189557478599081
-0.662842764024234,0.162988203368174
-0.735253314319353,0.138359322629198
-0.714224366985227,0.0679006034109785
-0.700471831484287,0.0916288774708508
-0.706667136337746,0.0619994056604508
-0.708411566029485,0.0403510973278094
-0.673575356197454,-0.0245861694523721
-0.753931438102358,0.0445643370552659
-0.743233446696006,-0.0123928142064542
-0.741008832406328,-0.0250410960101418
-0.694662735292436,-0.0297208902370052
-0.710078809916791,-0.0996889685290572
-0.686536032180471,-0.128560514862057
-0.720383129938154,-0.124357488865847
-0.7217601036058,-0.143574348004875
-0.738118323973307,-0.200262636929723
-0.761557773216109,-0.160349448581782
-0.725908568951859,-0.198954121165232
-0.76332690856031,-0.244894578446972
-0.728747577272888,-0.233826944063949
-0.742021528268928,-0.234319711823895
-0.682437318868142,-0.298929808780806
-0.694990329237053,-0.314049526731645
-0.72168566433148,-0.260001343552859
-0.762216600970462,-0.27492010455235
-0.761916134057171,-0.2977246086694
-0.739685302027685,-0.34142919091059
-0.77843864440925,-0.337151271780694
-0.731961258427809,-0.364152212598776
-0.727125064408707,-0.367861437342573
-0.731331151192713,-0.356528932204109
-0.740976071186513,-0.369959614619099
-0.791992073269249,-0.45623877976665
-0.752640333250851,-0.424602352452987
-0.724821571784687,-0.412366465870044
-0.717094694269795,-0.469897325518322
-0.758737247514348,-0.452569494972992
-0.76081779149774,-0.460886229175306
-0.80605502095865,-0.5085082401255
-0.743310562823603,-0.480424883465716
-0.72678980719928,-0.488144500772385
-0.746436685607516,-0.524410078158198
-0.814286276078043,-0.468473696846502
-0.733816853524275,-0.501732417827309
-0.775476707395167,-0.505750201962481
-0.777499647094996,-0.510370563514822
-0.787283098692226,-0.531659368419642
-0.81569912950597,-0.516900733689407
-0.783278399679532,-0.52182304303531
-0.831731592837998,-0.543493454245042
-0.778774315202203,-0.483408308551147
-0.7884203859953,-0.529980437094438
-0.755247269227347,-0.541592557316296
-0.791357796243142,-0.53380895126533
-0.792646896682421,-0.535293691183692
-0.793801397935612,-0.536516898500596
-0.811888055882761,-0.511709035756452
-0.809787862773798,-0.511979796974587
-0.796493385750488,-0.56208247595102
-0.796845138512724,-0.539180885159991
-0.810193707450328,-0.497932462357424
-0.759968636538812,-0.555460008511812
