-0.870875420875421,0.038815438456871
-0.870769813293966,0.0388250425700004
-0.870451390744374,0.0388406098767972
-0.869917798086176,0.0388423123570952
-0.86916674441036,0.0388104139986673
-0.868196009014619,0.0387253197290491
-0.867003447324857,0.0385676240165128
-0.865586996749502,0.0383181590305358
-0.863944682453299,0.0379580422530933
-0.862074623037403,0.0374687234333359
-0.859975036112784,0.0368320307796817
-0.857644243754176,0.0360302162850614
-0.855080677822015,0.0350460000829924
-0.852282885140115,0.0338626137343283
-0.849249532517114,0.0324638423469208
-0.845979411600022,0.0308340654330432
-0.842471443548606,0.0289582964122466
-0.838724683519667,0.0268222206703501
-0.834738324950698,0.0244122320884959
-0.830511703632825,0.0217154679596204
-0.826044301563376,0.0187198422132992
-0.821335750568896,0.0154140768737082
-0.81638583568991,0.0117877316793902
-0.811194498319248,0.00783123179763123
-0.805761839086265,0.00353589357050879
-0.800088120479846,-0.00110605176592438
-0.794173769203628,-0.00610143644332387
-0.788019378257458,-0.0114561366529554
-0.781625708739694,-0.0171750552124025
-0.774993691365544,-0.0232621064468026
-0.768124427697265,-0.0297202033193867
-0.761019191082652,-0.0365512468410609
-0.753679427298883,-0.0437561177836787
-0.746106754899422,-0.0513346707164962
-0.73830296526231,-0.0592857303801098
-0.730270022338838,-0.0676070904069456
-0.722010062102236,-0.0762955143921251
-0.713525391696646,-0.0853467393132721
-0.704818488287315,-0.094755481292571
-0.695891997613591,-0.104515443689154
-0.686748732246913,-0.114619327504668
-0.677391669556686,-0.125058844079721
-0.667823949387491,-0.135824730053746
-0.658048871451772,-0.146906764555801
-0.648069892442707,-0.158293788588791
-0.637890622872609,-0.16997372656472
-0.627514823642768,-0.181933609943736
-0.616946402351263,-0.194159602925065
-0.60618940934579,-0.206637030133293
-0.595248033529153,-0.219350406239013
-0.584126597925567,-0.232283467448526
-0.572829555016446,-0.245419204793069
-0.561361481854854,-0.258739899144062
-0.549727074968264,-0.272227157876939
-0.537931145059731,-0.28586195310249
-0.525978611518021,-0.299624661381087
-0.513874496747641,-0.313495104831861
-0.501623920330111,-0.327452593545765
-0.489232093028171,-0.341475969208523
-0.476704310644954,-0.355543649836772
-0.46404594775048,-0.369633675528169
-0.451262451288073,-0.383723755123982
-0.438359334073603,-0.397791313680629
-0.42534216820064,-0.411813540644785
-0.412216578364826,-0.425767438625116
-0.398988235120935,-0.439629872652341
-0.385662848086223,-0.453377619818196
-0.37224615910379,-0.466987419183053
-0.358743935379731,-0.480436021841283
-0.345161962607926,-0.493700241033118
-0.331506038096324,-0.506757002191618
-0.317781963908553,-0.519583392813504
-0.303995540034662,-0.532156712042961
-0.290152557604714,-0.544454519858162
-0.276258792158838,-0.556454685751122
-0.262319996987244,-0.568135436792601
-0.248341896553486,-0.579475404975127
-0.234330180014125,-0.590453673728821
-0.220290494847679,-0.601049823506496
-0.2062284406055,-0.611243976336604
-0.192149562796964,-0.621016839244847
-0.178059346921026,-0.630349746447805
-0.163963212655868,-0.639224700224644
-0.149866508218022,-0.647624410375883
-0.135774504901939,-0.655532332181367
-0.121692391810593,-0.662932702772875
-0.107625270787274,-0.669810575840367
-0.0935781515582484,-0.676151854594511
-0.0795559470955161,-0.681943322912066
-0.0655634692083955,-0.687172674594667
-0.0516054243721353,-0.691828540675817
-0.0376864098012433,-0.695900514715154
-0.0238109097746563,-0.699379176023608
-0.0099832922193255,-0.702256110767588
0.00379219444179895,-0.704523930905116
0.0175114241719836,-0.706176290911584
0.0311703959283325,-0.707207902257788
0.0447652359906316,-0.707614545607822
0.0582922000078558,-0.707393080709533
0.0717476747594073,-0.706541453955343
0.0851281796287933,-0.705058703596434
0.0984303677880861,-0.702944962598498
0.111651027092153,-0.700201459132515
0.124787080682299,-0.696830514699251
0.137835587299587,-0.692835539891464
0.150793741308784,-0.688221027803035
0.163658872434479,-0.682992545099466
0.176428445211591,-0.677156720769419
0.189100058153108,-0.67072123258209
0.201671442638521,-0.663694791280331
0.214140461527027,-0.656087122544464
0.226505107500222,-0.647908946766689
0.238763501139543,-0.639171956680834
0.250913888744359,-0.629888792897008
0.262954639897154,-0.620073017395321
0.274884244782807,-0.609739085037399
0.286701311269519,-0.598902313158842
0.298404561759461,-0.58757884930999
0.30999282981772,-0.575785637216528
0.321465056588611,-0.563540381035372
0.332820287008883,-0.550861507985106
0.344057665827791,-0.537768129433798
0.355176433444439,-0.524280000530501
0.366175921573176,-0.510417478469944
0.377055548748226,-0.496201479482946
0.387814815679058,-0.481653434647954
0.398453300468327,-0.466795244621659
0.408970653704542,-0.451649233389096
0.419366593441839,-0.436238101135764
0.429640900079505,-0.42058487634627
0.439793411154113,-0.404712867235696
0.449824016057291,-0.388645612621371
0.459732650692318,-0.37240683234395
0.469519292082855,-0.356020377347711
0.479183952947211,-0.339510179530704
0.488726676251611,-0.322900201475897
0.498147529755968,-0.306214386174716
0.507446600565643,-0.289476606854368
0.516623989702688,-0.272710617020103
0.525679806709959,-0.255940000823054
0.534614164301436,-0.239188123863587
0.543427173071954,-0.222478084539068
0.552118936279384,-0.205832666043765
0.560689544712162,-0.189274289127098
0.569139071654817,-0.172824965714763
0.577467567963935,-0.15650625349532
0.585675057266729,-0.140339211572663
0.593761531294088,-0.12434435728238
0.60172694535967,-0.108541624267443
0.609571213996239,-0.0929503219058053
0.617294206760108,-0.0775890961794682
0.624895744214119,-0.0624758920713661
0.632375594099207,-0.0476279175729717
0.639733467704128,-0.0330616093819355
0.646969016442492,-0.0187926003652878
0.654081828645732,-0.00483568885977143
0.661071426580173,0.00879519012321869
0.667937263695802,0.0220869917248908
0.674678722113844,0.0350275860397048
0.681295110359668,0.0476057808351318
0.687785661346984,0.0598113421409192
0.694149530618708,0.071635012662995
0.7003857948493,0.0830685279820244
0.706493450612727,0.0941046305015798
0.712471413419641,0.104737081115911
0.718318517026699,0.114960668572404
0.724033513020352,0.124771216508971
0.729615070676759,0.134165588151802
0.735061777098887,0.143141688664144
0.740372137631179,0.151698465142019
0.74554457655155,0.159835904258053
0.750577438039815,0.167555027559834
0.755468987421031,0.174857884434476
0.760217412681576,0.18174754275625
0.764820826255176,0.188228077239351
0.769277267075441,0.194304555522975
0.773584702890876,0.199983022020946
0.777741032837717,0.205270479573146
0.781744090265317,0.210174868940882
0.785591645808264,0.214705046193159
0.789281410698795,0.218870758035538
0.792811040312532,0.222682615137837
0.796178137940024,0.226152063521418
0.799380258776028,0.229291354071139
0.802414914117966,0.232113510241204
0.805279575764517,0.234632294028233
0.807971680604796,0.236862170288683
0.810488635388145,0.238818269481491
0.81282782166414,0.240516348920312
0.814986600881989,0.241972752623028
0.816962319638128,0.243204369849393
0.818752315060466,0.24422859242053
0.820353920317403,0.245063270916789
0.821764470239426,0.245726669852928
0.822981307040826,0.246237421931872
0.824001786128821,0.246614481480383
0.824823281987166,0.246877077171761
0.825443194121099,0.247044664142325
0.825858953050364,0.247136875609739
0.826068026336879,0.247173474102379
0.826067924633515,0.247174302409807
0.825856207740416,0.247159234365012
0.825430490655196,0.247148125569476
0.824788449603377,0.247160764172248
0.823927828035438,0.247216821814052
0.822846442576872,0.247335804847136
0.821542188917779,0.247537005940892
0.820013047628572,0.24783945618247
0.818257089888553,0.248261877780445
0.816272483114279,0.248822637478287
0.814057496474819,0.24953970078278
0.811610506281247,0.250430587110695
0.808930001237967,0.25151232595501
0.806014587543749,0.252801414169638
0.802862993830659,0.254313774469163
0.799474075929419,0.256064715237345
0.795846821450076,0.258068891735229
0.791980354167256,0.260340268796577
0.787873938199704,0.262892085094989
0.783526981974215,0.265736819063604
0.778939041964539,0.268886156544528
0.774109826196335,0.27235096024131
0.769039197509695,0.276141241043738
0.763727176571352,0.280266131290027
0.758173944629139,0.284733860027165
0.75237984600189,0.289551730325708
0.746345390298494,0.294726098700691
0.740071254360408,0.300262356685665
0.73355828392254,0.306164914602013
0.726807494988003,0.312437187560797
0.719820074912865,0.319081583729426
0.712597383197647,0.326099494890317
0.705140951982938,0.33349128931365
0.697452486247161,0.341256306961101
0.68953386370515,0.349392857032249
0.681387134406825,0.357898217860106
0.673014520035951,0.366768639156958
0.66441841290957,0.375999346606468
0.655601374679351,0.385584548792709
0.646566134736771,0.39551744645161
0.637315588324648,0.405790244025078
0.62785279435821,0.416394163492895
0.618180972959491,0.427319460452431
0.608303502709478,0.43855544241115
0.598223917623048,0.450090489251951
0.587945903852309,0.461912075826514
0.577473296124576,0.474006796627072
0.566810073921778,0.486360392482368
0.555960357408625,0.498957779219013
0.544928403117454,0.511783078225095
0.533718599398161,0.524819648848584
0.522335461642142,0.538050122559007
0.510783627289661,0.551456438796898
0.499067850630527,0.565019882431751
0.487192997408401,0.578721122745585
0.475164039239485,0.592540253855841
0.462986047856729,0.606456836488074
0.450664189191085,0.620449941005882
0.43820371730168,0.634498191602705
0.425609968167082,0.648579811557489
0.412888353350163,0.662672669453866
0.400044353549306,0.676754326260275
0.387083512048949,0.69080208316656
0.374011428082675,0.704793030070852
0.360833750122239,0.718704094609078
0.347556169106056,0.732512091618212
0.334184411620849,0.746193772923392
0.320724233050167,0.759725877338303
0.307181410703629,0.77308518076771
0.293561736940733,0.78624854630079
0.279871012303066,0.799192974183928
0.266115038668768,0.811895651561855
0.252299612442983,0.82433400187655
0.238430517797991,0.836485733814038
0.22451351997657,0.84832888969022
0.210554358671972,0.859841893168115
0.196558741497767,0.871003596200337
0.182532337560547,0.881793325092373
0.16848077114828,0.892190925584149
0.154409615546813,0.902176806849555
0.140324386996756,0.911731984315981
0.126230538802643,0.920838121208548
0.112133455605914,0.92947756872653
0.0980384478329171,0.937633404762508
0.0839507463286996,0.945289471078007
0.0698754971869619,0.952430408852831
0.0558177567861029,0.959041692528875
0.0417824870408081,0.965109661873013
0.027774550878161,0.970621552187603
0.0137987079467468,0.975565522601258
-0.000140389433300695,0.979930682376817
-0.0140382000719099,0.98370711517782
-0.027890297455476,0.986885901239368
-0.0416923730317896,0.989459137393873
-0.0554402392277897,0.991419954906988
-0.0691298321950402,0.992762535083862
-0.0827572142784515,0.993482122610838
-0.0963185762043583,0.993575036602722
-0.109810238984721,0.993038679330871
-0.123228655534829,0.991871542612503
-0.136570412002538,0.990073211846805
-0.149832228807699,0.987644367688689
-0.163010961391104,0.984586785356264
-0.176103600672885,0.980903331573361
-0.189107273220999,0.976597959153723
-0.202019241131019,0.971675699238684
-0.21483690161913,0.966142651205411
-0.227557786330866,0.960005970267939
-0.240179560368715,0.95327385279836
-0.252700021042396,0.945955519400614
-0.265117096346178,0.938061195774309
-0.277428843168251,0.929602091410897
-0.28963344523772,0.920590376169401
-0.301729210815404,0.91103915478353
-0.313714570135156,0.900962439356683
-0.325588072602987,0.890375119905776
-0.337348383761814,0.879292933019167
-0.348994282030156,0.86773242869815
-0.360524655223598,0.855710935455532
-0.371938496868332,0.843246523748656
-0.383234902316518,0.83035796782795
-0.394413064673673,0.817064706085598
-0.405472270548663,0.80338679999225
-0.416411895637299,0.789344891712825
-0.427231400150875,0.774960160495397
-0.437930324101327,0.760254277929868
-0.448508282455005,0.745249362175643
-0.458964960167325,0.729967931259783
-0.46930010711082,0.714432855549225
-0.47951353290936,0.698667309502407
-0.489605101691459,0.682694722807295
-0.4995747267758,0.666538731014132
-0.509422365302232,0.650223125772331
-0.519148012821583,0.633771804781835
-0.528751697857749,0.617208721569847
-0.538233476455517,0.600557835204243
-0.547593426727653,0.583843060055092
-0.556831643414717,0.567088215715577
-0.565948232471072,0.550316977193255
-0.57494330569044,0.533552825481973
-0.583816975384289,0.516818998623871
-0.592569349126162,0.500138443369858
-0.601200524574945,0.483533767545491
-0.609710584389814,0.467027193227728
-0.618099591249448,0.450640510836083
-0.626367582987797,0.434395034239747
-0.634514567858419,0.418311556979914
-0.642540519939133,0.402410309704043
-0.650445374688349,0.386710918906119
-0.658229024664135,0.371232367063978
-0.665891315416636,0.355992954261713
-0.673432041564131,0.341010261381764
-0.680850943062501,0.326301114947865
-0.688147701677501,0.311881553696264
-0.695321937668711,0.297766796948801
-0.702373206693566,0.28397121485737
-0.709300996939359,0.270508300585135
-0.716104726490564,0.257390644485504
-0.722783740938293,0.244629910335434
-0.729337311238136,0.232236813675009
-0.735764631822062,0.220221102300548
-0.742064818969457,0.20859153895369
-0.748236909441788,0.197355886243954
-0.75427985938477,0.186520893837343
-0.760192543501286,0.176092287938433
-0.76597375449769,0.1660747630883
-0.77162220280549,0.156471976295459
-0.777136516579766,0.147286543511757
-0.782515241975042,0.138520038459942
-0.787756843698694,0.130172993814364
-0.792859705841306,0.122244904731016
-0.797822132982794,0.11473423471785
-0.80264235157242,0.107638423831123
-0.807318511580238,0.100953899178269
-0.811848688416842,0.0946760877026988
-0.816230885117683,0.088799431220787
-0.820463034787613,0.0833174036763099
-0.824543003300688,0.0782225305726198
-0.82846859224969,0.0735064105379903
-0.832237542139225,0.0691597389748016
-0.83584753581571,0.0651723337385766
-0.839296202126987,0.0615331627883526
-0.842581119803766,0.0582303737454604
-0.845699821554603,0.0552513252935385
-0.848649798365587,0.0525826203484769
-0.851428503995437,0.0502101409230551
-0.85403335965627,0.0481190846072379
-0.856461758869828,0.0462940025814958
-0.858711072488547,0.0447188390770936
-0.860778653870483,0.0433769721940535
-0.862661844196699,0.0422512559844816
-0.864357977919398,0.0413240637061067
-0.865864388328769,0.0405773321482862
-0.867178413226224,0.0399926069303241
-0.868297400691416,0.0395510886697913
-0.869218714930237,0.0392336799165869
-0.869939742190748,0.0390210327467787
-0.87045789673383,0.0388935969087865
-0.870770626845219,0.0388316684132421
-0.870875420875421,0.038815438456871
