0.697087219942375,-0.684666518954929
0.706491655916036,-0.672336374758055
0.714455388662833,-0.658869610092903
0.720952533441384,-0.644346277741528
0.725975353628494,-0.628857912851584
0.729534663503981,-0.612505898042565
0.731659957461654,-0.595399703418157
0.732399260642276,-0.577655031102426
0.731818700249298,-0.559391895143337
0.73000180111258,-0.540732668351147
0.727048513342148,-0.521800127852654
0.723073984096222,-0.502715530844636
0.718207089509698,-0.483596751228484
0.712588746627424,-0.464556506518758
0.706370028700854,-0.445700702664326
0.699710110381055,-0.427126922232754
0.692774072124712,-0.408923078824046
0.685730595477875,-0.391166257642583
0.678749582776404,-0.373921758915343
0.671999736171445,-0.357242357354161
0.665646131729545,-0.34116778717777
0.659847824655115,-0.325724458396139
0.654755521431161,-0.310925406177965
0.650509353874431,-0.296770471235349
0.647236788763592,-0.283246705331119
0.64505070484262,-0.270328992306103
0.644047666652957,-0.257980871495902
0.644306421841739,-0.246155547116303
0.645886645371166,-0.234797064196286
0.648827950464143,-0.223841628975639
0.653149182217597,-0.213219049402851
0.658848005656431,-0.202854269504393
0.665900795650928,-0.192668969977784
0.674262831644639,-0.182583206409958
0.683868795606633,-0.172517056053543
0.694633567100622,-0.162392244112982
0.706453304922969,-0.152133720998424
0.719206800470015,-0.141671162988147
0.732757083918232,-0.130940370182729
0.746953260501007,-0.119884537511225
0.761632550701803,-0.108455376829323
0.776622505108217,-0.096614070793307
0.79174336203249,-0.08433204215721
0.806810513841903,-0.0715915253741777
0.821637046290703,-0.0583859308327815
0.83603631402911,-0.0447199956673158
0.849824514902121,-0.0306097187879334
0.862823225649789,-0.0160820815201725
0.874861862181931,-0.00117455896177825
0.885780028715017,0.0140655692040607
0.895429721710701,0.0295820962162212
0.903677356718574,0.0453109385627662
0.910405588867419,0.0611813406082681
0.915514900829011,0.0771172122939729
0.918924935549222,0.0930385763311104
0.920575554849846,0.108863099350347
0.920427609092815,0.124507679941145
0.918463407403828,0.139890065439609
0.914686882409153,0.154930468720871
0.909123447979305,0.169553156133032
0.901819553027281,0.183687978077143
0.892841938907603,0.197271814586549
0.88227661233715,0.210249909576331
0.870227549943123,0.222577069198867
0.856815154474206,0.23421870192675
0.842174486328411,0.245151680554496
0.826453297301016,0.255365009224441
0.809809896289375,0.264860281792818
0.792410879066267,0.273651921307446
0.774428756114573,0.281767194012504
0.75603951387617,0.289245995069251
0.73742014558768,0.296140407022757
0.718746188144222,0.302514035890721
0.700189301147244,0.308441133538272
0.681914923460088,0.314005518669818
0.664080041229738,0.319299312254899
0.646831099458177,0.324421506451815
0.630302086852564,0.329476389046231
0.614612820888027,0.334571848032524
0.599867456825063,0.339817583188969
0.586153240886034,0.345323253295978
0.573539523968053,0.35119658898791
0.562077048212875,0.357541502089612
0.551797514532012,0.364456222652096
0.542713434863027,0.372031494759289
0.534818268578338,0.380348861529149
0.528086838148324,0.389479068585379
0.522476014943043,0.399480613646336
0.517925662006283,0.410398467789042
0.514359816814233,0.422262991429693
0.511688093497033,0.435089065155605
0.509807280808456,0.448875452291746
0.508603109325099,0.463604406537999
0.507952158983389,0.479241534226087
0.50772387615544,0.495735916777047
0.507782668050581,0.513020494853266
0.507990041327847,0.531012711558094
0.508206751427271,0.549615407906331
0.508294929277502,0.56871795973617
0.508120152708877,0.588197641322205
0.507553431081216,0.60792119724256
0.506473073302799,0.627746600610907
0.504766411542201,0.647524972661811
0.502331355481861,0.667102635926621
0.499077754888533,0.686323270902196
0.494928551532852,0.705030144235152
0.489820705024326,0.723068375051968
0.48370588088153,0.740287205184493
0.476550893069086,0.756542238687667
0.468337897239831,0.771697616229757
0.459064334957944,0.785628090654847
0.448742633181911,0.798220971264252
0.437399667191122,0.809377906120822
0.425075998884491,0.819016473922997
0.411824905904455,0.827071559691183
0.397711220289504,0.833496491617728
0.382809998282068,0.838263919907077
0.367205045470647,0.841366422222187
0.350987323586253,0.842816824399704
0.334253266970796,0.84264822933805
0.317103037963854,0.840913751334715
0.299638751196498,0.837685957584623
0.281962697026875,0.833056022982214
0.264175594100244,0.827132608727507
0.246374900272669,0.820040479453518
0.228653209916651,0.811918877603478
0.211096763950871,0.802919677529138
0.193784096834037,0.793205345197436
0.176784842270757,0.782946732428652
0.160158716537876,0.772320737197096
0.143954695200497,0.761507863664126
0.128210395600821,0.750689717248929
0.112951673926343,0.740046471148575
0.0981924419564557,0.729754341277228
0.0839347048095669,0.719983106595261
0.0701688172289214,0.710893711241115
0.0568739522169701,0.702635983769532
0.0440187722167541,0.695346507155153
0.0315622896038045,0.689146671064548
0.019454900049964,0.684140935264714
0.00763956940386341,0.680415329961337
-0.00394684785068638,0.678036215392017
-0.0153721827050789,0.677049319190653
-0.0267074442481271,0.677479065946843
-0.0380252580986304,0.679328209070729
-0.0493982788393199,0.682577770604588
-0.0608976050583173,0.687187290065694
-0.0725912255353536,0.693095378829857
-0.0845425245584155,0.700220572041163
-0.096808873331529,0.708462465629767
-0.109440332953021,0.71770312180298
-0.122478492530399,0.727808722409663
-0.13595546368451,0.738631445924152
-0.149893050020179,0.750011540509233
-0.164302107147073,0.761779562747733
-0.17918210557275,0.773758749222482
-0.194520905313307,0.785767486211081
-0.210294747433398,0.797621841373512
-0.226468463996602,0.809138120467916
-0.242995904140919,0.820135411844663
-0.259820570255082,0.830438081744948
-0.276876454581274,0.839878184262227
-0.294089063069625,0.848297751199355
-0.311376610017763,0.855550928949234
-0.328651363999833,0.861505931912208
-0.34582112287467,0.866046784801866
-0.362790793308013,0.869074829437987
-0.379464048288923,0.870509975230477
-0.395745034599501,0.870291676465317
-0.4115401011363,0.868379623652228
-0.426759518400617,0.864754140519791
-0.441319159384699,0.859416282680448
-0.455142112485148,0.852387638466861
-0.468160197969039,0.843709836893704
-0.480315360889829,0.833443772057021
-0.491560915178754,0.821668557480167
-0.501862615895228,0.808480227887216
-0.511199539271943,0.793990209571424
-0.51956475319539,0.77832358387217
-0.526965764073321,0.761617171228672
-0.533424729604657,0.744017465798739
-0.538978430728022,0.725678452678771
-0.543677999922266,0.706759341307628
-0.547588407003666,0.687422249660097
-0.550787707545905,0.667829874321984
-0.553366062976227,0.648143181483369
-0.555424545210514,0.628519153292455
-0.55707374231945,0.609108622891714
-0.558432185107907,0.590054229830389
-0.559624617584433,0.571488525440821
-0.560780137045856,0.553532255215523
-0.562030231857578,0.536292842269557
-0.563506746933174,0.519863092666521
-0.56533980837429,0.504320139779954
-0.567655739697647,0.489724641013039
-0.570575002532075,0.476120236169731
-0.574210194604798,0.463533272624038
-0.578664137250801,0.451972798236741
-0.5840280835784,0.441430818786698
-0.59038007682278,0.431882812582752
-0.59778348633975,0.423288490966254
-0.606285746164718,0.415592789665138
-0.615917318124254,0.408727072476178
-0.626690898183787,0.402610525586465
-0.638600881095064,0.397151718046417
-0.651623094526174,0.39225030151732
-0.665714809774974,0.387798820472066
-0.680815031946446,0.383684602556941
-0.6968450681815,0.37979169784583
-0.713709368225708,0.376002835248852
-0.731296627388603,0.372201364379996
-0.749481137834064,0.368273151739261
-0.768124370224462,0.364108401112562
-0.787076764077817,0.359603369617718
-0.80617970184617,0.354661952800138
-0.825267638738375,0.349197114573231
-0.844170357739402,0.343132140565268
-0.862715317162779,0.336401696529947
-0.880730056447578,0.328952676850422
-0.898044624803646,0.320744831760198
-0.914493996737755,0.311751165659618
-0.929920438469838,0.301958102761999
-0.944175789775062,0.291365420195709
-0.957123626857994,0.279985952554009
-0.968641273464881,0.267845075660515
-0.978621629546542,0.254979980943439
-0.986974789366502,0.241438755227716
-0.99362942396894,0.22727928390577
-0.998533906333503,0.21256799828438
-1.00165716129796,0.197378490381706
-1.00298922636838,0.181790020525522
-1.00254151379905,0.165885944748627
-1.00034676874544,0.149752090164376
-0.99645872280703,0.133475107216516
-0.990951446812323,0.117140827922566
-0.98391841118824,0.100832658966613
-0.975471266630287,0.0846300377512942
-0.965738361982348,0.0686069783034385
-0.954863020180752,0.0528307322645201
-0.943001596756214,0.0373605881142858
-0.930321348663172,0.022246829308938
-0.916998144068672,0.0075298692056362
-0.903214046138138,-0.00676042245998375
-0.889154805766027,-0.0206051901252732
-0.875007299586002,-0.0339968520993659
-0.860956950436349,-0.0469391451928569
-0.847185167738909,-0.059446953794942
-0.833866844969115,-0.0715459266533797
-0.821167950555157,-0.0832718882950951
-0.809243247158361,-0.0946700555901207
-0.798234172375842,-0.105794073349629
-0.788266911499462,-0.116704886003676
-0.779450690098935,-0.127469465273391
-0.771876310915376,-0.138159416287771
-0.765614955904968,-0.148849486754652
-0.760717270316369,-0.159616005542344
-0.75721274148067,-0.170535278333469
-0.755109380603251,-0.18168196885322
-0.754393711339989,-0.1931274945359
-0.755031064384578,-0.204938465369283
-0.756966172758835,-0.217175194047043
-0.760124058052785,-0.229890304474265
-0.764411193573573,-0.243127464126679
-0.769716926297108,-0.256920263785049
-0.775915135735043,-0.271291265783672
-0.78286610438963,-0.286251239164327
-0.790418571421617,-0.301798597058535
-0.798411938547372,-0.317919048281205
-0.806678595049555,-0.334585471561767
-0.815046327162069,-0.351758017122579
-0.823340775998267,-0.369384436499353
-0.831387907646396,-0.387400637646774
-0.839016459064818,-0.405731458547747
-0.846060323969585,-0.4242916488095
-0.852360844008141,-0.442987045145793
-0.857768972136379,-0.46171592327113
-0.862147277235216,-0.480370505626239
-0.865371761582876,-0.498838601566186
-0.867333465798649,-0.517005354220413
-0.867939839245254,-0.534755066218888
-0.867115857566583,-0.551973074905372
-0.864804872987288,-0.568547646555293
-0.860969187148379,-0.584371858502221
-0.855590340533662,-0.599345437965974
-0.848669116888778,-0.613376526771426
-0.840225265380097,-0.626383342046417
-0.83029694751753,-0.638295704377971
-0.818939920007285,-0.649056406768639
-0.80622646864421,-0.65862240004172
-0.792244112038076,-0.666965773060772
-0.777094097338086,-0.674074509213858
-0.760889713123929,-0.679953004019047
-0.743754447225032,-0.684622332381845
-0.725820019373681,-0.68812025792061
-0.707224320261436,-0.690500980811306
-0.688109289728025,-0.691834624725098
-0.668618767452326,-0.692206467575866
-0.648896349628827,-0.691715924894108
-0.629083284701092,-0.690475298633536
-0.609316440295749,-0.688608308033122
-0.589726372073679,-0.686248422739032
-0.570435523314784,-0.683537021679863
-0.551556581711601,-0.680621404131455
-0.533191017104539,-0.677652681955889
-0.515427820793457,-0.674783584110995
-0.498342463657766,-0.672166206166221
-0.481996086665985,-0.669949738699841
-0.466434933515268,-0.668278209070771
-0.451690031174135,-0.667288271143436
-0.437777120071392,-0.667107077092062
-0.424696831645948,-0.667850264426041
-0.412435107010332,-0.669620089873246
-0.40096384664833,-0.672503739754496
-0.390241777425193,-0.67657184400851
-0.380215519794825,-0.681877218119092
-0.370820834995561,-0.688453853898103
-0.361984029282995,-0.696316176438474
-0.353623489897144,-0.705458580626152
-0.345651325538302,-0.715855256447865
-0.337975082659987,-0.72746030801648
-0.330499507900211,-0.740208166823374
-0.323128326477413,-0.754014295285515
-0.315766006380709,-0.768776172252236
-0.308319478683137,-0.784374547841032
-0.300699785291084,-0.800674950849568
-0.292823626894784,-0.817529428106615
-0.284614785778063,-0.834778491538158
-0.276005400447524,-0.852253245492723
-0.266937071712817,-0.869777664042447
-0.257361782845295,-0.887170985598451
-0.247242619711853,-0.904250190288009
-0.236554280269368,-0.920832524167459
-0.225283366454774,-0.93673803351074
-0.213428455255808,-0.951792072133205
-0.200999949535736,-0.965827744989237
-0.188019712949249,-0.978688252117219
-0.174520496964178,-0.990229098384887
-0.160545171534107,-1.00032013639186
-0.146145774292332,-1.00884741228618
-0.131382396203285,-1.01571478711182
-0.116321924363248,-1.02084530958204
-0.101036665042872,-1.02418231981844
-0.0856028720701654,-1.02569026755428
-0.070099207231867,-1.02535523251115
-0.0546051604973079,-1.0231851390578
-0.0391994585240298,-1.01920966178174
-0.0239584900778865,-1.01347982317845
-0.0089547766893897,-1.0060672892217
0.00574448392175726,-0.99706337305038
0.0200787753778751,-0.986577761325895
0.0339954965548992,-0.974736981912739
0.0474510494167952,-0.961682635351684
0.0604117608147994,-0.947569416071886
0.0728546211338592,-0.932562952372348
0.0847678258027161,-0.916837496848094
0.0961511090602318,-0.900573501102023
0.107015862933016,-0.883955110237356
0.117385038069261,-0.867167613743223
0.127292826829976,-0.850394889950847
0.136784132799265,-0.833816881242252
0.145913834577588,-0.817607136638131
0.154745855304543,-0.801930457286042
0.163352052761018,-0.786940678731973
0.17181094806765,-0.772778621714067
0.180206313874399,-0.759570240600101
0.188625645476219,-0.747424995541719
0.197158540449146,-0.736434470985627
0.205895014142857,-0.726671259418459
0.214923779659461,-0.718188125186384
0.224330521771213,-0.711017458984873
0.234196194566412,-0.705171029224299
0.244595372455679,-0.700640032010535
0.255594683520453,-0.69739543700536
0.267251353050625,-0.695388622017668
0.279611883515117,-0.694552284890883
0.292710895162026,-0.6948016171598
0.306570148985253,-0.696035720113538
0.321197770960294,-0.698139240378436
0.336587693287759,-0.700984198978406
0.352719324938976,-0.704431985087839
0.369557460128352,-0.708335483403984
0.387052429500577,-0.712541302265333
0.405140494878596,-0.716892068355629
0.423744484433817,-0.72122875307718
0.442774661177742,-0.725392995461728
0.462129813797857,-0.729229386812822
0.481698555133781,-0.732587683133085
0.50136081007264,-0.735324912766928
0.520989471393582,-0.737307348560342
0.540452199163878,-0.738412316172813
0.559613336731706,-0.738529812933493
0.578335914216982,-0.737563914769468
0.596483708707531,-0.735433952197298
0.613923329153698,-0.732075440104244
0.630526293241639,-0.727440749992796
0.646171063328662,-0.721499517458353
0.660745008848766,-0.714238781850087
0.674146263440936,-0.705662859263112
0.686285446406093,-0.695792954159848
0.697087219942375,-0.684666518954929
