-0.635246753450136,-0.841257686979177
-0.632229197347275,-0.830522617984244
-0.62918959793247,-0.819902579909491
-0.626128491024337,-0.809396444017379
-0.623046408431292,-0.799003101999231
-0.619943878041731,-0.788721465410372
-0.616821423911013,-0.778550465121785
-0.613679566345335,-0.768489050787722
-0.61051882198263,-0.758536190328726
-0.607339703870559,-0.748690869429579
-0.604142721541719,-0.738952091051659
-0.600928381086148,-0.729318874959233
-0.59769718522122,-0.719790257259245
-0.594449633359014,-0.710365289954143
-0.591186221671248,-0.701043040507327
-0.587907443151848,-0.691822591420821
-0.584613787677237,-0.682703039824753
-0.581305742064416,-0.673683497078296
-0.577983790126913,-0.664763088381678
-0.574648412728656,-0.655940952398929
-0.571300087835856,-0.647216240891021
-0.56793929056695,-0.638588118359071
-0.564566493240674,-0.630055761697303
-0.561182165422319,-0.621618359855457
-0.557786773968236,-0.613275113510363
-0.554380783068642,-0.605025234746383
-0.550964654288773,-0.596867946744474
-0.547538846608456,-0.588802483479584
-0.544103816460132,-0.580828089426148
-0.540660017765379,-0.572944019271426
-0.537207901970001,-0.565149537636464
-0.533747918077703,-0.557443918804431
-0.530280512682413,-0.549826446456131
-0.526806129999288,-0.542296413412467
-0.523325211894446,-0.534853121383655
-0.519838197913459,-0.527495880724993
-0.516345525308654,-0.520224010198992
-0.512847629065248,-0.513036836743684
-0.509344941926365,-0.505933695246932
-0.505837894416958,-0.498913928326564
-0.502326914866682,-0.491976886116169
-0.498812429431733,-0.485121926056397
-0.495294862115706,-0.478348412691593
-0.491774634789485,-0.471655717471639
-0.488252167210199,-0.46504321855883
-0.484727877039284,-0.458510300639663
-0.481202179859654,-0.452056354741397
-0.477675489192041,-0.445680778053253
-0.474148216510493,-0.439382973752117
-0.470620771257088,-0.433162350832642
-0.46709356085587,-0.427018323941604
-0.463566990726032,-0.420950313216423
-0.460041464294374,-0.414957744127713
-0.456517383007059,-0.409040047325768
-0.452995146340681,-0.403196658490873
-0.449475151812676,-0.397427018187335
-0.445957794991085,-0.391730571721143
-0.442443469503699,-0.386106769001153
-0.4389325670466,-0.380555064403712
-0.43542547739212,-0.375074916640625
-0.431922588396227,-0.369665788630381
-0.428424286005366,-0.364327147372558
-0.424930954262774,-0.359058463825312
-0.421442975314268,-0.353859212785884
-0.417960729413543,-0.34872887277404
-0.414484594926983,-0.343666925918373
-0.411014948338003,-0.33867285784539
-0.40755216425094,-0.33374615757132
-0.404096615394501,-0.328886317396569
-0.400648672624792,-0.324092832802754
-0.397208704927924,-0.319365202352263
-0.393777079422236,-0.314702927590259
-0.390354161360119,-0.310105512949092
-0.386940314129473,-0.305572465655036
-0.383535899254803,-0.301103295637305
-0.380141276397964,-0.296697515439301
-0.376756803358571,-0.292354640132017
-0.373382836074081,-0.288074187229566
-0.370019728619559,-0.283855676606771
-0.366667833207139,-0.279698630418767
-0.363327500185196,-0.275602573022577
-0.359999078037229,-0.271567030900599
-0.356682913380464,-0.267591532585977
-0.35337935096421,-0.263675608589791
-0.350088733667939,-0.259818791330042
-0.346811402499135,-0.25602061506238
-0.343547696590896,-0.252280615812532
-0.340297953199315,-0.248598331310397
-0.337062507700638,-0.244973300925766
-0.333841693588203,-0.24140506560563
-0.33063584246919,-0.237893167813039
-0.327445284061164,-0.234437151467473
-0.324270346188429,-0.231036561886702
-0.32111135477821,-0.227690945730082
-0.317968633856654,-0.224399850943273
-0.314842505544669,-0.221162826704338
-0.311733290053599,-0.217979423371187
-0.308641305680754,-0.214849192430347
-0.305566868804786,-0.211771686447021
-0.302510293880931,-0.208746459016405
-0.299471893436118,-0.205773064716246
-0.296451978063947,-0.202851059060596
-0.293450856419552,-0.199979998454755
-0.290468835214347,-0.197159440151357
-0.28750621921066,-0.194388942207593
-0.284563311216267,-0.19166806344353
-0.281640412078833,-0.188996363401511
-0.278737820680249,-0.186373402306611
-0.275855833930893,-0.183798741028119
-0.272994746763803,-0.181271941042036
-0.270154852128778,-0.178792564394556
-0.267336440986405,-0.176360173666515
-0.264539802302015,-0.173974331938782
-0.261765223039585,-0.171634602758576
-0.259012988155581,-0.169340550106684
-0.256283380592742,-0.167091738365573
-0.253576681273819,-0.164887732288352
-0.250893169095278,-0.162728096968597
-0.248233120920951,-0.160612397810994
-0.245596811575657,-0.158540200502794
-0.242984513838796,-0.156511070986068
-0.240396498437909,-0.15452457543073
-0.237833034042217,-0.152580280208326
-0.235294387256147,-0.150677751866562
-0.232780822612827,-0.14881655710456
-0.23029260256759,-0.14699626274883
-0.227829987491451,-0.145216435729932
-0.225393235664592,-0.143476643059825
-0.222982603269837,-0.141776451809881
-0.220598344386141,-0.140115429089546
-0.218240710982072,-0.138493142025654
-0.215909952909309,-0.136909157742347
-0.213606317896153,-0.135363043341621
-0.211330051541051,-0.133854365884463
-0.209081397306143,-0.132382692372574
-0.206860596510823,-0.130947589730668
-0.204667888325333,-0.129548624789321
-0.20250350976438,-0.128185364268383
-0.200367695680789,-0.126857374760911
-0.198260678759181,-0.125564222717635
-0.196182689509698,-0.124305474431932
-0.194133956261758,-0.123080696025303
-0.19211470515786,-0.121889453433341
-0.190125160147426,-0.120731312392173
-0.188165542980697,-0.119605838425377
-0.186236073202676,-0.118512596831354
-0.184336968147121,-0.117451152671141
-0.182468442930598,-0.116421070756675
-0.180630710446588,-0.11542191563947
-0.178823981359658,-0.114453251599722
-0.177048464099684,-0.113514642635812
-0.175304364856153,-0.112605652454218
-0.173591887572519,-0.111725844459807
-0.171911233940637,-0.110874781746509
-0.170262603395264,-0.110052027088363
-0.168646193108632,-0.109257142930923
-0.167062197985105,-0.108489691383017
-0.165510810655899,-0.107749234208851
-0.163992221473899,-0.107035332820445
-0.162506618508546,-0.106347548270401
-0.161054187540811,-0.105685441244985
-0.159635112058258,-0.105048572057522
-0.15824957325019,-0.104436500642091
-0.156897750002889,-0.103848786547519
-0.155579818894946,-0.103284988931654
-0.154295954192684,-0.102744666555926
-0.153046327845678,-0.102227377780168
-0.151831109482371,-0.10173268055771
-0.15065046640579,-0.101260132430722
-0.14950456358936,-0.10080929052581
-0.14839356367283,-0.100379711549848
-0.147317626958286,-0.0999709517860513
-0.146276911406291,-0.0995825670902649
-0.145271572632113,-0.0992141128874827
-0.144301763902079,-0.0988651441685717
-0.143367636130027,-0.098535215487204
-0.142469337873878,-0.0982238809569868
-0.14160701533232,-0.0979306942487834
-0.140780812341608,-0.0976552085882195
-0.13999087037248,-0.0973969767533664
-0.139237328527194,-0.0971555510725967
-0.138520323536684,-0.0969304834226028
-0.137839989757837,-0.0967213252265746
-0.137196459170896,-0.0965276274525283
-0.136589861376982,-0.0963489406117787
-0.13602032359575,-0.0961848147575523
-0.135487970663167,-0.0960347994837294
-0.134992925029419,-0.0958984439237138
-0.134535306756951,-0.0957752967494207
-0.134115233518638,-0.0956649061703774
-0.133732820596085,-0.0955668199329303
-0.133388180878071,-0.0954805853195525
-0.133081424859115,-0.0954057491482447
-0.132812660638191,-0.0953418577720242
-0.132581993917577,-0.0952884570784947
-0.13238952800184,-0.095245092489492
-0.132235363796967,-0.0952113089607981
-0.132119599809639,-0.0951866509819186
-0.132042332146639,-0.0951706625759162
-0.132003654514418,-0.0951628872992948
-0.132003658218794,-0.0951628682419285
-0.132042432164811,-0.0951701480270283
-0.132120062856731,-0.0951842688111401
-0.132236634398191,-0.0952047722841701
-0.132392228492498,-0.0952311996694288
-0.132586924443085,-0.0952630917236886
-0.132820799154114,-0.0952999887372491
-0.133093927131234,-0.0953414305340037
-0.1334063804825,-0.0953869564715005
-0.133758228919437,-0.095436105440993
-0.134149539758276,-0.0954884158674724
-0.134580377921337,-0.0955434257096769
-0.135050805938574,-0.095600672460071
-0.13556088394929,-0.0956596931447879
-0.136110669704,-0.0957200243235308
-0.136700218566467,-0.0957812020894239
-0.137329583515901,-0.0958427620688091
-0.137998815149321,-0.0959042394209808
-0.138707961684083,-0.0959651688378527
-0.13945706896058,-0.0960250845435502
-0.140246180445105,-0.0960835202939215
-0.141075337232892,-0.096140009375962
-0.141944578051314,-0.0961940846071432
-0.14285393926327,-0.0962452783346423
-0.143803454870735,-0.0962931224344633
-0.144793156518481,-0.0963371483104443
-0.145823073497986,-0.0963768868931442
-0.146893232751508,-0.0964118686386007
-0.148003658876338,-0.0964416235269547
-0.14915437412924,-0.0964656810609318
-0.15034539843106,-0.096483570264176
-0.151576749371524,-0.0964948196794275
-0.152848442214213,-0.0964989573665367
-0.154160489901722,-0.0964955109003094
-0.155512903061006,-0.0964840073681727
-0.156905690008909,-0.0964639733676576
-0.15833885675788,-0.0964349350036882
-0.159812407021875,-0.0963964178856712
-0.161326342222454,-0.0963479471243777
-0.162880661495056,-0.0962890473286098
-0.16447536169548,-0.0962192426016438
-0.166110437406548,-0.0961380565374422
-0.167785880944964,-0.0960450122166269
-0.169501682368368,-0.0959396322022043
-0.171257829482588,-0.0958214385350359
-0.173054307849087,-0.0956899527290438
-0.174891100792608,-0.0955446957661447
-0.17676818940902,-0.0953851880909022
-0.178685552573364,-0.0952109496048898
-0.180643166948104,-0.0950214996607552
-0.182641006991576,-0.0948163570559765
-0.184679044966649,-0.0945950400263026
-0.186757250949585,-0.0943570662388671
-0.188875592839114,-0.0941019527849662
-0.191034036365709,-0.0938292161724934
-0.193232545101083,-0.0935383723180173
-0.195471080467885,-0.0932289365384969
-0.19774960174962,-0.0929004235426212
-0.200068066100778,-0.0925523474217639
-0.202426428557178,-0.0921842216405442
-0.204824642046538,-0.0917955590269804
-0.207262657399252,-0.0913858717622279
-0.209740423359401,-0.0909546713698898
-0.212257886595974,-0.0905014687048887
-0.214814991714323,-0.0900257739418889
-0.21741168126784,-0.089527096563257
-0.220047895769859,-0.0890049453465495
-0.222723573705791,-0.0884588283515155
-0.225438651545492,-0.0878882529066012
-0.228193063755853,-0.0872927255949458
-0.230986742813641,-0.0866717522398543
-0.233819619218562,-0.0860248378897347
-0.236691621506571,-0.0853514868024871
-0.23960267626342,-0.0846512024293304
-0.242552708138448,-0.0839234873980537
-0.245541639858616,-0.083167843495677
-0.248569392242788,-0.0823837716505092
-0.251635884216267,-0.0815707719135858
-0.254741032825568,-0.0807283434394746
-0.257884753253461,-0.0798559844664312
-0.261066958834261,-0.0789531922958916
-0.264287561069371,-0.0780194632712828
-0.2675464696431,-0.0770542927561392
-0.270843592438731,-0.0760571751115037
-0.274178835554858,-0.0750276036726002
-0.277552103321998,-0.0739650707247591
-0.280963298319464,-0.0728690674785765
-0.284412321392517,-0.0717390840442912
-0.287899071669796,-0.07057460940536
-0.291423446581024,-0.0693751313912128
-0.294985341874997,-0.0681401366491664
-0.298584651637861,-0.06686911061548
-0.302221268311675,-0.0655615374855298
-0.30589508271327,-0.0642169001830834
-0.309605984053396,-0.062834680328651
-0.313353859956175,-0.0614143582068941
-0.317138596478855,-0.0599554127330664
-0.320960078131863,-0.0584573214184675
-0.324818187899182,-0.0569195603348818
-0.328712807259022,-0.0553416040779838
-0.332643816204826,-0.0537229257296802
-0.336611093266589,-0.0520629968193666
-0.340614515532503,-0.0503612872840723
-0.344653958670931,-0.0486172654274669
-0.34872929695272,-0.0468303978777007
-0.352840403273849,-0.0450001495440528
-0.35698714917842,-0.0431259835723559
-0.361169404881999,-0.0412073612991723
-0.36538703929531,-0.0392437422046856
-0.369639920048286,-0.0372345838642836
-0.373927913514487,-0.0351793418987958
-0.37825088483588,-0.033077469923356
-0.382608697948001,-0.0309284194948546
-0.387001215605492,-0.0287316400579493
-0.391428299408029,-0.0264865788895951
-0.395889809826635,-0.024192681042062
-0.400385606230398,-0.0218493892844001
-0.404915546913589,-0.0194561440423153
-0.409479489123198,-0.0170123833364166
-0.414077289086876,-0.014517542718795
-0.418708802041321,-0.0119710552078929
-0.423373882261073,-0.00937235122162042
-0.428072383087774,-0.00672085850867653
-0.432804156959854,-0.00401600207803032
-0.437569055442687,-0.00125720412651467
-0.442366929259205,0.00155611603551264
-0.447197628320985,0.00442454206049168
-0.452061001759818,0.00734866064201398
-0.456956897959766,0.0103290615952612
-0.461885164589722,0.0133663379395802
-0.466845648636477,0.01646108598325
-0.471838196438303,0.0196139054104956
-0.476862653719068,0.0228253993708071
-0.481918865622894,0.0260961745706247
-0.487006676749357,0.0294268413674472
-0.492125931189252,0.0328180138664312
-0.497276472560938,0.0362703100195439
-0.502458144047256,0.0397843517273351
-0.507670788433053,0.043360764943399
-0.512914248143314,0.0470001797815973
-0.518188365281914,0.0507032306261144
-0.523492981671013,0.0544705562444205
-0.528827938891092,0.058302799903223
-0.534193078321667,0.0622006094874819
-0.539588241182673,0.0661646376225747
-0.545013268576547,0.0701955417996943
-0.550468001531019,0.0742939845045683
-0.555952281042644,0.0784606333495909
-0.561465948121057,0.0826961612094575
-0.567008843834012,0.0870012463604024
-0.572580809353189,0.0913765726231356
-0.578181686000803,0.0958228295095825
-0.583811315297038,0.100340712373533
-0.589469539008308,0.104930922565306
-0.595156199196392,0.109594167590549
-0.600871138268438,0.114331161273275
-0.60661419902788,0.119142623923278
-0.612385224726276,0.12402928250803
-0.618184059116094,0.1289918708292
-0.624010546504482,0.134031129703925
-0.629864531808031,0.13914780715097
-0.635745860608564,0.144342658581911
-0.641654379209985,0.149616446997504
-0.647589934696203,0.154969943189371
-0.653552374990173,0.160403925947176
-0.659541548914075,0.165919182271439
-0.665557306250667,0.171516507592165
-0.671599497805842,0.177196705993456
-0.67766797547243,0.182960590444287
-0.683762592295259,0.188808983035626
-0.689883202537545,0.194742715224096
-0.69602966174861,0.200762628082374
-0.702201826833001,0.206869572556529
-0.708399556121023,0.213064409730515
-0.714622709440746,0.21934801109804
-0.72087114819152,0.225721258842032
-0.727144735419045,0.23218504612195
-0.73344333589204,0.238740277369165
-0.739766816180563,0.245387868590683
-0.746115044736034,0.252128747681464
-0.752487891972996,0.258963854745608
-0.758885230352697,0.265894142426688
-0.765306934468515,0.27292057624753
-0.771752881133312,0.280044134959737
-0.77822294946876,0.28726581090327
-0.78471702099671,0.294586610376416
-0.791234979732656,0.30200755401648
-0.797776712281382,0.309529677191548
-0.804342107934842,0.317154030403696
-0.810931058772351,0.324881679704006
-0.817543459763172,0.3327137071198
-0.824179208871561,0.340651211094488
-0.830838207164362,0.348695306940454
-0.837520358921237,0.356847127305428
-0.844225571747604,0.365107822652793
-0.8509537566904,0.373478561756304
-0.857704828356738,0.381960532209715
-0.86447870503557,0.390554940951828
-0.871275308822458,0.399263014807494
-0.878094565747557,0.408086001045122
