-0.134822261650139,-0.382025576428612
-0.134751012768368,-0.381999958119779
-0.134678385758703,-0.381973757843961
-0.134604347466816,-0.381946959375265
-0.134528863786729,-0.381919545952766
-0.134451899629153,-0.381891500260166
-0.13437341888864,-0.381862804404586
-0.13429338440949,-0.381833439894436
-0.134211757950359,-0.381803387616329
-0.13412850014752,-0.381772627810986
-0.134043570476712,-0.381741140048084
-0.133956927213518,-0.381708903199999
-0.133868527392219,-0.381675895414388
-0.133778326763037,-0.381642094085546
-0.133686279747726,-0.381607475824493
-0.133592339393411,-0.381572016427708
-0.133496457324623,-0.381535690844462
-0.133398583693428,-0.381498473142663
-0.133298667127589,-0.381460336473147
-0.133196654676658,-0.381421253032337
-0.133092491755915,-0.381381194023182
-0.132986122088049,-0.381340129614286
-0.132877487642496,-0.381298028897145
-0.132766528572314,-0.381254859841382
-0.13265318314849,-0.381210589247881
-0.13253738769157,-0.38116518269971
-0.132419076500469,-0.38111860451072
-0.132298181778371,-0.381070817671688
-0.132174633555537,-0.381021783793887
-0.132048359608926,-0.380971463049933
-0.131919285378453,-0.380919814111771
-0.131787333879736,-0.380866794085647
-0.131652425613173,-0.380812358443891
-0.131514478469176,-0.380756460953361
-0.131373407629383,-0.380699053600332
-0.131229125463657,-0.380640086511671
-0.131081541422673,-0.380579507872064
-0.130930561925892,-0.380517263837095
-0.130776090244696,-0.380453298441929
-0.13061802638045,-0.38038755350537
-0.130456266937264,-0.380319968529018
-0.129947727386252,-0.380105531354333
-0.129770078950543,-0.380029931063316
-0.129588162139178,-0.379952149573987
-0.129401850169459,-0.37987211005575
-0.129211011798909,-0.379789732492248
-0.128815207497777,-0.379617626317507
-0.128609955121356,-0.379527720339304
-0.128183994871509,-0.379339730619113
-0.12796296850349,-0.37924144587198
-0.127736355956745,-0.379140159943032
-0.127503983089505,-0.379035761125279
-0.127265669349495,-0.378928132824456
-0.127021227504086,-0.37881715331402
-0.126770463357801,-0.378702695476334
-0.126513175456521,-0.378584626529188
-0.126249154777725,-0.37846280773673
-0.125978184406053,-0.378337094103831
-0.125700039193415,-0.378207334052819
-0.125414485402885,-0.378073369081477
-0.125121280335518,-0.377935033401088
-0.124820171939229,-0.377792153553247
-0.124510898398784,-0.377644548004065
-0.124193187705949,-0.377492026714294
-0.123866757208754,-0.377334390683777
-0.12353131313878,-0.377171431468562
-0.12318655011535,-0.377002930668839
-0.122832150625395,-0.376828659385773
-0.122467784477744,-0.376648377645146
-0.121311381780573,-0.376068890690016
-0.120903572881469,-0.375861923644066
-0.120483935132786,-0.375647557346676
-0.120052049205219,-0.375425471105508
-0.119607478433902,-0.375195327978766
-0.119149768013763,-0.374956773837287
-0.118678444154498,-0.374709436366186
-0.118193013193084,-0.37445292400179
-0.117692960661654,-0.374186824799255
-0.117177750308432,-0.373910705225906
-0.116646823069359,-0.37362410887497
-0.116099595987886,-0.373326555093934
-0.115535461080341,-0.373017537521342
-0.114953784144149,-0.372696522525341
-0.114353903506054,-0.372362947536753
-0.112437982513906,-0.37128076461985
-0.111758073499673,-0.370890680298299
-0.111056191965925,-0.370484722319784
-0.110331481384219,-0.370062112517473
-0.108809954248757,-0.369163600440774
-0.108011226294181,-0.368685908748218
-0.107185842523132,-0.368187980073148
-0.106332736155213,-0.367668784164628
-0.105450792066359,-0.367127230039124
-0.104538844455138,-0.366562161948877
-0.103595674400758,-0.365972355055887
-0.102620007309425,-0.365356510788398
-0.101610510245912,-0.364713251854866
-0.100565789147489,-0.364041116888348
-0.0994843859177387,-0.36333855469199
-0.0983647753982908,-0.362603918053911
-0.0972053622170907,-0.361835457097158
-0.0947603755340611,-0.36018950593946
-0.0934712301197152,-0.359307935535369
-0.0921351310548979,-0.358384363213317
-0.0907500803151719,-0.357416406970291
-0.0893139882002585,-0.356401530167289
-0.087824669367447,-0.355337030396514
-0.0862798387756548,-0.354220027486672
-0.0846771075544863,-0.353047450577279
-0.0812878434340367,-0.350522253199303
-0.0794959758112425,-0.349162406668691
-0.0776355296794536,-0.347732500372248
-0.0757035339615111,-0.346228277989629
-0.0736968887502068,-0.344645190815478
-0.0694465832173763,-0.34122263240545
-0.0648570976628774,-0.337421712960404
-0.0624259438056761,-0.335364207500232
-0.0545390889606617,-0.328480024047753
-0.048743966539984,-0.323217607924277
-0.0456716679057487,-0.320357448337765
-0.0424765267075063,-0.317331083447759
-0.0391536236101976,-0.314127408374934
-0.0356979279635395,-0.310734510446742
-0.0321043129309072,-0.307139609430075
-0.02044367247899,-0.295000706813209
-0.0118840812377724,-0.28561865912302
-0.00735293548391813,-0.280486240017805
-0.00264756183681134,-0.275032207952488
0.00223676276676396,-0.269234213469918
0.0073044465528353,-0.263068325870183
0.0125594863836619,-0.256508938088912
0.0180053553532687,-0.249528670718821
0.0236448724078585,-0.242098276515882
0.0294800516916104,-0.234186547105986
0.035511929116404,-0.225760224056209
0.0417403634598391,-0.216783917007816
0.0481638091196901,-0.20722003219768
0.054779057508219,-0.197028715433211
0.0615809439742399,-0.186167814445239
0.0757121674343254,-0.16225711856842
0.08301821245568,-0.149111587644609
0.0904634359141551,-0.13510517221893
0.105683783670097,-0.104295800792501
0.121148264486647,-0.0693863817314442
0.12887664811549,-0.0502515944402305
0.136537886179623,-0.0299206280539819
0.144073697930586,-0.00833772567225111
0.151417012877418,0.0145505525878288
0.165209482122896,0.0644374854110663
0.171474062010352,0.0915187082324129
0.189636843066269,0.214615489729342
0.192604629508708,0.284880204998991
0.191991563656929,0.322011207740334
0.16072532742908,0.522110213784726
0.131846034435095,0.604583049090253
0.113345062328584,0.645060139217783
0.0678970801577603,0.722431483818503
0.0112914552155159,0.791974658648554
-0.0922932679467336,0.873363984564428
-0.294520657702406,0.921651623537477
-0.335538812468346,0.916130049147067
-0.375620268461345,0.905490428611727
-0.451137244662924,0.869565050357349
-0.547012968654075,0.783744703749434
-0.573184656282552,0.748285586393415
-0.64562231832547,0.585192219041304
-0.667212155308919,0.453788330106644
-0.668927345314331,0.410428228651673
-0.668247414346718,0.367815680938065
-0.665400293447954,0.3261998250697
-0.660618228830263,0.285786196392855
-0.654132251000384,0.246738999483645
-0.64616760748396,0.209184137852213
-0.636940144888844,0.173212744379454
-0.603646657368167,0.0752695800263849
-0.565430361194949,-0.00767816238665819
-0.552227576457533,-0.0321388260293964
-0.525734258254055,-0.0766027705796375
-0.499625073429234,-0.11555639411775
-0.474347171206708,-0.149547772854298
-0.46211894084557,-0.164854692163804
-0.450201925091675,-0.179125210135956
-0.43861616978538,-0.192423950273267
-0.427376314473954,-0.204813103265437
-0.395812608914985,-0.2371037000257
-0.386019224214741,-0.246420588854963
-0.37658746621535,-0.255096231240867
-0.367512763618995,-0.263175477580929
-0.358788950734621,-0.270700345391397
-0.441898482137764,-0.368177022650686
-0.437901212684959,-0.179864326204884
-0.334643610040851,-0.290328542366609
-0.44045699230815,-0.407997627677502
-0.211345615479494,-0.219120674825526
-0.377123751843034,-0.428260135322133
-0.372011200175461,-0.233125682045147
-0.250981761173623,-0.345398585983257
-0.13866996782964,-0.237651981195751
-0.335818212512442,-0.454310222938811
-0.12713212622076,-0.455459562353775
-0.132501337822347,-0.264574668292432
-0.11688514853802,-0.261756777811186
-0.122691311932842,-0.461376048402028
-0.211296105681129,-0.364480792658049
-0.29644420522273,-0.468496839191872
-0.301688733752003,-0.268806549417743
-0.0658396672077693,-0.259755886641346
-0.275648931511191,-0.493711909674767
-0.176087586244747,-0.377058689587216
-0.175127554137807,-0.377333813595716
-0.173303267360871,-0.377845234903966
-0.0678003566112633,-0.2877967294442
-0.0513386718564871,-0.268764161599407
-0.0567102392113421,-0.486612677411238
-0.163978036868442,-0.380210629374326
-0.256437622756836,-0.283633864992936
-0.0478678349096943,-0.264472928467114
-0.158152374018108,-0.381451985141941
-0.252301029194089,-0.47623198567121
-0.0374964692552604,-0.281904506091167
-0.153459622599418,-0.38229540165756
-0.15216710216739,-0.382499635455185
-0.15124572473294,-0.382637064179499
-0.150818498832476,-0.382698379839415
-0.150215815672601,-0.382782191785959
-0.150024499557173,-0.382808124674135
-0.149837739015399,-0.382833121481056
-0.149655401144125,-0.382857219265324
-0.149303484408989,-0.382902857938545
-0.149133661819925,-0.382924465115767
-0.148805709476563,-0.382965410235935
-0.148492620640719,-0.383003521187592
-0.148341390929909,-0.383021581104255
-0.148193572982231,-0.383039010915758
-0.147907797477017,-0.383072074725344
-0.146883690719947,-0.383183445066171
-0.146767790386492,-0.383195320496665
-0.146223908105599,-0.383248970407827
-0.145828007462862,-0.383285796182901
-0.145551709415086,-0.38331033959027
