0.11409115926845,-0.602275457267764
0.142557788530965,-0.557022449181519
0.172609095141337,-0.558326001491411
0.169789848565177,-0.549486250441962
0.132035662187574,-0.578667329135293
0.143063342778772,-0.512274371826006
0.148216197945814,-0.489004616437962
0.156612637424838,-0.46028954122373
0.17228071852547,-0.465488220815614
0.207251181600939,-0.389456302563637
0.252094916928413,-0.352492671483665
0.225801059540606,-0.291118749788014
0.238714688256325,-0.229756002949956
0.257252281045461,-0.164425240672453
0.272777906402977,-0.0964078670536399
0.478528792824488,0.0262234279669914
0.409944904934909,0.0306585765798738
0.341107500502599,0.128051841036381
0.449849079515711,0.129672139872019
0.431866591273424,0.214745529773462
0.478225074489081,0.312511892037486
0.420431575805483,0.318094979060551
0.493394561179879,0.412584929292244
0.457655226149582,0.489393196750943
0.433008304373626,0.503829329882864
0.4075018896079,0.535630332138797
0.34640016897796,0.576867829221733
0.326360886435014,0.65525321169622
0.336480185002855,0.688601606019909
0.241133375290108,0.680869264924759
0.182081007665757,0.701777795070237
0.108203834742582,0.703351935095747
0.0502899102092352,0.731529603560227
-0.164685629224183,0.59437109932472
-0.204976473196396,0.658519895039614
-0.184723117292763,0.735693578916227
-0.233537814759829,0.75780220576862
-0.342075993196497,0.805680146063438
-0.365356802937045,0.763476463457489
-0.342922406317652,0.886622619910181
-0.519163797847882,0.806982764743191
-0.526996574716559,0.773070707787977
-0.609240161706657,0.775191033923974
-0.559305674641138,0.824965820352108
-0.632321034315268,0.788534246826406
-0.654594095040327,0.7946671958792
-0.783880442716048,0.701120415243256
-0.68227352383614,0.806459294261572
-0.806587164814142,0.709838733957942
-0.692374878063069,0.814275351867743
-0.693112061558319,0.815226948954109
-0.69231899786774,0.813376158414925
-0.691016736731664,0.808110614281798
-0.781631409372538,0.70780700741128
-0.572790575360574,0.884495930703487
-0.693454334135725,0.766416476260807
-0.698989033152522,0.742475773745036
-0.707816819066515,0.713070570521948
-0.720224036107178,0.678121852681038
-0.736294267910438,0.637687392411954
-0.755903278131132,0.59196439721652
-0.77872165704193,0.541287416447003
-0.804225086938931,0.486121560158835
-0.831711866677864,0.427051251359052
-0.860327075951014,0.364764891034486
-0.889092522235219,0.300035960222791
-0.916941406162606,0.233701209689488
-0.836936456858059,0.285315860269521
-0.965410282698939,0.0997324592599427
-0.983806188431259,0.0338668247916717
-0.89051048566659,0.0762599859736616
-1.0038305709032,-0.0914446528480076
-1.00376903099411,-0.149412927865667
-0.996133597340772,-0.203428239771949
-0.98052074252246,-0.253012237543236
-0.847659538464684,-0.191251441498446
-0.924827469561334,-0.337622166517807
-0.885040248709228,-0.372356521565795
-0.837858264321155,-0.402075999572052
-0.783967136715966,-0.426966201037679
-0.824526437036698,-0.542313552418804
-0.6597029825128,-0.463566635338054
-0.591518138895642,-0.476163813470492
-0.634407496227221,-0.582450980896896
-0.449240884733188,-0.492653240166786
-0.377753171186129,-0.497722280812903
-0.307742523139518,-0.501455464773485
-0.240410160453629,-0.504400238348599
-0.176846695535638,-0.507046303744024
-0.117998486971759,-0.509805826152754
-0.064639168937618,-0.512996751088233
-0.0173473493047682,-0.516829833884565
0.02350875033773,-0.521399849696807
0.057779186672845,-0.526681302052433
0.0855324583748584,-0.532528786379294
0.10704795625409,-0.538681997726016
0.240372202147158,-0.433995437178938
0.133440936857603,-0.550350853989706
0.139763332737197,-0.554876811375861
0.0437230819408276,-0.66402722420689
