-0.106629643393127,-0.166331450944316
-0.108423805779153,-0.168200115324072
-0.110122645654578,-0.170192118820774
-0.111720210061992,-0.172303244311989
-0.113210719188936,-0.174529023241028
-0.114588576261532,-0.176864742404282
-0.115848377180342,-0.179305451111066
-0.116984919884846,-0.181845968706407
-0.11799321343327,-0.18448089244672
-0.118868486784889,-0.187204605717853
-0.119606197272277,-0.190011286584501
-0.120202038751398,-0.192894916659572
-0.12065194941784,-0.195849290281626
-0.120952119277917,-0.1988680239881
-0.121098997263833,-0.201944566271649
-0.12108929798251,-0.205072207606513
-0.12092000808822,-0.208244090731465
-0.120588392269592,-0.211453221175564
-0.120091998842082,-0.214692478012548
-0.11942866493751,-0.217954624829439
-0.118596521282786,-0.2212323208946
-0.117593996560454,-0.224518132510203
-0.116419821344269,-0.227804544533812
-0.11507303160352,-0.231083972053552
-0.113552971770416,-0.234348772201075
-0.111859297365392,-0.237591256086368
-0.10999197717577,-0.240803700838245
-0.107951294983787,-0.243978361734191
-0.105737850840615,-0.247107484403111
-0.103352561883536,-0.25018331708438
-0.100796662694084,-0.253198122926521
-0.0980717051955345,-0.25614419230872
-0.0951795580887211,-0.259013855168369
-0.0921224058257893,-0.261799493317751
-0.0889027471220692,-0.264493552732986
-0.0855233930068789,-0.267088555798358
-0.0819874644146635,-0.269577113489162
-0.0782983893184842,-0.271951937476262
-0.0744598994084737,-0.274205852135607
-0.0704760263184721,-0.27633180644608
-0.0663510974046618,-0.2783228857591
-0.0620897310806045,-0.280172323423595
-0.0576968317136802,-0.281873512250079
-0.0531775840885072,-0.283420015797744
-0.0485374474435022,-0.28480557946868
-0.0437821490873083,-0.286024141393556
-0.0389176776023845,-0.287069843093304
-0.0339502756436036,-0.287937039901639
-0.0288864323402534,-0.288620311133484
-0.0237328753103708,-0.289114469984705
-0.0184965622968665,-0.289414573148826
-0.0131846724354145,-0.289515930136769
-0.00780459716458137,-0.289414112285986
-0.00236393078916583,-0.289104961445727
0.00312953929180429,-0.288584598325577
0.00866784268050375,-0.287849430494779
0.0142428363868046,-0.286896160020312
0.0198462155330329,-0.28572179073208
0.0254695243437618,-0.284323635104075
0.0311041674070117,-0.282699320740779
0.0367414211928367,-0.280846796458615
0.0423724458149047,-0.278764337952687
0.0479882970203203,-0.276450553039607
0.0535799383926048,-0.273904386467697
0.0591382537524233,-0.271125124286392
0.0646540597403506,-0.268112397767222
0.0701181185656846,-0.264866186869286
0.0755211509050493,-0.261386823242721
0.0808538489342907,-0.257674992764215
0.0861068894769427,-0.253731737599209
0.0912709472523361,-0.24955845778604
0.096336708206243,-0.245156912337828
0.101294882906787,-0.240529219858573
0.106136219988211,-0.235677858670489
0.110851519624963,-0.230605666450248
0.115431647018492,-0.225315839372415
0.119867545879024,-0.219811930758982
0.124150251884595,-0.214097849234538
0.128270906099512,-0.208177856387233
0.132220768334478,-0.202056563936334
0.135991230430579,-0.195738930407805
0.139573829449368,-0.18923025731996
0.142960260751378,-0.182536184881881
0.146142390945417,-0.175662687207919
0.149112270691147,-0.168616067052224
0.151862147337546,-0.161402950067869
0.154384477379991,-0.154030278595758
0.156671938718907,-0.146505304989115
0.15871744270305,-0.138835584479981
0.160514145940763,-0.131028967594715
0.162055461862741,-0.123093592126132
0.163335072020095,-0.115037874670459
0.164346937101792,-0.106870501737915
0.165085307655823,-0.0986004204462478
0.165544734498783,-0.0902368288071528
0.165720078798857,-0.081789165616045
0.165606521817584,-0.0732670999561807
0.165199574296119,-0.0646805203286716
0.164495085472127,-0.0560395234204397
0.16348925171382,-0.0473544025226657
0.162178624758116,-0.0386356356127725
0.160560119540297,-0.0298938731134588
0.158631021603046,-0.0211399253427597
0.15638899407319,-0.0123847496695479
0.153832084194983,-0.00363943738932421
0.150958729409265,0.00508479966444933
0.147767762968364,0.0137766427578283
0.144258419077142,0.0224246801266481
0.140430337551118,0.0310174210631973
0.136283567983206,0.0395433102025791
0.13181857341114,0.047990741991728
0.127036233478261,0.0563480753237483
0.121937847080957,0.0646036483199587
0.116525134496619,0.0727457932417752
0.110800238986626,0.0807628515143219
0.10476572786949,0.0886431888434465
0.0984245930599062,0.0963752104076234
0.0917802510701385,0.103947376106053
0.0848365424707718,0.111348215844113
0.0775977308085535,0.118566344837205
0.070068500979688,0.125590478913899
0.062253957057617,0.132409449799247
0.0541596195749872,0.139012220359028
0.0457914222601734,0.145387899785682
0.0371557082294037,0.151525758706662
0.0282592256361998,0.157415244195952
0.0191091227805246,0.163045994669524
0.00971294268069926,0.168407854645568
7.86171118262458e-05,0.173490889350416
-0.00978553988487736,0.178285399151163
-0.0198708390167623,0.182781933796143
-0.0301682232727104,0.186971306444542
-0.0406682759679826,0.190844607466627
-0.0513612292939058,0.194393217996235
-0.0622369733646986,0.197608823217429
-0.0732850657531003,0.200483425367411
-0.0844947415058364,0.203009356438113
-0.0958549236293202,0.205179290559106
-0.107354234035383,0.206986256044833
-0.118981004936219,0.208423647089453
-0.130723290677132,0.209485235092976
-0.142568879995085,0.210165179602701
-0.1545053086905,0.210458038854395
-0.16651987269917,0.210358779898043
-0.17859964155062,0.20986278829343
-0.190731472198723,0.208965877361282
-0.202902023209846,0.207664296976155
-0.215097769293315,0.205954741887741
-0.227305016158506,0.20383435955777
-0.239509915682381,0.201300757500238
-0.251698481370869,0.198352010113171
-0.263856604097037,0.194986664990755
-0.275970068098588,0.191203748705197
-0.288024567216837,0.187002772048264
-0.300005721358936,0.182383734723082
-0.311899093164768,0.17734712947735
-0.323690204859582,0.171893945669785
-0.335364555273161,0.166025672262225
-0.346907637005993,0.159744300230495
-0.358304953722656,0.153052324387778
-0.369542037552392,0.145952744614919
-0.380604466576613,0.138449066492776
-0.391477882382872,0.130545301332392
-0.402148007664677,0.122245965599506
-0.412600663846358,0.11355607973057
-0.422821788712064,0.104481166338208
-0.432797454017874,0.0950272478047113
-0.442513883065918,0.0852008432629237
-0.451957468219347,0.0750089649645845
-0.46111478833696,0.0644591140369104
-0.469972626106292,0.0535592756289436
-0.478517985253985,0.0423179134499092
-0.486738107612298,0.0307439637025656
-0.49462049002069,0.0188468284152535
-0.5021529010415,0.0066363681770796
-0.509323397468871,-0.00587710571860281
-0.516120340610186,-0.0186828397165295
-0.52253241231949,-0.0317696470210799
-0.528548630762521,-0.0451259171897253
-0.534158365893226,-0.0587396262903545
-0.539351354621864,-0.0725983476137388
-0.544117715655052,-0.0866892629317281
-0.548447963988432,-0.100999174291056
-0.55233302503291,-0.115514516331981
-0.555764248355795,-0.130221369120302
-0.558733421018497,-0.145105471480642
-0.561232780492829,-0.160152234818247
-0.563255027138395,-0.175346757415908
-0.564793336223921,-0.190673839191997
-0.56584136947588,-0.206117996905001
-0.566393286138218,-0.221663479789355
-0.566443753527461,-0.237294285606769
-0.565987957068034,-0.25299417709673
-0.56502160979311,-0.268746698809261
-0.563540961296892,-0.284535194302544
-0.56154280612478,-0.300342823687458
-0.559024491588477,-0.316152581500641
-0.555983924993674,-0.331947314887155
-0.552419580268594,-0.347709742073449
-0.548330503982303,-0.363422471110822
-0.543716320742353,-0.379068018869225
-0.538577237961976,-0.394628830260817
-0.532914049987768,-0.410087297672358
-0.526728141579434,-0.425425780585146
-0.520021490733949,-0.440626625360911
-0.512796670847137,-0.455672185171764
-0.505056852206461,-0.470544840052033
-0.496805802809506,-0.485227017049576
-0.488047888503443,-0.499701210453926
-0.478788072441457,-0.513950002078424
-0.469031913852952,-0.527956081573349
-0.458785566125067,-0.541702266746851
-0.448055774193859,-0.555171523870437
-0.43684987124426,-0.568346987945623
-0.425175774718727,-0.581211982908298
-0.413041981635289,-0.593750041747321
-0.400457563216479,-0.605944926513848
-0.387432158831464,-0.617780648197893
-0.373975969254453,-0.629241486448663
-0.360099749243279,-0.640312009115293
-0.345814799442835,-0.650977091584662
-0.331132957618858,-0.661221935893134
-0.316066589228323,-0.671032089589174
-0.300628577333506,-0.680393464323983
-0.284832311867567,-0.689292354147501
-0.26869167826027,-0.697715453487332
-0.252221045433223,-0.705649874788416
-0.235435253174803,-0.713083165791544
-0.21834959890567,-0.720003326429123
-0.200979823846526,-0.726398825316916
-0.183342098600495,-0.732258615820862
-0.165453008163274,-0.737572151678432
-0.147329536374833,-0.742329402154418
-0.12898904982724,-0.746520866711442
-0.110449281243789,-0.750137589175986
-0.0917283123453345,-0.753171171381148
-0.0728445562203753,-0.755613786267906
-0.0538167392160629,-0.757458190427139
-0.034663882367953,-0.758697736065245
-0.0154052823869103,-0.759326382376727
0.00393950777782781,-0.759338706307743
0.0233506987798587,-0.758729912695199
0.0428082851009607,-0.757495843766623
0.0622920656399374,-0.755632987986667
0.0817816646437878,-0.753138488236811
0.101256552959559,-0.750010149315466
0.120696069584773,-0.746246444746437
0.140079443493864,-0.741846522884375
0.159385815717669,-0.736810212306631
0.178594261652586,-0.731138026481633
0.197683813575691,-0.724831167704708
0.216633483341712,-0.71789153029304
0.235422285237482,-0.710321703032224
0.254029258969165,-0.702124970867723
0.272433492757319,-0.693305315835306
0.290614146514583,-0.683867417225404
0.308550475080599,-0.673816650977139
0.326221851488571,-0.663159088298606
0.343607790237722,-0.651901493510894
0.360687970545758,-0.640051321114105
0.3774422595554,-0.62761671207458
0.393850735468902,-0.614606489333331
0.409893710584497,-0.601030152536593
0.425551754208658,-0.586897871990279
0.440805715418097,-0.572220481840963
0.455636745645463,-0.557009472486932
0.470026321062776,-0.541276982223697
0.483956264736731,-0.525035788129227
0.497408768530166,-0.508299296195052
0.510366414724098,-0.491081530710248
0.522812197334992,-0.473397122906146
0.534729543102074,-0.455261298870541
0.546102332119819,-0.436689866740941
0.556914918090961,-0.417699203187295
0.567152148175727,-0.398306239195479
0.576799382413309,-0.3785284451636
0.585842512691943,-0.358383815324052
0.594267981244385,-0.337890851505027
0.602062798645955,-0.317068546245998
0.609214561292798,-0.295936365282458
0.615711468338466,-0.274514229415981
0.621542338067421,-0.25282249578642
0.626696623684589,-0.230881938563799
0.631164428500657,-0.208713729078156
0.634936520493343,-0.186339415406347
0.63800434622551,-0.163780901435443
0.640360044101588,-0.141060425423079
0.641996456944419,-0.118200538075727
0.64290714387532,-0.0952240801665033
0.643086391480829,-0.0721541597147158
0.642529224250328,-0.049014128749976
0.641231414269447,-0.0258275596841978
0.639189490154932,-0.00261822131541797
0.63640074521739,0.0205899455121743
0.63286324483916,0.0437728525670895
0.628575833055311,0.0669062891829035
0.623538138326638,0.0899659474783545
0.617750578494327,0.112927447818934
0.611214364906829,0.135766364493397
0.603931505710356,0.158458251578232
0.595904808295261,0.180978668962816
0.587137880891492,0.203303208507672
0.577635133307183,0.225407520307995
0.567401776805371,0.247267339034338
0.556443823114744,0.268858510322189
0.544768082571254,0.290157017181934
0.532382161388381,0.311139006400592
0.519294458054734,0.331780814906588
0.505514158858689,0.3520589960687
0.49105123254065,0.371950345900318
0.475916424074521,0.391431929140084
0.46012124758091,0.410481105180016
0.443677978375562,0.429075553812227
0.426599644157452,0.447193300765464
0.408900015341955,0.464812743002744
0.390593594545449,0.481912673751537
0.371695605228671,0.498472307238082
0.352221979507066,0.514471303097662
0.332189345137356,0.529889790432822
0.311615011690465,0.544708391491853
0.290516955921857,0.558908244940095
0.2689138063513,0.572471028696979
0.246824827064946,0.585378982312037
0.224269900753539,0.597614928853549
0.201269511001439,0.609162296283845
0.177844723842052,0.620005138295785
0.154017168596086,0.63012815458537
0.129809018009924,0.639516710535969
0.105242967712249,0.648156856290156
0.0803422150078386,0.656035345185728
0.0551304370282857,0.663139651533051
0.0296317682601603,0.669457987711509
0.00387077747189585,0.674979320563459
-0.022127555938563,0.679693387064757
-0.0483378661526241,0.683590709251654
-0.0747344256729435,0.686662608384509
-0.101291170574251,0.688901218329579
-0.127981726238313,0.690299498140863
-0.154779433547631,0.690851243824779
-0.181657375511843,0.690551099271272
-0.208588404300279,0.689394566335767
-0.235545168653456,0.687378014057233
-0.26250014164593,0.684498686998507
-0.289425648772246,0.680754712695899
-0.316293896327437,0.676145108206009
-0.343077000052952,0.670669785738619
-0.369747014018514,0.66432955736545
-0.396275959710122,0.657126138795516
-0.422635855293879,0.649062152208825
-0.44879874502524,0.640141128141061
-0.474736728772749,0.630367506412989
-0.500421991625303,0.619746636099222
-0.525826833551593,0.608284774532063
-0.550923699080278,0.595989085337137
-0.575685206969255,0.582867635498548
-0.600084179832281,0.568929391452343
-0.624093673691129,0.554184214208077
-0.647687007421359,0.538642853499371
-0.670837792059833,0.522316940965329
-0.69351995994205,0.505218982365792
-0.715707793637519,0.487362348834404
-0.737375954651322,0.468761267174572
-0.758499511860351,0.449430809204375
-0.779053969652618,0.429386880157605
-0.799015295738435,0.40864620614909
-0.818359948602356,0.387226320713518
-0.837064904565048,0.36514555042805
-0.85510768442462,0.342422999629933
-0.872466379647148,0.319078534241454
-0.889119678076627,0.295132764715485
-0.905046889134824,0.270607028115954
-0.920227968482088,0.245523369348444
-0.934643542110484,0.219904521557248
-0.948274929841226,0.193773885706003
-0.961104168198831,0.167155509360087
-0.973114032634998,0.140074064689847
-0.984288059075812,0.112554825714606
-0.994610564766458,0.0846236448083531
-1.0040666683883,0.0563069284888425
-1.01264230942386,0.0276316125126922
-1.02032426674588,-0.00137486370008399
-1.02710017640749,-0.0306845832878698
-1.03295854861114,-0.0602691787905765
-1.03788878383483,-0.0900998595882557
-1.04188118809492,-0.120147439908768
-1.04492698732574,-0.150382367377167
-1.0470183408569,-0.180774752078965
-1.04814835397033,-0.211294396108665
-1.04831108951975,-0.24191082357431
-1.04750157859631,-0.272593311028329
-1.04571583022519,-0.303310918294189
-1.04295084007865,-0.334032519658026
-1.03920459819235,-0.364726835393731
-1.03447609567241,-0.395362463589643
-1.028765330382,-0.42590791224445
-1.02207331159719,-0.456331631599523
-1.01440206362271,-0.486602046674547
-1.00575462835956,-0.516687589972917
-0.996135066817347,-0.546556734323113
-0.985548459565337,-0.576178025821942
