0.120676942105402,-1.04671523552548
0.073796586511945,-1.01328478537553
0.0690272315812761,-1.00188038186442
0.0180125284121489,-0.969677550622264
0.0733485797393559,-0.962402781543352
0.0553047989789987,-0.968171704852625
0.0287998939982504,-0.921897411597861
0.0743357974074214,-0.906775997304308
0.0424353197350888,-0.935207752118243
-0.00510437317193704,-0.947217066095485
0.0413864763075795,-0.940143164593886
0.0303871113335542,-0.902973918214304
0.0374512175809597,-0.878339252078889
0.0227961472701893,-0.881883571146273
0.0303822729014534,-0.834827191976237
-0.0242459200605869,-0.910379803843823
0.032839354888459,-0.849802906979546
0.0385533811580569,-0.872468295041007
-0.0107442010976245,-0.873686789462773
0.0308663075767386,-0.857243042542867
-0.0266112222207227,-0.854509112179976
0.0029952199719786,-0.753637042325296
-0.0222888908872237,-0.836923201502506
-0.0101855682492404,-0.78108177055717
0.00609956440737465,-0.814749870451761
-0.0249006087557531,-0.803494752826924
-0.0673316013847213,-0.708744201737401
-0.0665868670862464,-0.695778117749441
-0.00602553440449752,-0.694730070592844
-0.0262859762565041,-0.724204343963775
-0.0733304396029285,-0.711985294163767
-0.0216098364188619,-0.686808205926403
-0.00848072009638273,-0.654627727134809
-0.0281231755751608,-0.721254769439501
-0.0377717049153643,-0.678802642579919
-0.0398688894254564,-0.669936276277762
-0.0419014416639223,-0.661140545432368
-0.0438702122806815,-0.652415166086525
-0.0457760444083652,-0.643759859661555
-0.0476197738369432,-0.635174352781927
-0.0965641305141625,-0.606397887654822
-0.00793700879822422,-0.579482024344641
-0.0734556193265574,-0.633624388941177
-0.0161126428778366,-0.609042191502561
-0.0574239145869053,-0.58511240623408
-0.0588557449376424,-0.577008243783026
-0.0602319139808206,-0.568971861476949
-0.0615531985198008,-0.561003025533753
-0.062820369514924,-0.553101505833896
-0.0640341922114943,-0.545267075785415
-0.0651954262642052,-0.53749951219204
-0.0663048258581068,-0.529798595124343
-0.0673631398262077,-0.52216410779382
-0.0683711117638067,-0.51459583642984
-0.0693294801396419,-0.507093570159382
-0.0702389784039447,-0.499657100889497
-0.0711003350934833,-0.492286223192411
-0.0719142739336772,-0.484980734193211
-0.0726815139378615,-0.477740433460044
-0.0734027695037775,-0.470565122896773
-0.0740787505073651,-0.463454606638017
-0.0747101623939291,-0.456408690946518
-0.0752977062667483,-0.449427184112793
-0.0758420789731961,-0.442509896356984
-0.0763439731884398,-0.435656639732884
-0.0768040774967806,-0.428867228034061
-0.0772230764706974,-0.422141476702046
-0.0776016507476556,-0.415479202736525
-0.0782402285311583,-0.402344362169307
-0.0785015742987019,-0.395871436576637
-0.0787251800301673,-0.389461270202196
-0.0789117077658385,-0.383113686556291
-0.0791761598839185,-0.370605566708564
-0.0792553910061956,-0.364444682515177
-0.0793001577324473,-0.358345684918069
-0.079288875013914,-0.346332662405335
-0.0792341060766337,-0.340418295591706
-0.0791474338649619,-0.334565131441616
-0.0790294908687977,-0.328773000356636
-0.0788809065630391,-0.323041733160562
-0.0787023074555675,-0.317371161036022
-0.0782575563098231,-0.306211428155366
-0.0779926428642147,-0.300721931006959
-0.077700191888469,-0.295292456027938
-0.0773808157261772,-0.289922835290618
-0.0766637237149651,-0.27936248480535
-0.0762672191666842,-0.274171419014667
-0.0758462121069087,-0.269039535274652
-0.0754013017140638,-0.263966665153517
-0.0749330846402236,-0.258952639964196
-0.0744421550440782,-0.253997290715405
-0.0739291046228439,-0.249100448063754
-0.0716674441811777,-0.23009474164032
-0.0710525810473054,-0.225487876274715
-0.070419097241151,-0.220938491496303
-0.0690985664791853,-0.212011470738943
-0.0684126633775953,-0.207633486489572
-0.067710427358398,-0.203312286208677
-0.0669924248719423,-0.199047693797955
-0.0662592202166926,-0.194839532306721
-0.0647494509557645,-0.186591789802669
-0.0639740043673059,-0.182551850306229
-0.0631855916816313,-0.178567624693877
-0.0623847667289483,-0.174638931228173
-0.0615720812991417,-0.170765587114706
-0.0599133260628026,-0.163184210293776
-0.0590683497773159,-0.159475806432778
-0.0582137000861607,-0.15582200955747
-0.056477545811877,-0.148677481378031
-0.0547091744445399,-0.141749102464626
-0.0529128663481734,-0.135035328895875
-0.0520055652976489,-0.131758430794713
-0.0510928714103169,-0.128534595292368
-0.0483276886971783,-0.119179465620481
-0.047398670142644,-0.116165874477205
-0.0417842462437047,-0.0991701400958561
-0.0408465757798412,-0.0965165219047378
-0.0399097094686959,-0.0939134768550563
-0.0389741519513478,-0.0913607871628538
-0.0371089729406222,-0.0864055943241225
-0.0352550402488261,-0.0816491673239549
-0.0343335339814229,-0.0793449284679692
-0.0334163270082304,-0.0770897025282381
-0.0325039115560345,-0.0748832596637038
-0.0315967780912885,-0.0727253682514572
-0.0298003102032122,-0.0685543043017285
-0.0289119479327022,-0.0665406594887542
-0.0280308119592131,-0.064574621551853
-0.0271573839809216,-0.0626559497627376
-0.0262921439475321,-0.0607844015355258
-0.0254355700615453,-0.0589597324154392
-0.0245881387793467,-0.057181696067863
-0.0237503248121221,-0.0554500442677607
-0.0221054389456899,-0.0521248918966449
-0.0205046752724197,-0.0489822513128988
-0.0197220075098617,-0.0474787320123327
-0.0181944213854676,-0.0446059965318694
-0.0174504262955675,-0.0432362549373089
-0.0167202424629098,-0.0419105772173757
-0.016004327164547,-0.0406286957344898
-0.0153031359331786,-0.0393903408659661
-0.0146171225565759,-0.0381952409972393
-0.0139467390769288,-0.0370431225153716
-0.0126546612449335,-0.034866725231578
-0.0120338622422043,-0.0338418891573282
-0.0108449693222432,-0.0319175338095176
-0.0102777602585768,-0.0310174451189289
-0.0097292964424841,-0.0301583660817286
-0.00820074817582593,-0.0278242786471412
-0.00773162827211486,-0.0271263197399086
-0.00728342629908563,-0.0264679009909816
-0.00685657152274563,-0.0258487223369713
-0.00606861182590724,-0.0247268747450673
-0.00537114810164364,-0.0237583351582297
-0.00505740668124898,-0.023330783746745
-0.0047675510684142,-0.0229406286456416
-0.00426116321156566,-0.0222712470824341
-0.00404545952379662,-0.0219913852769929
-0.00385529875447974,-0.0217476490923895
-0.0036910907614256,-0.021539715653532
-0.00344216368809735,-0.0212299550950063
-0.00335825547459055,-0.0211274718050519
-0.00330192177000488,-0.0210594789190122
-0.00327356358067918,-0.0210256431379074
-0.00327358014166494,-0.0210256290765978
-0.00336032559781098,-0.0211257141413414
-0.00344784410622431,-0.021225132065776
-0.00356531659180021,-0.0213570093071432
-0.00371313343378602,-0.0215210000500794
-0.00410135285354615,-0.0219439283544322
-0.00461559000737777,-0.0224911087658068
-0.0049209223873435,-0.0228104068313738
-0.00525890425137984,-0.0231596997439721
-0.00562991360528155,-0.0235386271085833
-0.00694486023280905,-0.0248495807878388
-0.00745172437511844,-0.0253434004505606
-0.00983175791977467,-0.0275929534459707
-0.0105167347307036,-0.028222030513898
-0.0119971799027788,-0.029557550615062
-0.0127933640102292,-0.0302632252142041
-0.0136273300777423,-0.0309936604541125
-0.0144994316570096,-0.0317484669670478
-0.015410020578872,-0.0325272533281603
-0.0173480591978302,-0.0341551896206068
-0.0183762039957596,-0.0350035464326472
-0.0194442263486119,-0.0358742968578073
-0.0205524695583723,-0.0367670392122212
-0.0217012752382036,-0.0376813697654584
-0.0228909833187467,-0.0386168827422216
-0.0241219320547128,-0.0395731703240128
-0.0267088961737498,-0.041546427822407
-0.0280655797501239,-0.0425625719004388
-0.0309070080595066,-0.0446518108381643
-0.0323924111317577,-0.0457240676415746
-0.0354942287883741,-0.0479217455278389
-0.0371112920135385,-0.0490463163602774
-0.0387728879362578,-0.0501874715686319
-0.0404793369007611,-0.0513447809541056
-0.0458709819769466,-0.0549093017713474
-0.0477600152823959,-0.056126885329766
-0.0496954799995064,-0.0573584416654841
-0.0516776872142953,-0.058603528420513
-0.0600801105548314,-0.0637102615743235
-0.0623006445261979,-0.0650162941523952
-0.0645697564954937,-0.0663331604541444
-0.0668877473454781,-0.067660403933856
-0.0692549165620545,-0.0689975660156683
-0.0716715622508672,-0.0703441860921463
-0.0741379811543901,-0.0716998015226357
-0.076654468669517,-0.0730639476313894
-0.0818388245033795,-0.0758159629923327
-0.0845072770535135,-0.0772028926973398
-0.0899981824445446,-0.0799962319547036
-0.0986238572176806,-0.0842277863437501
-0.101604042457262,-0.0856474611108004
-0.104637180517756,-0.0870709072756182
-0.114057125285261,-0.091358991161494
-0.117304882931545,-0.0927926295056482
-0.127375371959446,-0.0970994370973228
-0.130842192850259,-0.0985353377246737
-0.134364466626775,-0.0999705490549526
-0.137942466329039,-0.101404564883227
-0.145266731491608,-0.104266974484098
-0.14901353894743,-0.105694345088148
-0.156677852954997,-0.1085388436935
-0.168605099013927,-0.112772196711874
-0.172696790602929,-0.114172316685532
-0.176846897633547,-0.115566059462619
-0.189650365481915,-0.119703709294805
-0.198482946588382,-0.122420471665745
-0.202989110171024,-0.123764732793504
-0.231300908470009,-0.131598176852547
-0.236234466919469,-0.132859904853873
-0.241230134330822,-0.134107616671782
-0.251408849753986,-0.13655873347634
-0.256592425211027,-0.137761002896588
-0.272523194095245,-0.141267786939289
-0.277961014666425,-0.142401450174045
-0.283463060393413,-0.14351651256227
-0.335915875693265,-0.152617537260197
-0.348301295493327,-0.15438512698185
-0.387086276208857,-0.159048296527121
-0.414323015199147,-0.16157355463313
-0.428362423855142,-0.162645674232089
-0.464708378813961,-0.164727980157301
-0.472193901163793,-0.165036553397992
-0.526650819146952,-0.166106141341026
-0.542881620248029,-0.166040090966012
-0.576257066053686,-0.165374897590146
-0.593407613424574,-0.164763880780499
-0.628649752816325,-0.162954638639316
-0.637658676762015,-0.16237546763909
-0.68391463390705,-0.158678691470641
-0.712653223784651,-0.155790453670145
-0.742145960653244,-0.152371867841278
-0.76223333799479,-0.14978662901279
-0.803448200020383,-0.143849217275422
-0.86793803890378,-0.13291454007036
-0.982868897705571,-0.108754970064549
