-0.9231521259802,0.667324762779308
-0.835943832858856,0.601017455490156
-0.712656738856791,0.521193594243288
-0.612361782965895,0.511721652209688
-0.520261394678646,0.454733361453555
-0.41149783142255,0.389391163377641
-0.34759833192221,0.367703541129416
-0.206428740073186,0.2818462631655
-0.112561157231832,0.203303008408532
-0.0626852770711642,0.124147317752459
0.00213122578857727,0.0419661734392205
0.057252605565194,-0.0470879721817282
0.107283590434113,-0.113245770260248
0.107035262597687,-0.231846837498764
0.184174601586452,-0.336310576117895
0.155626252146472,-0.482499697936302
0.204597625406205,-0.583285247048938
0.217258675515552,-0.702440083380759
0.221937280437241,-0.819516499436083
0.248471023338988,-0.93657408141469
-0.950225902020693,0.682894871268955
-0.889455462374768,0.563082351780048
-0.901550803330947,0.457692319142913
-0.869040063659376,0.34697874195107
-0.803845401527773,0.203897520578744
-0.830281636903974,0.0925097707389163
-0.764941086951698,0.0135960714915115
-0.779404527401119,-0.127683616992324
-0.72917386696329,-0.255234303241738
-0.70401934943623,-0.347609236722276
-0.670225024540865,-0.403150846149131
-0.535343487948058,-0.514289714982758
-0.474344275344662,-0.557703043970728
-0.413909374008905,-0.637361792223027
-0.321270526708993,-0.699819307647664
-0.221555088194073,-0.757260133726752
-0.116422569738199,-0.810860720007033
-0.00817866312077087,-0.862255601963624
0.0998649507074525,-0.913792474134298
0.202418902509345,-0.969221040506517
