-0.0391570719600263,-0.906941598401093
-0.0387021958635273,-0.906867903509504
-0.0382101370381204,-0.906785989145143
-0.0376770576826835,-0.906694765453552
-0.0370986402109961,-0.906592973672703
-0.0364700166978875,-0.906479156008298
-0.0357856863888598,-0.906351619407674
-0.035039418991119,-0.906208391844581
-0.0342241409785505,-0.90604716937607
-0.0333318015445873,-0.905865251783727
-0.0323532140966736,-0.905659464034599
-0.03127786826805,-0.905426060052632
-0.0300937062811497,-0.905160604325742
-0.0287868560739817,-0.904857825615251
-0.0273413118228637,-0.90451143538607
-0.0257385502684471,-0.904113901405978
-0.0239570684591299,-0.903656164090303
-0.0219718250180628,-0.903127279346783
-0.0197535626310789,-0.902513966562652
-0.0172679839128851,-0.901800033497763
-0.0144747458575217,-0.900965640542601
-0.011326229384103,-0.899986354141538
-0.00776602967284095,-0.898831921865793
-0.00372709965352971,-0.897464677805042
0.00087053718990324,-0.895837454022036
0.00612260776230246,-0.893890828076872
0.0121440690655836,-0.891549472819701
0.0190733950737841,-0.888717285328292
0.0270778406955486,-0.885270846553827
0.0363598652751019,-0.881050587366348
0.0471648873280833,-0.875848790434546
0.0597904806982971,-0.869393214774816
0.0745969587485124,-0.861324659281793
0.0920189337765929,-0.851166150476073
0.112576715451324,-0.838280629155211
0.136885029740294,-0.821813053791456
0.165653995721968,-0.800611910891273
0.199672771135495,-0.773124740393199
0.239758525393662,-0.737263715776517
0.286640801094981,-0.690243377063081
0.340732520188156,-0.628409024962607
0.401715110112514,-0.547111547361861
0.467846629849507,-0.440758808181238
0.53492110674487,-0.30330166192173
0.594940560046328,-0.129583980906831
0.634933206004188,0.0819097151671069
0.637043243735094,0.324670183138707
0.58173156916814,0.579156207342509
0.455489578855859,0.810556320966232
0.261237312711886,0.974436397919076
0.0244076790087396,1.03229671694666
-0.213124684829914,0.969877434929062
-0.410223581304076,0.8046361905805
-0.542811060683675,0.576085143088428
-0.608452038906012,0.32734404832839
-0.619771896224322,0.0910428106036958
-0.59466235341632,-0.114968680376217
-0.549389723093546,-0.284937441705535
-0.495840126598046,-0.420405405682265
-0.44147888921691,-0.526192301459432
-0.390389366207941,-0.607920852722518
-0.344429424840508,-0.670804430430086
-0.30414130046185,-0.719205465945081
-0.269363346253563,-0.756582155855824
-0.239603550666167,-0.785595267181156
-0.214251331498215,-0.808259381133476
-0.192689094528243,-0.826088172159936
-0.174345408245709,-0.840216291674061
-0.158715904706611,-0.851495209593642
-0.145367321798782,-0.860566024011621
-0.129490055020438,-0.857036875821001
-0.122216587342071,-0.862466591163339
-0.131304342405977,-0.838186095237926
-0.108626957302838,-0.877943652871147
-0.0726583177790027,-0.864904587626655
-0.0963802314913537,-0.889111627260643
-0.101662359303044,-0.870378197771423
-0.111146039491669,-0.897307792023963
-0.0401556507810449,-0.876994890310271
-0.125248379111077,-0.891101327413973
-0.077251057485093,-0.897935049858631
-0.0746375996224417,-0.89901633931349
-0.0819265838915149,-0.858586721019661
-0.0702239948203115,-0.90076515436149
-0.0879617579541671,-0.880151053831029
-0.0614589263320754,-0.920222143926036
-0.0500497358815721,-0.912974822389525
-0.0389086706016074,-0.926068033342004
-0.0633679890678009,-0.900762147612852
-0.100436544055008,-0.914827299069184
-0.0651657136415449,-0.927631989991491
-0.0775079633979408,-0.903815872896934
-0.0586383700606495,-0.904820849618256
-0.0578617839166098,-0.905059821385185
-0.0635855735413369,-0.903631965630201
-0.0723447791067235,-0.884506380076042
-0.0567720173957785,-0.895468038532249
-0.0553431055990539,-0.90579986930571
-0.0548328088667463,-0.905942778130169
-0.0543613684652681,-0.906072531205423
