-0.970508111417202,0.416210322616148
-0.928814322355752,0.408712066807406
-0.88529013563142,0.406242787246052
-0.840788879925689,0.406457982648342
-0.795657259850204,0.40840508992256
-0.75011463504608,0.411481423408002
-0.704320213958232,0.415249561497279
-0.658398061009215,0.419368639990864
-0.612449081834445,0.423561422933952
-0.566557663042834,0.427596060024057
-0.52079572047173,0.431274964121963
-0.475225342089224,0.434427549937317
-0.429900603983372,0.43690524463926
-0.384868868375136,0.438577921595155
-0.340171740586953,0.439331271121085
-0.295845792067949,0.439064813986375
-0.251923117285254,0.437690371367295
-0.208431769030254,0.435130868852963
-0.165396102315919,0.431319391595191
-0.122837047826277,0.42619843301224
-0.0807723297746211,0.419719296228308
-0.0392166388605919,0.411841618877856
0.00181823190967232,0.402532999942813
0.0423232828909194,0.391768713101066
0.0822922308811173,0.379531495396909
0.121721456764719,0.365811403392099
0.160609975846161,0.350605731657809
0.198959429839472,0.333918990766261
0.236774100237976,0.315762944023688
0.274060943525545,0.296156704212445
0.310829649462874,0.275126893731242
0.347092724548535,0.2527078739025
0.382865603787337,0.228942052053404
0.418166795193359,0.203880278534712
0.453018063146603,0.177582350489031
0.487444659009444,0.150117645464295
0.52161671415985,0.118787369768638
0.559905379119356,0.110929532164756
0.587540871127436,0.0727090729469479
0.62154989762101,0.0303647612338192
0.637967847731028,-0.0143777251442117
0.687031531545938,-0.0338279277416122
0.720096918527853,-0.0754667764496847
0.752544863308049,-0.0594949184137631
0.784625968657374,-0.131842414873303
0.817334627695416,-0.164027112532226
0.848803986107985,-0.172629313069123
0.916412606943693,-0.23258508999665
0.941659730750766,-0.211518241808554
0.972300874835901,-0.244787162262263
-0.966289217892955,0.371270952279235
-0.959631027671086,0.382282324612278
-0.898820346377646,0.369068838740333
-0.864868731670707,0.340299133715089
-0.829265356256157,0.338185390683107
-0.832109469553501,0.264388042042324
-0.80432313816777,0.273851948358361
-0.756677244359565,0.236392938657173
-0.700944177698604,0.180423145314702
-0.713520071204365,0.139390261483101
-0.635691798235981,0.11560058488078
-0.602809306205817,0.083893489442471
-0.605493784898529,0.0628687049640819
-0.528959997174191,0.0343906320423015
-0.496627137510009,-0.0026753461413838
-0.471661189872468,-0.0530237324687069
-0.43384717894644,-0.0621418801022839
-0.398885656788771,-0.0881368872109069
-0.363468453090436,-0.112879919576091
-0.327574637167409,-0.136313470616095
-0.291186484806396,-0.158388843455117
-0.254289305307755,-0.179065675727621
-0.21687130566535,-0.198311566415534
-0.178923486233928,-0.216101789196742
-0.140439563811456,-0.23241908111554
-0.101415919282389,-0.247253498733685
-0.0618515679511614,-0.260602336622351
-0.0217481515318021,-0.272470105353758
0.0188900484823631,-0.28286856823414
0.0600560756074635,-0.291816838045853
0.101740240082804,-0.299341537187604
0.143930035409812,-0.305477026981818
0.18661002658368,-0.310265714755677
0.229761705590327,-0.313758450859941
0.273363308049753,-0.316015032437215
0.317389582599581,-0.317104837035434
0.361811501424884,-0.317107617920649
0.406595895768759,-0.316114505503484
0.45170499351121,-0.314229277830709
0.497095825638692,-0.31156999129678
0.542719452274928,-0.308271107106676
0.588519932539103,-0.304486321567259
0.634432917363021,-0.300392432290365
0.680383663031348,-0.296194795946114
0.726284106665675,-0.292135363304434
0.772028318040303,-0.288505175268467
0.817484882949598,-0.285665289400787
0.862482731340517,-0.284085716809278
0.906780081566292,-0.28443074710887
0.949972276921951,-0.287812165459104
