-0.0261078475474863,0.974500145254002
-0.00319219226439642,0.973157233886923
0.0226524068213314,0.938344782287321
0.0542352122143424,0.911395554810579
0.0608126872797372,0.910886257261478
0.106017778431212,0.922103828440694
0.0974206052402208,0.881215042477466
0.110790235389189,0.849906224605979
0.131879689753644,0.865948265398167
0.155637065659433,0.838514928919816
0.184003804210813,0.829822048542113
0.155700474276885,0.808094997417549
0.176409671679619,0.782959015372961
0.208708920479259,0.783492328893175
0.235109807768382,0.742103012177283
0.26661819314561,0.783813433514231
0.308471044018409,0.744720187138454
0.24845272528451,0.67625216865173
0.302301534975577,0.731970618041472
0.35880102811502,0.701161414852895
0.378920179025205,0.687318223880439
0.37047204226568,0.660653680152302
0.401625041629379,0.675739684975799
0.450849104022413,0.6307588309436
0.429730179658887,0.633052624850929
0.4784404642708,0.663868848585663
0.495953509986723,0.602246257845852
0.514680443281197,0.587641902393416
0.471197862991802,0.55031649630912
0.551331690428194,0.557994376892852
0.569230534104613,0.542937281583953
0.586829218148387,0.527716080571955
0.582704545407738,0.505666676474871
0.621083689408283,0.496758170364903
0.659578500065477,0.488690191772614
0.6589697824176,0.479556363921567
0.652964411198855,0.443939925645312
0.656577234094182,0.400321483610319
0.701256170609493,0.418742075044947
0.715662372518453,0.399409617565425
0.719948961554985,0.391940080863222
0.763506828767856,0.378563231402059
0.758225494340815,0.405131692559649
0.759214024637216,0.351751887130133
0.802090552089373,0.324818584502506
0.778035573292673,0.269976608522014
0.809010368772307,0.276545317737749
0.83288040434907,0.262567100068176
0.793866308895268,0.200429491333558
0.86984978879341,0.229220037273639
0.840477687819174,0.215700972680503
0.86380468629197,0.182288430619777
0.873557679591986,0.162777770081008
0.882909570620067,0.143047815662611
0.891861704373308,0.123099302712281
0.900415918982625,0.102933236187825
0.908574549488755,0.082550892721609
0.92420696669142,0.0644003965472397
0.923716913059565,0.0411438563533151
0.96912717478977,0.0126704471765019
0.90088146401502,-0.00500536092491464
0.924942417657482,0.0192350412629297
0.949864301975503,-0.0575605582341797
0.979788214001467,-0.0558781038109794
0.960051657601008,-0.0880482938208156
0.964840431591625,-0.11027303250836
0.977224158323206,-0.125700475676501
0.973396674123593,-0.155280886262555
0.997773257961973,-0.18612207489055
0.982039056353444,-0.2169646517999
0.997341582305274,-0.203071525471697
0.980034943836654,-0.239386681600277
0.967856967869602,-0.260128767595784
0.970349362561215,-0.296104086404515
0.985316871511712,-0.27391657127844
1.03420385505547,-0.321338650273965
1.03418845273642,-0.352055991707531
1.00975031290505,-0.387349224428191
0.971281657120492,-0.419916454553212
0.99675463588714,-0.453029095471217
1.0015065311491,-0.462870085155151
1.03380719670048,-0.46845123568751
0.993607046391818,-0.501513607989704
1.00160366499405,-0.532304349317784
1.01034223668293,-0.563053646367426
1.02010172752442,-0.586897200106988
1.02520162749158,-0.586883384038143
1.00527503249829,-0.634710011268864
0.995628429748,-0.685136606536235
1.00879315813857,-0.681079741126195
1.0073604133036,-0.708098562857198
1.02915120736088,-0.717738568967418
1.01957230247104,-0.754109760845877
1.00953115535229,-0.798939705048337
1.0134781078645,-0.80412543119367
1.01607233791976,-0.827549988698685
1.01930362309989,-0.850626250271107
1.02333661272013,-0.873264197505045
1.02841738422399,-0.895329292949454
1.03500795239286,-0.916568940144659
-0.0132247079495783,1.00077737336888
-0.0142489267291771,0.970668091469858
0.0331959542337647,0.956505653408762
0.0257260926466517,0.943129721421428
0.0205552889161891,0.888876406685745
0.0353925108066362,0.88871599567693
0.0124977646561543,0.857849871751024
0.0346736747236339,0.82521364585724
0.0211539485193014,0.767182236732597
0.0302977573331816,0.769988408089688
0.0170707233604877,0.733163314381897
0.038754340236135,0.724149103433624
0.00935372253189443,0.687553449563477
0.0510789879882863,0.709309345030492
0.0336000216521812,0.647579368998316
0.0264142455764887,0.625657130211224
0.0345113278042457,0.59839181376756
0.0250640882834794,0.562410777813538
0.0187675102363104,0.523500037843389
0.0309591285141605,0.546538733575687
0.0512031085357762,0.512091014388848
0.0480288300422966,0.504830289314575
0.0396253796501131,0.454221975038595
0.0403832212455423,0.427701871198023
0.0551758675121519,0.449134444307237
0.0435712847415081,0.379759083164688
-0.00223472157981918,0.358758182089041
0.0475717265103052,0.310070351680735
0.0470614240466013,0.308416542482361
0.0594712564858551,0.296131748554314
0.0868925084863588,0.237605815973252
0.045750807447095,0.224915674668111
0.0676249138725822,0.225554431530438
0.0614359607581036,0.173298734060375
0.0710490293894808,0.171195874486396
0.0756651748733201,0.148876754944805
0.0806525843516939,0.122701989758139
0.08694714312074,0.0700295079713294
0.0916261114877749,0.083074359502389
0.0680666990245555,0.0755783033466591
0.083239691076613,0.0608838133736601
0.123952420680379,0.0254879582305243
0.118077505210752,-0.00183550429822656
0.134065181407626,0.00565207695440868
0.133610107612544,-0.0430291861352318
0.169974552189937,-0.0457881475512068
0.160010140900151,-0.0852310850026243
0.159984100020885,-0.134203569454403
0.169423238778413,-0.122820725090647
0.179377134261888,-0.142221546762076
0.18001609675127,-0.147170346488754
0.200491649792824,-0.180363439887111
0.23250808895148,-0.204686945878936
0.220424135271049,-0.189242473741904
0.235174739789499,-0.235929908142247
0.261236637195112,-0.262125237341152
0.270719329735094,-0.299570870776105
0.295839928623493,-0.257880868886626
0.286973008540592,-0.306981923333456
0.284934859103964,-0.310029408338641
0.309839420723423,-0.338375494125381
0.329878873975958,-0.358052769266229
0.367129339060312,-0.384814737586731
0.36548651019326,-0.425033589302491
0.39348907811271,-0.427932883307148
0.389604241165468,-0.42875006479056
0.408710906574825,-0.439167562295122
0.424975906655328,-0.457838326694299
0.423666535091554,-0.46757166630002
0.460086537184367,-0.485607749678833
0.477836694988635,-0.500746135730845
0.501793005945388,-0.515723832723984
0.488427512361571,-0.549684862771862
0.530765433350862,-0.532765636055878
0.531920015733361,-0.559022989606998
0.570753993658027,-0.574160118122844
0.593595933082799,-0.632040103691216
0.631191271081149,-0.60210825040404
0.629330128338335,-0.616663587658166
0.68590546595037,-0.612830111231438
0.669277516356489,-0.644509020350953
0.683811166152752,-0.657251509691077
0.720279724680358,-0.667308041616402
0.707486766647927,-0.667437480028423
0.750559445566929,-0.699441490129028
0.749227843156745,-0.697646288546034
0.788913084558152,-0.684917644499665
0.817876380892084,-0.746799075276371
0.827060971093312,-0.741335198016602
0.832590905732193,-0.753179591932249
0.907610835850647,-0.783217371770412
0.892800094497711,-0.803536229131548
0.944855902847683,-0.824363275644854
0.931259313898204,-0.824233859551609
0.950093110671813,-0.838779789738047
0.968412249975887,-0.853607097620577
0.986094334155097,-0.868782701435697
1.00835833549251,-0.853458611843924
1.03172555768732,-0.876170897688992
1.02212534006493,-0.879619111219718
