0.895801448831752,-0.577862434952858
0.895728250270179,-0.577818214153304
0.895513943843829,-0.577676182509077
0.895166473506973,-0.577422333126981
0.894693780980626,-0.577042749578601
0.894103786254397,-0.576523640544663
0.893404368211498,-0.575851374218769
0.892603345420581,-0.575012512392847
0.891708457137665,-0.573993844147354
0.890727344560927,-0.572782419070115
0.88966753238055,-0.571365579928775
0.888536410665153,-0.569730994722994
0.887341217125532,-0.56786668804395
0.886089019795626,-0.565761071670194
0.884786700169608,-0.563402974330644
0.883440936833032,-0.560781670567323
0.882058189624791,-0.557886908632478
0.880644684365465,-0.554708937356829
0.879206398186357,-0.551238531928015
0.877749045492134,-0.547467018520721
0.876278064588574,-0.543386297722512
0.874798605005415,-0.5389888667021
0.873315515542731,-0.53426784006957
0.871833333067605,-0.529216969380972
0.87035627208622,-0.523830661242763
0.868888215114686,-0.518103993974636
0.86743270387017,-0.512032732792544
0.865992931301996,-0.505613343476983
0.864571734480535,-0.49884300449499
0.863171588359739,-0.491719617547767
0.861794600427204,-0.484241816519329
0.860442506253687,-0.47640897480515
0.859116665951911,-0.468221211003406
0.857818061552499,-0.459679392955037
0.856547295302782,-0.450785140122549
0.855304588892162,-0.441540824301186
0.85408978360561,-0.431949568659796
0.852902341404797,-0.422015245112478
0.851741346934274,-0.41174247002578
0.850605510448008,-0.401136598269959
0.849493171649545,-0.390203715626493
0.848402304436977,-0.378950629567713
0.847330522541868,-0.367384858428038
0.846275086049291,-0.355514618989907
0.84523290878412,-0.343348812511014
0.844200566546778,-0.330897009222953
0.843174306179746,-0.318169431334782
0.842150055444221,-0.305176934578335
0.841123433684542,-0.291930988335406
0.840089763256173,-0.278443654390047
0.839044081691343,-0.264727564352336
0.837981154574771,-0.250795895802892
0.836895489100287,-0.236662347210319
0.835781348277647,-0.222341111676454
0.834632765757348,-0.207846849566949
0.833443561239865,-0.19319466008719
0.832207356434404,-0.178400051865907
0.830917591531027,-0.163478912611062
0.829567542148835,-0.14844747790467
0.828150336721816,-0.133322299205116
0.826658974282979,-0.118120211127337
0.825086342606479,-0.102858298072826
0.823425236666623,-0.0875538602828772
0.821668377371931,-0.0722243793897878
0.819808430531789,-0.0568874835418594
0.817838026012694,-0.0415609121789871
0.815749777040659,-0.0262624805364185
0.813536299605987,-0.0110100439548774
0.811190231926407,0.00417853792431924
0.808704253924386,0.0192854370002591
0.806071106674407,0.0342928925105621
0.803283611776048,0.0491832467077507
0.800334690608835,0.0639389803352315
0.797217383425116,0.078542747824704
0.793924868237525,0.0929774121374207
0.790450479458056,0.107226079172514
0.786787726246321,0.12127213166656
0.782930310525175,0.13509926250968
0.778872144622637,0.148691507404768
0.774607368499853,0.162033276797896
0.770130366525756,0.175109387009565
0.765435783760069,0.187905090498233
0.760518541707395,0.200406105189508
0.755373853506284,0.212598642806416
0.749997238518449,0.224469436138439
0.74438453628458,0.236005765189324
0.738531919814665,0.247195482146169
0.732435908182135,0.258027035114942
0.726093378392758,0.26848949057027
0.719501576500754,0.278572554470268
0.712658127946314,0.288266591990068
0.705561047090412,0.29756264583085
0.69820874592458,0.306452453064289
0.690600041935156,0.314928460475623
0.682734165103382,0.322983838371866
0.674610764024652,0.330612492825117
0.666229911132157,0.33780907632438
0.657592107012188,0.344568996812863
0.648698283800333,0.35088842509131
0.639549807649895,0.356764300571541
0.630148480265879,0.36219433536807
0.620496539499988,0.367177016719329
0.610596659004174,0.371711607733782
0.600451946942342,0.375798146459906
0.590065943761932,0.379437443282742
0.579442619029195,0.382631076653478
0.568586367334025,0.385381387162174
0.557502003272328,0.387691469967467
0.546194755515927,0.389565165600729
0.534670259982035,0.391007049165765
0.522934552116356,0.392022417958696
0.510994058305811,0.392617277536204
0.49885558643885,0.392798326263739
0.486526315633192,0.392572938378679
0.474013785152707,0.39194914560673
0.461325882536929,0.390935617373066
0.448470830968477,0.389541639652821
0.435457175905325,0.38777709250859
0.422293771006529,0.385652426365474
0.408989763381564,0.38317863707704
0.395554578194954,0.380367239838221
0.381997902659306,0.377230242003767
0.368329669451204,0.373780114873255
0.354560039585742,0.370029764505972
0.340699384786645,0.365992501631135
0.326758269390078,0.36168201072091
0.312747431821253,0.357112318295541
0.298677765683942,0.352297760531593
0.284560300503813,0.347252950245882
0.270406182167324,0.341992743328992
0.256226653098559,0.336532204703531
0.242033032216999,0.330886573883306
0.227836694719693,0.325071230210471
0.213649051731687,0.319101657848404
0.199481529868886,0.312993410608606
0.185345550757693,0.306762076690248
0.171252510555883,0.300423243411193
0.157213759519179,0.293992462009315
0.143240581657866,0.287485212592754
0.129344174527616,0.280916869317396
0.115535629198386,0.274302665869369
0.10182591044485,0.267657661329619
0.0882258372013417,0.260996706496765
0.0747460633237194,0.25433441074341
0.0613970586998357,0.247685109479859
0.0481890907495753,0.241062832297832
0.035132206354525,0.234481271865221
0.0222362142563964,0.227953753641253
0.00951066796229039,0.221493206479566
-0.00303515080624889,0.215112134184712
-0.0153922480846343,0.208822588085457
-0.0275519330226296,0.20263614068595
-0.0395058325946377,0.196563860453444
-0.0512459056312184,0.190616287798641
-0.0627644561416792,0.184803412302131
-0.0740541458991613,0.179134651237517
-0.085108006261269,0.17361882943898
-0.0959194492009993,0.168264160557968
-0.106482277524482,0.163078229750603
-0.116790694253831,0.158067977834195
-0.126839311155287,0.153239686947933
-0.136623156394697,0.148598967749469
-0.146137681304353,0.144150748175674
-0.155378766247144,0.139899263792316
-0.164342725566005,0.135848049753857
-0.173026311608681,0.131999934390977
-0.181426717819853,0.128357034439748
-0.189541580894757,0.124920751922738
-0.197368981990524,0.12169177268859
-0.204907446993529,0.118670066612942
-0.212155945843155,0.115854889459789
-0.219113890914464,0.1132447863987
-0.225781134464355,0.11083759716959
-0.232157965147863,0.108630462883019
-0.238245103613324,0.106619834440385
-0.244043697187164,0.104801482554695
-0.249555313661086,0.103170509349042
-0.254781934196438,0.101721361506361
-0.25972594536247,0.100447844940592
-0.264390130327141,0.0993431409559213
-0.268777659220984,0.0983998238574838
-0.272892078696381,0.0976098799736264
-0.276737300706393,0.0969647280466822
-0.280317590528988,0.0964552409461298
-0.283637554064203,0.0960717686550548
-0.286702124433375,0.0958041624779701
-0.289516547911116,0.0956418004153139
-0.29208636922218,0.0955736136473312
-0.294417416236779,0.0955881140675491
-0.296515784099223,0.0956734228037079
-0.298387818826008,0.0958172996617908
-0.300040100410647,0.0960071734267205
-0.301479425473626,0.0962301729513711
-0.302712789496856,0.0964731589637692
-0.30374736868291,0.096722756520746
-0.304590501480145,0.0969653880348429
-0.305249669815566,0.0971873067999906
-0.305732480077866,0.0973746309403465
-0.306046643893687,0.0975133777057304
-0.306199958740537,0.0975894980363053
-0.306200288440168,0.0975889113185436
-0.306055543576459,0.0974975402540786
-0.305773661882019,0.097301345762781
-0.305362588637745,0.0969863618413122
-0.304830257129547,0.0965387302984936
-0.304184569206302,0.0959447352891011
-0.30343337598284,0.0951908375681282
-0.302584458731449,0.0942637083881806
-0.301645510004917,0.0931502629634474
-0.300624115033623,0.0918376934246574
-0.299527733438525,0.0903135011905507
-0.298363681301213,0.0885655286826942
-0.297139113631325,0.0865819903119223
-0.295861007270779,0.0843515026663041
-0.294536144273217,0.0818631138323114
-0.293171095796037,0.0791063317827885
-0.291772206541178,0.076071151767399
-0.290345579779607,0.0727480826434451
-0.288897062993129,0.0691281720873103
-0.287432234165741,0.0652030306292706
-0.285956388755271,0.0609648544570354
-0.284474527374543,0.056406446936122
-0.282991344209655,0.0515212387980247
-0.281511216201335,0.0463033069501095
-0.280038193013589,0.0407473918642272
-0.278575987812107,0.0348489135042155
-0.27712796887303,0.0286039857557063
-0.27569715204084,0.0220094293249972
-0.274286194052213,0.0150627830771569
-0.272897386740704,0.00776231378701142
-0.271532652135179,0.000107024280196155
-0.270193538462864,-0.00790334005494878
-0.268881217065871,-0.0162682864002379
-0.267596480237978,-0.0249865712971775
-0.266339739986388,-0.0340561991014138
-0.265111027721084,-0.0434744221066145
-0.263909994872346,-0.0532377423385773
-0.262735914434856,-0.0633419150166401
-0.261587683434771,-0.073781953675745
-0.260463826314049,-0.0845521369388066
-0.259362499224236,-0.0956460169253497
-0.258281495219899,-0.10705642927874
-0.257218250339842,-0.118775504790707
-0.256169850562244,-0.130794682598305
-0.255133039617901,-0.143104724924953
-0.254104227643813,-0.155695733333729
-0.253079500657456,-0.168557166457739
-0.252054630830235,-0.181677859169088
-0.251025087536823,-0.195046043144735
-0.249986049155315,-0.208649368784442
-0.248932415591461,-0.22247492843298
-0.247858821498584,-0.236509280855836
-0.246759650163228,-0.250738476914903
-0.24562904802509,-0.265148086387906
-0.244460939798323,-0.279723225872809
-0.243249044159976,-0.294448587715985
-0.241986889970026,-0.30930846990067
-0.240667832986266,-0.324286806830068
-0.239285073036183,-0.33936720093747
-0.237831671606929,-0.354532955053893
-0.236300569813545,-0.36976710546209
-0.234684606704704,-0.38505245556418
-0.232976537864524,-0.400371610088842
-0.231169054268265,-0.415707009762751
-0.229254801349179,-0.431040966369943
-0.227226398233293,-0.446355698121876
-0.225076457098487,-0.461633365260294
-0.222797602613962,-0.476856105814458
-0.220382491415993,-0.49200607143396
-0.21782383157575,-0.507065463218147
-0.215114402014988,-0.522016567463231
-0.212247071825503,-0.536841791248264
-0.209214819448448,-0.551523697781573
-0.206010751669904,-0.566045041429745
-0.20262812238949,-0.580388802351963
-0.199060351119295,-0.594538220663367
-0.195301041171001,-0.608476830052144
-0.191343997489744,-0.622188490776281
-0.187183244094032,-0.635657421967278
-0.182813041081915,-0.648868233169664
-0.178227901164541,-0.661805955046835
-0.173422605689295,-0.674456069185621
-0.168392220115809,-0.686804536933945
-0.163132108909379,-0.698837827208136
-0.157637949817589,-0.71054294320868
-0.151905747497298,-0.72190744798571
-0.145931846460612,-0.732919488797988
-0.139712943309941,-0.743567820211902
-0.133246098233842,-0.753841825889752
-0.126528745736955,-0.763731539019524
-0.119558704579075,-0.773227661341381
-0.112334186900118,-0.782321580729206
-0.104853806509586,-0.791005387288757
-0.0971165863209391,-0.799271887937274
-0.0891219649132421,-0.807114619432789
-0.0808698022043285,-0.814527859824781
-0.0723603842217426,-0.821506638301408
-0.063594426959705,-0.82804674341201
-0.0545730793123812,-0.834144729647308
-0.0452979250757797,-0.839797922363261
-0.0357709840126873,-0.845004421038314
-0.0259947119771193,-0.849763100857432
-0.0159720000968622,-0.854073612620031
-0.00570617301477472,-0.857936380972684
0.00479901380839171,-0.861352600971141
0.0155393777248058,-0.864324232979992
0.0265103134570744,-0.866853995921919
0.0377067985734892,-0.868945358892224
0.0491233998699661,-0.870602531157889
0.0607542806456363,-0.871830450564071
0.0725932088570593,-0.872634770374424
0.0846335661340673,-0.873021844575162
0.0968683576383328,-0.872998711676163
0.10929022274389,-0.872573077045757
0.121891446516982,-0.871753293819113
0.134663971970864,-0.870548342423287
0.147599413069424,-0.868967808765078
0.160689068451863,-0.867021861130804
0.17392393584903,-0.864721225849964
0.187294727160486,-0.8620771617775
0.200791884159901,-0.859101433651996
0.214405594794978,-0.855806284389632
0.22812581004679,-0.852204406376079
0.241942261312142,-0.848308911820739
0.255844478271436,-0.844133302239818
0.269821807203417,-0.839691437136614
0.283863429707175,-0.834997501949241
0.297958381790897,-0.830065975337545
0.312095573285998,-0.824911595882516
0.32626380754461,-0.819549328272706
0.340451801377669,-0.813994329053367
0.354648205190418,-0.808261912014933
0.368841623271603,-0.802367513298275
0.383020634192361,-0.796326656294774
0.397173811270531,-0.790154916419703
0.411289743055945,-0.783867885837656
0.425357053792268,-0.777481138218867
0.439364423810928,-0.77101019360519
0.453300609812906,-0.764470483464203
0.46715446499433,-0.75787731600952
0.480914958972223,-0.751245841864738
0.494571197467142,-0.74459102014769
0.508112441700045,-0.737927585050702
0.521528127461284,-0.731270012991449
0.534807883810416,-0.724632490407685
0.547941551366309,-0.7180288822677
0.560919200147911,-0.711472701366725
0.573731146927112,-0.704977078477727
0.586367972056116,-0.69855473342315
0.59882053573302,-0.692217947132026
0.611079993670419,-0.685978534744728
0.62313781213331,-0.679847819825237
0.634985782313853,-0.673836609738327
0.646616034012103,-0.667955172246449
0.658021048593314,-0.662213213378364
0.669193671194064,-0.656619856618711
0.680127122151084,-0.651183623464736
0.690815007628411,-0.64591241539334
0.701251329420291,-0.640813497278448
0.711430493909022,-0.635893482295431
0.721347320158904,-0.631158318345998
0.730997047129264,-0.626613276033548
0.740375339991584,-0.622262938215513
0.749478295537678,-0.618111191155669
0.758302446667917,-0.614161217295829
0.766844765950543,-0.610415489662673
0.775102668245138,-0.606875767921838
0.783074012385456,-0.603543096087672
0.790757101918837,-0.60041780189336
0.798150684901592,-0.597499497822402
0.805253952751772,-0.594787083798722
0.812066538162885,-0.592278751528919
0.818588512084159,-0.589971990486538
0.824820379775059,-0.587863595524506
0.830763075943792,-0.585949676098245
0.836417958981567,-0.584225667078377
0.841786804306412,-0.58268634112837
0.846871796832267,-0.581325822618941
0.851675522581074,-0.580137603047633
0.856200959457426,-0.579114557928576
0.860451467207236,-0.578248965114149
0.86443077658366,-0.57753252450708
0.868142977745291,-0.576956379118365
0.871592507913307,-0.576511137423393
0.874784138315931,-0.576186896965755
0.877722960450106,-0.575973269155405
0.880414371691805,-0.575859405205172
0.882864060287847,-0.575834023147056
0.885077989763434,-0.57588543586735
0.887062382780922,-0.576001580097288
0.888823704486553,-0.576170046293844
0.890368645382986,-0.576378109343238
0.891704103766519,-0.57661276001792
0.892837167768841,-0.576860737116051
0.893775097044035,-0.577108560211023
0.894525304142288,-0.577342562937128
0.895095335612506,-0.57754892673634
0.895492852876556,-0.577713714990069
0.895725612918402,-0.577822907458933
0.895801448831752,-0.577862434952858
