0.939549730331677,1.05
0.869684151998693,0.930202800762467
0.813125931928188,0.798140251284801
0.760507606047881,0.662446313728549
0.707729746188968,0.526899418138419
0.652183059764601,0.393904541281806
0.59204058134458,0.265145591447345
0.525986180698141,0.141835641727648
0.453083258776882,0.0248379525187022
0.372703850824121,-0.0852686830390924
0.284489234551079,-0.188153631740856
0.188329912686951,-0.28371597029661
0.0843598306425325,-0.372079155770037
-0.0270365297398681,-0.453597563865457
-0.145202505327575,-0.528876438926125
-0.269167420579038,-0.598810449544547
-0.397571382650768,-0.664653004675786
-0.528524983619416,-0.728145565657943
-0.659314453897962,-0.791789405380744
-0.785605399689524,-0.859579520969
0.939549730331677,1.05
0.825833843079646,0.970619492522138
0.698810597565136,0.903504335284409
0.567847457860428,0.840020566125266
0.437043852134326,0.776389755
0.309009072973678,0.710206925141218
0.185570085808683,0.639788168260284
0.0680430208701073,0.563920411264585
-0.0426355227936491,0.481740393758137
-0.145837580425903,0.392669322600536
-0.241204429737877,0.296376564586904
-0.328626573458764,0.192761196427263
-0.40823795699936,0.0819466751852952
-0.480423062201975,-0.0357126234346802
-0.545838552199283,-0.159611455089407
-0.605455102532836,-0.28885515118638
-0.660632606046121,-0.422190302770537
-0.713260470662488,-0.557875448503775
-0.766052465968957,-0.693409315496369
-0.82334298576241,-0.824796906623508
