0.343137767134665,-0.800336287381644
0.353828088248624,-0.772867896504195
0.33707463103593,-0.792912600626216
0.358256908894338,-0.758426955612465
0.322409785436982,-0.768729185601807
0.341570807249397,-0.717116947746515
0.281829542066479,-0.736048698728484
0.319553562763972,-0.746952272311518
0.290832173321304,-0.667508611637627
0.312393812010861,-0.678411530616938
0.170135726812774,-0.690044015897594
0.391388046468123,-0.41247194885172
0.298442271916554,-0.550459565239882
0.299653684419178,-0.471461840030668
0.342313129784392,-0.428153576622068
0.359064522874261,-0.412509695285645
0.453724806166491,-0.257267421491452
0.317805541030278,-0.324484242071066
0.385532890585178,-0.273386722421241
0.381352590969826,-0.224790983476736
0.436633794753568,-0.2208917008207
0.461355138275265,-0.197997194706066
0.462548179753618,-0.157256816932259
0.511098328706659,-0.180790436851347
0.624781487665529,-0.0542168819496069
0.516854101760959,-0.111573188284438
0.590512051172294,-0.154746368932791
0.563297381926675,-0.157638860830939
0.559259979479328,-0.185081245522209
0.58770857459301,-0.157281837377145
0.566735824314664,-0.136832485984646
0.55719961590435,-0.136411284555884
0.557159574483592,-0.0969096970377076
0.651084302356923,0.00232567530734905
0.502894599822198,-0.124710726704583
0.456003348209433,-0.0813516106419337
0.450174409009476,-0.102510882013702
0.390549071706473,-0.0384141765267316
0.358780319265188,-0.0609081266210561
0.34069690653222,-0.0843447447937272
0.3607909182408,-0.0096330014334496
0.228947741259916,-0.105325108974538
0.232485465069946,0.101686177906109
0.360200975080415,0.19222885587242
0.251664591579952,0.152246232677381
0.21190207829935,0.165181825182929
0.223952092154075,0.202248697849491
0.232442439544459,0.200130826409586
0.0775223298805298,0.161776239710318
0.176891739752251,0.282327257126575
0.261033669283557,0.479712049623999
0.272865654989012,0.472116877195851
0.178991031424095,0.400326767927398
0.186355316780014,0.398220362832585
0.228940041044624,0.439234851450784
0.236866220190296,0.398776588910194
0.226902171302287,0.455071672244726
0.237132327605763,0.474544356847204
0.173209823944354,0.406747146229429
0.206881624399498,0.40155644337353
0.181967169845124,0.440019831313741
0.143322270885132,0.405708120973047
0.188651685827213,0.413366433637826
0.157182035652552,0.385702300840152
0.150650272578397,0.406519444994391
0.0781456399510406,0.375673274907286
0.0450388382234833,0.363799285326953
0.00856367136378158,0.353871433235508
-0.140891349427504,0.23096166218057
-0.116957349746078,0.332953828988284
-0.223217566759877,0.231799449640308
-0.149521698993704,0.388317749843475
-0.201677308658699,0.348321377566819
-0.243998166930813,0.357171915463065
-0.243680481268967,0.332433212347134
-0.31276440478425,0.349682339621057
-0.316103289454791,0.394242559252449
-0.367227180048854,0.420530483909615
-0.513210117521101,0.302306817951246
-0.466751370394428,0.472828777374252
-0.460743591557564,0.474936371390189
-0.476086066548648,0.49188083943818
-0.488038504353073,0.479976062356801
-0.495228738973167,0.518487633523891
-0.53533139006448,0.50751765583379
-0.549806041430605,0.516047248582473
-0.501834137278476,0.531218758687824
-0.457212071100591,0.569400799959321
-0.485167266469014,0.553735793005071
-0.497456062976662,0.503083450803773
-0.538803456672943,0.496665531496715
-0.498231497945464,0.461634961323202
-0.486725419457096,0.461814123529014
-0.606604272439179,0.289009829793787
-0.638571610898811,0.224089497168215
-0.546055334485475,0.328155330643249
-0.641894036442839,0.163943389583086
-0.609936173014189,0.295107469837174
-0.524094575526453,0.380693038519879
-0.592853232293283,0.206169349761026
-0.694486310930753,0.158033449342418
-0.638822427754304,0.156514861953625
-0.685449061696734,0.117704408203675
-0.790632919273893,0.0850664103603464
-0.786278454417465,0.0718465864986838
-0.857351831321765,0.0146397320750812
-0.858815705951723,0.0350934401839067
-0.885084395009405,0.0366926115923488
-0.913286590840231,0.0315495472998388
-0.982712326974489,0.0559963467197864
-0.978464562315642,-0.0105379733975371
-0.968268081194623,0.0789258583661993
-0.994719382643877,0.0517580608182512
-1.03504194859215,0.0398953070255119
-0.961822608838038,-0.0159337898146451
-1.00831170230852,-0.0172756492430112
-0.970607033803001,0.0727060146737258
-0.945203245558501,-0.00734800255139
-0.839406676012627,0.094023732656224
-0.947872045412786,0.000494680233328743
-0.886970338741825,-0.0474668143006933
-0.906687406472991,-0.0688852157453893
-0.919114160708827,-0.0732357385296892
-0.872611052367061,-0.09344510453692
-0.854815624059266,-0.126796607890364
-0.917999343554498,-0.295058354039542
-0.91954234641002,-0.313348003348663
-0.764725956197397,-0.284894590177362
-0.775648235689875,-0.304048309519021
-0.815691696852789,-0.298882656132544
-0.776648252675285,-0.394239149937625
-0.705398023283452,-0.296937114664607
-0.792563356384885,-0.432315426178679
-0.855893335550769,-0.52901478443413
-0.69495293720003,-0.47905457377626
-0.956573008731921,-0.615922199401009
-0.825440783145126,-0.573637695569989
-0.962951618803739,-0.722515967319566
-0.881520133987933,-0.630005146975772
-0.893363092157308,-0.644384957485388
-0.754631873312134,-0.572417622947311
-1.00616756882889,-0.761738690103817
-0.798639433452323,-0.525467888727892
-0.951251936452717,-0.711037632826282
-0.909883151105504,-0.661643346582452
-0.853767551868037,-0.624540016699335
-0.840682615250423,-0.687246747977721
-0.827178355109553,-0.636825017871327
-0.888577470492929,-0.621324486567596
-0.847505834308928,-0.616548329114182
-0.787640554943622,-0.64634159260463
-0.729797677799007,-0.667365015336385
-0.703348504103841,-0.699303586766602
-0.682707387172348,-0.63553762038359
-0.673704036929781,-0.693201310842676
-0.493707635631132,-0.601768177371573
-0.566206344682392,-0.662102989516111
-0.516873814825534,-0.742534053171423
-0.492073300356905,-0.752381376497631
-0.491182653381028,-0.821461456368515
-0.429327093580581,-0.808880859182272
-0.391867909888159,-0.827140872788045
-0.402837173356008,-0.893563022049721
-0.370836222062378,-0.943613535454449
-0.346733735328793,-0.9274601238417
-0.330915502263302,-0.926475715308432
-0.327472498430875,-0.977370950900171
-0.322376649968592,-0.997511467925489
-0.319605406739051,-1.0137019863707
-0.31851940320834,-1.02552962107866
-0.423004585978845,-1.13841245373129
-0.318547544293026,-1.03511460686236
-0.308989686320159,-1.02698167274218
-0.287484011217079,-0.983931160972523
-0.353775682874567,-0.98154441947935
-0.264269813411943,-1.04663780828448
-0.258219254571799,-1.00185755966627
-0.329216591166379,-0.960538336422306
-0.220114255695493,-0.888970919911348
-0.247310689976095,-0.911403745678898
-0.26711639413633,-0.927214294616183
-0.191020928334058,-0.84925682793472
-0.195431624793611,-0.865876934861646
-0.126561796148742,-0.815797482206746
-0.0885350296910474,-0.796067517993891
-0.0285696078824047,-0.738649645919364
-0.00706646824410337,-0.76534991046338
0.0162298205698748,-0.794630872496972
0.0884979989273391,-0.729075295206218
0.0683020908305482,-0.789253516871511
0.141738178453786,-0.728294387712147
0.165255820377919,-0.783294854486625
0.324640839804629,-0.660380850213381
0.219507641987607,-0.780099126925149
0.281280374319405,-0.767021430604446
0.302455395796964,-0.775631018382404
0.345289917029597,-0.799528166378773
0.331246603003749,-0.791297217240068
0.371507403588755,-0.80501182229559
0.324499057840384,-0.760793223585592
