0.922520179391425,0.0696747054001709
1.13119334664212,0.0705406692179457
1.11624251460991,-0.145619966404993
0.863050183647015,0.0703512323396141
1.02493610348257,-0.09736759980746
0.777619486532025,-0.066345655371278
0.805466569296469,0.0748764940248602
0.637533138743496,0.232608131930422
0.676903649446399,0.199196896569154
0.61664944524321,0.276407194191795
0.471870004701052,0.471423512829051
0.516838983144249,0.450223033766525
0.595800170932976,0.437659793785048
0.454459780141996,0.630042404400126
0.3448327083893,0.804724013157594
0.311745891881951,0.684886729286555
0.430613564328112,0.854700206304843
0.316820088643692,1.02566704959197
0.324164971010515,1.03733353833847
0.330080094458042,0.858759399017897
0.543102523499704,0.860055513532579
0.328292005819051,1.08232914705627
0.532319611417772,0.846605262126061
0.307411005374515,1.00511648748567
0.372976833427132,0.874321939263652
0.415141996303117,0.937798768766944
0.260787667982308,0.785457979300244
0.0753552356802216,0.649606558241683
-0.00918931346415211,0.796996950851518
-0.0934913164827536,0.782469030050994
-0.0878754850275317,0.644147451948058
-0.186899545755943,0.62865190281032
-0.284280248316499,0.622710030209378
-0.37670908268858,0.625791287618524
-0.461127586906494,0.63661831467692
-0.534909461657244,0.653251893827455
-0.596015687143187,0.67321838660373
-0.643112889536462,0.693671582549598
-0.675647523715576,0.711578718048842
-0.693871227568366,0.723918893526317
-0.698815784883425,0.727881332106158
-0.692219314136744,0.721050930481546
-0.676408378492537,0.701569352989053
-0.654143493716161,0.66826146216461
-0.628437819814412,0.620719066004893
-0.602360513268222,0.55933665567516
-0.578837182928906,0.485296837411128
-0.560460073007845,0.40050633752799
-0.549319979721801,0.307486579276915
-0.54687053302582,0.20922569777468
-0.55383342831961,0.109001293306297
-0.570150604296238,0.0101850702619775
-0.594986395695944,-0.0839583478087073
-0.626779531028068,-0.170465769249976
-0.663341694805652,-0.246850725512752
-0.70199643045879,-0.311248680258328
-0.73974960973252,-0.362523033603457
-0.773480698093287,-0.400325274169045
-0.800142729536193,-0.425105526583256
-0.816958351325422,-0.438072873846657
-0.821599544535224,-0.441108004732288
-0.812339654307896,-0.436633745945084
-0.78816810960056,-0.427451697061641
-0.748860565618962,-0.416555325453092
-0.695000014531682,-0.406931363382541
-0.627947503836921,-0.401362086496855
-0.549764281562014,-0.402240995465885
-0.463090252526001,-0.411413574196402
-0.3709863866467,-0.430053212440435
-0.276750994652754,-0.458580157863588
-0.183721434954579,-0.496628643108017
-0.095073733751642,-0.543064288817589
-0.0136327307239179,-0.596050706255388
0.0582953033476612,-0.653161113686694
0.119057050901612,-0.711527935488262
0.167745092466065,-0.768020951655655
0.204243588301098,-0.819442759660535
0.229223858225147,-0.862729214496891
0.244090185293391,-0.895142195477332
0.250879312502371,-0.914442529944555
0.252120025946501,-0.919032154148562
0.250661738189588,-0.908056531179311
0.249482942885678,-0.881460852565859
0.25149168229306,-0.839996465675447
0.259330673039395,-0.785177109273556
0.275199440509033,-0.719187706252928
0.300704737166479,-0.644751455651918
0.336748732893875,-0.564963596663996
0.383462078869,-0.483102319287482
0.440186111353516,-0.40242873685539
0.505505357037698,-0.325988523960402
0.57732832335925,-0.256427715796241
0.653011506184141,-0.195834268471307
0.729518816078761,-0.14561535103156
0.803606385589075,-0.106418081621165
0.872021114857615,-0.0780986750251765
0.931700442919366,-0.0597419101370607
0.979960752070196,-0.0497296468302362
1.01466252785483,-0.0458540230428294
1.03434186232616,-0.0454681402862822
