0.101512127657594,-0.491232999167621
0.202695377201482,-0.386532101466454
0.101121406458688,-0.490605402276508
0.100640638117652,-0.489816653353633
0.208708333789149,-0.392364513034119
0.204233037088531,-0.585610166103661
-0.0116932611395622,-0.39478999398284
0.188076103021815,-0.579824582717907
0.213155806671584,-0.387295281658666
0.186960590970003,-0.577569442192977
-0.0167738744894638,-0.590572964270872
0.182729370868928,-0.563984248416373
0.183866005972287,-0.366012975044473
0.086677544188017,-0.464027649224014
0.0844947455032162,-0.459633049726175
-0.0207895791652195,-0.559775981272799
-0.0195075259329486,-0.547608359886697
-0.031449358926062,-0.354238168383985
0.0746430881142615,-0.438747079263386
0.173492663244216,-0.535299258447505
0.0691349360643649,-0.42633344124059
0.0662579705956013,-0.419639284124686
-0.0458315729349602,-0.525214563239854
-0.0420746379371055,-0.499967317775986
0.154466259017284,-0.506496948878349
0.154825696808733,-0.295474678109237
0.0509047554292431,-0.38138756831319
-0.0700333605146782,-0.479461491962604
-0.074820521047416,-0.479247707450986
-0.0660258543420569,-0.262627531611194
-0.0626183602087983,-0.461782239220261
-0.0720423785346635,-0.440822061853753
0.0312024513215871,-0.325392017038538
0.0278717651574326,-0.315045414723354
0.0245440369635865,-0.30442198082174
0.0212252343433507,-0.293527077559203
0.0179212342365144,-0.282366295057472
0.014637816449347,-0.270945447083415
0.0113806573013756,-0.259270566586071
0.00815532339540459,-0.247347901025902
0.00496726551710408,-0.235183907500571
0.00182181267036147,-0.222785247671754
-0.00432060561106973,-0.197311566776314
-0.00730757360798284,-0.184250843504221
-0.0102319525819476,-0.170984038056416
-0.0130891067405218,-0.157518752192599
-0.015874554681396,-0.143862757895395
-0.0185839742457488,-0.130023991046372
-0.0212132071918067,-0.116010544945752
-0.0237582636838771,-0.101830663681914
-0.0262153265923137,-0.0874927353569036
-0.0285807556000621,-0.0730052851743362
-0.0308510911116341,-0.0583769683961854
-0.0330230579605604,-0.0436165631751032
-0.0350935689115741,-0.0287329632690227
-0.0370597279539907,-0.0137351706449218
-0.0389188333829595,0.00136771202127237
-0.0423060650882829,0.0318518789023026
-0.043829784184947,0.0472145230330722
-0.0452376399397434,0.0626449926503593
-0.0465279407660601,0.0781337971689238
-0.0476992032573783,0.0936713920731755
-0.0487501537090608,0.109248186941075
-0.0504870796988348,0.140480833797581
-0.051171566795695,0.156117348207885
-0.0517327663886408,0.171754403718452
-0.0521704679942374,0.187382302037257
-0.0524846750799164,0.20299134778374
-0.0526756049520243,0.218571856665549
-0.052743688409127,0.234114163646161
-0.0526895691609446,0.249608631095651
-0.0522183568215549,0.280415682639396
-0.0518036072087573,0.295709201473364
-0.0512713390579307,0.310916766315917
-0.0506232437719581,0.326028997702312
-0.0498612173077134,0.341036591694366
-0.0489873579848419,0.355930327698714
-0.046913531150733,0.385339806453897
-0.0457187492665846,0.399837593976083
-0.0430278524837643,0.428375219202672
-0.0415380613270983,0.44239780614613
-0.039956561512847,0.45624496321226
-0.0382869652106387,0.46990840719494
-0.0365330575463391,0.483380004244971
-0.0346987923198651,0.496651776593973
-0.0327882875346143,0.509715909131954
-0.028755824213385,0.53519084601856
-0.0244717143759133,0.559745787333499
-0.0222471932748275,0.571660627920486
-0.0199743160101793,0.583324702240871
-0.017658210015209,0.59473150441225
-0.0153041249667069,0.605874737853067
-0.0129174268460784,0.616748320283667
-0.0105035918655545,0.627346388526487
-0.00806820026575883,0.637663303100915
-0.00561692999097463,0.647693652608582
-0.000689914959234095,0.666874176053811
0.00177404389546137,0.67601470405976
0.00423032302105736,0.684849382377388
0.00667285464716194,0.693373998191851
0.00909551344617721,0.701584588469125
0.0114921235267774,0.709477442772795
0.0138564654949629,0.717049105844885
0.0184632927861356,0.731216326970078
0.0206931861581676,0.737806270279783
0.0228656419944004,0.744063796347908
0.0249743311586041,0.74998675611647
0.0270129243880547,0.75557326612459
0.0289750996219588,0.760821709386869
0.0308545493381897,0.765730736024156
0.032644987890793,0.770299263646282
0.0359338422722202,0.778411830288786
0.0387920932715697,0.785156098888688
0.0400444691212265,0.788015253238536
0.0421657226130742,0.792710184219922
0.0430228227958427,0.794547782402411
0.043736526805329,0.79604711768
0.0443011661110518,0.797209749249163
0.0447111726758265,0.79803749176826
0.0450455583917786,0.798696830153291
0.0449593643330881,0.798533308670298
0.0446974041401917,0.798044657223685
0.0442547117062925,0.797233925165575
0.0436264604431386,0.796104398688892
0.0428079693739329,0.794659596952525
0.0417947090913484,0.792903267996058
0.0375434135502313,0.785805939882782
0.0357090141881045,0.782845405647389
0.0336596704322508,0.77959536043184
0.031391879088736,0.776060828539332
0.0289023259565581,0.772247029042273
0.0200728854094983,0.75918501840326
0.0166670823765331,0.754310035108251
0.0130259381853829,0.74918459938136
0.00502948832920502,0.738207580766844
0.000670660944289858,0.732368977027132
-0.0039305447056297,0.726305865759524
-0.00877532833118877,0.72002508027988
-0.0247796891036299,0.699946844757549
-0.0366787206057651,0.685603559448072
-0.0429971650647235,0.678166729792382
-0.0495610443593056,0.670563157476551
-0.0563696688800265,0.662800473060588
-0.0634221069525646,0.654886373249906
-0.0707171843182918,0.646828613262123
-0.0860293455426036,0.630313380148017
-0.110774065769369,0.604659470853587
-0.128427028537571,0.587061981101236
-0.137591856498838,0.578138609115142
-0.146977872891629,0.569142736039985
-0.156581502141471,0.560082278395033
-0.240740039473979,0.486211478106798
-0.25210382486427,0.476919231403956
-0.263637151052969,0.467638904786745
-0.275334053520116,0.458377723708856
-0.287188373663038,0.449142808673424
-0.299193763554992,0.43994116868276
-0.323631444177965,0.421665153967938
-0.336050137979322,0.412604182674033
-0.361251969321033,0.394668807505545
-0.374020517095202,0.385806971952148
-0.386890837750337,0.377023831428041
-0.452495927873512,0.334489157465961
-0.465811234022558,0.326296147596835
-0.505995603134563,0.302433793351121
-0.519441265188023,0.294733428270135
-0.546356560610299,0.279737984354751
-0.55980851124017,0.272450408638659
-0.573244782798933,0.265307583957624
-0.586656406730405,0.258312735246152
-0.600034377609329,0.251468872526517
-0.626653201405858,0.238245058753643
-0.639875930138891,0.23187003624108
-0.666102660106973,0.219604421807874
-0.679088530175163,0.213717426303231
-0.691977342273307,0.207996329819508
-0.704760081969895,0.202442370301664
-0.717427769713185,0.197056561122101
-0.729971468820209,0.191839691190262
-0.742382293440926,0.186792325299166
-0.766770077537501,0.177207247961683
-0.790521352197713,0.168301393150634
-0.80213684853998,0.164102229235349
-0.824805487026302,0.156207633017327
-0.867664747739387,0.142398677575999
-0.897393895724617,0.133719333595102
-0.906803654346603,0.131133677317743
-0.924830758651234,0.126407125239552
-0.957529608405873,0.118643747428654
-0.985429604906583,0.112938577892833
-1.00818817876037,0.109023704762911
-1.01303985901533,0.108290006222317
-1.01754831906328,0.107644460408522
-1.02170997500834,0.107081954344729
-1.02552149622132,0.10659727942707
-1.02897980844548,0.106185138020607
-1.03208209667062,0.105840150146572
-1.03482580777254,0.105556860253857
-1.04088392415873,0.10502163367251
-1.04217311228573,0.10492930987066
-1.04364853234482,0.104839485230312
-1.04383315826655,0.104830432044086
-1.04217082204112,0.104876991217814
-1.04087849778649,0.104897672902305
-1.03921801724476,0.104911239711785
-1.03719036160977,0.104911895044655
-1.03479678526847,0.104893866305296
-1.02891824739412,0.10477882916369
-1.01740296617723,0.104323999719505
-1.00271464503918,0.10339785111629
-0.98494449851682,0.101856742911784
-0.978354980861948,0.101182610929328
-0.932159038486015,0.0951219668567846
-0.914355189623702,0.0922294929617707
-0.905029373339985,0.0906017656788556
-0.885562841272749,0.0869655470342742
-0.865055816586198,0.0827999068183881
-0.843566025325171,0.0780812446929408
-0.761505428388699,0.0569409015863683
-0.749021765579998,0.053310309487452
-0.736373364464635,0.0495235514110379
-0.723568962320747,0.0455799799406093
-0.710617382288899,0.041479163698453
-0.602787230052573,0.00303232663919684
-0.574993529642564,-0.00811558237464505
-0.561021980708193,-0.0139117350080821
-0.476727014355913,-0.0516465060913156
-0.44867005591848,-0.0652792081161337
-0.352030255080664,-0.116541502480648
-0.338536180673486,-0.124253693967525
-0.311863514421853,-0.139918267387809
-0.259995821714813,-0.172047469918707
-0.234918453224545,-0.188414853566241
-0.210486010927552,-0.20491557966522
-0.0897900573497212,-0.295566134929768
-0.0801112400977083,-0.303594020586766
-0.043775141721822,-0.334947279943633
-0.0270784114512959,-0.350061326537642
0.00327397375601984,-0.378857328470357
0.0169020471184686,-0.392417705306818
0.0294862314527751,-0.405339846932168
0.0515110851353939,-0.42903644483787
0.0693635797380732,-0.449495769480152
0.0731823427088748,-0.454054498008898
0.0989303147017844,-0.487406734880962
0.0998719251362233,-0.488774488322754
0.101108316724442,-0.490613743450428
