0.365926534873746,-0.828714510346903
0.365814206633317,-0.828507875738141
0.365481630757356,-0.827885744862196
0.36493553974111,-0.826845010889083
0.364182818418363,-0.825382881814139
0.363230495559886,-0.823496884175528
0.362085735344263,-0.821184866480461
0.36075582870993,-0.818445002336481
0.359248184597382,-0.815275793284477
0.357570321090614,-0.811676071330336
0.35572985646697,-0.807645001172495
0.353734500164626,-0.803182082122894
0.351592043677049,-0.798287149719163
0.349310351383816,-0.792960377026171
0.34689735132725,-0.787202275625355
0.344361025944365,-0.78101369629057
0.341709402763678,-0.774395829349483
0.338950545076438,-0.767350204729872
0.336092542591875,-0.759878691690461
0.333143502086077,-0.751983498236256
0.330111538054083,-0.743667170218659
0.327004763374801,-0.734932590120909
0.323831279998325,-0.725782975529748
0.320599169665199,-0.716221877294491
0.317316484667147,-0.706253177374994
0.313991238658726,-0.695881086380314
0.310631397529331,-0.685110140800148
0.307244870344879,-0.673945199931467
0.30383950036845,-0.662391442503028
0.300423056169085,-0.650454363000746
0.297003222827812,-0.638139767697228
0.293587593249916,-0.625453770389027
0.290183659592307,-0.612402787845468
0.286798804814783,-0.598993534973203
0.28344029436378,-0.585233019700892
0.280115267997137,-0.571128537588718
0.276830731758202,-0.55668766616768
0.273593550107491,-0.541918259013898
0.270410438219914,-0.526828439563412
0.267287954455448,-0.511426594673205
0.264232493010926,-0.495721367934445
0.26125027676045,-0.479721652744166
0.258347350291719,-0.463436585141857
0.255529573145392,-0.446875536417645
0.252802613264366,-0.430048105498999
0.250171940659656,-0.41296411112309
0.247642821299341,-0.39563358380213
0.245220311226793,-0.378066757589275
0.242909250914204,-0.360274061652788
0.240714259857152,-0.342266111666432
0.238639731415729,-0.324053701024176
0.236689827907483,-0.305647791887506
0.234868475957179,-0.287059506073784
0.233179362108127,-0.268300115794255
0.231625928699543,-0.249381034250449
0.230211370014153,-0.23031380609787
0.228938628699968,-0.211110097785975
0.227810392469883,-0.191781687783597
0.226829091082462,-0.172340456699048
0.225996893607002,-0.152798377304261
0.225315705975653,-0.133167504472411
0.224787168825116,-0.113459965038561
0.224412655630109,-0.0936879475929109
0.224193271130516,-0.0738636922163535
0.224129850053835,-0.0539994801680424
0.224222956134242,-0.0341076235347562
0.22447288142926,-0.0142004548518698
0.224879645934772,0.00570968329422699
0.225442997498759,0.0256104486724061
0.226162412033875,0.0454895098119089
0.227037094028662,0.065334556396415
0.228065977356887,0.0851333096372262
0.229247726384206,0.104873532615723
0.230580737371039,0.1245430405853
0.232063140170246,0.144129711223012
0.233692800217893,0.163621494821222
0.235467320815104,0.183006424409587
0.237384045698685,0.20227262579781
0.239440061897937,0.221408327529641
0.241632202874757,0.240401870738707
0.243957051943855,0.259241718896853
0.246410945969623,0.277916467445764
0.248989979335925,0.296414853302778
0.251690008184762,0.314725764231901
0.254506654919546,0.332838248071172
0.257435312968398,0.350741521807686
0.260471151802652,0.368424980491697
0.263609122205474,0.385878205981424
0.266843961785247,0.403090975510305
0.270170200728133,0.420053270068652
0.273582167783978,0.436755282591828
0.277073996479474,0.453187425947259
0.280639631552276,0.469340340712781
0.284272835599541,0.485204902739058
0.287967195934133,0.500772230488964
0.291716131641524,0.516033692147115
0.295512900830227,0.53098091249288
0.299350608068386,0.545605779530499
0.303222211998961,0.559900450870149
0.307120533125762,0.573857359854012
0.311038261762411,0.587469221421724
0.314967966136149,0.600729037709755
0.318902100638225,0.613630103379584
0.322833014212485,0.626166010669796
0.326752958873589,0.638330654167465
0.330654098346212,0.650118235294495
0.334528516816393,0.661523266504865
0.338368227786126,0.67254057518898
0.342165183022154,0.683165307281662
0.345911281589847,0.693392930570559
0.349598378962924,0.703219237702073
0.353218296199735,0.712640348882203
0.356762829176723,0.72165271426997
0.360223757869628,0.730253116061425
0.363592855672943,0.738438670262533
0.366861898748095,0.746206828149506
0.370022675390782,0.753555377415512
0.373066995407869,0.760482443002936
0.375986699494246,0.766986487620732
0.378773668600034,0.773066311946662
0.381419833278532,0.778721054514573
0.383917183005303,0.783950191287119
0.386257775458852,0.788753534914703
0.388433745753333,0.79313123368165
0.390437315613817,0.797083770140998
0.39226080248466,0.800611959439538
0.393896628561599,0.803716947335073
0.395337329738273,0.806400207908151
0.396575564457933,0.808663540970827
0.397604122461202,0.810509069175309
0.39841593342085,0.811939234825613
0.399004075454656,0.812956796395684
0.399361783507525,0.813564824757678
0.399482457594185,0.813766699124413
0.399359670893911,0.813566102710259
0.398987177688844,0.812967018115017
0.398358921137669,0.811973722435614
0.39746904087653,0.810590782110673
0.396311880439254,0.808823047503321
0.394881994489138,0.806675647227816
0.3931741558547,0.804153982225833
0.391183362362035,0.801263719598498
0.388904843456572,0.798010786200484
0.386334066607267,0.794401362002721
0.383466743486451,0.790441873230489
0.3802988359188,0.786138985283879
0.3768265615931,0.781499595447825
0.373046399530711,0.776530825399097
0.368955095304893,0.771240013517862
0.36454966600539,0.765634707011581
0.359827404942899,0.759722653859199
0.354785886088342,0.753511794583783
0.349422968242108,0.747010253861871
0.343736798928662,0.740226331978004
0.337725818012261,0.733168496133037
0.331388761029717,0.72584537161494
0.324724662236468,0.718265732840991
0.317732857362507,0.710438494280307
0.31041298607496,0.702372701265842
0.302764994144454,0.694077520705023
0.294789135312652,0.68556223169834
0.286485972858674,0.676836216075248
0.277856380862386,0.667908948856845
0.268901545162852,0.658789988654836
0.259622964010557,0.649488968016359
0.250022448412292,0.640015583724294
0.240102122167902,0.630379587062704
0.229864421598419,0.620590774057104
0.219312094965375,0.610658975699251
0.208448201581439,0.600594048166164
0.197276110612784,0.590405863043092
0.185799499573931,0.580104297560119
0.174022352516097,0.569699224852084
0.161948957910397,0.559200504251464
0.149583906227538,0.548617971623834
0.136932087215956,0.53796142975544
0.12399868688064,0.527240638802412
0.110789184165178,0.516465306811019
0.0973093473398849,0.505645080318346
0.0835652300991114,0.49478953504263
0.0695631673711865,0.483908166672452
0.0553097708446712,0.473010381763828
0.0408119242149333,0.462105488754164
0.026076778155297,0.451202689101891
0.0111117450173162,0.440311068560486
-0.00407550673502076,0.429439588595429
-0.0194770583520743,0.418597077952501
-0.0350847468809876,0.407792224385677
-0.0508901714981801,0.397033566552696
-0.0668847000860551,0.386329486086218
-0.0830594760478334,0.375688199848305
-0.0994054253541862,0.365117752375756
-0.115913263815114,0.354626008523648
-0.132573504570283,0.344220646314231
-0.149376465790812,0.333909149998098
-0.166312278585311,0.323698803334344
-0.183370895102723,0.313596683096221
-0.200542096824381,0.303609652808525
-0.217815503037449,0.29374435672276
-0.235180579481759,0.284007214035851
-0.252626647161893,0.274404413357934
-0.270142891316143,0.264941907434519
-0.287718370533895,0.25562540812803
-0.305342026012757,0.246460381663496
-0.323002690946671,0.237452044142863
-0.340689100036077,0.228605357332171
-0.358389899111088,0.219925024725504
-0.376093654858509,0.211415487889401
-0.393788864643452,0.203080923091092
-0.411463966416154,0.194925238213632
-0.429107348694572,0.186952069960768
-0.446707360613206,0.179164781353997
-0.464252322028545,0.171566459524067
-0.481730533671489,0.164159913798797
-0.499130287337017,0.156947674088852
-0.516439876101349,0.14993198957277
-0.533647604556822,0.143114827682252
-0.550741799054657,0.136497873388426
-0.567710817945811,0.130082528789473
-0.584543061810065,0.123869912999726
-0.601226983663558,0.117860862340031
-0.617751099134942,0.112055930828841
-0.634103996600388,0.106455390973264
-0.650274347267707,0.101059234858913
-0.666250915199885,0.0958671755371609
-0.682022567268393,0.0908786487080709
-0.697578283026695,0.0860928146969971
-0.712907164494448,0.0815085607225338
-0.727998445842985,0.0771245034532129
-0.742841502972731,0.0729389918500536
-0.75742586297336,0.068950110291777
-0.771741213457533,0.0651556819792224
-0.785777411759266,0.0615532726152097
-0.799524493988027,0.0581401943558251
-0.812972683929844,0.0549135100288298
-0.826112401786846,0.0518700376146187
-0.838934272746786,0.0490063549849023
-0.8514291353743,0.0463188048940133
-0.86358804981579,0.043803500217496
-0.875402305810015,0.0414563294323796
-0.88686343049666,0.0392729623333003
-0.897963196015341,0.0372488559783924
-0.908693626887709,0.0353792608586468
-0.919047007175527,0.0336592272842005
-0.929015887407803,0.0320836119808106
-0.938593091270291,0.0306470848895508
-0.947771722050896,0.0293441361625653
-0.956545168834767,0.0281690833475167
-0.964907112443071,0.027116078753178
-0.972851531109737,0.0261791169884305
-0.980372705890671,0.0253520426667647
-0.987465225800218,0.0246285582682025
-0.994123992669915,0.0240022321504127
-1.00034422572483,0.0234665067006335
-1.00612146587311,0.0230147066198781
-1.01145157970448,0.0226400473307652
-1.01633076319401,0.0223356435001926
-1.02075554510743,0.0220945176679549
-1.02472279010475,0.0219096089723022
-1.02822970153919,0.0217737819633371
-1.03127382394879,0.0216798354950605
-1.03385304523812,0.0216205116867953
-1.03596559854824,0.0215885049446508
-1.03761006381285,0.0215764710336253
-1.03878536899935,0.0215770361908994
-1.03949079103349,0.0215828062708244
-1.03972595640678,0.0215863759120831
-1.03949084146608,0.0215803377174759
-1.03878577238505,0.0215572914367719
-1.03761142481763,0.0215098531430624
-1.03596882323375,0.0214306643930597
-1.03385933993799,0.0213124013618005
-1.03128469377225,0.0211477839422378
-1.02824694850348,0.0209295848002413
-1.02474851089827,0.0206506383755723
-1.02079212848604,0.0203038498194455
-1.01638088701309,0.0198822038593676
-1.01151820758993,0.0193787735819983
-1.0062078435347,0.0187867291248772
-1.00045387691577,0.0180993462679399
-0.994260714796814,0.0173100149158522
-0.987633085188112,0.0164122474623008
-0.980576032707922,0.0153996870274958
-0.97309491395819,0.0142661155602665
-0.965195392619071,0.013005461796271
-0.956883434267038,0.0116118090639788
-0.948165300921598,0.0100794029302484
-0.939047545325916,0.00840265867746583
-0.929537004966895,0.00657616860440076
-0.91964079584052,0.0045947091430932
-0.909366305968507,0.00245324778428071
-0.89872118867254,0.000146949804065507
-0.887713355612639,-0.00232881521528215
-0.876350969596384,-0.00497846707727954
-0.864642437165977,-0.00780620888262716
-0.852596400970324,-0.0108160211665062
-0.840221731929517,-0.0140116562680141
-0.827527521199325,-0.0173966329377384
-0.814523071943452,-0.0209742311892322
-0.801217890921539,-0.0247474873999079
-0.787621679901053,-0.0287191896666193
-0.773744326901366,-0.03289187342094
-0.759595897278495,-0.037267817308891
-0.745186624659128,-0.041849039339601
-0.730526901732698,-0.046637293307114
-0.715627270910398,-0.0516340654892857
-0.700498414860176,-0.0568405716274261
-0.685151146926841,-0.0622577541900742
-0.669596401446529,-0.0678862799239897
-0.653845223964886,-0.0737265376951737
-0.637908761368398,-0.0797786366224266
-0.621798251938394,-0.0860424045056634
-0.605525015337306,-0.0925173865509067
-0.589100442536833,-0.0992028443935841
-0.572535985697729,-0.106097755421447
-0.555843148010938,-0.113200812398139
-0.539033473509879,-0.120510423388122
-0.522118536863652,-0.128024711983387
-0.505109933161011,-0.135741517832052
-0.488019267694905,-0.143658397468653
-0.470858145757409,-0.151772625445635
-0.453638162454826,-0.160081195765233
-0.436370892552767,-0.168580823610651
-0.419067880360904,-0.177267947375116
-0.401740629667131,-0.186138730987115
-0.384400593730742,-0.195189066529794
-0.367059165344225,-0.204414577152227
-0.349727666973157,-0.213810620269944
-0.332417340983652,-0.223372291051841
-0.315139339966646,-0.233094426190275
-0.297904717168308,-0.24297160795089
-0.280724417035647,-0.252998168498412
-0.263609265886354,-0.263168194494389
-0.246569962711733,-0.273475531962569
-0.229617070121469,-0.283913791417333
-0.212761005438835,-0.294476353250347
-0.19601203195476,-0.305156373370318
-0.179380250349071,-0.315946789090497
-0.162875590286982,-0.326840325258301
-0.146507802198806,-0.33782950062121
-0.13028644925059,-0.348906634422821
-0.114220899513296,-0.360063853222721
-0.0983203183378045,-0.371293097933627
-0.0825936609429661,-0.382586131068986
-0.0670496652235861,-0.393934544194045
-0.0516968447850665,-0.405329765573182
-0.0365434822112205,-0.416763068006057
-0.0215976225714605,-0.428225576845024
-0.00686706717343094,-0.439708278185955
0.00764063243320581,-0.451202027224561
0.0219181801962578,-0.462697556770006
0.0359585410385592,-0.474185485907565
0.0497549460685581,-0.485656328801831
0.063300897519229,-0.497100503631862
0.0765901734108408,-0.508508341649554
0.0896168319334003,-0.519870096352323
0.102375215544874,-0.531175952761149
0.114859954781556,-0.542416036794827
0.127065971777264,-0.55358042473126
0.138988483488299,-0.564659152746462
0.150623004621461,-0.575642226521905
0.161965350262607,-0.586519630910735
0.173011638203651,-0.59728133965334
0.18375829096612,-0.607917325132684
0.194202037519717,-0.618417568159778
0.20433991469465,-0.628772067779629
0.214169268286761,-0.638970851087956
0.223687753854842,-0.649003983048992
0.232893337209766,-0.658861576304609
0.241784294595447,-0.668533800965105
0.250359212561857,-0.678010894371884
0.258616987530724,-0.687283170822398
0.266556825054768,-0.696341031247651
0.27417823877168,-0.705174972832687
0.281481049054333,-0.713775598570462
0.288465381359008,-0.722133626739613
0.295131664273749,-0.730239900296681
0.301480627269215,-0.738085396173421
0.307513298154714,-0.745661234469928
0.313231000242415,-0.752958687534397
0.318635349222971,-0.759969188920457
0.323728249756122,-0.766684342213091
0.3285118917801,-0.77309592971435
0.332988746543947,-0.779195920980108
0.337161562367118,-0.784976481199341
0.341033360131026,-0.790429979407483
0.344607428507449,-0.795548996525614
0.347887318928952,-0.800326333217405
0.350876840306771,-0.804755017555876
0.353580053501823,-0.80882831249225
0.35600126555476,-0.81253972311936
0.358145023681235,-0.815883003722248
0.360016109038741,-0.818852164608817
0.361619530271662,-0.821441478713618
0.362960516841336,-0.82364548796803
0.364044512148184,-0.825459009430367
0.364877166453142,-0.826877141169645
0.365464329605835,-0.82789526789699
0.36581204358711,-0.82850906633891
0.365926534873745,-0.828714510346903
