-0.556844377185225,-0.833256810529538
-0.556777907990834,-0.833142315910765
-0.556563855383753,-0.832806765860063
-0.556180324266299,-0.832262077936707
-0.555605559626397,-0.831520168687396
-0.554818000688397,-0.830592924402187
-0.553796334688126,-0.82949217205456
-0.552519550150771,-0.828229650491116
-0.550966989551297,-0.826816981935771
-0.549118401238452,-0.825265643872614
-0.546953990505064,-0.823586941370707
-0.544454469689199,-0.821791979913095
-0.54160110719293,-0.819891638791137
-0.538375775307841,-0.817896545123976
-0.534760996739055,-0.815817048561544
-0.530739989722481,-0.813663196727949
-0.526296711633064,-0.81144471146039
-0.521415900985228,-0.809170965896958
-0.516083117730235,-0.806850962464765
-0.510284781759006,-0.804493311817758
-0.504008209522923,-0.802106212771496
-0.497241648689334,-0.799697433279841
-0.489974310752856,-0.797274292496218
-0.48219640152812,-0.7948436439596
-0.473899149454328,-0.79241185994288
-0.465074831646863,-0.789984816998619
-0.455716797636218,-0.787567882734503
-0.445819490739647,-0.785165903848026
-0.435378467016249,-0.782783195447124
-0.424390411761547,-0.780423531680513
-0.412853153503134,-0.778090137698622
-0.400765675464509,-0.775785682962928
-0.388128124469905,-0.773512275918515
-0.374941817268558,-0.771271460041584
-0.361209244262692,-0.769064211270548
-0.346934070629217,-0.766890936826224
-0.33212113483101,-0.764751475423514
-0.316776444519411,-0.762645098873814
-0.30090716983545,-0.760570515074278
-0.284521634123056,-0.758525872376928
-0.26762930207333,-0.756508765327477
-0.250240765324663,-0.754516241760686
-0.232367725549163,-0.752544811235968
-0.214022975061463,-0.75059045479398
-0.195220374991523,-0.748648636011931
-0.175974831068456,-0.746714313332418
-0.156302267067749,-0.744781953637744
-0.136219595979476,-0.742845547038843
-0.11574468896016,-0.740898622845209
-0.0948963421359169,-0.738934266679554
-0.0736942413293024,-0.736945138698359
-0.052158924786903,-0.734923492876942
-0.0303117439892014,-0.732861197315312
-0.00817482262851835,-0.730749755518743
0.0142289861550823,-0.728580328604798
0.0368761441861318,-0.726343758386454
0.0597424742168707,-0.724030591278984
0.0828032073402073,-0.72163110297639
0.10603303174834,-0.719135323841431
0.129406142729859,-0.716533064951691
0.152896293795379,-0.713813944742601
0.176476848819206,-0.710967416187021
0.200120835082303,-0.707982794449719
0.223800997099766,-0.704849284954029
0.247489851114283,-0.701556011797006
0.271159740135542,-0.698092046448601
0.294782889404345,-0.694446436669725
0.318331462159202,-0.690608235583535
0.341777615582515,-0.686566530833942
0.365093556803042,-0.682310473765093
0.388251598831198,-0.677829308555518
0.411224216303888,-0.673112401240714
0.433984100915976,-0.668149268558162
0.456504216416184,-0.66292960654914
0.478757853046194,-0.657443318852216
0.500718681302913,-0.651680544623982
0.522360804905401,-0.645631686023375
0.543658812849703,-0.639287435196919
0.564587830436845,-0.632638800703265
0.58512356916155,-0.62567713331669
0.60524237535173,-0.618394151150538
0.624921277451615,-0.6107819640431
0.644138031844356,-0.602833097150059
0.662871167113224,-0.594540513689374
0.681100026643951,-0.58589763678633
0.698804809474485,-0.576898370368509
0.715966609302296,-0.567537119062499
0.732567451563484,-0.557808807046383
0.748590328502208,-0.54770889581437
0.764019232153442,-0.537233400812333
0.778839185166688,-0.526378906905499
0.793036269403078,-0.51514258264218
0.806597652243256,-0.503522193280034
0.819511610548508,-0.491516112544153
0.831767552222836,-0.479123333089048
0.843356035328999,-0.466343475639495
0.854268784716995,-0.453176796788138
0.864498706128968,-0.439624195430723
0.874039897750157,-0.425687217822862
0.882887659181166,-0.411368061245308
0.891038497812587,-0.396669576267777
0.898490132588758,-0.381595267604499
0.905241495153262,-0.366149293557804
0.911292728374596,-0.350336464049171
0.916645182256246,-0.334162237240332
0.921301407241234,-0.317632714750143
0.925265144926993,-0.300754635476058
0.928541316212176,-0.283535368032152
0.931136006902717,-0.265982901818712
0.933056450810112,-0.248105836741465
0.934311010380456,-0.229913371601501
0.934909154898266,-0.211415291179933
0.934861436314485,-0.19262195204421
0.934179462753396,-0.173544267105871
0.932875869758242,-0.154193688962299
0.930964289340476,-0.134582192057723
0.928459316902341,-0.114722253701379
0.92537647610728,-0.0946268339832523
0.921732181777181,-0.0743093546303032
0.917543700899871,-0.0537836768484225
0.912829111834437,-0.0330640781976302
0.907607261805985,-0.0121652285501831
0.901897722785201,0.00889783481670282
0.895720745851689,0.0301097329398756
0.889097214143399,0.0514547716455723
0.882048594497598,0.0729169687239089
0.874596887891725,0.0944800817438493
0.866764578795139,0.116127636448529
0.858574583545137,0.137842955669523
0.850050197862831,0.159609188697478
0.84121504362629,0.181409341045519
0.832093015020063,0.20322630454097
0.822708224181508,0.225042887680161
0.81308494646546,0.246841846180553
0.803247565449634,0.268605913663924
0.793220517803652,0.290317832404092
0.783028238144909,0.311960384072497
0.772695104004475,0.333516420414953
0.762245381025963,0.354968893793039
0.751703168519741,0.376300887523907
0.741092345494058,0.3974956459527
0.73043651728356,0.418536604192392
0.719758962894302,0.439407417466579
0.70908258318275,0.460091989991633
0.698429849984378,0.480574503335668
0.687822756305311,0.500839444192891
0.677282767688082,0.520871631513246
0.666830774859902,0.540656242928659
0.656487047768981,0.560178840418768
0.646271191111297,0.579425395160712
0.636202101446855,0.598382311509341
0.626297926000926,0.617036450056162
0.616576023241949,0.635375149717383
0.607052925323789,0.653386248803537
0.59774430247589,0.671058105025473
0.588664929420431,0.688379614393835
0.579828653891106,0.705340228971608
0.571248367323402,0.721929973441865
0.562935977781358,0.738139460455474
0.554902385180837,0.753959904726224
0.547157458864115,0.769383135843636
0.539710017575375,0.784401609776527
0.532567811881297,0.799008419043345
0.525737509075435,0.813197301528236
0.519224680599532,0.826962647924784
0.513033792009266,0.840299507792455
0.507168195506224,0.853203594213835
0.501630125052152,0.865671287043823
0.49642069407573,0.877699634745144
0.491539895776332,0.889286354807583
0.486986606023401,0.900429832751573
0.482758588844248,0.911129119719849
0.47885250448729,0.921383928664045
0.475263920041985,0.931194629136197
0.471987322590966,0.940562240698249
0.469016134864229,0.94948842496567
0.466342733359602,0.957975476304373
0.463958468888226,0.966026311203055
0.461853689498297,0.973644456346062
0.460017765725053,0.980834035414718
0.458439118109717,0.987599754647904
0.457105246925054,0.993946887195402
0.456002764040258,0.999881256300188
0.455117426853069,1.00540921734846
0.454434174212408,1.01053763882869
0.453937164250337,1.01527388224337
0.453609814037879,1.01962578101948
0.453434840975154,1.02360161846587
0.453394305822372,1.02721010482795
0.453469657274555,1.03046035349182
0.45364177797942,1.03336185639225
0.453891031894559,1.03592445868026
0.45419731287711,1.03815833270789
0.454540094396287,1.04007395138934
0.454898480256659,1.0416820609987
0.455251256217759,1.04299365346606
0.455576942393616,1.04401993823473
0.455853846314017,1.04477231374318
0.45606011652783,1.04526233859631
0.4561737966275,1.04550170249112
0.456172879572847,1.0455021969626
0.456035362191634,1.0452756860157
0.455739299733956,1.04483407670993
0.455262860357363,1.04418928976272
0.454584379419767,1.04335323023801
0.453682413457617,1.04233775838596
0.45253579372747,1.04115466069978
0.451123679190107,1.03981562125451
0.449425608817511,1.03833219339266
0.447421553104572,1.03671577182013
0.445091964669116,1.03497756517543
0.442417827825876,1.0331285691338
0.439380707022331,1.03117954010668
0.435962794026821,1.02914096959577
0.432146953762164,1.02702305925921
0.427916768680967,1.02483569674598
0.423256581582111,1.02258843235265
0.418151536771332,1.02029045655509
0.412587619472493,1.01795057846536
0.406551693400073,1.01557720526228
0.400031536407467,1.01317832264167
0.393015874129965,1.01076147633012
0.385494411545784,1.00833375470379
0.37745786238312,1.00590177255102
0.368897976306018,1.00347165601518
0.359807563816785,1.00104902875143
0.350180518817782,0.998638999328237
0.340011838780615,0.996246149901904
0.329297642476121,0.993874526189256
0.318035185223934,0.99152762876086
0.306222871625988,0.989208405674108
0.293860265753895,0.986919246462517
0.28094809876582,0.984661977494482
0.267488273934223,0.982437858711697
0.25348386907158,0.980247581754305
0.238939136347031,0.97809126947673
0.223859499492695,0.975968476855013
0.208251548404234,0.973878193283331
0.192123031146049,0.971818846254253
0.175482843377278,0.969788306414163
0.15834101522054,0.967783893982197
0.140708695601041,0.965802386517943
0.12259813408934,0.963840028020137
0.104022660286611,0.961892539335577
0.0849966607967376,0.959955129854529
0.0655355538349671,0.958022510465984
0.0456557615281023,0.956088907743313
0.0253746799663946,0.954148079328063
0.00471064707229254,0.952193330476946
-0.0163170916439113,0.950217531734459
-0.0376884193667766,0.948213137691016
-0.0593823862174454,0.946172206784023
-0.0813772493707273,0.944086422096992
-0.103650514959662,0.9419471131095
-0.126178981675691,0.939745278348695
-0.14893878596879,0.937471608890952
-0.171905448748333,0.935116512660424
-0.195053923482093,0.932670139469368
-0.218358645587687,0.930122406743487
-0.241793583007847,0.927463025873944
-0.265332287858279,0.924681529136298
-0.288947949034456,0.92176729711531
-0.312613445661553,0.918709586573415
-0.336301401269827,0.915497558699642
-0.359984238576142,0.912120307674884
-0.383634234750952,0.908566889488693
-0.407223577048976,0.90482635094219
-0.430724418680986,0.900887758771231
-0.454108934803562,0.89674022882369
-0.477349378503392,0.892372955224559
-0.500418136652745,0.887775239462583
-0.52328778551294,0.882936519332291
-0.545931145963255,0.877846397665587
-0.568321338233511,0.872494670787503
-0.590431836019666,0.866871356631322
-0.612236519863133,0.860966722449004
-0.633709729676122,0.854771312053738
-0.654826316297267,0.848275972532459
-0.675561691963884,0.841471880367333
-0.695891879589652,0.834350566906507
-0.715793560739126,0.826903943125864
-0.735244122193437,0.819124323625061
-0.754221701004582,0.811004449802845
-0.772705227939154,0.802537512158433
-0.790674469215866,0.793717171667677
-0.808110066445069,0.784537580184784
-0.824993574682404,0.774993399822524
-0.841307498512987,0.765079821266098
-0.857035326086842,0.754792580978214
-0.872161561030879,0.744127977255393
-0.886671752167444,0.733082885098029
-0.900552520974325,0.721654769859395
-0.913791586726123,0.709841699641492
-0.92637778926206,0.697642356408392
-0.938301109330578,0.685056045790601
-0.949552686466437,0.672082705556865
-0.960124834361574,0.658722912732786
-0.970011053696464,0.644977889348648
-0.979206042404473,0.630849506801867
-0.987705703347307,0.616340288822594
-0.995507149385498,0.601453413034056
-1.00260870583359,0.586192711102391
-1.00900991029555,0.570562667473842
-1.01471150988178,0.554568416700311
-1.01971545581473,0.538215739357441
-1.02402489543637,0.521511056562482
-1.02764416163588,0.504461423102362
-1.03057875972238,0.48707451918542
-1.0328353517726,0.469358640833369
-1.03442173848936,0.451322688933053
-1.03534683861221,0.432976156970555
-1.03562066592679,0.414329117473128
-1.03525430392513,0.395392207187346
-1.03425987817416,0.376176611024604
-1.03265052645467,0.35669404480793
-1.03044036673824,0.336956736856661
-1.02764446307415,0.316977408448197
-1.02427878946302,0.29676925319846
-1.02036019179851,0.276345915405194
-1.0159063479625,0.255721467400459
-1.01093572616349,0.234910385960955
-1.00546754161154,0.213927527826838
-0.999521711627196,0.19278810438176
-0.99311880928483,0.171507655548649
-0.986280015694512,0.150102022957564
-0.979027071029188,0.128587322443533
-0.971382224406957,0.106979915933808
-0.963368182740633,0.0852963827853186
-0.955008058669133,0.0635534906343363
-0.946325317687187,0.0417681658214387
-0.937343724591702,0.0199574634558453
-0.928087289364552,-0.00186146281603904
-0.91858021261283,-0.0236713912723481
-0.908846830688547,-0.0454550627417043
-0.898911560610452,-0.0671952113270131
-0.888798844911079,-0.0888745951604461
-0.87853309653224,-0.110476027122939
-0.868138643892068,-0.131982405461564
-0.857639676246307,-0.153376744238391
-0.847060189465848,-0.174642203544775
-0.836423932351566,-0.195762119415615
-0.825754353606296,-0.216720033378652
-0.815074549582255,-0.237499721574852
-0.804407212920531,-0.258085223386699
-0.793774582197163,-0.278460869512458
-0.783198392688108,-0.298611309425609
-0.772699828362891,-0.318521538160014
-0.762299475213889,-0.338176922362961
-0.752017276025289,-0.357563225559725
-0.741872486682432,-0.376666632575168
-0.731883634118864,-0.395473773059641
-0.722068475994687,-0.413971744068562
-0.712443962195934,-0.432148131647039
-0.703026198240606,-0.449991031373198
-0.693830410672711,-0.467489067816115
-0.684870914521202,-0.484631412866729
-0.67616108289607,-0.501407802902558
-0.667713318789047,-0.517808554749665
-0.659539029141442,-0.53382458040797
-0.651648601236544,-0.549447400508756
-0.644051381468797,-0.564669156476046
-0.636755656536667,-0.579482621366363
-0.629768637100625,-0.593881209364381
-0.623096443942206,-0.607858983914887
-0.616744096654458,-0.621410664474556
-0.610715504888431,-0.634531631870096
-0.605013462174652,-0.647217932252355
-0.599639642332708,-0.659466279639204
-0.594594598476334,-0.671274057043019
-0.589877764615501,-0.682639316181834
-0.585487459851275,-0.693560775776287
-0.581420895153314,-0.704037818437703
-0.577674182704162,-0.714070486155696
-0.574242347788696,-0.723659474396849
-0.571119343201411,-0.732806124829071
-0.568298066138564,-0.741512416689276
-0.565770377536657,-0.749780956815067
-0.563527123813218,-0.757614968364017
-0.561558160960504,-0.765018278247093
-0.559852380937443,-0.771995303305598
-0.558397740299993,-0.778551035263763
-0.557181291005076,-0.784691024491887
-0.556189213318386,-0.790421362617486
-0.555406850751637,-0.795748664024521
-0.554818746950282,-0.800680046283189
-0.554408684448347,-0.805223109555138
-0.554159725202848,-0.809385915021238
-0.554054252816273,-0.81317696238119
-0.554074016351806,-0.816605166476278
-0.554200175642404,-0.819679833088555
-0.554413347991506,-0.8224106339715
-0.55469365615999,-0.82480758116893
-0.555020777531137,-0.826881000680471
-0.555373994342702,-0.828641505533351
-0.55573224487279,-0.830099968321567
-0.556074175464094,-0.831267493274623
-0.556378193269163,-0.832155387919102
-0.556622519597741,-0.832775134397163
-0.556785243745851,-0.833138360506833
-0.556844377185225,-0.833256810529538
