0.776315806984788,-0.58459301239591
0.785180327301317,-0.571701669001286
0.79250650056769,-0.557712137861955
0.798279130300793,-0.542713553602858
0.802507468483155,-0.526808828027201
0.805225436264061,-0.510112315397979
0.806491384102806,-0.492747299977648
0.806387390352036,-0.4748433595403
0.805018106201582,-0.456533660396873
0.802509163741494,-0.437952240153811
0.799005172483089,-0.419231333953884
0.794667337828824,-0.400498798342804
0.789670742543483,-0.381875684207896
0.784201339099104,-0.363474006508474
0.778452706706752,-0.345394753845386
0.772622631788817,-0.327726175401966
0.766909574484163,-0.310542376549531
0.761509086434701,-0.293902247580821
0.756610246517853,-0.277848742759287
0.752392181331366,-0.262408519303836
0.749020736095976,-0.247591938226035
0.746645359233646,-0.233393421260115
0.745396260245393,-0.219792150634487
0.745381895718059,-0.206753091281362
0.746686832421536,-0.194228308415235
0.749370029626016,-0.182158547367536
0.75346357510087,-0.170475037266338
0.758971900897648,-0.159101475703375
0.765871496127941,-0.147956148024349
0.774111124692146,-0.136954132381534
0.783612546474167,-0.126009540247496
0.794271731071067,-0.115037741730917
0.805960543856955,-0.103957525762889
0.818528875265604,-0.0926931470149207
0.831807175788402,-0.0811762142263952
0.845609351485343,-0.069347378396292
0.859735967946004,-0.0571577839485561
0.873977704747891,-0.0445702514115502
0.88811899765568,-0.0315601662423427
0.901941802180411,-0.0181160550454959
0.915229409743573,-0.00423983744197993
0.927770246614152,0.0100532509125975
0.939361586028909,0.0247350613343113
0.949813105463871,0.0397652510611569
0.958950223869205,0.0550923010386825
0.966617157756399,0.0706548087805531
0.972679640258399,0.0863830264089873
0.97702725356999,0.10220060849327
0.979575332396946,0.118026529582623
0.980266404059951,0.133777127473547
0.97907113955935,0.149368225344139
0.975988799043415,0.164717283991871
0.971047164560873,0.179745534568716
0.964301962537324,0.194380042438051
0.955835787911771,0.208555654078956
0.945756551122438,0.222216781309997
0.934195477963752,0.23531898044949
0.921304700580584,0.247830288304372
0.907254485365048,0.259732281997488
0.892230150133513,0.271020835497801
0.876428728562369,0.281706552188459
0.860055444345999,0.2918148597594
0.843320060826363,0.301385760999228
0.826433173871186,0.310473241533127
0.809602516511998,0.319144343052733
0.793029343284349,0.327477917952335
0.776904960355899,0.33556308836765
0.761407464424074,0.34349743925838
0.746698749078101,0.35138498124181
0.732921831937558,0.359333924241281
0.720198549509369,0.367454307544145
0.708627659474357,0.375855535468905
0.698283382166335,0.384643870439641
0.689214404497891,0.393919936796743
0.681443360684642,0.403776289097638
0.674966794997614,0.41429509796317
0.669755602609313,0.425546004711493
0.665755935570585,0.437584193121396
0.662890552236733,0.450448722733304
0.66106058022014,0.464161163202453
0.660147655340044,0.478724563458837
0.660016392212417,0.494122782914654
0.660517136202407,0.51032020482021
0.661488941558251,0.527261844245442
0.662762716748464,0.544873855208644
0.664164475400522,0.563064433346736
0.665518629833003,0.581725102387023
0.666651264003742,0.600732364704298
0.667393323759146,0.619949688592782
0.667583664535112,0.639229797707544
0.6670719000753,0.658417221583648
0.665721000222489,0.67735106036057
0.663409591307366,0.695867911946939
0.660033918991347,0.713804905961707
0.655509440484462,0.731002785968488
0.649772020710718,0.747308979844685
0.642778715075559,0.762580597638397
0.634508129839326,0.776687296982577
0.624960359548828,0.789513958052004
0.614156509357056,0.800963113135
0.602137818202119,0.810957080095377
0.588964406559385,0.819439754245308
0.574713679673731,0.826378019339868
0.55947842368136,0.831762745422806
0.543364637717482,0.835609348967364
0.526489149868953,0.837957899018043
0.508977068580621,0.838872761689493
0.490959123792555,0.838441784249409
0.472568953626762,0.836775028930136
0.453940392833507,0.834003075403659
0.435204818449729,0.830274919343422
0.416488606239136,0.825755502515663
0.39791074852216,0.820622917232923
0.379580680032314,0.815065334614767
0.361596353542267,0.809277711802058
0.344042601294974,0.803458337944936
0.326989811875447,0.797805282334427
0.310492945203626,0.792512810398214
0.294590900965514,0.787767834380767
0.279306248182866,0.783746465349105
0.264645315910571,0.780610731705353
0.250598637405687,0.778505526668174
0.237141732691085,0.777555843254216
0.224236207392732,0.777864350218676
0.211831139207111,0.779509356294186
0.199864717487183,0.782543203013582
0.188266096340473,0.786991118547214
0.176957417413765,0.792850556477796
0.165855955279294,0.800091034437109
0.154876336100942,0.808654478210763
0.14393277908783,0.818456067457917
0.132941310156773,0.829385569773956
0.121821898221581,0.841309140626586
0.110500466580688,0.854071557896938
0.0989107349380001,0.867498851526901
0.0869958515967947,0.881401281271125
0.0747097802253469,0.895576608922411
0.0620184112003845,0.909813605751052
0.0489003737696648,0.92389573138184
0.0353475320042609,0.937604917014758
0.0213651545907761,0.950725383842195
0.00697175579267103,0.963047426767336
-0.00780138776666548,0.974371094100804
-0.0229110326343119,0.984509695795655
-0.0383030575592457,0.993293075939172
-0.0539138206768856,1.00057058959358
-0.0696717535144455,1.00621372958343
-0.0854991551788953,1.01011835535982
-0.101314145575032,1.01220648350537
-0.117032732875142,1.01242760763705
-0.132570947801914,1.01075952425924
-0.147846995650521,1.00720865034766
-0.162783376400498,1.0018098279308
-0.177308923767397,0.994625620495324
-0.191360715609892,0.985745115494901
-0.204885810709383,0.975282256405918
-0.217842770523764,0.963373736474515
-0.230202929011743,0.950176494371491
-0.241951378936591,0.935864859261806
-0.253087649078758,0.92062739916581
-0.263626053390604,0.904663531820224
-0.273595700176266,0.888179961438943
-0.283040156728217,0.871387007749726
-0.292016772345715,0.854494895389405
-0.300595670141578,0.837710072148612
-0.308858425354958,0.821231623663781
-0.316896454874306,0.805247849980918
-0.324809149187822,0.789933066009021
-0.332701783879103,0.775444683311096
-0.340683252946165,0.761920625040311
-0.348863670529968,0.749477119230839
-0.35735189099889,0.738206908228817
-0.366252999671928,0.728177903945367
-0.375665827720578,0.719432309990469
-0.385680544933934,0.711986222772583
-0.396376383053067,0.705829714499657
-0.407819540291699,0.700927391870355
-0.420061314496093,0.697219415277198
-0.433136508215604,0.694622954728719
-0.447062143835547,0.693034050600802
-0.46183652096445,0.692329839902648
-0.477438641584822,0.692371102130504
-0.49382802120203,0.693005073106527
-0.510944896504521,0.694068470565682
-0.528710832034853,0.695390671744445
-0.547029720226526,0.696796980902659
-0.565789161051189,0.698111923611965
-0.58486219961008,0.699162504784264
-0.604109392454532,0.699781368780565
-0.623381166389063,0.699809802499262
-0.642520427143306,0.69910052603474
-0.661365369729477,0.697520220241625
-0.679752437648875,0.694951746236015
-0.69751937447455,0.691296018393203
-0.71450830879877,0.686473499626677
-0.730568812152405,0.680425295507276
-0.745560869315147,0.673113831945915
-0.759357701453334,0.664523109553175
-0.771848384734506,0.654658536235523
-0.782940210439338,0.643546347922078
-0.792560737063525,0.631232635372159
-0.800659490393461,0.617782002633113
-0.807209273948399,0.603275889750837
-0.812207059387557,0.587810598645185
-0.81567443434622,0.571495066527718
-0.817657593539323,0.554448435756306
-0.818226867692435,0.536797472505969
-0.817475793758877,0.518673889025471
-0.81551973878399,0.500211625504296
-0.812494098508346,0.48154414767792
-0.808552100188578,0.462801815257196
-0.803862246991033,0.444109374109889
-0.798605448522374,0.425583621901211
-0.792971888457774,0.407331292689106
-0.787157685681944,0.389447200862449
-0.781361409759299,0.372012678917295
-0.775780514805668,0.355094337014449
-0.770607757875796,0.338743165190338
-0.76602766876248,0.32299399165172
-0.76221313760328,0.30786530292931
-0.759322184912768,0.293359423955746
-0.757494975630941,0.279463048529487
-0.756851134554618,0.266148103285477
-0.757487415175058,0.253372921366662
-0.759475767580282,0.241083695619591
-0.762861843813477,0.229216175451996
-0.767663971046321,0.217697566605463
-0.77387261428002,0.206448589109972
-0.781450341191935,0.195385645678176
-0.790332292375316,0.184423050824075
-0.800427150753467,0.173475270090025
-0.811618594569144,0.162459118951782
-0.8237672092358,0.151295872235319
-0.836712824664946,0.139913237190405
-0.850277236620984,0.128247146671907
-0.864267263357378,0.116243333107108
-0.878478082397286,0.103858648983906
-0.892696786962025,0.0910621053709337
-0.906706097326266,0.077835606352364
-0.920288159372147,0.0641743640908646
-0.933228360884688,0.0500869863759656
-0.945319095712431,0.0355952358198186
-0.956363406819203,0.0207334671725052
-0.966178441459073,0.00554775638927407
-0.974598655175281,-0.00990525805974136
-0.981478705989315,-0.0255597947364526
-0.986695985919289,-0.0413425769113299
-0.990152743736987,-0.0571746705244226
-0.991777760510555,-0.0729734702852482
-0.9915275478387,-0.0886547883748638
-0.989387047601948,-0.104134997805049
-0.985369821366205,-0.119333181116343
-0.979517727095144,-0.134173234789585
-0.971900090378522,-0.148585880513221
-0.962612386780795,-0.162510536276971
-0.951774460978834,-0.175897003115397
-0.939528316916364,-0.188706927144702
-0.926035521093217,-0.200915001244579
-0.911474268179941,-0.212509876237412
-0.896036164269328,-0.223494757595689
-0.87992278813106,-0.233887670437125
-0.863342094730067,-0.243721382705548
-0.846504727931843,-0.253042983835032
-0.829620310701734,-0.261913123700112
-0.812893781187477,-0.270404924108405
-0.79652184185805,-0.278602582336289
-0.780689586384954,-0.286599693090141
-0.765567365247114,-0.294497321648148
-0.751307946193542,-0.302401866664582
-0.73804401980674,-0.310422756075625
-0.725886093592298,-0.318670023625145
-0.714920810411928,-0.327251816639454
-0.705209718828311,-0.336271887750981
-0.696788514203211,-0.345827124252079
-0.689666760355937,-0.356005168624062
-0.6838280924239,-0.366882182528409
-0.679230892448627,-0.378520804185019
-0.675809420315597,-0.39096834563771
-0.673475374176015,-0.404255271982916
-0.672119846535745,-0.418393999297798
-0.671615634962445,-0.43337804185202
-0.671819859972884,-0.449181532343681
-0.672576837237902,-0.465759131499688
-0.673721146882342,-0.483046335571519
-0.675080839439986,-0.500960182195595
-0.676480716004602,-0.519400346935969
-0.677745619329515,-0.53825061475108
-0.678703673076803,-0.55738070279106
-0.679189408086321,-0.576648403498133
-0.679046717383122,-0.595902010104123
-0.678131585605188,-0.614982980439212
-0.676314543525966,-0.633728789615219
-0.673482804262096,-0.651975917738916
-0.669542044472392,-0.66956291544232
-0.664417801230986,-0.686333487762896
-0.658056463144381,-0.702139535820975
-0.65042584251875,-0.716844095854732
-0.641515323803688,-0.730324116491581
-0.631335591972815,-0.742473017641208
-0.619917952781621,-0.753202978048522
-0.607313264804595,-0.762446903279974
-0.593590510639924,-0.770160031647683
-0.578835041534441,-0.776321142195888
-0.563146535790855,-0.780933336258407
-0.54663671655653,-0.784024372103216
-0.529426878859113,-0.785646540656986
-0.51164527897054,-0.785876079084308
-0.493424441290158,-0.784812127912437
-0.474898438905565,-0.782575246268145
-0.456200203805161,-0.779305508454063
-0.437458921391713,-0.775160213366497
-0.418797561516856,-0.770311245980629
-0.400330594780074,-0.764942137147865
-0.382161938391022,-0.759244874122607
-0.364383170579021,-0.753416519436669
-0.347072046463419,-0.747655699862085
-0.330291341603283,-0.742159030161245
-0.31408804226671,-0.73711753805338
-0.298492893950329,-0.732713157288714
-0.283520311995433,-0.729115354900857
-0.269168650449083,-0.726477956614025
-0.255420817765906,-0.724936231049335
-0.242245220695175,-0.724604288862603
-0.229597010897164,-0.725572847337099
-0.217419602621625,-0.727907404352499
-0.205646424285903,-0.731646858179368
-0.194202862121585,-0.736802601347736
-0.183008350309935,-0.743358108064302
-0.171978559271783,-0.751269025472405
-0.161027632069872,-0.760463769637662
-0.150070418252103,-0.770844617680312
-0.139024654921145,-0.782289278144593
-0.127813046345467,-0.794652912675548
-0.116365195992542,-0.80777057353834
-0.104619348408923,-0.821460013629533
-0.0925239028159037,-0.835524818546319
-0.0800386655368015,-0.849757804135794
-0.06713581430917,-0.863944617861522
-0.0538005540348964,-0.877867478397679
-0.0400314504441136,-0.891308985169058
-0.0258404353473109,-0.90405592815098
-0.0112524844707826,-0.915903028154902
0.00369502384233863,-0.926656539056141
0.0189532536843441,-0.936137645946721
0.0344631382479255,-0.944185596971406
0.0501568596865916,-0.950660511556459
0.0659595480930012,-0.955445813774087
0.0817911605945098,-0.958450246585486
0.0975684974840029,-0.959609430537618
0.113207309152757,-0.958886939003427
0.128624445438271,-0.956274871088796
0.143739997891417,-0.951793912709032
0.158479385428843,-0.945492885883475
0.172775334871567,-0.937447795826104
0.186569709959453,-0.927760394740716
0.199815145532099,-0.916556290183134
0.212476447616774,-0.903982634259446
0.224531725080247,-0.890205437628671
0.235973224182674,-0.875406559124661
0.246807843700268,-0.859780427676502
0.257057315128171,-0.843530557979136
0.266758039692924,-0.826865924958249
0.27596058134461,-0.809997264419755
0.284728822405884,-0.793133368333861
0.293138795970986,-0.776477442959955
0.301277216315752,-0.760223596481146
0.309239735347449,-0.744553520019973
0.317128959346852,-0.729633421908279
0.325052265800372,-0.715611269966254
0.333119464867341,-0.702614390411026
0.341440353872433,-0.690747464986754
0.350122216069789,-0.680090960125077
0.359267316727711,-0.6707000135609
0.368970450286454,-0.66260379500832
0.379316591924549,-0.655805348417811
0.390378705332328,-0.650281914165455
0.402215755858923,-0.645985720446063
0.414870974517601,-0.64284522433
0.428370413672601,-0.640766774567682
0.442721829677389,-0.639636660446397
0.457913921397458,-0.639323503969021
0.473915946554705,-0.639680946465797
0.490677730313715,-0.640550575583381
0.508130072642824,-0.641765034514446
0.52618555288334,-0.643151252409137
0.544739721811998,-0.644533733196295
0.563672663450719,-0.645737839563245
0.58285090112784,-0.646593009599348
0.602129614985864,-0.646935845577159
0.621355131413967,-0.646613017479063
0.640367638899167,-0.645483928106772
0.659004079665044,-0.643423091845133
0.677101162310603,-0.640322185279738
0.694498437565778,-0.636091734762363
0.711041377313963,-0.630662413537136
0.726584396244074,-0.623985929030002
0.740993755909414,-0.616035489202152
0.754150292588579,-0.606805845307476
0.765951913141584,-0.596312916805379
0.776315806984787,-0.58459301239591
