0.680985628509154,-0.602029472200076
0.680433485624248,-0.60149990482095
0.678847346138764,-0.599845310470514
0.676340574172958,-0.596976153664108
0.55880033731404,-0.697646587261909
0.66906426278768,-0.587303338021952
0.664562488716036,-0.580390622886925
0.659672318054598,-0.572046612651925
0.562441437023462,-0.673363711728089
0.6493061261892,-0.551019349811153
0.644120765598989,-0.53835402226389
0.639124760547153,-0.524293090996135
0.634456438672473,-0.508885422431905
0.63024822218235,-0.492195022417087
0.626625001641343,-0.474300289781442
0.623702601666354,-0.455293095481309
0.621586357157375,-0.43527769849332
0.620369817350847,-0.414369511611013
0.620133593430965,-0.39269373211812
0.620944363691531,-0.370383853952452
0.622854048328407,-0.347580079412799
0.523780622054017,-0.430779710594471
0.630100365179388,-0.301075114413507
0.635462180311189,-0.277672561407709
0.641972941911639,-0.254369827810089
0.766983492734021,-0.131441933527491
0.658314623578046,-0.208651225906456
0.668043360882018,-0.186517854823129
0.678717895640135,-0.165045936023719
0.690251347225074,-0.144358085663274
0.702544230211753,-0.12456674719616
0.831614901049092,0.00203923485793203
0.625706989502568,-0.181307961426805
0.742821647224695,-0.0715166991730412
0.756950024807034,-0.0561888553034641
0.771197764212385,-0.0421257644567502
0.78541916806869,-0.0293562506990832
0.699407398332628,-0.127793528634811
0.813192375871986,-0.00773256275068391
0.826450340402307,0.00114481113611064
0.839097846628025,0.00877465487158979
0.850997377574565,0.0152079391507057
0.862018232676065,0.0205103935275843
0.872038110895144,0.0247616728840289
0.88094459244578,0.0280543548141643
0.888636501133895,0.0304927801044719
0.895025130779244,0.0321917503930828
0.900035320831938,0.0332750988258532
0.903606368127358,0.0338741510684032
1.00417337407098,0.140668033296917
0.807647694349776,-0.0657258435932223
0.90530866212514,0.0341564688673774
0.902827137354666,0.0342230462982209
0.898839043426943,0.0345152429557754
0.893379273276042,0.0351733543431579
0.88649832062779,0.0363330035699775
0.87826167098747,0.0381234594596355
0.868749011207927,0.0406660318550867
0.858053267231712,0.0440725636106914
0.846279481686551,0.0484440375841281
0.833543544957197,0.0538693155463763
0.819970795135235,0.0604240243264413
0.91207219192367,0.180458677648749
0.790854266287972,0.077152520741633
0.775594315153898,0.0874036807013467
0.760061778684314,0.0989380073927861
0.7444049042101,0.111754232367662
0.72877126861706,0.125834874928764
0.713305997495443,0.141146420079084
0.606785604189691,0.0527788336934853
0.68343834274668,0.175250413472288
0.669298477128482,0.19389995962367
0.655848850192568,0.213496271599909
0.525997026800281,0.139677561656299
0.631440310166721,0.255100460086015
0.620660783722707,0.27686755774682
0.610928120730012,0.299102720739036
0.602296855874726,0.321665765291244
0.594806119572959,0.344411509916629
0.588479179257917,0.367191505804574
0.583323173722651,0.389855807133408
0.579329043739017,0.412254759822968
0.464043711769163,0.33521948024733
0.574710145365891,0.455670149662687
0.573988391879204,0.476404660725321
0.574235758970343,0.496313332401636
0.575367951671454,0.515273936180174
0.577288063792234,0.533174456917655
0.579887774851994,0.54991442325528
0.583048686024494,0.565406098237504
0.586643778873773,0.579575515687932
0.498714982034604,0.496128206740363
0.594594806787133,0.603725607179062
0.598668091679769,0.613634133585771
0.602613735053115,0.622076928164699
0.606286494392863,0.629058262422349
0.609542770650745,0.634598601873586
0.612242375895969,0.638734331528868
0.614250259968073,0.641517288530246
0.61543817516579,0.643014107615649
0.615686258758571,0.643305387362928
0.614884514104828,0.642484687340491
0.612934172391645,0.64065736834383
0.609748918459698,0.637939289801885
0.605255965826871,0.63445538017081
0.599396967854463,0.630338097674408
0.489599112112569,0.523228173925688
0.583423882134399,0.620761043313741
0.57327100044643,0.615588829544129
0.561675014143949,0.610354826053535
0.432872752305849,0.49332663513694
0.534254256049028,0.600276726140657
0.51851932771483,0.595711283082124
0.501519951364079,0.591637935792835
0.483337986772125,0.588179448182533
0.464068509637886,0.5854491512084
0.348575316453721,0.48691138906806
0.529897404423954,0.69851691862357
0.40085940691177,0.582590897152175
0.37841268478325,0.583672120579157
0.457208572432863,0.680843213181116
0.230045145403442,0.498991354447282
0.308912366426664,0.593687243506177
0.28552077017985,0.599338020398512
0.262266203840101,0.606132307102465
0.239295682785228,0.614038395442939
0.216751991854564,0.623008945232803
0.194771985870266,0.632981546859934
0.173484962326676,0.643879467329393
0.153011125992714,0.655612570707641
0.133460164056457,0.66807840179858
0.11492994909925,0.681163419899652
0.0975053856349355,0.694744367664325
0.0812574142070753,0.708689758457149
0.157951672065104,0.813917648674129
0.0525004118561088,0.737116384081607
0.0400569119256126,0.751308174942089
0.028920340869684,0.765289020554666
0.0190831224809174,0.778911420104586
-0.0817102682819303,0.697972988130579
0.0031962399144671,0.804503139345238
-0.00294761520086995,0.816194952743363
-0.00797928499664913,0.826976667825628
-0.011981755380379,0.836728319322374
-0.122524330123368,0.73666143877558
-0.0172930800418988,0.852714068835333
-0.137912922539024,0.74410976375232
-0.0197759208872105,0.863420097381866
-0.0202751426536307,0.866623641094523
-0.0204622714856412,0.868333598898444
-0.0204794252929809,0.868524209974956
-0.0204706885492885,0.867185883283164
-0.0205803275210353,0.864325315786765
-0.0209510033225895,0.859965413529756
-0.126017699552969,0.761596438640375
-0.0230275205880178,0.846918430748852
-0.0249949776609327,0.838354773058432
-0.0277434559984998,0.828537136754981
-0.0313822091748731,0.817561588148459
-0.0360093025005249,0.805536006165963
-0.0417103873717718,0.79257877913364
-0.0485576264117588,0.778817374543375
-0.0566087824589532,0.764386799163597
-0.0659064824702874,0.749427968184581
-0.0764776652828326,0.734086003192619
-0.0883332199460574,0.718508479631248
-0.00249624051192837,0.818799970758116
-0.115859948895399,0.6872386295619
-0.0178986864908438,0.784176187817616
-0.148251371196046,0.656780374192999
-0.166129712354928,0.642200029807051
-0.185025082445947,0.628222007049366
-0.204842228864649,0.614962245441265
-0.343842530915607,0.509306655290149
-0.246801850317359,0.591005882307202
-0.268698769765455,0.580482139253501
-0.291029269671832,0.571020305272017
-0.313651757590693,0.562671117355901
-0.243162126115744,0.673348998190969
-0.359185219950999,0.549435532900296
-0.381797163446325,0.544571476997468
-0.404106599985734,0.54086451154829
-0.425966748558398,0.53828553240811
-0.447235099667742,0.536789799406872
-0.467775114741873,0.536317498291432
-0.394554140914417,0.650349460327024
-0.506163508590426,0.538133211084815
-0.631263109705952,0.424171068826256
-0.540218429076502,0.542985268989725
-0.44470816443134,0.636815771179328
-0.569214910552127,0.549949865747205
-0.581649863324882,0.553898473019994
-0.691797879639984,0.446728466640695
-0.602193283740789,0.562027206586382
-0.61026967735261,0.565918211707964
-0.616888216221212,0.569500209409869
-0.62207337907943,0.572630288943503
-0.625865465212216,0.575169387014022
-0.628320079677105,0.576984000882613
-0.629507433131165,0.577947834371177
-0.629511464769823,0.577943356782828
-0.628428799030049,0.576863255808629
-0.626367548728167,0.574611766777717
-0.623445979166511,0.571105862108937
-0.619791049430705,0.566276286518945
-0.615536848589989,0.560068425413983
-0.610822945788597,0.55244299591734
-0.605792674261393,0.543376552137401
-0.489455108503666,0.626251419894002
-0.595364587215732,0.520907707585868
-0.590256309986626,0.507539440282362
-0.585407185599192,0.492798070466057
-0.580952797237308,0.476740116296183
-0.577021999270052,0.459436884554115
-0.573735334589742,0.440973635728875
-0.467910647188155,0.522706088716656
-0.569526250914349,0.400971716379523
-0.568790642076008,0.379663528850821
-0.569070485561512,0.35765355573298
-0.570425172748261,0.33507884921942
-0.464038848680242,0.417731091593916
-0.576520571711007,0.288811154872988
-0.474854965816086,0.366709968907934
-0.587241283123846,0.242043536089457
-0.594317111349559,0.218846334032268
-0.60249435289749,0.195969337510794
-0.611721840181387,0.173554005713679
-0.621933505817964,0.151735453430825
-0.633049173203087,0.130640844909516
-0.644975518891074,0.110387884394529
-0.657607195097797,0.0910834216665805
-0.670828098704499,0.0728221894974676
-0.684512771360746,0.0556856883389425
-0.588505370172023,0.145955384104062
-0.712733995243736,0.0250411643165955
-0.726986940591001,0.0116222610228974
-0.741139871199164,-0.000494683768235308
-0.7550448818428,-0.0113050736205901
-0.768554830051611,-0.0208205304610678
-0.781525116853175,-0.0290687180833807
-0.793815437199528,-0.0360929708450872
-0.805291478830941,-0.04195173207389
-0.931052121256764,-0.149109577052399
-0.825303109003663,-0.0504774533303696
-0.833614198816848,-0.0533292784459103
-0.959036482386065,-0.154688443005097
-0.733392994989748,0.0594888767913882
-0.732398481779951,0.0481028491930925
-0.853503362401716,-0.0579906295589675
-0.854835270838251,-0.0581218339085144
-0.748871322558727,0.0557059467594955
-0.754477540266899,0.0606153383375638
-0.849685582873561,-0.0582879593978402
-0.844956302076334,-0.0587458283206532
-0.838778675533498,-0.0596381142695488
-0.831210780525422,-0.0610974690916245
-0.822325313024203,-0.0632493771080684
-0.703757339580516,0.0324501856409503
-0.800960105585846,-0.070087706068201
-0.788690133431105,-0.0749757772150558
-0.775519590345048,-0.080957183614653
-0.761577976885374,-0.0881005666919324
-0.65564102107274,0.0198364271048444
-0.731933587208499,-0.10607413472549
-0.716518840537856,-0.11696602177172
-0.700905604105948,-0.129142471293752
-0.685242013678965,-0.142594098762503
-0.669674641711463,-0.157295371833587
-0.654346728957609,-0.173204886116524
-0.639396457061306,-0.190265833783412
-0.624955283090803,-0.208406659337241
-0.611146356231334,-0.227541894588063
-0.598083035851921,-0.247573162709897
-0.585867528931801,-0.268390339198745
-0.574589663382927,-0.289872855647504
-0.564325812155287,-0.311891130519905
-0.555137981181346,-0.334308109563915
-0.547073072227021,-0.356980897174162
-0.54016232959331,-0.379762458908858
-0.534420977380917,-0.402503374502901
-0.529848051716869,-0.425053620105853
-0.526426429975459,-0.447264358118643
-0.524123056634469,-0.468989712910552
-0.522889363020602,-0.490088510869372
-0.522661875844412,-0.510425963670474
-0.523363007133232,-0.529875274339744
-0.524902015968553,-0.548319146622388
-0.527176130348738,-0.565651179343319
-0.530071815554106,-0.581777128840775
-0.533466173612992,-0.596616024156153
-0.537228456875876,-0.610101121450322
-0.541221677319434,-0.622180686068138
-0.545304292040257,-0.632818592764937
-0.665195921407676,-0.743808922154551
-0.553159240191112,-0.649705251025086
-0.556641535728857,-0.655962526005752
-0.559636718704202,-0.66079503349385
-0.562006957628873,-0.66424695484451
-0.563620400158748,-0.666377619228342
-0.564352799164002,-0.667260758353133
-0.564089046874371,-0.666983586763866
-0.562724598470643,-0.665645718891109
-0.458431799465688,-0.557492973781049
-0.556335879727591,-0.660240818008762
-0.551166264388775,-0.656423256804112
-0.544607082500393,-0.652040869082805
-0.536622970471971,-0.647234328013677
-0.527194498219943,-0.642147633963338
-0.516318433873346,-0.636926345286515
-0.504007812186048,-0.631715790661476
-0.490291805817824,-0.626659284675495
-0.475215401039461,-0.621896368325796
-0.458838881790981,-0.617561095798809
-0.44123712834835,-0.613780388328752
-0.422498739104361,-0.610672475122124
-0.402724986116466,-0.608345440277767
-0.3820286170921,-0.606895893345352
-0.360532518346003,-0.606407779664239
-0.338368254951619,-0.606951344927795
-0.315674505799252,-0.608582266546021
-0.292595412549301,-0.611340962354545
-0.269278862514024,-0.615252085065133
-0.35452849322104,-0.712387955749624
-0.222533071618537,-0.626549710107722
-0.199402374869567,-0.633904849136116
-0.176627752313331,-0.642350042938107
-0.154349232179145,-0.651830334638187
-0.132700088745361,-0.662276048539835
-0.111805258581389,-0.673603624635547
-0.0917798581712776,-0.685716622190566
-0.072727820904418,-0.698506880220799
-0.0547406699699449,-0.711855820780829
-0.0378964420416703,-0.725635879244269
-0.0222587748099727,-0.739712044217022
-0.00787616942812919,-0.753943488393144
0.00521856318265224,-0.768185270558868
0.0170086654570941,-0.782290088086655
0.0274936013394864,-0.796110058648045
0.0366890274346854,-0.809498509519322
0.0446265675154281,-0.822311752761671
0.0513533931319365,-0.834410824728846
0.0569316154234304,-0.845663168788221
0.0614374955229846,-0.855944240830334
0.0649604831491636,-0.865139018079037
0.0676020950634961,-0.873143392888116
0.0694746470166546,-0.879865434606187
0.0706998545846658,-0.885226504192953
0.0714073198879891,-0.889162208057274
-0.0282868856957349,-0.993102301368796
0.0718171345857218,-0.89257567854764
0.0718032792340672,-0.892002002081572
0.0718357556284328,-0.889900700640047
0.0720582501140719,-0.886286597905025
0.072611956383888,-0.881190613450803
0.073633825896277,-0.874659390633698
0.0752548698429439,-0.866754734177806
0.0775985332873375,-0.857552864282819
-0.033170641725687,-0.947280265941014
0.0849005751476213,-0.835628757195286
0.0900547775388825,-0.82312195180488
0.0963207998021129,-0.809746194100954
0.103763707847489,-0.795632919837296
0.112433777277593,-0.780920298773545
0.122365848239092,-0.765751565700878
0.243096402767467,-0.657420776782015
0.256242432616772,-0.62637433073345
0.258042431141631,-0.617891392440657
0.174850510176172,-0.703459664162516
0.19105379723662,-0.688213441872158
0.208391981776731,-0.67337841853908
0.226789945053192,-0.659084119055651
0.246158891234412,-0.64545137971877
0.266397391901632,-0.632590894503443
0.287392584102393,-0.620601884974084
0.309021507421776,-0.609570909975669
0.331152563849383,-0.599570829549972
0.353647082729353,-0.590659935649906
0.376360971805083,-0.582881260200177
0.289974018774071,-0.666943691698911
0.42185373137543,-0.570813546905409
0.551516035514396,-0.46620761666499
0.585925440411476,-0.469025649116021
0.488017611229284,-0.561361528094875
0.399550827351764,-0.666968284698175
0.529065382248135,-0.560398375735819
0.548273927127577,-0.561317973686747
0.566449360220716,-0.563050836943537
0.583488206880719,-0.565491378518543
0.599299443136021,-0.568523586919982
0.613805571881618,-0.572022455795873
0.523557106974097,-0.680920070848653
0.638665451837882,-0.579884501880168
0.648939170613805,-0.583966980523177
0.657748633512046,-0.58795817575071
0.665094043595961,-0.59171271314289
0.670991835989067,-0.595086415934961
0.675474452189306,-0.59793807957852
0.67858992047587,-0.600131210633362
0.777169620969255,-0.506676134693736
0.680985628509154,-0.602029472200076
