0.91048858713024,-0.283545356512944
0.910249829963086,-0.283506147745139
0.909534532826016,-0.283383534306889
0.908344422398809,-0.283170086215497
0.906681577257499,-0.282858448499338
0.904548425590056,-0.282441350369092
0.901947742594877,-0.281911614308749
0.898882647564725,-0.281262165076918
0.895356600659046,-0.280486038609031
0.8913733993679,-0.279576390811161
0.886937174671036,-0.27852650623625
0.882052386895942,-0.277329806633679
0.876723821278987,-0.275979859363238
0.870956583234065,-0.274470385664666
0.864756093333424,-0.272795268774112
0.858128082005656,-0.270948561878982
0.851078583956072,-0.268924495902815
0.843613932314997,-0.266717487112012
0.835740752519724,-0.264322144536389
0.827465955936182,-0.261733277195741
0.81879673322658,-0.258945901124774
0.809740547469551,-0.255955246188977
0.800305127039573,-0.252756762684209
0.790498458252633,-0.249346127712992
0.780328777785375,-0.245719251330718
0.769804564875157,-0.241872282455225
0.758934533308654,-0.237801614533411
0.747727623206875,-0.233503890958807
0.736192992614612,-0.228976010234292
0.724340008902562,-0.224215130874358
0.712178239990534,-0.219218676041621
0.699717445400307,-0.213984337912525
0.686967567146886,-0.208510081767463
0.673938720477044,-0.202794149800803
0.660641184464193,-0.196835064646611
0.647085392468756,-0.190631632616113
0.633281922473326,-0.184182946643264
0.619241487302055,-0.177488388935054
0.604974924733764,-0.170547633323487
0.590493187518431,-0.163360647316484
0.575807333306743,-0.155927693845226
0.560928514502515,-0.148249332705795
0.545867968047836,-0.140326421693257
0.530637005150865,-0.132160117426637
0.515247000966244,-0.123751875863561
0.499709384238149,-0.115103452503638
0.484035626916008,-0.106216902279969
0.468237233752962,-0.0970945791384926
0.452325731897145,-0.0877391353051781
0.436312660485842,-0.0781535202413993
0.420209560252606,-0.0683409792881262
0.404027963157383,-0.0583050519998971
0.387779382049645,-0.0480495701698335
0.371475300374534,-0.0375786555472782
0.355127161931926,-0.0268967172499421
0.338746360698307,-0.0160084488727564
0.32234423072125,-0.00491882529593005
0.305932036096225,0.00636690080498767
0.289520961035387,0.0178432027439316
0.273122100037876,0.0295042839006349
0.256746448171063,0.041344082084737
0.240404891472081,0.0533562741837005
0.224108197478811,0.0655342810902664
0.207867005899405,0.0778712729048921
0.191691819429257,0.0903601744083414
0.175592994724196,0.102993670799322
0.159580733538498,0.115764213691795
0.143665074036175,0.128664027366321
0.127855882283785,0.14168511526955
0.112162843932854,0.154819266755712
0.0965954560997944,0.1680580640637
0.0811630194509971,0.18139288952315
0.0658746305005851,0.194814932982607
0.0507391741280808,0.208315199452735
0.0357653163230351,0.221884516957223
0.02096149716342,0.235513544583886
0.00633592403436466,0.249192780728236
-0.00810343490643541,0.262912571521589
-0.0223488570105527,0.2766631194356
-0.0363928711620786,0.29043449205494
-0.0502282635367201,0.304216631009633
-0.0638480830914424,0.317999361058442
-0.0772456467796216,0.331772399314495
-0.0904145444869561,0.345525364604225
-0.103348643683657,0.359247786950559
-0.116042093788729,0.372929117171138
-0.128489330242435,0.38655873658224
-0.140685078283343,0.400125966798992
-0.152624356426628,0.413620079622311
-0.164302479640627,0.427030307002945
-0.175715062218924,0.440345851072911
-0.186858020345563,0.453555894234532
-0.197727574351286,0.466649609297219
-0.208320250658996,0.479616169652096
-0.218632883416974,0.492444759474516
-0.228662615818677,0.505124583944478
-0.238406901108243,0.517644879474936
-0.247863503271189,0.529994923937973
-0.257030497410043,0.542164046878817
-0.265906269805011,0.554141639707649
-0.274489517660076,0.565917165859226
-0.282779248535231,0.577480170910304
-0.290774779465881,0.588820292644917
-0.298475735770743,0.599927271057614
-0.3058820495499,0.610790958284787
-0.312993957874941,0.621401328454304
-0.319812000673481,0.631748487443742
-0.32633701831059,0.641822682537567
-0.332570148870025,0.651614311973749
-0.338512825138414,0.661113934370336
-0.344166771295853,0.670312278022712
-0.349533999316672,0.679200250062282
-0.354616805084401,0.68776894546755
-0.359417764225265,0.696009655918631
-0.363939727664807,0.70391387848642
-0.368185816912502,0.711473324147781
-0.372159419079537,0.718679926118295
-0.375864181635129,0.725525847994272
-0.379304006907077,0.732003491695914
-0.382483046332459,0.738105505203718
-0.38540569446464,0.74382479008038
-0.388076582743006,0.749154508770702
-0.390500573032058,0.75408809167218
-0.392682750936753,0.758619243969197
-0.394628418901171,0.762741952223966
-0.396343089097807,0.766450490717594
-0.397832476115027,0.769739427534886
-0.39910248945037,0.772603630386753
-0.40015922581761,0.775038272164344
-0.40100896127566,0.77703883621928
-0.401658143187584,0.778601121364617
-0.402113382018131,0.779721246591469
-0.402381442978379,0.780395655496459
-0.402469237526233,0.780621120415476
-0.402383814731626,0.780394746259482
-0.402132352515461,0.779713974048401
-0.401722148771392,0.778576584139435
-0.401160612379708,0.776980699146422
-0.400455254122651,0.774924786547168
-0.399613677510619,0.772407660975981
-0.398643569528777,0.76942848619894
-0.397552691313677,0.765986776769743
-0.396348868769556,0.762082399364289
-0.395039983134039,0.757715573792453
-0.393633961503016,0.752886873685841
-0.392138767324511,0.747597226860605
-0.390562390871357,0.741847915354744
-0.388912839702565,0.735640575139604
-0.387198129123208,0.72897719550562
-0.385426272652712,0.721860118122668
-0.383605272511386,0.714292035775695
-0.381743110135005,0.706275990776615
-0.379847736727263,0.697815373053795
-0.37792706385982,0.68891391792073
-0.375988954129659,0.679575703525854
-0.374041211883385,0.669805147985723
-0.372091574018024,0.659607006204124
-0.370147700867831,0.648986366379972
-0.368217167186466,0.637948646207139
-0.366307453233876,0.626499588769702
-0.364425935977037,0.614645258136332
-0.362579880413641,0.602392034657905
-0.360776431027672,0.58974660997266
-0.35902260338567,0.576715981723519
-0.357325275882351,0.563307447992495
-0.355691181644087,0.549528601457342
-0.354126900598597,0.535387323275916
-0.352638851719017,0.520891776703953
-0.35123328545036,0.506050400452238
-0.34991627632616,0.490871901789395
-0.348693715782936,0.47536524939678
-0.347571305179866,0.459539665982177
-0.346554549030908,0.443404620659267
-0.345648748456321,0.426969821100042
-0.344858994860386,0.410245205467559
-0.344190163841828,0.393240934136662
-0.343646909343268,0.375967381210477
-0.343233658045737,0.358435125840709
-0.342954604014066,0.340654943359951
-0.342813703598699,0.322637796234389
-0.342814670599226,0.304394824845479
-0.342960971694646,0.285937338109321
-0.343255822145125,0.267276803942629
-0.343702181769717,0.248424839584323
-0.344302751204245,0.229393201781941
-0.345059968443261,0.210193776852157
-0.345976005669696,0.190838570624856
-0.347052766375544,0.171339698280304
-0.3482918827766,0.151709374089054
-0.34969471352401,0.131959901064335
-0.351262341715045,0.11210366053675
-0.352995573205252,0.0921531016611799
-0.354894935223793,0.0721207308658533
-0.3569606752935,0.0520191012536127
-0.35919276045685,0.031860801965429
-0.361590876808764,0.011658447516273
-0.364154429336807,-0.00857533288653607
-0.366882542069082,-0.0288279060323589
-0.36977405852976,-0.0490866453935052
-0.372827542501911,-0.069338941798587
-0.376041279096975,-0.0895722140828446
-0.379413276129887,-0.109773919705329
-0.38294126579859,-0.129931565322879
-0.386622706666332,-0.150032717310868
-0.390454785944848,-0.170065012220745
-0.39443442207623,-0.190016167164468
-0.398558267610969,-0.209873990115991
-0.402822712379349,-0.229626390120061
-0.407223886953111,-0.24926138739865
-0.411757666393957,-0.268767123345495
-0.416419674285209,-0.288131870399266
-0.421205287042639,-0.307344041786069
-0.426109638500206,-0.326392201122068
-0.431127624766136,-0.34526507186718
-0.436253909344547,-0.363951546620934
-0.441482928517493,-0.382440696251743
-0.446808896982098,-0.400721778850999
-0.452225813737133,-0.418784248503577
-0.457727468213182,-0.436617763866529
-0.463307446640257,-0.454212196547901
-0.468959138646502,-0.471557639277858
-0.474675744081387,-0.488644413864451
-0.480450280056542,-0.505463078926616
-0.486275588197196,-0.522004437397192
-0.492144342096929,-0.538259543788978
-0.498049054968269,-0.554219711217084
-0.503982087481442,-0.569876518171065
-0.509935655783399,-0.585221815030584
-0.515901839689062,-0.600247730318599
-0.521872591036544,-0.614946676686315
-0.527839742197929,-0.629311356624429
-0.533795014737048,-0.64333476789544
-0.539730028205519,-0.657010208682107
-0.545636309068181,-0.670331282447361
-0.551505299748924,-0.68329190250132
-0.557328367787783,-0.695886296271314
-0.563096815100033,-0.708109009271108
-0.568801887327954,-0.719954908765842
-0.574434783275792,-0.731419187129472
-0.579986664418371,-0.742497364891816
-0.585448664473751,-0.753185293472607
-0.590811899030209,-0.763479157600274
-0.59606747521782,-0.773375477413459
-0.601206501414797,-0.782871110243619
-0.606220096978781,-0.791963252077337
-0.611099401993169,-0.800649438697326
-0.615835587018605,-0.808927546501386
-0.620419862839706,-0.816795792998907
-0.624843490197125,-0.824252736984828
-0.629097789495036,-0.831297278391271
-0.63317415047416,-0.837928657817391
-0.637064041840472,-0.844146455738299
-0.640759020839775,-0.849950591394214
-0.644250742768354,-0.855341321361337
-0.647530970410015,-0.860319237806233
-0.650591583389845,-0.864885266425817
-0.653424587435129,-0.869040664075369
-0.656022123533943,-0.872787016087269
-0.65837647698202,-0.876126233283482
-0.660480086308626,-0.879060548685108
-0.662325552072263,-0.881592513922593
-0.663905645517152,-0.883724995350521
-0.6652133170816,-0.885461169871157
-0.666241704749455,-0.886804520471229
-0.666984142236055,-0.887758831476697
-0.66743416700019,-0.888328183530531
-0.667585528073795,-0.888516948298794
-0.667432193701247,-0.888329782910606
-0.666968358780343,-0.887771624137774
-0.666188452097204,-0.8868476823202
-0.665087143347578,-0.885563435043345
-0.663659349937193,-0.883924620574337
-0.661900243554046,-0.881937231063494
-0.659805256505735,-0.879607505518284
-0.657370087815156,-0.876941922556974
-0.654590709068132,-0.87394719294939
-0.651463370006785,-0.870630251952465
-0.647984603862713,-0.866998251448423
-0.644151232424264,-0.863058551893629
-0.639960370832495,-0.85881871408634
-0.635409432100647,-0.854286490761754
-0.630496131352236,-0.8494698180229
-0.625218489773148,-0.844376806616116
-0.619574838273399,-0.839015733059945
-0.613563820854507,-0.833395030636487
-0.607184397678707,-0.827523280254316
-0.600435847836547,-0.821409201192218
-0.59331777180968,-0.815061641733139
-0.585830093625977,-0.808489569697776
-0.577973062704396,-0.801702062887394
-0.569747255387333,-0.794708299445515
-0.561153576158478,-0.787517548148176
-0.552193258544566,-0.780139158632553
-0.542867865699626,-0.772582551573787
-0.533179290670759,-0.764857208819874
-0.523129756344678,-0.756972663494562
-0.512721815074652,-0.748938490078159
-0.501958347987744,-0.740764294476231
-0.490842563972586,-0.732459704086141
-0.479377998348234,-0.724034357871375
-0.467568511214964,-0.715497896453605
-0.455418285488184,-0.706859952232387
-0.442931824616954,-0.698130139542393
-0.430113949988907,-0.689318044857989
-0.416969798023686,-0.680433217054952
-0.403504816957311,-0.671485157739044
-0.38972476332021,-0.662483311651078
-0.375635698111918,-0.653437057158026
-0.361243982675796,-0.644355696839667
-0.346556274277385,-0.635248448180102
-0.331579521390295,-0.626124434373409
-0.316320958693871,-0.616992675252574
-0.300788101787097,-0.607862078350682
-0.284988741623525,-0.598741430103249
-0.268930938672288,-0.589639387200405
-0.252623016810504,-0.580564468097491
-0.236073556952677,-0.571525044692458
-0.219291390422925,-0.562529334178305
-0.202285592076172,-0.553585391078584
-0.185065473174625,-0.544701099473839
-0.16764057402617,-0.535884165426624
-0.150020656391496,-0.527142109612559
-0.132215695667029,-0.518482260164667
-0.114235872850969,-0.509911745738
-0.0960915662999238,-0.501437488801373
-0.077793343283871,-0.49306619916275
-0.0593519513473517,-0.484804367734611
-0.0407783094850187,-0.47665826054539
-0.0220834991398354,-0.4686339130028
-0.0032787550323858,-0.460737124414617
0.0156245441700367,-0.452973452772244
0.0346148853357754,-0.445348209802078
0.0536806304936253,-0.437866456289469
0.0728100265910118,-0.430532997679737
0.091991215376314,-0.423352379960482
0.111212243395948,-0.416328885829093
0.130461072096749,-0.409466531149093
0.149725588024062,-0.402769061698666
0.168993613105858,-0.3962399502144
0.188252915013099,-0.389882393733005
0.207491217586526,-0.383699311233423
0.226696211319902,-0.377693341581497
0.245855563889805,-0.371866841779003
0.264956930721857,-0.366221885518584
0.283987965583403,-0.360760262045792
0.302936331192496,-0.355483475329132
0.321789709833068,-0.350392743538714
0.340535813966202,-0.345488998833769
0.359162396827326,-0.340772887459012
0.377657262999266,-0.336244770149487
0.396008278951002,-0.331904722843243
0.414203383532122,-0.32775253770087
0.432230598412903,-0.3237877244306
0.450078038460057,-0.320009511917395
0.467733922038228,-0.316416850154121
0.485186581227381,-0.31300841247259
0.502424471946332,-0.309782598071981
0.519436183972704,-0.306737534841815
0.536210450849768,-0.303871082476396
0.552736159670649,-0.301180835877292
0.569002360730586,-0.298664128840193
0.584998277037951,-0.29631803802214
0.600713313674999,-0.294139387184881
0.616137066999331,-0.292124751709806
0.631259333677303,-0.290270463379637
0.646070119540743,-0.288572615421802
0.660559648258469,-0.287027067808126
0.674718369814368,-0.285629452805245
0.688536968783875,-0.284375180769865
0.702006372400988,-0.283259446182768
0.715117758408066,-0.282277233915206
0.727862562680946,-0.281423325721093
0.740232486622065,-0.280692306948187
0.752219504314553,-0.280078573461222
0.763815869430447,-0.279576338769736
0.775014121886446,-0.279179641353138
0.785807094240862,-0.278882352175354
0.796187917825665,-0.278678182381207
0.806150028607783,-0.278560691166485
0.815687172774083,-0.278523293813506
0.824793412034725,-0.278559269883774
0.83346312863984,-0.278661771559214
0.841691030104786,-0.278823832123285
0.8494721536395,-0.279038374573142
0.856801870277761,-0.279298220353876
0.863675888702446,-0.279596098205765
0.870090258763206,-0.279924653115304
0.876041374683233,-0.28027645536073
0.881525977952115,-0.280644009642623
0.886541159902096,-0.281019764290088
0.891084363965326,-0.281396120532958
0.895153387610039,-0.281765441830373
0.898746383953866,-0.282120063246039
0.901861863052846,-0.28245230086042
0.904498692864975,-0.282754461210084
0.906656099887472,-0.283018850744384
0.908333669467251,-0.283237785289649
0.909531345784398,-0.283403599511032
0.910249431508782,-0.283508656362189
0.91048858713024,-0.283545356512943
