-0.600598089334338,0.026126962822946
-0.600565884849397,0.0260749749070013
-0.600532989154287,0.026021995934299
-0.600499383862185,0.025968002436161
-0.600465050003758,0.0259129702819057
-0.600429968005775,0.0258568746572541
-0.600394117668833,0.0257996900419385
-0.600357478144154,0.0257413901864834
-0.600320027909397,0.0256819480881223
-0.600281744743453,0.0256213359658168
-0.600242605700171,0.0255595252343391
-0.600202587080957,0.0254964864773807
-0.600161664406199,0.0254321894196449
-0.600119812385467,0.0253666028978825
-0.600077004886414,0.0252996948308247
-0.600033214902329,0.0252314321879679
-0.599988414518265,0.0251617809571611
-0.599942574875692,0.0250907061109455
-0.599895666135571,0.0250181715715934
-0.599847657439803,0.0249441401747902
-0.599798516870954,0.0248685736319015
-0.599748211410173,0.0247914324907652
-0.59969670689322,0.0247126760949439
-0.599643967964497,0.024632262541371
-0.599589958028991,0.024550148636322
-0.599534639202019,0.0244662898496359
-0.599477972256668,0.0243806402671118
-0.599419916568794,0.0242931525409999
-0.599360430059483,0.0242037778385027
-0.599299469134818,0.0241124657881988
-0.59923698862282,0.0240191644242978
-0.599172941707422,0.0239238201286281
-0.599107279859309,0.0238263775702584
-0.599039952763462,0.023726779642645
-0.59897090824324,0.0236249673981958
-0.598900092180795,0.0235208799801332
-0.59882744843365,0.0234144545515338
-0.598752918747207,0.0233056262214181
-0.598676442662983,0.0231943279677548
-0.598597957422329,0.0230804905572398
-0.598517397865398,0.0229640424617025
-0.598434696325084,0.0228449097709841
-0.598349782515667,0.0227230161021265
-0.598262583415868,0.0225982825047007
-0.59817302314599,0.0224706273620979
-0.598081022838826,0.0223399662885945
-0.597986500503983,0.0222062120219965
-0.597889370885227,0.0220692743116552
-0.597789545310483,0.0219290598016413
-0.597686931534039,0.0217854719088481
-0.597581433570521,0.0216384106957883
-0.59747295152016,0.0214877727378345
-0.597361381384833,0.0213334509846422
-0.597246614874356,0.0211753346154814
-0.597128539202432,0.0210133088881893
-0.597007036871664,0.0208472549814434
-0.596881985446959,0.0206770498300385
-0.596753257316651,0.0205025659528366
-0.596620719440584,0.0203236712730425
-0.596484233084383,0.0201402289304418
-0.59634365353905,0.0199520970852185
-0.59619882982502,0.0197591287129557
-0.596049604379688,0.0195611713903973
-0.595895812727408,0.0193580670715358
-0.595737283130864,0.0191496518535654
-0.595573836222655,0.0189357557322231
-0.595405284615839,0.0187162023460115
-0.595231432492129,0.0184908087087837
-0.595052075166298,0.0182593849301373
-0.594866998625291,0.0180217339230466
-0.594675979040407,0.0177776510981338
-0.59447878225083,0.0175269240439563
-0.594275163216636,0.0172693321926568
-0.594064865439289,0.0170046464703009
-0.593847620347499,0.016732628931194
-0.593623146646151,0.016453032375446
-0.593391149625869,0.016165599949019
-0.593151320430582,0.0158700647254699
-0.592903335280282,0.0155661492685661
-0.592646854645963,0.0152535651749281
-0.592381522373503,0.014932012595824
-0.592106964753014,0.0146011797372132
-0.591822789529933,0.0142607423371106
-0.591528584853854,0.0139103631193223
-0.591223918160794,0.0135496912225753
-0.590908334984289,0.0131783616040519
-0.590581357690331,0.0127959944163171
-0.590242484130831,0.0124021943566207
-0.589891186209857,0.0119965499875455
-0.589526908356482,0.0115786330279756
-0.589149065897582,0.0111479976133639
-0.588757043323469,0.0107041795242951
-0.588350192438638,0.0102466953823638
-0.587927830389361,0.00977504181243233
-0.587489237559212,0.00928869457037698
-0.587033655322915,0.00878710763551097
-0.586560283648165,0.00826971226695425
-0.5860682785343,0.0077359160233397
-0.58555674927578,0.00718510174538117
-0.585024755537569,0.00661662650100248
-0.584471304228446,0.00602982049293299
-0.583895346157218,0.00542398592892646
-0.583295772455652,0.00479839585505473
-0.582671410750628,0.00415229295288572
-0.582021021066711,0.00348488830177071
-0.581343291438843,0.00279536010795894
-0.580636833213289,0.00208285240283557
-0.57990017601327,0.00134647371325605
-0.579131762343885,0.000585295707735245
-0.578329941809,-0.000201648176829633
-0.577492964910615,-0.00101536412215894
-0.576618976399049,-0.00185689932233499
-0.575706008139792,-0.00272734337588279
-0.574751971460379,-0.0036278296661259
-0.573754648937819,-0.00455953671785192
-0.572711685584266,-0.00552368951612331
-0.571620579385461,-0.00652156077054222
-0.570478671143235,-0.00755447210536753
-0.569283133569895,-0.00862379515254588
-0.568030959578673,-0.00973095252088074
-0.566718949710645,-0.0108774186101724
-0.565343698634565,-0.0120647202341251
-0.563901580651997,-0.0132944370100573
-0.562388734135955,-0.0145682014668598
-0.560801044827041,-0.0158876988151224
-0.559134127906839,-0.0172546663147529
-0.557383308764176,-0.0186708921656142
-0.555543602365864,-0.0201382138355383
-0.553609691139827,-0.0216585157273641
-0.551575901275205,-0.0232337260721948
-0.549436177341354,-0.0248658129196508
-0.547184055125784,-0.0265567790772731
-0.544812632590277,-0.0283086558301333
-0.54231453884514,-0.0301234952478334
-0.539681901043977,-0.0320033608591231
-0.53690630910625,-0.0339503164439641
-0.533978778182642,-0.035966412658669
-0.530889708789626,-0.0380536711713475
-0.527628844555621,-0.0402140659418936
-0.524185227542551,-0.0424495012327362
-0.520547151134892,-0.0447617858831431
-0.516702110524777,-0.0471526033206329
-0.512636750868159,-0.0496234767176504
-0.508336813245483,-0.0521757286298603
-0.503787078633063,-0.0548104343740188
-0.498971310181327,-0.0575283683184391
-0.493872194206317,-0.0603299421677887
-0.488471280435159,-0.0632151342269311
-0.48274892220881,-0.066183408526726
-0.476684217541102,-0.069233622589695
-0.470254952167262,-0.0723639225075291
-0.463437545993881,-0.0755716238987824
-0.456207004692072,-0.0788530772181865
-0.448536878563669,-0.0822035158047372
-0.440399231263979,-0.0856168849918004
-0.431764621491603,-0.0890856505689854
-0.42260210136352,-0.0926005848951917
-0.412879235888585,-0.0961505290310853
-0.402562148740348,-0.0997221294071579
-0.391615600413291,-0.103299547794803
-0.38000310582475,-0.106864143731822
-0.367687099491706,-0.110394129105334
-0.354629157553928,-0.113864195354913
-0.34079028710903,-0.117245114773663
-0.326131294533894,-0.120503318706961
-0.31061324563667,-0.123600457134606
-0.294198031538277,-0.126492946231049
-0.276849055020012,-0.129131513088601
-0.258532052560621,-0.131460749912143
-0.239216067251814,-0.133418693689728
-0.218874587014923,-0.134936451627269
-0.197486860789919,-0.135937897486344
-0.175039402336435,-0.136339469308395
-0.151527686644582,-0.136050104699886
-0.126958037348967,-0.13497135564956
-0.101349694621461,-0.132997730389631
-0.0747370414727801,-0.130017314593543
-0.0471719519931509,-0.12591272755891
-0.0187262077361856,-0.120562470120942
0.0105060916368487,-0.113842718884872
0.0404062196833541,-0.105629614837105
0.0708287363818018,-0.0958020823230324
0.101599766652664,-0.0842451956574628
0.132515808981014,-0.0708540843849371
0.163343255402923,-0.0555383340026043
0.193818812535575,-0.0382267970712803
0.223651010143502,-0.0188726813154648
0.252522965381457,0.00254127099374291
0.280096534244005,0.0259977505491541
0.306017924862607,0.0514402810469527
0.329924769858596,0.0787693735455239
0.35145455913012,0.107839774893988
0.370254225261844,0.138459143076889
0.385990559284725,0.17038844517597
0.398361025585254,0.203344303367659
0.407104453989617,0.237003411655152
0.412011027387164,0.271009015946405
0.412930966106242,0.304979302257285
0.409781343405403,0.338517385820939
0.402550552288468,0.371222453820722
0.391300078265497,0.402701502827141
0.376163404898296,0.432581043192111
0.357342072635376,0.460518126506748
0.335099106733877,0.486210092316993
0.309750206528308,0.50940252306685
0.28165322786679,0.529895031480063
0.251196580115364,0.547544666983066
0.218787192337067,0.562266899315494
0.18483868087479,0.574034300221387
0.149760279866353,0.582873182691939
0.113946989253562,0.588858560703523
0.0777712662474224,0.59210785519873
0.0415764508935735,0.592773793973602
0.00567198758235334,0.591036938453768
-0.0296696077288591,0.587098226523915
-0.0642141736440457,0.581171856707456
-0.097765924609192,0.573478764361564
-0.13016630612234,0.564240863508884
-0.161291936571364,0.553676155160713
-0.191051883457625,0.541994739197337
-0.219384502804648,0.529395714781391
-0.246254042386621,0.516064914881831
-0.271647176351299,0.502173393423144
-0.295569604385895,0.487876567563031
-0.318042815430967,0.473313910825566
-0.339101085875471,0.458609093254371
-0.358788756203214,0.4438704704188
-0.377157808637042,0.429191832221254
-0.394265751423437,0.414653333517241
-0.410173802693995,0.400322540389932
-0.424945357829561,0.386255537643728
-0.43864471835293,0.372498054097055
-0.451336056990141,0.359086572192615
-0.463082592106159,0.346049397112819
-0.473945944737723,0.333407667932387
-0.483985652488621,0.321176299395171
-0.493258816272562,0.309364847764441
-0.501819858011334,0.297978297994921
-0.509720369711865,0.287017772355308
-0.51700903670221,0.276481162737569
-0.523731620096077,0.266363690361742
-0.529930985708115,0.256658397547759
-0.535647168615509,0.247356576788365
-0.54091746433448,0.238448142613594
-0.545776539147083,0.229921951765355
-0.550256553478892,0.221766077064413
-0.554387293402966,0.213968040102394
-0.558196306345448,0.206515007568462
-0.561709037910576,0.199393955654878
-0.564948967445871,0.192591806600746
-0.567937740549515,0.186095541046
-0.570695297198004,0.179892289490015
-0.573239994558588,0.173969405789273
-0.575588723861408,0.168314525291535
-0.577757020952962,0.162915609892798
-0.579759170346246,0.157760982019329
-0.5816083027328,0.152839349280212
-0.583316486035908,0.148139821305482
-0.584894810168996,0.143651920079669
-0.586353465724551,0.139365584898761
-0.587701816861202,0.135271172918419
-0.588948468684116,0.131359456120813
-0.590101329429502,0.127621615404709
-0.591167667770682,0.124049232396723
-0.592154165562808,0.12063427948903
-0.593066966337838,0.117369108528848
-0.593911719852013,0.114246438516036
-0.594693622976069,0.111259342605938
-0.595417457204623,0.108401234663839
-0.596087623046208,0.105665855574048
-0.596708171539932,0.103047259469707
-0.597282833129088,0.100539800018021
-0.597815044106462,0.0981381168690516
-0.598307970830994,0.095837122353791
-0.598764531900753,0.0936319884983197
-0.599187418453283,0.09151813440506
-0.599579112751086,0.0894912140388937
-0.599941905197518,0.0875471044449342
-0.60027790991669,0.0856818944156481
-0.60058907902001,0.0838918736175458
-0.600877215671851,0.0821735221815571
-0.601143986057387,0.0805235007562563
-0.601390930346957,0.0789386410191364
-0.601619472743238,0.0774159366379854
-0.601830930690143,0.075952534671963
-0.60202652331553,0.0745457274001012
-0.602207379173596,0.0731929445635588
-0.602374543347074,0.071891746006963
-0.60252898396415,0.0706398147035108
-0.602671598180195,0.0694349501481072
-0.602803217670054,0.068275062102647
-0.602924613672617,0.0671581646775537
-0.603036501625752,0.0660823707338412
-0.603139545426362,0.065045886590227
-0.603234361347264,0.0640470070201808
-0.603321521639841,0.0630841105242118
-0.603401557848896,0.0621556548631722
-0.603474963863802,0.0612601728388593
-0.603542198727997,0.060396268308733
-0.603603689226909,0.0595626124221104
-0.603659832272708,0.058757940065753
-0.603710997102639,0.0579810465073135
-0.603757527306301,0.0572307842256601
-0.603799742695872,0.0565060599176296
-0.603837941032115,0.0558058316712932
-0.603872399617885,0.0551291062963256
-0.603903376769858,0.0544749368025642
-0.603931113178316,0.053842420018325
-0.603955833163962,0.0532306943404953
-0.603977745840005,0.0526389376088669
-0.603997046187054,0.0520663650975907
-0.604013916047725,0.0515122276170346
-0.604028525047314,0.0509758097197069
-0.604041031446317,0.0504564280042709
-0.604051582930159,0.0499534295120174
-0.604060317340998,0.0494661902104898
-0.604067363356103,0.0489941135592626
-0.604072841116933,0.0485366291531662
-0.604076862812699,0.0480931914385267
-0.604079533221895,0.0476632784982471
-0.604080950214995,0.0472463909018045
-0.604081205221263,0.0468420506164654
-0.604080383662384,0.046449799976242
-0.604078565355404,0.0460692007053152
-0.604075824887287,0.0456998329928449
-0.604072231963184,0.0453412946162666
-0.604067851730384,0.0449932001103497
-0.604062745079719,0.0446551799794476
-0.604056968926105,0.0443268799505238
-0.604050576469718,0.0440079602646824
-0.604043617439242,0.0436980950050589
-0.604036138318465,0.04339697145906
-0.604028182557445,0.0431042895130527
-0.604019790769342,0.0428197610777187
-0.604011000913945,0.0425431095423907
-0.604001848468853,0.0422740692567874
-0.60399236658916,0.0420123850386555
-0.603982586256491,0.041757811705912
-0.603972536418108,0.0415101136319641
-0.603962244116795,0.0412690643229568
-0.603951734612173,0.0410344460157733
-0.603941031494019,0.0408060492956789
-0.603930156788161,0.040583672732563
-0.603919131055458,0.0403671225347926
-0.603907973484327,0.0401562122197485
-0.603896701977274,0.0399507623001658
-0.603885333231827,0.0397505999854518
-0.603873882816251,0.0395555588971989
-0.603862365240407,0.0393654787981569
-0.603850794022067,0.0391802053339662
-0.603839181748998,0.0389995897869965
-0.603827540137105,0.0388234888416683
-0.603815880084873,0.0386517643606724
-0.603804211724374,0.0384842831715303
-0.603792544469063,0.038320916862975
-0.603780887058557,0.0381615415906538
-0.603769247600616,0.0380060378916864
-0.603757633610499,0.0378542905076362
-0.603746052047862,0.0377061882154728
-0.603734509351363,0.0375616236661334
-0.603723011471127,0.0374204932303044
-0.603711563899189,0.0372826968510705
-0.60370017169807,0.0371481379030942
-0.603688839527592,0.0370167230580071
-0.603677571670033,0.0368883621557128
-0.603666372053758,0.0367629680813137
-0.603655244275392,0.0366404566473934
-0.603644191620641,0.0365207464813966
-0.603633217083846,0.0364037589178633
-0.603622323386348,0.0362894178952882
-0.603611512993737,0.0361776498573843
-0.603600788132053,0.0360683836585458
-0.603590150803011,0.0359615504733115
-0.603579602798301,0.035857083709643
-0.603569145713029,0.0357549189258394
-0.603558780958344,0.0356549937509221
-0.60354850977331,0.0355572478083271
-0.603538333236055,0.0354616226427553
-0.603528252274264,0.0353680616500357
-0.603518267675024,0.0352765100098637
-0.603508380094098,0.0351869146212859
-0.603498590064625,0.035099224040806
-0.603488898005312,0.0350133884229948
-0.603479304228129,0.0349293594634917
-0.603469808945543,0.0348470903442931
-0.60346041227732,0.0347665356812229
-0.603451114256923,0.0346876514734924
-0.603441914837521,0.034610395055255
-0.603432813897639,0.0345347250490698
-0.603423811246476,0.0344606013211904
-0.603414906628893,0.0343879849385999
-0.603406099730113,0.0343168381277162
-0.603397390180131,0.0342471242346958
-0.603388777557859,0.0341788076872684
-0.603380261395028,0.034111853958035
-0.603371841179844,0.0340462295291701
-0.603363516360437,0.0339819018584654
-0.603355286348085,0.0339188393466609
-0.603347150520256,0.0338570113060084
-0.60333910822346,0.0337963879300154
