0.825771477649931,-0.455201546885098
0.825742584032946,-0.455131595689702
0.825713045225436,-0.455060295487131
0.825682843483827,-0.45498761392712
0.825651960486051,-0.454913517734048
0.825620377309767,-0.454837972676283
0.825588074409654,-0.454760943534362
0.825555031593733,-0.454682394067982
0.825521227998662,-0.454602286981731
0.825486642063975,-0.454520583889528
0.825451251505189,-0.454437245277695
0.825415033285749,-0.454352230466619
0.825377963587729,-0.454265497570938
0.825340017781252,-0.454177003458185
0.825301170392547,-0.454086703705832
0.825261395070595,-0.453994552556654
0.825220664552268,-0.453900502872354
0.825178950625912,-0.453804506085357
0.825136224093279,-0.453706512148707
0.825092454729737,-0.453606469483977
0.825047611242655,-0.453504324927107
0.825001661227886,-0.453400023672079
0.824954571124244,-0.453293509212324
0.824906306165867,-0.453184723279781
0.824856830332375,-0.453073605781481
0.824806106296676,-0.452960094733553
0.824754095370337,-0.452844126192545
0.824700757446362,-0.452725634183925
0.824646050939251,-0.452604550627637
0.824589932722201,-0.452480805260593
0.824532358061291,-0.452354325555933
0.824473280546489,-0.452225036638933
0.824412652019313,-0.452092861199388
0.824350422496968,-0.451957719400317
0.824286540092762,-0.45181952878281
0.8242209509326,-0.451678204166853
0.824153599067344,-0.451533657547921
0.824084426380809,-0.451385797989162
0.824013372493149,-0.451234531508952
0.823940374659385,-0.451079760963607
0.8238653676628,-0.450921385925015
0.823788283702905,-0.450759302552962
0.82370905227768,-0.450593403461882
0.823627600059756,-0.450423577581768
0.8235438507662,-0.450249710012978
0.823457725021529,-0.450071681874615
0.823369140213558,-0.449889370146196
0.82327801034168,-0.449702647502266
0.823184245857126,-0.449511382139622
0.823087753494734,-0.449315437596782
0.822988436095731,-0.449114672565324
0.82288619242099,-0.448908940692691
0.822780916954203,-0.448698090376035
0.822672499694354,-0.448481964546674
0.822560825936854,-0.448260400444676
0.822445776042648,-0.448033229383094
0.82232722519457,-0.44780027650133
0.82220504314015,-0.447561360507077
0.82207909392005,-0.447316293406287
0.821949235581235,-0.447064880220533
0.821815319873932,-0.446806918691161
0.82167719193136,-0.44654219896954
0.821534689931139,-0.446270503292724
0.821387644737239,-0.445991605643775
0.821235879521206,-0.445705271395972
0.821079209361362,-0.445411256940092
0.820917440818541,-0.445109309293888
0.820750371486864,-0.44479916569287
0.820577789517911,-0.444480553161423
0.820399473116569,-0.444153188063266
0.820215190006671,-0.443816775630185
0.820024696864456,-0.443471009467944
0.819827738717688,-0.443115571038189
0.819624048308146,-0.442750129115133
0.819413345415035,-0.442374339215719
0.819195336136656,-0.44198784300192
0.818969712127523,-0.441590267653734
0.81873614978786,-0.441181225211415
0.818494309402225,-0.440760311885329
0.818243834223746,-0.440327107331847
0.817984349500186,-0.439881173893507
0.817715461437776,-0.439422055801686
0.81743675609847,-0.438949278339873
0.81714779822589,-0.438462346965597
0.816848129994944,-0.437960746388943
0.816537269679642,-0.437443939605524
0.816214710233269,-0.436911366881685
0.815879917774598,-0.436362444689603
0.815532329973334,-0.435796564589903
0.815171354327466,-0.435213092059274
0.81479636632461,-0.434611365260523
0.814406707478834,-0.43399069375239
0.814001683233748,-0.433350357136399
0.813580560721958,-0.432689603637935
0.813142566370144,-0.432007648618659
0.812686883338234,-0.431303673017358
0.812212648780145,-0.430576821716257
0.811718950912649,-0.429826201829799
0.811204825877753,-0.429050880912925
0.81066925438288,-0.428249885085871
0.810111158101821,-0.427422197072573
0.809529395818076,-0.42656675414986
0.808922759290708,-0.425682446004722
0.808289968821205,-0.424768112497154
0.807629668498137,-0.423822541326273
0.806940421094466,-0.422844465597749
0.80622070259034,-0.421832561290958
0.805468896292024,-0.420785444624756
0.804683286515167,-0.419701669321378
0.803862051798102,-0.418579723768674
0.803003257608049,-0.417418028081792
0.802104848500101,-0.416214931066468
0.801164639685662,-0.41496870708734
0.800180307963507,-0.413677552846213
0.79914938196292,-0.412339584076978
0.79806923164435,-0.41095283216597
0.796937056998736,-0.409515240709041
0.795749875882069,-0.408024662019499
0.794504510916866,-0.406478853604453
0.793197575387026,-0.404875474631066
0.791825458047019,-0.403212082408806
0.79038430676055,-0.401486128919158
0.788870010877686,-0.399694957430474
0.78727818225304,-0.39783579924284
0.785604134800922,-0.395905770616192
0.783842862476499,-0.39390186994456
0.781989015564953,-0.39182097525045
0.78003687515351,-0.389659842086206
0.777980325654134,-0.387415101943974
0.775812825237735,-0.385083261292884
0.773527374034182,-0.382660701381565
0.771116479946363,-0.380143678966478
0.768572121921364,-0.377528328152167
0.76588571051786,-0.374810663558798
0.763048045606438,-0.371986585065799
0.760049271039362,-0.369051884418485
0.756878826128937,-0.366002254027884
0.75352539377982,-0.362833298343165
0.749976845131492,-0.359540548231764
0.74622018058365,-0.356119478865255
0.742241467101089,-0.352565531679941
0.738025771727304,-0.34887414106078
0.733557091279612,-0.345040766486456
0.728818278255543,-0.341060930972845
0.723790963053417,-0.336930266762404
0.718455472702756,-0.332644569328867
0.712790746416526,-0.328199860900171
0.706774248421748,-0.323592464848015
0.700381878703159,-0.318819092449393
0.693587882512481,-0.313876943692947
0.686364759760649,-0.308763823979379
0.678683175729881,-0.303478278747619
0.67051187492586,-0.298019748243047
0.661817600347253,-0.29238874482482
0.652565020991005,-0.286587055378502
0.64271667104873,-0.280617971546858
0.632232904993474,-0.274486550601826
0.621071873618726,-0.268199909836131
0.609189527083142,-0.26176755733045
0.596539652143513,-0.255201761822481
0.583073952030054,-0.248517964131649
0.568742178831746,-0.241735232133787
0.553492329806927,-0.234876760581433
0.537270920696234,-0.227970416065724
0.520023350856638,-0.221049326043988
0.501694376802195,-0.214152509033037
0.482228712448457,-0.207325540704371
0.461571775900321,-0.200621247622482
0.439670603844457,-0.194100416650599
0.416474955307271,-0.187832503527887
0.391938626463355,-0.181896318736998
0.366020997014104,-0.176380662505458
0.338688826026651,-0.171384873649577
0.309918310596915,-0.167019249087711
0.279697413798795,-0.163405282445353
0.248028458603051,-0.16067566161845
0.214930971309733,-0.15897395700567
0.180444741126547,-0.158453925131949
0.144633041587059,-0.159278347568834
0.107585934539616,-0.161617323659398
0.0694235488359926,-0.165645939042981
0.0302991945145863,-0.171541241965364
-0.00959785922788223,-0.179478477499173
-0.0500401453117817,-0.189626557570844
-0.0907605293219081,-0.202142783153577
-0.131451758038437,-0.217166884448546
-0.171767280469799,-0.234814504530501
-0.211323583992901,-0.255170319494295
-0.249704254028817,-0.278281059563366
-0.286465905734441,-0.304148764996403
-0.321146048887013,-0.332724670322019
-0.3532728337154,-0.363904151597752
-0.382376490704765,-0.397523184873929
-0.408002130165767,-0.433356741654295
-0.42972342023079,-0.47111948317947
-0.4471565304701,-0.510469008137383
-0.459973629353282,-0.551011761516704
-0.467915173165022,-0.592311535229632
-0.470800233959631,-0.633900298857235
-0.468534190861018,-0.675290910595171
-0.461113250753782,-0.715991095169126
-0.448625460907349,-0.755517956872487
-0.431248109338864,-0.793412237289544
-0.409241655257332,-0.82925153702615
-0.382940566047597,-0.862661798649478
-0.352741634827991,-0.893326485183386
-0.319090494603617,-0.920993068839227
-0.282467120018652,-0.945476647485459
-0.243371113048097,-0.966660709596812
-0.202307510443806,-0.984495251844656
-0.159773740890077,-0.99899260132005
-0.116248215383914,-1.01022139688807
-0.0721808735036803,-1.01829923809452
-0.027985847993505,-1.02338451796951
0.0159637355715961,-1.02566792505647
0.059338928573484,-1.02536403982921
0.101856294720359,-1.02270337211177
0.143277667744659,-1.01792509945162
0.183408619781438,-1.01127068032819
0.222095935549352,-1.00297843718852
0.259224374758572,-0.993279136884466
0.294712978683262,-0.982392542319894
0.328511141894988,-0.970524869431978
0.360594631326154,-0.957867057167705
0.390961695717688,-0.944593743189615
0.419629371693836,-0.930862832543365
0.446630059863289,-0.916815548231063
0.472008416353627,-0.90257685946569
0.495818582322784,-0.888256193499991
0.518121756100118,-0.873948348819844
0.538984099252914,-0.859734539999426
0.55847495845834,-0.845683516783704
0.576665378931416,-0.831852711420418
0.593626881668009,-0.81828937856311
0.60943047530856,-0.805031701038847
0.624145873486031,-0.792109842378057
0.637840889646051,-0.779546933286707
0.650580983156668,-0.767359984306471
0.662428932775319,-0.755560720890981
0.673444615995131,-0.744156340172882
0.68368487529327,-0.733150190954175
0.693203454739541,-0.72254238006004
0.702050992720329,-0.712330309279461
0.710275058646792,-0.702509147784902
0.717920223423939,-0.693072245272065
0.725028155151721,-0.684011491168354
0.731637733014077,-0.675317625189595
0.737785173597826,-0.666980504330835
0.7435041649854,-0.658989331099827
0.748826004901204,-0.651332847472907
0.753779739978846,-0.643999498696675
0.758392303873757,-0.63697757069326
0.762688652489787,-0.630255304464926
0.766691895035102,-0.623820990544549
0.770423419986449,-0.617663046208042
0.7739030153344,-0.611770077856834
0.777148982716807,-0.606130930694959
0.780178245233145,-0.60073472756687
0.783006448877194,-0.595570898588443
0.785648057636802,-0.590629202993918
0.788116442393349,-0.585899744434425
0.790423963815262,-0.581372980797687
0.792582049483724,-0.577039729471804
0.794601265518214,-0.572891168846977
0.796491382987727,-0.568918836735891
0.798261439402801,-0.56511462629469
0.799919795585957,-0.561470779940366
0.80147418821535,-0.557979881685673
0.802931778329743,-0.554634848247916
0.804299196073398,-0.551428919232003
0.805582581947922,-0.54835564663999
0.806787624825296,-0.545408883917805
0.807919596962653,-0.542582774714363
0.808983386245392,-0.539871741497762
0.809983525871119,-0.53727047414732
0.810924221673057,-0.534773918618044
0.811809377268007,-0.53237726575533
0.812642617200902,-0.530075940321777
0.813427308245541,-0.527865590284521
0.814166579009206,-0.525742076400199
0.814863337977716,-0.523701462125127
0.815520290126916,-0.521740003870379
0.81613995221679,-0.519854141614817
0.816724666875162,-0.518040489883703
0.817276615569456,-0.516295829096021
0.81779783055699,-0.514617097279989
0.81829020589701,-0.51300138215328
0.818755507600816,-0.51144591356213
0.81919538299012,-0.509948056271602
0.819611369327973,-0.508505303097894
0.820004901781305,-0.507115268372442
0.820377320769224,-0.5057756817268
0.820729878746735,-0.504484382186724
0.821063746469435,-0.503239312563545
0.821380018780929,-0.502038514130723
0.821679719961267,-0.50088012157347
0.821963808671538,-0.499762358199343
0.822233182526793,-0.498683531397924
0.822488682326872,-0.497642028337892
0.822731095972197,-0.496636311890096
0.822961162089422,-0.495664916765549
0.823179573389722,-0.494726445857646
0.823386979780677,-0.493819566778253
0.823583991250957,-0.492943008577736
0.823771180545466,-0.49209555863938
0.823949085647138,-0.491276059739077
0.82411821208029,-0.49048340726154
0.824279035049206,-0.489716546564713
0.824432001424535,-0.488974470484447
0.824577531589062,-0.48825621697188
0.824716021153493,-0.487560866856352
0.824847842552049,-0.48688754172702
0.824973346526865,-0.486235401926725
0.825092863509492,-0.485603644651969
0.825206704907145,-0.484991502153197
0.825315164300731,-0.484398240029883
0.825418518561149,-0.483823155615217
0.825517028889826,-0.48326557644548
0.825610941789028,-0.482724858809445
0.82570048996702,-0.482200386373408
0.825785893182769,-0.481691568877708
0.825867359034545,-0.481197840900795
0.825945083696404,-0.48071866068716
0.826019252606269,-0.480253509035612
0.826090041109025,-0.479801888244617
0.826157615057792,-0.479363321111571
0.826222131376304,-0.478937349983075
0.826283738585099,-0.478523535853433
0.826342577294028,-0.478121457508758
0.826398780663413,-0.477730710714207
0.826452474835983,-0.477350907442029
0.826503779341605,-0.476981675138212
0.82655280747665,-0.476622656025662
0.826599666659696,-0.476273506441954
0.826644458765175,-0.475933896209803
0.826687280436432,-0.475603508038522
0.82672822337956,-0.475282036954798
0.826767374639298,-0.474969189761268
0.826804816858162,-0.474664684521389
0.826840628519912,-0.474368250069247
0.826874884178377,-0.474079625542982
0.826907654672592,-0.473798559940605
0.826939007329125,-0.473524811697027
0.826969006152416,-0.473258148281214
0.82699771200391,-0.472998345812418
0.82702518277067,-0.472745188694504
0.827051473524169,-0.472498469267444
0.827076636669849,-0.472257987475098
0.827100722088051,-0.472023550548461
0.827123777266832,-0.471794972703574
0.827145847427197,-0.471572074853378
0.827166975641194,-0.471354684332788
0.827187202943321,-0.471142634636349
0.827206568435655,-0.470935765167816
0.827225109387079,-0.470733921001087
0.827242861326975,-0.470536952651919
0.827259858133703,-0.470344715859891
0.827276132118196,-0.470157071380116
0.827291714102947,-0.46997388478422
0.827306633496673,-0.469795026270138
0.827320918364906,-0.469620370480296
0.827334595496754,-0.469449796327784
0.827347690468059,-0.469283186830116
0.827360227701154,-0.46912042895023
0.827372230521424,-0.46896141344437
0.827383721210856,-0.468806034716538
0.827394721058747,-0.468654190679183
0.827405250409738,-0.46850578261985
0.827415328709316,-0.4683607150735
0.82742497454695,-0.468218895700244
0.827434205696964,-0.468080235168227
0.827443039157305,-0.46794464704143
0.827451491186299,-0.467812047672166
0.827459577337526,-0.46768235609804
0.827467312492906,-0.46755549394319
0.827474710894102,-0.46743138532359
0.827481786172331,-0.467309956756249
0.827488551376662,-0.46719113707212
0.827495019000905,-0.467074857332549
0.827501201009139,-0.466961050749119
0.827507108859977,-0.466849652606719
0.827512753529625,-0.466740600189709
0.827518145533795,-0.466633832711037
0.827523294948549,-0.466529291244176
0.827528211430111,-0.466426918657761
0.827532904233719,-0.466326659552811
0.827537382231561,-0.466228460202408
0.827541653929832,-0.466132268493747
0.827545727484984,-0.46603803387244
0.827549610719186,-0.465945707288978
0.827553311135042,-0.465855241147268
0.827556835929617,-0.465766589255145
0.827560192007791,-0.465679706776782
0.827563385994982,-0.46559455018691
0.827566424249275,-0.465511077226788
0.827569312872975,-0.465429246861825
0.827572057723628,-0.465349019240806
0.827574664424523,-0.46527035565665
0.827577138374711,-0.46519321850862
0.82757948475856,-0.465117571265956
