0.115812481862266,0.42005463879425
0.115732901334012,0.420095578726669
0.115651706794898,0.420137240852196
0.115568857492252,0.420179640751221
0.115484311443747,0.420222794395496
0.115398025394305,0.420266718159101
0.115309954771282,0.420311428829746
0.115220053637851,0.420356943620406
0.115128274644523,0.420403280181301
0.115034568978693,0.420450456612234
0.114938886312151,0.420498491475297
0.114841174746442,0.420547403807955
0.11474138075599,0.420597213136512
0.114639449128882,0.420647939489981
0.1145353229052,0.420699603414364
0.11442894331279,0.42075222598735
0.114320249700351,0.420805828833446
0.114209179467714,0.420860434139553
0.114095667993183,0.420916064670996
0.113979648557798,0.420972743788018
0.11386105226638,0.42103049546276
0.113739807965187,0.421089344296727
0.113615842156046,0.42114931553875
0.113489078906773,0.421210435103478
0.113359439757699,0.421272729590377
0.113226843624134,0.421336226303285
0.113091206694549,0.421400953270497
0.112952442324276,0.421466939265427
0.112810460924516,0.421534213827833
0.112665169846397,0.421602807285623
0.112516473259866,0.421672750777256
0.112364272027138,0.421744076274743
0.112208463570434,0.421816816607263
0.112048941733727,0.42189100548539
0.111885596638183,0.421966677525954
0.111718314530988,0.422043868277533
0.111546977627205,0.422122614246582
0.111371463944334,0.422202952924203
0.111191647129162,0.422284922813564
0.111007396276532,0.422368563457962
0.110818575739604,0.422453915469527
0.110625044931147,0.422541020558572
0.110426658115416,0.422629921563573
0.110223264190098,0.42272066248178
0.110014706457805,0.422813288500438
0.109800822386567,0.422907846028609
0.109581443358709,0.423004382729575
0.109356394407526,0.42310294755379
0.109125493941055,0.423203590772368
0.108888553452272,0.423306364011054
0.108645377214959,0.423411320284657
0.108395761964457,0.423518514031873
0.108139496562465,0.423628001150474
0.10787636164502,0.423739839032769
0.107606129252692,0.423854086601283
0.107328562442026,0.423970804344572
0.107043414877154,0.424090054353056
0.106750430400474,0.424211900354795
0.106449342581189,0.424336407751062
0.10613987424046,0.424463643651579
0.10582173695182,0.424593676909269
0.105494630515421,0.424726578154345
0.10515824240461,0.424862419827533
0.104812247183214,0.425001276212219
0.104456305891822,0.425143223465267
0.10409006540125,0.42528833964624
0.103713157731233,0.425436704744705
0.103325199332314,0.425588400705292
0.102925790328692,0.425743511450117
0.102514513719739,0.425902122898145
0.102090934537659,0.426064322981021
0.101654598958662,0.426230201654842
0.101205033364826,0.42639985090729
0.100741743353636,0.426573364759458
0.100264212691989,0.426750839261681
0.0997719022112658,0.42693237248253
0.0992642486398052,0.427118064490123
0.0987406633689071,0.427308017324734
0.0982005311482168,0.427502334961628
0.0976432087060664,0.427701123262905
0.0970680232900591,0.427904489917017
0.0964742711228547,0.42811254436446
0.0958612157677859,0.428325397708014
0.0952280863985646,0.428543162605691
0.0945740759669503,0.428765953144379
0.0938983392618388,0.428993884691949
0.0931999908527814,0.429227073725339
0.0924781029104717,0.429465637631878
0.0917317028962266,0.429709694480817
0.0909597711119428,0.429959362761692
0.0901612381014316,0.430214761085804
0.089334981893408,0.430476007846678
0.0884798250757508,0.430743220834946
0.0875945316899359,0.431016516802575
0.0866778039337919,0.431296010970843
0.0857282786599144,0.431581816475844
0.0847445236562165,0.431874043744635
0.0837250336941746,0.432172799794395
0.082668226329347,0.432478187446142
0.0815724374377083,0.432790304443627
0.0804359164702308,0.433109242467014
0.0792568214069772,0.43343508602982
0.0780332133907167,0.433767911246334
0.0767630510187705,0.434107784455339
0.0754441842703906,0.434454760684406
0.0740743480455189,0.434808881937314
0.0726511552892217,0.435170175285243
0.0711720896744827,0.435538650740227
0.0696344978143396,0.435914298887039
0.0680355809725829,0.436297088247015
0.0663723862404078,0.436686962344413
0.0646417971445087,0.437083836442673
0.0628405236501693,0.4374875939143
0.060965091520913,0.437898082204125
0.0590118309942741,0.438315108341196
0.0569768647312462,0.438738433949626
0.0548560949949823,0.439167769703202
0.0526451900124032,0.439602769162453
0.0503395694705499,0.440043021926058
0.0479343890978561,0.440488046020967
0.0454245242790634,0.440937279447189
0.0428045526513546,0.441390070783962
0.0400687356285109,0.441845668753677
0.0372109987996405,0.442303210628563
0.0342249111493955,0.442761709352479
0.0311036630477782,0.443220039236216
0.0278400429598041,0.443676920069288
0.0244264128287083,0.444130899474153
0.0208546820912882,0.444580333310099
0.0171162802907462,0.445023363913363
0.0132021282613814,0.445457895937482
0.00910260787117612,0.445881569533065
0.00480753032324743,0.446291730579141
0.000306103035955352,0.446685397648795
-0.00441310485509327,0.447059225359851
-0.0093621983009336,0.447409463726901
-0.014553993341301,0.447731913093898
-0.020002055153874,0.448021874186989
-0.0257207369473285,0.448274092785343
-0.031725219431709,0.448482698463648
-0.0380315505239038,0.448641136814289
-0.0446566848556072,0.448742094510328
-0.0516185225435968,0.44877741652347
-0.0589359465547596,0.44873801476507
-0.0666288578478962,0.448613767374857
-0.0747182072975328,0.448393407843183
-0.0832260231978529,0.448064403121281
-0.0921754329032572,0.447612819853493
-0.101590676881375,0.447023177860321
-0.111497113129729,0.446278290016907
-0.121921209533625,0.445359087715202
-0.132890521315119,0.444244431178179
-0.144433650236103,0.442910904021463
-0.156580181668278,0.441332591644524
-0.169360595025505,0.439480843295364
-0.182806142367709,0.437324018007835
-0.196948689230579,0.434827215080778
-0.21182051091538,0.431951990378448
-0.227454036596593,0.428656060510821
-0.243881532686581,0.424892997933372
-0.261134715958913,0.420611921224725
-0.279244286009365,0.415757186296647
-0.298239365773445,0.410268086104958
-0.318146838086379,0.40407856860293
-0.338990565751507,0.397116985248304
-0.360790482386485,0.389305885371495
-0.383561541583177,0.380561875153028
-0.407312512818633,0.370795563838693
-0.432044614298293,0.359911624105972
-0.457749975741264,0.34780899810549
-0.484409928307501,0.334381285497147
-0.511993124719844,0.31951735456532
-0.540453500464618,0.303102221916334
-0.569728097066802,0.285018249901818
-0.599734781089046,0.265146713204955
-0.630369907866351,0.243369786255235
-0.661505997074017,0.219573000432421
-0.692989507818719,0.193648213376803
-0.724638823502815,0.165497121039625
-0.756242580283071,0.135035325262429
-0.787558496057388,0.102196944640425
-0.818312877511345,0.0669397234386541
-0.848200998169825,0.0292505521051721
-0.876888547384505,-0.0108487360851276
-0.904014345078629,-0.0532954830484242
-0.929194496058964,-0.0979804882509742
-0.952028117283577,-0.144742763303967
-0.972104709029646,-0.193365118469793
-0.989013155434667,-0.243570978979462
-1.00235223275305,-0.295022845714947
-1.01174237928994,-0.34732280180075
-1.01683834722957,-0.40001541694946
-1.01734222481402,-0.452593310448951
-1.01301620174632,-0.504505500813478
-1.00369436702735,-0.555168499860059
-0.989292791991085,-0.603979911704451
-0.969817174513572,-0.65033408902435
-0.945367410278759,-0.693639200572265
-0.916138613129594,-0.733334898242075
-0.882418319783259,-0.768909661002243
-0.84457986693716,-0.799916854282013
-0.803072196693539,-0.825988586862569
-0.758406601332434,-0.846846573038564
-0.711141133219633,-0.862309405295078
-0.661863557061872,-0.872295892122343
-0.611173794851836,-0.8768243904229
-0.559666803816582,-0.876008333184807
-0.50791674004236,-0.870048393303473
-0.456463109714819,-0.859221911715225
-0.405799416780614,-0.843870338547619
-0.356364603670914,-0.824385485164282
-0.308537373078106,-0.801195366835683
-0.262633292518502,-0.774750341267058
-0.218904432914499,-0.745510132722258
-0.17754118486878,-0.713932192044165
-0.138675833013001,-0.680461695805374
-0.102387446365983,-0.645523346919584
-0.0687076543234075,-0.609515014532728
-0.0376269152834089,-0.572803149243317
-0.00910093918770527,-0.535719833408922
0.0169430116996092,-0.498561275244767
0.0406001544298105,-0.461587527227559
0.0619826982102134,-0.425023200288218
0.0812149319828757,-0.389058951139867
0.0984289335943411,-0.35385353656817
0.113760910017699,-0.319536251725273
0.127348149793032,-0.286209596147595
0.139326548848799,-0.253952038798917
0.149828658001637,-0.222820780058554
0.158982193410144,-0.192854432990665
0.16690894879087,-0.164075567727065
0.173724049106704,-0.136493081060587
0.17953548868101,-0.11010436836406
0.184443901426119,-0.0848972869058734
0.188542516431416,-0.0608519088327751
0.191917258027823,-0.037942068900227
0.194646955267504,-0.0161367168333349
0.196803631283426,0.00459891263288714
0.198452848069588,0.0243022971175486
0.199654086766921,0.0430127755781914
0.200461147521791,0.0607708330100147
0.200922556409822,0.0776175053694575
0.201081969817091,0.0935938900131449
0.200978569088062,0.108740747958034
0.200647440236195,0.123098185414227
0.200119935122874,0.136705403241829
0.19942401179585,0.149600504181841
0.198584552689262,0.161820348869903
0.197623660168574,0.173400452735061
0.196560929495514,0.184374916898368
0.195413699725299,0.194776387110002
0.19419728336097,0.204636035596157
0.192925175803089,0.213983561429702
0.191609245768404,0.222847205695282
0.190259907926075,0.231253778295815
0.188886279028957,0.239228693749569
0.187496318811893,0.246796013762164
0.18609695689835,0.253978494732737
0.184694206908392,0.260797638674919
0.183293268900809,0.267273746307472
0.181898621214629,0.273425971302283
0.180514102703804,0.279272374874346
0.179142986286033,0.284829980064089
0.177788044654574,0.290114825201315
0.176451608931655,0.295142016155911
0.175135620974892,0.299925777076679
0.173841679984445,0.304479499399101
0.172571083998929,0.308815788968088
0.171324866812512,0.312946511175005
0.170103830794211,0.31688283405141
0.168908576043134,0.320635269296554
0.167739526270084,0.324213711243247
0.166596951756448,0.327627473788345
0.165480989705352,0.33088532533077
0.164391662267532,0.333995521772712
0.163328892494867,0.336965837648926
0.16229251844797,0.339803595455663
0.161282305660268,0.342515693255138
0.160297958139466,0.345108630634016
0.159339128067937,0.347588533095523
0.158405424346241,0.349961174964819
0.157496420108403,0.352232000886336
0.156611659323676,0.354406145990207
0.155750662587051,0.356488454802815
0.154912932189653,0.358483498973962
0.154097956550198,0.36039559389041
0.153305214079827,0.362228814242577
0.152534176544701,0.3639870086081
0.151784311983657,0.365673813112894
0.15105508723194,0.367292664227172
0.150345970096398,0.368846810750843
0.149656431222505,0.37033932503967
0.148985945689125,0.371773113520622
0.148333994362955,0.373150926542019
0.147700065041018,0.374475367601344
0.147083653406456,0.37574890199095
0.146484263820024,0.376973864899447
0.145901409967209,0.378152469004127
0.145334615378664,0.379286811587565
0.144783413839646,0.380378881209427
0.144247349702408,0.381430563962469
0.143725978113892,0.382443649339841
0.143218865169691,0.383419835739059
0.142725588003998,0.384360735626283
0.142245734824138,0.385267880383035
0.141778904897306,0.386142724855977
0.141324708496256,0.386986651629017
0.140882766809886,0.38780097503574
0.140452711823992,0.388586944928925
0.140034186176834,0.389345750222815
0.139626842993601,0.390078522222764
0.13923034570339,0.390786337755878
0.138844367841858,0.391470222115391
0.138468592842342,0.392131151830636
0.138102713817878,0.392770057273705
0.137746433336262,0.393387825113134
0.137399463190008,0.393985300624262
0.137061524162843,0.394563289865295
0.136732345794131,0.395122561727462
0.136411666142467,0.395663849867153
0.136099231549484,0.396187854527341
0.135794796404783,0.396695244255184
0.135498122912764,0.39718665752217
0.13520898086202,0.397662704252827
0.134927147397836,0.398123967267567
0.134652406798288,0.398571003644903
0.1343845502543,0.399004346007931
0.134123375653999,0.399424503739647
0.133868687371607,0.399831964131377
0.133620296061086,0.400227193468326
0.133378018454683,0.400610638055995
0.133141677166488,0.400982725190967
0.132911100501081,0.401343864079352
0.132686122267326,0.401694446705971
0.13246658159731,0.402034848657153
0.132252322770443,0.402365429899852
0.132043195042681,0.40268653551962
0.131839052480834,0.402998496419798
0.131639753801906,0.403301629984166
0.131445162217384,0.403596240705135
0.131255145282424,0.403882620779438
0.131069574749812,0.404161050673162
0.13088832642863,0.404431799657862
0.130711280047515,0.404695126319349
0.130538319122413,0.404951279040715
0.130369330828704,0.405200496460995
0.13020420587761,0.405443007910829
0.13004283839675,0.40567903382639
0.129885125814743,0.405908786142753
0.129730968749739,0.406132468667853
0.129580270901763,0.406350277438056
0.129432938948764,0.406562401056355
0.129288882446243,0.406769021014113
0.129148013730371,0.406970311997243
0.129010247824458,0.407166442177647
0.128875502348696,0.407357573490689
0.12874369743304,0.407543861899454
0.12861475563315,0.40772545764647
0.12848860184927,0.407902505493559
0.12836516324796,0.408075144950423
0.12824436918658,0.408243510492561
0.12812615114042,0.408407731769051
0.128010442632409,0.408567933800732
0.127897179165289,0.408724237169259
0.127786298156179,0.408876758197507
0.127677738873446,0.409025609121755
0.127571442375798,0.409170898256067
0.127467351453519,0.409312730149247
0.127365410571774,0.409451205734766
0.127265565815905,0.409586422473971
0.12716776483865,0.409718474492947
0.127071956809214,0.409847452713311
0.126978092364126,0.409973444977252
0.126886123559813,0.410096536167097
0.126796003826844,0.410216808319657
0.126707687925754,0.410334340735615
0.126621131904427,0.410449210084193
0.126536293056951,0.410561490503313
0.126453129883906,0.41067125369548
0.126371602054031,0.410778569019582
0.126291670367223,0.410883503578797
0.126213296718802,0.4109861223048
0.126136444065026,0.411086488038427
0.126061076389779,0.411184661606972
0.125987158672413,0.411280701898278
0.125914656856688,0.411374665931746
0.125843537820777,0.411466608926433
0.125773769348289,0.411556584366348
0.125705320100291,0.411644644063089
0.125638159588266,0.411730838215929
0.125572258147998,0.41181521546948
0.125507586914337,0.411897822969024
0.125444117796813,0.411978706413638
0.125381823456072,0.412057910107192
0.125320677281103,0.412135477007323
0.125260653367226,0.412211448772476
0.12520172649482,0.412285865807087
0.125143872108747,0.412358767305004
0.125087066298475,0.412430191291203
0.125031285778844,0.412500174661896
