-0.589325445549818,-0.921646023774878
-0.603298346338145,-0.875213738092305
-0.60003529392169,-0.913986207301424
-0.601227449448379,-0.890599896188884
-0.64934800631012,-0.906897481355099
-0.633840161169425,-0.90687004514255
-0.669182374261698,-0.93999305666196
-0.66688378301356,-0.8656208086952
-0.626512483757659,-0.932133440556287
-0.669613118391069,-0.919827739515079
-0.621058089107937,-0.944642900026185
-0.621749408717568,-0.898190914443717
-0.634070088720717,-0.914929303615309
-0.598201488246242,-0.899929301617367
-0.704645648818504,-0.983210886601652
-0.63070448890496,-0.856652465900134
-0.577213069503066,-0.840286374718581
-0.589464719878604,-0.884416549240122
-0.697150922504282,-0.997939728838309
-0.585512021593363,-0.861738264159526
-0.578177266821571,-0.883552385575637
-0.56417695950567,-0.910754877325483
-0.54577090896554,-0.824558798379588
-0.532310969687251,-0.870557856819286
-0.544283096614032,-0.904762497062
-0.528495059422539,-0.856736675752037
-0.544029656903143,-0.857545874564796
-0.367083013200896,-0.716603556252539
-0.446792293904852,-0.907932152885893
-0.499395768270651,-0.83878884018952
-0.429318257838334,-0.890556912087024
-0.512485064181746,-0.962032579513238
-0.253727265912919,-0.732986064819309
-0.385007007892519,-0.854868358007602
-0.243487047269632,-0.776266566624735
-0.34203964545211,-0.873655457872029
-0.360112198054503,-0.865227689247605
-0.195299077482336,-0.746744675583963
-0.275085764612964,-0.850434553400457
-0.242341745039726,-0.842516025595511
-0.234209839491265,-0.849492051003117
-0.21304007295208,-0.849095654485333
-0.191404588861535,-0.848739430107338
-0.127639421628272,-0.880077875965636
-0.0941388230838105,-0.868795108902329
0.0547248694815443,-0.711791528707951
-0.0419692117506921,-0.812199828187771
0.0200736261344819,-0.744745623548275
-0.0108306816519266,-0.801815440638891
-0.0671322522833148,-0.92779293310329
0.107140681813163,-0.727578539300995
0.0238072963441033,-0.864222541721006
0.175949148757881,-0.752389280332431
0.087992677179274,-0.809317929550905
0.190006222697566,-0.751566653287546
0.18288016323483,-0.846456383374495
0.0595303305855681,-0.958473305230055
0.232653549843154,-0.793738202426416
0.221735962604472,-0.863582979627334
0.210577491472409,-0.794618589449866
0.302045360067731,-0.791393047992494
0.201760664893008,-0.941266917482631
0.343114881478301,-0.792667317355463
0.374057672563092,-0.815672412286306
0.367942018702679,-0.784786112070865
0.287552719997775,-0.980480941360754
0.447210855814439,-0.811258295961904
0.353952797573361,-0.889285434540644
0.50819177839598,-0.826395407647533
0.553624274495894,-0.813503295803965
0.553128175051381,-0.849386270833256
0.588809366807776,-0.810783426753935
0.571368680421257,-0.800350162007812
0.657471154447091,-0.801919117939308
0.650720752374839,-0.778669611592898
0.672579518441531,-0.775160280327104
0.610621030786347,-0.908744443739716
0.733969359310711,-0.762072508101682
0.714430246913896,-0.707789197714629
0.756495938841051,-0.741729087836903
0.778227228846542,-0.703890695655629
0.879288376119719,-0.594937364938026
0.788905751563021,-0.733083261888742
0.848315237123251,-0.6937386310521
0.864805412312794,-0.682743840925377
0.878058430111219,-0.694252469176895
0.901116912015817,-0.684590219344635
0.91790334658349,-0.645585384972411
0.905787781076719,-0.610914396557977
0.936562291411628,-0.606861408215189
1.03453010471452,-0.553374321041306
0.963048767604819,-0.494465595471348
1.02233697729689,-0.478677653798464
1.01108255430577,-0.503499910669268
1.03327266032097,-0.442121160126286
1.02266975319604,-0.380694325808493
1.04826487089467,-0.343494626108651
0.999940013440598,-0.30202169861173
1.04939294638512,-0.305674541083794
1.04495612147324,-0.272839365100331
1.07368750173866,-0.276042480800211
1.02936438609642,-0.23699775146127
1.04173562938648,-0.19047536854518
0.92542891504115,-0.219049609904727
1.02539765457062,-0.0970014569519099
1.04629286579312,-0.0694271781524043
0.965331236879108,-0.0042737218540414
1.001926220029,-0.0393218415903326
0.981833538206809,0.0637965888505575
1.01706405842222,0.0320218468192222
0.978502430844646,0.10031439028648
0.985145645066559,0.0912583227722739
0.963099461340962,0.12217926832002
0.94793549350787,0.176581423175817
0.945746997309743,0.171441072557533
0.936740838217895,0.196022470919375
0.859985025102511,0.320773269312263
0.889412627297892,0.317599387952164
0.879660692949392,0.341504746518115
0.763517810434726,0.262620984990753
0.879526205670214,0.381927670169767
0.840497636674922,0.435094928069328
0.821140811791478,0.480405859996679
0.706582594300531,0.422050324239705
0.807691519156746,0.569284691030787
0.747253953331459,0.527071953970693
0.758646711043888,0.5952556095556
0.763047032864567,0.602990888855138
0.770769286032618,0.622207101628093
0.796064969878161,0.623764782765627
0.780406647665365,0.692733995897573
0.73300165108917,0.68669379940295
0.838155603845081,0.802915526744383
0.676930704126457,0.769815338843732
0.71979980992209,0.73258044929435
0.685596390886275,0.805920996547445
0.680029718547271,0.821023292684248
0.702684900685322,0.814583798903991
0.621370831009052,0.853525822850455
0.665235164616367,0.863307575550385
0.656966631224619,0.88894713965788
0.653306610942237,0.900996946986471
0.646916727632814,0.923556526864242
0.641729444657458,0.944072063718889
0.639568537135008,0.953569797924741
0.631339002887594,0.940384322610723
0.54108480787345,0.881582865797732
0.607089082996698,0.976131142296227
0.673807627672146,1.01376897432062
0.597635343299469,1.04896622564964
0.620646941637149,0.965582272939981
0.663793699447749,1.02435899982332
0.677022107267055,1.01268721627426
0.730371861079856,1.13282826048632
0.600645394617801,1.03673553917474
0.631842697739345,1.007635497922
0.634537414870932,1.04591554895656
0.666624295671936,1.0739205522898
0.675850013728804,1.0230954441191
0.590111305739794,1.03455990078003
0.631912679000297,1.04555055975078
0.673389665751984,1.06267693392106
0.637546640993668,1.0442565905635
0.636701406007983,1.08486020591344
0.762851420872722,1.09196444597791
0.606853683555722,1.02970092210341
0.595932818358944,1.02644940625235
0.580141498456075,0.971404348988297
0.563568591713568,1.02138161033994
0.553365101863458,1.03260176221046
0.527171442473012,1.01005243789328
0.489129992819319,1.04360812904372
0.530448877484487,1.01504393752387
0.494607822192013,1.0288331718363
0.475852993258315,0.983201419505731
0.430266017303044,1.00829898387676
0.393255554407859,0.99576935555824
0.376614138737449,0.994796316184775
0.359399210832012,0.993905796942022
0.329931216075602,0.978848705349352
0.323283274125187,0.992361986311786
0.272742504095271,0.997491427097579
0.252872765424838,1.01660994146709
0.226067857116406,1.02700028385709
0.180417762282562,0.988977926327245
0.158117612111993,0.988666656957883
0.0142561485502151,0.964292766423039
-0.0834013770031491,1.00958330215417
-0.077844554252251,1.06981149702106
-0.246439294433211,0.985872645878479
-0.2083793825246,1.11797358200271
-0.318253331871097,0.97338235019644
-0.50544524276753,0.885879429996544
-0.4294245783958,1.00414554130636
-0.490022493618885,0.916917277035586
-0.455865283841887,0.949616707724799
-0.45696168494186,0.94540720114149
-0.521519598235149,0.948288804523475
-0.609658540075083,0.950579941029157
-0.661852697269251,0.915847826467692
-0.683766727266706,0.909092285615158
-0.639215299777736,0.98097616068208
-0.766346070685698,0.877846507573398
-0.739697704531592,0.874305263193551
-0.819151549079227,0.878265431609139
-0.899748800894308,0.793337338696586
-0.930113327842788,0.731140412370793
-0.966704656668981,0.725405800401094
-1.07299756641731,0.593718771320048
-1.04776953106633,0.592087285870598
-0.955584804739481,0.595733753834047
-1.04954557699357,0.406523575067357
-0.924088471307975,0.416374058227531
-0.91968835384691,0.435128834755043
-1.04015479774861,0.319397809809287
-1.03658513007812,0.296249579276332
-1.02788349581885,0.249276307768728
-1.02279296681299,0.225488423519231
-1.02576094376842,0.154331741312285
-1.02003425731609,0.178268087411299
-0.87476867259089,-0.212985731036858
-0.847662924173744,-0.302902384192929
-0.950409615069401,-0.367804302931967
-0.830497110599351,-0.382118819002431
-0.814713039925405,-0.434862341186445
-0.743396713375949,-0.45546867902024
-0.795313383732042,-0.52596860970828
-0.735287437989,-0.483581783010555
-0.729155899497574,-0.555557959962173
-0.714446545438885,-0.591507664481548
-0.658511039640059,-0.635702806979905
-0.673465404610222,-0.697556967052793
-0.667501425760439,-0.716173656524623
-0.632330556520105,-0.856579149436367
-0.71343759429491,-0.969411777455383
-0.636288247880389,-0.90959595959596
