0.905187483629197,-0.477200297322589
0.909722143846491,-0.463040854968988
0.910965633621002,-0.447546902155153
0.812327776760876,-0.338360831615607
0.78607954530835,-0.293749655510274
0.89535319400034,-0.394914862464886
0.978584987515513,-0.284128287439534
0.965042860953107,-0.261373535692487
0.970704895644066,-0.217939919593806
0.835320387143931,-0.318076912990348
0.914584970947998,-0.197646123425127
0.687067829905264,-0.397019105292891
0.657784823830524,-0.150886317417825
0.747631658670735,-0.245146207779714
0.605170279894353,-0.3233366873231
0.796688891646324,-0.326420729541785
0.77895688494656,-0.0849122959163006
0.657730201415079,-0.184838775240316
0.544788666466964,-0.0590754199132243
0.507039852146369,-0.0611477507152555
0.716324478822845,-0.0553276722609413
0.477528577108889,-0.0220970431420774
0.472797157231923,-0.0107384127809816
0.46689966853981,-0.219114965831798
0.460250526595409,-0.00710901011152699
0.568514519221944,-0.104354432901757
0.451632868399683,0.0118727262263801
0.694818088142729,-0.187356199366687
0.695207348775939,0.0287131246233348
0.595708673096724,-0.0710878054443585
0.507184138204034,-0.178085589686879
0.529677777388544,-0.161952368821976
0.645407229614387,-0.0416724907393119
0.666210387959464,-0.030404093152634
0.68855337352287,-0.018285645165367
0.712042641061332,-0.0052830684356257
0.736263262448466,0.00861088781618793
0.760786262388789,0.0233759309182335
0.785176186105111,0.0389641734287843
0.808998759889161,0.0553007523160539
0.831828504003545,0.0722851096979809
0.853256158679954,0.0897929114749741
0.872895787845031,0.107678565910201
0.890391431641907,0.125778290688265
0.905423187673345,0.143913664503332
0.917712611996333,0.16189558806019
0.927027344029502,0.17952856975791
0.933184874436751,0.196615243475554
0.936055391432069,0.21296101996639
0.935563658493152,0.228378769525241
0.931689894834451,0.242693431913973
0.924469648818557,0.255746450059285
0.913992673414816,0.267399926775441
0.900400831481649,0.277540408667261
0.883885076696066,0.286082208345041
0.864681573035686,0.292970184999331
0.84306703151009,0.298181914065027
0.819353357041085,0.301729188938975
0.793881710738658,0.303658811258095
0.767016103081484,0.304052640822641
0.739136641499836,0.303026891565284
0.71063256143158,0.300730675708716
0.681895172983362,0.297343814098896
0.653310855833259,0.293073946321038
0.625254232962412,0.288152989276683
0.598081649255608,0.282833007107993
0.57212507406741,0.277381568400974
0.567598800937807,0.251006683124984
0.513465308306863,0.23016736669549
0.516291372401129,0.257114932511846
0.504227638740442,0.268019303803694
0.475055715082271,0.253128312297442
0.432536849767693,0.258310479850797
0.444991485048793,0.258815255309929
0.436279597598943,0.262031640232303
0.429997721512113,0.267328744804097
0.471837232957553,0.238566371245735
0.408807769499099,0.274224290533492
0.424602047530523,0.296764922329316
0.426714899486484,0.311235852944852
0.445244152729756,0.338787688278
0.435438377811375,0.346956196078956
0.441838914390085,0.352327337195514
0.448326694146366,0.390878761211278
0.425722683759341,0.428863500341926
0.49184689253491,0.414482170658222
0.47028080349932,0.468476974776984
0.477110822199784,0.496337938398503
0.486701207148075,0.513590976588721
0.488392105090965,0.553029589913142
0.466284113705541,0.56239800674639
0.499766580174404,0.595267364054064
0.495993089231433,0.634936404056794
0.495349731173161,0.659910388901006
0.466529984371771,0.653611202387991
0.462957869019089,0.657047849735288
0.515027442456017,0.730477874115074
0.516876044792244,0.731640486894136
0.493326714281516,0.785331490215411
0.456628985342341,0.738960869151017
0.439461073566247,0.777500061100592
0.425833528179482,0.773160348734483
0.41003312210116,0.77358099667852
0.39312374373829,0.770735591147812
0.355596287566144,0.802663953904081
0.326548318634276,0.71663391584331
0.352992871329707,0.767319732123951
0.366993961390345,0.77624276841618
0.332255710925398,0.71386009045388
0.287862831811564,0.686399853907404
0.245840000644804,0.707751297794867
0.254883692414243,0.648516169667187
0.25654345831052,0.57997449727036
0.210335231192832,0.56142466546402
0.200665778407102,0.601431612703904
0.16618097510307,0.508908171561874
0.163118550732836,0.559747844827412
0.148124948729537,0.515470956241549
0.135671633487489,0.496227066230748
0.124131767347807,0.478953107956414
0.113438236897925,0.46397083501567
0.103500871816906,0.451560927031046
0.0942092701100593,0.441957922928552
0.0854360858318681,0.435345971152803
0.0770407010001837,0.431855476466359
0.068873195162372,0.431560706394374
0.0607785197237299,0.434478402575795
0.0526007798219289,0.440567423608081
0.0441875243179627,0.44972942678035
0.0353939444191348,0.46181057674663
0.0260868835528097,0.476604250066407
0.0161485653255127,0.493854685999491
0.00547995264071978,0.513261516340894
-0.00599634082188079,0.534485090755094
-0.018333655714655,0.557152499329446
-0.0315594663079076,0.580864181194358
-0.0456741789137704,0.605200997297913
-0.0606505807747866,0.629731636978522
-0.0764339563943951,0.654020222009855
-0.0929428735248254,0.677633968408591
-0.110070626166731,0.700150765558299
-0.12768730728966,0.721166534121687
-0.145642469864652,0.740302228746944
-0.163768321511112,0.757210358629724
-0.181883385884168,0.771580908429956
-0.19979655312811,0.783146553675534
-0.217311432530246,0.791687078384614
-0.234230913128831,0.7970329179386
-0.250361832622584,0.799067766940602
-0.265519651621223,0.797730209574481
-0.279533029146427,0.793014348492685
-0.292248196375856,0.784969427149008
-0.303533028908442,0.773698459390816
-0.313280723260418,0.759355898670868
-0.321412990777126,0.742144397076295
-0.327882691521088,0.722310721160988
-0.332675841787909,0.700140906988926
-0.335812941487516,0.675954750558383
-0.337349581456368,0.650099741622875
-0.337376305556999,0.622944558634471
-0.336017717873672,0.594872249931554
-0.333430841111095,0.566273231245191
-0.32980274812212,0.537538232022677
-0.325347504003301,0.509051322930415
-0.320302471081524,0.481183154217798
-0.314924043059432,0.45428452946581
-0.309482887298183,0.428680431723204
-0.30425878542292,0.404664609310081
-0.299535171898302,0.382494816846024
-0.295593477731547,0.362388793579099
-0.292707391850582,0.344521046127256
-0.291137155848879,0.329020486597346
-0.291124008605313,0.315968960043022
-0.292884895742392,0.305400677700389
-0.296607554992804,0.297302554747045
-0.30244608236326,0.291615433815096
-0.310517075623491,0.28823615849564
-0.320896441259228,0.287020444932387
-0.333616938804805,0.287786484628226
-0.348666522645818,0.290319198068496
-0.365987526220488,0.294375046955557
-0.385476717344038,0.299687302972871
-0.406986236450084,0.30597166323507
-0.430325412219695,0.312932097072134
-0.455263431695179,0.32026680563385
-0.481532824897484,0.327674175030484
-0.508833707525154,0.334858605344615
-0.536838709840031,0.341536101806609
-0.565198505653944,0.347439520625196
-0.593547842711172,0.352323370263318
-0.621511964973847,0.355968079164835
-0.648713308586664,0.358183652849047
-0.674778346809201,0.358812656643876
-0.699344455100814,0.357732474843609
-0.722066665920522,0.354856812450278
-0.742624183709655,0.350136421570224
-0.760726533956155,0.343559050661392
-0.776119226144127,0.335148630831953
-0.788588818669573,0.324963728951033
-0.797967284305002,0.313095312132376
-0.804135587329415,0.299663881893707
-0.807026397772632,0.284816048703719
-0.80662588408472,0.268720628458804
-0.802974542631701,0.251564351470642
-0.796167040411984,0.233547281618754
-0.786351065939307,0.21487804829591
-0.773725201990307,0.19576899655918
-0.758535852506055,0.176431361451387
-0.741073274006475,0.157070570778941
-0.721666779073141,0.137881776770583
-0.700679195443869,0.119045711090539
-0.678500678728681,0.100724949774855
-0.65554198941655,0.0830606649768948
-0.632227355445712,0.0661699291592324
-0.608987049946294,0.0501436247978994
-0.586249819665029,0.0350449990414855
-0.564435302927373,0.0209088883830533
-0.543946576710956,0.00774162356329325
-0.525162970475493,-0.00447839005656531
-0.508433279848588,-0.0157994362172275
-0.494069506185866,-0.0262946294595881
-0.482341238537941,-0.0360594822048587
-0.473470782843481,-0.045208957074777
-0.467629129447562,-0.0538740754276981
-0.464932834577445,-0.0621981626368016
-0.465441874487847,-0.0703328184205331
-0.469158512936617,-0.0784337063905819
-0.476027203814154,-0.0866562607876029
-0.485935531485356,-0.0951514100510556
-0.498716172079766,-0.104061416383143
-0.514149839953167,-0.11351592782947
-0.531969165205827,-0.123628334667323
-0.551863430829316,-0.134492515167084
-0.573484082096079,-0.146180047215503
-0.596450906508199,-0.158737952042898
-0.620358770256278,-0.172187024596067
-0.644784786940973,-0.186520792192048
-0.669295786471271,-0.201705129247541
-0.693455946722168,-0.217678541397281
-0.716834447808628,-0.234353117498585
-0.739013008760581,-0.251616133182575
-0.75959316896225,-0.26933227507027
-0.77820318189364,-0.287346440833428
-0.794504396378426,-0.305487057243269
-0.808197010548053,-0.323569846494537
-0.819025095879438,-0.341401960673346
-0.826780802714781,-0.358786395481172
-0.83130767435206,-0.375526587426443
-0.832503013798237,-0.391431093803666
-0.830319265273657,-0.406318252010648
-0.824764391196883,-0.420020714176181
-0.815901244303963,-0.432389754707189
-0.80384595340024,-0.443299252193393
-0.788765359644166,-0.452649253061152
-0.770873557869064,-0.46036903233379
-0.750427613924497,-0.466419576678854
-0.727722544051561,-0.470795426409596
-0.703085655612485,-0.473525826029237
-0.676870359825754,-0.474675147002537
-0.649449576304309,-0.474342561424234
-0.621208855990181,-0.472660960822846
-0.592539353404925,-0.469795130172365
-0.563830780920611,-0.465939202957423
-0.535464476980167,-0.461313438523211
-0.507806716887809,-0.456160377619444
-0.48120238902911,-0.450740445710441
-0.455969151292023,-0.445327085982536
-0.432392172216656,-0.440201514771973
-0.410719549215413,-0.43564720112839
-0.391158482326333,-0.431944179223322
-0.373872266673035,-0.429363307151829
-0.358978150412846,-0.428160588243351
-0.346546087788913,-0.4285716712256
-0.336598399304196,-0.430806643450075
-0.329110333353949,-0.435045226914958
-0.324011506236863,-0.441432480083268
-0.321188180654833,-0.450075099610126
-0.320486326934521,-0.461038405225643
-0.32171539656762,-0.474344078373146
-0.324652724551583,-0.489968711016984
-0.32904846566729,-0.507843205583186
-0.334630960467018,-0.527853050579992
-0.341112419536409,-0.549839479384995
-0.348194809665499,-0.573601502317352
-0.355575822997476,-0.598898784781409
-0.362954810053036,-0.6254553273175
-0.370038559738423,-0.65296388716628
-0.376546813974056,-0.681091065772146
-0.382217411319486,-0.709482972827026
-0.386810962767043,-0.73777136527132
-0.390114973537968,-0.765580149375599
-0.391947337011801,-0.792532125840901
-0.39215914059126,-0.818255851951904
-0.390636738063624,-0.8423924913271
-0.387303058557922,-0.864602520816918
-0.382118138193592,-0.884572165639782
-0.3750788766414,-0.902019437902376
-0.366218036741537,-0.916699660159612
-0.355602520722923,-0.928410364518927
-0.343330971130402,-0.936995468822985
-0.329530757999966,-0.942348644451734
-0.314354425858425,-0.944415805026099
-0.297975684524814,-0.943196661493841
-0.280585036253132,-0.938745306425629
-0.262385138315059,-0.931169808515078
-0.243586004554452,-0.92063081691188
-0.224400151674467,-0.907339193763245
-0.20503779601039,-0.891552711833194
-0.185702204310548,-0.873571871953063
-0.166585297653374,-0.853734911981666
-0.147863601174893,-0.832412094589383
-0.129694623913687,-0.809999375220456
-0.112213742984976,-0.78691156375548
-0.0955316546920077,-0.763575103450757
-0.0797324423224946,-0.740420598472316
-0.0648722965360242,-0.717875226613996
-0.0509789097210023,-0.69635517648249
-0.0380515507953379,-0.67625824848898
-0.0260618119596456,-0.657956756399044
-0.0149550042012076,-0.641790861003481
-0.00465216420142757,-0.628062459776243
0.00494737798362406,-0.617029746324654
0.0139629332419062,-0.608902541199708
0.0225289632420598,-0.603838481451766
0.0307912484328378,-0.601940140457831
0.0389028041655065,-0.603253132312574
0.047019640251779,-0.607765236794554
0.0552964625481895,-0.615406561940538
0.0638824162947466,-0.626050741946965
0.0729169699087228,-0.639517148837631
0.0825260347664081,-0.65557407745915
0.0928184112644397,-0.673942845251678
0.103882644249126,-0.694302731237938
0.115784361889512,-0.716296663103409
0.128564161438281,-0.739537547401779
0.14223609329845,-0.763615126075503
0.156786781647336,-0.78810323285661
0.172175205840516,-0.812567315889268
0.188333152224278,-0.836572088228273
0.205166331134153,-0.859689165802774
0.222556139064669,-0.881504553027423
0.240362031575379,-0.90162583947765
0.258424458758126,-0.919688976855149
0.276568302323534,-0.935364513736779
0.294606741845414,-0.948363176161481
0.312345467678469,-0.958440694757048
0.329587149755776,-0.965401793594001
0.346136065061174,-0.969103271994502
0.361802782201648,-0.969456127807666
0.376408799278694,-0.966426688853512
0.389791031232539,-0.960036737983564
0.401806045021893,-0.950362636144929
0.412333945370123,-0.937533466601793
0.421281820277635,-0.921728241703395
0.428586663946348,-0.903172230941985
0.434217705020837,-0.88213248518752
0.438178079918907,-0.85891264661212
0.440505804264825,-0.833847146651452
0.441274009784234,-0.807294905152888
0.440590429180091,-0.779632652432773
0.438596127174452,-0.751248002152813
0.435463491750388,-0.722532406621181
0.431393515335032,-0.693874127268884
0.426612410903165,-0.665651351638376
0.421367622433148,-0.638225584290664
0.415923302510032,-0.611935432680581
0.410555341861634,-0.587090900405173
0.405546045975818,-0.56396828947928
0.401178562456842,-0.542805800658545
0.397731169247181,-0.523799906570798
0.395471538121351,-0.507102556822201
0.394651089845842,-0.492819257627579
0.395499557036522,-0.481008051208274
0.398219868021014,-0.471679402549213
0.402983459965811,-0.464796983459376
0.409926122240576,-0.460279326583375
0.419144461595282,-0.458002305404992
0.430693069393037,-0.457802380689047
0.444582458086013,-0.459480539526813
0.46077781959333,-0.46280684045551
0.479198642518354,-0.467525467254378
0.499719208534807,-0.473360185180589
0.522169971101902,-0.480020086758742
0.546339802276963,-0.48720550989381
0.571979076125124,-0.49461400910866
0.598803540423755,-0.501946261134986
0.626498912362161,-0.508911788884054
0.654726119067257,-0.515234392916885
0.683127090346255,-0.520657186802739
0.711330999303489,-0.524947142037165
0.738960836703359,-0.527899059284008
0.765640197321532,-0.529338895371969
0.791000151215758,-0.529126389447447
0.814686069975859,-0.52715694666851
0.836364277650892,-0.523362753508253
0.855728398223251,-0.517713114795331
0.872505276176907,-0.510214018725134
0.88646035381366,-0.500906951897958
0.897402398382194,-0.489867001659083
0.905187483629197,-0.477200297322589
