0.474423679120332,-0.930969887197736
0.488135398676244,-0.923345584630326
0.5014641096029,-0.915052408138984
0.514386641009885,-0.906107445109411
0.526881490192071,-0.896530170442247
0.538928964297286,-0.88634232603081
0.550511311376343,-0.875567787695165
0.561612839949071,-0.864232420413748
0.572220026290292,-0.852363922763412
0.582321608714995,-0.839991661542745
0.591908668221915,-0.827146497611423
0.600974694938749,-0.813860604029837
0.609515639899896,-0.800167277627973
0.61752995177823,-0.786100745170272
0.62501859828563,-0.771695965313723
0.631985072051978,-0.756988427579493
0.638435380888773,-0.742013949573979
0.644378022440535,-0.726808473703046
0.64982394332444,-0.711407864623422
0.654786482955278,-0.695847708667774
0.659281302348514,-0.680163116464876
0.66332629828813,-0.664388529953674
0.666941503337617,-0.648557534960036
0.670148972261345,-0.632702680467812
0.67297265550894,-0.616855305671644
0.675438260496873,-0.601045375848197
0.677573101498524,-0.585301328025283
0.679405939026172,-0.569649927365187
0.680966809655191,-0.554116135109781
0.682286847301751,-0.538722988861042
0.683398097020204,-0.523491495892011
0.684333322434703,-0.508440540100353
0.685125807961131,-0.49358680313021
0.685809157009925,-0.478944700098289
0.686417087387538,-0.464526330267926
0.686983225134007,-0.450341442920543
0.687540898046216,-0.43639741857821
0.688122930140893,-0.422699265634488
0.688761438308098,-0.409249632353938
0.689487632395043,-0.396048834104295
0.690331619941439,-0.383094895589867
0.69132221676151,-0.370383607760835
0.692486764534295,-0.357908598981448
0.693850956523228,-0.345661419951086
0.695438672498425,-0.333631641786425
0.697271823880887,-0.321806966591052
0.699370210067354,-0.310173349761233
0.701751386828086,-0.298715133203745
0.704430547597886,-0.287415188574084
0.707420418403632,-0.2762550695815
0.710731167089894,-0.265215172351379
0.714370327418435,-0.254274902786107
0.718342738527994,-0.243412849822706
0.722650500148307,-0.23260696344976
0.727292943867432,-0.221834736317523
0.732266620654598,-0.21107338775381
0.737565304742696,-0.200300048984496
0.743180013875721,-0.189491948351239
0.749099045827524,-0.17862659532042
0.755308030999859,-0.167681962086284
0.761790000810403,-0.156636661587774
0.768525471485864,-0.145470120782508
0.775492542781984,-0.134162748052559
0.782667011061891,-0.122696093654999
0.790022496077218,-0.111053002175304
0.797530580713453,-0.0992177559934152
0.805160962882394,-0.0871762088301538
0.812881618671026,-0.0749159085054741
0.820658975787952,-0.0624262081092853
0.828458096286162,-0.049698364859836
0.836242867484759,-0.0367256260035016
0.84397619996271,-0.0235033011927066
0.851620231454916,-0.0100288208651801
0.859136535445324,0.00369821976280812
0.866486333223491,0.0176760313846633
0.873630708150291,0.0319006161747953
0.880530820865288,0.0463657683496529
0.887148124162951,0.0610630897293009
0.893444576267164,0.0759820202145365
0.899382851243646,0.0911098829992098
0.904926545307579,0.106431944243188
0.910040377809107,0.121931486838879
0.914690385712083,0.137589897813977
0.918844110421352,0.15338676882571
0.922470775860757,0.169300009117821
0.925541456757613,0.185305970231475
0.928029236149246,0.201379581685558
0.929909351193103,0.217494496771112
0.931159326433302,0.233623247539172
0.931759093753058,0.249737408001647
0.931691098323603,0.265807764511274
0.930940389945537,0.281804492239655
0.929494699267531,0.297697336632018
0.9273444984593,0.313455798684083
0.924483046010342,0.329049322860312
0.920906415422375,0.34444748645419
0.916613507661232,0.359620189179999
0.911606047332471,0.374537841782021
0.905888562643658,0.389171552451135
0.899468349314415,0.403493309850473
0.892355418692435,0.417476161570961
0.884562430429081,0.431094386864192
0.876104610161315,0.444323662533943
0.866999652737008,0.457141220908557
0.857267611607607,0.469525998864118
0.846930775095107,0.481458776922572
0.836013530318826,0.492922307509315
0.824542215641145,0.503901431520991
0.812544962559605,0.514383182425785
0.800051528035295,0.524356877195057
0.78709311830376,0.533814193446162
0.773702205264501,0.542749232261285
0.759912336588153,0.551158566235563
0.745757940716385,0.55904127239912
0.731274127958228,0.566398949751295
0.716496488907767,0.573235721240817
0.70146089142174,0.579558220122259
0.686203277401603,0.585375560716306
0.670759460622887,0.59069929369847
0.655164926845291,0.595543346137435
0.639454637419984,0.599923946599433
0.623662837586099,0.603859535728498
0.607822870616582,0.607370662803486
0.591966998934607,0.610479868860747
0.576126233275937,0.61321155705589
0.560330170920172,0.615591851018522
0.544606843955104,0.617648442029768
0.528982578473843,0.619410425923238
0.513481865534243,0.620908130675535
0.498127244635037,0.622172935711924
0.482939200383381,0.623237084006046
0.467936072944659,0.624133488099258
0.453133982778081,0.624895531204983
0.438546770071201,0.625556864596133
0.424185949193661,0.626151202498981
0.410060678395778,0.626712115734693
0.396177744881593,0.627272825359962
0.382541565289373,0.627865997560657
0.36915420151579,0.628523541047266
0.356015391723789,0.629276408187992
0.343122596279088,0.630154401094914
0.330471058266828,0.631185983850636
0.318053878148828,0.632398102027554
0.305862102033671,0.633816010609491
0.293884822947,0.635463111376161
0.28210929440853,0.637360800755163
0.270521055545828,0.639528329084126
0.259104066903347,0.641982672157827
0.24784085603903,0.644738415861771
0.236712671940359,0.647807654615511
0.22569964723742,0.651199904266188
0.214780967142759,0.654922029986066
0.203935044006724,0.658978189637606
0.193139696342968,0.66336979297654
0.182372331151989,0.668095476967921
0.171610128351153,0.673151097392984
0.160830226107768,0.678529736826242
0.150009905867457,0.684221728963388
0.139126775873345,0.690214699181699
0.128158951982491,0.696493621116467
0.117085234604334,0.703040888940064
0.105885280611752,0.709836404935184
0.0945397691082857,0.716857681861199
0.0830305599751696,0.724079959522976
0.0713408441685771,0.731476334865441
0.0594552847907774,0.739017904835272
0.0473601480183167,0.746673921173719
0.0350434230355296,0.754411956232306
0.0224949301922126,0.762198078836385
0.00970641667976583,0.769997039160698
-0.00332836090000013,0.777772461526551
-0.0166135676153568,0.785487043982318
-0.030151235389145,0.793102763487999
-0.0439412226518405,0.800581085490782
-0.057981188735339,0.807883176652129
-0.0722665831854527,0.814970119468069
-0.0867906500758083,0.821803127513151
-0.10154444731002,0.828343760035083
-0.116516880803211,0.834554134631318
-0.131694753338893,0.840397136750916
-0.14706282780329,0.845836624784618
-0.162603904407271,0.850837629533271
-0.178298911416375,0.855366546879314
-0.194127008822892,0.859391322527681
-0.210065704310813,0.86288162773109
-0.226090980785482,0.865809024969844
-0.242177434665264,0.86814712261768
-0.258298424063077,0.869871717692497
-0.274426225921607,0.870960925863519
-0.290532201107831,0.871395297964211
-0.306586966420541,0.87115792234252
-0.3225605724191,0.870234512466304
-0.338422685943127,0.868613479291612
-0.354142776161252,0.866285987994159
-0.369690302962882,0.863245998759439
-0.385034906490111,0.859490291423776
-0.400146596597641,0.855018473856636
-0.414995941026945,0.84983297407316
-0.42955425108686,0.843939016164471
-0.443793763646338,0.837344580231239
-0.457687818266177,0.830060346602769
-0.471211028324952,0.822099624718714
-0.484339445030041,0.813478267143044
-0.497050713247262,0.804214569269387
-0.509324218132019,0.794329155362845
-0.52114122160062,0.783844851665315
-0.532484987742337,0.772786547368695
-0.543340896340323,0.761181044332725
-0.553696543742383,0.749056896491049
-0.563541830400289,0.736444239950085
-0.572869034478379,0.723374614840021
-0.581672871018066,0.709880780025424
-0.589950536234136,0.695996521824192
-0.597701736610661,0.681756457917754
-0.604928702558543,0.667195837662239
-0.6116361864925,0.652350340029666
-0.617831445282091,0.637255870419918
-0.623524207128626,0.621948357588353
-0.628726623016807,0.606463551930239
-0.633453202986231,0.59083682635194
-0.637720737562712,0.57510298093988
-0.641548204782277,0.559296052612018
-0.644956663331021,0.543449130902893
-0.6479691324112,0.527594180992657
-0.650610459027523,0.511761875042935
-0.652907173466926,0.495981432848384
-0.654887333819869,0.480280472752548
-0.656580360460686,0.464684873710636
-0.658016861468544,0.449218649310443
-0.659228450028535,0.433903834486297
-0.660247554904099,0.41876038558012
-0.661107225116965,0.403806094318969
-0.661840930008835,0.389056516190217
-0.662482355889897,0.374524913604519
-0.663065200502721,0.360222214143355
-0.663622966546017,0.346156984092837
-0.664188755511034,0.332335417369321
-0.664795063083963,0.318761339845578
-0.665473577360595,0.305436228989622
-0.666254981104708,0.292359248632346
-0.667168759259286,0.279527298585319
-0.66824301288984,0.266935078737295
-0.669504280702046,0.254575167167539
-0.670977369231732,0.242438111726622
-0.672685192754359,0.230512534451475
-0.674648623903728,0.21878524810167
-0.676886355926138,0.20724138402857
-0.679414777426944,0.195864530518827
-0.682247860391934,0.184636880688829
-0.685397062186475,0.173539388947838
-0.688871242151609,0.162551934994809
-0.692676593328607,0.151653494267756
-0.696816589752504,0.140822313725174
-0.701291949661407,0.13003609180683
-0.706100614872408,0.119272161396222
-0.711237746477412,0.108507674589488
-0.716695736913623,0.0977197880655289
-0.722464238364515,0.0868858478497126
-0.728530207348351,0.0759835722686791
-0.734877965253401,0.0649912319065704
-0.741489274482505,0.0538878253932224
-0.748343429775128,0.0426532498824798
-0.755417364183129,0.0312684651135721
-0.762685769087731,0.0197156499902484
-0.770121227560094,0.00797835066080679
-0.777694360287075,-0.00395838086298386
-0.785373983207625,-0.0161078584491888
-0.79312727593434,-0.0284816447857912
-0.80091995996937,-0.0410894462802902
-0.808716485664597,-0.0539390206049336
-0.816480226823074,-0.067036097492786
-0.824173681792544,-0.0803843133050629
-0.831758679862636,-0.0939851598021622
-0.83919659174537,-0.107837947460048
-0.846448542894086,-0.12193978358073
-0.853475628398936,-0.136285565351108
-0.86023912818782,-0.150867987908904
-0.866700721260109,-0.165677567378624
-0.872822697686739,-0.18070267874473
-0.878568167124154,-0.195929608334441
-0.883901262611172,-0.211342620589055
-0.888787338446851,-0.226924038711294
-0.893193160983825,-0.24265433868722
-0.89708709121498,-0.258512256095554
-0.900439258081629,-0.274474905035057
-0.903221721488084,-0.290517908422745
-0.90540862407046,-0.306615538842382
-0.906976330836223,-0.322740869054576
-0.90790355586503,-0.33886593121718
-0.908171475340328,-0.354961883808049
-0.907763826264525,-0.370999185191847
-0.906666990297707,-0.386947772728859
-0.904870062250508,-0.402777246286936
-0.902364902855038,-0.418457054987982
-0.89914617553339,-0.43395668599802
-0.895211366980441,-0.449245854154925
-0.890560791475897,-0.464294691220607
-0.885197578939221,-0.479073933544607
-0.879127646839556,-0.493555106933996
-0.872359656170475,-0.507710707539876
-0.864904951795707,-0.521514377593708
-0.856777487566333,-0.53494107485695
-0.847993736701764,-0.5479672346849
-0.838572588015445,-0.56057092365
-0.828535228651285,-0.572731983720824
-0.817905014077622,-0.584432166050365
-0.80670732616169,-0.595655253490534
-0.79496942021856,-0.606387171018744
-0.782720261993979,-0.616616083336559
-0.769990355599967,-0.62633247897921
-0.756811563475157,-0.635529240357869
-0.743216919488337,-0.644201699243321
-0.729240436343143,-0.652347677289659
-0.714916908474204,-0.659967511289194
-0.700281711650009,-0.667064062944425
-0.685370600515176,-0.673642713038995
-0.670219505314645,-0.679711339986527
-0.654864329044442,-0.685280282833485
-0.639340746268105,-0.690362288889071
-0.623684004824678,-0.694972446251137
-0.607928731633438,-0.699128101591523
-0.592108743772304,-0.702848763656506
-0.576256865971535,-0.706155993027658
-0.560404755621816,-0.70907327877476
-0.544582736346724,-0.711625902714957
-0.528819641133901,-0.713840792070616
-0.5131426659576,-0.715746361391755
-0.497577234757847,-0.717372344677164
-0.482146876568807,-0.718749618690808
-0.46687311551143,-0.719910018526579
-0.451775374283655,-0.720886146524478
-0.436870891695751,-0.721711175684571
-0.422174654709488,-0.722418648761366
-0.407699345348113,-0.723042274250238
-0.393455302750286,-0.723615720499169
-0.379450500545725,-0.724172409193063
-0.365690539633917,-0.724745309464287
-0.352178656350457,-0.725366733881747
-0.338915745909047,-0.72606813756178
-0.325900400911453,-0.72687992162743
-0.31312896462338,-0.727831242218457
-0.30059559862197,-0.728949826222771
-0.288292364330821,-0.730261794861081
-0.276209317871919,-0.731791496210728
-0.26433461758086,-0.73356134770206
-0.252654643453081,-0.735591689561783
-0.24115412771473,-0.737900650112695
-0.229816295642855,-0.740504023768635
-0.218623015696295,-0.743415162487592
-0.207554957961177,-0.746644881365408
-0.196591759863887,-0.750201378967658
-0.185712198059877,-0.754090172908769
-0.174894365369096,-0.758314051095705
-0.164115851598418,-0.762873038959198
-0.153353927068288,-0.767764382899097
-0.142585727645148,-0.772982550072598
-0.131788440073103,-0.778519244555356
-0.120939486397754,-0.784363439806589
-0.110016706282234,-0.790501427270642
-0.0989985360301122,-0.796916880849906
-0.0878641831519227,-0.803590936887881
-0.0765937953415231,-0.810502289207279
-0.065168622764995,-0.817627298656918
-0.0535711726083037,-0.824940116533216
-0.0417853548799598,-0.832412821158103
-0.0297966185213526,-0.840015566815413
-0.0175920769397792,-0.847716744172985
-0.0051606221470645,-0.855483151248113
0.00750697324020181,-0.863280173910147
0.0204179668051322,-0.871071974856314
0.0335775705240067,-0.878821689945567
0.0469888888475085,-0.886491630730807
0.0606528710796479,-0.894043491992406
0.0745682783730273,-0.901438563045814
0.0887316655656683,-0.908637941573432
0.103137377989852,-0.91560274871581
0.117777563287798,-0.922294344149995
0.132642198173084,-0.928674539883151
0.14771912998126,-0.934705811497832
0.162994132758474,-0.940351505601042
0.178450977544008,-0.945576042252739
0.194071516411674,-0.95034511118026
0.209835779746913,-0.954625860623337
0.225722086151486,-0.958387077699532
0.241707164286579,-0.961599359231815
0.25776628588825,-0.964235272038375
0.27387340911719,-0.966269501749133
0.2900013313379,-0.967678989283494
0.306121850361241,-0.968443054199183
0.322205933129261,-0.968543504202068
0.33822389077236,-0.967964730191229
0.354145558926954,-0.966693786301623
0.3699404821666,-0.964720454498023
0.385578101371749,-0.96203729336786
0.401027942842699,-0.958639670856669
0.4162598079473,-0.954525780787313
0.431243962089533,-0.949696643102625
0.445951321787188,-0.944156087869732
0.460353638656679,-0.937910723182728
0.474423679120332,-0.930969887197736
