1.0235407805475,-0.240741414631635
1.02549523715659,-0.225822504478485
1.02393112136458,-0.210170660816933
1.01887556089135,-0.193957243618403
1.01040070059393,-0.177358287985884
0.998622930466017,-0.160551036108305
0.983701479041063,-0.143710489271312
0.965836390515464,-0.127006040620313
0.94526591312258,-0.110598247689236
0.922263335106222,-0.0946358010403168
0.897133312929408,-0.0792527417526455
0.870207743982835,-0.064565976011779
0.841841242910877,-0.050673129765424
0.812406286645396,-0.0376507804099667
0.782288098237435,-0.0255530958599938
0.751879343527,-0.01441090423843
0.721574717530578,-0.00423120992712508
0.691765499111022,0.00500283603850169
0.662834152998799,0.0133315111327976
0.635149057549251,0.0208176498472002
0.609059434757848,0.0275453410788249
0.584890556042645,0.033618217427302
0.562939293186419,0.0391573665304402
0.543470078673193,0.0442989011684999
0.526711333534011,0.0491912308516654
0.512852413828598,0.0539920828757059
0.50204111914001,0.0588653252984664
0.49438179806702,0.0639776478794975
0.489934076792392,0.0694951596758943
0.488712227520415,0.0755799636537042
0.490685184056138,0.0823867693265812
0.495777202186868,0.0900596040588021
0.503869152970453,0.0987286822722301
0.514800427679978,0.108507489396962
0.528371424143229,0.119490134040365
0.544346575684135,0.13174901757197
0.562457875951666,0.145332865200285
0.582408845728773,0.160265156733973
0.603878881457924,0.176542988668684
0.62652791979569,0.194136392127831
0.650001348096893,0.212988123626021
0.673935087393804,0.233013937740498
0.697960772225444,0.254103342697144
0.721710950616738,0.276120831735468
0.744824227619387,0.298907575044833
0.766950277100312,0.322283549194674
0.787754648875804,0.346050073444495
0.80692330179895,0.369992715239747
0.824166797956461,0.393884520695197
0.839224098644869,0.417489520046968
0.851865909186439,0.440566453016306
0.861897526810104,0.462872654858257
0.869161153648604,0.48416804063892
0.873537645266147,0.504219123053191
0.874947673899858,0.52280299790219
0.873352294635579,0.53971123122076
0.868752911903121,0.554753582988247
0.861190652825339,0.567761504360821
0.850745162947432,0.578591348404255
0.837532848568923,0.587127238339106
0.821704598166983,0.593283542276177
0.80344302310977,0.597006909244514
0.78295926489472,0.598277827908184
0.760489422403192,0.597111676630627
0.736290658045556,0.593559241363806
0.710637046100395,0.587706686092189
0.683815229963394,0.579674969119389
0.656119957367893,0.569618707213687
0.627849563888618,0.557724498389611
0.59930147517935,0.544208722757485
0.570767797427871,0.529314849283432
0.542531063458911,0.513310284334196
0.514860198816302,0.496482805405331
0.48800676806391,0.479136630326047
0.462201556531453,0.461588178387335
0.437651536880469,0.444161585150908
0.414537263275148,0.427184037077049
0.393010728721159,0.410980995485988
0.373193713401494,0.395871381681715
0.355176643717798,0.382162796277568
0.339017973370367,0.370146845844938
0.324744089315226,0.360094648953252
0.312349736959057,0.352252591491786
0.301798950628019,0.346838397890585
0.293026467307466,0.344037580534475
0.285939594023914,0.344000324353417
0.280420492148929,0.346838857352229
0.276328835458366,0.352625350805671
0.273504793080331,0.361390385096461
0.271772283599804,0.373122008831237
0.270942442631411,0.387765410059265
0.270817243184338,0.405223209275297
0.271193206168322,0.425356374551304
0.271865137454664,0.447985749755149
0.272629828021454,0.472894177522296
0.273289654871242,0.499829189592723
0.273656022588623,0.528506228449576
0.273552588564766,0.558612356033414
0.272818218999985,0.589810397783217
0.271309627733562,0.621743463490185
0.268903655657803,0.654039780548662
0.265499154854311,0.6863177702433
0.261018448537385,0.718191293801071
0.255408345286132,0.749274992123512
0.2486406937701,0.779189641444227
0.240712472094626,0.807567446657451
0.231645413880517,0.834057194745347
0.221485181115983,0.858329192586702
0.210300101546161,0.880079916431624
0.198179495769849,0.899036304431754
0.185231626172269,0.914959628762633
0.171581306222524,0.92764888998702
0.157367214399776,0.936943683293306
0.142738961989063,0.94272649399615
0.127853968124505,0.944924388089741
0.112874198686836,0.943510072570194
0.0979628279309359,0.938502309556978
0.0832808829904158,0.929965677802262
0.0689839316597382,0.918009684836415
0.0552188730860009,0.902787242610416
0.0421208892252755,0.88449252891546
0.0298106121617374,0.863358265943209
0.0183915586973227,0.839652455958796
0.00794787905618088,0.813674622061964
-0.00145753881299016,0.785751609288242
-0.00978457392414012,0.756233007741396
-0.0170169571977574,0.725486264953358
-0.0231629151074174,0.693891559155408
-0.028255358034345,0.661836508547366
-0.0323516071504716,0.629710793919523
-0.0355326615921206,0.597900773081839
-0.0379020156231528,0.566784165471822
-0.0395840432865701,0.536724884049421
-0.040721975577603,0.508068089165783
-0.0414755023137442,0.481135535551919
-0.0420180375087195,0.456221278969466
-0.0425336930668178,0.433587803471537
-0.0432140109000329,0.413462623724708
-0.0442545080434399,0.396035409545058
-0.0458510929274576,0.381455671815389
-0.0481964135968538,0.369831040401353
-0.0514762002985455,0.361226155703516
-0.0558656654626374,0.355662186209226
-0.0615260236596052,0.353116974985414
-0.0686011926338747,0.353525808626024
-0.0772147340100479,0.356782792880302
-0.0874670887790979,0.362742810182628
-0.0994331582505384,0.371224025718298
-0.113160275870686,0.382010900623082
-0.12866660923881,0.394857663548931
-0.145940024897173,0.40949218524468
-0.164937441134338,0.425620195097294
-0.185584686239819,0.442929773840288
-0.207776871506549,0.461096052930652
-0.231379279925833,0.479786048476423
-0.256228763091617,0.498663556099876
-0.282135630462832,0.517394032763989
-0.308886006959711,0.535649392372778
-0.336244627025155,0.553112643861629
-0.363958025893535,0.569482303486937
-0.391758081998088,0.584476517053306
-0.419365858326793,0.597836832813346
-0.446495685207371,0.609331571657054
-0.472859422554491,0.618758747878504
-0.498170836122457,0.62594850115881
-0.522150019835648,0.630765008317567
-0.54452779486191,0.633107851733221
-0.565050015779228,0.632912829982935
-0.583481714974489,0.630152205066989
-0.599611018298544,0.624834389422128
-0.613252767960276,0.617003084653247
-0.624251792633056,0.606735892386511
-0.632485769712314,0.594142425736981
-0.637867630529881,0.5793619574644
-0.640347466011673,0.56256064784475
-0.639913897659156,0.543928401505812
-0.636594886729532,0.523675407867554
-0.630457962962149,0.50202842431165
-0.621609863018857,0.479226864712473
-0.610195577837579,0.455518758443925
-0.596396817200842,0.431156646398615
-0.580429908852637,0.406393480901143
-0.562543158316406,0.38147859566604
-0.543013704035606,0.356653810160736
-0.522143910442779,0.332149729919291
-0.500257348936793,0.308182300564168
-0.477694423393739,0.284949668597264
-0.454807702648399,0.262629396498128
-0.431957027266625,0.241376073410269
-0.409504461804811,0.221319355810559
-0.387809166556819,0.202562465156606
-0.367222264473653,0.185181161715152
-0.348081779476422,0.169223205719322
-0.330707721756218,0.154708308816313
-0.315397393870852,0.1416285705835
-0.302420988531265,0.129949386843546
-0.29201754496107,0.119610808728564
-0.284391325668947,0.110529324055729
-0.279708669469947,0.102600025701295
-0.278095369717245,0.0956991254072687
-0.279634619063614,0.0896867659252099
-0.28436555377682,0.0844100796829219
-0.29228242181065,0.0797064383268462
-0.303334389617203,0.0754068346058734
-0.317425993216362,0.0713393361655576
-0.334418229459444,0.067332549943643
-0.354130273881923,0.0632190360099628
-0.376341802180778,0.0588386108708785
-0.400795883318644,0.0540414824384953
-0.427202403687922,0.0486911620095241
-0.455241973794834,0.0426671026537931
-0.484570261668433,0.0358670183091018
-0.514822690774305,0.0282088435347658
-0.545619434716001,0.0196323001958533
-0.576570636523614,0.0101000442280644
-0.607281776927585,-0.000401627045388012
-0.637359113749215,-0.0118625189306031
-0.666415113442541,-0.0242487387619971
-0.694073795912399,-0.037503346830717
-0.719975915009392,-0.0515474471557791
-0.743783899544907,-0.0662816987748772
-0.765186483240883,-0.0815882209199301
-0.783902956675204,-0.0973328585767224
-0.799686979933218,-0.113367768622828
-0.812329901242518,-0.129534281098595
-0.82166353425112,-0.145665985286681
-0.82756235469564,-0.161591986238439
-0.829945085872126,-0.177140274258573
-0.828775651435312,-0.192141147696229
-0.824063483472954,-0.206430628228742
-0.815863183386606,-0.219853807684829
-0.804273542712455,-0.232268066341558
-0.789435940489371,-0.243546104531805
-0.771532142981878,-0.253578732286934
-0.750781540353657,-0.262277365568197
-0.72743786312918,-0.269576182349069
-0.701785428852698,-0.2754338973243
-0.674134976140966,-0.279835120251449
-0.644819149227158,-0.282791269776555
-0.614187701020543,-0.284341021946845
-0.582602486587035,-0.284550280350583
-0.550432321733326,-0.28351166282157
-0.518047783012927,-0.281343507772906
-0.485816025944416,-0.278188411348467
-0.45409569753735,-0.274211314567829
-0.423232017374078,-0.26959716735959
-0.393552098528646,-0.264548203701549
-0.365360575566739,-0.259280868892548
-0.338935601829163,-0.254022446156202
-0.31452527223738,-0.24900743521757
-0.292344521068377,-0.244473740107755
-0.272572536635883,-0.240658727159208
-0.255350726704441,-0.237795216891349
-0.240781259879964,-0.236107475202501
-0.228926199299813,-0.235807269946963
-0.219807235826748,-0.237090058568896
-0.213406018776354,-0.240131370988545
-0.209665073119345,-0.245083449409077
-0.208489283238961,-0.252072203169037
-0.209747914826297,-0.261194532257544
-0.21327713849296,-0.272516067703991
-0.218883011293343,-0.286069370832886
-0.226344865689868,-0.301852626432855
-0.235419049664147,-0.31982885733361
-0.24584295676185,-0.339925679833409
-0.257339280931255,-0.362035610997617
-0.269620428131413,-0.386016930188892
-0.282393014885009,-0.411695088427435
-0.295362383256058,-0.438864650454596
-0.308237062148206,-0.467291745823349
-0.320733106333194,-0.496716997101485
-0.332578247200951,-0.526858885479521
-0.343515792826164,-0.557417506851312
-0.353308219508497,-0.588078664897896
-0.361740402387143,-0.618518241961174
-0.368622438964048,-0.648406783638177
-0.37379202629048,-0.677414229139798
-0.377116360064768,-0.705214716606304
-0.378493531832541,-0.731491390805341
-0.377853408745468,-0.75594113999004
-0.375157988786552,-0.778279189180632
-0.370401232873336,-0.798243478750871
-0.363608383668385,-0.815598759930672
-0.354834789124639,-0.830140342641438
-0.344164256641127,-0.841697435906389
-0.331706971077753,-0.850136026854357
-0.317597016660145,-0.855361250976589
-0.301989548890539,-0.857319213702787
-0.285057667873667,-0.855998231423351
-0.266989048885925,-0.851429468677598
-0.247982389494617,-0.843686957221676
-0.228243735019763,-0.832886991947725
-0.207982745588368,-0.819186908005566
-0.18740896844117,-0.802783252835523
-0.166728178512821,-0.78390937601178
-0.146138848633395,-0.762832468677654
-0.125828808023652,-0.739850092789719
-0.105972144126825,-0.715286248245782
-0.0867263982988491,-0.689487033129595
-0.0682301005446981,-0.662815958651092
-0.0506006824313428,-0.63564898579515
-0.0339328006298526,-0.608369355128548
-0.0182970963523658,-0.581362284583465
-0.00373940837393785,-0.555009612282267
0.00971955050930129,-0.529684462555541
0.0220840517056645,-0.505746013214137
0.0333827498294074,-0.483534440865413
0.0436676364120819,-0.463366118630991
0.0530125698390546,-0.445529137063422
0.0615114102230749,-0.430279214424412
0.0692757946200405,-0.417836056847094
0.0764325940722002,-0.408380222343675
0.0831210993311578,-0.402050535236671
0.0894899866792651,-0.39894208949848
0.095694118958541,-0.399104870802835
0.101891239670842,-0.40254301795462
0.10823861978667,-0.409214734910311
0.114889717663937,-0.419032854973822
0.121990912219984,-0.431866049098239
0.129678368224691,-0.447540660689744
0.138075090310863,-0.465843140041021
0.147288219067837,-0.486523042658716
0.15740661844873,-0.509296547427698
0.168498798749158,-0.533850442900484
0.180611213687624,-0.559846523129247
0.193766963729427,-0.58692632847436
0.20796493085238,-0.61471616181779
0.223179362568243,-0.642832306656976
0.239359915310602,-0.670886370714127
0.256432159405204,-0.698490677009023
0.274298539883066,-0.725263623834253
0.292839779511906,-0.750834935746554
0.311916702738326,-0.774850729533917
0.331372451879621,-0.796978322105324
0.35103506000265,-0.816910711330361
0.370720338593398,-0.834370665965036
0.390235032461167,-0.849114366857571
0.409380189431402,-0.860934548538971
0.427954688344346,-0.869663097960002
0.445758865762649,-0.87517307541991
0.462598179654508,-0.877380131514247
0.478286847198737,-0.876243303073768
0.492651393777134,-0.871765180432342
0.505534051182918,-0.863991447805105
0.516795945070946,-0.853009807933426
0.526320014677406,-0.838948311317368
0.534013611799377,-0.821973119168944
0.539810730887651,-0.80228573754673
0.5436738277944,-0.780119767847995
0.545595191142007,-0.755737225822033
0.54559783733951,-0.729424487423342
0.543735907857193,-0.701487925053912
0.540094555357239,-0.672249301973708
0.534789313541649,-0.642040995826195
0.527964953985356,-0.61120112428728
0.519793841637465,-0.580068646774488
0.510473808960777,-0.548978515939229
0.500225576705028,-0.518256951317562
0.489289756941593,-0.488216905060001
0.477923481102105,-0.459153786142365
0.466396702243056,-0.43134150493736
0.454988226495821,-0.405028894576043
0.443981533560248,-0.380436559239035
0.433660450077333,-0.357754192492312
0.424304742703474,-0.337138401134603
0.416185699652512,-0.318711061876505
0.409561770335194,-0.302558229655251
0.404674332489155,-0.28872960763934
0.401743654853744,-0.277238580132987
0.400965121017956,-0.268062800790707
0.402505776589026,-0.261145319936271
0.406501257343039,-0.256396226482135
0.41305315059267,-0.253694772095032
0.422226835721485,-0.252891937972048
0.434049842783428,-0.253813397991647
0.448510760357231,-0.256262826186447
0.465558715596101,-0.260025491537279
0.485103440749921,-0.264872079085026
0.507015931493993,-0.270562673356357
0.531129693313639,-0.276850838144231
0.557242563109189,-0.283487725799333
0.585119084242814,-0.290226149382658
0.614493404587598,-0.296824552293495
0.645072658896316,-0.303050812294707
0.67654078911314,-0.3086858201662
0.708562749227496,-0.313526777468814
0.740789035028361,-0.317390163021528
0.772860473758845,-0.320114323597421
0.80441320428229,-0.321561650929078
0.835083775024226,-0.321620314272001
0.864514284704894,-0.320205525386293
0.89235748976449,-0.317260320736767
0.918281802428422,-0.312755853849002
0.941976104567248,-0.306691198960606
0.963154304860184,-0.299092675238955
0.98155957024068,-0.29001270876678
0.996968167137322,-0.279528257096427
1.00919285355732,-0.26773882831956
1.01808576951097,-0.254764133176405
1.0235407805475,-0.240741414631635
