-0.285721424614445,-0.0969140913532875
-0.269142388222731,-0.0882097912273071
-0.28028941446643,-0.0736795150068351
-0.260359746078435,-0.0776519873093868
-0.260417251033678,-0.0944063881344892
-0.2871685397043,-0.094347499408399
-0.262673301354331,-0.0917535743788427
-0.271192296815666,-0.106505963777585
-0.262530733885055,-0.0859349393157923
-0.254913155830302,-0.093571938371019
-0.231419626483759,-0.114264214549944
-0.228707423804094,-0.0862175427683458
-0.251410578662718,-0.0814369685089048
-0.246866134566903,-0.0936961670989755
-0.244301356841478,-0.0939396277418618
-0.241505278711819,-0.0942907531514553
-0.185765154663412,-0.104080558287064
-0.196021360415281,-0.082970726029411
-0.229418880727571,-0.100830162271386
-0.227919835964986,-0.0969775575642656
-0.24515569659136,-0.113577615781378
-0.231015248966769,-0.0864127080643596
-0.21510435222817,-0.100595863499443
-0.197514110672638,-0.100389477261023
-0.205265386671855,-0.103888653147774
-0.186352843188626,-0.121720202619164
-0.194371015220495,-0.107943609743411
-0.202081406105756,-0.0956221498765927
-0.175108007945344,-0.109117329279045
-0.176030315342996,-0.115535358843421
-0.171245328785227,-0.105655023484686
-0.185155995379587,-0.118867914195922
-0.176336980558927,-0.128755539853036
-0.147838904885161,-0.128590016926418
-0.140129231731075,-0.132384019001645
-0.122544760621173,-0.124400060902408
-0.111619944795461,-0.132325912520985
-0.106703019756488,-0.149648266508223
-0.0899817644718112,-0.167946682661634
-0.0884801599667671,-0.15949084452947
-0.0569487881998592,-0.152696113610454
-0.0632550473130142,-0.169883849103224
-0.101339934998422,-0.177187152259835
-0.0491785973886934,-0.181399988374062
-0.0496306376068623,-0.217106474511995
-0.0281828161392467,-0.193356046224307
-0.0173695344590001,-0.199555338700472
-0.017870627294356,-0.200875190477394
0.00485434671980833,-0.212348240074309
0.0162506445669172,-0.218920916020881
0.0219893512029577,-0.210565047423425
0.0395740497342885,-0.232362533189517
0.0514851871303642,-0.239207560904653
0.0230524773834365,-0.214489609099392
0.06395546412739,-0.271521026933463
0.123607465426195,-0.282088217312827
0.118240388475924,-0.278785618024109
0.125903802910476,-0.28119800424351
0.149550331367072,-0.294627625775133
0.166430951848603,-0.293895839432992
0.164598067215361,-0.302154001768166
0.183822915778593,-0.282964742837489
0.195396566156573,-0.305792291535893
0.169546871953596,-0.294947092566157
0.225477787378603,-0.309223524866078
0.264707596651561,-0.335076803864103
0.243643139746396,-0.341972167343941
0.250590746527524,-0.363007281242045
0.3050984135637,-0.324866588959767
0.286819462043779,-0.354885509561387
0.323303113263159,-0.393942902828583
0.381451020777556,-0.421231779302174
0.375204436377439,-0.394399760795446
0.367042106613143,-0.40193789956651
0.391119923694184,-0.41744275579857
0.409689036894576,-0.379336281812091
0.425945923497923,-0.407800052329354
0.438350015628321,-0.410313737353758
0.474757389077706,-0.415674495421297
0.486599793131076,-0.416702755441552
0.49828367582508,-0.417337235927188
0.508914618098618,-0.361769319330655
0.539409320256699,-0.429888089272482
0.55428922724629,-0.381651105826788
0.540587228416218,-0.419127858039292
0.554103971205778,-0.414355768217176
0.569128109320565,-0.446054619942138
0.579563406760747,-0.413648363506492
0.567639420639523,-0.41759591080752
0.631717033498004,-0.401086258816183
0.622668908311627,-0.382812487174081
0.607599373188864,-0.396481215855703
0.633181204642095,-0.387174701398319
0.613097921371957,-0.345194559396219
0.65080183859261,-0.375994789161782
0.659278207614553,-0.369755512229592
0.664706273877248,-0.338538988218445
0.705678805922828,-0.362222500721649
0.690940808389299,-0.340571255472763
0.730502181653259,-0.327304630654206
0.696314414618935,-0.330221453952598
0.719029082658228,-0.304929220360654
0.751913190124328,-0.276888486934374
0.721925866798077,-0.286095550238059
0.743634811926344,-0.263381296207667
0.735246888730784,-0.270304913280692
0.727129618056123,-0.246370563634507
0.759905852005145,-0.228768980922201
0.756247767441679,-0.221431355860609
0.769767611216329,-0.204243631735332
0.768753643651286,-0.172320765095901
0.781233141541814,-0.163784889253209
0.795639693575526,-0.127440698343189
0.78304405225919,-0.138778669043465
0.798651246370887,-0.11112264231091
0.79327484642306,-0.094536525004296
0.795853888499025,-0.0700228628507981
0.804742297943177,-0.0576412412271795
0.827354867552832,-0.0270796727776445
0.813700773865081,-0.0345433157915231
0.80340996527211,0.0148776360014755
0.82527999765642,0.0181778975372028
0.81521085386468,0.0790913599852049
0.833896271065266,0.0623716315528201
0.833509697110825,0.125043507803446
0.838443459857682,0.104698265603882
0.861296010608381,0.12995759353806
0.848017078522325,0.144601782753793
0.849776350083394,0.123373875419759
0.853155318082663,0.15972032521856
0.858184189092407,0.170933054767879
0.875707409073223,0.201324975970351
0.822900589878714,0.18869252896354
0.852794708337404,0.21337410336418
0.862509620778635,0.239962759323739
0.859317890698197,0.262775905881898
0.835795274431933,0.292719742626137
0.862527154267249,0.285907560233748
0.879972920991832,0.290187506927242
0.850132173584934,0.319932466127252
0.852975266670336,0.318176064088535
0.85067942000427,0.335429396399449
0.872198572186115,0.348165545984117
0.911826413853886,0.364290934116796
0.882404936357623,0.362069282925419
0.877133464754398,0.374962776132904
0.861886013155971,0.378680782011028
0.872150444537001,0.350088861169438
0.882148778717598,0.398731813920747
0.899694937898557,0.401508771020194
0.883075967809397,0.428510558885651
0.879330674963768,0.418707668940277
0.892306305636042,0.437120343930957
0.908535297335502,0.436440046000512
0.895666024156062,0.447262271312272
0.860767317907552,0.429351998528609
0.874186683838032,0.436015300698074
0.921618875978292,0.471330114524338
0.905281127175364,0.470269565110014
0.887042935039271,0.471398947178819
0.932164573825913,0.4659218233588
0.909600659864488,0.47797319516991
0.945418391379698,0.515868538200948
0.88999275223155,0.489539494586803
0.890882143511959,0.503335886312138
0.925249615483253,0.519646316385787
0.908624084804659,0.504361057955464
0.935470200278846,0.507550767398235
0.919987411332821,0.490033841397022
0.878790025700558,0.47628002170229
0.935197380031075,0.542343579073598
0.922938513197872,0.508527912788173
0.907700930626123,0.500688280243272
0.882456713923779,0.496767144084411
0.87992948767578,0.47181212751484
0.901426555945948,0.489369676706636
0.895361489318845,0.490311064554649
0.888327424130653,0.491785490251155
0.878971760881418,0.497169646622544
0.875894938535369,0.495154939169629
0.892201082033839,0.481591804912753
0.855688230412581,0.502124778945096
0.860671010609372,0.486001278971005
0.831718206195936,0.527022724477896
0.824451697783749,0.515302200079834
0.793450184671531,0.530139647352046
0.786521862977076,0.556823482316535
0.777185466779636,0.535927411108599
0.761752995005929,0.540821054036567
0.712179736911379,0.581659836752782
0.704809570970134,0.563571488840627
0.667528887841573,0.595608697334243
0.622379167164943,0.612354442846148
0.553581019751658,0.660970311689639
0.572168287976417,0.613435893466983
0.553410144577817,0.677934285020785
0.500396839140376,0.693957730402055
0.475947932380194,0.703838712296472
0.495874048594522,0.684338954472606
0.434734557309629,0.727677690302992
0.432515292955723,0.741256604969132
0.38690686128519,0.753867348158175
0.342385207036966,0.780243526724031
0.317253573285618,0.746798151247044
0.303189527268134,0.754292575882096
0.302704281478032,0.783370429549653
0.256887794169984,0.812784683506666
0.252736112879239,0.771039596252258
0.264069188222255,0.795295303147901
0.248815843265281,0.788665535734611
0.238796017620423,0.801681382854354
0.109765212796776,0.810396371950068
0.0983457685222291,0.811243300691749
0.0525208819763235,0.780924830023341
0.0582564424174093,0.797792081964397
0.0260598044198194,0.804970808949608
0.0298561012080715,0.784965597930613
0.0302294151411726,0.749972197821458
-0.0373010240557532,0.69399231164196
-0.0504168869081645,0.714289093260833
-0.0572171834220304,0.704989034762018
-0.0860708594190464,0.656591901660965
-0.105053075733399,0.674590619344149
-0.11362065827878,0.593215715170477
-0.118176808467502,0.580437339279284
-0.108800226632064,0.569825681819703
-0.169328836123591,0.561842931697021
-0.13419339775322,0.540873617417891
-0.138360930182255,0.513345671486368
-0.141915913794746,0.499400565445898
-0.120952173120049,0.447741251933228
-0.178952566331564,0.29767720413472
-0.201724621610538,0.274524789447356
-0.166391909608924,0.166676626892384
-0.22720353568166,0.136252215599316
-0.215189731694601,0.0906983629465063
-0.18706720747923,0.106795662990228
-0.216508877308719,0.106503647735148
-0.21288996443651,0.0518581923712549
-0.238202081691647,0.0391283916669343
-0.22083984857723,0.00640871898465917
-0.218218286296905,0.00251607341397029
-0.247558233663781,-0.0774995777962807
-0.226844662077998,-0.0756443520142454
-0.225015269823118,-0.0713342557034412
-0.23550766921783,-0.052517498985867
-0.237291600327435,-0.0904944490344937
-0.303166169223228,-0.110337026121432
