0.163734825702529,-1.01698296092235
0.16371552430569,-1.01690274742709
0.16366763571498,-1.01665938192251
0.163606157926362,-1.01624881564544
0.163546025350979,-1.01566705965263
0.163502071821331,-1.01491019493798
0.163488993846068,-1.01397438247102
0.163521314196313,-1.01285587313412
0.163613345905654,-1.01155101753571
0.16377915676504,-1.01005627567733
0.164032534392675,-1.00836822645261
0.164386951957743,-1.00648357695653
0.164855534635311,-1.00439917158371
0.16545102686813,-1.00211200089521
0.166185760509239,-0.999619210233339
0.167071623917309,-0.996918108064922
0.168120032074522,-0.994006174033957
0.1693418977945,-0.990881066705063
0.170747604085354,-0.987540630980002
0.172346977730332,-0.983982905170152
0.174149264145835,-0.9802061277086
0.176163103573682,-0.976208743486285
0.178396508661552,-0.971989409797472
0.180856843482407,-0.967547001880656
0.183550804040466,-0.962880618041926
0.186484400308008,-0.957989584348689
0.189662939833826,-0.952873458882621
0.193091012960641,-0.94753203554168
0.196772479685208,-0.941965347381989
0.200710458191136,-0.936173669491422
0.204907315080722,-0.930157521387757
0.209364657328306,-0.923917668935276
0.214083325973757,-0.917455125774804
0.21906339157088,-0.91077115426319
0.224304151401518,-0.903867265919353
0.229804128462255,-0.89674522137509
0.235561072226598,-0.889407029829925
0.241571961181573,-0.881854948010379
0.247833007133697,-0.87409147863513
0.25433966127531,-0.866119368388623
0.261086621998329,-0.857941605406763
0.268067844438569,-0.849561416279406
0.275276551729903,-0.840982262575438
0.282705247943688,-0.83220783689725
0.290345732685146,-0.823242058472498
0.298189117314641,-0.814089068292025
0.306225842758185,-0.804753223803823
0.314445698867914,-0.795239093173924
0.322837845289848,-0.785551449126002
0.331390833792815,-0.77569526237247
0.340092632009204,-0.765675694650691
0.348930648535,-0.755498091378827
0.357891759333536,-0.745167973946685
0.366962335384462,-0.734691031657707
0.376128271516641,-0.724073113339026
0.385375016361031,-0.713320218637257
0.394687603357077,-0.70243848901835
0.404050682743814,-0.691434198490507
0.413448554464626,-0.680313744069769
0.422865201912574,-0.669083636008435
0.432284326441319,-0.65775048780701
0.441689382564934,-0.646321006030825
0.451063613768352,-0.634801979952944
0.460390088848814,-0.623200271045301
0.469651738707489,-0.611522802340384
0.478831393509412,-0.599776547686035
0.487911820129055,-0.587968520916181
0.496875759798189,-0.576105764960488
0.505705965872225,-0.56419534091605
0.514385241630953,-0.552244317104324
0.522896478029503,-0.540259758136528
0.531222691315433,-0.528248714010698
0.539347060428159,-0.516218209263537
0.547252964097382,-0.50417523220005
0.55492401755786,-0.492126724223766
0.562344108798666,-0.480079569290163
0.569497434266149,-0.468040583505575
0.576368533940974,-0.456016504893582
0.582942325711027,-0.44401398335047
0.589204138963509,-0.432039570810944
0.595139747321288,-0.420099711644799
0.60073540045045,-0.408200733304718
0.605977854868058,-0.39634883724485
0.610854403681362,-0.384550090129145
0.615352905192028,-0.372810415347846
0.619461810301513,-0.361135584859786
0.623170188656356,-0.349531211377468
0.626467753474939,-0.338002740911081
0.629344885000235,-0.326555445686853
0.631792652526057,-0.31519441745428
0.633802834947544,-0.303924561195901
0.635367939789867,-0.292750589252406
0.636481220672512,-0.281677015874924
0.637136693170011,-0.270708152215395
0.6373291490335,-0.259848101764942
0.637054168741179,-0.249100756249173
0.636308132349425,-0.238469791988318
0.635088228620106,-0.227958666729072
0.633392462403464,-0.217570616953962
0.631219660259825,-0.207308655673006
0.628569474307288,-0.197175570701329
0.625442384286524,-0.187173923425363
0.621839697837738,-0.177306048059128
0.617763548988848,-0.167574051391034
0.613216894857912,-0.157979813020527
0.608203510576795,-0.148524986082843
0.602727982447016,-0.139210998459018
0.596795699342672,-0.130039054467246
0.590412842379204,-0.121010137030604
0.583586372870643,-0.112125010315096
0.57632401860177,-0.103384222830939
0.56863425844539,-0.0947881109889698
0.560526305358552,-0.0863368031030642
0.552010087795221,-0.078030223828444
0.543096229576353,-0.0698680990248101
0.533796028261815,-0.0618499610322778
0.524121432071884,-0.0539751543471869
0.514085015409291,-0.0462428416839738
0.503699953035897,-0.0386520104084399
0.492979992961062,-0.0312014793269244
0.481939428101642,-0.0238899058151148
0.470593066776264,-0.0167157932694708
0.458956202099138,-0.00967749886352826
0.447044580341083,-0.0027732415906852
0.434874368327759,0.00399888942556809
0.422462119947217,0.0106409263735874
0.409824741840873,0.0171550139678473
0.39697945835379,0.0235434004562039
0.383943775821839,0.0298084284412594
0.370735446274732,0.0359525255373396
0.357372430635254,0.0419781948849537
0.343872861496086,0.0478880055449122
0.330255005556611,0.053684582794532
0.316537225802755,0.0593705983485695
0.302737943513563,0.0649487605276726
0.28887560017854,0.0704218043972489
0.274968619409965,0.0757924818997038
0.261035368934434,0.081063552002998
0.247094122747664,0.0862377708884274
0.233163023516214,0.0913178822004292
0.219260045309257,0.0963066073810599
0.205402956742743,0.101206636111594
0.191609284617397,0.106020616883437
0.177896278130878,0.110751147720235
0.164280873743118,0.115400767072737
0.150779660772426,0.11997194490752
0.137408847798271,0.124467074010293
0.124184229944876,0.128888461523961
0.111121157117758,0.133238320741103
0.0982345032632394,0.137518763169955
0.0855386367186461,0.141731790892316
0.0730473917184763,0.145879289231184
0.0607740411192409,0.149963019745177
0.0487312704029382,0.153984613566072
0.0369311530162821,0.157945565095002
0.0253851270997968,0.16184722607204
0.0141039736578067,0.165690800033048
0.00309779621710897,0.169477337166788
-0.00762399798120359,0.173207729584368
-0.0180527152157195,0.176882707012191
-0.0281803909069726,0.180502832918575
-0.0379998035940601,0.184068501083251
-0.0475044872353749,0.18757993261793
-0.0566887418069478,0.191037173445115
-0.0655476421757003,0.194440092241276
-0.0740770452287612,0.197788378849467
-0.0822735952438998,0.201081543165402
-0.0901347274900458,0.204318914499907
-0.0976586700508341,0.207499641419609
-0.104844443868066,0.210622692066632
-0.111691861005961,0.213686854956974
-0.118201521141049,0.216690740256147
-0.124374806286501,0.219632781529611
-0.130213873763655,0.222511237964405
-0.135721647437395,0.225324197057351
-0.140901807235921,0.228069577764125
-0.145758776979271,0.23074513410244
-0.15029771054475,0.233348459201567
-0.154524476401102,0.23587698978939
-0.158445640546931,0.238328011107207
-0.162068447892421,0.240698662241502
-0.165400802126884,0.242985941860983
-0.168451244118044,0.245186714346235
-0.171228928892236,0.247297716298448
-0.173743601247874,0.249315563412833
-0.176005570057582,0.251236757701473
-0.178025681317308,0.253057695049585
-0.179815290003545,0.254774673088387
-0.181386230802428,0.256383899367047
-0.182750787777002,0.257881499805506
-0.183921663041306,0.259263527409305
-0.184911944512164,0.260525971226963
-0.185735072811598,0.261664765529878
-0.186404807394676,0.262675799194202
-0.186935191979354,0.263554925263697
-0.187340519356401,0.264297970672117
-0.18763529565889,0.264900746103317
-0.187834204171926,0.265359055966947
-0.187952068764329,0.265668708467321
-0.188003817024801,0.265825525742809
-0.188004443185773,0.265825354052939
-0.187968970918613,0.265664073990267
-0.187912416084118,0.265337610693975
-0.187849749522354,0.264841944042187
-0.187795859965783,0.264173118799945
-0.187765517159345,0.263327254699953
-0.187773335270696,0.262300556433243
-0.187833736673155,0.261089323527172
-0.187960916183052,0.25968996008834
-0.188168805832196,0.258098984388321
-0.188471040254909,0.256313038270448
-0.188880922767778,0.254328896356225
-0.189411392218645,0.252143475030433
-0.190074990679696,0.249753841184408
-0.190883832057571,0.247157220697533
-0.191849571691386,0.244351006637545
-0.192983377007352,0.241332767160842
-0.194295899296288,0.238100253094659
-0.195797246677826,0.234651405183657
-0.197496958312447,0.230984360984199
-0.199403979919692,0.227097461390363
-0.201526640657974,0.222989256776535
-0.203872631418353,0.218658512742284
-0.206448984581493,0.214104215446064
-0.209262055283731,0.209325576515204
-0.212317504234819,0.204322037520584
-0.215620282126417,0.199093274005325
-0.219174615666864,0.193639199057819
-0.222983995274125,0.187959966420428
-0.22705116445506,0.182055973126174
-0.231378110895451,0.175927861656815
-0.235966059281334,0.169576521616733
-0.240815465868348,0.163003090918111
-0.245926014811879,0.156208956474001
-0.251296616266859,0.149195754396905
-0.256925406262086,0.141965369701621
-0.262809748350002,0.134519935512192
-0.268946237028853,0.126861831773868
-0.275330702930213,0.118993683472101
-0.281958219760888,0.110918358361677
-0.28882311298431,0.102638964210153
-0.295918970222603,0.0941588455608496
-0.303238653356686,0.0854815800217111
-0.310774312297951,0.0766109740873768
-0.318517400401327,0.0675510585028458
-0.326458691485854,0.0583060831781245
-0.3345882984253,0.0488805116642317
-0.342895693267831,0.0392790152019104
-0.351369728840322,0.0295064663553288
-0.359998661789566,0.0195679322439701
-0.368770177009424,0.00946866738679786
-0.377671413399856,-0.000785893826366846
-0.386688990900769,-0.0111901450204978
-0.39580903874078,-0.021738316061501
-0.405017224838258,-0.0324244816055416
-0.414298786289421,-0.0432425699535581
-0.423638560875829,-0.0541863721922903
-0.433021019521324,-0.0652495516025128
-0.442430299626335,-0.0764256533145872
-0.451850239205485,-0.0877081141908964
-0.461264411752649,-0.0990902729142321
-0.470656161755956,-0.110565380260755
-0.480008640783767,-0.122126609535744
-0.489304844061387,-0.133767067149982
-0.498527647457126,-0.145479803314365
-0.507659844795439,-0.157257822829991
-0.516684185414092,-0.169094095950855
-0.525583411881758,-0.180981569296073
-0.534340297792087,-0.192913176788469
-0.542937685550066,-0.204881850596317
-0.551358524066548,-0.216880532055005
-0.559585906276956,-0.22890218254547
-0.567603106400597,-0.240939794306315
-0.57539361685754,-0.252986401156728
-0.582941184760807,-0.265035089107454
-0.590229847902508,-0.277079006837408
-0.597243970153712,-0.289111376013748
-0.603968276199106,-0.301125501433622
-0.610387885528969,-0.313114780966204
-0.616488345612655,-0.325072715274058
-0.622255664179544,-0.336992917293389
-0.627676340535439,-0.348869121453276
-0.632737395844507,-0.360695192614548
-0.637426402309136,-0.372465134709628
-0.641731511182569,-0.384173099065299
-0.645641479551714,-0.395813392391092
-0.649145695830298,-0.407380484416709
-0.652234203905367,-0.418869015162708
-0.654897725883152,-0.430273801829481
-0.657127683383389,-0.441589845290401
-0.658916217334463,-0.452812336175925
-0.660256206225013,-0.463936660536314
-0.661141282771112,-0.47495840507161
-0.661565848961639,-0.48587336191844
-0.661525089448043,-0.496677532984229
-0.661014983248436,-0.507367133820407
-0.660032313739612,-0.517938597027215
-0.658574676914494,-0.528388575183755
-0.656640487886273,-0.538713943298012
-0.654228985624468,-0.548911800772605
-0.651340235912037,-0.558979472883137
-0.64797513251662,-0.568914511767077
-0.644135396572983,-0.578714696922204
-0.639823574177693,-0.588378035214733
-0.635043032201047,-0.597902760398323
-0.629797952325205,-0.60728733214628
-0.624093323321483,-0.616530434600308
-0.617934931583598,-0.625630974440288
-0.611329349937611,-0.634588078480565
-0.604283924753091,-0.643401090799336
-0.596806761383824,-0.652069569408727
-0.5889067079701,-0.660593282474175
-0.580593337638256,-0.668972204092743
-0.571876929136709,-0.677206509640952
-0.562768445951188,-0.685296570703693
-0.553279513945276,-0.693242949596678
-0.54342239757561,-0.701046393495816
-0.533209974734291,-0.708707828187766
-0.522655710274097,-0.71622835145672
-0.51177362827499,-0.723609226123338
-0.500578283113267,-0.730851872752452
-0.489084729397283,-0.737957862046948
-0.477308490836264,-0.744928906945873
-0.465265528111052,-0.75176685444552
-0.452972205817855,-0.758473677162786
-0.440445258558127,-0.76505146466073
-0.427701756249601,-0.771502414556728
-0.414759068735225,-0.777828823434122
-0.401634829768297,-0.784033077578676
-0.38834690045348,-0.790117643561545
-0.374913332224598,-0.796085058690773
-0.361352329441095,-0.801937921353634
-0.34768221168594,-0.807678881272364
-0.333921375848349,-0.813310629695996
-0.320088258075218,-0.818835889551151
-0.306201295675419,-0.824257405574723
-0.292278889061211,-0.829577934451411
-0.278339363810923,-0.834800234979027
-0.264400932936787,-0.839927058284447
-0.250481659441347,-0.844961138112938
-0.236599419245173,-0.849905181213399
-0.22277186456784,-0.854761857841866
-0.209016387843028,-0.859533792405305
-0.195350086247493,-0.86422355426743
-0.181789726922187,-0.868833648737879
-0.168351712962311,-0.873366508265679
-0.155052050251374,-0.877824483857431
-0.141906315212353,-0.882209836740164
-0.128929623547124,-0.886524730288217
-0.116136600032986,-0.890771222232919
-0.103541349442853,-0.894951257173182
-0.0911574286530816,-0.899066659404441
-0.0789978200003122,-0.903119126082639
-0.0670749059458629,-0.907110220739204
-0.0554004451033176,-0.911041367162154
-0.043985549681893,-0.914913843657627
-0.0328406643949952,-0.918728777705297
-0.0219755468801251,-0.922487141020201
-0.011399249672887,-0.926189745032598
-0.00112010377440359,-0.929837236796544
0.00885429615214284,-0.933430095336867
0.0185171049237262,-0.936968628443229
0.0278622382900988,-0.940452969918999
0.0368843826721785,-0.943883077291528
0.045579003165451,-0.947258729989494
0.0539423497914706,-0.950579527991804
0.0619714619844614,-0.953844890951561
0.0696641713039938,-0.957054057797474
0.0770191023686188,-0.960206086814019
0.0840356720093748,-0.963299856200584
0.0907140866459987,-0.966334065108723
0.0970553378926958,-0.969307235155573
0.103061196404224,-0.972217712410396
0.108734203977026,-0.975063669850148
0.114077663923989,-0.977843110278892
0.119095629745315,-0.980553869704833
0.123792892121739,-0.983193621167711
0.128174964260123,-0.985759879008244
0.132248065625088,-0.98825000357035
0.136019104093985,-0.990661206325832
0.139495656576002,-0.992990555410314
0.142685948139629,-0.995234981558215
0.145598829696054,-0.997391284423689
0.14824375428926,-0.999456139273555
0.150630752046714,-1.00142610403738
0.152770403847518,-1.00329762669909
0.154673813767775,-1.00506705301369
0.156352580365609,-1.00673063453187
0.15781876687091,-1.00828453691478
0.159084870347287,-1.00972484852018
0.160163789896019,-1.01104758924104
0.161068793973911,-1.01224871957671
0.161813486898966,-1.01332414991644
0.162411774619556,-1.01426975001435
0.162877829824461,-1.01508135863476
0.163226056472552,-1.01575479334624
0.163471053822256,-1.01628586044221
0.163627580041988,-1.0166703649661
0.163710515483716,-1.01690412081833
0.163734825702529,-1.01698296092235
