1.02473973618531,0.0432757556799504
1.02446582184897,0.0433106902147218
1.02364589991776,0.0434269464441825
1.02228341041005,0.0436415814507195
1.02038273114762,0.0439714560074577
1.01794916765538,0.044433192655497
1.01498894105869,0.0450431343080489
1.01150917400548,0.0458173034749091
1.00751787464463,0.0467713621993217
1.00302391869623,0.0479205727977005
0.998037029653956,0.0492797594908798
0.992567757163612,0.0508632710135832
0.98662745362607,0.0526849442866093
0.980228249076831,0.0547580692338662
0.973383024398164,0.0570953548238297
0.966105382923549,0.0597088964122674
0.958409620497694,0.0626101444601651
0.950310694058833,0.0658098746977225
0.941824188813287,0.0693181598020584
0.932966284075398,0.0731443426528808
0.923753717848921,0.0772970112268616
0.91420375022871,0.0817839751877882
0.904334125704207,0.0866122442257848
0.894163034448624,0.091788008194985
0.883709072679993,0.0973166190950238
0.872991202182291,0.103202574937599
0.862028709076708,0.10944950553514
0.850841161934798,0.11606016024433
0.839448369326688,0.123036397692865
0.827870336898767,0.130379177513395
0.816127224076328,0.138088554104113
0.804239300487419,0.146163672430937
0.792226902204821,0.154602765881658
0.780110387903397,0.163403156177842
0.767910095030296,0.172561255345697
0.755646296085375,0.182072569742488
0.743339155109027,0.1919317061305
0.718674702077521,0.212667424626009
0.706356789027809,0.223528805331406
0.694074247920539,0.234707631440038
0.681846061796261,0.24619417337957
0.669690853870817,0.257977880405104
0.657626848127765,0.270047400402525
0.645671830860272,0.2823906015143
0.633843113247737,0.2949945955404
0.622157495050081,0.307845763063041
0.610631229500155,0.32092978024007
0.599279989472003,0.334231647208106
0.588118834999872,0.347735718032953
0.57716218221983,0.361425732141307
0.566423773802665,0.375284847164497
0.55591665094339,0.389295673121817
0.545653126969206,0.403440307868026
0.535644762624133,0.417700373726741
0.525902343084784,0.432057055228808
0.507254475906007,0.460983047818073
0.498366539144428,0.475512892434262
0.489779535846764,0.490060501598056
0.4815000924941,0.504605469665333
0.458560212297841,0.548017834703222
0.444886496388116,0.576565406866417
0.438542028749573,0.590658233545867
0.432526618491161,0.604602607073196
0.426839738443527,0.618377797415602
0.421479966553287,0.63196323110183
0.416444992555503,0.645338534609142
0.411731626667375,0.658483577359536
0.407335810282854,0.671378514229889
0.403252628643425,0.684003827481756
0.399476325455907,0.696340368017867
0.392817222653884,0.72007261985506
0.38991886089757,0.731432236231657
0.387296295578423,0.742430966404334
0.382839122586218,0.763279497527939
0.37935985323498,0.782491845665056
0.377957196223452,0.791447835234188
0.376762098704629,0.799952253977759
0.37576102728485,0.80799245060295
0.374939918027048,0.815556553795568
0.374284211874288,0.82263349720452
0.373778891201324,0.829213042693917
0.373408517411574,0.835285801811286
0.474881198676658,0.73123385585779
0.490726189115677,0.943599298793663
0.483756010966701,0.752636658580531
0.466012306591483,0.959485574468951
0.279186153567554,0.956336636257913
0.373227354984724,0.863003094417012
0.270582106082524,0.753613974461683
0.373508877179363,0.86671576693575
0.474602604644282,0.746854926586836
0.491000526503737,0.973572085471233
0.258421132139823,0.964359586556221
0.472159918894448,0.964571852421146
0.254172255253819,0.742966127236329
0.372230298208485,0.859388671342421
0.467328946298451,0.967781514302644
0.278847863966884,0.948483476994932
0.272661300371075,0.732152002990648
0.266011059280396,0.91715836072887
0.242254507799913,0.699163787790095
0.257182631971493,0.903612175847404
0.353419761768334,0.7985525358041
0.350143809064512,0.790355229749389
0.22145897840533,0.870505574848761
0.241612235933629,0.658526037794773
0.284529279344416,0.667079693353254
0.276728351572566,0.655298474217258
0.166682767755716,0.526681822810433
0.260032333883405,0.631337187983295
0.359288135966226,0.504400834973632
0.125637858601729,0.497195109888937
0.119376534651787,0.466374030799291
0.212066357568773,0.570055197453871
0.201448941791338,0.557723406836406
0.190507333187788,0.545412538940801
0.167688779576465,0.520930147720481
0.155832524205126,0.508796048289875
0.143693416609482,0.496757640128607
0.13128377999477,0.484832594217584
0.079212117167229,0.438601754574053
0.0656600127945194,0.427490399825874
0.0519261225001177,0.416587046696102
0.0380274288110848,0.405905265050373
0.0239814531201452,0.395457916526473
0.00980621993427105,0.38525712855615
-0.0188576279114408,0.365639928991981
-0.0333080155797738,0.356243891413982
-0.0478112856782325,0.347135122761346
-0.0623474723023795,0.338321750725489
-0.0768963424904662,0.329811050160096
-0.177357606051254,0.279137780912075
-0.191261621851828,0.273204587679824
-0.204991294721439,0.267599652814446
-0.23184571225361,0.257367092713102
-0.244930076937543,0.252733528370274
-0.257759423990713,0.248416364567741
-0.270314323995496,0.244410474717552
-0.306143970974754,0.234196723193061
-0.317414964344042,0.231368177885066
-0.32832083822059,0.228813077691588
-0.338845021685109,0.226521562245886
-0.348971549509583,0.224483062687296
-0.358685095917592,0.222686329133243
-0.376815331568766,0.219769931004723
-0.393127105989202,0.217669887654753
-0.400570424737994,0.216891512630618
-0.41397764108181,0.215804706864862
-0.419922338129068,0.215465611841026
-0.441751886082301,0.215167857071256
-0.444500004115718,0.215270569980616
-0.446700215435426,0.21538737790454
-0.449450645900384,0.215593747683654
-0.450000122175314,0.215648488552896
-0.450000206315859,0.215647768684525
-0.449452917131808,0.215574316056956
-0.44456119062977,0.214747085897278
-0.441863461246577,0.214213270533694
-0.438642518348776,0.213523196338562
-0.430662138866521,0.211611262710952
-0.42592044877216,0.210358888239189
-0.408813424411574,0.205242632015348
-0.4021895538502,0.203038977766646
-0.387637845353185,0.197809031508205
-0.379738591251442,0.194759846036552
-0.362769626142504,0.187740939715566
-0.353732264908112,0.183752539384115
-0.344348809302436,0.179433649813111
-0.334636766395075,0.174776858729294
-0.324614108416263,0.169775563991965
-0.314299233571076,0.164423992538827
-0.292868314760634,0.152651173209007
-0.281790832564591,0.146222668772028
-0.270498173290193,0.139429399004507
-0.247347148971741,0.124743825698288
-0.22357638649735,0.108594030696313
-0.199348442939599,0.0909941471603215
-0.187113868730098,0.0816588222816918
-0.162504590539663,0.0619421208448754
-0.150169900600805,0.0515733112021302
-0.137841521675821,0.0408740402148954
-0.101087184963072,0.00688232677412633
-0.0889753265968809,-0.00504575501347743
-0.0650696204241784,-0.0297289347943375
-0.0190037333035263,-0.0820275103964274
-0.00794306907696307,-0.0956266225827363
0.00128066585069695,-0.124208763182212
0.0239173031515411,-0.137420503292481
0.0718976629296634,-0.209312583909758
0.0755668494034814,-0.246760162277095
0.112488374011804,-0.281888899226213
0.119651882507748,-0.296261532128136
0.126488956196343,-0.310537934794034
0.148561323289939,-0.307841871451236
0.155748943102931,-0.379746514483369
0.185876143178324,-0.404500462797924
0.18103240776265,-0.471264395041536
0.195199130172866,-0.468865124332916
0.205766139839627,-0.515763309276621
0.247350823804183,-0.553297606906572
0.202675131361395,-0.546308790629712
0.201702685790784,-0.589264890414244
0.223429826440367,-0.593253393844598
0.21126715421158,-0.6025837307707
0.201447325256413,-0.605873224631966
0.184830170376478,-0.618458659489369
0.224014749105434,-0.590104682540771
0.235843495506329,-0.59281486903261
0.194300227769574,-0.573915942551852
0.219128272739065,-0.538122034943644
0.219726810259011,-0.543570502587797
0.243714535842343,-0.549533003060598
0.192038993371781,-0.516461885091339
0.265764978039928,-0.474098377634607
0.296054264551515,-0.406178909658472
0.328107977057111,-0.354165461925237
0.442099494903296,-0.278645795672299
0.543649265735327,-0.141719612182353
0.615225283229779,-0.0927211716701375
0.644292597579303,-0.0750962465175316
0.772820540341798,-0.0114292708866047
0.863261527951738,0.019959891894127
0.875047891694853,0.0232154799978719
0.897585592476723,0.0288748524948606
0.928551879161749,0.0353766949038408
0.963896136445172,0.0408075848157345
