1.01011044294181,-0.229451210503283
1.00935992418543,-0.2292897961725
1.00713368704079,-0.228712251525119
1.00348138360956,-0.227582391522066
0.998467718844547,-0.225770396913531
0.99217166006774,-0.223154425661464
0.984685473923625,-0.219622127604652
0.976113602458971,-0.215072043971557
0.966571391972895,-0.209414874743864
0.95618369006808,-0.20257459847778
0.945083327933758,-0.194489430981096
0.933409506284029,-0.185112611200057
0.921306104544452,-0.174413004767545
0.908919933811367,-0.162375517877411
0.896398954790799,-0.149001316452152
0.883890482348727,-0.134307847934636
0.871539398466917,-0.118328665430435
0.85948639529631,-0.101113056326522
0.847866269634508,-0.0827254798855104
0.836806289529504,-0.0632448206333629
0.826424652836178,-0.0427634665945646
0.816829056435748,-0.0213862235548499
0.808115393484919,0.000770921477991848
0.800366594507237,0.0235821726141647
0.793651626392972,0.0469134165732434
0.788024661456894,0.0706238152309984
0.783524426638925,0.0945674798990876
0.780173740745805,0.11859520702288
0.777979245349217,0.142556254237121
0.77693133260493,0.166300135229225
0.777004270867069,0.189678411631648
0.778156526570483,0.212546460200836
0.780331278471627,0.234765193840175
0.783457118003283,0.256202715584614
0.787448927239119,0.276735885478353
0.792208923808021,0.296251781334287
0.797627860071449,0.314649035652
0.803586362004408,0.331839032474318
0.809956391524647,0.347746949662536
0.816602814516114,0.362312633946794
0.823385055509553,0.375491298137901
0.830158818931099,0.387254032045583
0.836777856021586,0.397588120909417
0.843095755974714,0.406497167485173
0.848967739548187,0.414001016312632
0.854252433371716,0.420135481092062
0.85881360341003,0.424951878486538
0.862521826534672,0.428516374016891
0.86525607990955,0.430909147996988
0.866905228892681,0.432223391641405
0.867369395388358,0.432564145539002
0.866561190035003,0.432046994599239
0.864406793266691,0.430796635320294
0.860846872120719,0.428945332777739
0.855837321657248,0.42663128607114
0.84934982198596,0.423996922077041
0.841372204132783,0.421187138226972
0.831908620300102,0.418347515647807
0.82097951644812,0.415622524361482
0.808621407524505,0.413153742337348
0.794886458064915,0.411078110022242
0.779841873249441,0.409526241542573
0.763569107800694,0.408620813084717
0.746162902320318,0.40847504802309
0.727730158755294,0.409191317190784
0.708388668638008,0.410859871289846
0.688265709531126,0.413557720834234
0.667496526708009,0.417347677227501
0.646222718492401,0.422277566621192
0.624590544850477,0.428379626102552
0.60274917975986,0.43567008954675
0.580848928562585,0.44414896816649
0.559039431933968,0.453800028428391
0.537467878261695,0.464590967609639
0.516277246127289,0.476473784869223
0.495604598216616,0.489385343334672
0.475579447361737,0.503248116386425
0.456322214540761,0.517971109085934
0.437942797546014,0.53345094356749
0.420539267687426,0.54957309522333
0.404196710343764,0.566213264681051
0.388986223428157,0.583238868923889
0.374964085917445,0.600510633458081
0.362171106530434,0.617884266204815
0.350632160453335,0.63521219280214
0.340355919727956,0.652345332256638
0.331334780567353,0.669134891394732
0.323544988473142,0.685434156335212
0.316946959627583,0.701100259240558
0.311485794650985,0.715995898904587
0.307091978479852,0.729990994294234
0.303682257861902,0.742964250976931
0.301160685808008,0.754804621422411
0.299419820314439,0.765412641455839
0.298342062796067,0.774701626642389
0.297801119975314,0.782598714083506
0.29766357147294,0.789045736981443
0.297790524063677,0.79399992135849
0.298039332507677,0.797434396476007
0.29826536606057,0.799338512759617
0.298323799210424,0.799717963373448
0.298071404895755,0.798594707969577
0.297368328428642,0.79600669954002
0.296079820581139,0.792007417688563
0.294077908788885,0.786665213989357
0.291242986176944,0.780062477380118
0.287465299110438,0.772294629722123
0.282646315204258,0.763468963720635
0.276699955177209,0.753703337312764
0.269553673588684,0.743124740371929
0.26114937533027,0.731867751127838
0.251444156738445,0.720072901039492
0.240410862323342,0.707884967969801
0.22803845034674,0.695451218380615
0.214332162802751,0.68291961988562
0.199313497728935,0.670437045858273
0.183019984175066,0.658147493888194
0.165504762552187,0.646190339711227
0.146835975447058,0.634698647807641
0.127095976287792,0.623797559174907
0.106380365457516,0.613602775844562
0.0847968655474695,0.604219160538199
0.0624640493935747,0.595739468459832
0.0395099363275712,0.588243226617797
0.0160704736734882,0.581795774278414
-0.00771207808675417,0.576447476197543
-0.0316908368854941,0.572233118178782
-0.0557160468545785,0.569171492293681
-0.0796368611166889,0.567265176796987
-0.103303137950762,0.566500513406466
-0.126567228537145,0.566847782220963
-0.149285734590304,0.568261572151163
-0.171321214552392,0.570681342364144
-0.192543817645348,0.574032167923994
-0.212832825954849,0.57822566057477
-0.232078085835764,0.583161053485931
-0.250181311272222,0.588726436789984
-0.267057243379618,0.594800128911507
-0.282634651982103,0.601252167038285
-0.296857167116048,0.607945898638934
-0.30968393037434,0.614739654704674
-0.321090058193269,0.621488484400786
-0.331066911466413,0.628045930067714
-0.339622168220819,0.634265821021868
-0.346779698481282,0.640004064377834
-0.352579242849612,0.64512041114976
-0.357075898708352,0.649480176189603
-0.360339420293537,0.652955891080192
-0.362453341140359,0.655428869914749
-0.363513929561723,0.656790668951851
-0.363628989846338,0.656944422422888
-0.362916523735657,0.655806038272306
-0.361503268434971,0.653305239311026
-0.359523128912531,0.649386437139796
-0.357115523523752,0.644009428229049
-0.354423663049549,0.637149903700524
-0.35159278404603,0.628799766617196
-0.348768357957326,0.618967252924528
-0.346094297737395,0.607676854569369
-0.343711183756826,0.594969045724013
-0.341754530536483,0.58089981543283
-0.340353115354116,0.565540012348601
-0.339627389018978,0.5489745095065
-0.339687988111916,0.531301199268103
-0.340634366756716,0.512629830629194
-0.342553564537384,0.493080702998534
-0.345519125523356,0.472783232296897
-0.349590181530243,0.451874406775466
-0.354810710750072,0.430497151291204
-0.361208980756057,0.408798619887977
-0.368797182648846,0.386928437402354
-0.377571260790826,0.365036911431693
-0.387510940200816,0.343273236361817
-0.39857995128202,0.321783711247859
-0.41072644916066,0.30070999317362
-0.423883622550271,0.28018740728406
-0.437970484755935,0.260343333997486
-0.452892837221709,0.241295692967102
-0.468544393929912,0.223151542187089
-0.484808053008317,0.206005809240596
-0.501557300114264,0.189940170082955
-0.518657726564985,0.175022088962457
-0.535968643790464,0.161304031124971
-0.553344774515793,0.148822857851277
-0.570638000148475,0.137599411162615
-0.587699143163753,0.1276382932276
-0.604379762856072,0.118927843140167
-0.620533942662427,0.111440311342328
-0.636020047365524,0.105132229566354
-0.650702428850147,0.0999449717975477
-0.664453059710538,0.0958054994400413
-0.677153074882193,0.0926272816319939
-0.688694202587867,0.0903113795304415
-0.698980067230983,0.088747681395647
-0.707927348423909,0.087816273474238
-0.715466782084751,0.0873889300319718
-0.721543991453276,0.0873307044406063
-0.726120137940949,0.0875016019966565
-0.729172383916959,0.087758314157669
-0.730694161814767,0.08795599313608
-0.730695246294598,0.0879500453008094
-0.729201628587817,0.087597921608409
-0.726255194550184,0.0867608833216113
-0.721913210333617,0.0853057215730801
-0.716247621921144,0.0831064098923919
-0.709344177029078,0.0800456696279945
-0.701301380036519,0.0760164292532061
-0.692229292628951,0.0709231598334007
-0.682248194715417,0.064683070434753
-0.671487121874682,0.0572271489550141
-0.660082297084421,0.0485010357331525
-0.648175475770623,0.0384657193245208
-0.635912224266387,0.0270980459868728
-0.62344015257751,0.0143910366838462
-0.610907122906759,0.000354007749007568
-0.598459455682831,-0.0149875062631553
-0.586240154870173,-0.0315920266117195
-0.574387174101632,-0.0494025979717927
-0.563031744680235,-0.0683474439377991
-0.552296785745273,-0.0883408024795498
-0.542295415900312,-0.109283931218683
-0.533129584369062,-0.131066270331638
-0.524888838293941,-0.153566748971954
-0.517649241139473,-0.176655219362522
-0.511472455328299,-0.200194001158681
-0.506405000243884,-0.224039517344456
-0.502477694605151,-0.248044001813161
-0.499705289980103,-0.272057257913371
-0.498086299885206,-0.295928446622632
-0.497603026542997,-0.319507882651562
-0.498221784970963,-0.342648816684743
-0.499893321679255,-0.365209182133005
-0.502553422892389,-0.387053285202492
-0.506123704909372,-0.408053417773885
-0.510512577005647,-0.42809137352211
-0.515616365185717,-0.447059848881352
-0.52132058314262,-0.464863711857951
-0.527501334993453,-0.481421123297881
-0.534026832760389,-0.496664497006443
-0.540759010173671,-0.510541287073881
-0.547555213203708,-0.523014592858056
-0.554269946797885,-0.534063574288656
-0.56075665661532,-0.543683672459796
-0.566869524127851,-0.551886632841348
-0.57246525329315,-0.558700330835209
-0.577404827108067,-0.564168401801921
-0.581555212715752,-0.568349680056457
-0.584790994364512,-0.571317453650772
-0.586995914391997,-0.573158543996749
-0.588064303524634,-0.573972221509299
-0.587902383125682,-0.57386897043979
-0.586429423579536,-0.572969117900536
-0.583578744746079,-0.57140134372953
-0.579298546335849,-0.56930108929097
-0.573552558121189,-0.566808884533816
-0.566320502085384,-0.564068613622794
-0.557598360894488,-0.561225740201796
-0.547398449427438,-0.558425513839572
-0.535749288490509,-0.555811179435925
-0.522695282243318,-0.553522211330608
-0.508296203246099,-0.551692593557166
-0.492626491373143,-0.550449167123734
-0.475774375096553,-0.549910064389089
-0.457840825800581,-0.550183249544964
-0.438938357813476,-0.551365182927497
-0.419189688716471,-0.553539625377528
-0.398726276185461,-0.55677659716931
-0.377686749119586,-0.561131504150868
-0.356215252094021,-0.566644441709411
-0.334459723226334,-0.573339685016517
-0.31257012635393,-0.581225371746574
-0.290696658974637,-0.590293381125419
-0.268987957696577,-0.60051941078288
-0.247589322973631,-0.611863250481716
-0.226640984668625,-0.624269249405521
-0.206276429490666,-0.637666971338532
-0.186620810601939,-0.651972029789369
-0.167789458691748,-0.667087092926376
-0.149886512583841,-0.682903046130813
-0.133003685992015,-0.69930029806079
-0.117219185386262,-0.716150214376638
-0.102596792097369,-0.733316661728711
-0.0891851197941939,-0.750657643270014
-0.0770170563389722,-0.768027005844965
-0.0661093967878508,-0.785276198135394
-0.056462671983533,-0.802256058426261
-0.0480611748126476,-0.818818610293829
-0.0408731838009961,-0.834818844422796
-0.0348513813243703,-0.850116464927114
-0.0299334613502074,-0.864577578979959
-0.0260429193246463,-0.878076309246369
-0.0230900146084995,-0.890496309548966
-0.0209728937710986,-0.901732165371699
-0.019578861098323,-0.911690662204308
-0.0187857808841012,-0.92029190633432
-0.0184635944749522,-0.927470284484323
-0.0184759336441533,-0.933175250648349
-0.018681810702767,-0.937371930578628
-0.018937364823242,-0.940041536587306
-0.0190976433689272,-0.94118158763011
-0.0190183965978761,-0.940805932002417
-0.0185578639469493,-0.938944572374089
-0.0175785302043931,-0.935643295288575
-0.0159488302445628,-0.93096310962527
-0.0135447816228208,-0.924979500842828
-0.0102515252042981,-0.91778151005721
-0.00596475511653277,-0.909470649134357
-0.000592020659439252,-0.900159664967801
0.00594611563968503,-0.889971167942074
0.0137150778922209,-0.879036141231257
0.022765446784522,-0.867492349028332
0.0331323096691959,-0.85548266302775
0.0448347987092872,-0.843153327475733
0.0578758226905917,-0.830652183848446
0.0722419957664348,-0.818126876708043
0.0879037640087839,-0.805723062514974
0.104815728238435,-0.793582643138877
0.122917159224473,-0.781842045510452
0.142132699008062,-0.770630568296493
0.162373239846353,-0.760068815666504
0.183536970116179,-0.750267237162067
0.205510574490563,-0.741324791391994
0.228170573828363,-0.733327749773118
0.251384788521435,-0.726348654836447
0.275013907545071,-0.720445445742074
0.29891314417436,-0.715660761616388
0.322933958277067,-0.712021431166488
0.346925824285468,-0.70953815476541
0.370738023395057,-0.708205382865287
0.394221438243957,-0.708001392212295
0.417230328296654,-0.708888558936039
0.439624064389951,-0.710813825196113
0.461268801394641,-0.713709353718913
0.482039068697589,-0.717493362276909
0.501819259206415,-0.722071127978199
0.520504998810707,-0.727336149172762
0.538004379684757,-0.733171450868428
0.554239042469558,-0.739451017807479
0.569145094206111,-0.746041337804984
0.582673850885823,-0.752803036611443
0.594792395612662,-0.759592584451222
0.605483945609801,-0.766264053518023
0.614748023623945,-0.772670905090037
0.622600431654661,-0.778667784567685
0.629073027335609,-0.784112302640609
0.63421330568996,-0.788866780958802
0.638083791344745,-0.792799941113496
0.640761248589602,-0.795788516421495
0.642335718876385,-0.797718766943523
0.642909397450739,-0.798487879341693
0.642595362759296,-0.798005234578946
0.641516174063279,-0.796193528067437
0.63980235428892,-0.792989728663781
0.63759077653817,-0.788345864865128
0.635022973852479,-0.782229628657518
0.632243392753956,-0.774624789681231
0.629397611770621,-0.76553141468031
0.626630546577398,-0.754965889566848
0.624084663546876,-0.742960743826552
0.621898223401711,-0.729564279391276
0.620203576295036,-0.714840008477615
0.619125529020892,-0.698865907209473
0.618779804181056,-0.681733494078478
0.619271610018285,-0.663546744422344
0.620694338282578,-0.6444208540916
0.623128405942819,-0.624480867305722
0.626640254809947,-0.603860185348162
0.631281521220892,-0.582698974196064
0.637088385868074,-0.561142490407267
0.64408111167248,-0.53933934557921
0.652263775315568,-0.517439730440075
0.661624195694444,-0.495593620122273
0.672134060174232,-0.47394898239684
0.68374924711045,-0.452650010611177
0.696410340731676,-0.431835402772706
0.710043332137636,-0.411636707660731
0.72456049790858,-0.392176758035088
0.739861445665705,-0.373568209952882
0.755834313895725,-0.355912205916479
0.772357111480011,-0.339297178072757
0.789299180672762,-0.323797805983446
0.806522765774061,-0.309474141610123
0.823884668460567,-0.296370912127493
0.841237969684494,-0.284517009020036
0.858433797243478,-0.273925169655704
0.875323117569288,-0.264591855193975
0.891758529989332,-0.256497326302191
0.90759604168472,-0.249605915752982
0.922696801802809,-0.243866494585637
0.936928773677917,-0.2392131261646
0.950168324864949,-0.235565900187441
0.962301715688263,-0.232831936510217
0.973226468239811,-0.230906546596773
0.982852599211676,-0.229674538485113
0.991103701600831,-0.229011649421851
0.997917862158315,-0.228786088765975
1.00324840344873,-0.228860172424596
1.00706444151478,-0.229092028972264
1.00935125237986,-0.229337356735214
1.01011044294181,-0.229451210503283
