-0.329271576392003,0.98781945908802
-0.321980847881779,0.979617238435346
-0.314797127227831,0.971457858213116
-0.307719194695441,0.96334116276063
-0.300745849604587,0.955267003946356
-0.293875909814084,0.947235240942596
-0.287108211221091,0.939245740006275
-0.280441607275491,0.931298374265638
-0.273874968508634,0.923393023512652
-0.267407182075966,0.915529574000946
-0.26103715131309,0.907707918249087
-0.254763795304807,0.899927954849022
-0.248586048466716,0.892189588279527
-0.242502860138964,0.884492728724489
-0.236513194191745,0.876837291895876
-0.23061602864218,0.869223198861236
-0.224810355282194,0.861650375875587
-0.219095179317055,0.85411875421756
-0.213469519014228,0.846628270029654
-0.207932405362208,0.839178864162483
-0.202482881739035,0.831770482022883
-0.197120003590177,0.82440307342577
-0.191842838115478,0.81707659244962
-0.186650463964914,0.80979099729547
-0.181541970942856,0.802546250149336
-0.176516459720601,0.795342317047928
-0.171573041556899,0.788179167747585
-0.166710838026248,0.781056775596318
-0.161928980754707,0.773975117408871
-0.157226611163007,0.766934173344717
-0.152602880216738,0.759933926788901
-0.148056948183402,0.752974364235636
-0.143587984396121,0.746055475174595
-0.139195167023812,0.73917725197979
-0.134877682847626,0.732339689800998
-0.130634727043476,0.725542786457632
-0.126465502970469,0.718786542335009
-0.12236922196508,0.712070960282927
-0.11834510314088,0.70539604551651
-0.114392373193683,0.698761805519242
-0.110510266211939,0.692168249948126
-0.106698023492224,0.685615390540923
-0.102954893359692,0.679103241025414
-0.0992801309933327,0.672631817030605
-0.095672998255909,0.666201135999863
-0.0921327635284419,0.659811217105893
-0.0886587015491113,0.653462081167535
-0.0852500932564481,0.64715375056831
-0.0819062256367054,0.640886249176692
-0.0786263915752843,0.63465960226804
-0.0754098897121088,0.628473836448163
-0.0722560243008364,0.622328979578459
-0.0691641050718026,0.61622506070261
-0.0661334470985963,0.610162109974773
-0.0631633706681663,0.604140158589234
-0.0602532011543648,0.598159238711503
-0.057402268894835,0.59221938341079
-0.0546099090711524,0.586320626593847
-0.051875461592132,0.580463002940131
-0.049198270980219,0.574646547838268
-0.0465776862608797,0.568871297323768
-0.044013060854914,0.563137288017978
-0.0415037524736105,0.557444557068238
-0.0390491230166721,0.551793142089204
-0.0366485384728397,0.546183081105324
-0.034301368823139,0.540614412494424
-0.0320069879466891,0.535087174932398
-0.0297647735290019,0.529601407338953
-0.0275741069727087,0.52415714882441
-0.0254343733106523,0.518754438637513
-0.023344961121285,0.513393316114241
-0.0213052624463108,0.508073820627592
-0.0193146727105168,0.502795991538321
-0.0173725906437382,0.497559868146608
-0.0154784182049019,0.492365489644638
-0.0136315605080967,0.487212895070069
-0.0118314257506191,0.482102123260379
-0.0100774251429459,0.477033212808062
-0.00836897284058417,0.472006202016656
-0.00670548587775285,0.467021128857599
-0.00508638410284932,0.462078030927877
-0.00351109011565831,0.457176945408459
-0.00197902920625871,0.4523179090235
-0.000489629295586918,0.4475009580003
0.000957679122384373,0.442726128029996
0.00236346303689056,0.437993454228978
0.00372828697508225,0.433302971101015
0.00505271305523314,0.428654712500074
0.00633730103848324,0.42404871159382
0.00758260837915498,0.419485000827786
0.00878919027367591,0.414963611890193
0.00995759970814167,0.410484575677422
0.0110883875045528,0.406047922260105
0.0121821023657564,0.401653680849841
0.0132392909191248,0.397301879766523
0.0142604977590001,0.392992546406254
0.0152462654879371,0.38872570720985
0.0161971347567695,0.384501387631924
0.0171136443035311,0.380319612110528
0.017996330991257,0.37618040403735
0.0188457298446928,0.37208378572846
0.0196623740859376,0.36802977839559
0.0204467951690456,0.364018402117941
0.0211995228136124,0.360049675814501
0.0219210850373686,0.356123617216884
0.0226120081878057,0.352240242842656
0.0232728169728563,0.348399567969164
0.0239040344906519,0.344601606607842
0.0245061822583798,0.340846371478994
0.0250797802402606,0.337133873987048
0.0256253468746669,0.333464124196269
0.0261433991004051,0.329837130806926
0.0266344523821775,0.326252901131902
0.0270990207352469,0.322711441073754
0.0275376167493222,0.31921275510219
0.0279507516116815,0.315756846231988
0.0283389351295544,0.312343716001322
0.0287026757517774,0.308973364450514
0.0290424805897441,0.305645790101178
0.029358855437663,0.30236098993578
0.0296523047921422,0.299118959377587
0.0299233318711168,0.295919692271005
0.0301724386321342,0.292763180862301
0.0304001257900133,0.289649415780708
0.0306068928338933,0.286578386019902
0.0307932380436865,0.283550078919842
0.0309596585059488,0.280564480148982
0.031106650129185,0.277621573686835
0.0312347076585992,0.274721341806892
0.0313443246903079,0.271863765059889
0.0314359936850252,0.269048822257421
0.0315102059812367,0.266276490455894
0.0315674518078735,0.263546744940807
0.0316082202964986,0.260859559211373
0.0316329994930194,0.258214904965462
0.0316422763689362,0.255612752084864
0.0316365368321423,0.253053068620874
0.0316162657372828,0.250535820780192
0.031581946895688,0.248060972911125
0.0315340630848894,0.245628487490106
0.0314730960577314,0.243238325108509
0.0313995265510878,0.240890444459764
0.031313834294196,0.238584802326763
0.0312164980166169,0.236321353569571
0.0311079954558331,0.234100051113404
0.0309888033644934,0.231920845936914
0.0308593975173152,0.229783687060736
0.0307202527176537,0.227688521536325
0.0305718428037477,0.225635294435062
0.0304146406546514,0.223623948837634
0.0302491181958617,0.221654425823677
0.0300757464046497,0.219726664461694
0.0298949953151058,0.217840601799223
0.0297073340229073,0.21599617285327
0.0295132306898169,0.214193310601002
0.0293131525479203,0.21243194597068
0.0291075659036127,0.21071200783286
0.0288969361413412,0.209033422991822
0.0286817277271117,0.207396116177257
0.0284624042117689,0.205800010036193
0.0282394282340565,0.204245025125155
0.028013261523466,0.202731079902562
0.0277843649028821,0.201258090721366
0.0275531982910318,0.199825971821909
0.0273202207047447,0.198434635325018
0.0270858902610329,0.19708399122532
0.0268506641789964,0.195773947384782
0.0266149987815631,0.194504409526472
0.0263793494970684,0.193275281228537
0.0261441708606839,0.192086463918396
0.0259099165156996,0.190937856867147
0.0256770392146698,0.189829357184185
0.0254459908204255,0.188760859812026
0.0252172223069647,0.187732257521337
0.0249911837602226,0.186743440906174
0.024768324378733,0.185794298379412
0.0245490924741829,0.184884716168385
0.0243339354718716,0.184014578310708
0.024123299911076,0.18318376665031
0.0239176314453325,0.182392160833642
0.0237173748426395,0.181639638306085
0.0235229739855876,0.180926074308543
0.0233348718714237,0.180251341874218
0.0231535106120555,0.179615311825568
0.0229793314340018,0.17901785277145
0.0228127746782955,0.178458831104431
0.0226542798003448,0.177938110998289
0.0225042853697599,0.177455554405672
0.0223632290701489,0.17701102105594
0.0222315476988908,0.176604368453169
0.0221096771668919,0.176235451874326
0.021998052498329,0.175904124367606
0.0218971078303881,0.175610236750932
0.0218072764130032,0.175353637610616
0.0217289906086001,0.175134173300173
0.0216626818918535,0.174951687939302
0.0216087808494608,0.174806023413005
0.0215677171799396,0.174697019370869
0.0215399196934545,0.174624513226491
0.021525816311679,0.174588340157053
0.0215258340676975,0.174588333103038
0.0215403991059549,0.174624322768091
0.0215699366822572,0.174696137619018
0.0216148711638313,0.174803603885922
0.0216756260294471,0.174946545562477
0.0217526238696103,0.175124784406333
0.0218462863868297,0.17533813993965
0.0219570343959653,0.175586429449765
0.0220852878246634,0.17586946798998
0.0222314657138839,0.176187068380477
0.0223959862185255,0.176539041209354
0.0225792666081554,0.176925194833776
0.022781723267848,0.177345335381248
0.0230037716991396,0.177799266751
0.0232458265211042,0.178286790615484
0.0235083014715562,0.178807706421975
0.0237916094083869,0.179361811394291
0.0240961623110391,0.179948900534602
0.0244223712821265,0.180568766625354
0.024770646549205,0.181221200231288
0.0251413974666987,0.181905989701549
0.0255350325179911,0.182622921171899
0.0259519593176826,0.183371778567018
0.0263925846140249,0.184152343602892
0.0268573142915353,0.184964395789289
0.0273465533737981,0.185807712432319
0.02786070602646,0.186682068637076
0.0284001755604245,0.187587237310355
0.0289653644352526,0.188522989163447
0.0295566742627756,0.189489092715007
0.0301745058109266,0.19048531429399
0.0308192590077973,0.191511418042656
0.0314913329459261,0.19256716591964
0.0321911258868253,0.193652317703078
0.0329190352657521,0.194766630993796
0.0336754576967326,0.195909861218558
0.034460788977843,0.197081761633355
0.0352754240967572,0.198282083326756
0.0361197572365663,0.199510575223292
0.036994181781877,0.200766984086898
0.0378990903251974,0.202051054524382
0.0388348746736159,0.203362528988937
0.039801925855781,0.204701147783683
0.0408006341291897,0.206066649065244
0.0418313889877917,0.207458768847344
0.0428945791699167,0.208877241004436
0.0439905926665337,0.210321797275338
0.045119816729848,0.211792167266901
0.0462826378822457,0.213288078457674
0.0474794419255931,0.214809256201585
0.0487106139508988,0.216355423731632
0.0499765383483471,0.217926302163568
0.0512775988177109,0.219521610499585
0.0526141783791531,0.221141065631995
0.0539866593844243,0.222784382346898
0.0553954235284664,0.224451273327838
0.0568408518614304,0.22614144915944
0.0583233248011184,0.227854618331023
0.0598432221458577,0.22959048724019
0.0614009230878172,0.231348760196383
0.0629968062267765,0.233129139424409
0.0646312495843552,0.234931325067919
0.0663046306187143,0.236755015192847
0.0680173262397392,0.238599905790804
0.0697697128247141,0.24046569078241
0.0715621662344988,0.242352062020577
0.0733950618302179,0.244258709293722
0.0752687744904747,0.246185320328916
0.0771836786290986,0.24813158079496
0.0791401482134391,0.250097174305384
0.081138556783218,0.252081782421358
0.0831792774699493,0.254085084654522
0.0852626830169417,0.256106758469716
0.0873891457998939,0.258146479287614
0.0895590378480955,0.260203920487252
0.091772730866247,0.262278753408447
0.0940305962569107,0.264370647354094
0.0963330051436073,0.266479269592351
0.0986803283945696,0.268604285358682
0.101072936647169,0.270745357857779
0.103511200333028,0.272902148265334
0.105995489703835,0.275074315729662
0.10852617485787,0.277261517373182
0.111103625767264,0.279463408293722
0.113728212306009,0.281679641565665
0.116400304278717,0.283909868240922
0.119120271450169,0.286153737349718
0.121888483575651,0.288410895901186
0.124705310432106,0.290680988883778
0.127571121850108,0.292963659265454
0.130486287746689,0.295258547993673
0.133451178159025,0.297565293995156
0.136466163279006,0.299883534175425
0.139531613488705,0.3022129034181
0.142647899396777,0.304553034583959
0.145815391875786,0.306903558509735
0.149034462100498,0.309264104006658
0.152305481587165,0.311634297858722
0.155628822233794,0.314013764820664
0.159004856361458,0.31640212761567
0.162433956756645,0.318799006932756
0.165916496714682,0.321204021423862
0.169452850084248,0.32361678770061
0.173043391313016,0.326036920330731
0.17668849549442,0.328464031834162
0.180388538415613,0.330897732678775
0.184143896606601,0.33333763127575
0.187954947390607,0.33578333397457
0.191822068935685,0.338234445057631
0.195745640307606,0.340690566734443
0.199726041524055,0.343151299135428
0.20376365361016,0.345616240305292
0.20785885865539,0.348084986195951
0.212012039871851,0.350557130659012
0.216223581654008,0.353032265437788
0.220493869639877,0.355509980158832
0.224823290773702,0.357989862322974
0.22921223337018,0.360471497295857
0.233661087180239,0.36295446829794
0.238170243458431,0.365438356393965
0.242740095031958,0.367922740481873
0.247371036371388,0.370407197281138
0.252063463663089,0.372891301320516
0.256817774883422,0.375374624925194
0.261634369874746,0.377856738203301
0.266513650423264,0.380337209031789
0.27145602033877,0.382815603041643
0.276461885536328,0.385291483602417
0.281531654119943,0.387764411806064
0.286665736468264,0.390233946450046
0.291864545322377,0.392699644019704
0.297128495875729,0.395161058669859
0.302458005866253,0.397617742205632
0.307853495670727,0.400069244062452
0.31331538840144,0.402515111285233
0.318844110005225,0.404954888506691
0.324440089364898,0.407388117924781
0.330103758403191,0.409814339279231
0.335835552189226,0.412233089827135
0.341635909047593,0.414643904317591
0.347505270670123,0.417046314965347
0.353444082230388,0.41943985142343
0.359452792501037,0.421824040754728
0.36553185397402,0.424198407402499
0.371681722983777,0.426562473159763
0.377902859833482,0.428915757137558
0.384195728924412,0.43125777573202
0.390560798888534,0.433588042590252
0.396998542724386,0.435906068574954
0.403509437936349,0.438211361727767
0.410093966677399,0.440503427231296
0.416752615895433,0.442781767369784
0.423485877483272,0.445045881488381
0.430294248432432,0.447295265950976
0.437178230990779,0.449529414096548
0.444138332824166,0.451747816193995
0.451175067182171,0.453949959395381
0.458288953068046,0.456135327687579
0.465480515412997,0.458303401842239
0.472750285254918,0.460453659364042
0.480098799921707,0.462585574437185
0.487526603219294,0.464698617870051
0.495034245624515,0.466792257037991
0.502622284482975,0.468865955824188
0.510291284212041,0.470919174558516
0.518041816509126,0.472951369954354
0.525874460565396,0.474961995043286
0.533789803285088,0.476950499107612
0.541788439510581,0.478916327610622
0.549870972253415,0.480858922124549
0.558038012931405,0.48277772025613
0.566290181612069,0.484672155569713
0.574628107262533,0.486541657507816
0.58305242800612,0.488385651309069
0.591563791385836,0.490203557923462
0.600162854634941,0.491994793924793
0.608850284954854,0.493758771420255
0.617626759800592,0.495494897957046
0.626492967173994,0.497202576425923
0.635449605924973,0.498881204961598
0.644497386061035,0.500530176839873
0.653637029065345,0.502148880371406
0.662869268223604,0.503736698792003
0.672194848960009,0.505293010149328
0.681614529182608,0.5068171871859
0.691129079638331,0.508308597218265
0.700739284278033,0.50976660201222
0.71044594063186,0.511190557653943
0.720249860195278,0.512579814416914
0.730151868826126,0.513933716624467
0.740152807153052,0.515251602507837
0.75025353099571,0.516532804059553
0.760454911797109,0.517776646882004
0.770757837068543,0.518982450031034
0.781163210847491,0.520149525854379
0.791671954168971,0.521277179824781
0.80228500555077,0.522364710367588
0.813003321493059,0.523411408682649
0.823827876992861,0.524416558560316
0.834759666073916,0.525379436191325
