0.139436837694863,0.0958101546440016
0.141139649787723,0.101075734366732
0.142671154481619,0.106453159446228
0.144026001395411,0.111936803359049
0.145199026489919,0.117520813727583
0.146185260978838,0.12319911853477
0.146979940031197,0.128965432675781
0.147578511252991,0.134813264839631
0.147976642935851,0.140735924713256
0.148170232060864,0.146726530500158
0.148155412045926,0.152778016745272
0.147928560225303,0.158883142457308
0.147486305050361,0.165034499519419
0.146825533000742,0.171224521378609
0.145943395195605,0.177445492003955
0.144837313694865,0.183689555103305
0.143504987480747,0.189948723587761
0.141944398110318,0.1962148892729
0.140153815030047,0.202479832805354
0.138131800543841,0.208735233803025
0.135877214426401,0.214972681196907
0.133389218174162,0.221183683762189
0.130667278886508,0.227359680826027
0.127711172770386,0.233492053139084
0.124520988261888,0.239572133897707
0.121097128758834,0.245591219903349
0.117440314958853,0.251540582845629
0.113551586797911,0.257411480695204
0.109432304984748,0.263195169192446
0.100509133446485,0.274465999429004
0.0957095770774227,0.279935745952074
0.0906881339502903,0.285283516109119
0.079991801477908,0.295578872315668
0.0743238210319156,0.30050951238663
0.068447768443743,0.305284307621753
0.0623678921339623,0.3098950193522
0.0560887537689957,0.314333523647648
0.0496152251932617,0.318591822895735
0.0429524849420542,0.322662057300343
0.0361060143372768,0.326536516283769
0.0290815931686835,0.330207649777905
0.0218852949638012,0.333668079389611
0.0145234818502298,0.336910609425563
0.00700279901453892,0.339928237761952
-0.000669831237508793,0.342714166544572
-0.00848721581415982,0.345261812704944
-0.0164418975585444,0.347564818278303
-0.0245261623509698,0.349617060509467
-0.0327320465858764,0.351412661732789
-0.0410513450162161,0.352945999012613
-0.0494756189575253,0.3542117135309
-0.0579962048434896,0.35520471970893
-0.0666042231243313,0.355920214050261
-0.0752905874988909,0.356353683692394
-0.09286103321889,0.356357999772252
-0.101725995770907,0.355921346299226
-0.110631087470471,0.355187683178557
-0.119566337725206,0.354154067959028
-0.128521631024857,0.352817893354064
-0.137486718217177,0.351176893430503
-0.146451228029212,0.349229149417884
-0.155404678821184,0.346973095128946
-0.16433649055988,0.344407521982465
-0.182092458046397,0.338344800108761
-0.190895072323112,0.334847061722479
-0.199632989868289,0.331038632294308
-0.208295325006957,0.326920152134148
-0.225349604895799,0.317757497652478
-0.233719717282609,0.312716506382842
-0.241970609067436,0.307371833184447
-0.250091413124491,0.301726028889214
-0.258071306082156,0.295782028870341
-0.26589952180423,0.289543152773459
-0.273565364896258,0.283013103778866
-0.295483049324957,0.261718675548948
-0.30239433554951,0.254068585246933
-0.315563971901229,0.237973478712998
-0.327797276622252,0.220860042089023
-0.339017873700672,0.202783194022133
-0.34915264336464,0.183803453457999
-0.353790982904355,0.173995394423301
-0.358132125597531,0.1639867439458
-0.36216802502593,0.153786550126413
-0.369293304518389,0.132849257381608
-0.372368021910241,0.122131761182143
-0.375108192769351,0.111261908804135
-0.379559026026758,0.0891073961309808
-0.381257592352747,0.077844509413713
-0.382597439617498,0.0664727922762677
-0.383573401679793,0.0550037259972095
-0.384180681589246,0.0434490091412244
-0.384271904048361,0.0201304325234203
-0.383748173705467,0.00839094740666071
-0.382840430555324,-0.0033854644088125
-0.377786897067723,-0.0388095692213044
-0.375318971773945,-0.0506063461270914
-0.369200532155123,-0.0741046941583799
-0.365549054044754,-0.085779861397956
-0.361502831969185,-0.097387985306003
-0.35706249526639,-0.108915731848082
-0.352229123181591,-0.120349741058421
-0.335388378891557,-0.15395567524035
-0.32223623671777,-0.17564623240709
-0.315092727246101,-0.186237729401502
-0.299692140473876,-0.206847616732559
-0.291444944972755,-0.216840091724939
-0.282840485509315,-0.22660718150505
-0.27388482308327,-0.236136257882199
-0.264584460861819,-0.245414852314391
-0.254946340089502,-0.254430671267676
-0.244977835468161,-0.263171611474759
-0.234686750009317,-0.271625775074664
-0.224081309361946,-0.279781484615372
-0.235173024149664,-0.293951316708763
-0.207850407916837,-0.343693412136586
-0.194700572942765,-0.285723948743801
-0.143734115766429,-0.306515948886811
-0.125676288839049,-0.335954924606069
-0.102835263403609,-0.342541303892157
-0.125289015333279,-0.328018891383908
-0.0758362250088323,-0.350484113888326
-0.0620715171497432,-0.353823683928243
-0.0481476070949521,-0.356732381460724
-0.00837956446919786,-0.323941027953692
0.00908426553335594,-0.401070447647835
-0.0417804831321727,-0.316136817718556
0.00886527756837742,-0.363930553761238
0.0192717958917487,-0.381924268089004
0.0169283123031052,-0.405918342126908
0.0672974511131487,-0.363776579876308
0.0668210839453564,-0.340728754180541
0.09556027551605,-0.340093571080678
0.138409626391639,-0.400495622765767
0.126189694766551,-0.356029980259469
0.108301579660912,-0.315927452506018
0.143913248941365,-0.393606838874718
0.198931231250289,-0.335508352797981
0.206094381831712,-0.311095857403434
0.32823146834452,-0.278100160420335
0.282101440243308,-0.257233440521976
0.328775320632955,-0.262778290839548
0.339412788236137,-0.212283517240158
0.367942310360482,-0.209069126968906
0.416303673821405,-0.265581548012943
0.3888557268196,-0.124403136218191
0.465461143464293,-0.10170657227627
0.500117200518041,-0.00262515204981577
0.5143715631745,0.00546097400217004
0.457161260171509,-0.0513620462093082
0.524989892282929,0.098377352879495
0.526422270118833,0.115752050327944
0.527303123671233,0.13322413792293
0.530027075466392,0.175753561477115
0.518007750694939,0.231774339747926
0.566622250652823,0.197169590105936
0.53829911329568,0.269548831535445
0.499655311074803,0.326702832154875
0.46555095106513,0.401746445233708
0.515998652742373,0.364510409487476
0.464319924833676,0.411239376618999
0.4462964975183,0.443675191409855
0.436472086357864,0.459524039358874
0.39635133203751,0.478587494469385
0.353226631500107,0.561913084235834
0.33937565084651,0.575111513531765
0.310311317069286,0.600272056193061
0.295122372395788,0.612202927727518
0.263495948086358,0.634690499150099
0.247086030890117,0.645218219531394
0.230297521484403,0.655249934360073
0.141217866133997,0.69751475229916
0.122489141663409,0.704304966741409
0.103496327622823,0.710515307818753
0.045115174792653,0.725570801947228
0.0252495717137804,0.729368214908066
-0.0149738737337693,0.735084979287243
-0.0352921723393267,0.736990984466678
-0.11746967479757,0.738139601277741
-0.179470737740832,0.73209600753771
-0.241151884930885,0.72007564440832
-0.261541128066274,0.714740418025696
-0.301933764392788,0.702086340138067
-0.341668603277936,0.686806793449111
-0.437008464013959,0.637365928052003
-0.455223058658014,0.625601746724822
-0.473105057396751,0.613230786971436
-0.524554841894195,0.572573759139307
-0.556828792066626,0.542623760955865
-0.629334638129314,0.458524265547381
-0.677786762709076,0.38272863537577
-0.716672206136125,0.300531675552117
-0.739043480389511,0.235410910978412
-0.750551603420025,0.190648820447021
-0.762514951801882,0.121914199107985
-0.764738127546348,-0.0427139673516927
-0.758611283893529,-0.0899955741343287
-0.754411502976438,-0.11355687066029
-0.743741473797198,-0.160398739449864
-0.722090560676184,-0.229594103091916
-0.693755625354524,-0.29692565551854
-0.65889745796286,-0.361745123850511
-0.645865360620383,-0.382683214961005
-0.553566875160122,-0.499696531837095
-0.53594893234964,-0.517557974680148
-0.418190752773184,-0.613010055507134
-0.374766085423769,-0.639912527954744
-0.258563518695707,-0.695138779209719
-0.209481071599242,-0.712112126161224
-0.159188145694216,-0.726009543947843
-0.1336479861373,-0.731777663439653
-0.0819040730886501,-0.740905129167413
-0.055750867396566,-0.744247777321434
0.183359813313887,-0.736672038990427
0.209851472651194,-0.73159124800467
0.390557326302701,-0.672429989577719
0.463980651168072,-0.634724382397626
0.511058959223681,-0.605632309296512
0.680051927789064,-0.459761767047732
0.698610306329521,-0.438459270321321
0.71652395707211,-0.416533164921593
0.795710908194028,-0.298255969143826
0.889087564589475,-0.0562105428225498
0.910568763541536,0.0888020941234754
0.912112573763914,0.118292722355618
