0.924435600316141,-0.341351137903022
0.921987033454889,-0.340441854491388
0.914879407531421,-0.337220529158154
0.903573552356937,-0.331007525734687
0.888654650424174,-0.321223571138666
0.870811221622963,-0.307411173031173
0.850810453949326,-0.289251707054061
0.829470758657856,-0.266577564502035
0.80763252709955,-0.239378927141542
0.786128130487061,-0.207804927173318
0.776991502104135,-0.200287153973639
0.737786736111123,-0.1429037920389
0.731208474008665,-0.0905737646603469
0.757488195073433,-0.0415053706154769
0.692968767846401,-0.0122002489462874
0.717295733549371,0.0632201492999227
0.685052283254446,0.0667255970632306
0.683149909821194,0.171121876831337
0.686037753314658,0.227801920731083
0.725270548562581,0.201105482024816
0.704523831942733,0.249315703464636
0.755225916045838,0.285098109642562
0.751144187829751,0.328748207030197
0.765180064124481,0.354262278041598
0.765457879309554,0.336169719045892
0.771712377544922,0.363700787713775
0.785392469400843,0.396395924747901
0.801040614776916,0.389292446173808
0.829800200009221,0.372992230586408
0.813161267820821,0.412799595274422
0.816883297437698,0.407985859553893
0.799199982559368,0.405899048551523
0.784772131898294,0.400531003562568
0.765315541220551,0.39497766295231
0.76275263627749,0.388088803698207
0.712074717817707,0.386534202592945
0.671779194013624,0.362984637784794
0.650575985332277,0.351494744711511
0.620129652801022,0.396357394275531
0.561527899479468,0.399103749194198
0.518758412286706,0.411026466918919
0.475593412820604,0.426808063745412
0.432891289087711,0.446349152922843
0.391479722573872,0.469394907420164
0.352126907470926,0.495543695184066
0.315514901244737,0.524260962910664
0.282216054643288,0.55489787444235
0.252673359594355,0.586714040601334
0.227185413942679,0.6189035315825
0.205896537593057,0.650623246137192
0.188792391211038,0.68102262784808
0.175701252716865,0.709273670811637
0.166300905366243,0.734600146717226
0.160130891415251,0.756305013008183
0.156609694329586,0.773795026544492
0.155056237021823,0.786601686653959
0.154714929931893,0.794397762117989
0.154783376376575,0.797008813837297
0.15444174798331,0.794419303065431
0.152882783560424,0.786773067841567
0.149341342557005,0.774368150736414
0.143122460121506,0.757646162108567
0.133626904114172,0.737176557594182
0.120373323365351,0.713636389594714
0.103016197833191,0.687786253640269
0.0813589507794441,0.660443285953591
0.0553617553295726,0.632452173499781
0.025143756680796,0.604655208542579
-0.00902036995638904,0.577862453721011
-0.0467094039297137,0.552823079700385
-0.0873697871422325,0.530198895679769
-0.130334550413242,0.510541014941644
-0.174846285147718,0.494270485988701
-0.220083343227329,0.481663578602609
-0.265188333094196,0.472842248407427
-0.309297898238761,0.467770119127465
-0.351572718636232,0.466254125260759
-0.391226667727999,0.467951756339704
-0.427554087598117,0.472383644495578
-0.459954211980496,0.478951046784848
-0.487951868264898,0.486957599446027
-0.511213722134449,0.495634569141644
-0.529559487148005,0.504168701716321
-0.542967700827935,0.511731676502412
-0.551575862246003,0.51751011702241
-0.555674926830311,0.520735089108258
-0.555698354998278,0.520710035687725
-0.552206105102264,0.516836153128248
-0.5458641411532,0.50863430509799
-0.537420185455535,0.49576269316018
-0.527676579959525,0.478029654371724
-0.517461223055137,0.455401129632736
-0.507597617031575,0.428002536253737
-0.498875093068788,0.396114977417392
-0.492020274285877,0.360165922819261
-0.487670793271744,0.320714691599433
-0.48635220023583,0.278433253716504
-0.48845888429976,0.234083032579174
-0.494239687549287,0.188488534105204
-0.503788724367837,0.14250874035428
-0.517041733227312,0.0970072854582923
-0.533778091117541,0.0528224749164505
-0.553628419166333,0.0107382148903685
-0.576087508916196,-0.0285431142724132
-0.600532109269329,-0.0644248752853005
-0.626242941034755,-0.0964366205219999
-0.652430155472366,-0.124250040801771
-0.678261330587928,-0.147689849333647
-0.702891008557073,-0.166739214119345
-0.725490722762658,-0.181539546208005
-0.745278445472988,-0.192384652145839
-0.761546407789827,-0.199709459615955
-0.773686301421387,-0.204073718474096
-0.781210965024328,-0.206141258276143
-0.783771782992429,-0.206655541593922
-0.781171177192906,-0.206412384294664
-0.773369746830668,-0.206230814821371
-0.76048780213692,-0.206923110765059
-0.742801237148734,-0.209265080306929
-0.72073188836515,-0.213967647385907
-0.694832722358527,-0.221650753025559
-0.66576837949863,-0.232820502786624
-0.634291766257678,-0.247850374733563
-0.60121752922169,-0.266967157730391
-0.567393354929357,-0.290242121459928
-0.533670117042458,-0.317587733287677
-0.500871933366533,-0.348760039598689
-0.469767198427025,-0.383366627554316
-0.441041622550809,-0.420879884526058
-0.415274236943491,-0.46065508383976
-0.392917218633188,-0.501952653620708
-0.374280253132068,-0.543963836586827
-0.359519991090462,-0.585838827895941
-0.348634973837434,-0.626716389912818
-0.341466207973928,-0.665753890163819
-0.337703368043036,-0.70215669366438
-0.336896405907504,-0.735205863773999
-0.338472152952248,-0.764283185937272
-0.341755323453053,-0.788892623964372
-0.345993170741407,-0.80867744549744
-0.35038291772875,-0.823432407479391
-0.354100984562183,-0.833110568299753
-0.356332972185036,-0.837824484577357
-0.356303333648246,-0.837841750441704
-0.353303676120967,-0.833575038576594
-0.346718685285859,-0.825566998020739
-0.336048748441045,-0.814470546811934
-0.32092847015345,-0.801025261495495
-0.301140420532975,-0.786030704457535
-0.276623625917809,-0.770317639042615
-0.247476498935573,-0.75471815759277
-0.213954102868981,-0.740035786224339
-0.176459846960322,-0.727016630963393
-0.135531907554932,-0.716322592761146
-0.0918248577512566,-0.708507605228572
-0.0460871588089499,-0.70399774128767
0.00086468610643782,-0.703075897167952
0.0481743964385598,-0.705871599185621
0.0949755915190287,-0.712356296332616
0.14042182481873,-0.722344306367485
0.183715906674076,-0.735499381794476
0.224137472324545,-0.75134666200829
0.261067814570693,-0.769289586094172
0.294011097749057,-0.788631164134516
0.322611198554884,-0.808598849672864
0.346663574938533,-0.828372127749645
0.3661217413135,-0.847111836216769
0.381098120341234,-0.863990176303443
0.391859241763518,-0.87822034384115
0.398815460009331,-0.889084726036336
0.402505557444528,-0.895960659724879
0.403576782211753,-0.898342833835807
0.402761032142295,-0.895861538242599
0.40084803342438,-0.888296109036286
0.398656469698946,-0.875583091251205
0.397004090215144,-0.85781882812385
0.396677862016216,-0.835256384372652
0.398405229548071,-0.808296912687942
0.402827505644209,-0.777475770435717
0.410476341945641,-0.743443880463285
0.42175411716523,-0.706944999196087
0.436918942106345,-0.668789700905093
0.456074815962282,-0.62982700391649
0.479167285008331,-0.590914648468067
0.505984758882444,-0.552889083901597
0.536165438208636,-0.516536233209281
0.569209607521207,-0.48256407525717
0.604496856411045,-0.451578020275512
0.641307616339069,-0.42405995473987
0.678848246893758,-0.400351701108875
0.71627877888068,-0.380643480686463
0.752742327021925,-0.364967789735063
0.787395125580541,-0.353198906223791
0.819436118026788,-0.345058044114514
0.848135047719341,-0.340123971006252
0.872858049921246,-0.337848710434009
0.89308983440794,-0.337577769077292
0.908451669286781,-0.338574168021955
0.918714526113424,-0.340045421772501
0.923806918638565,-0.34117250375298
