0.17860718272709,-0.0703153404041658
0.185284947156927,-0.0715042810362143
0.192044726930947,-0.0724784100864599
0.19887956917166,-0.0732337454573695
0.205782351705522,-0.0737665313728242
0.212745790467295,-0.0740732450852694
0.219762447158702,-0.0741506033395436
0.226824737153364,-0.0739955685840283
0.233924937639648,-0.0736053549200296
0.241055195992741,-0.0729774337805763
0.248207538366931,-0.0721095393301108
0.255373878498786,-0.0709996735768507
0.2625460267116,-0.0696461111899062
0.269715699111216,-0.0680474040135643
0.276874526963022,-0.0662023852714841
0.284014066239682,-0.0641101734538847
0.291125807328891,-0.0617701758811653
0.298201184890199,-0.0591820919377543
0.305231587849733,-0.0563459159703563
0.312208369521407,-0.0532619398451431
0.319122857843015,-0.0499307551588216
0.325966365715418,-0.0463532550989061
0.33273020143283,-0.0425306359489222
0.339405679192075,-0.0384643982346778
0.345984129668511,-0.0341563475081515
0.352456910646176,-0.0296085947659661
0.358815417689625,-0.0248235564998416
0.365051094844759,-0.0198039543768512
0.371155445355905,-0.014552814547736
0.377120042386298,-0.00907346658197578
0.382936539729053,-0.00336954202874798
0.388596682495679,0.00255502739664315
0.394092317769136,0.00869601200084333
0.399415405208425,0.0150488866745586
0.404558027591697,0.021608833827777
0.409512401284875,0.0283707466967311
0.414270886622814,0.0353292330207801
0.418825998190056,0.0424786190869427
0.423170414988315,0.0498129541393605
0.427296990477868,0.0573260151505286
0.431198762480154,0.0650113119506801
0.434868962928957,0.0728620927112742
0.438301027457682,0.0808713497780932
0.441488604810359,0.0890318258490196
0.444425566064179,0.0973360204911336
0.447106013651491,0.105776196991341
0.449524290169421,0.11434438953432
0.451674986965416,0.123032410701165
0.453552952487258,0.131831859281676
0.455153300386308,0.140734128392867
0.456471417362965,0.149730413895842
0.45750297074359,0.15881172310281
0.458243915778401,0.167968883765638
0.458690502650126,0.177192553336941
0.458839283183491,0.186473228494382
0.458687117245914,0.195801254918461
0.458231178830118,0.205166837313754
0.457468961809665,0.214560049663225
0.456398285358789,0.223970845704893
0.455017299028238,0.233389069619854
0.453324487469198,0.24280446692032
0.451318674797757,0.252206695526079
0.448999028592729,0.261585337017498
0.446365063520078,0.270929908052899
0.443416644577567,0.280229871937931
0.440153989953664,0.289474650334289
0.43657767349518,0.298653635094925
0.432688626778522,0.307756200212667
0.428488140779895,0.316771713869006
0.423977867140204,0.325689550569573
0.419159819020905,0.33449910335271
0.414036371547463,0.343189796057374
0.408610261837561,0.35175109563645
0.40288458861167,0.360172524501483
0.396862811384058,0.368443672884674
0.390548749232798,0.376554211203945
0.383946579147804,0.384493902416775
0.377060833956427,0.392252614348467
0.3698963998266,0.399820331980457
0.362458513348045,0.407187169684264
0.354752758192508,0.414343383386657
0.346785061354512,0.421279382651638
0.338561688974575,0.427985742664855
0.33008924174736,0.434453216106112
0.321374649917702,0.44067274489569
0.312425167867931,0.446635471800284
0.303248368300433,0.452332751884431
0.293852136019826,0.45775616379344
0.28424466131966,0.462897520853943
0.274434432978989,0.467748881978322
0.264430230874649,0.472302562359449
0.254241118215562,0.476551143942326
0.243876433405806,0.48048748565942
0.233345781543712,0.484104733416676
0.222659025564627,0.487396329817439
0.211826277035493,0.490356023611727
0.200857886609785,0.492977878858561
0.1897644341518,0.495256283789339
0.178556718539703,0.497185959360497
0.167245747157152,0.498761967484019
0.155842725083721,0.499979718924664
0.144359043994735,0.500834980853097
0.13280627078152,0.501323884044457
0.121196135903424,0.501442929712256
0.109540521483349,0.501188995967843
0.0978514491588531,0.50055934389607
0.0861410677012509,0.499551623238183
0.0744216404154311,0.498163877673354
0.0627055323334421,0.496394549690687
0.0510051972151844,0.49424248504396
0.0393331643698315,0.491706936781812
0.027702025311869,0.488787568846485
0.0161244202658987,0.485484459234751
0.0046130245345887,0.481798102715061
-0.0068194652556216,0.477729413095461
-0.0181603450162482,0.473279725037287
-0.0293969171509137,0.468450795410133
-0.0405165045867405,0.463244804184115
-0.0515064648676408,0.457664354855901
-0.0623542042940229,0.451712474405542
-0.0730471920932968,0.445392612781623
-0.083572974605461,0.438708641912768
-0.0939191894679593,0.431664854244075
-0.104073579783918,0.424265960797576
-0.11402400825782,0.416517088756341
-0.123758471282635,0.408423778572386
-0.133265112962402,0.399991980599082
-0.142532239054248,0.39122805124929
-0.151548330813864,0.382138748680991
-0.160302058728462,0.37273122801272
-0.16878229612132,0.363013036071635
-0.176978132612055,0.352992105677617
-0.184878887416878,0.342676749467308
-0.192474122473188,0.332075653262521
-0.199753655372965,0.321197868988027
-0.206707572089574,0.3100528071442
-0.213326239482768,0.298650228840552
-0.219600317566815,0.287000237396715
-0.225520771526903,0.275113269517917
-0.23107888346918,0.263000086052514
-0.236266263889982,0.250671762339661
-0.241074862850111,0.23813967815567
-0.245496980840222,0.225415507268109
-0.24952527932369,0.212511206607166
-0.253152790943632,0.19943900506427
-0.256372929381039,0.18621139192844
-0.259179498851322,0.172841104971258
-0.261566703226917,0.159341118191819
-0.263529154773948,0.145724629233435
-0.26506188249131,0.1320050464843
-0.266160340040942,0.118195975874712
-0.26682041325844,0.104311207383851
-0.267038427233591,0.0903647012695
-0.266811152950824,0.0763705740344626
-0.266135813480024,0.0623430841437671
-0.265010089708604,0.048296617507116
-0.263432125606194,0.0342456727413481
-0.261400533013793,0.0202048462279964
-0.258914395949701,0.00618881698131532
-0.255973274425054,-0.0077876686575564
-0.252577207762306,-0.0217098124843849
-0.248726717410494,-0.035562780037407
-0.244422809251676,-0.0493317163282765
-0.239666975393441,-0.0630017616817802
-0.234461195442955,-0.0765580676675154
-0.228807937258545,-0.0899858131065402
-0.222710157175382,-0.103270220135861
-0.216171299702387,-0.116396570313459
-0.209195296688057,-0.129350220746455
-0.201786565953471,-0.142116620224892
-0.193950009391325,-0.154681325343546
-0.185691010530421,-0.167030016594085
-0.177015431565613,-0.17914851440988
-0.167929609853815,-0.191022795145709
-0.158440353877243,-0.202639006974618
-0.148554938675677,-0.2139834856842
-0.1382811007501,-0.225042770354572
-0.127627032440664,-0.235803618900405
-0.116601375782526,-0.246253023459416
-0.105213215843693,-0.256378225609813
-0.0934720735495727,-0.266166731399322
-0.0813878979995385,-0.275606326168512
-0.0689710582813827,-0.284685089151322
-0.056232334790103,-0.293391407835837
-0.0431829100580478,-0.301713992068549
-0.0298343591040024,-0.309641887885555
-0.0161986393093595,-0.317164491054356
-0.00228807983007309,-0.324271560310179
0.0118846294463696,-0.330953230270986
0.0263064493891773,-0.337200024015635
0.0409640035473794,-0.343002865309942
0.0558435904970219,-0.348353090465715
0.0709311966011055,-0.353242459818168
0.0862125091704246,-0.357663168807465
0.101672930012993,-0.36160785865052
0.117297589359254,-0.365069626589562
0.133071360149819,-0.368042035704372
0.148978872672011,-0.370519124275525
0.16500452953107,-0.372495414686383
0.18113252094143,-0.373965921852061
0.197346840323096,-0.374926161164015
0.21363130018772,-0.375372155939424
0.229969548298609,-0.375300444364966
0.246345084088549,-0.374708085925155
0.262741275318952,-0.373592667305883
0.279141374963506,-0.371952307764341
0.295528538299213,-0.369785663957052
0.31188584018738,-0.367091934218282
0.328196292526848,-0.363870862281675
0.344442861861496,-0.360122740438495
0.360608487123805,-0.355848412126489
0.37667609749603,-0.351049273943934
0.392628630370346,-0.345727277084034
0.408449049389128,-0.339884928185477
0.424120362546358,-0.333525289595508
0.43962564033103,-0.326651979042564
0.454948033893254,-0.319269168716085
0.470070793213696,-0.311381583751779
0.48497728525688,-0.302994500121233
0.499651012088813,-0.294113741925423
0.514075628939375,-0.284745678092279
0.528234962189851,-0.27489721847915
0.542113027266018,-0.26457580938162
0.555694046417194,-0.253789428450787
0.568962466361721,-0.242546579021775
0.581902975779377,-0.230856283856865
0.594500522631344,-0.218728078307301
0.60674033128841,-0.206172002898461
0.618607919448268,-0.193198595343714
0.630089114822851,-0.179818881992937
0.641170071576888,-0.166044368722274
0.651837286498973,-0.151887031272387
0.66207761488673,-0.137359305043014
0.671878286127814,-0.122474074352322
0.681226918958787,-0.107244661170126
0.690111536384164,-0.091684813334627
0.698520580238212,-0.0758086922629649
0.706442925372391,-0.0596308601664249
0.713867893451676,-0.0431662667817304
0.720785266343333,-0.0264302356304178
0.727185299082087,-0.00943844981884667
0.733058732396029,0.00779306260807014
0.738396804777989,0.0252479437457763
0.743191264087545,0.0429095213274945
0.747434378669269,0.0607608246254976
0.751118947973276,0.0787846007410929
0.754238312664614,0.0969633312677035
0.75678636420852,0.115279249310957
0.758757553919085,0.13371435684926
0.760146901459385,0.152250442417892
0.760950002781676,0.170869099099255
0.761163037496797,0.189551742801492
0.760782775662508,0.208279630807338
0.759806583981032,0.227033880574687
0.758232431396714,0.245795488770006
0.75605889408526,0.264545350515434
0.753285159826663,0.283264278830073
0.749911031754557,0.301933024245692
0.745936931475331,0.320532294576822
0.741363901551044,0.339042774824951
0.73619360734077,0.357445147196313
0.730428338195717,0.375720111212579
0.7240710080041,0.393848403893537
0.717125155082434,0.411810819990728
0.709594941410609,0.429588232250849
0.701485151208759,0.447161611687618
0.692801188854687,0.464512047840697
0.68354907614124,0.481620769000221
0.673735448873775,0.498469162375407
0.66336755280854,0.515038794185696
0.652453238933488,0.531311429652902
0.64100095809378,0.547269052872831
0.629019754964884,0.562893886544883
0.616519261376944,0.578168411538242
0.60350968899474,0.593075386273314
0.590001821358293,0.607597865897212
0.576007005289864,0.621719221232195
0.561537141673771,0.635423157476162
0.546604675616163,0.648693732634454
0.531222585992565,0.661515375662428
0.515404374391665,0.673872904298506
0.499164053464544,0.685751542567635
0.482516134689133,0.697136937935377
0.465475615560426,0.708015178093132
0.448057966217557,0.718372807355316
0.430279115519519,0.728196842649668
0.412155436581941,0.737474789082177
0.393703731787927,0.746194655058549
0.37494121728659,0.7543449669445
0.35588550699351,0.761914783247591
0.336554596107906,0.768893708303757
0.316966844161887,0.775271905452153
0.297140957617726,0.781040109682394
0.277095972029596,0.786189639738803
0.256851233786757,0.790712409666734
0.236426381455693,0.794600939786643
0.215841326739161,0.79784836708207
0.195116235070619,0.80044845498829
0.174271505862932,0.802395602568965
0.153327752430701,0.803684853068734
0.132305781605972,0.80431190183028
0.111226573067488,0.804273103565045
0.0901112584040102,0.803565478967415
0.0689810999326159,0.802186720662821
0.0478574692931859,0.800135198480911
0.0267618258406378,0.797409964045581
0.00571569485674536,0.794010754674383
-0.0152593543963623,0.789937996580495
-0.0361417307586394,0.785192807371159
-0.0569098433679307,0.77977699783722
-0.0775421239463525,0.773693073029119
-0.0980170491542792,0.766944232615403
-0.118313162988804,0.759534370520608
-0.138409099203434,0.751468073840058
-0.158283603725628,0.742750621029916
-0.177915557048745,0.733387979371565
-0.19728399657489,0.723386801710156
-0.216368138885105,0.712754422467906
-0.235147401913368,0.701498852933542
-0.253601427000827,0.68962877582999
-0.271710100806812,0.677153539163219
-0.289453577053143,0.664083149355896
-0.306812298078423,0.650428263670279
-0.323767016179066,0.636200181925532
-0.34029881471396,0.621410837515412
-0.356389128949852,0.606072787733023
-0.372019766624704,0.5901992034101
-0.387172928206489,0.57380385787901
-0.401831226825142,0.556901115266427
-0.415977707855639,0.539505918128329
-0.429595868130456,0.521633774436736
-0.44266967475998,0.503300743929296
-0.455183583539769,0.484523423833532
-0.467122556923928,0.465318933978292
-0.478472081544228,0.445704901305579
-0.489218185255018,0.425699443796671
-0.499347453684386,0.405321153827058
-0.508847046272501,0.3845890809654
-0.517704711778486,0.363522714232332
-0.525908803237726,0.342141963835575
-0.533448292351978,0.320467142398395
-0.54031278329518,0.298518945699102
-0.546492525918463,0.276318432939745
-0.551978428338347,0.253887006562866
-0.556762068892784,0.231246391635563
-0.560835707450257,0.208418614820731
-0.564192296057778,0.18542598295585
-0.566825488914301,0.162291061260082
-0.568729651656674,0.139036651191032
-0.569899869945971,0.115685767972833
-0.570331957342704,0.092261617817771
-0.57002246246013,0.0687875748639225
-0.568968675385589,0.0452871578517825
-0.567168633360512,0.0217840065631206
-0.56462112571052,-0.00169814195432205
-0.561325698017751,-0.0251354773523825
-0.557282655528332,-0.0485041401141034
-0.552493065788685,-0.0717802458269656
-0.546958760505138,-0.0949399095730685
-0.540682336622102,-0.117959270411355
-0.533667156614867,-0.140814515926842
-0.525917347993897,-0.16348190682158
-0.517437802018276,-0.185937801522056
-0.508234171616825,-0.208158680777504
-0.498312868516172,-0.230121172223653
-0.487681059575936,-0.251802074886285
-0.476346662331982,-0.273178383598982
-0.464318339749512,-0.294227313309493
-0.451605494188664,-0.314926323249072
-0.438218260586001,-0.335253140939327
-0.424167498856232,-0.355185786011065
-0.409464785519212,-0.374702593809859
-0.394122404558189,-0.393782238763074
-0.378153337516015,-0.412403757483361
-0.361571252836894,-0.430546571583741
-0.344390494462051,-0.448190510179643
-0.32662606968847,-0.465315832053526
-0.308293636300699,-0.481903247457929
-0.289409488986481,-0.497933939533148
-0.269990545047739,-0.513389585316007
-0.250054329419253,-0.528252376316582
-0.229618959008092,-0.54250503864006
-0.20870312636761,-0.556130852631363
-0.187326082720624,-0.569113672020539
-0.165507620346981,-0.581437942547408
-0.143268054351593,-0.593088720044385
-0.120628203829587,-0.604051687956922
-0.0976093724459419,-0.61431317428152
-0.0742333284477157,-0.623860167901772
-0.0505222841274651,-0.632680334303515
-0.0264988747572742,-0.640762030650679
-0.00218613701324125,-0.648094320204105
0.0223925130889614,-0.654666986066132
0.0472133027264219,-0.660470544234504
0.0722521252475033,-0.665496255949701
0.097484563574368,-0.669736139320562
0.122885914006799,-0.673182980213733
0.148431210404112,-0.675830342393171
0.174095248721507,-0.677672576896718
0.199852611876727,-0.678704830637443
