0.464907267398464,-0.896371461319584
0.476753300632128,-0.88629252217464
0.487648419632481,-0.875083363739362
0.497550035990561,-0.862789706905556
0.506420348709993,-0.849462058342331
0.514226622195005,-0.835155374221879
0.520941434527031,-0.819928699235979
0.526542894366548,-0.803844783205973
0.531014825008093,-0.786969677721679
0.534346914317052,-0.769372315362093
0.536534829485702,-0.751124074152286
0.537580295761721,-0.73229832999581
0.537491138523683,-0.712969999889817
0.536281288303544,-0.693215078780489
0.53397074858442,-0.673110172949009
0.530585526431605,-0.652732032832967
0.526157526244426,-0.632157088184707
0.520724407144702,-0.61146098844679
0.514329404742843,-0.590718151185495
0.507021118243692,-0.570001321366471
0.498853264069581,-0.549381144182633
0.489884397386482,-0.52892575405357
0.480177603119297,-0.508700382308796
0.469800158232952,-0.488766985944697
0.458823167235897,-0.469183899707835
0.447321173030747,-0.450005513606239
0.43537174539204,-0.431281977786354
0.423055049492538,-0.413058936537489
0.410453397026187,-0.395377292998992
0.384732408058812,-0.361776919850536
0.371784197846651,-0.345914629113705
0.358892307846218,-0.330706377325993
0.333620303000034,-0.302305854913149
0.321409209317214,-0.289126908794228
0.309591499496451,-0.27662869906205
0.298247108665566,-0.264804451376322
0.287453290928458,-0.253642183713523
0.277284166863432,-0.243124852373887
0.267810287946909,-0.233230530851474
0.259098220538699,-0.223932620325052
0.251210151949999,-0.215200090328693
0.244203520984715,-0.206997747971397
0.238130675199487,-0.199286533895844
0.233038556968739,-0.192023842998733
0.228968420269197,-0.185163867780055
0.225955579914611,-0.178657962047061
0.2240291947771,-0.172455022571568
0.223212086327678,-0.166501886187248
0.224964465594153,-0.155124540044969
0.227546791451481,-0.149587441571139
0.236105714286251,-0.138530747506375
0.242055103495351,-0.132897342800197
0.249088661773922,-0.127119282685299
0.257176483611946,-0.121142182888344
0.276364139463435,-0.108382527342136
0.287373629211901,-0.101501590231198
0.299257190096824,-0.094225605084781
0.311955868752338,-0.0865128329893384
0.325405758192354,-0.0783251256242713
0.339538353907838,-0.0696282280019182
0.354280936350197,-0.0603920550868896
0.369556977526687,-0.0505909404681782
0.385286569289333,-0.0402038554353146
0.401386870769179,-0.0292145969981203
0.417772572293535,-0.0176119435871695
0.434356373026041,-0.00538977737766456
0.451049469488304,0.00745282760823661
0.467762052058199,0.0209115522478217
0.484403806493946,0.0349768143183299
0.500884417505116,0.0496337859324233
0.517114071381926,0.0648624463637334
0.533003954702605,0.0806376699919644
0.563417098634967,0.11370254921816
0.577772108560073,0.130917700850678
0.591451769989437,0.148530818495052
0.604379410521149,0.166493753552588
0.616482106624045,0.184754474819366
0.627691075902529,0.203257376417352
0.655337426940475,0.259616642788709
0.662378739435421,0.278472849180512
0.66825637094503,0.29725201560602
0.672933064931768,0.315884819093653
0.67637763545387,0.334301100535999
0.678565107305585,0.352430309727168
0.67947681910447,0.370201955762387
0.679100488817074,0.387546059952119
0.65791520371084,0.465496702783343
0.649908679778869,0.478891064273984
0.630338848512728,0.503032174262823
0.618854086698122,0.513682728277181
0.606297017178269,0.523329869230289
0.578176922804243,0.539472803967451
0.562729918749726,0.54591111014877
0.546441893166863,0.55123147746537
0.529379657963611,0.555419182655654
0.511612798429755,0.55846539905289
0.493213234427923,0.560367302405197
0.474254770256226,0.561128140490696
0.454812636003971,0.560757265958367
0.434963023267891,0.559270132051501
0.414782618124464,0.556688251099368
0.39434813426406,0.55303911589254
0.373735849184788,0.548356084286679
0.332278065914153,0.536050143651669
0.290993606284456,0.520147956006215
0.270589727045161,0.510988523479145
0.230580537483031,0.490573464796957
0.192024484598512,0.467836875539056
0.173421974691503,0.455788023707552
0.137790159700917,0.430732475360365
0.120835234247614,0.417892896655823
0.104495405079218,0.404958990323349
0.0887949369688859,0.392016784855407
0.114283064962526,0.342818217039479
0.0426271157540879,0.330456475934066
0.0456914871017681,0.353999312032786
0.0525953729623581,0.292977644671083
0.019005212138937,0.313000870977279
0.00869676342710238,0.318958288729058
-0.0284987499864052,0.275173670522643
-0.0672261371591631,0.286778899643356
-0.0427298959993568,0.22902577533479
-0.0511124249570506,0.218819050566126
-0.101940058220132,0.233735521620787
-0.0772947656464781,0.221364426334597
-0.0761747722489134,0.248835330465061
-0.0750770047193086,0.263998368965469
-0.088209400238322,0.246647395587316
-0.0706211765284444,0.269952032143774
-0.0940129304406825,0.252126861838439
-0.110561282841785,0.255833728642083
-0.156411868754043,0.250809026203857
-0.0985343825802113,0.229190593504807
-0.133645044310512,0.282823266530646
-0.151769299567923,0.335898033903251
-0.11386545662473,0.313451531109285
-0.153534322438624,0.313728993315559
-0.168743802760248,0.338714718365479
-0.184409269712683,0.341675569094524
-0.185884819202989,0.366633943798808
-0.252489708801848,0.385903726586208
-0.198761636553726,0.363355397068339
-0.234368139293904,0.41778639080058
-0.201255328253259,0.415513601685078
-0.251018427482416,0.461987098530236
-0.252206368128437,0.507569270226425
-0.306643891197179,0.528433051411839
-0.32201174493501,0.544586038962223
-0.295095744761009,0.598567611574324
-0.360201046787959,0.620346171968762
-0.354093799190358,0.563031450100509
-0.405844056742825,0.604043581429515
-0.498720567708393,0.672782721940424
-0.566218873886595,0.725579683953238
-0.536433193716805,0.687423002977688
-0.548430961338307,0.70954079871507
-0.530015265923672,0.692201719618158
-0.620070675093133,0.69014105555795
-0.602902468226643,0.673492220272498
-0.645062808315473,0.702268523427048
-0.657438963739385,0.682174577595144
-0.677907589827064,0.696988464904226
-0.672303826813127,0.646912110772173
-0.753432471281493,0.675311309693111
-0.735362045110466,0.671182758309185
-0.77883611701895,0.626460359090912
-0.794441805117363,0.597861758018184
-0.800602324375619,0.582198402751408
-0.805640678275192,0.565710445435492
-0.813919866821345,0.511987300437409
-0.814396661277693,0.49290082039994
-0.81374503548153,0.473349646258491
-0.805219496816602,0.412672971450107
-0.79436407084853,0.37129938325746
-0.787506025513466,0.350560577997508
-0.779760931310065,0.329883391344436
-0.761838974455776,0.288988924723765
-0.741101866895114,0.249136720724882
-0.693504471049153,0.174356636682137
-0.680791751548138,0.15695949259895
-0.667920550221998,0.140155775820478
-0.654976491271018,0.123973720579889
-0.642045676501719,0.108436256264284
-0.629214192262923,0.0935609243355105
-0.616567614533901,0.079359830916241
-0.604190515132419,0.065839635226729
-0.580575086570418,0.0408415204239975
-0.569496510948489,0.0293500806701618
-0.559005988051812,0.0185127213761851
-0.549175907192702,0.00830993307266702
-0.524313105851546,-0.0187564379813051
-0.512179154303322,-0.0341895227775151
-0.50157484764908,-0.0542695372156748
-0.505983854419234,-0.0829596350260286
-0.515663112184234,-0.0940627673788895
-0.522157925538885,-0.0997616077584011
-0.538324522147822,-0.111728969704844
-0.547924002411051,-0.118102639790505
-0.638577038749762,-0.174227897069276
-0.654090037726045,-0.184319665880129
-0.670015504803712,-0.195006120317434
-0.719414698630743,-0.230745554806188
-0.752817277335947,-0.25766060825715
-0.76938972987084,-0.272023904789335
-0.801826826578458,-0.302474942330324
-0.832731065379961,-0.335049563682706
-0.861421076925698,-0.369468866691864
-0.89892227799707,-0.423770697040738
-0.942185328193894,-0.517667808220207
-0.954349667942328,-0.573197439445279
-0.949221499426311,-0.658377948216339
-0.922173925455925,-0.715058241850512
-0.889426312499237,-0.74842556548091
-0.876352177548924,-0.757556975416987
-0.862284870197583,-0.765632041034599
-0.847282448115306,-0.77262199040909
-0.779207374504953,-0.789350767660806
-0.760519034939324,-0.790681351188872
-0.557484735305337,-0.745453974293643
-0.517183910159712,-0.725709207193594
-0.459381847054044,-0.691652346279663
-0.441029658567892,-0.679419826753148
-0.343202728902698,-0.602567685286799
-0.291162099904694,-0.554290198691663
-0.279835740169464,-0.54335165888999
-0.240796277596009,-0.506357334486476
-0.217264123421218,-0.487472928487299
-0.197444433349005,-0.477663218971336
-0.185632246891693,-0.476592934693777
-0.157781301242049,-0.493720728307676
-0.103882723224552,-0.575232172031251
-0.0953161109981533,-0.589200750757085
-0.0862173397118872,-0.603797869411034
-0.0765596165777266,-0.618947912764106
-0.0663207345969445,-0.634571776463357
-0.0554832684702207,-0.650587309925228
0.156700156922534,-0.86679324792373
0.231434359383103,-0.906655844687683
0.287779963417796,-0.925133930935651
0.393198470735649,-0.928584138300425
0.409015485421131,-0.924654613814635
