-0.151985492483406,-0.999862258953168
-0.146503673166491,-0.988612522483924
-0.116456442598284,-0.957235649835032
-0.046109165434089,-0.909019822499231
0.0710434933446294,-0.846415156007656
0.230310167312334,-0.770697722759697
0.317177814854594,-0.774386874530338
0.605866315098233,-0.579678653971731
0.772635118425521,-0.462972464875537
0.892514197384306,-0.331722359167936
0.948608264831578,-0.187053240857429
0.934699777137873,-0.0318090575353719
0.856460729437176,0.129356321283974
0.730145180429694,0.29027217026291
0.672885953534699,0.549154255320529
0.428522206607619,0.583090206364905
0.300593349244733,0.701662129713517
0.101882810387033,0.691235700598886
0.158566025109123,0.860559027777187
0.140545084394196,0.898085457424523
0.0323602947514992,0.789816867189719
0.132769090634207,0.896858682260176
0.101017263163793,0.864566574268233
0.0283951825853948,0.815582089675988
-0.0910697321514283,0.752301740701214
-0.25211854258552,0.675940529704512
-0.438895336917087,0.586578766490278
-0.627939967800412,0.483556443363331
-0.697133658432371,0.481659390573414
-0.909908389004719,0.234157783738864
-0.962551907198726,0.0888770547508031
-0.945194783728616,-0.0667881426054029
-0.864089786360607,-0.228098003568388
-0.735943130654972,-0.388820117284415
-0.584281055486854,-0.541874510542691
-0.434408641193888,-0.680188519508582
-0.308062410762472,-0.79759144619537
-0.123024373376541,-0.792420923312006
-0.169965925122244,-0.953728503448084
-0.153216859451466,-0.989881620318023
