0.988765130269165,-0.0246171831104729
0.970722895973532,-0.0293208823460493
0.973562190140148,-0.0448272844515167
0.947562866761942,-0.0733722918827834
0.965083951045361,-0.0422215883009375
0.963436476780398,-0.0355222416851198
0.955881036487323,-0.0152132666661341
0.928518405119753,-0.0676809350158341
0.933722774067977,-0.0272759829660255
0.923466684559018,-0.0209421530853628
0.884330830746734,0.0186504108794977
0.873942207547097,-0.00049015733108565
0.888884566631725,0.00535676087812109
0.853847588097448,0.0648917025851559
0.834838980557478,0.0103327128432027
0.880484613074426,0.0515887548533817
0.861490007649896,0.0724693568422943
0.826929407244419,0.0746248197941142
0.821182969707654,0.0889839788467344
0.803890204794338,0.110671044468256
0.839864365044736,0.126113545311911
0.783356977699355,0.150659193156117
0.741090845506701,0.178245359522759
0.740952298665484,0.19083985379804
0.763402975988092,0.204515215728485
0.734735805821611,0.244066642179665
0.745945960917259,0.287254999033483
0.743900643578149,0.285235483694003
0.730398265103055,0.263973621396721
0.737701464574568,0.331809949398669
0.707618032643114,0.337447354636402
0.709296705546353,0.374219795870297
0.756636517817795,0.369070433847309
0.748472823039003,0.430196519078988
0.765048653437605,0.476902059913265
0.757211747370186,0.430604890242576
0.755283218461889,0.47565817462394
0.757278386714234,0.463341713522648
0.766293733101501,0.508069896947196
0.772071017380101,0.551784655393688
0.778234831196202,0.521104872829907
0.756569504809839,0.524939142005357
0.799243775858053,0.569202260372907
0.79674202417391,0.565919373583273
0.775944090732581,0.581533781055613
0.807165816527318,0.57944622381084
0.829529623482143,0.593671711689527
0.808770608268062,0.590481573107246
0.799650145494535,0.602576407940539
0.819082703533381,0.591513266042847
0.832546307114392,0.581923277942071
0.818754382000505,0.591332680359617
0.808359192340825,0.580329382505715
0.83337651406384,0.579466719002751
0.801715615307833,0.602325863304081
0.812347203821984,0.56207479600055
0.79620683998822,0.578765821440998
0.785570243484486,0.577084266496657
0.77072528423741,0.553609648593179
0.75079974252728,0.571784461074241
0.777126601701255,0.582382768511219
0.735378297829053,0.567070826169194
0.719639284691148,0.565734974850646
0.700544680837129,0.59181661699878
0.692946146565143,0.535541991499726
0.666119121878326,0.566348661725494
0.646548593875215,0.568395020782373
0.626321240363944,0.57148116215525
0.572031856679777,0.60109534448464
0.580180919481164,0.572565579872766
0.575201805097549,0.597987733380706
0.541624331732768,0.595002951032666
0.534537547881851,0.617297825831781
0.495093682581713,0.620545232855113
0.501440783343421,0.626400066848631
0.429533758174075,0.638252010212816
0.417673522871914,0.649029900932424
0.418905908558755,0.663009291246287
0.385186825363991,0.670955442442388
0.364227709412856,0.708446640707012
0.369206037550617,0.743247886838615
0.351833164944409,0.72434052784624
0.337762104634632,0.740677602039924
0.324878941981025,0.757148010748856
0.340606047099927,0.741241701642874
0.302773687632376,0.789917858831309
0.292828013264567,0.798110749056263
0.257933387521607,0.817865059613746
0.277460772079227,0.819126574756968
0.25645347519126,0.837101462717118
0.262705638580725,0.86265034939636
0.255738762932729,0.879251387828041
0.261914446151373,0.888072300889838
0.259928929491088,0.898299940009953
0.232173385320416,0.908031168144166
0.257876338596562,0.914903630080502
0.27434745559916,0.875626759476707
0.248755189212554,0.931579915002982
0.242156835435999,0.925233012775012
0.256458777477923,0.914209210093228
0.240366669063309,0.921024716531423
0.265745084562307,0.895143453494431
0.247461449025047,0.903999539487263
0.251840956131609,0.914793445093696
0.226178278076329,0.910321258967119
0.251594520094064,0.912261742481655
0.273779662501877,0.876751225453729
0.243734082210023,0.895944150955526
0.237398064344786,0.923438785904489
0.218281774165546,0.869680529504533
0.195188685344832,0.8796272198984
0.241705263603042,0.84946919024261
0.21477866389113,0.816314492613872
0.213151619633235,0.842866731535869
0.179824059340975,0.81598486056446
0.179831945105213,0.810401775821393
0.15018810386184,0.791103779629424
0.11958896332787,0.841882048181696
0.118512430771181,0.75334347298662
0.103698993183717,0.730864248409685
0.101076653159494,0.746334417574316
0.0463188265580804,0.734872835298604
0.0580989762110627,0.673779571864694
0.0196882369460943,0.704212900049244
-0.0193828322568055,0.716246139750522
-0.0322840459501101,0.706579003813772
-0.0859754222662539,0.720000267614187
-0.0789931576241385,0.689981078137919
-0.121742330527423,0.687445585823578
-0.141777396308253,0.702881005208192
-0.140679901650615,0.671091452103481
-0.146432872241927,0.711691294425277
-0.181762494615815,0.682061617617068
-0.188256265192654,0.705170357453883
-0.251159914654995,0.70182894182231
-0.258032345139871,0.697283124165663
-0.266847162616914,0.709134001503124
-0.250610528202574,0.759642687424895
-0.245108731202807,0.760670605057788
-0.312579281227406,0.715362544951285
-0.325904125273786,0.735163179050783
-0.318348088360333,0.725747572101029
-0.346994355537271,0.747451124487116
-0.35689473191474,0.772522848130581
-0.36255348105304,0.758592866888082
-0.344744536652192,0.7702105717676
-0.374673865078176,0.782923815627692
-0.357378986133382,0.754492639312946
-0.378172404237981,0.773094113099644
-0.379238255199159,0.774383484371736
-0.379354055973842,0.774529192474765
-0.3786317524718,0.773446445445068
-0.376945373895443,0.731906516718567
-0.378058297010863,0.778604096970152
-0.346143481384534,0.729795742687167
-0.4061077517448,0.765682502802107
-0.366900414881398,0.747602828389445
-0.364243541661063,0.736777064650636
-0.373001769241458,0.721337898317346
-0.358311342608809,0.715050874845065
-0.365847241503439,0.692043983571281
-0.353078265477226,0.665253624028803
-0.34395192654885,0.695497905248513
-0.352619112553429,0.653484904951325
-0.353009620351499,0.635370002384455
-0.352785816391817,0.607152766610159
-0.358085221842591,0.625032898444921
-0.342469732117068,0.569478288070716
-0.379584884276951,0.538210763260747
-0.370014827073706,0.534201677780541
-0.378378136006398,0.483070121389719
-0.376154636415261,0.492198356868892
-0.396648800568349,0.468641472393083
-0.432151787341476,0.477450592671055
-0.414938937842153,0.428093055464344
-0.418903563388972,0.420920510444374
-0.449121931102631,0.359421799341265
-0.439421147878011,0.362477217624872
-0.452548328150848,0.352773872457171
-0.452239647820019,0.380238915010659
-0.491818251647409,0.296634582605758
-0.515956388483387,0.303288230695358
-0.53233996403482,0.289510649417481
-0.516510514622228,0.276671753084503
-0.563683947007665,0.275678538476461
-0.588059682237789,0.231067530281866
-0.608882788408399,0.236430132280092
-0.583258607809828,0.268292614157622
-0.627683183308201,0.232272925378565
-0.678205486898027,0.232897429879347
-0.654965273439113,0.222436009537004
-0.670482308611251,0.204413989467654
-0.700497402069852,0.236246957344135
-0.691098966496552,0.184521762033412
-0.704026137091584,0.200464702115706
-0.688947612174565,0.204032046273816
-0.721775147637607,0.196945180640485
-0.675787394700696,0.21101696523469
-0.756065204856662,0.208156520262888
-0.713921370257658,0.229517973605455
-0.718917157109592,0.212958643611074
-0.733394659631947,0.251803024067894
-0.741730159446223,0.19546547328258
-0.741143238602721,0.205211565465654
-0.719696695689255,0.205188632185741
-0.698010112222195,0.205902986580745
-0.691182420719189,0.202089871487533
-0.680785590777933,0.212831531837398
-0.656465946540955,0.241901982530346
-0.670235322825913,0.1969032027523
-0.651010474244503,0.175740701793117
-0.637579760522779,0.167345898297691
-0.648111460733208,0.156219518149303
-0.606757801292279,0.098765539085777
-0.613156345516271,0.110001309495799
-0.587909713561943,0.116963528724169
-0.54950888018232,0.0606861771493645
-0.538337444691242,0.0933616197239096
-0.595939590394915,0.0652698586554364
-0.533650528782863,0.0499055243057256
-0.505028330454723,0.0285486694274339
-0.505372181526421,0.00373835533210521
-0.488442342192791,-0.0409029026583853
-0.49133952371576,-0.0339448806473217
-0.50735124251005,-0.0885249385855091
-0.499709169009925,-0.0178559593599056
-0.500059066233811,-0.1024101409557
-0.488175955227081,-0.124224563940718
-0.484013701583979,-0.154632694724827
-0.481619322028771,-0.175203120586404
-0.454110349723895,-0.185645176720239
-0.482549846173599,-0.21954163981145
-0.486466033025958,-0.23308768963491
-0.486820350806606,-0.235948795501395
-0.513127678135924,-0.264295295371183
-0.49303736861023,-0.316342903315495
-0.517880737957204,-0.337386444966633
-0.489816141071617,-0.334983220653922
-0.523283475167465,-0.359069790268739
-0.51804255951159,-0.361486675979691
-0.524274903079069,-0.373761989588374
-0.530468470900484,-0.384655166757263
-0.53648141431733,-0.394157659850284
-0.557175338366549,-0.395261496336986
-0.540733698813494,-0.444704852302936
-0.552032201218161,-0.41447189474695
-0.580318340265822,-0.389552318920423
-0.583939330339354,-0.438953824859743
-0.561070323776747,-0.423451613639887
-0.560303398681737,-0.415901432733789
-0.559819075369926,-0.376384157660285
-0.560526865159157,-0.423252135288901
-0.557504627231881,-0.433942869302605
-0.553722094351705,-0.419497659179802
-0.560352512949197,-0.396803107271682
-0.541296873898566,-0.414062775177172
-0.532927277686914,-0.411062828087917
-0.565548321572357,-0.429399796353881
-0.511913221061665,-0.405201486902435
-0.492647950883441,-0.409527271198557
-0.46907471337114,-0.395935928200981
-0.47028837792245,-0.398791383443846
-0.45397778211124,-0.39779408589103
-0.453541498370196,-0.426365634437231
-0.425204494071073,-0.372551592661354
-0.385933062340844,-0.383378911682888
-0.379142488224409,-0.402274310846313
-0.374528863886686,-0.390861513265536
-0.352201398445369,-0.426048648058241
-0.328938267095476,-0.428327629010758
-0.294987992399448,-0.423530910063559
-0.27354206407549,-0.431699132775104
-0.249634154839081,-0.427923249371425
-0.231173035968027,-0.451380212204078
-0.210529250996238,-0.462808250399646
-0.190423061520737,-0.475213494019824
-0.170978090638462,-0.488517719977467
-0.159170775269583,-0.531732207062996
-0.0918612504164081,-0.523328239375557
-0.120633229250728,-0.551251973000076
-0.0915958175066517,-0.548196901543676
-0.0683786401773535,-0.563862128821918
-0.0738037274523314,-0.581374647683881
-0.0686146000563188,-0.597867435725798
-0.0628172479804398,-0.627671121435755
-0.0477586740197799,-0.654884724282271
-0.0489850629186996,-0.645151154667165
-0.0111743802010676,-0.672890128994664
-0.0267595678350838,-0.677913771911858
-0.0131914064430062,-0.690066442244487
-0.028578879086145,-0.724661703592812
-0.00103957870070982,-0.718256449101673
0.0307055473695101,-0.737020635541334
0.00784668742202465,-0.736140859866591
-0.000821398926336148,-0.743726469861192
-0.0192689056409712,-0.750735515506511
-0.0581682487347841,-0.770074397341251
-0.0247928110911097,-0.742968879549145
-0.000411540658587284,-0.762863553963192
-0.00392160002466831,-0.775496528044978
0.0602375771716915,-0.768080221089251
-0.00647382494667977,-0.736212180201951
-0.00908212609433203,-0.789870713369648
0.00317214222656826,-0.767228680778677
0.00438804900937766,-0.748119927040722
0.00798057017076684,-0.71292376149805
-0.00318743324690088,-0.732020828833841
0.0292962215498234,-0.730457597612388
0.0222833835541527,-0.713655557178352
0.0342772894713762,-0.719874673100132
0.0379437754907207,-0.691404687250019
0.0476483289600341,-0.679477862954028
0.0586377840356757,-0.667203723385275
0.070919126052184,-0.654725410651863
0.0797081118731295,-0.666122251202354
0.09930652800245,-0.629728438078399
0.126589083812583,-0.594664654237722
0.154398750059323,-0.609833213337004
0.167590090812722,-0.610609214255154
0.17016326416898,-0.583400895568379
0.13712690470556,-0.57869580570924
0.211424975007842,-0.564026316400722
0.241516849962382,-0.564273929900014
0.255869973090415,-0.551237515933264
0.280356304172327,-0.564279131699404
0.29492669768673,-0.543910857083064
0.317269963664728,-0.519659210071606
0.347527543472997,-0.529246186220404
0.370558473145437,-0.527283814613181
0.393302705516461,-0.526424238098016
0.41824678059187,-0.527829699817056
0.420279697778608,-0.493684771928036
0.426974598086277,-0.548454662853947
0.467897926674779,-0.549625675131672
0.497936640563907,-0.537021552245599
0.548718088970195,-0.538795179122946
0.526462599812465,-0.556222384981735
0.546411506410947,-0.550083599257766
0.563835438690474,-0.558345327247498
0.58984415478726,-0.567130896378941
0.608193014154451,-0.566479188318311
0.567887852731925,-0.582073447516245
0.608764742160676,-0.582857734015337
0.594798064951229,-0.59856665376071
0.622964861605867,-0.593537997555424
0.663009130721053,-0.598424936874291
0.639060636011186,-0.603537317939719
0.626948619983896,-0.618529650421031
0.630999048316712,-0.603748775997153
0.642687298049212,-0.594089114391722
0.636456486159647,-0.606615855168496
0.648715466998705,-0.602357368428808
0.633609330285547,-0.601835723257819
0.623311296823917,-0.589980307952642
0.640920995302156,-0.567455250826382
0.625768773802835,-0.584257430800053
0.622755545520434,-0.57552827708535
0.611657541099598,-0.565351018428947
0.589192283265072,-0.566408706077476
0.614476526122817,-0.540895859593267
0.612419754360914,-0.526679225229708
0.591473433829596,-0.514424065417649
0.637921310016813,-0.486788550479663
0.610071026712801,-0.477014219249616
0.599111849496976,-0.442657394679006
0.618566559346076,-0.422515887952843
0.615527073559168,-0.418984077158656
0.619426886294965,-0.398352942160875
0.610199808184134,-0.387474183318665
0.619377121462062,-0.34306840117051
0.635935418622211,-0.341976255343158
0.646366551120956,-0.313112748719676
0.640941866981471,-0.29752103056452
0.63836181132642,-0.267695623333585
0.678269023794446,-0.250365262140898
0.685383804691209,-0.228913867240832
0.720966439288151,-0.211062969214934
0.712276160286805,-0.193655900714254
0.733696927957515,-0.175138234026748
0.751544502916395,-0.173168586009777
0.78514854770117,-0.142377797104976
0.781493272945501,-0.128721700159854
0.797943572532546,-0.115538307769564
0.814420755648871,-0.10356546534277
0.830780958702488,-0.0928197088849819
0.83844756211816,-0.0688383569708429
0.871931872775055,-0.0454264655007672
0.876066815731329,-0.0844741397615265
0.892189603590377,-0.0618883611582751
0.905845913122783,-0.0569791517137719
0.918569158595911,-0.0530726355684894
0.930246534512785,-0.0500820395294073
0.940775812559129,-0.047908833360387
0.950066572716919,-0.0464439592405087
0.965995810141353,-0.0480954655730446
0.947954113154215,-0.0157033103275551
0.982933066293185,-0.0359238467950718
0.999925778958982,-0.0581120578476303
0.981176215534552,-0.0375381536954758
0.942256102659226,-0.0615261427134914
