-0.0811893116491174,0.0489426819672379
-0.0790927607325428,0.0436333357237335
-0.0767887204119302,0.0383483714186654
-0.0742766878123688,0.0330956344394158
-0.0715564497206551,0.0278830247137276
-0.0686280854793988,0.0227184862061811
-0.0654919695056144,0.0176099962878435
-0.0621487734287252,0.0125655549923609
-0.0585994678433682,0.00759317417195882
-0.0548453236728647,0.00270086656699298
-0.0508879131396954,-0.00210336519715107
-0.0467291103398058,-0.00681153967186318
-0.0423710914180544,-0.0114157076917494
-0.0378163343426148,-0.0159079635115282
-0.0330676182766349,-0.0202804559591101
-0.0281280225459654,-0.0245253995905136
-0.0230009252022692,-0.0286350858322144
-0.0176900011813333,-0.0326018940964818
-0.0121992200569136,-0.0364183028552387
-0.006532843390953,-0.0400769006579738
-0.000695421681524061,-0.043570397079249
0.00530820908964182,-0.0468916335813778
0.0114729313076665,-0.0500335942778977
0.0177933499701981,-0.0529894165835279
0.0242637973248562,-0.055752401736388
0.0308783378945587,-0.0583160251783563
0.0376307738863363,-0.0606739467795663
0.0445146509787446,-0.0628200208931771
0.0515232644824909,-0.0647483062267114
0.0586496658684033,-0.0664530755164221
0.0658866696563898,-0.0679288249913451
0.0732268606585561,-0.0691702836138961
0.0806626015691844,-0.0701724220840965
0.08818604089381,-0.0709304615947525
0.0957891212091814,-0.0714398823251672
0.103463587745442,-0.0716964316612381
0.111200997281436,-0.0716961321300803
0.118992727343615,-0.0714352890376196
0.126829985698597,-0.0709104977979175
0.134703820129042,-0.0701186509433237
0.142605128482091,-0.0690569448048999
0.150524668979242,-0.0677228858529195
0.158453070776179,-0.0661142966876248
0.166380844760677,-0.0642293216708096
0.174298394576404,-0.0620664321891996
0.182196027860067,-0.059624431541014
0.190063967679072,-0.0569024594375193
0.197892364156525,-0.053899996111823
0.205671306270144,-0.050616866027603
0.213390833811363,-0.0470532411809267
0.221040949490651,-0.0432096439887838
0.228611631174844,-0.0390869497584322
0.236092844242028,-0.0346863887321465
0.24347455403935,-0.0300095477024503
0.250746738428896,-0.0250583711934194
0.257899400406627,-0.0198351622041498
0.264922580779208,-0.0143425825110061
0.271806370883402,-0.00858365252578058
0.278540925332614,-0.00256175070743017
0.285116474775033,0.00371938747441566
0.291523338647748,0.0102556710254426
0.297751937911169,0.0170426553628618
0.303792807747989,0.0240755447020262
0.309636610210935,0.0313491948930924
0.315274146803531,0.0388581167068161
0.32069637097809,0.0465964795680265
0.325894400535211,0.0545581157347721
0.330859529909067,0.0627365249205828
0.335583242322855,0.0711248793567496
0.340057221798878,0.0797160292909714
0.344273365007777,0.0885025089181792
0.348223792941629,0.097476542738808
0.3519008623957,0.106630052339245
0.355297177243832,0.115954663588657
0.358405599492628,0.125441714245861
0.361219260099772,0.135082261969397
0.363731569542049,0.144867092723424
0.365936228118857,0.15478672957157
0.367827235977262,0.164831441850348
0.369398902844898,0.174991254713276
0.370645857457309,0.185255959036323
0.371563056666637,0.195615121674867
0.372145794218864,0.20605809606184
0.37238970918716,0.216574033136313
0.372290794049236,0.227151892591312
0.371845402396978,0.237780454429231
0.371050256266998,0.248448330812768
0.369902453081152,0.259143978198926
0.368399472186497,0.269855709743205
0.366539180984539,0.280571707960739
0.364319840640124,0.291280037630754
0.361740111360725,0.301968658930381
0.358799057237372,0.312625440783502
0.355496150638941,0.323238174410008
0.351831276151997,0.333794587060507
0.34780473405891,0.344282355921267
0.343417243347438,0.354689122173869
0.338669944245535,0.365002505193808
0.333564400275624,0.375210116872035
0.328102599823162,0.385299576043214
0.322286957214829,0.395258523004247
0.316120313302253,0.405074634106466
0.309605935547742,0.414735636404683
0.302747517609052,0.424229322346182
0.295549178420803,0.433543564482576
0.288015460770735,0.442666330187357
0.280151329369565,0.451585696361876
0.271962168413824,0.460289864112423
0.263453778641599,0.468767173381007
0.254632373881754,0.477006117512438
0.245504577097739,0.484995357740275
0.236077415927747,0.492723737574221
0.226358317723528,0.500180297071594
0.216355104090813,0.507354286975522
0.206075984934845,0.514235182702608
0.195529552015159,0.520812698162897
0.184724772014298,0.527076799395064
0.173670979125779,0.533017717999927
0.162377867167184,0.538625964355469
0.150855481224836,0.543892340596802
0.139114208837103,0.54880795334463
0.127164770723942,0.553364226166028
0.115018211070836,0.557552911751567
0.102685887375873,0.561366103793054
0.0901794598692318,0.56479624854645
0.0775108805148824,0.567836156064811
0.0646923816048684,0.570479011086378
0.0517364639570166,0.572718383563322
0.0386558847274673,0.574548238816935
0.0254636448498956,0.575962947305466
0.0121729761137962,0.576957293991154
-0.00120267210533059,0.577526487293417
-0.0146496464505797,0.577666167615566
-0.0281541035092804,0.577372415432847
-0.041702024045472,0.576641758930051
-0.055279227524608,0.575471181177403
-0.0688713869154674,0.573858126833903
-0.0824640437538575,0.571800508367792
-0.0960426234523233,0.569296711784332
-0.109592450839719,0.566345601851565
-0.123098765914148,0.562946526815291
-0.136546739792469,0.559099322595027
-0.149921490839236,0.554804316453265
-0.16320810095768,0.550062330130898
-0.176391632025047,0.544874682442295
-0.189457142454363,0.539243191324049
-0.202389703864483,0.533170175332054
-0.215174417840034,0.526658454582134
-0.227796432762708,0.519711351130096
-0.240240960695168,0.512332688787662
-0.252493294298679,0.504526792371392
-0.264538823765463,0.496298486382317
-0.276363053746651,0.487653093114646
-0.287951620256626,0.478596430192562
-0.299290307534485,0.46913480753475
-0.310365064843302,0.459275023746947
-0.321162023187855,0.449024361943491
-0.331667511931469,0.438390584999432
-0.341868075292669,0.42738193023549
-0.351750488702354,0.416007103538753
-0.36130177500229,0.404275272922666
-0.370509220465799,0.392196061530546
-0.379360390621622,0.379779540087457
-0.387843145862089,0.367036218805965
-0.395945656816848,0.353977038751921
-0.403656419473615,0.340613362677063
-0.410964270027581,0.326956965325843
-0.417858399441329,0.313020023224554
-0.42432836769738,0.298815103961406
-0.430364117725707,0.284355154966857
-0.435955988988878,0.269653491804071
-0.44109473070776,0.254723785980011
-0.445771514711062,0.239580052288244
-0.449977947892321,0.224236635695105
-0.453706084258304,0.208708197781461
-0.456948436553194,0.193009702752852
-0.459697987443306,0.177156403031336
-0.461948200247513,0.161163824442898
-0.46369302919901,0.145047751014809
-0.464926929224475,0.128824209397807
-0.465644865227194,0.112509452928485
-0.465842320861166,0.0961199453477291
-0.465515306783769,0.0796723441915136
-0.464660368375021,0.0631834838708109
-0.463274592912084,0.0466703584577858
-0.461355616188155,0.0301501041958656
-0.458901628565481,0.0136399817516588
-0.455911380452837,-0.00284264177292395
-0.452384187198345,-0.0192803110496515
-0.448319933389202,-0.0356555009350148
-0.443719076550418,-0.0519506350639826
-0.438582650235379,-0.0681481046068245
-0.432912266501618,-0.0842302871690911
-0.426710117765901,-0.100179565814572
-0.419978978033336,-0.115978348190842
-0.412722203495919,-0.13160908573678
-0.404943732496609,-0.147054292951271
-0.396648084855687,-0.162296566702128
-0.387840360556871,-0.177318605554131
-0.378526237791345,-0.19210322909497
-0.368711970358564,-0.206633397237768
-0.358404384423403,-0.220892229478799
-0.347610874629937,-0.234863024088959
-0.336339399572835,-0.248529277217538
-0.324598476628095,-0.261874701886808
-0.312397176145523,-0.274883246856007
-0.299745115006111,-0.287539115333295
-0.286652449548175,-0.299826783514379
-0.273129867866808,-0.311731018926558
-0.259188581491946,-0.323236898557071
-0.244840316451044,-0.334329826744777
-0.230097303723039,-0.344995552814356
-0.214972269091038,-0.355220188432402
-0.19947842240178,-0.364990224665013
-0.183629446240711,-0.374292548716677
-0.167439484032097,-0.383114460330579
-0.150923127574349,-0.391443687830648
-0.134095404021362,-0.399268403786061
-0.116971762321332,-0.406577240279172
-0.09956805912519,-0.41335930375822
-0.0819005441773787,-0.419604189456556
-0.06398584520238,-0.425301995360474
-0.0458409523009725,-0.430443335708192
-0.0274832018708216,-0.435019354002941
-0.0089302600665766,-0.439021735523585
0.00979989418475952,-0.442442719316664
0.0286889865968821,-0.445275109654247
0.0477184653488009,-0.447512286942513
0.0668695193036395,-0.449148218066489
0.0861230966037259,-0.450177466156943
0.1054599236236,-0.450595199765988
0.12486052426207,-0.450397201438547
0.144305239554028,-0.449579875667426
0.163774247582263,-0.448140256220372
0.183247583669116,-0.446076012828106
0.202705160827437,-0.443385457222988
0.222126790449895,-0.440067548518638
0.241492203215379,-0.436121897921478
0.260781070190861,-0.4315487727659
0.279973024106822,-0.426349099865421
0.299047680784016,-0.420524468172914
0.317984660689123,-0.414077130743744
0.336763610596562,-0.407010005996322
0.355364225333567,-0.399326678265394
0.373766269585399,-0.391031397644065
0.391949599737408,-0.382129079111372
0.409894185730545,-0.372625300942935
0.427580132906766,-0.362526302403018
0.444987703820708,-0.351838980717078
0.462097339993937,-0.340570887324687
0.478889683588038,-0.328730223413453
0.495345598972783,-0.316325834735393
0.511446194165649,-0.303367205707954
0.527172842118972,-0.289864452802693
0.542507201831102,-0.275828317225396
0.557431239257997,-0.26127015689221
0.571927248001827,-0.246201937707127
0.585977869753283,-0.230636224146962
0.599566114464461,-0.214586169160719
0.612675380229376,-0.198065503391031
0.625289472849394,-0.181088523726114
0.637392625061089,-0.16367008119142
0.648969515404328,-0.145825568190978
0.660005286708651,-0.127570905109089
0.670485564176369,-0.108922526283825
0.680396473041095,-0.0898973653645015
0.689724655780854,-0.0705128400659838
0.698457288865248,-0.0507868363334327
0.706582099016612,-0.0307376919317477
0.714087378965511,-0.0103841794746834
0.720962002681402,0.0102545110907565
0.727195440059769,0.0311587905283468
0.732777771047525,0.0523086888681911
0.737699699189045,0.073683874456252
0.741952564575697,0.0952636734797117
0.745528356182335,0.117027089949451
0.748419723574811,0.138952826120321
0.750619987973143,0.161019303329376
0.752123152655647,0.183204683231665
0.752923912689946,0.205486889412705
0.753017663977464,0.227843629356225
0.752400511598678,0.250252416745341
0.751069277447099,0.272690594074839
0.749021507140681,0.295135355551842
0.746255476200064,0.317563770261709
0.742770195483814,0.339952805575676
0.738565415871575,0.362279350776321
0.733641632186821,0.384520240876684
0.728000086351654,0.406652280608509
0.721642769766932,0.428652268554815
0.714572424911754,0.450497021401743
0.706792546157192,0.472163398284399
0.698307379789946,0.493628325201198
0.68912192324244,0.51486881947105
0.679241923526719,0.535862014207569
0.668673874870319,0.556585182784361
0.657425015553155,0.577015763265371
0.645503323945328,0.597131382774158
0.63291751374656,0.616909881775978
0.619677028428876,0.636329338246502
0.605792034884977,0.655368091701027
0.591273416285612,0.674004767058081
0.576132764150115,0.692218298311401
0.560382369635138,0.709987951984337
0.544035214047448,0.727293350340889
0.527104958587524,0.744114494327742
0.509605933331523,0.760431786221802
0.491553125460033,0.77622605195803
0.472962166742872,0.791478563112516
0.453849320290011,0.806171058516073
0.434231466579522,0.820285765473896
0.414126088774275,0.833805420567162
0.393551257339907,0.846713290012773
0.372525613977357,0.858993189557863
0.351068354884098,0.870629503886048
0.329199213358894,0.88160720551285
0.306938441765736,0.891911873148177
0.2843067928733,0.901529709504213
0.261325500587027,0.910447558527582
0.238016260091645,0.918652922035176
0.214401207422608,0.926133975733585
0.190502898485659,0.932879584602656
0.166344287544341,0.938879317624284
0.141948705195955,0.944123461838189
0.117339835857057,0.948603035707036
0.0925416947802205,0.952309801773965
0.067578604624343,0.955236278596239
0.0424751716013558,0.957375751939454
0.0172562612227306,0.958722285217455
-0.00805302633032945,0.959270729163864
-0.033427381188595,0.959016730721864
-0.0588413091035634,0.957956741139681
-0.084269157057951,0.95608802325998
-0.109685139152193,0.953408657992203
-0.135063362740856,0.949917549957723
-0.160377854792462,0.945614432298472
-0.185602588445914,0.94049987064061
-0.210711509736402,0.934575266205618
-0.235678564463374,0.9278428580621
-0.260477725172884,0.920305724512433
-0.28508301822648,0.911967783609326
-0.30946855092845,0.902833792798231
-0.333608538683275,0.89290934768245
-0.357477332154784,0.882200879908733
-0.381049444398579,0.870715654172029
-0.404299577939109,0.858461764339014
-0.427202651762735,0.845448128690957
-0.44973382819818,0.831684484287365
-0.47186853965565,0.817181380452846
-0.493582515196078,0.801950171390506
-0.514851806901908,0.786003007926182
-0.535652816021014,0.769352828388685
-0.55596231885544,0.752013348632219
-0.57575749236682,0.73399905120803
-0.595015939470535,0.71532517369326
-0.613715713990878,0.696007696185944
-0.631835345249774,0.676063327975917
-0.649353862261842,0.655509493402401
-0.666250817508946,0.634364316909851
-0.682506310267693,0.612646607314596
-0.698101009463736,0.590375841295609
-0.713016176027089,0.567572146123715
-0.727233684723172,0.544256281644267
-0.740736045434667,0.520449621529301
-0.753506423869838,0.496174133815872
-0.765528661673425,0.471452360748188
-0.776787295916768,0.446307397941932
-0.787267577944423,0.420762872889863
-0.796955491555071,0.394842922828707
-0.805837770495175,0.368572171987898
-0.81390191524447,0.341975708241657
-0.821136209073041,0.315079059186395
-0.827529733350427,0.287908167666323
-0.833072382087922,0.260489366770608
-0.837754875695947,0.232849354326219
-0.841568773939166,0.205015166911129
-0.844506488072764,0.177014153413149
-0.846561292144116,0.148873948160274
-0.847727333444893,0.120622443648919
-0.847999642099497,0.092287762896958
-0.847374139776552,0.063898231448983
-0.845847647511062,0.0354823490616403
-0.843417892625734,0.00706876109732765
-0.840083514740865,-0.0213137703449801
-0.835844070863094,-0.049636395532777
-0.830700039544292,-0.077870206407411
-0.824652824102736,-0.105986266066133
-0.817704754899739,-0.13395563838873
-0.809859090665833,-0.161749417778413
-0.80112001887156,-0.1893387589865
-0.791492655138967,-0.216694906990081
-0.780983041690816,-0.243789226891859
-0.76959814483558,-0.270593233811064
-0.757345851487253,-0.297078622734381
-0.744234964720037,-0.323217298295659
-0.730275198358956,-0.348981404453181
-0.71547717060847,-0.374343354033281
-0.699852396722179,-0.399275858109071
-0.683413280717697,-0.423751955183188
-0.666173106141822,-0.447745040143464
