0.138911028152174,-0.977271908793208
0.138662171274719,-0.976355445861498
0.150207125289402,-0.97454084493605
0.136848082273125,-0.968991347699818
0.109212256906148,-0.962678084729571
0.1331001660576,-0.919836229337919
0.167694419821269,-0.956444020829287
0.12964819410077,-0.932108403765047
0.127461928738584,-0.918330977836128
0.088153170681984,-0.877815831947594
0.100705988375893,-0.902754192537035
0.117392816686428,-0.835252559930988
0.118988072808753,-0.845753241832052
0.0925521499302971,-0.838351175290688
0.115721240232186,-0.799543256174952
0.122406163396809,-0.771617393345289
0.11367377746461,-0.747266315933085
0.0983618772513605,-0.741056912358517
0.13723874255835,-0.665354250284089
0.113713422940043,-0.658595420609191
0.114721042934232,-0.62659268869718
0.116284853995039,-0.593498281443117
0.14556903927427,-0.573607480227088
0.121197068873623,-0.52437187817959
0.12459373817347,-0.488515513282162
0.123505888477121,-0.424619258736424
0.0666098858522014,-0.410124367014662
0.167008371038141,-0.374244399498354
0.158811378063345,-0.322368876313798
0.130929455792198,-0.270795790413943
0.110306727307619,-0.283359005381577
0.187075648223169,-0.205024268226549
0.175871054614728,-0.182997929228463
0.180679772619768,-0.131545854342893
0.18470461509939,-0.131073728757696
0.205906522813034,-0.0662872227549807
0.217085055821912,-0.0279015004196456
0.213314320987083,-0.000753664499052615
0.240995676731969,0.0475308811293972
0.280515904105324,0.0865604280623779
0.266706983645955,0.120579873031176
0.317771832886539,0.138818198175553
0.303696994041902,0.213419421161641
0.295734881914923,0.224592851941338
0.343625246959984,0.266787249655769
0.344864015195117,0.291458237725338
0.350632556155641,0.318871767986165
0.398484665410196,0.398735372868797
0.402553143204504,0.33857246609673
0.393467293639349,0.402800774150249
0.425030893280198,0.413682998132559
0.405483369668786,0.444525212478013
0.422455000805402,0.463748126654929
0.447401696501255,0.495624011094679
0.460288529019369,0.51143097098862
0.493069910503955,0.544762657093028
0.441250786137585,0.569036884190304
0.469134700810925,0.552592018790719
0.486980164763697,0.562252585426036
0.533395757271855,0.58677413057516
0.520211867350165,0.600217061671092
0.527254999878306,0.608982910471653
0.491385247209403,0.615641705111861
0.53817593402128,0.621960798172171
0.541937331904883,0.626216018727006
0.552708409200164,0.653823609151125
0.553767199522912,0.655939622026878
0.545792144436525,0.630403980508196
0.543795278513466,0.623265414693134
0.550757942069433,0.612465867803583
0.539660853542031,0.612916920940475
0.531966722021478,0.617485200060806
0.51997251367669,0.584991831048592
0.516326844987964,0.603995965377422
0.506647236277277,0.545740821286059
0.49464779573419,0.586448156267093
0.481519354802139,0.576314093323876
0.49807823617857,0.581196142618671
0.458024380689913,0.530536035407004
0.455718318262533,0.539292168593256
0.413789840644405,0.528317765424091
0.428582598460394,0.505006737467055
0.370986643489229,0.500845779218462
0.347434838117963,0.48649595396689
0.310887770292427,0.465302892752842
0.320840385564576,0.447562270702432
0.259831317810683,0.45065973690853
0.273693325035035,0.406386958767064
0.209751680858643,0.411492398693297
0.178583013907451,0.396329742257264
0.119842927918247,0.372203370771615
0.116814113973625,0.347204259708309
0.0785750922623508,0.36923707244442
0.0218371973603921,0.352821413756998
0.00808500378577121,0.323252821946986
-0.0284165883203568,0.309584200781361
-0.0799120375600058,0.326077679681291
-0.120809387593269,0.25492197389704
-0.169803486653727,0.255482205504057
-0.182825970347492,0.263460262990506
-0.242343373266458,0.231055304573546
-0.250140439051687,0.250633491998816
-0.29589691730988,0.228262362969691
-0.334693972296314,0.219082149268599
-0.383550787228935,0.227067878125576
-0.411758125370283,0.202755630130637
-0.435876353379384,0.195064095770922
-0.478462041479795,0.159185877525965
-0.524563335026752,0.183445864717316
-0.560502585333076,0.16714219881317
-0.578652393193263,0.221755943680579
-0.599492111504013,0.196513905185219
-0.665747036014932,0.16717255442625
-0.698785457228554,0.164693034262405
-0.752981693679515,0.171645559269401
-0.763716957628931,0.148083314905144
-0.818861684884394,0.158418349140364
-0.793079997328935,0.153742968074287
-0.857208381967522,0.183788034417654
-0.864666775584016,0.163089829365681
-0.8724565245156,0.177974404050245
-0.929001513267994,0.130308785259843
-0.938718916163512,0.164276887259651
-0.973254762348156,0.184773699524614
-0.980339468372397,0.156720942760991
-0.990764666278447,0.169351467840244
-1.00141833638764,0.157008006543225
-1.01662252669794,0.172916325140316
-1.04831805956942,0.179122234592557
-1.02973393951832,0.181749036396489
-1.04166549522969,0.177331352862987
-1.02176096266043,0.174524173792318
-1.03624985724069,0.164039219972799
-1.04583658621226,0.146723342014176
-1.06157659592024,0.184033076624595
-1.05756862029041,0.165009695134717
-1.03527712304634,0.185301659178295
-1.06605076109406,0.164998855095035
-1.04280739310055,0.178157156380651
-1.03406676137944,0.146484474490448
-1.00018355143504,0.169545461458993
-0.992991092083499,0.18218712570761
-0.96597654615141,0.109756716963797
-0.962564638426597,0.146995225004539
-0.945040293056319,0.139307334585598
-0.951022812112432,0.119086060844709
-0.888070311609263,0.0956247665391391
-0.908414495867163,0.101290023888667
-0.87565992750287,0.0916456390724386
-0.825121508252544,0.119798244227774
-0.834746075996007,0.0617379341692777
-0.814500646359712,0.051580590509846
-0.754340675431787,0.0191985249841342
-0.729876464423947,0.0161717917454013
-0.703898125821352,0.0123358516319877
-0.685079079311764,-0.012937629586235
-0.647341419480726,-0.0490493107526972
-0.620044158954392,-0.0119135575065915
-0.58989620848979,-0.0746201631347784
-0.55999878891103,-0.0973263599191384
-0.545423000036757,-0.113370340837155
-0.500612762941257,-0.16189795859075
-0.482405892647151,-0.193136310075354
-0.452787804072215,-0.206535778468298
-0.410100613115663,-0.222844294068763
-0.400215556737855,-0.212408131931649
-0.342401349005369,-0.289792610956724
-0.34379008195658,-0.318202505043071
-0.269602922319916,-0.342012634696179
-0.299531662719381,-0.355875777858591
-0.239879758545424,-0.392346850929734
-0.213537074347755,-0.421645055959779
-0.186950869792302,-0.490866979252095
-0.173124981921458,-0.490150216344118
-0.139167088842877,-0.50976252728819
-0.134919467120034,-0.545949455562831
-0.116901326539874,-0.574360522705993
-0.0479690199279147,-0.646887645304008
-0.0968406682851399,-0.603740715572945
-0.0462541116822462,-0.650488464917233
-0.0102832719326027,-0.678843082631602
-0.0168777150839161,-0.729220095806825
-0.0061821980378414,-0.724437562798755
0.0166975234218019,-0.735796225669544
0.0467449397436357,-0.779914795271826
0.059562877815048,-0.802726906459502
0.0723245601936562,-0.835650637843008
0.0680516271876397,-0.837833019782773
0.0917053517945249,-0.864293580370361
0.122688148847215,-0.892779447872991
0.113782823736848,-0.871434872758684
0.107827374677997,-0.889702708651326
0.129050813350075,-0.894963966146048
0.076285177782596,-0.916212680792241
0.17989847689582,-0.961300055400887
0.132832374291128,-0.959102668164268
0.144598988107275,-0.95713336206693
0.119880851875167,-0.990071665839428
0.138297331243152,-0.975225763645148
0.128037096356091,-0.986437500532882
