0.236933754740858,0.502759191958359
0.233388539536758,0.494553713910617
0.229838113988234,0.486441976244876
0.226282783054737,0.47842302496716
0.222722850694579,0.470495922741476
0.219158619876168,0.462659748431438
0.21559039258847,0.454913596655341
0.212018469850708,0.447256577354252
0.208443151721342,0.439687815372668
0.204864737306339,0.432206450051324
0.201283524766774,0.424811634831759
0.197699811325769,0.417502536872244
0.194113893274804,0.410278336674699
0.190526065979419,0.403138227722248
0.186936623884324,0.396081416127056
0.183345860517946,0.389107120288131
0.179754068496419,0.382214570558752
0.176161539527054,0.375403008923236
0.17256856441129,0.368671688682726
0.168975433047151,0.362019874149735
0.165382434431234,0.35544684035115
0.161789856660224,0.348951872739453
0.158197986931973,0.342534266911874
0.154607111546151,0.336193328337266
0.151017515904472,0.329928372090428
0.147429484510529,0.323738722593671
0.143843300969241,0.317623713365393
0.140259247985922,0.311582686775463
0.136677607364995,0.305614993807183
0.133098660008358,0.299719993825661
0.129522685913408,0.293897054352378
0.125949964170749,0.288145550845775
0.122380772961585,0.282464866487681
0.118815389554809,0.276854391975402
0.115254090303803,0.271313525319314
0.111697150642959,0.265841671645796
0.108144845083925,0.260438243005339
0.104597447211595,0.255102658185687
0.101055229679847,0.249834342529876
0.0975184642070312,0.244632727759004
0.0939874215712375,0.239497251799618
0.0904623716053263,0.234427358615582
0.0869435831917492,0.229422498044292
0.0834313242571594,0.224482125637121
0.0799258617668209,0.219605702503975
0.0764274617188244,0.214792695161841
0.0729363891381191,0.210042575387226
0.0694529080703646,0.205354820072357
0.0659772815756104,0.200728911085069
0.062509771721813,0.196164335132253
0.0590506395781923,0.191660583626781
0.0556001452084376,0.187217152557809
0.0521585476637678,0.182833542364364
0.0487261049758512,0.178509257812133
0.0453030741495928,0.174243807873364
0.0418897111557932,0.170036705609787
0.0384862709236846,0.165887468058499
0.0350930073333507,0.161795616120702
0.0317101732080342,0.157760674453248
0.0283380203063385,0.153782171362896
0.0249767993143278,0.149859638703223
0.0216267598375299,0.145992611774114
0.0182881503928478,0.142180629223764
0.0149612184003843,0.13842323295313
0.0116462101751835,0.134719968022767
0.00834337091889403,0.131070382561989
0.00505294471135803,0.127474027680296
0.0017751745021316,0.123930457381
-0.00148969789806161,0.120439228477017
-0.00474143182593845,0.116999900508742
-0.00797978777432137,0.113612035663975
-0.0112045274008581,0.110275198699842
-0.0144154135367912,0.106988956866652
-0.0176122101957751,0.103752879833657
-0.0207946825827343,0.100566539616657
-0.0239625971027643,0.097429510507408
-0.027115721370065,0.0943413690047873
-0.0302538242169103,0.0913016937476794
-0.033376675702646,0.0883100654495302
-0.0364840471227135,0.0853660668345379
-0.0395757110176988,0.0824692825754364
-0.0426514411824005,0.0796192992328351
-0.0457110126749158,0.0768157051960763
-0.048754201825741,0.0740580906255747
-0.0517807862468841,0.0713460473966034
-0.0547905448409854,0.0686791690444925
-0.0577832578104459,0.0660570507112064
-0.0607587066665586,0.0634792890932672
-0.0637166742386399,0.0609454823909931
-0.0666569446831611,0.0584552302590215
-0.0695793034928751,0.0560081337580843
-0.0724835375059369,0.0536037953080097
-0.0753694349150149,0.0512418186419197
-0.0782367852763912,0.0489218087615963
-0.0810853795190491,0.0466433718939895
-0.0839150099537436,0.0444061154488413
-0.0867254702820556,0.0422096479773988
-0.0895165556054245,0.0400535791321929
-0.0922880624341595,0.0379375196278578
-0.0950397886964263,0.0358610812029675
-0.0977715337472079,0.0338238765828659
-0.100483098377237,0.0318255194434692
-0.103174284821896,0.0298656243760173
-0.10584489677009,0.0279438068527531
-0.10849473937308,0.02605968319351
-0.111123619253284,0.024212870533186
-0.113731344513036,0.0224029867900847
-0.116317724743314,0.0206296506351039
-0.118882571032415,0.0188924814617538
-0.121425695974598,0.0171910993569848
-0.123946913678674,0.015525125072808
-0.126446039776554,0.0138941799986905
-0.12892289143175,0.0122978861347077
-0.131377287347821,0.0107358660654381
-0.133809047776775,0.00920774293457963
-0.136217994527411,0.00771314042027729
-0.138603950973612,0.00625168271114174
-0.140966742062581,0.00482299448294613
-0.143306194323018,0.00342670087598496
-0.145622135873242,0.00206242747308101
-0.147914396429248,0.000729800278226375
-0.150182807312708,-0.000571554304157972
-0.152427201458903,-0.00184200948935559
-0.154647413424599,-0.00308193813189603
-0.156843279395847,-0.00429171274451649
-0.159014637195728,-0.0054717055165571
-0.161161326292021,-0.00662228833180152
-0.163283187804804,-0.00774383278577635
-0.165380064513986,-0.00883671020251985
-0.167451800866768,-0.00990129165083343
-0.169498242985029,-0.0109379479600258
-0.171519238672636,-0.0119470497351622
-0.173514637422683,-0.0129289673718293
-0.175484290424653,-0.0138840710704268
-0.1774280505715,-0.0148127308499963
-0.179345772466651,-0.0157153165615975
-0.181237312430936,-0.0165921979012426
-0.18310252850943,-0.0174437444223988
-0.184941280478215,-0.0182703255480677
-0.186753429851058,-0.0190723105824533
-0.188538839886011,-0.0198500687222258
-0.190297375591919,-0.0206039690673918
-0.192028903734846,-0.0213343806317808
-0.193733292844413,-0.0220416723531538
-0.19541041322005,-0.0227262131029476
-0.197060136937158,-0.0233883716956585
-0.198682337853179,-0.0240285168978775
-0.200276891613582,-0.024647017436984
-0.201843675657753,-0.0252442420095055
-0.203382569224792,-0.0258205592891532
-0.20489345335922,-0.0263763379345394
-0.206376210916591,-0.0269119465965865
-0.20783072656901,-0.0274277539256338
-0.209256886810552,-0.0279241285782497
-0.210654579962591,-0.028401439223759
-0.212023696179026,-0.0288600545504884
-0.213364127451413,-0.0293003432717425
-0.214675767613996,-0.0297226741315129
-0.21595851234864,-0.0301274159099307
-0.217212259189665,-0.0305149374284671
-0.218436907528574,-0.0308856075548909
-0.219632358618687,-0.0312397952079875
-0.22079851557967,-0.0315778693620479
-0.221935283401956,-0.0319001990511337
-0.223042568951071,-0.0322071533731232
-0.224120280971849,-0.0324991014935479
-0.225168330092546,-0.0327764126492227
-0.226186628828849,-0.0330394561516781
-0.227175091587773,-0.0332886013903994
-0.228133634671461,-0.0335242178358796
-0.229062176280866,-0.0337466750424922
-0.229960636519337,-0.0339563426511891
-0.230828937396083,-0.03415359039203
-0.231667002829541,-0.0343387880865496
-0.232474758650625,-0.0345123056499673
-0.23325213260587,-0.0346745130932458
-0.233999054360464,-0.0348257805250046
-0.234715455501166,-0.0349664781532936
-0.23540126953912,-0.0350969762872317
-0.236056431912549,-0.0352176453385178
-0.236680879989337,-0.0353288558228174
-0.237274553069504,-0.0354309783610322
-0.237837392387562,-0.0355243836804571
-0.238369341114758,-0.03560944261583
-0.238870344361201,-0.0356865261102802
-0.239340349177882,-0.0357560052161798
-0.239779304558564,-0.0358182510959051
-0.240187161441572,-0.0358736350225109
-0.240563872711456,-0.035922528380325
-0.240909393200538,-0.0359653026654669
-0.241223679690352,-0.0360023294862961
-0.241506690912951,-0.0360339805637953
-0.241758387552111,-0.0360606277318938
-0.241978732244406,-0.0360826429377355
-0.24216768958017,-0.0361003982418974
-0.242325226104338,-0.0361142658185629
-0.242451310317172,-0.0361246179556562
-0.242545912674856,-0.0361318270549406
-0.242609005589988,-0.0361362656320886
-0.242640563431936,-0.0361383063167265
-0.242640562527083,-0.0361383218524597
-0.242608981158946,-0.0361366850968829
-0.24254579956818,-0.0361337690215818
-0.24245099995245,-0.0361299467121291
-0.242324566466196,-0.0361255913680817
-0.242166485220259,-0.0361210763029829
-0.2419767442814,-0.0361167749443757
-0.241755333671687,-0.0361130608338307
-0.241502245367761,-0.0361103076269957
-0.241217473299982,-0.0361088890936701
-0.240901013351448,-0.0361091791179103
-0.240552863356894,-0.0361115516981707
-0.240173023101462,-0.0361163809474859
-0.239761494319354,-0.0361240410936987
-0.239318280692354,-0.0361349064797389
-0.238843387848228,-0.0361493515639586
-0.238336823359005,-0.0361677509205294
-0.237798596739123,-0.0361904792399052
-0.237228719443456,-0.0362179113293575
-0.236627204865216,-0.0362504221135882
-0.235994068333728,-0.0362883866354233
-0.235329327112081,-0.0363321800565965
-0.23463300039465,-0.0363821776586235
-0.233905109304496,-0.0364387548437766
-0.233145676890637,-0.0365022871361623
-0.232354728125195,-0.0365731501829083
-0.231532289900416,-0.0366517197554654
-0.230678391025562,-0.0367383717510299
-0.229793062223677,-0.0368334821940921
-0.228876336128231,-0.0369374272381162
-0.227928247279626,-0.0370505831673575
-0.226948832121587,-0.0371733263988233
-0.225938128997421,-0.0373060334843823
-0.224896178146143,-0.0374490811130284
-0.223823021698487,-0.0376028461133062
-0.222718703672777,-0.0377677054559028
-0.22158326997068,-0.037944036256412
-0.220416768372824,-0.038132215778278
-0.219219248534293,-0.0383326214359241
-0.217990761979992,-0.0385456307980727
-0.216731362099887,-0.0387716215912633
-0.215441104144111,-0.0390109717035743
-0.214120045217946,-0.0392640591885559
-0.212768244276678,-0.03953126226938
-0.211385762120319,-0.0398129593432147
-0.209972661388207,-0.0401095289858286
-0.208529006553468,-0.0404213499564339
-0.207054863917362,-0.0407488012027728
-0.205550301603488,-0.0410922618664569
-0.204015389551867,-0.0414521112885646
-0.202450199512898,-0.0418287290155047
-0.200854805041178,-0.0422224948051541
-0.199229281489198,-0.0426337886332758
-0.197573706000911,-0.0430629907002259
-0.195888157505166,-0.0435104814379568
-0.194172716709017,-0.0439766415173251
-0.192427466090903,-0.0444618518557112
-0.190652489893692,-0.0449664936249593
-0.188847874117607,-0.0454909482596464
-0.18701370651301,-0.0460355974656881
-0.185150076573066,-0.04660082322929
-0.183257075526274,-0.0471870078262532
-0.181334796328864,-0.0477945338316434
-0.179383333657072,-0.0484237841298318
-0.17740278389928,-0.0490751419249173
-0.175393245148027,-0.0497489907515395
-0.173354817191888,-0.0504457144860923
-0.171287601507228,-0.0511656973583463
-0.169191701249819,-0.0519093239634926
-0.167067221246333,-0.0526769792746147
-0.164914267985697,-0.0534690486556022
-0.162732949610326,-0.0542859178745141
-0.160523375907219,-0.0551279731174033
-0.158285658298924,-0.0559956010026148
-0.156019909834376,-0.0568891885955648
-0.153726245179599,-0.057809123424017
-0.151404780608281,-0.0587557934938634
-0.149055633992215,-0.0597295873054241
-0.146678924791607,-0.0607308938702771
-0.144274774045256,-0.0617601027286303
-0.141843304360599,-0.0628176039672489
-0.139384639903621,-0.063903788237951
-0.136898906388642,-0.0650190467766837
-0.13438623106796,-0.0661637714231944
-0.131846742721367,-0.0673383546413102
-0.129280571645534,-0.068543189539839
-0.126687849643254,-0.0697786698941087
-0.124068710012563,-0.0710451901681562
-0.121423287535716,-0.0723431455375843
-0.118751718468035,-0.0736729319130988
-0.116054140526621,-0.0750349459647446
-0.113330692878932,-0.0764295851468543
-0.110581516131221,-0.0778572477237275
-0.107806752316849,-0.0793183327960561
-0.105006544884446,-0.0808132403281153
-0.102181038685951,-0.0823423711757345
-0.0993303799645087,-0.0839061271150695
-0.0964547163422257,-0.0855049108721926
-0.0935541968077948,-0.0871391261535204
-0.0906289717039784,-0.0888091776770977
-0.0876791927149534,-0.0905154712047593
-0.084705012853517,-0.0922584135751881
-0.0817065864481531,-0.0940384127378923
-0.078684069129958,-0.0958558777881211
-0.0756376178194254,-0.0977112190027432
-0.0725673907130901,-0.0996048478771086
-0.0694735472700286,-0.101537177162919
-0.0663562481982184,-0.103508620907126
-0.0632156554407519,-0.105519594491892
-0.0600519321619076,-0.107570514675622
-0.056865242733075,-0.109661799635109
-0.0536557527185345,-0.111793869008811
-0.0504236288610895,-0.113967143941283
-0.0471690390675523,-0.116182047128798
-0.0438921523940799,-0.118439002866191
-0.0405931390313609,-0.120738437094937
-0.0372721702896526,-0.123080777452509
-0.0339294185836652,-0.125466453323046
-0.0305650574172937,-0.12789589588935
-0.0271792613681971,-0.130369538186264
-0.0237722060722206,-0.132887815155442
-0.0203440682076634,-0.135451163701567
-0.0168950254793877,-0.138060022750036
-0.0134252566027697,-0.140714833306159
-0.00993494128748945,-0.143416038515907
-0.00642426022115958,-0.146164083728237
-0.0028933950527911,-0.148959416559052
0.000657471623907002,-0.151802486956823
0.00422815628739287,-0.154693747269918
0.00781847450532652,-0.157633652315687
0.0114282409517736,-0.160622659451332
0.0150572694245812,-0.16366122864663
0.0187053728629277,-0.166749822558538
0.0223723633650482,-0.169888906607732
0.0260580522061366,-0.173078949057136
0.0297622498564299,-0.176320421092487
0.033484765999473,-0.179613796904991
0.0372254095505677,-0.18295955377612
0.0409839886754101,-0.186358172164612
0.0447603108089166,-0.189810135795728
0.048554182674242,-0.19331593175283
0.052365410301992,-0.196876050571328
0.056193799049635,-0.200490986335084
0.0600391536211115,-0.204161236775308
0.0639012780866507,-0.207887303372034
0.0677799759027908,-0.211669691458244
0.0716750499326108,-0.215508910326697
0.0755863024661755,-0.219405473339555
0.0795135352411983,-0.223359898040866
0.0834565494639227,-0.227372706271994
0.0874151458302311,-0.23144442429007
0.0913891245469792,-0.235575582889548
0.0953782853535656,-0.239766717526959
0.0993824275437364,-0.24401836844894
0.103401349987633,-0.24833108082364
0.107434851154084,-0.252705404875592
0.111482729133148,-0.257141896024153
0.115544781658917,-0.261641115025606
0.119620806132571,-0.26620362811904
0.12371059964571,-0.270830007176099
0.127813959003947,-0.275520829854733
0.131930680750792,-0.280276679757044
0.136060561191806,-0.285098146591361
0.140203396419051,-0.289985826338664
0.144358982335842,-0.294940321423477
0.148527114681792,-0.299962240889371
0.152707589058173,-0.305052200579209
0.156900200953595,-0.310210823320272
0.161104745770009,-0.315438739114414
0.16532101884904,-0.320736585333395
0.169548815498664,-0.32610500691955
0.173787931020238,-0.331544656591953
0.178038160735882,-0.337056195058243
0.182299300016227,-0.342640291232288
0.18657114430855,-0.348297622457863
0.190853489165289,-0.354028874738525
0.195146130272951,-0.359834742973886
0.199448863481436,-0.365715931202472
0.203761484833777,-0.37167315285138
0.208083790596306,-0.377707130992952
0.21241557728927,-0.38381859860867
0.216756641717894,-0.390008298860525
0.221106781003914,-0.396276985370075
0.225465792617597,-0.402625422505461
0.229833474410246,-0.409054385676612
0.23420962464722,-0.415564661638936
0.23859404204148,-0.422157048805735
0.242986525787671,-0.428832357569668
0.247386875596766,-0.435591410633525
0.251794891731274,-0.442435043350653
0.256210375041054,-0.449364104075318
0.260633126999721,-0.456379454523373
0.265062949741701,-0.463481970143538
0.269499646099913,-0.470672540499692
0.27394301964414,-0.477952069664513
0.278392874720077,-0.485321476624871
0.282849016489101,-0.492781695699382
0.287311250968775,-0.500333676968524
0.291779385074111,-0.507978386717765
0.296253226659626,-0.515716807894147
