1.03047023908814,-0.380895732582356
1.03560258822718,-0.366161291778904
1.0384138429158,-0.350523432290771
1.03889242971515,-0.334095514658424
1.0370491672989,-0.316997154189049
1.03291733312024,-0.299352500960023
1.0265524808915,-0.28128848245906
1.01803200964836,-0.262933031934417
1.0074544880527,-0.244413325582784
0.99493874043592,-0.225854051465828
0.980622703863413,-0.2073757325226
0.964662068179295,-0.189093125241242
0.947228713534515,-0.171113714480442
0.928508962282745,-0.15353632360276
0.908701664317226,-0.136449857515467
0.888016136892445,-0.119932194429918
0.866669981703433,-0.104049240170485
0.844886803461747,-0.0888541567137547
0.822893855393285,-0.0743867743453434
0.800919637974624,-0.0606731944141242
0.779191477810643,-0.0477255871723622
0.757933113829696,-0.0355421866464312
0.737362317929847,-0.0241074819184962
0.717688576851104,-0.0133926016469402
0.699110861377959,-0.0033558861444355
0.681815508001722,0.00605636110112714
0.665974236904337,0.0149089529056209
0.6517423285794,0.0232767415034354
0.639256979600049,0.0312433999645575
0.628635855998459,0.038900078423378
0.619975860461863,0.0463439532604617
0.613352127101856,0.0536766887788693
0.608817254946146,0.0610028320678445
0.606400788565435,0.0684281626342586
0.606108951415086,0.0760580189948925
0.607924634574925,0.0839956247525918
0.611807640645127,0.092340436722246
0.61769517963594,0.101186537427669
0.62550261080852,0.110621093760614
0.635124421617079,0.120722902784751
0.646435432201992,0.131561044590245
0.659292211321057,0.143193660771928
0.673534687211813,0.155666875532131
0.688987934679674,0.169013874617653
0.705464117730309,0.183254155310996
0.722764565333071,0.198392958533632
0.740681956435557,0.214420891810391
0.759002589164291,0.231313749417786
0.777508708256653,0.249032533525199
0.795980864184522,0.26752367756782
0.81420027715696,0.286719470495835
0.831951179230243,0.306538677958138
0.849023108107635,0.326887353932982
0.865213126873493,0.347659833844434
0.880327944868211,0.36873989783322
0.89418591616005,0.390002090613413
0.906618893591528,0.411313182270566
0.91747391815317,0.432533752468715
0.926614725444272,0.453519878857074
0.933923053194533,0.474124909023768
0.939299736215142,0.49420129415216
0.942665577694179,0.513602461610876
0.943961988418324,0.532184703063697
0.943151388258836,0.549809054329101
0.940217367071355,0.566343143156702
0.935164604992801,0.581662981320874
0.928018554940487,0.595654677958712
0.918824892894949,0.608216051894589
0.907648744245926,0.619258121787973
0.894573697068323,0.628706454302357
0.879700615641378,0.636502352105374
0.863146269800632,0.642603865354549
0.845041797792152,0.646986612377909
0.825531022157356,0.649644397499361
0.804768639793201,0.650589616358802
0.782918308687909,0.649853441607344
0.760150654911341,0.647485784488672
0.736641224229626,0.643555030516456
0.712568403207215,0.638147550192484
0.688111334851231,0.631366988447444
0.663447853741695,0.623333339192944
0.638752465179223,0.614181814016288
0.614194392175401,0.604061516596602
0.589935713119694,0.593133936840715
0.56612961169363,0.581571281000147
0.542918759084446,0.569554656108639
0.520433846795711,0.55727212894711
0.498792286383989,0.544916681376478
0.478097090293016,0.532684085257913
0.458435945637266,0.520770721287344
0.43988049033394,0.509371366892051
0.42248579842694,0.498676978861292
0.406290078819797,0.488872496602666
0.391314588969289,0.480134691827774
0.37756376242043,0.472630090074769
0.365025546419423,0.466512988775305
0.353671943256444,0.461923595576669
0.34345974649635,0.458986309347519
0.334331460883002,0.457808164742112
0.326216392480663,0.458477459390936
0.319031893570846,0.46106258074613
0.3126847449797,0.465611047361545
0.307072656891705,0.472148776956122
0.30208586782948,0.48067959102374
0.297608820363151,0.491184963043248
0.293521891269098,0.503624014540938
0.28970315329672,0.517933760397196
0.286030145429252,0.534029601903394
0.282381628543351,0.551806063198351
0.278639303681013,0.57113776388001
0.27468947074206,0.591880617831039
0.270424606277541,0.613873245649617
0.265744840202733,0.636938585570229
0.260559312637982,0.6608856854238
0.25478739370862,0.685511656049775
0.24835975097093,0.710603764660435
0.241219251156093,0.735941644992661
0.233321685112814,0.761299599684593
0.224636307153956,0.786448969200993
0.21514618244392,0.811160540815057
0.204848338570904,0.835206970645992
0.193753720000123,0.858365191557017
0.181886946668459,0.880418779840359
0.169285880525678,0.90116025405293
0.156001006320349,0.920393280113891
0.142094635338671,0.9379347578246
0.127639943101359,0.95361676531031
0.112719854178726,0.967288339495773
0.0974257892701479,0.978817072594817
0.0818562914862445,0.988090506694949
0.0661155503479005,0.995017310827555
0.050311843355851,0.999528227405052
0.0345559160711067,1.00157677754912
0.0189593224662696,1.00113971759785
0.00363274785040052,0.998217241931622
-0.0113156630714459,0.992832930164411
-0.0257819504720082,0.985033439674385
-0.0396679337934266,0.974887947361385
-0.0528827346414027,0.962487347383932
-0.0653442074432997,0.94794321441203
-0.0769802582739749,0.931386544600928
-0.0877300336472908,0.912966289014198
-0.0975449626999816,0.892847696572229
-0.106389638037794,0.871210485747317
-0.114242522548806,0.848246866143643
-0.121096471690344,0.82415943276768
-0.126959063096781,0.799158957192281
-0.131852727806518,0.773462100930167
-0.135814679937365,0.747289077146852
-0.138896644218675,0.720861287350327
-0.141164383383985,0.694398959889497
-0.142697030007061,0.668118816973892
-0.143586229894995,0.642231796495439
-0.143935106602594,0.616940854195054
-0.143857058972057,0.592438870681692
-0.143474405801299,0.568906686492391
-0.142916893775603,0.546511286794943
-0.142320086634757,0.525404155499668
-0.141823655167995,0.505719816485636
-0.141569589011329,0.487574577384818
-0.141700352348065,0.471065488932184
-0.142357006468995,0.456269530310391
-0.143677322722148,0.44324302822527
-0.145793909665357,0.432021314675376
-0.148832378223527,0.422618625558511
-0.152909568345689,0.415028239424264
-0.158131860057345,0.40922285286797
-0.164593590917706,0.405155186301683
-0.172375600729019,0.402758811164478
-0.181543922919645,0.401949187079495
-0.192148640350383,0.402624895058599
-0.204222921394439,0.404669050625878
-0.217782250037799,0.40795087870443
-0.232823861463632,0.412327430310692
-0.249326392148976,0.417645419547807
-0.267249750943548,0.423743158101887
-0.286535214949829,0.430452563437262
-0.307105751312603,0.437601216169843
-0.32886656328768,0.445014441679358
-0.351705856226759,0.452517390905272
-0.375495816421643,0.459937095458063
-0.400093793129015,0.467104472663802
-0.425343671578897,0.473856256938694
-0.451077422386562,0.480036834950857
-0.477116810568432,0.485499963355258
-0.503275245334721,0.490110349467259
-0.529359750020569,0.493745077050514
-0.555173029945619,0.496294861413125
-0.580515614679348,0.497665120206676
-0.60518805015256,0.497776848678438
-0.628993115307768,0.496567290608449
-0.65173803753267,0.493990398739461
-0.673236680977901,0.490017081147023
-0.693311682025554,0.484635232666772
-0.711796506647396,0.477849553163371
-0.728537405166868,0.469681157057809
-0.743395241008184,0.460166981094679
-0.756247171367574,0.449358999797278
-0.766988159360337,0.437323260395885
-0.775532299064593,0.424138751194947
-0.78181393697673,0.409896119341765
-0.785788575690252,0.394696255748546
-0.78743354808231,0.37864876647987
-0.786748452911557,0.361870351230074
-0.783755345466497,0.344483110564366
-0.778498679722847,0.326612804371239
-0.771045001338427,0.308387084463241
-0.761482393700761,0.289933724463076
-0.749919682111728,0.27137887002052
-0.736485404011223,0.25284533202478
-0.721326555874401,0.234450944812014
-0.70460713003217,0.216307010427835
-0.686506457131045,0.198516848801981
-0.667217372236786,0.181174472242615
-0.646944224669193,0.164363400979515
-0.62590075350798,0.148155634600056
-0.604307852309648,0.132610792153503
-0.582391247903468,0.117775431473747
-0.560379119175081,0.103682555916451
-0.538499682486157,0.0903513142533057
-0.516978770809001,0.0777868969445349
-0.496037433770604,0.0659806294527346
-0.475889585599685,0.054910260698659
-0.456739727454956,0.0445404422248387
-0.438780769788891,0.0348233911577526
-0.422191979278396,0.0256997276747102
-0.407137073444777,0.0170994754175001
-0.39376248440696,0.00894321117965679
-0.382195811283597,0.00114334825437986
-0.372544478604133,-0.00639446390992927
-0.364894615731456,-0.0137698426180409
-0.359310169767168,-0.0210860975494965
-0.355832261734497,-0.0284486002637827
-0.354478793045053,-0.0359631195107423
-0.355244306386694,-0.0437341447399766
-0.358100102254674,-0.0518632203897455
-0.36299460942108,-0.0604473134347554
-0.369854004733016,-0.0695772362842989
-0.378583074781972,-0.0793361464520592
-0.389066309229001,-0.0897981434746645
-0.401169212934922,-0.10102698234929
-0.414739821562796,-0.113074921306096
-0.4296104030203,-0.125981720046924
-0.445599325019405,-0.139773802688276
-0.462513067174011,-0.154463597567537
-0.480148354454781,-0.170049063832394
-0.498294387492559,-0.186513412362279
-0.516735144182822,-0.203825026096678
-0.535251726305326,-0.221937582299298
-0.553624724443666,-0.240790376700777
-0.571636574373254,-0.260308846868289
-0.58907387828419,-0.28040528958033
-0.60572966471439,-0.300979764471336
-0.621405561881791,-0.321921173785041
-0.635913860211801,-0.343108505768148
-0.649079441243946,-0.364412227075992
-0.660741551752582,-0.385695807576694
-0.670755403810357,-0.40681735915507
-0.678993583636911,-0.427631368555008
-0.685347254383217,-0.44799050297926
-0.689727140476235,-0.467747466105714
-0.692064283759169,-0.486756881393193
-0.692310564378252,-0.504877179048286
-0.690438982154957,-0.52197246281479
-0.686443697009396,-0.537914332832618
-0.680339829832712,-0.552583641193421
-0.672163028009514,-0.565872157492075
-0.661968802532689,-0.577684122629304
-0.649831646299465,-0.587937670350226
-0.635843945698246,-0.596566097492547
-0.620114699960579,-0.603518965648922
-0.602768064933949,-0.608763018900495
-0.583941739903314,-0.612282904429556
-0.563785217829491,-0.614081685143097
-0.542457920860521,-0.614181135907999
-0.520127244191047,-0.612621817582988
-0.496966532280727,-0.609462925701303
-0.473153012085597,-0.604781913378988
-0.448865708299279,-0.598673890763825
-0.424283365641073,-0.591250806066108
-0.399582402965817,-0.582640415891287
-0.374934923410189,-0.572985055193521
-0.350506803939867,-0.562440219656429
-0.32645588653287,-0.551172975652328
-0.302930291841332,-0.539360215105134
-0.280066874534737,-0.527186774557901
-0.257989837663158,-0.514843439499278
-0.236809521312748,-0.502524856511847
-0.216621378583657,-0.490427377050481
-0.197505149530609,-0.478746857624589
-0.17952424119831,-0.467676441831818
-0.162725319288834,-0.45740435006335
-0.147138114348116,-0.448111702767025
-0.132775442686443,-0.439970402912206
-0.119633439586161,-0.433141102751534
-0.107691999731418,-0.427771279125234
-0.0969154172516145,-0.423993440412424
-0.0872532153334375,-0.421923486813967
-0.0786411530555649,-0.421659243968694
-0.0710023949631979,-0.423279187978815
-0.0642488269524881,-0.426841377773161
-0.0582825003010148,-0.432382608393656
-0.0529971841805907,-0.439917796278327
-0.0482800057406656,-0.449439604962853
-0.0440131558691892,-0.460918316863079
-0.0400756380343874,-0.474301953965767
-0.0363450371934678,-0.489516647377523
-0.0326992856271893,-0.50646725279632
-0.0290184027233726,-0.525038206110603
-0.0251861861849536,-0.5450946105315
-0.0210918328728144,-0.566483543957424
-0.0166314685004991,-0.589035572689576
-0.0117095666639065,-0.61256645519225
-0.00624023919775638,-0.636879017352435
-0.000148381582745327,-0.661765178665587
0.0066293409392672,-0.687008106983102
0.014143678774495,-0.71238447792328
0.0224321648830819,-0.737666813789984
0.0315186707719783,-0.762625875876829
0.0414131566919683,-0.787033083371534
0.0521116186222997,-0.810662931722931
0.0635962320641892,-0.833295383296675
0.0758356901059232,-0.85471820342559
0.08878573069949,-0.87472921555375
0.10238984563329,-0.893138450073122
0.116580161328261,-0.909770162647377
0.131278479355303,-0.924464699295518
0.14639746249811,-0.937080187250833
0.161841950293436,-0.947494032598092
0.17751038629424,-0.955604207900366
0.193296337841111,-0.961330315430565
0.209090087912428,-0.964614414193345
0.224780277668999,-0.965421601630245
0.240255577626672,-0.96374034371294
0.255406364989218,-0.959582550013106
0.270126384558879,-0.952983393258814
0.28431437081507,-0.944000875812034
0.297875609210757,-0.932715148395502
0.310723415475588,-0.919227589225734
0.322780512725963,-0.903659654439189
0.333980287452452,-0.886151513298464
0.344267906968711,-0.866860484104452
0.353601282644774,-0.845959288990038
0.361951865189666,-0.823634147805055
0.369305260369847,-0.800082733096906
0.375661655824706,-0.775512009726011
0.381036052039982,-0.750135983912147
0.385458293034862,-0.724173387472388
0.388972894877471,-0.697845323673245
0.391638672734846,-0.671372901470804
0.393528169754729,-0.64497488495048
0.394726893635527,-0.618865384501676
0.395332369235338,-0.593251615677003
0.395453017969904,-0.568331750797599
0.395206877022479,-0.544292887187233
0.394720173507311,-0.521309154462589
0.394125770665908,-0.499539981593475
0.393561504906842,-0.47912854249563
0.39316843400349,-0.460200396753962
0.393089018020379,-0.44286233972186
0.393465255531422,-0.427201473731012
0.394436798409066,-0.413284509506272
0.396139068892582,-0.401157304143326
0.398701402779999,-0.390844639206064
0.402245242429058,-0.382350239669202
0.406882402798727,-0.37565703160374
0.412713433019098,-0.370727633711975
0.419826094951886,-0.367505075098155
0.42829397890786,-0.365913729042963
0.438175275136492,-0.365860450065571
0.449511717914756,-0.367235899235535
0.462327717057765,-0.369916040565465
0.476629689477173,-0.373763789399118
0.492405601050562,-0.37863079203069
0.509624726564337,-0.384359314368841
0.52823763288418,-0.390784216309672
0.548176387822237,-0.397734987619349
0.569354994441362,-0.405037820558667
0.591670047796939,-0.412517694214421
0.615001608399469,-0.420000445538107
0.639214284019094,-0.427314802429682
0.664158508879288,-0.434294354837722
0.689672006832464,-0.440779440768468
0.715581422805332,-0.44661892529289
0.741704104675125,-0.451671852097248
0.767850015815363,-0.455808948820307
0.793823756855779,-0.458913969337537
0.81942667375657,-0.460884858265455
0.844459028120377,-0.461634725240953
0.868722204771796,-0.461092618952822
0.892020931034899,-0.459204093435407
0.914165481843132,-0.455931561746178
0.93497384482675,-0.451254434807635
0.954273819842401,-0.445169045866644
0.971905028033912,-0.437688363678209
0.987720806436899,-0.428841500123249
1.00158996535195,-0.418673020489351
1.01339838719844,-0.407242067049019
1.0230504473065,-0.394621308832283
1.03047023908814,-0.380895732582356
