0.397088063237373,-0.884445737822672
0.411174884437053,-0.877456700869622
0.425035095011476,-0.870028427797158
0.438655336669537,-0.862168911871445
0.452022766674732,-0.85388697771738
0.465125102171843,-0.845192250479072
0.477950662444422,-0.836095122136183
0.490488408933468,-0.826606715109871
0.502727982856472,-0.816738843302622
0.514659740275481,-0.806503970726256
0.526274784472852,-0.795915167881753
0.537564995504008,-0.784986066063258
0.548523056807635,-0.773730809766651
0.559142478765382,-0.762164007390418
0.569417619115174,-0.750300680423085
0.579343700134675,-0.738156211317318
0.588916822524224,-0.725746290255782
0.598133975931611,-0.713086861018042
0.606993046074346,-0.700194066161177
0.615492818428557,-0.687084191729274
0.623632978467218,-0.673773611708658
0.631414108444121,-0.660278732446511
0.63883768073365,-0.646615937250499
0.64590604775008,-0.632801531386083
0.652622428483715,-0.61885168768646
0.658990891704539,-0.604782392987406
0.665016335897331,-0.590609395595889
0.670704466005136,-0.576348153996964
0.676061767070662,-0.562013786998439
0.681095474877498,-0.54762102550683
0.685813543704961,-0.533184166121557
0.690224611321867,-0.518717026726857
0.694337961355476,-0.504232904252866
0.698163483182336,-0.489744534768475
0.701711629497594,-0.475264056059207
0.704993371728598,-0.460802972833285
0.708020153467214,-0.446372124688506
0.710803842103181,-0.431981656961408
0.71335667884802,-0.417640994568638
0.715691227345454,-0.403358818938385
0.717820321069945,-0.389143048117362
0.719757009719859,-0.375000820126065
0.72151450481578,-0.360938479622008
0.723106124717758,-0.346961567917378
0.72454523927761,-0.333074816384116
0.725845214343963,-0.319282143265873
0.727019356338354,-0.305586653902625
0.72808085712051,-0.29199064436011
0.729042739359892,-0.278495608442596
0.729917802628617,-0.265102248053997
0.730718570428162,-0.251810486858921
0.731457238358579,-0.238619487182086
0.732145623634559,-0.225527670071571
0.732795116147416,-0.212532738438758
0.733416631266035,-0.199631703175495
0.73402056456301,-0.186820912137156
0.734616748644704,-0.174096081868816
0.735214412255682,-0.161452331940809
0.735822141819064,-0.148884221749535
0.736447845564807,-0.13638578962953
0.73709872038773,-0.123950594113601
0.737781221566415,-0.111571757169281
0.738501035462848,-0.0992420092319357
0.739263055310976,-0.0869537358477322
0.740071360190188,-0.0746990257332525
0.740929197267227,-0.0624697200528844
0.741838967377183,-0.050257462710284
0.742802214001064,-0.0380537514461678
0.743819615684114,-0.0258499895314879
0.744890981925479,-0.0136375378426788
0.746015252556185,-0.00140776710416462
0.74719050060865,0.0108478899173518
0.748413938667232,0.02313788648207
0.749681928675584,0.0354705104239436
0.750989995163028,0.0478538333874667
0.752332841838659,0.0602956609638952
0.75370437148868,0.072803483932794
0.755097709099425,0.0853844308103681
0.756505228115891,0.0980452219008027
0.75791857973321,0.110792125040821
0.759328725106591,0.123630913220885
0.760725970353792,0.136566824258957
0.762100004213164,0.149604522694519
0.763439938209906,0.162748064061673
0.764734349173302,0.176000861690609
0.765971323938454,0.189365656176629
0.767138506057476,0.202844487645211
0.768223144337215,0.216438670930456
0.76921214301339,0.230148773772534
0.77009211336464,0.243974598127731
0.770849426564338,0.25791516467219
0.771470267563175,0.271968700567671
0.771940689791511,0.286132630544599
0.772246670467299,0.300403571344369
0.772374166293048,0.314777329549444
0.772309169323794,0.329248902816171
0.772037762787462,0.343812484511662
0.771546176639179,0.35846147174237
0.77082084263227,0.373188476748458
0.769848448690567,0.387985341624503
0.768615992369522,0.402843156313776
0.767110833197222,0.417752279810147
0.765320743690909,0.432702364488836
0.763233958849874,0.447682383474598
0.760839223931653,0.462680660943771
0.758125840325308,0.477684905244759
0.755083709343098,0.492682244710217
0.751703373760141,0.507659266023309
0.747976056940601,0.522602054990138
0.743893699398494,0.537496239560708
0.739448992651394,0.55232703493167
0.734635410236038,0.567079290555687
0.729447235766077,0.581737538874476
0.723879587923937,0.596286045585589
0.717928442290897,0.610708861246707
0.711590649931984,0.624989874015729
0.704863952665152,0.639112863320246
0.697746994957313,0.653061554246117
0.690239332403134,0.666819672431807
0.682341436756006,0.68037099925296
0.67405469749425,0.693699427080331
0.665381419919274,0.706789014393725
0.656324819796135,0.719624040534949
0.646889014560557,0.732189059884051
0.637079011130082,0.744468955245196
0.626900690370333,0.756448990231465
0.61636078828067,0.768114860441668
0.605466873976337,0.779452743226843
0.594227324556921,0.790449345849519
0.582651296963136,0.801091951845015
0.570748696935829,0.811368465400984
0.558530145202494,0.821267453579093
0.546006941027486,0.8307781862111
0.533191023272449,0.839890673310622
0.520094929123279,0.848595699851588
0.506731750649066,0.856884857774608
0.49311508936692,0.864750575093315
0.479259008994431,0.872186141984093
0.465177986578524,0.879185733754343
0.450886862195806,0.885744430596721
0.436400787425051,0.891858234049287
0.421735172797183,0.897524080094482
0.406905634432048,0.902739848842954
0.391927940074358,0.907504370761706
0.376817954743417,0.911817429419526
0.361591586212637,0.91567976073639
0.346264730535391,0.919093048737189
0.330853217833383,0.922059917823893
0.315372758562564,0.92458392159392
0.299838890469539,0.926669528246039
0.284266926448552,0.928322102628544
0.268671903505358,0.929547884997629
0.253068533029801,0.930353966566809
0.237471152573511,0.930748261940852
0.221893679323036,0.930739478539926
0.206349565451822,0.930337083131481
0.190851755526833,0.929551265598774
0.17541264613732,0.928392900085779
0.160044047904198,0.926873503668553
0.144757150018977,0.925005192712837
0.129562487450898,0.922800637086765
0.114469910950243,0.920273012405969
0.0994885599644817,0.917435950496113
0.0846268385722397,0.914303488264863
0.0698923945278861,0.910890015181565
0.0552921014970802,0.907210219568332
0.0408320445507523,0.903279033910929
0.0265175089719377,0.899111579401653
0.0123529724165462,0.894723109929413
-0.00165789954429664,0.890128955734375
-0.0155122544862865,0.8853444669458
-0.0292080507979409,0.880384957222161
-0.0427440519637681,0.875265647712178
-0.0561198174913972,0.870001611554114
-0.0693356905229281,0.864607719128512
-0.0823927821840693,0.859098584276578
-0.0952929527377205,0.853488511692545
-0.108038789621494,0.847791445693701
-0.120633582461163,0.842020920566328
-0.133081295164191,0.836190012679497
-0.145386535209183,0.830311294551723
-0.157554520258424,0.82439679104772
-0.169591042231353,0.818457937874056
-0.181502428987098,0.812505542533457
-0.193295503773758,0.80654974788774
-0.204977542611153,0.800599998469072
-0.21655622978204,0.794665009668369
-0.228039611614455,0.788752739918297
-0.239436048744718,0.782870365976499
-0.250754167056793,0.777024261402408
-0.262002807499033,0.771219978308428
-0.273190974983929,0.765462232453312
-0.284327786580201,0.759754891732365
-0.295422419209483,0.754100968105736
-0.306484057061911,0.74850261299243
-0.317521838946128,0.742961116144065
-0.32854480578956,0.73747690799863
-0.33956184850432,0.732049565500791
-0.350581656432684,0.726677821361631
-0.361612666583907,0.721359576717157
-0.372663013871022,0.716091917131489
-0.383740482552397,0.710871131877524
-0.394852459078078,0.705692736414898
-0.406005886535444,0.700551497972561
-0.417207220882379,0.695441464130986
-0.428462389149139,0.690355994287315
-0.439776749782298,0.685287793875356
-0.451155055295698,0.68022895120156
-0.462601417384207,0.67517097674783
-0.474119274646322,0.670104844782342
-0.485711363051336,0.665021037110509
-0.497379689275894,0.659909588789861
-0.509125507023388,0.654760135624929
-0.520949296427822,0.649561963251274
-0.532850746631488,0.644304057611632
-0.544828741613251,0.638975156621727
-0.556881349331269,0.633563802818723
-0.56900581423084,0.628058396781493
-0.581198553154667,0.622447251108945
-0.5934551546793,0.616718644740569
-0.605770381887893,0.610860877402118
-0.618138178575717,0.604862323958956
-0.630551678871205,0.598711488460117
-0.643003220241702,0.592397057657447
-0.655484359839604,0.58590795378641
-0.667985894131215,0.57923338639819
-0.680497881737615,0.572362903036605
-0.693009669403938,0.565286438558043
-0.705509921001025,0.557994362898137
-0.717986649451244,0.550477527095174
-0.730427251458611,0.542727307387258
-0.742818544912088,0.534735647208002
-0.755146808820258,0.526495096913979
-0.767397825625367,0.517998851086263
-0.779556925735234,0.509240783258127
-0.79160903410255,0.500215477931268
-0.803538718672876,0.490918259753817
-0.815330240515076,0.481345219744722
-0.826967605441148,0.471493238460922
-0.838434616916309,0.461360006015958
-0.849714930054989,0.450944038871255
-0.860792106493882,0.440244693334165
-0.871649669929597,0.429262175710085
-0.882271162105629,0.417997549069244
-0.892640199031472,0.406452736602327
-0.902740527215542,0.39463052155268
-0.912556079693425,0.382534543726505
-0.922071031633533,0.370169292596112
-0.931269855303819,0.357540097024872
-0.94013737418549,0.344653111655969
-0.948658816022913,0.331515300020386
-0.9568198646029,0.31813441443258
-0.96460671006144,0.304518972755153
-0.972006097521573,0.290678232126248
-0.979005373872539,0.276622159755549
-0.985592532507506,0.262361400906381
-0.991756255845083,0.247907244192657
-0.997485955468411,0.23327158433008
-1.00277180972487,0.218466882491138
-1.00760479863933,0.203506124422987
-1.01197673600425,0.188402776496196
-1.01588029852111,0.173170739860553
-1.01930905187878,0.157824302891677
-1.02225747366693,0.14237809211896
-1.02472097303427,0.126847021831383
-1.02669590701468,0.111246242563044
-1.02817959345701,0.0955910886646085
-1.02917032050752,0.0798970251705918
-1.02966735260773,0.0641795941751067
-1.02967093298364,0.0484543609306867
-1.02918228261635,0.0327368598858446
-1.02820359569756,0.017042540877286
-1.02673803158742,0.00138671569201993
-1.02478970330571,-0.014215494786859
-1.02236366260084,-0.0297492126393027
-1.01946588165472,-0.0451998539641414
-1.0161032314944,-0.0605531787273948
-1.01228345719461,-0.0757953392037106
-1.00801514996746,-0.0909129268171818
-1.00330771624796,-0.105893017194214
-0.998171343895746,-0.120723213248251
-0.992616965644427,-0.135391686124045
-0.986656219940952,-0.149887213837699
-0.98030140932735,-0.164199217457945
-0.973565456526892,-0.178317794683895
-0.966461858405545,-0.192233750684977
-0.959004637987917,-0.205938626079636
-0.951208294714346,-0.219424721940857
-0.943087753132659,-0.232685121728425
-0.934658310224101,-0.245713710060134
-0.925935581568223,-0.258505188246762
-0.916935446555925,-0.271055086528589
-0.907673992863496,-0.283359772964391
-0.898167460403222,-0.295416458937243
-0.888432184968093,-0.307223201254974
-0.878484541789167,-0.318778900836726
-0.868340889224388,-0.330083297990749
-0.858017512796941,-0.34113696430215
-0.847530569799744,-0.351941291162908
-0.836896034680276,-0.362498474989896
-0.82612964541672,-0.372811499189888
-0.815246851092332,-0.38288411294357
-0.804262760870105,-0.392720806893312
-0.793192094564082,-0.402326785831834
-0.782049134997268,-0.411707938500965
-0.770847682328873,-0.420870804621236
-0.759601010525735,-0.429822539284195
-0.748321826144118,-0.438570874849889
-0.737022229578899,-0.447124080502012
-0.725713678927226,-0.45549091962261
-0.714406956603305,-0.463680605157028
-0.703112138829988,-0.471702753147898
-0.691838568121351,-0.479567334624314
-0.680594828858515,-0.487284626039056
-0.669388726048655,-0.494865158452567
-0.658227267344451,-0.502319665667501
-0.647116648388252,-0.509659031521978
-0.636062241532008,-0.516894236553097
-0.625068587970592,-0.524036304244944
-0.614139393312564,-0.531096247077053
-0.603277526598769,-0.538085012590245
-0.59248502276548,-0.545013429686786
-0.5817630885351,-0.551892155381035
-0.571112111703837,-0.558731622215062
-0.560531673782323,-0.565541986551219
-0.550020565931794,-0.572333077950278
-0.539576808125435,-0.579114349839577
-0.529197671451691,-0.585894831670591
-0.518879703463908,-0.592683082759572
-0.508618756468603,-0.599487147998341
-0.498410018633056,-0.606314515614981
-0.488248047781732,-0.613172077156189
-0.478126807740464,-0.620066089854315
-0.46803970707723,-0.627002141532764
-0.457979640078905,-0.633985118193478
-0.447939029794589,-0.641019174419662
-0.437909872967929,-0.648107706715839
-0.427883786673459,-0.65525332989578
-0.41785205646528,-0.662457856616828
-0.407805685840474,-0.669722280146742
-0.397735446814517,-0.677046760436469
-0.387631931401641,-0.684430613559168
-0.377485603789546,-0.691872304562579
-0.367286852995276,-0.69936944376832
-0.357026045787186,-0.706918786538106
-0.346693579657009,-0.714516236513193
-0.336279935625958,-0.722156852319602
-0.325775730669492,-0.729834857718031
-0.315171769547101,-0.737543655163688
-0.304459095825825,-0.745275842727838
-0.29362904188965,-0.753023234319545
-0.282673277730975,-0.760776883133016
-0.271583858325364,-0.768527108233223
-0.26035326939651,-0.776263524180017
-0.248974471384861,-0.783975073578933
-0.237440941440624,-0.791650062435291
-0.225746713269824,-0.79927619817708
-0.213886414670759,-0.806840630201524
-0.201855302607483,-0.814329992790232
-0.189649295676873,-0.821730450228417
-0.177265003836297,-0.829027743954929
-0.164699755269958,-0.83620724156175
-0.151951620283405,-0.843253987454279
-0.139019432127756,-0.850152754977072
-0.125902804667369,-0.856888099803903
-0.112602146817497,-0.863444414385925
-0.0991186736913438,-0.869805983247481
-0.0854544144091761,-0.875957038915716
-0.0716122165355476,-0.881881818267545
-0.0575957471241857,-0.887564619075857
-0.0434094903637649,-0.892989856535935
-0.0290587418313482,-0.898142119553123
-0.0145495993739776,-0.903006226573618
0.000111049347659473,-0.907567280742007
0.0149155426060943,-0.911810724171746
0.0298554635839153,-0.915722391118236
0.0449216625070469,-0.919288559848357
0.0601042818482453,-0.922496003005457
0.0753927845022776,-0.925332036274598
0.0907759848222997,-0.927784565159536
0.106242082395449,-0.929842129690262
0.121778698424647,-0.931493946888043
0.137372914573151,-0.932729950823657
0.153011314118412,-0.933540830113946
0.168680025252578,-0.93391806271183
0.184364766358247,-0.933853947855555
0.200050893080135,-0.933341635054022
0.215723447006077,-0.932375149996716
0.231367205764183,-0.930949417288772
0.246966734337338,-0.929060279924151
0.262506437391141,-0.926704515422719
0.277970612407351,-0.923879848570045
0.293343503411471,-0.920584960712097
0.308609355080729,-0.916819495570482
0.323752467016997,-0.912584061557515
0.338757247968457,-0.907880230584135
0.353608269783916,-0.902710533367386
0.368290320884587,-0.897078451257919
0.38278845904001,-0.890988404621586
0.397088063237373,-0.884445737822672
