0.804271109328592,-0.680379634119526
0.768723574750307,-0.63459324061396
0.742039336392954,-0.627563974688745
0.771258032860429,-0.533569871789849
0.71953297529105,-0.488607777727011
0.676203045603709,-0.428716477121076
0.599360167611203,-0.354533311902299
0.562379652242981,-0.308498142480734
0.530886717207068,-0.301614649361658
0.434759136992318,-0.203730419979733
0.375197734633142,-0.161564103725057
0.301677046478498,-0.0909281645119312
0.283335473344401,-0.123489827104268
0.258270240698046,-0.108689439703902
0.249109566868594,-0.0598703257723961
0.283023351322535,-0.0772085690855389
0.242325383086731,-0.0833323128445246
0.31591305340813,-0.0646478965158088
0.373721134030464,-0.0468579189120357
0.466823113797373,-0.10477572239446
0.508142499375438,-0.0744843195458589
0.568443727857633,-0.0187243251277786
0.682557507663652,-0.0336800028208381
0.763451166397039,-0.0138409850139423
0.882895274205332,-0.00627323086310753
0.911282854749158,0.048833011056605
0.921412420196111,0.117763127808028
0.989696450144747,0.12237847553471
0.983799074287634,0.105006499073345
1.03495462053728,0.186463945516374
0.966566421927257,0.194150088806887
0.925433274908317,0.215149145183001
0.84526873511352,0.246944991791909
0.777388065766985,0.250799813285384
0.722225232159999,0.236536701314639
0.630793154500065,0.231436224828379
0.552178156061032,0.17904133758528
0.442145160450432,0.231166615844638
0.393939949907417,0.133794529879185
0.302958409346494,0.169691911698051
0.282023642231751,0.141172845170527
0.243752972947369,0.128264147926456
0.220638553171224,0.122491400414224
0.212764903246955,0.125860418993123
0.219357870891288,0.139905514872232
0.238855535828229,0.16556408477885
0.269023333476285,0.203085396164681
0.307105564846976,0.25198043428653
0.3500033799393,0.311017171474368
0.394467880270532,0.378262794080853
0.437296265611993,0.451171456823855
0.475518987663815,0.526713214786702
0.506566658740577,0.601537096168952
0.528406939215548,0.672158996764695
0.539643693276046,0.735163348688076
0.539573221971308,0.787406455946625
0.528195191621684,0.826209071780692
0.506178793505014,0.849526244864566
0.474787511059188,0.856083663034958
0.435768453805954,0.845471606623875
0.391214380800698,0.818190078058281
0.343408146651462,0.775641553059524
0.294660262416152,0.720070927027768
0.24715051676932,0.654455416872248
0.202784140215974,0.582350227678302
0.163071853373857,0.507698516594771
0.129041399499592,0.434616413734005
0.101185939709734,0.367165452010864
0.0794521353566951,0.309125613559576
0.0632680250928492,0.263782263462628
0.0516081033648853,0.233739504385877
0.043090499660634,0.2207709899085
0.0360990077528906,0.225717068175053
0.028921061599843,0.248434420671586
0.0198917067941324,0.287801276576093
0.0075332411177494,0.341778007813463
-0.00931948155711881,0.407519642147626
-0.0314170950112594,0.481533769554755
-0.0590245202003666,0.559874646398356
-0.0918858235414161,0.638362184248808
-0.129227968244127,0.712813073295331
-0.169803623423938,0.779270620133737
-0.211970501526997,0.834220015174799
-0.25380215397259,0.874776675518105
-0.293222936637168,0.898836975734043
-0.328158109197129,0.905182977546465
-0.35668887365155,0.893535557487525
-0.377201667958083,0.864553437300497
-0.38852124785742,0.819778854518839
-0.390018005106833,0.761533772646912
-0.38168152956768,0.692773429425532
-0.364154529843719,0.616906482698211
-0.338723750245841,0.537592889286615
-0.307267300732304,0.458531832886508
-0.27216067340868,0.383252435783737
-0.236146470038477,0.314919627178961
-0.202175331046422,0.256166427588936
-0.173227575755644,0.20896212002521
-0.152126501430201,0.174523431688895
-0.141355046474102,0.153273095843161
-0.142887544788535,0.14484717760055
-0.15804757410811,0.148149517928596
-0.187401468708475,0.161448766758385
-0.230695008988238,0.182510917481687
-0.286838240112171,0.208758178254436
-0.353940464919765,0.237443545662787
-0.429394381512479,0.265829669390053
-0.510005284166505,0.291360553966044
-0.592158408349091,0.311815330039338
-0.672015055571598,0.325434691212899
-0.745726237282878,0.331012538979494
-0.809651351570089,0.327947776922092
-0.860568933715009,0.316253887460143
-0.895866837017327,0.296526733771298
-0.913700290418696,0.269873773589804
-0.913108082936927,0.237810373318567
-0.89407953587403,0.202131009999161
-0.857567798251759,0.164764711841121
-0.805448165736483,0.127625017313918
-0.740423386592271,0.0924649719182305
-0.665881081296244,0.0607472193883009
-0.585711272191006,0.033538114566608
-0.50409442020589,0.0114330661394012
-0.425272149866928,-0.00548187542276647
-0.353313901651309,-0.0176296896796722
-0.291893016683561,-0.0259035031224945
-0.244085215711052,-0.0315919993402655
-0.212201114655408,-0.0362744396783294
-0.19766240278054,-0.0416927233209754
-0.200928719229379,-0.0496095298849221
-0.221479256987258,-0.0616625964362095
-0.257849883159013,-0.0792255160080848
-0.307723287726085,-0.10328508179458
-0.368066558441594,-0.134344161398421
-0.435307815562564,-0.172357434304064
-0.505541293024981,-0.21670516878659
-0.574748656523341,-0.266207690870867
-0.639023497426371,-0.319180471406784
-0.694785882127763,-0.373527005587574
-0.738974568013284,-0.426864062724686
-0.769205969835721,-0.476671614244324
-0.783891078715902,-0.520457956059395
-0.782304165787622,-0.555929349155178
-0.764600078514369,-0.581152992987981
-0.731780074442684,-0.594702360262213
-0.685609240441356,-0.59577485268217
-0.628491424556055,-0.58427333308588
-0.563310087021203,-0.560845254600761
-0.493245407392755,-0.526875709510891
-0.421579252187706,-0.484433597770995
-0.351500140061363,-0.436173087012386
-0.285920114113762,-0.385195414381043
-0.227314465856818,-0.334878681889847
-0.177593621222583,-0.288685453432189
-0.138014305746734,-0.249959532198359
-0.109134497995111,-0.221724176768634
-0.0908138266527652,-0.206494140097846
-0.0822581508160674,-0.206113272283173
-0.0821042706944068,-0.22162804787036
-0.0885382235478906,-0.253205340318021
-0.0994385831612899,-0.300100190604008
-0.112534726081935,-0.36067635868775
-0.125569241704795,-0.43247928536876
-0.136453590054281,-0.512357921501626
-0.143406748704472,-0.596628896805791
-0.145067890915217,-0.68127388652003
-0.140576010546835,-0.76215895383874
-0.129611729026972,-0.83526323022346
-0.112399130818561,-0.896903634716108
-0.0896682036464523,-0.943942471565348
-0.0625811284777653,-0.973965678073131
-0.032628096948018,-0.985421167972432
-0.00150037162606999,-0.977709030594482
0.0290501854986283,-0.951218163685798
0.057355006591733,-0.907307067990971
0.0819658221314515,-0.848229823966122
0.101774957195815,-0.777011505655576
0.11611025605519,-0.697280267668145
0.124797711014142,-0.613065887640122
0.128187081595655,-0.528576504514246
0.127138325045153,-0.447966544465021
0.122969351637411,-0.375109296793932
0.117368290615557,-0.31338726495329
0.112275927833803,-0.265512295873972
0.109746089671248,-0.233385654802779
0.111793357885664,-0.218005777252199
0.120238497366993,-0.21942854513763
0.136562293230416,-0.236781778382102
0.161778099444756,-0.268332399754342
0.196332318248831,-0.311601616892923
0.240040322838888,-0.363520660424548
0.292063110962938,-0.420617289852276
0.350927374151918,-0.47922156810408
0.414588851817585,-0.535678411059759
0.480535991775567,-0.586554194908052
0.545928242802148,-0.628825258660062
0.607760936212305,-0.660037430163862
0.663046828194572,-0.678427644742712
0.709003099145688,-0.683001189608211
0.743232029011831,-0.673560936379823
