0.321822110892302,0.427143241106663
0.32175498248911,0.427115055180534
0.321686560008594,0.427086241058539
0.32161681243046,0.427056781491059
0.321545707847504,0.427026658666807
0.420888167766413,0.53062188834399
0.321399295426391,0.42696434906689
0.321323919069336,0.426932123665688
0.414141769843647,0.526008749141779
0.321168647228894,0.42686543024391
0.321088677054594,0.426830919610374
0.320923873143944,0.426759458530292
0.320838957895157,0.426722461003197
0.320752310742765,0.426684586086661
0.320663887817717,0.426645808176031
0.320573643927532,0.426606100781515
0.320481532510135,0.42656543649288
0.320387505585866,0.426523786942554
0.320291513707603,0.426481122767051
0.320193505908886,0.426437413566645
0.320093429649981,0.426392627863188
0.319991230761774,0.426346733055991
0.319886853387408,0.426299695375662
0.319780239921563,0.426251479835797
0.319671330947267,0.426202050182414
0.319560065170128,0.426151368841007
0.319446379349881,0.426099396861107
0.319330208229113,0.426046093858201
0.319211484459047,0.425991417952894
0.31909013852225,0.425935325707137
0.318966098652122,0.425877772057395
0.318839290749018,0.425818710244569
0.318709638292851,0.425758091740504
0.318577062252005,0.425695866170905
0.318441480988396,0.425631981234448
0.31816096261012,0.425499013907004
0.318015848274825,0.425429816492923
0.317867374055625,0.425358729473962
0.317715443709888,0.425285689552336
0.317559957727142,0.425210630925685
0.317400813201557,0.425133485173047
0.317237903698838,0.425054181134978
0.428394068074573,0.533195176776265
0.316900345542692,0.424888799109322
0.316725465096882,0.424802563942612
0.316362891302342,0.424622587939083
0.316174940917394,0.424528669741609
0.410127774945974,0.525680857219407
0.218563391074544,0.333773275165314
0.315375498885414,0.424124548520713
0.315162988525377,0.424015883079899
0.314945103400726,0.423903938558247
0.314721676001465,0.423788593908285
0.314257493297808,0.423547193448159
0.314016371145345,0.42342086815468
0.313768972468959,0.423290603195589
0.313515096269809,0.423156248421139
0.313254533974746,0.423017646946299
0.312987069111555,0.42287463480442
0.312712476968826,0.422727040580879
0.312430524239652,0.422574685025442
0.312140968648342,0.422417380641954
0.311843558559278,0.422254931253912
0.311538032567016,0.422087131544343
0.311224119066667,0.421913766568305
0.310901535803547,0.421734611236229
0.310569989401058,0.421549429766158
0.31022917486566,0.421357975102825
0.309878775067797,0.421159988301362
0.309518460197521,0.420955197873253
0.309147887193551,0.42074331909199
0.1985077447049,0.316403238933975
0.308374524660117,0.420297086903789
0.307970977213315,0.420062090984494
0.207098694333961,0.312941646015318
0.30712813745232,0.419566610914697
0.306687990001001,0.419305382455211
0.306234757752979,0.41903463374368
0.30576796741512,0.418753943314073
0.305287125862431,0.418462867874092
0.304791719215272,0.418160941018256
0.420271020856707,0.535747051253491
0.303755045488598,0.417522543551552
0.303212637921753,0.417185011760474
0.302653382101788,0.416834502970055
0.411882199857684,0.522337459368051
0.399080394949751,0.505886053965802
0.299581234518867,0.414864955035127
0.298906589846088,0.414422667328136
0.297490741774358,0.413483288385246
0.40186680578334,0.525641716379556
0.295980266030086,0.412464702624739
0.295187188379103,0.411923205324017
0.293520271940628,0.410770279143814
0.292644262996646,0.410156444264666
0.29173835869409,0.409515971242143
0.289831966923558,0.408149468387758
0.288828892241251,0.40742040216735
0.287790742673937,0.406658613262644
0.28671607430816,0.405862341044415
0.284451077436761,0.404158750832041
0.283257524293628,0.403247335013237
0.28202099706323,0.402293223361285
0.280739696991901,0.401294027976239
0.279411745075166,0.400247207853357
0.278035178809039,0.399150057993061
0.276607948898882,0.397999697678755
0.270348183635163,0.39280165300915
0.171081728411642,0.294253582942045
0.261097696810148,0.384671645034815
0.152300163210749,0.272995277841763
0.249925477373951,0.374147371192901
0.247423859459107,0.371685169005033
0.244824614996806,0.369085744844597
0.242123851332176,0.366340225627866
0.239317575461293,0.363439106603922
0.226954540102322,0.350063727187439
0.220030690077165,0.342140502088221
0.21636815404252,0.337820366023089
0.212566240546108,0.333239554116491
0.208620850794573,0.32838037114039
0.204528050310495,0.323223868994328
0.200284130511378,0.317749765825753
0.191329672310507,0.305760457690268
0.186613555815056,0.299197260462993
0.181735374063047,0.292220304700615
0.176693891999904,0.284801363498523
0.286745235831542,0.374494182638475
0.166120615314871,0.26851532699768
0.154904525210541,0.250075161528756
0.143080007647772,0.229184279404741
0.136958854841703,0.217717963318976
0.222712581340509,0.306548266618966
0.232213671506466,0.290524989637615
0.111402749672096,0.163989108644193
0.00980562417282535,0.033657010261072
0.0982886488744426,0.131715973874948
0.0917567793573201,0.114045674000848
0.0669149726947829,0.0319208763135925
-0.0347397352921457,-0.113705376381728
0.0474898427705619,-0.0706986136968425
0.044182490405383,-0.0997900703604551
0.0417339455724433,-0.130269549022611
0.0402822076749618,-0.16211746271149
0.159473419931856,-0.119836798855842
0.0434257724676448,-0.26536407755388
0.1483585304889,-0.18735112283439
0.0534047001133296,-0.339655130071315
0.0612632708699697,-0.377989996168721
0.0835196067211151,-0.455938228646522
0.115401782799564,-0.533680467082086
0.135204597402536,-0.571618045134107
0.1576509545923,-0.60840929528131
0.210423241779975,-0.676828601702781
0.273099362785203,-0.735367064880455
0.307713150671312,-0.759817308987285
0.344160882384315,-0.780500936567186
0.382111034159837,-0.797050635149229
0.535979287254768,-0.709358189688515
0.540782409115605,-0.81669261789835
0.57989274272964,-0.80932620688948
0.654201483203259,-0.780163909525755
0.688554222204148,-0.758794051787269
0.720546293792553,-0.733306529896854
0.749875423372454,-0.70408481363947
0.776301183825583,-0.671558996488153
0.79964839326347,-0.636191828660186
0.819807768527613,-0.598464558290684
0.836734034961885,-0.558863289327786
0.85044183457253,-0.517866458246116
0.860999872490258,-0.475933892156094
0.868523792619937,-0.433497755852623
0.98087244634677,-0.273490702736235
0.875118857451256,-0.348665111996183
0.754136579249677,-0.322851792255112
0.852138904462404,-0.150501591222683
0.925568575574784,0.0751903117300456
0.795030227082234,0.0116134140790886
0.67572585795351,-0.0397294486203287
0.605110214969236,0.0522428210729841
0.685538806433543,0.189621587186838
0.67239652577157,0.205861931812558
0.647042113789212,0.235073403780727
0.494336439918849,0.16033713721111
0.579734661058418,0.301114556290151
0.569861563362847,0.309568363606836
0.560367993217595,0.317424604768719
0.551247303868358,0.324726117892466
0.526036972639952,0.343689341450923
0.497060084997973,0.363344622018629
0.478412992936577,0.374809955588096
0.567677862812799,0.494944296944394
0.457090855513903,0.386790661037806
0.452322368507535,0.38930412127351
0.355825029339553,0.298378437898709
0.439211060665607,0.395898276068726
0.435209019351761,0.397817459477952
0.431377224953801,0.399613441764126
0.424193320582219,0.402869747315933
0.408704016610014,0.409386419535671
0.405979083383978,0.410459512758936
0.403365230000924,0.411467660968705
0.398450476998978,0.413306132978994
0.389744078953973,0.416374597530637
0.385886677526777,0.417654413035032
0.382321160437815,0.418792268430905
0.37746498928799,0.420270049690447
0.375966089890497,0.420708945158755
0.374522752438569,0.421123704004485
0.36805876697456,0.422883445519512
0.458321234564649,0.536099708081814
0.360761898034776,0.424666289343006
0.35985790617027,0.424871139664043
0.358984365904514,0.425065580529264
0.236978866980336,0.327989655583979
0.354317738672415,0.426043731760183
0.351679840333645,0.426549153752027
0.35107144754099,0.426660588425919
0.349356869476864,0.426963890362364
0.347304316714361,0.427305359848714
0.345484821293955,0.427587361743924
0.344652432620585,0.427709588628056
0.342769579466587,0.427969577170491
0.342423943800945,0.428014730920231
0.341760872912891,0.428099040953795
0.340832178003112,0.428211881865747
0.340539047229789,0.428246195538935
0.339441786538823,0.428368901818698
0.227479273033761,0.316802486059577
0.235073241379626,0.320397445803902
0.337148843416082,0.428594323684154
0.335851832479029,0.428701668950738
0.334900032797697,0.428770289189432
0.431230560255737,0.541338021284882
0.334471477147838,0.428798202038247
0.334334998895298,0.428806687234987
0.33323409012059,0.428867664433058
0.439902561182119,0.53034476002434
0.331975245321073,0.428919807985248
