0.173686412348251,-0.858200678285304
0.173793918650836,-0.858185996483623
0.173903530145416,-0.858170909523854
0.174015298140676,-0.858155404539704
0.174129275438698,-0.858139468198439
0.174245516385392,-0.858123086681809
0.174364076922867,-0.858106245666108
0.174485014643812,-0.85808893030131
0.174608388847984,-0.858071125189251
0.174734260600887,-0.858052814360802
0.174862692794749,-0.858033981251984
0.174993750211875,-0.858014608678959
0.175127499590508,-0.85799467881186
0.17526400969328,-0.857974173147384
0.17540335137839,-0.857953072480086
0.175545597673616,-0.857931356872314
0.175690823853294,-0.857909005622699
0.175990528679802,-0.85786230937422
0.176145169845072,-0.857837918848866
0.176303116108588,-0.857812801554359
0.17646445524551,-0.857786932442388
0.176629277809558,-0.857760285477189
0.176797677234824,-0.857732833591601
0.176969749941827,-0.857704548640947
0.177145595447972,-0.857675401354614
0.177325316482652,-0.857645361285205
0.177509019107174,-0.85761439675513
0.177696812839763,-0.8575824748005
0.177888810785868,-0.857549561112163
0.178085129774027,-0.857515619973723
0.178285890497539,-0.857480614196384
0.178491217662248,-0.85744450505042
0.1787012401407,-0.857407252193102
0.178916091132999,-0.857368813592854
0.179135908334677,-0.857329145449439
0.179360834111916,-0.857288202109942
0.179591015684488,-0.857245935980304
0.179826605316773,-0.85720229743214
0.180067760517271,-0.857157234704581
0.180314644247008,-0.857110693800831
0.180567425137289,-0.857062618379139
0.180826277717246,-0.857012949637831
0.181091382651693,-0.856961626194083
0.181362926989772,-0.856908583956015
0.181641104424961,-0.856853755987738
0.181926115567002,-0.856797072366905
0.182218168226348,-0.856738460034311
0.182517477711784,-0.856677842635065
0.182824267141874,-0.856615140350789
0.183138767770955,-0.856550269722317
0.18346121933042,-0.856483143462274
0.1841309787125,-0.856341754556552
0.184478811684962,-0.856267296353806
0.184835646690392,-0.856190190948977
0.185201771557812,-0.856110328701634
0.185577485009618,-0.856027594767582
0.185963097134682,-0.855941868820243
0.186358929884461,-0.855853024755434
0.18676531759333,-0.855760930378459
0.187182607524442,-0.85566544707235
0.187611160442468,-0.855566429445999
0.188503569441922,-0.855357173534767
0.188968220120994,-0.855246607121333
0.189445724340332,-0.855131849263292
0.189936520010617,-0.855012714617988
0.19044106263233,-0.854889008453113
0.190959826102251,-0.854760526110661
0.191493303561038,-0.854627052436868
0.192042008284156,-0.854488361175807
0.192606474618559,-0.854344214324065
0.193187258967651,-0.854194361443785
0.193784940827207,-0.854038538931114
0.194400123875104,-0.853876469236894
0.195033437117854,-0.853707860036181
0.195685536097108,-0.853532403342898
0.196357104159504,-0.853349774565678
0.197048853793393,-0.853159631500598
0.19776152803621,-0.852961613256204
0.198495901956447,-0.852755339105847
0.199252784214433,-0.852540407261956
0.200837486296116,-0.852082850090978
0.201667106640252,-0.85183930364037
0.202522840110653,-0.851585254151713
0.203405689821072,-0.851320172981403
0.204316703762932,-0.851043501071457
0.205256977056668,-0.850754646985868
0.206227654325005,-0.85045298480697
0.207229932194993,-0.850137851880955
0.2082650619359,-0.849808546400777
0.209334352240495,-0.849464324813708
0.210439172157563,-0.849104399039713
0.211580954183931,-0.848727933485698
0.212761197524627,-0.848334041839353
0.219296924830481,-0.846068164620182
0.220743612479204,-0.845547795413363
0.222241437227144,-0.845002051311018
0.225399297561222,-0.843828583422469
0.227064001506055,-0.843197693053704
0.230577493397543,-0.841838891941729
0.232431667723185,-0.841107149088572
0.234354606963334,-0.840337742596672
0.238419075270643,-0.838676780712854
0.240567135130742,-0.83778025399502
0.242797037377194,-0.83683609724556
0.24511246704799,-0.835841377354529
0.247517292639207,-0.834792957342007
0.250015575364277,-0.833687480752978
0.252611578795769,-0.832521354769522
0.255309778886579,-0.831290731930573
0.258114874363013,-0.829991490340102
0.261031797476937,-0.828619212234633
0.264065725097787,-0.827169160770167
0.267222090117539,-0.825636254877154
0.270506593132583,-0.824015042019792
0.273925214355601,-0.82229966868297
0.285050037939748,-0.816523345563249
0.302177521538582,-0.80706358015686
0.306921910553295,-0.804324187217148
0.328020518808474,-0.791528892710064
0.333875467734653,-0.787802520406726
0.339983932633813,-0.783834083115038
0.346357293573157,-0.77960591129102
0.35994606850677,-0.770292655339003
0.367186022751833,-0.765164866519663
0.37473989198056,-0.759691692606834
0.39084145507858,-0.747604146369245
0.408356364341343,-0.733798964285999
0.417677009032754,-0.726170075067277
0.427390550680799,-0.718008074766953
0.470417506785433,-0.679179925270623
0.482271161910975,-0.667687603827464
0.494580621343755,-0.655372926128429
0.507351204860277,-0.642175266316173
0.520585715177006,-0.628030078543042
0.58672801474333,-0.626122995302227
0.572642740932732,-0.581255255535299
0.620505888079125,-0.57423443433193
0.609426270573865,-0.519142476339654
0.654367625422531,-0.466474787962934
0.687065560995763,-0.413199821018993
0.706709124102664,-0.432730082715217
0.673601914423478,-0.365064433701872
0.730898723623098,-0.362374951856178
0.850692125554037,-0.10308281271425
0.868322990092228,0.0166647348281397
0.841567372810176,0.0313097959300361
0.891628554419771,0.0421332807243123
0.84244056608991,0.241081214165598
0.857359683314336,0.321114868097671
0.820157980180438,0.383924509439798
0.804548431141835,0.413990401857442
0.781807340305719,0.537697080371383
0.755784053412221,0.62607777535719
0.683943308393245,0.841026065758
0.527019512638391,0.896290497139033
0.475628133128353,0.986930407870321
0.0824762703772481,0.99999266101711
0.00739048524374131,0.967302500214708
0.0149952257936052,0.896584424952236
-0.143745328218976,0.81748207818803
-0.28134428942067,0.591606301822146
-0.304439815743255,0.532156401921788
-0.349077648933326,0.502790529922791
-0.341730907620264,0.44916691973983
-0.350627089507292,0.351825947735441
-0.383968526059332,0.253550080226794
-0.351112130823064,0.25513986890788
-0.388196523458718,0.109576956074649
-0.364724318598602,0.0697127777866222
-0.360533120685756,0.0185288689459164
-0.347237423023095,-0.0774991294418495
-0.283614166467561,-0.217044430318574
-0.29541493287574,-0.279506334031463
-0.225918738584887,-0.310485071388049
-0.258281841098252,-0.375983283760918
-0.183601159833701,-0.522625719788399
-0.171782605530637,-0.542043533751942
-0.143072892347508,-0.625341907314395
-0.11528606214655,-0.603296608303534
-0.117076454595967,-0.622271757149955
-0.0722268820393001,-0.681932504677695
-0.088099654738139,-0.659294400151667
-0.112340718387372,-0.719576911239452
-0.0539676743567767,-0.698766143467903
-0.0151706246816493,-0.708709477936772
-0.0246367085160336,-0.729428743434785
-0.0116092186882052,-0.742137879227919
-0.00547392241678585,-0.747934868142837
0.000421021195034399,-0.75339242804055
0.00608448422861144,-0.758532695845235
0.0217726370620834,-0.772248794674607
0.0312296084919296,-0.780148076635666
0.0480191844016797,-0.793489916313526
0.0554653235090244,-0.799126456173993
0.0687138155673917,-0.808724099678281
0.0717165215915778,-0.81082172874869
0.074605859333864,-0.812812750603354
0.0800634768442697,-0.816499562204047
0.0826407658092719,-0.818206656499391
0.0898165399322764,-0.822843108859073
0.0941750260040701,-0.825574194644256
0.0962371956689105,-0.826843585155366
0.101993410455561,-0.830308010866557
0.110320445786745,-0.835108429468285
0.114663910267208,-0.837509556237016
0.117322540119209,-0.838943261476612
0.118586293696681,-0.839614960346133
0.124314762248205,-0.842578281494722
0.126357942922882,-0.843601996050963
0.127331631631223,-0.844083520691076
0.128274979181939,-0.844546084295657
0.130934048835879,-0.845828600403483
0.133358003349125,-0.846969560629248
0.136266422401354,-0.848301792791401
0.143212869759809,-0.851310269992694
0.144615009932194,-0.851885721821864
0.145057694320717,-0.852065041975499
0.145488693215854,-0.852238519593185
0.145908381667865,-0.85240638182974
0.148558211879031,-0.8534412513155
0.149556394914016,-0.853819461049857
0.15018145663256,-0.854052914016979
0.150776429212339,-0.854272649801504
0.151063186922134,-0.854377676717279
0.151616288194307,-0.854578611459094
0.152397822773562,-0.854858770134248
0.154021244853285,-0.855426070047762
0.154232574698051,-0.855498408560788
0.154838732772309,-0.85570389482528
0.156901169369838,-0.85637969568926
0.157050369495221,-0.856427109930885
0.158504544613838,-0.856878002691477
0.159173122992095,-0.857078098836827
