-0.176693723990087,0.923740933742748
-0.169561346474683,0.914600846773958
-0.162538891788893,0.905513155657212
-0.155625084496493,0.896477613873528
-0.148818668741736,0.887493984129215
-0.142118407720704,0.878562038083456
-0.135523083168458,0.869681556083377
-0.129031494861465,0.860852326906358
-0.122642460134781,0.852074147509325
-0.116354813413501,0.843346822784819
-0.110167405758013,0.834670165323597
-0.104079104422581,0.826043995183563
-0.0980887924268375,0.817468139664817
-0.0921953681397532,0.808942433090626
-0.0863977448756827,0.800466716594129
-0.0806948505020944,0.792040837910589
-0.0750856270586088,0.783664651175015
-0.0695690303869816,0.775338016724985
-0.0641440297716854,0.767060800908509
-0.0588096075907492,0.758832875896765
-0.0535647589765356,0.750654119501571
-0.0484084914861447,0.742524414997432
-0.0433398247811346,0.734443650948024
-0.0383577903162813,0.726411721036991
-0.0334614310370869,0.718428523902906
-0.0286498010857722,0.710493962978277
-0.023921965515491,0.702607946332487
-0.0192770000125155,0.694770386518527
-0.0147139906261492,0.686981200423433
-0.010232033506135,0.679240309122297
-0.00583023464733107,0.671547637735766
-0.00150770964143698,0.663903115290904
0.00273641656444085,0.656306674585344
0.00690300990258821,0.648758252054612
0.0109929274130411,0.641257787642552
0.0150070174656969,0.633805224674739
0.018946119976355,0.626400509734826
0.0228110666168736,0.61904359254371
0.0266026810196063,0.611734425841459
0.0303217789762854,0.604472965271916
0.0339691686315171,0.597259169269906
0.0375456506710366,0.59009299895097
0.0410520185048788,0.582974418003563
0.0444890584456039,0.575903392583647
0.0478575498817239,0.568879891211609
0.051158265446461,0.561903884671444
0.0543919711819706,0.554975345912151
0.0575594266991582,0.548094249951265
0.0606613853332087,0.541260573780484
0.0636985942949516,0.534474296273328
0.0666717948181735,0.527735398094781
0.0695817223029934,0.521043861612857
0.072429106455406,0.514399670812056
0.0752146714230983,0.507802811208633
0.0779391359276422,0.501253269767673
0.0806032133931606,0.494751034821886
0.0832076120715616,0.488296095992109
0.0857530351644348,0.481888444109455
0.0882401809416983,0.475528071139075
0.0906697428570828,0.469214970105491
0.0930424096605384,0.462949135019462
0.0953588655076431,0.456730560806348
0.097619790066097,0.450559243235929
0.0998258586193731,0.444435178853647
0.101977742167603,0.438358364913249
0.104076107525772,0.432328799310771
0.106121617419285,0.426346480519859
0.108114930576981,0.420411407528379
0.11005670182166,0.414523579776291
0.111947582158182,0.408682997094761
0.113788218859201,0.402889659646469
0.115579255548608,0.397143567867115
0.117321332282715,0.391444722408051
0.119015085629269,0.385793124080066
0.120661148744322,0.380188773798252
0.122260151447035,0.374631672527956
0.123812720292451,0.369121821231783
0.125319478642299,0.363659220817629
0.126781046733873,0.358243872087724
0.128198041747035,0.352875775688654
0.12957107786939,0.347554932062358
0.130900766359679,0.342281341398062
0.132187715609433,0.33705500358514
0.133432531202928,0.331875918166882
0.134635815975495,0.326744084295147
0.135798170070205,0.321659500685883
0.136920190992992,0.316622165575502
0.138002473666234,0.311632076678085
0.139045610480842,0.306689231143406
0.140050191346885,0.301793625515754
0.141016803742795,0.296945255693543
0.141946032763175,0.292144116889689
0.142838461165255,0.287390203592744
0.143694669414032,0.282683509528763
0.144515235726104,0.278024027623908
0.145300736112254,0.273411749967755
0.146051744418806,0.268846667777302
0.146768832367776,0.264328771361664
0.147452569595854,0.25985805008744
0.148103523692246,0.255434492344736
0.148722260235399,0.251058085513848
0.149309342828637,0.246728815932567
0.14986533313474,0.242446668864121
0.150390790909477,0.238211628465725
0.150886274034143,0.234023677757737
0.151352338547092,0.229882798593403
0.151789538674317,0.225788971629193
0.152198426859089,0.221742176295697
0.152579553790677,0.217742390769093
0.152933468432168,0.21378959194317
0.153260718047422,0.209883755401883
0.153561848227168,0.206024855392456
0.153837402914269,0.202212864799002
0.154087924428176,0.198447755116666
0.154313953488588,0.194729496426273
0.154516029238338,0.191058057369479
0.154694689265527,0.187433405124415
0.154850469624919,0.183855505381814
0.154983904858621,0.180324322321617
0.155095528016058,0.176839818590045
0.155185870673265,0.173401955277144
0.155255462951516,0.170010691894772
0.155304833535301,0.166665986355042
0.155334509689663,0.163367794949207
0.155345017276922,0.160116072326978
0.155336880772796,0.156910771476269
0.155310623281932,0.15375184370337
0.15526676655286,0.15063923861353
0.155205830992395,0.147572904091952
0.155128335679486,0.144552786285194
0.155034798378542,0.141578829582965
0.154925735552236,0.138650976600315
0.154801662373802,0.135769168160215
0.154663092738845,0.132933343276512
0.154510539276676,0.130143439137264
0.154344513361171,0.127399391088446
0.154165525121184,0.124701132618024
0.153974083450518,0.122048595340383
0.153770696017464,0.119441708981116
0.153555869273922,0.116880401362164
0.153330108464119,0.114364598387301
0.153093917632925,0.111894224027958
0.15284779963379,0.109469200309391
0.152592256136309,0.107089447297172
0.152327787633414,0.104754883084017
0.152054893448226,0.102465423776933
0.151774071740556,0.100220983484686
0.151485819513078,0.0980214743055804
0.151190632617173,0.0958668063155587
0.150889005758474,0.0937568875565982
0.150581432502091,0.0916916240254175
0.150268405277554,0.0896709196624797
0.149950415383469,0.0876946763412918
0.149627952991896,0.0857627938579956
0.149301507152464,0.083875169921246
0.148971565796225,0.0820317001423747
0.148638615739264,0.0802322780258331
0.148303142686064,0.0784767949599135
0.147965631232642,0.076765140207743
0.147626564869464,0.0750972008985474
0.147286425984137,0.0734728620191824
0.146945695863902,0.0718920064059269
0.146604854697925,0.0703545147365375
0.146264381579398,0.068860265522558
0.145924754507452,0.0674091351018835
0.145586450388901,0.0660009976315735
0.145249945039813,0.0646357250809127
0.144915713186924,0.0633131872247143
0.144584228468896,0.0620332516368654
0.14425596343743,0.0607957836841082
0.143931389558242,0.0596006465200566
0.143610977211906,0.0584477010794437
0.143295195694572,0.0573368060725975
0.142984513218568,0.0562678179801422
0.142679396912891,0.0552405910479212
0.142380312823598,0.0542549772821405
0.142087725914091,0.0533108264447272
0.141802100065324,0.0524079860489026
0.141523898075915,0.0515463013549653
0.141253581662192,0.0507256153662827
0.140991611458161,0.0499457688254861
0.140738447015412,0.0492066002108698
0.140494546802971,0.0485079457329875
0.140260368207101,0.0478496393314465
0.14003636753105,0.0472315126718948
0.139822999994774,0.0466533951431991
0.139620719734618,0.0461151138548112
0.139429979802976,0.0456164936343192
0.13925123216793,0.0451573570251815
0.139084927712876,0.0447375242846404
0.138931516236145,0.0443568133818127
0.138791446450617,0.0440150399959543
0.138665165983346,0.0437120175148969
0.138553121375195,0.0434475570336525
0.138455758080484,0.0432214673531847
0.138373520466666,0.0430335549793427
0.138306851814031,0.0428836241219558
0.138256194315437,0.0427714766940862
0.138221989076098,0.0426969123114355
0.138204676113403,0.0426597282919049
0.138204694356796,0.0426597196553038
0.138222481647713,0.0426966791232052
0.138258474739583,0.0427703971189454
0.138313109297899,0.0428806617677644
0.138386819900367,0.0430272588970846
0.138480040037134,0.043209972036925
0.138593202111111,0.0434285824204486
0.138726737438378,0.0436828689846384
0.138881076248701,0.0439726083711018
0.139056647686151,0.0442975749269981
0.139253879809825,0.0446575407060878
0.139473199594704,0.0450522754698996
0.139715032932615,0.0454815466890139
0.139979804633334,0.0459451195444581
0.140267938425822,0.0464427569292111
0.1405798569596,0.0469742194498155
0.140915981806276,0.0475392654280926
0.141276733461218,0.0481376509029583
0.141662531345397,0.0487691296323361
0.142073793807384,0.049433453095166
0.142510938125531,0.0501303704935028
0.142974380510318,0.0508596287547045
0.143464536106893,0.0516209725337052
0.143981818997798,0.0524141442153694
0.144526642205892,0.0532388839169265
0.145099417697481,0.0540949294904798
0.145700556385649,0.054982016525588
0.146330468133815,0.0558998783519163
0.146989561759502,0.0568482460419526
0.147678245038343,0.0578268484137864
0.14839692470832,0.0588354120339465
0.149146006474239,0.0598736612202942
0.149925895012464,0.0609413180449687
0.150736993975896,0.0620381023373808
0.151579705999225,0.0631637316872516
0.152454432704437,0.0643179214476929
0.153361574706615,0.0655003847383244
0.154301531620004,0.066710832448426
0.155274702064381,0.0679489732401196
0.156281483671718,0.0692145135515776
0.157322273093143,0.0705071576002538
0.158397466006225,0.0718266073861336
0.159507457122567,0.0731725626949983
0.160652640195735,0.0745447211017001
0.161833408029518,0.0759427779734449
0.163050152486529,0.0773664264730761
0.164303264497158,0.0788153575623581
0.165593134068888,0.080289260005253
0.166920150295966,0.081787820371188
0.168284701369462,0.0833107230383072
0.1696871745877,0.084857650196706
0.17112795636709,0.0864282818516401
0.17260743225335,0.0880222958267079
0.174125986933148,0.0896393677669996
0.17568400424615,0.0912791711422089
0.177281867197505,0.0929413772497028
0.178919957970757,0.0946256552175432
0.180598657941211,0.0963316720074579
0.182318347689743,0.0980590924177534
0.184079407017086,0.0998075790861656
0.18588221495858,0.101576792492643
0.187727149799411,0.103366390962058
0.18961458909034,0.105176030666837
0.191544909663945,0.107005365629511
0.193518487651366,0.108854047725174
0.195535698499585,0.110721726683845
0.197596916989238,0.112608050092736
0.199702517252974,0.114512663398401
0.201852872794377,0.116435209908787
0.204048356507453,0.118375330795152
0.206289340696703,0.120332665093868
0.208576197097791,0.122306849708089
0.210909296898812,0.124297519409276
0.213289010762188,0.126304306838587
0.215715708847188,0.128326842508106
0.218189760833096,0.13036475480192
0.220711535943038,0.132417669977027
0.223281402968478,0.134485212164073
0.225899730294401,0.13656700336791
0.228566885925192,0.138662663467961
0.231283237511238,0.1407718102184
0.234049152376246,0.142894059248118
0.236864997545315,0.145029024060487
0.239731139773762,0.147176316032899
0.242647945576727,0.149335544416084
0.245615781259563,0.151506316333185
0.248635012949039,0.153688236778595
0.251706006625368,0.155880908616536
0.25482912815507,0.158083932579382
0.258004743324704,0.160296907265704
0.261233217875469,0.162519429138037
0.264514917538706,0.164751092520359
0.267850208072312,0.166991489595264
0.271239455298092,0.169240210400833
0.274683025140063,0.171496842827173
0.278181283663731,0.173760972612636
0.281734597116367,0.17603218333969
0.285343331968296,0.178310056430437
0.289007854955229,0.180594171141769
0.292728533121652,0.182884104560143
0.296505733865303,0.185179431595981
0.30033982498275,0.187479724977649
0.304231174716114,0.189784555245048
0.30818015180093,0.192093490742759
0.312187125515207,0.194406097612763
0.316252465729689,0.196721939786705
0.320376542959347,0.199040578977694
0.324559728416143,0.201361574671623
0.328802394063076,0.203684484117998
0.333104912669551,0.206008862320252
0.337467657868099,0.20833426202555
0.341891004212471,0.210660233714038
0.346375327237149,0.212986325587552
0.350921003518298,0.215312083557747
0.355528410736191,0.217637051233642
0.360197927739147,0.219960769908566
0.364929934609017,0.222282778546468
0.36972481272824,0.224602613767601
0.374582944848531,0.226919809833543
0.37950471516121,0.229233898631535
0.384490509369235,0.231544409658128
0.389540714760964,0.233850870002114
0.394655720285696,0.236152804326712
0.399835916631021,0.238449734851005
0.405081696302042,0.240741181330589
0.410393453702496,0.24302666103742
0.415771585217823,0.245305688738843
0.421216489300243,0.247577776675761
0.426728566555872,0.24984243453994
0.432308219833938,0.25209916945041
0.43795585431815,0.254347485928945
0.443671877620261,0.256586885874594
0.449456699875893,0.258816868537229
0.455310733842676,0.2610369304901
0.461234395000754,0.263246565601343
0.467228101655721,0.265445265004435
0.473292275044053,0.267632517067552
0.479427339441092,0.269807807361803
0.485633722271652,0.271970618628308
0.49191185422331,0.274120430744088
0.498262169362458,0.276256720686731
0.504685105253178,0.278378962497795
0.511181103079025,0.280486627244926
0.517750607767781,0.282579182982636
0.524394068119272,0.284656094711716
0.531111936936314,0.286716824337237
0.53790467115889,0.288760830625102
0.544772732001615,0.290787569157108
0.55171658509462,0.29279649228447
0.558736700627894,0.294787049079767
0.565833553499231,0.296758685287263
0.573007623465839,0.298710843271555
0.580259395299732,0.300642961964497
0.587589358947005,0.302554476810355
0.594998009691096,0.30444481970914
0.602485848320145,0.306313418958053
0.610053381298575,0.308159699191012
0.617701120942997,0.309983081316175
0.625429585602573,0.311782982451423
0.633239299843956,0.313558815857726
0.641130794640944,0.315309990870344
0.649104607568976,0.317035912827779
0.657161283004611,0.318735982998431
0.66530137233014,0.320409598504874
0.673525434143469,0.32205615224569
0.681834034473433,0.323675032814773
0.690227747000705,0.325265624418049
0.698707153284454,0.326827306787505
0.707272842994927,0.328359455092473
0.715925414152136,0.329861439848059
0.724665473370825,0.331332626820651
0.733493636111913,0.332772376930396
0.742410526940597,0.334180046150565
0.751416779791333,0.335554985403712
0.760513038239892,0.336896540454506
0.769699955782716,0.338204051799157
0.778978196123789,0.339476854551313
0.788348433469275,0.340714278324316
0.797811352830136,0.341915647109711
0.80736765033301,0.34308027915188
0.817018033539591,0.34420748681868
0.826763221774776,0.345296576467954
0.83660394646388,0.346346848309783
0.846540951479184,0.347357596264346
0.856574993496126,0.348328107815234
0.86670684235945,0.349257663858073
0.876937281459636,0.350145538544313
0.887267108119932,0.350990999120002
0.897697133994356,0.351793305759399
0.908228185477013,0.352551711393242
0.91886110412312,0.353265461531491
0.9295967470821,0.35393379408037
0.940435987543186,0.35455593915351
0.951379715193924,0.355131118876982
0.962428836692028,0.355658547188036
0.97358427615104,0.356137429627301
0.984846975640261,0.35656696312425
0.996217895699452,0.356946335775665
1.0076980158688,0.357274726616893
1.01928833523472,0.35755130538561
