-0.788652551591075,-0.508846516211743
-0.785277479187454,-0.499244822775145
-0.781889043270566,-0.489749189602776
-0.778487665997259,-0.480358557331487
-0.775073767064176,-0.471071885439426
-0.771647763756922,-0.461888151726276
-0.768210070997285,-0.452806351808733
-0.764761101388561,-0.443825498630692
-0.761301265259054,-0.43494462198765
-0.757830970703817,-0.426162768064865
-0.754350623624689,-0.417478998988809
-0.750860627768685,-0.40889239239147
-0.747361384764793,-0.400402040987095
-0.743853294159242,-0.392007052160958
-0.740336753449273,-0.383706547569775
-0.736812158115486,-0.375499662753371
-0.733279901652787,-0.367385546757257
-0.729740375599998,-0.359363361765758
-0.72619396956817,-0.35143228274536
-0.722641071267636,-0.34359149709795
-0.719082066533849,-0.335840204323635
-0.715517339352052,-0.328177615692855
-0.711947271880801,-0.32060295392748
-0.708372244474399,-0.313115452890618
-0.704792635704257,-0.305714357284884
-0.701208822379233,-0.298398922358836
-0.697621179564968,-0.291168413621359
-0.694030080602266,-0.284022106563737
-0.690435897124532,-0.276959286389191
-0.686838999074315,-0.269979247749649
-0.683239754718972,-0.263081294489533
-0.67963853066549,-0.256264739396362
-0.676035691874485,-0.249528903957962
-0.672431601673413,-0.242873118126076
-0.66882662176901,-0.236296720086217
-0.665221112258993,-0.229799056033542
-0.661615431643037,-0.223379479954608
-0.658009936833061,-0.217037353414808
-0.654404983162838,-0.210772045351349
-0.650800924396954,-0.204582931871596
-0.647198112739133,-0.19846939605663
-0.643596898839952,-0.192430827769885
-0.639997631803968,-0.186466623470702
-0.636400659196265,-0.180576186032673
-0.632806327048453,-0.174758924566636
-0.629214979864127,-0.16901425424819
-0.625626960623807,-0.163341596149617
-0.622042610789377,-0.157740377076058
-0.618462270308036,-0.152210029405869
-0.614886277615774,-0.146749990935002
-0.611314969640405,-0.141359704725325
-0.607748681804144,-0.13603861895677
-0.604187748025767,-0.130786186783195
-0.600632500722356,-0.125601866191876
-0.597083270810645,-0.120485119866514
-0.593540387707981,-0.115435415053681
-0.590004179332909,-0.110452223432596
-0.586474972105399,-0.105535020988161
-0.582953090946724,-0.100683287887151
-0.579438859279001,-0.0958965083574973
-0.575932599024405,-0.0911741705705587
-0.572434630604068,-0.0865157665263296
-0.568945272936678,-0.0819207919414834
-0.565464843436779,-0.0773887461401985
-0.561993658012791,-0.0729191319476819
-0.558532031064758,-0.0685114555863278
-0.555080275481827,-0.0641652265744434
-0.551638702639478,-0.0598799576274751
-0.548207622396504,-0.0556551645616741
-0.544787343091756,-0.0514903662001372
-0.541378171540664,-0.0473850842811664
-0.53798041303153,-0.0433388433688887
-0.534594371321619,-0.039351170766077
-0.531220348633037,-0.0354215964291225
-0.527858645648421,-0.0315496528851024
-0.52450956150644,-0.0277348751508917
-0.521173393797105,-0.0239768006542702
-0.517850438556924,-0.0202749691569761
-0.514540990263871,-0.0166289226796573
-0.511245341832206,-0.0130382054286776
-0.507963784607144,-0.0095023637247296
-0.504696608359366,-0.00602094593321389
-0.501444101279399,-0.00259350239634137
-0.498206549971861,0.000780414633082788
-0.494984239449572,0.00410125105623355
-0.491777453127551,0.00736945099123526
-0.488586472816886,0.0105854568345669
-0.485411578718502,0.0137497093209381
-0.48225304941682,0.0168626475816706
-0.479111161873313,0.019924709201623
-0.475986191419976,0.0229363302746895
-0.47287841175269,0.0258979454579077
-0.469788094924519,0.0288099880242065
-0.466715511338913,0.0316728899138256
-0.463660929742846,0.0344870817844373
-0.460624617219874,0.0372529930599992
-0.457606839183132,0.039971051978369
-0.454607859368269,0.0426416856377065
-0.451627939826327,0.0452653200416921
-0.44866734091656,0.0478423801435887
-0.445726321299211,0.0503732898891719
-0.442805137928241,0.0528584722585547
-0.43990404604402,0.0552983493069309
-0.437023299165974,0.0576933422042622
-0.434163149085205,0.0600438712739319
-0.43132384585708,0.0623503560303876
-0.428505637793794,0.0646132152157972
-0.425708771456905,0.0668328668357373
-0.422933491649863,0.0690097281939389
-0.420180041410507,0.0711442159261071
-0.417448662003567,0.0732367460328389
-0.41473959291314,0.0752877339116565
-0.412053071835174,0.0772975943881766
-0.409389334669945,0.0792667417464336
-0.406748615514529,0.0811955897583778
-0.404131146655287,0.0830845517125623
-0.401537158560351,0.0849340404420407
-0.39896687987212,0.0867444683514897
-0.396420537399769,0.0885162474435757
-0.393898356111772,0.0902497893445799
-0.391400559128448,0.0919455053292994
-0.388927367714517,0.0936038063452395
-0.386479001271694,0.0952251030361131
-0.384055677331291,0.0968098057646615
-0.381657611546864,0.0983583246348116
-0.379285017686884,0.0998710695131851
-0.376938107627433,0.101348450049972
-0.374617091344954,0.102790875699182
-0.372322176909021,0.104198755738293
-0.370053570475159,0.105572499287298
-0.367811476277708,0.106912515327178
-0.365596096622723,0.108219212717803
-0.36340763188093,0.109493000215276
-0.361246280480728,0.110734286488736
-0.359112238901238,0.111943480136626
-0.357005701665415,0.113120989702447
-0.354926861333204,0.114267223689994
-0.352875908494761,0.115382590578104
-0.350853031763736,0.116467498834913
-0.348858417770604,0.117522356931637
-0.346892251156076,0.118547573355893
-0.34495471456456,0.119543556624562
-0.343045988637703,0.120510715296208
-0.341166252007988,0.121449457983068
-0.339315681292411,0.122360193362611
-0.337494451086228,0.123243330188689
-0.335702733956773,0.124099277302282
-0.333940700437354,0.124928443641846
-0.332208519021226,0.125731238253279
-0.330506356155644,0.126508070299505
-0.328834376235992,0.127259349069695
-0.327192741600002,0.127985483988129
-0.325581612522046,0.128686884622705
-0.324001147207524,0.129363960693108
-0.32245150178733,0.130017122078646
-0.320932830312412,0.13064677882576
-0.319445284748415,0.131253341155219
-0.317989014970425,0.131837219469004
-0.316564168757794,0.132398824356894
-0.315170891789067,0.132938566602756
-0.313809327636999,0.133456857190551
-0.312479617763672,0.133954107310064
-0.311181901515709,0.134430728362361
-0.309916316119582,0.134887131964983
-0.308682996677031,0.13532372995689
-0.307482076160572,0.135740934403149
-0.306313685409118,0.136139157599385
-0.305177953123696,0.136518812076001
-0.304075005863277,0.13688031060216
-0.303004968040706,0.137224066189564
-0.301967961918741,0.137550492096
-0.300964107606204,0.137860001828694
-0.299993523054238,0.13815300914746
-0.299056324052676,0.138429928067654
-0.298152624226521,0.138691172862942
-0.297282535032543,0.13893715806789
-0.296446165755985,0.139168298480375
-0.295643623507387,0.139385009163835
-0.294875013219526,0.139587705449351
-0.294140437644473,0.139776802937577
-0.293439997350767,0.139952717500523
-0.292773790720707,0.140115865283191
-0.292141913947773,0.140266662705077
-0.291544461034153,0.140405526461541
-0.290981523788408,0.140532873525055
-0.290453191823245,0.140649121146328
-0.289959552553427,0.140754686855323
-0.289500691193798,0.140849988462164
-0.289076690757439,0.140935444057943
-0.288687632053949,0.141011472015435
-0.288333593687855,0.141078490989716
-0.288014652057144,0.141136919918707
-0.287730881351934,0.141187178023636
-0.287482353553264,0.141229684809425
-0.287269138432027,0.141264860065018
-0.287091303548021,0.141293123863643
-0.286948914249144,0.141314896563022
-0.286842033670715,0.141330598805532
-0.28677072273493,0.141340651518321
-0.286735040150458,0.141345475913387
-0.286735042412164,0.141345493487629
-0.286770783800971,0.141341126022867
-0.286842316383868,0.141332795585842
-0.286949690014037,0.141320924528203
-0.287092952331139,0.141305935486486
-0.287272148761722,0.141288251382085
-0.287487322519779,0.14126829542123
-0.287738514607445,0.14124649109497
-0.391674928055585,0.0438442880827831
-0.186257218960077,0.0373283624401977
-0.385354289010683,0.253118434232208
-0.289104208932588,0.141149269925973
-0.394811154079337,0.238655569888148
-0.290004069721013,0.141100600853967
-0.290508352590995,0.141077739649597
-0.291048902311032,0.141056428266909
-0.172523157464741,0.259290070035637
-0.391335418025391,0.032416766822457
-0.173702734695304,0.0447054942349874
-0.189083018520554,0.0329982461493948
-0.17716081468488,0.0494934894322474
-0.183912828964751,0.25615230738621
-0.203112832108697,0.249692836995238
-0.204441195056507,0.0285935036256027
-0.182304343954111,0.0393475085403405
-0.198631949355105,0.247373254363039
-0.299393042609409,0.141046349297774
-0.300369817719736,0.141076950616979
-0.301382964024414,0.141114663037773
-0.416371443923635,0.0369738247454596
-0.189743888484447,0.0441367229024559
-0.209169082255873,0.0438787931311156
-0.423986071511377,0.248141512830972
-0.306993936452576,0.141424946684432
-0.188274345801402,0.0306369097486332
-0.404699883500318,0.256047485104087
-0.430634213923111,0.0273957601818161
-0.404463573993533,0.245173501947939
-0.412755242882857,0.024997755278478
-0.314924480326399,0.142121984529168
-0.316372906881889,0.142278645267537
-0.317857444355037,0.142448029134458
-0.319378057910528,0.142630570073997
-0.320934710625211,0.142826702369823
-0.322527363494439,0.143036860649754
-0.324155975438573,0.143261479890562
-0.32582050330965,0.143500995423028
-0.327520901898217,0.143755842937275
-0.329257123940331,0.144026458488374
-0.331029120124725,0.144313278502224
-0.332836839100144,0.144616739781741
-0.334680227482846,0.144937279513334
-0.336559229864275,0.145275335273692
-0.338473788818897,0.145631345036897
-0.34042384491222,0.146005747181854
-0.342409336708965,0.146398980500058
-0.344430200781428,0.146811484203711
-0.346486371718003,0.147243697934185
-0.34857778213188,0.147696061770855
-0.350704362669918,0.148169016240297
-0.352866042021696,0.148663002325878
-0.355062746928732,0.149178461477727
-0.357294402193884,0.149715835623117
-0.359560930690927,0.150275567177256
-0.361862253374307,0.150858099054497
-0.36419828928907,0.151463874679992
-0.366568955580984,0.152093338001777
-0.368974167506822,0.152746933503325
-0.371413838444842,0.153425106216552
-0.373887879905444,0.154128301735315
-0.376396201542009,0.15485696622939
-0.378938711161921,0.155611546458951
-0.381515314737782,0.156392489789572
-0.384125916418804,0.157200244207745
-0.386770418542394,0.158035258336942
-0.389448721645922,0.158897981454222
-0.392160724478691,0.159788863507417
-0.394906324014076,0.160708355132876
-0.39768541546188,0.161656907673819
-0.40049789228086,0.162634973199285
-0.403343646191465,0.163643004523705
-0.406222567188759,0.164681455227108
-0.409134543555542,0.165750779675978
-0.412079461875673,0.166851433044777
-0.415057207047587,0.16798387133814
-0.418067662298021,0.16914855141378
-0.42111070919593,0.170345931006092
-0.424186227666619,0.171576468750498
-0.427294096006071,0.172840624208527
-0.430434190895484,0.174138857893671
-0.433606387416024,0.175471631298009
-0.436810559063774,0.176839406919644
-0.440046577764906,0.178242648290947
-0.44331431389106,0.179681820007647
-0.446613636274944,0.181157387758776
-0.449944412226143,0.182669818357484
-0.453306507547158,0.184219579772768
-0.456699786549649,0.185807141162097
-0.460124112070924,0.187432972905001
-0.463579345490628,0.189097546637606
-0.467065346747682,0.190801335288155
-0.470581974357432,0.192544813113551
-0.474129085429044,0.194328455736913
-0.477706535683126,0.196152740186198
-0.481314179469586,0.19801814493391
-0.484951869785734,0.1999251499379
-0.48861945829462,0.201874236683313
-0.492316795343615,0.203865888225686
-0.496043729983253,0.205900589235241
-0.499800109986299,0.207978826042387
-0.503585781867093,0.210101086684471
-0.507400590901133,0.212267860953802
-0.511244381144926,0.21447964044698
-0.515116995456098,0.216736918615563
-0.51901827551377,0.219040190818106
-0.522948061839202,0.221389954373593
-0.526906193816707,0.223786708616319
-0.530892509714848,0.226230954952229
-0.534906846707907,0.228723196916775
-0.538949040897641,0.231263940234312
-0.543018927335328,0.233853692879078
-0.547116340044097,0.236492965137794
-0.551241112041565,0.239182269673927
-0.555393075362763,0.241922121593654
-0.559572061083377,0.24471303851357
-0.563777899343287,0.247555540630187
-0.568010419370438,0.250450150791265
-0.572269449505011,0.253397394569021
-0.576554817223931,0.256397800335265
-0.580866349165703,0.259451899338516
-0.585203871155581,0.262560225783137
-0.58956720823108,0.265723316910551
-0.593956184667835,0.268941713082587
-0.598370624005816,0.272215957867012
-0.602810349075895,0.275546598125304
-0.607275182026789,0.278934184102721
-0.61176494435237,0.282379269520739
-0.616279456919355,0.285882411671901
-0.620818539995386,0.289444171517154
-0.625382013277499,0.293065113785736
-0.629969695921004,0.296745807077683
-0.634581406568769,0.300486823969016
-0.63921696338092,0.304288741119688
-0.643876184064976,0.308152139384369
-0.648558885906412,0.312077603926126
-0.653264885799672,0.316065724333101
-0.657994000279634,0.320117094738249
-0.662746045553536,0.324232313942224
-0.667520837533385,0.32841198553951
-0.672318191868838,0.332656718047865
-0.677137923980591,0.33696712504119
-0.681979849094263,0.341343825285902
-0.686843782274803,0.345787442880918
-0.691729538461431,0.350298607401349
-0.696636932503112,0.354877954046002
-0.701565779194589,0.359526123788805
-0.70651589331299,0.364243763534255
-0.711487089655006,0.369031526277022
-0.716479183074671,0.373890071265807
-0.721491988521754,0.378820064171585
-0.726525321080774,0.383822177260363
-0.731578996010655,0.388897089570572
-0.736652828785043,0.394045487095243
-0.741746635133294,0.399268062969092
-0.74686023108216,0.404565517660663
-0.751993432998174,0.409938559169685
-0.757146057630777,0.415387903229781
-0.762317922156184,0.420914273516707
-0.767508844222026,0.426518401862271
-0.772718641992771,0.432201028474106
-0.77794713419597,0.437962902161485
-0.783194140169324,0.443804780567336
-0.788459479908614,0.449727430406677
-0.793742974116512,0.455731627711632
-0.799044444252297,0.46181815808327
-0.804363712582499,0.467987816950433
-0.809700602232511,0.474241409835815
-0.815054937239174,0.480579752629475
-0.820426542604393,0.487003671870054
-0.825815244349785,0.49351400503391
-0.831220869572413,0.500111600832438
-0.836643246501623,0.506797319517826
-0.84208220455703,0.513572033197525
-0.847537574407674,0.5204366261577
-0.853009188032393,0.527391995195966
-0.858496878781453,0.534439049963694
-0.864000481439456,0.541578713318218
-0.869519832289593,0.548811921685244
-0.875054769179257,0.556139625431815
-0.880605131587081,0.563562789250175
-0.886170760691437,0.571082392552889
-0.891751499440444,0.578699429879604
-0.89734719262353,0.58641491131583
-0.902957686944613,0.594229862924159
-0.908582831096939,0.602145327188338
-0.914222475839637,0.610162363470625
-0.919876474076055,0.618282048482909
-0.925544680933926,0.62650547677203
-0.931226953847438,0.634833761219827
-0.93692315264126,0.643268033558409
