0.987615405882036,-0.280518814069729
0.988268876305739,-0.266250823455157
0.987898368352502,-0.251940484492764
0.986505052451686,-0.237629192551992
0.98409312736093,-0.223358245123648
0.980669805838736,-0.209168669512359
0.976245289004612,-0.195101051697003
0.970832729485384,-0.181195367052173
0.964448183490211,-0.167490813616254
0.957110552000192,-0.154025648581435
0.948841511301138,-0.140837028668097
0.939665433129785,-0.127960855030444
0.929609294744423,-0.115431623322088
0.918702579270337,-0.10328227952967
0.906977166708546,-0.0915440821595103
0.894467216032838,-0.0802464713368762
0.88120903883494,-0.0694169453497991
0.867240965010719,-0.0590809451396177
0.852603201011376,-0.0492617472086375
0.837337681212616,-0.0399803653816497
0.821487912981614,-0.031255461822647
0.805098816046134,-0.0231032676710742
0.684361023551071,-0.131626714094495
0.677472620244446,-0.101992384367611
0.753162425640109,-0.00220740176770373
0.735087570528348,0.00354247695653614
0.611195028166434,-0.0958480155041477
0.69808918781423,0.0131956822424409
0.679265408929894,0.01710059778399
0.660291860478089,0.0203966003714577
0.523099660946188,-0.0917467235889452
0.622094236007266,0.0251945244017805
0.602968467042339,0.0267193467695515
0.695661624882612,0.143947868620081
0.564903672342474,0.0280971986318581
0.649094841981183,0.146905471887729
0.527397576414431,0.0273767429910555
0.508965594586963,0.0262874658097138
0.583392999863827,0.117839563396822
0.472953965091041,0.0227856381107377
0.455453261350446,0.0204330853071275
0.438338752088663,0.0177225298944597
0.421644954689805,0.0146884127320268
0.4054041867648,0.0113667069717995
0.389646458670348,0.00779477170452808
0.374399375371012,0.00401119965958308
0.359688048016235,5.56595617724198e-05
0.447117339560744,0.113613965781645
0.216901196817243,-0.107545861827052
0.318980732656202,-0.0124333793129975
0.30661114004267,-0.0166643480236983
0.294863075721165,-0.0208586124925369
0.283745411962377,-0.0249735767933715
0.27326420310381,-0.028966767523782
0.263422683362641,-0.0327960104104147
0.254221275849176,-0.0364196061628986
0.245657612727511,-0.0397965048746834
0.237726566425837,-0.0428864782744169
0.332495593588187,0.0567470154372594
0.182743179213574,-0.0404358130802692
0.230707530893924,-0.0629708108726346
0.209173343331408,-0.0657797881790234
0.206272749798216,-0.0438832370747481
0.188394990544233,-0.0611655172224754
0.198936584334147,-0.0533521805458596
0.195569446997994,-0.0528511112001003
0.192674955096803,-0.0517645303111752
0.185133117160615,-0.0467333963866231
0.183762842532057,-0.0705148433674592
0.201730009551579,-0.0583869422815759
0.185223288736303,-0.0411298036284221
0.0920955922758102,-0.146406831654909
0.212258180738813,-0.00806908335827125
0.154874200736582,-0.0192358478737716
0.13046837375958,-0.0104173648975734
0.0769569821611455,-0.11149256843454
0.173022529568904,-0.0312119102757094
0.208310168200255,-0.00891807218198606
0.189345001278333,0.00899912815598102
0.183036394003249,0.0228239732465871
0.218526335288346,0.0623136832748092
0.179713911827316,0.0360388160399344
0.183124641610868,0.0564541970499963
0.182908427357074,0.0689266515451326
0.0518327249001687,-0.0112579617137306
0.181886073433954,0.0956293495291446
0.197794676144216,0.109120844602084
0.172405635820402,0.140120308361975
0.196156580499255,0.139395191898728
0.177973700529131,0.19484884288465
0.174315147180212,0.171259254661654
0.171698684220086,0.187628445036554
0.16865339791269,0.204320208569969
0.074291808468066,0.112171239684792
0.161189476929111,0.238498241274627
0.156733016318949,0.255894265686555
0.151772250509055,0.273432695653338
0.0476249434326745,0.180013528102149
0.140288575559266,0.308743808872955
0.133747376340014,0.326418048224208
0.0201797250926313,0.237314594664907
0.119039946376889,0.36155376474141
0.110871077201511,0.378914343595484
0.102161424879248,0.396069426228666
0.0929162863394585,0.412968771726269
0.0831435874453115,0.429562551592046
0.0728538562033941,0.445801530865453
0.0620601851412961,0.46163724712231
0.0507781830041959,0.47702218666501
0.0390259159643661,0.491909957219366
0.0268238385796029,0.506255456468923
0.0141947147777408,0.520015035773837
0.00116352918446974,0.533146658440343
-0.0122426108495426,0.545610051928232
-0.0259945821288491,0.557366853407526
-0.0400613609715614,0.568380748101725
-0.0544101465825558,0.5786175998833
-0.06900649194602,0.588045573617578
-0.083814441711536,0.59663524878359
-0.0987966765197141,0.604359723934755
-0.11391466318741,0.611194711598268
-0.0354967550941784,0.734471058930574
-0.144398627528036,0.622112644038043
-0.159682891197936,0.626160796977684
-0.174939810167926,0.629249996363324
-0.190127196624646,0.631370090208536
-0.103953038074609,0.732375103927485
-0.22012366997233,0.632677198503662
-0.234847950906272,0.631858803004681
-0.249333435024894,0.630060488204117
-0.263538545619439,0.627287014544119
-0.27742234639566,0.623546094574417
-0.290944710666109,0.618848356618839
-0.304066487647755,0.613207297443817
-0.316749665192784,0.60663922412408
-0.328957528294365,0.599163185343076
-0.34065481272564,0.590800892407086
-0.351807853189281,0.581576630292295
-0.36238472537648,0.571517159083109
-0.272659148735218,0.671070345842261
-0.381691777758071,0.549011349832046
-0.390367996183511,0.536629894090637
-0.398360355424805,0.523542736299261
-0.405647514961086,0.509787227032284
-0.412210569349156,0.495402423409954
-0.418033133105813,0.480428936250081
-0.423101415732315,0.464908771681464
-0.308542239414853,0.561663709838846
-0.430933329205231,0.43240242735145
-0.433682885222034,0.415505746096656
-0.435650087065462,0.398241039217854
-0.436834879918807,0.380654764774332
-0.437240032463822,0.362793745913137
-0.436871136475986,0.344704992201492
-0.435736595240091,0.326435520834494
-0.43384760081718,0.308032178423617
-0.43121810023817,0.289541464068678
-0.427864750743471,0.271009354410325
-0.423806864231462,0.252481131351697
-0.419066341121585,0.234001213126802
-0.413667593879942,0.215612989379379
-0.288359195922493,0.312848979365743
-0.401005108242172,0.179279084646617
-0.393801928075843,0.161413624664892
-0.386061420102448,0.143800009475504
-0.377819070526733,0.126474196501081
-0.272838235150472,0.214152333698886
-0.261099721770997,0.183325461934514
-0.467714388423248,-0.0194417605796588
-0.340602947040953,0.0606991873199441
-0.330443614416415,0.045281261405935
-0.320029229238042,0.0303231096325087
-0.309405127921465,0.0158451892802817
-0.298617405559497,0.00186541165862669
-0.287712741082869,-0.0116009104290478
-0.276738219842715,-0.024541104480873
-0.265741154307958,-0.0369451692007815
-0.254768903578601,-0.0488057944028695
-0.243868692420962,-0.0601183698512392
-0.233087430533182,-0.0708809830149595
-0.222471532748794,-0.0810944057620538
-0.212066740882824,-0.0907620700606391
-0.31311238971483,-0.21842854278395
-0.296566235265792,-0.226546450175304
-0.182562653484956,-0.116563919794958
-0.283922216072053,-0.227320839153471
-0.0474718339927667,-0.0113002201670154
-0.248417918627667,-0.256414531665181
-0.1487655377223,-0.143980254104442
-0.141559226091055,-0.149708154561364
-0.13491770747903,-0.155031655437338
-0.232910486863138,-0.265325723095821
-0.123446946327898,-0.164572838712635
-0.11867070808177,-0.168848398754506
-0.114565063970508,-0.172835036629707
-0.111150121774753,-0.176565242763688
-0.210164536923704,-0.299099414615487
-0.106459152397671,-0.183391914205363
0.000340344488870797,-0.0962818398004428
-0.10470328321456,-0.189608469311325
-0.104946406683201,-0.192578521495949
-0.105941917811516,-0.195505584697802
-0.107689880201379,-0.198426767987737
-0.110187393503879,-0.20137916502142
-0.113428602120624,-0.2043996824692
-0.117404715233478,-0.207524869266199
-0.12210403808624,-0.210790747378105
-0.127512014397648,-0.214232644772084
-0.133611279741397,-0.217885031273322
-0.140381725685849,-0.221781357976167
-0.147800574443894,-0.225953900864576
-0.155842463742209,-0.230433609279715
-0.164479541579072,-0.235249959853152
-0.17368157050113,-0.240430816502226
-0.183416040992217,-0.246002297059895
-0.19364829353159,-0.251988647084835
-0.204341648845026,-0.258412121368849
-0.0963260890756747,-0.155448387239142
-0.226955686687204,-0.272648854829936
-0.238794188478874,-0.28049572057958
-0.250929740876429,-0.288846747940667
-0.263317769126899,-0.297712762043428
-0.27591260181443,-0.307102072781137
-0.386208593209512,-0.421987552642355
-0.301535545914877,-0.327470940441089
-0.314468394015079,-0.338454117511799
-0.327417877883592,-0.349967779199374
-0.454939839622865,-0.471404797433219
-0.353172646857402,-0.374564499353076
-0.365880989846184,-0.387629863550061
-0.378412447278302,-0.401190359613735
-0.390719473455386,-0.41523057439519
-0.402755214116511,-0.429732538765904
-0.414473680897317,-0.444675783401977
-0.425829922219015,-0.460037404996951
-0.436780189943357,-0.475792142650057
-0.447282101146581,-0.491912464135858
-0.569255561797841,-0.623585597889189
-0.466779079846438,-0.52512895716038
-0.371747841162401,-0.434127406694551
-0.48401487984229,-0.559425066918996
-0.601234012710108,-0.675542083739037
-0.498714681239277,-0.594509684232355
-0.505037209326982,-0.612249742851282
-0.510638792649493,-0.63006667454369
-0.515495518674964,-0.647917823642146
-0.519586064035831,-0.665759578222237
-0.522891767144496,-0.683547535441877
-0.525396690322923,-0.701236670616182
-0.527087671215046,-0.718781509359547
-0.527954363293411,-0.736136302113858
-0.527989265314675,-0.753255200371765
-0.527187739622397,-0.770092433896693
-0.525548019239705,-0.786602488236749
-0.523071203738852,-0.802740281827999
-0.519761243919039,-0.818461341983677
-0.515624915368223,-0.83372197906977
-0.510671781028547,-0.848479458174083
-0.504914142928549,-0.8626921675853
-0.498366983288064,-0.87631978341069
-0.396807291568722,-0.782315879339493
-0.482977003484351,-0.901665833267661
-0.47417687512375,-0.913311473100224
-0.464672421180192,-0.924226722908668
-0.361003525786705,-0.819261009220374
-0.443661246519718,-0.943741829096753
-0.432215057479075,-0.952285091718141
-0.42018535035775,-0.959985009012976
-0.407606979302932,-0.966819309194366
-0.39451637897084,-0.972768308199148
-0.4876604264195,-1.07740970618879
-0.366951219707051,-0.981945097914803
-0.352556046891159,-0.985147162844657
-0.337807090972108,-0.987412591123926
-0.322746326551494,-0.988735688818435
-0.307416335820181,-0.98911369606188
-0.291860135584846,-0.98854680670824
-0.276121003025423,-0.987038176723564
-0.260242300883404,-0.984593921272046
-0.244267302782816,-0.981223100495848
-0.228239019384727,-0.976937694032564
-0.0926357086801701,-0.864335894977044
-0.196192292857701,-0.965685409090911
-0.180257017190051,-0.958756702422289
-0.164434460337363,-0.950989625909747
-0.148763787993589,-0.94240998887554
-0.0369525679578258,-0.835231425153948
-0.118028360050837,-0.922928861507473
0.0144516980523633,-0.798217238955772
-0.0883364171439351,-0.900568701666028
-0.0739638141414327,-0.888398560986675
-0.0599468455416808,-0.875620216652286
-0.0463130284540013,-0.862274844099459
0.0661758833309986,-0.735588814945704
-0.119486278459658,-0.938675481547286
-0.00795289148071091,-0.819272293362128
0.00391746063059284,-0.804101426359187
0.0153010448503881,-0.788591142221338
0.0261844642395995,-0.772790151614685
-0.0573180249015154,-0.862667880121676
0.0464101163049414,-0.740513998345916
-0.0448671367865915,-0.840176699855566
0.064539231381728,-0.707672538655054
0.0728118805846572,-0.691165335559703
0.179214584740219,-0.574123365109772
0.0877850235856293,-0.658227435735073
0.0944980049642557,-0.641895105309808
0.100707849749412,-0.625718227809465
0.106427125908115,-0.609743916595208
0.111670828298364,-0.594018146115072
0.11645630566346,-0.578585585645713
0.120803177805157,-0.563489438152397
0.241879588642663,-0.441758906507875
0.128270377938533,-0.53447093635206
0.131440424883382,-0.520626290125747
0.134271076017767,-0.507273196231828
0.136791745938449,-0.494445330438694
0.139033438518997,-0.482174076056558
0.141028606778202,-0.470488414660297
0.142811006592793,-0.459414826161203
0.144415544846293,-0.448977198610188
0.145878122628329,-0.439196748076712
0.147235474118749,-0.430091948908006
0.148525001808399,-0.421678474632299
0.149784608723323,-0.413969149727878
0.151052528331404,-0.406973912437026
0.258494735613044,-0.306816376350594
0.263053899369769,-0.288148273442894
0.15528984261549,-0.390328347962595
0.156973931520133,-0.386230445632028
0.15885642881873,-0.38285251359283
0.160973936269292,-0.380187021794571
0.266316087165985,-0.260064894606567
0.166055891249734,-0.37694913372934
0.169088557905178,-0.376347740055284
0.172492358038304,-0.376400928244798
0.176297965522781,-0.377087639694211
0.180534414673506,-0.378384349971388
0.185228962387705,-0.380265171536941
0.19040695722466,-0.382701965452064
0.19609171596077,-0.385664461623818
0.202304408127155,-0.389120387105307
0.209063949005489,-0.39303560193673
0.216386901524255,-0.397374241983827
0.224287387462469,-0.402098868203021
0.232777008331028,-0.407170621737489
0.241864776263521,-0.412549384225813
0.251557055208697,-0.41819394268465
0.261857512675927,-0.424062158309214
0.272767082243158,-0.430111138520337
0.284283936994155,-0.436297411574455
0.296403474008456,-0.442577103043262
0.309118309983568,-0.448906113462774
0.322418288024746,-0.45524029644747
0.245844672377125,-0.573731233713715
0.247633813507852,-0.580516322189904
0.365686356265888,-0.473835441143598
0.381170722449997,-0.479754112939518
0.397148856857596,-0.485462699402223
0.413594722303872,-0.490920450554465
0.324252017687458,-0.600194873449791
0.447773491293658,-0.500926374677532
0.580547603009792,-0.411958188156823
0.483452062887454,-0.509471752898152
0.501764758651325,-0.513109842821818
0.520341698531704,-0.516282117802357
0.448529265270807,-0.61885800778585
0.558123836597331,-0.521112968088512
0.57724297349705,-0.52271880928948
0.596454537022539,-0.52375357043686
0.615712368800687,-0.524196718348698
0.634969353156332,-0.52403020277572
0.654177587359589,-0.523238523758808
0.673288555456199,-0.521808788547367
0.692253305004416,-0.519730757862437
0.711022626030117,-0.516996881331065
0.729547231502585,-0.513602321961695
0.747777938626958,-0.5095449695742
0.7656658502457,-0.504825443142251
0.783162535640579,-0.499447082050049
0.800220210028551,-0.493415926309702
0.81679191204969,-0.486740685829596
0.832831678552807,-0.479432698867805
0.848294715994636,-0.471505879847774
0.863137567781417,-0.462976656755878
0.877318276897317,-0.453863898382114
0.89079654318232,-0.444188831705573
0.903533874642947,-0.433974949765722
0.91549373220228,-0.42324791039842
0.827650627516274,-0.517442580807744
0.936945451951679,-0.400367146533295
0.9463752003084,-0.38827453096729
0.954903481985961,-0.375790716483302
0.962505425971318,-0.362950377171815
1.08675507652088,-0.255783800726334
0.97484417090385,-0.336345623447947
0.979544827554838,-0.322656899979504
0.983246996215661,-0.308762715821365
0.985939817941033,-0.294703135866139
0.987615405882036,-0.280518814069729
