-0.109442999667936,0.0125419939761373
-0.116148705485926,0.0175431529560538
-0.123051333204667,0.0223502754366252
-0.130145271134362,0.0269559003565328
-0.137424632417889,0.0313527289662546
-0.144883259729813,0.0355336347756367
-0.152514730329526,0.0394916733651584
-0.160312361464526,0.0432200920484406
-0.168269216119439,0.046712339373662
-0.176378109105957,0.0499620744516776
-0.184631613488436,0.0529631760987787
-0.193022067339476,0.0557097517822011
-0.201541580819384,0.0581961463566523
-0.210182043573014,0.0604169505803283
-0.218935132437085,0.0623670093990874
-0.227792319450651,0.0640414299876717
-0.236744880161023,0.0654355895370946
-0.245783902217072,0.0665451427775599
-0.254900294241423,0.0673660292265393
-0.264084794972736,0.0678944801519024
-0.273327982668855,0.0681270252402822
-0.282620284761311,0.0680604989611572
-0.291951987751265,0.0676920466174369
-0.301313247336709,0.0670191300736647
-0.31069409876037,0.0660395331532829
-0.320084467367477,0.0647513666967497
-0.329474179362264,0.0631530732726558
-0.338852972751765,0.0612434315343529
-0.348210508465214,0.0590215602149837
-0.357536381637077,0.0564869217541929
-0.366820133041517,0.0536393255501869
-0.37605126066583,0.0504789308312256
-0.385219231410205,0.0470062491410334
-0.394313492900905,0.0432221464330445
-0.403323485403817,0.0391278447688257
-0.412238653825113,0.0347249236164535
-0.421048459785603,0.0300153207450696
-0.429742393755209,0.0250013327122862
-0.438309987233869,0.019685614941567
-0.446740824965031,0.0140711813871732
-0.455024557167815,0.0081614037847243
-0.463150911773829,0.00196001048589783
-0.471109706654538,-0.00452891512373871
-0.478890861825039,-0.0113009366242926
-0.486484411610054,-0.0183512669785573
-0.49388051675792,-0.0256747713660413
-0.501069476488344,-0.0332659704331006
-0.508041740459722,-0.0411190439577797
-0.514787920641802,-0.0492278349274815
-0.521298803079554,-0.0575858540271019
-0.527565359534129,-0.0661862845347854
-0.533578758986903,-0.0750219876219702
-0.539330378992642,-0.0840855080539187
-0.544811816867968,-0.0933690802864463
-0.550014900701416,-0.102864634954089
-0.554931700171501,-0.112563805744477
-0.559554537159373,-0.122457936653221
-0.563875996142824,-0.132538089613145
-0.567888934358557,-0.142795052491243
-0.571586491719881,-0.153219347446309
-0.574962100477163,-0.16380123963969
-0.57800949460864,-0.174530746291243
-0.580722718929402,-0.185397646072083
-0.583096137906667,-0.19639148882532
-0.585124444169701,-0.207501605605552
-0.58680266670305,-0.218717119027493
-0.588126178712058,-0.230026953913686
-0.58909070514995,-0.241419848230886
-0.589692329896114,-0.25288436430432
-0.589927502575525,-0.264408900298653
-0.589793045009665,-0.275981701954127
-0.589286157289611,-0.287590874566032
-0.588404423462381,-0.299224395195276
-0.587145816822018,-0.31087012509756
-0.585508704797274,-0.322515822358315
-0.583491853428217,-0.334149154720284
-0.58109443142447,-0.34575771259035
-0.578316013798245,-0.357329022211928
-0.575156585065795,-0.368850558989014
-0.571616542011344,-0.380309760947721
-0.567696696008023,-0.391694042320925
-0.56339827489083,-0.40299080724143
-0.558722924377087,-0.414187463528866
-0.55367270903038,-0.42527143655537
-0.54825011276444,-0.436230183174927
-0.54245803888395,-0.447051205701115
-0.536299809659731,-0.457722065917854
-0.529779165436317,-0.468230399107677
-0.522900263270405,-0.478563928081924
-0.515667675099211,-0.488710477197183
-0.508086385438265,-0.498657986342271
-0.500161788608729,-0.508394524879965
-0.491899685494821,-0.517908305527708
-0.48330627983248,-0.527187698161485
-0.474388174030922,-0.536221243527081
-0.465152364529272,-0.544997666842968
-0.455606236690997,-0.553505891279104
-0.445757559239376,-0.56173505129601
-0.435614478237778,-0.569674505828538
-0.425185510619056,-0.577313851298897
-0.414479537268878,-0.584642934443567
-0.403505795668325,-0.591651864938904
-0.392273872101626,-0.598331027810373
-0.380793693435401,-0.604671095610525
-0.369075518476279,-0.610663040351021
-0.357129928914274,-0.616298145174208
-0.344967819859801,-0.621568015749972
-0.332600389982677,-0.626464591383843
-0.320039131261963,-0.630980155822572
-0.307295818355959,-0.635107347743668
-0.294382497602138,-0.638839170915691
-0.281311475657243,-0.642169004016376
-0.268095307788246,-0.645090610096004
-0.254746785825287,-0.647598145673752
-0.241278925788125,-0.649686169455121
-0.227704955198084,-0.651349650658896
-0.214038300087839,-0.652583976942472
-0.200292571721814,-0.653384961914773
-0.186481553040313,-0.653748852226398
-0.17261918484089,-0.653672334227052
-0.158719551710821,-0.653152540180744
-0.144796867724846,-0.652187054029683
-0.130865461922721,-0.65077391669826
-0.116939763581389,-0.648911630928976
-0.103034287296892,-0.64659916564264
-0.0891636178914323,-0.643835959815674
-0.0753423951612241,-0.640621925867833
-0.0615852984810648,-0.63695745255419
-0.0479070312817483,-0.632843407355713
-0.0343223054166768,-0.628281138363332
-0.0208458254342194,-0.623272475650892
-0.00749227277254125,-0.617819732132943
0.00572371010620765,-0.611925703903866
0.0187875356253198,-0.6055936700554
0.0316846870294101,-0.598827391970151
0.0444007343294938,-0.591631112089298
0.0569213502399131,-0.584009552153201
0.06923232608969,-0.575967910914261
0.0813195876908397,-0.567511861321905
0.0931692111461464,-0.558647547180162
0.104767438578885,-0.549381579278902
0.116100693766985,-0.539721031000344
0.127155597664165,-0.529673433403061
0.137918983790586,-0.519246769786263
0.148377913475681,-0.508449469737751
0.158519690935851,-0.497290402669469
0.168331878169864,-0.485778870845207
0.177802309654893,-0.473924601905556
0.186919106826274,-0.46173774089578
0.19567069232423,-0.449228841802862
0.20404580399099,-0.436408858608535
0.212033508601922,-0.423289135865644
0.219623215314522,-0.409881398805779
0.226804688819333,-0.396197742986626
0.233568062177132,-0.382250623488054
0.239903849326991,-0.368052843666445
0.245802957250085,-0.353617543477352
0.251256697774484,-0.33895818737703
0.256256799006433,-0.324088551813932
0.260795416373991,-0.309022712321719
0.264865143269276,-0.293775030225845
0.268459021275906,-0.278360138976249
0.271570549968647,-0.262792930119114
0.274193696272655,-0.247088538921147
0.276322903370171,-0.231262329660237
0.277953099142904,-0.215329880596781
0.279079704138844,-0.19930696864038
0.27969863905268,-0.183209553726987
0.279806331709496,-0.167053762921991
0.279399723541898,-0.150855874265058
0.278476275551244,-0.134632300372916
0.277033973744153,-0.118399571816604
0.275071334036019,-0.102174320289993
0.272587406613766,-0.085973261586736
0.269581779750672,-0.0698131784030231
0.266054583066605,-0.0537109029838322
0.262006490227633,-0.0376832996305821
0.257438721079504,-0.0217472470883258
0.252353043210113,-0.00591962083084038
0.246751772936662,0.00978272473786107
0.240637775713792,0.0253429741468779
0.234014465959632,0.0407443687677898
0.226885806297264,0.0559702247510458
0.219256306209762,0.0710039509702925
0.211131020107573,0.0858290669554506
0.20251554480764,0.100429220795291
0.193416016424289,0.114788206990211
0.183839106672544,0.128889984235879
0.173792018585176,0.142718693118415
0.163282481645403,0.15625867370179
0.15231874633782,0.16949448298815
0.140909578120763,0.182410912231834
0.129064250823951,0.194993004087953
0.116792539475868,0.207226069576437
0.104104712566004,0.219095704842651
0.0910115237476812,0.230587807695758
0.077524202987824,0.241688593906203
0.0636544471706486,0.252384613243855
0.0494144101628643,0.262662765238561
0.0348166923485936,0.272510314645074
0.0198743296428013,0.281914906594562
0.00460078199264397,0.290864581415185
-0.0109900786232807,0.299347789104472
-0.0268839806872239,0.307353403436577
-0.0430662661149713,0.314870735687784
-0.059521903697239,0.321889547963964
-0.0762355029975306,0.328400066114095
-0.0931913286936771,0.334392992214266
-0.110373315349747,0.339859516607038
-0.127765082604507,0.344791329481414
-0.14534995076211,0.349180631979132
-0.163110956770188,0.353020146813392
-0.181030870570074,0.356303128386662
-0.199092211803407,0.359023372394624
-0.217277266858913,0.361175224903862
-0.235568106242766,0.362753590891371
-0.253946602255483,0.363753942234534
-0.272394446957924,0.3641723251407
-0.290893170408607,0.36400536700611
-0.309424159154149,0.363250282694427
-0.327968674954342,0.361904880225754
-0.346507873723025,0.359967565867584
-0.365022824665608,0.357437348619742
-0.383494529593827,0.354313844085992
-0.40190394239804,0.350597277725598
-0.420231988657129,0.346288487478781
-0.438459585365832,0.341388925760621
-0.456567660759155,0.335900660818643
-0.474537174213298,0.32982637744996
-0.492349136202382,0.323169377074508
-0.509984628290128,0.3159335771616
-0.527424823135501,0.308123510007672
-0.544651004491257,0.299744320863816
-0.561644587174228,0.290801765412323
-0.57838713698616,0.281302206592216
-0.594860390563855,0.271252610774378
-0.611046275137392,0.260660543287621
-0.626926928175178,0.249534163297713
-0.642484716894658,0.237882218042072
-0.657702257617549,0.225714036423548
-0.672562434948531,0.213039521967393
-0.687048420756489,0.199869145146204
-0.701143692937449,0.186213935078334
-0.714832053938576,0.172085470605931
-0.72809764902272,0.15749587075945
-0.740924984253227,0.14245778461618
-0.753298944178931,0.126984380560954
-0.76520480919948,0.111089334957929
-0.776628272591439,0.0947868202429369
-0.787555457175852,0.0780914924465766
-0.797972931608289,0.0610184781588572
-0.807867726272716,0.0435833609468341
-0.817227348760862,0.0258021672372951
-0.826039798919144,0.00769135167717355
-0.834293583445596,-0.0107322180150358
-0.841977730019634,-0.0294512766929956
-0.849081800947953,-0.0484481779069475
-0.855595906310272,-0.0677049104938244
-0.861510716589117,-0.0872031156175118
-0.866817474768325,-0.106924104243171
-0.871508007885439,-0.126848875029022
-0.875574738023696,-0.146958132618478
-0.879010692729849,-0.167232306315043
-0.881809514844597,-0.187651569121899
-0.883965471733004,-0.208195857127685
-0.885473463902828,-0.228844889219494
-0.88632903299932,-0.249578187103745
-0.886528369165643,-0.270375095615143
-0.886068317758695,-0.29121480329361
-0.884946385410768,-0.312076363208668
-0.883160745428119,-0.332938714010454
-0.880710242518192,-0.353780701186201
-0.877594396837921,-0.374581098500748
-0.873813407356207,-0.395318629599359
-0.86936815452439,-0.415971989750865
-0.864260202249196,-0.436519867708953
-0.858491799163405,-0.45694096766917
-0.85206587919017,-0.477214031299063
-0.844986061397653,-0.497317859818707
-0.837256649141379,-0.517231336108723
-0.828882628492464,-0.536933446822797
-0.819869665950581,-0.556403304481595
-0.810224105441309,-0.575620169524939
-0.799952964598246,-0.594563472299019
-0.78906393033101,-0.613212834955462
-0.777565353681037,-0.631548093239021
-0.765466243967788,-0.649549318140737
-0.752776262228796,-0.667196837393433
-0.739505713957674,-0.684471256786528
-0.725665541145005,-0.701353481277223
-0.711267313627753,-0.717824735875276
-0.696323219753598,-0.733866586278708
-0.680846056367324,-0.749460959237989
-0.664849218127145,-0.764590162626423
-0.648346686159564,-0.779236905194726
-0.631353016062096,-0.793384315987986
-0.613883325263897,-0.807015963403521
-0.595953279755064,-0.820115873868414
-0.57757908019604,-0.832668550115842
-0.558777447419287,-0.844658989039661
-0.539565607336036,-0.856072699107076
-0.519961275261608,-0.866895717309606
-0.499982639673457,-0.877114625632984
-0.479648345416731,-0.886716567027053
-0.458977476372754,-0.895689260857178
-0.43798953760649,-0.904021017819175
-0.416704437009619,-0.911700754300244
-0.395142466456444,-0.918718006168927
-0.373324282490439,-0.925062941977641
-0.351270886559781,-0.93072637556187
-0.329003604820751,-0.935699778020727
-0.306544067528404,-0.939975289064131
-0.283914188034428,-0.943545727712487
-0.261136141412545,-0.946404602335393
-0.238232342732328,-0.948546120016496
-0.215225425002695,-0.949965195232328
-0.192138216806802,-0.950657457833599
-0.168993719650403,-0.950619260318119
-0.145815085046201,-0.949847684385211
-0.122625591356968,-0.948340546762217
-0.099448620420635,-0.946096404294396
-0.0763076339807984,-0.943114558290278
-0.0532261499464012,-0.939395058115265
-0.030227718504604,-0.934938704027034
-0.00733589811109087,-0.929747049247085
0.0154257686177267,-0.923822401263518
0.0380337790859638,-0.917167822360948
0.0604646949481652,-0.909787129374211
0.0826951663629086,-0.901684892663366
0.104701956245069,-0.892866434308242
0.126461964491588,-0.883337825521646
0.147952252155557,-0.873105883281097
0.169150065543399,-0.862178166179821
0.190032860209886,-0.850562969498518
0.21057832482581,-0.838269319500239
0.230764404893113,-0.825306966951539
0.250569326282395,-0.811686379873874
0.269971618567807,-0.797418735530026
0.288950138134448,-0.782515911651157
0.307484091033557,-0.766990476910905
0.325553055560981,-0.750855680653714
0.343137004534538,-0.734125441885449
0.360216327246237,-0.716814337535037
0.376771851065447,-0.698937589996808
0.392784862669508,-0.680511053963834
0.4082371288785,-0.661551202563443
0.423110917071244,-0.642075112806836
0.437389015160003,-0.622100450365404
0.45105475110167,-0.601645453687215
0.464092011923704,-0.580728917467732
0.47648526224344,-0.559370175489678
0.488219562259918,-0.537589082847534
0.499280585197808,-0.515405997572958
0.50965463418352,-0.492841761678015
0.519328658534137,-0.469917681633817
0.528290269440306,-0.446655508302772
0.536527755024846,-0.423077416343299
0.544030094759355,-0.399205983106474
0.550786973221776,-0.375064167044643
0.556788793178434,-0.350675285652635
0.562026687974787,-0.326062992962716
0.566492533219701,-0.301251256615053
0.570178957748841,-0.276264334525809
0.57307935385339,-0.251126751175681
0.575187886761075,-0.225863273541959
0.576499503357186,-0.200498886697774
0.577009940134026,-0.175058769102583
0.576715730357998,-0.149568267608271
0.575614210444309,-0.124052872205761
0.573703525530051,-0.0985381905372024
0.570982634237217,-0.0730499221993166
0.567451312618049,-0.0476138328635821
0.5631101572759,-0.0222557282394164
0.557960587655633,0.00299857209343501
0.552004847498457,0.0281232609567173
0.545246005456879,0.0530925699230008
0.537687954866379,0.0778807957156628
0.529335412671211,0.10246232663247
0.520193917502667,0.126811668965654
0.510269826908933,0.150903473391248
0.499570313736628,0.174712561300443
0.488103361664916,0.198213951045624
0.475877759894001,0.221382884073851
0.462903096990711,0.244194850920452
0.449189753894687,0.26662561703559
0.434748896089677,0.288651248416621
0.419592464945194,0.310248137019285
0.403733168234762,0.33139302592085
0.387184469837823,0.35206303420849
0.369960578633181,0.372235681566474
0.352076436592847,0.391888912535814
0.333547706085833,0.411001120420452
0.31439075640247,0.429551170814179
0.294622649510512,0.447518424722941
0.274261125055199,0.464882761257409
0.253324584616261,0.481624599871126
0.231832075235621,0.497724922119893
0.209803272230384,0.513165292918516
0.18725846130645,0.527927881271439
0.164218519988911,0.541995480454274
