-0.77910930093906,0.778589563402642
-0.779166133185838,0.778482180958118
-0.779223971291115,0.778372618930757
-0.779282837048707,0.778260822245649
-0.779342752803117,0.778146734164834
-0.779403741465106,0.778030296228971
-0.779465826527745,0.777911448196677
-0.779529032082939,0.77779012798144
-0.779593382838461,0.777666271585985
-0.779658904135495,0.777539813033989
-0.779725621966715,0.777410684299023
-0.779793562994907,0.777278815230586
-0.779862754572149,0.777144133477116
-0.779933224759576,0.777006564405818
-0.780005002347736,0.776866031019176
-0.780078116877556,0.776722453867998
-0.780152598661945,0.776575750960819
-0.780228478808032,0.776425837669507
-0.780305789240078,0.776272626630878
-0.780384562723065,0.77611602764415
-0.780464832886989,0.775955947564025
-0.780546634251867,0.775792290189192
-0.78063000225349,0.775624956146041
-0.780714973269925,0.775453842767351
-0.780801584648793,0.775278843965708
-0.780889874735348,0.775099850101402
-0.780979882901357,0.774916747844532
-0.781071649574822,0.774729420031036
-0.781165216270548,0.774537745512346
-0.781260625621575,0.774341598998357
-0.781357921411502,0.774140850893367
-0.781457148607706,0.773935367124655
-0.781558353395491,0.773725008963314
-0.781661583213161,0.773509632836948
-0.781766886788052,0.773289090133836
-0.78187431417352,0.773063226998115
-0.781983916786912,0.772831884115522
-0.782095747448521,0.772594896489228
-0.782209860421541,0.772352093205228
-0.782326311453019,0.772103297186769
-0.782445157815827,0.771848324937226
-0.782566458351632,0.771586986270835
-0.782690273514891,0.771319084030636
-0.782816665417842,0.771044413792953
-0.782945697876499,0.770762763557698
-0.783077436457632,0.770473913423736
-0.783211948526718,0.77017763524852
-0.783349303296837,0.769873692291132
-0.78348957187849,0.769561838837854
-0.783632827330294,0.769241819809294
-0.783779144710526,0.768913370348075
-0.783928601129442,0.768576215386014
-0.784081275802334,0.768230069189655
-0.784237250103233,0.767874634882955
-0.784396607619183,0.76750960394586
-0.784559434204991,0.767134655687392
-0.784725818038331,0.766749456691856
-0.784895849675084,0.76635366023659
-0.785069622104757,0.765946905679694
-0.785247230805819,0.765528817815977
-0.785428773800772,0.765099006199335
-0.78561435171072,0.764657064429587
-0.785804067809218,0.764202569401736
-0.785998028075116,0.763735080515453
-0.786196341244085,0.763254138842451
-0.786399118858496,0.762759266249287
-0.786606475315249,0.762249964472938
-0.786818527911136,0.761725714146358
-0.787035396885232,0.761185973771029
-0.787257205457802,0.760630178633329
-0.787484079865089,0.760057739661326
-0.78771614938934,0.759468042218396
-0.7879535463833,0.758860444829831
-0.788196406288347,0.758234277838334
-0.788444867645339,0.757588841984037
-0.788699072097146,0.756923406904403
-0.788959164381705,0.756237209549039
-0.789225292314338,0.755529452504133
-0.789497606757907,0.754799302220877
-0.789776261579236,0.754045887141844
-0.790061413590054,0.753268295718898
-0.790353222470526,0.752465574315786
-0.790651850673211,0.751636724988067
-0.790957463305076,0.750780703132579
-0.791270227984918,0.749896414998092
-0.79159031467325,0.748982715048213
-0.791917895471419,0.748038403167039
-0.792253144386335,0.74706222169737
-0.792596237056818,0.746052852300609
-0.792947350437139,0.745008912626745
-0.793306662432822,0.74392895278199
-0.793674351483285,0.742811451580831
-0.794050596085253,0.741654812568301
-0.794435574250269,0.740457359797352
-0.794829462888858,0.739217333345129
-0.795232437113121,0.737932884550872
-0.795644669448617,0.736602070956982
-0.796066328945407,0.735222850933511
-0.796497580177021,0.733793077965023
-0.79693858211488,0.732310494577335
-0.797389486864342,0.730772725880115
-0.797850438247022,0.729177272699729
-0.798321570212351,0.727521504275007
-0.79880300505947,0.725802650486786
-0.799294851448453,0.72401779359018
-0.799797202177582,0.722163859416509
-0.800310131700767,0.720237608009696
-0.800833693356388,0.718235623659699
-0.801367916275633,0.716154304293222
-0.80191280193487,0.713989850179503
-0.802468320312662,0.711738251906433
-0.803034405607641,0.709395277579667
-0.803610951468608,0.706956459194661
-0.804197805682797,0.704417078128821
-0.804794764262231,0.701772149698185
-0.805401564861378,0.699016406720202
-0.806017879451914,0.696144282021462
-0.806643306172076,0.693149889826477
-0.807277360258921,0.690027005961066
-0.807919463961605,0.686769046801508
-0.808568935322401,0.683369046898533
-0.809224975699646,0.679819635203503
-0.809886655892809,0.676113009822948
-0.810552900714382,0.672240911227073
-0.811222471836181,0.668194593838157
-0.81189394871865,0.663964795926163
-0.812565707410789,0.659541707741562
-0.813235896985176,0.654914937819756
-0.813902413347037,0.650073477397844
-0.814562870128207,0.645005662893338
-0.815214566346008,0.63969913640629
-0.81585445047321,0.634140804221752
-0.816479080528331,0.628316793309362
-0.81708457975524,0.622212405841887
-0.817666587417298,0.615812071785918
-0.818220204184023,0.609099299656678
-0.818739931537377,0.602056625576527
-0.819219604570419,0.594665560834854
-0.81965231749329,0.586906538217501
-0.820030341100744,0.578758857458838
-0.820345031392151,0.57020063027171
-0.820586728469922,0.561208725532406
-0.820744644776796,0.55175871534311
-0.820806741667888,0.541824822866477
-0.820759593252044,0.531379873030462
-0.820588236381572,0.520395247440933
-0.820276005623575,0.508840845120244
-0.819804352014466,0.496685051017608
-0.819152644387846,0.48389471461805
-0.818297952082213,0.470435141417626
-0.817214807888324,0.456270100540495
-0.815874950197968,0.441361852355313
-0.814247043480702,0.425671200611255
-0.812296376459892,0.409157574363906
-0.809984537705071,0.391779145803354
-0.807269068828917,0.37349299103408
-0.804103096103382,0.354255301888469
-0.80043494212491,0.334021657978447
-0.796207720202589,0.312747369392013
-0.791358915460145,0.290387901703835
-0.785819958282483,0.266899396261014
-0.779515797753747,0.24223929998121
-0.772364485182904,0.21636712009665
-0.76427678075109,0.189245320306759
-0.755155799794861,0.160840375548611
-0.744896719304027,0.131124002908596
-0.733386569887296,0.100074585891201
-0.720504143740852,0.0676788080984015
-0.706120054999449,0.0339335100737064
-0.6900969951525,-0.00115222070223499
-0.672290232784226,-0.0375547222895384
-0.652548413457385,-0.0752331967359059
-0.630714721682278,-0.114126928548041
-0.606628472014228,-0.154152310913064
-0.58012719963586,-0.195199724535771
-0.551049321333493,-0.237130334808249
-0.519237434390756,-0.279772897622288
-0.484542312229224,-0.32292069219352
-0.446827640122501,-0.366328730075943
-0.405975510458034,-0.409711421824634
-0.361892663403314,-0.452740914534555
-0.31451741438016,-0.495046341966129
-0.263827154032623,-0.536214250542908
-0.209846239953437,-0.57579047476353
-0.152654024249175,-0.613283729508198
-0.0923926807543769,-0.648171159127331
-0.0292744160400718,-0.679906029248472
0.0364124229157094,-0.707927663288249
0.104298884766571,-0.731673610234889
0.284836537148862,-0.655358402893229
0.244781073793556,-0.764166954396277
0.218008897558435,-0.65381040012631
0.276541342881254,-0.879374552101614
0.573235247814607,-0.669364413973952
0.527054955439716,-0.756524998782081
0.48843291013006,-0.828202788024881
0.54470732046178,-0.613571632700341
0.5964458999582,-0.792277607288634
0.770295610117784,-0.640483922757207
0.921235749987482,-0.488979574593538
0.759528934523075,-0.433976900373172
1.0092883193906,-0.373789315050887
0.829765005020556,-0.330597092017951
0.854589611124331,-0.265714332658361
0.962949094029005,-0.297505146222323
1.08708869125305,-0.343011843056919
1.08912902858702,-0.0641232994767578
0.971826120540936,-0.0953401307016462
0.847921240664113,-0.112071507377431
1.03741060535195,0.141906641717336
0.868943458482854,0.0986623944142968
0.774457928092777,0.0925902341578932
0.812363304565537,0.219881048280249
0.701297266595572,0.421744905216844
0.834422178936144,0.249474136440415
0.604194766450957,0.334910101701699
0.787113300094057,0.309535290755695
0.515754118516438,0.408844183080709
0.468182870476659,0.685676176070018
0.497264383391613,0.568319388463515
0.466333390468694,0.629865844706701
0.416515881417996,0.662564013362882
0.367218225085701,0.692167988181515
0.334350687392053,0.729131291431834
0.29663620273435,0.741030241560125
0.224839484403466,0.764122213086744
0.1832723870759,0.76980089765829
0.136213935340326,0.7998630537221
0.113389282730518,0.778487777102269
0.0449194519778316,0.803203672477801
0.0146439435856643,0.838725324887189
-0.00714554703075691,0.883348398238481
-0.0741904809852561,0.84730446541405
-0.121650476690432,0.869397085391096
-0.141390718709634,0.869030537055984
-0.179483018119088,0.850692662457479
-0.215012928004343,0.88542442909744
-0.213856389388194,0.881971149752947
-0.240577325121689,0.884521160927702
-0.265957485115603,0.886447366312555
-0.290050977202439,0.887823438118454
-0.31291274044237,0.888715897804
-0.334597874165514,0.88918465728261
-0.355161091813556,0.889283548367315
-0.374656282628524,0.889060833190589
-0.393136165839941,0.888559690540669
-0.410652023608376,0.887818674819876
-0.42725350054051,0.88687214572099
-0.442988459062738,0.885750667795572
-0.457902881305598,0.884481379907404
-0.472040809398551,0.883088335172285
-0.485444317199903,0.881592812422884
-0.498153507491557,0.880013600538747
-0.510206529557565,0.878367257175716
-0.52163961284654,0.876668343539902
-0.532487113099332,0.8749296368985
-0.542781567914154,0.873162322519119
-0.552553759230755,0.871376166693627
-0.561832780652306,0.869579672441985
-0.570646107896817,0.867780219414181
-0.579019670987109,0.865984189420302
-0.586977927056758,0.864197078924905
-0.594543932875616,0.862423599745653
-0.601739416388167,0.860667769100393
-0.608584846716444,0.858932990053437
-0.615099502210856,0.857222123322033
-0.621301536241137,0.855537551318847
-0.627208040509166,0.853881235226245
-0.632835105738527,0.852254765823548
-0.638197879655071,0.850659408719338
-0.643310622220468,0.849096144577221
-0.648186758118855,0.847565704865133
-0.652838926526633,0.846068603604952
-0.657279028218748,0.844605165550702
-0.661518270082477,0.843175551179614
-0.665567207122898,0.841779778840473
-0.669435782053532,0.840417744367685
-0.673133362572031,0.839089238437076
-0.676668776424572,0.837793961910207
-0.680050344364485,0.836531539387774
-0.683285911110927,0.835301531169085
-0.686382874412412,0.834103443793473
-0.689348212318102,0.832936739320624
-0.692188508757063,0.831800843489789
-0.694909977522484,0.830695152882766
-0.697518484754262,0.829619041201948
-0.700019570009453,0.828571864762655
-0.702418466006094,0.827552967288149
-0.704720117121739,0.826561684086085
-0.706929196723969,0.82559734567656
-0.709050123405994,0.824659280934213
-0.71108707619646,0.8237468198
-0.713044008808666,0.82285929561216
-0.714924662990557,0.82199604710043
-0.716732581033265,0.821156420082726
-0.718471117492408,0.820339768899176
-0.720143450173064,0.819545457614522
-0.72175259042613,0.818772861016509
-0.723301392800769,0.81802136543477
-0.724792564094786,0.817290369402018
-0.726228671842103,0.816579284176932
-0.727612152273928,0.815887534145924
-0.728945317787855,0.815214557119079
-0.730230363956866,0.814559804533831
-0.731469376108109,0.813922741578399
-0.73266433549935,0.813302847245652
-0.733817125119145,0.812699614326859
-0.734929535135045,0.812112549353693
-0.736003268012531,0.811541172495902
-0.737039943325873,0.810985017421187
-0.738041102280664,0.810443631123092
-0.739008211966516,0.809916573722005
-0.739942669357099,0.809403418243771
-0.740845805073636,0.808903750379893
-0.741718886926837,0.808417168232803
-0.742563123251281,0.807943282049267
-0.743379666045327,0.807481713944604
-0.744169613928764,0.807032097620076
-0.744934014929585,0.806594078075485
-0.745673869110557,0.806167311318774
-0.746390131045513,0.805751464074169
-0.74708371215466,0.805346213490209
-0.747755482907596,0.804951246848815
-0.74840627490214,0.804566261276386
-0.74903688282656,0.804190963457775
-0.749648066312299,0.803825069353851
-0.750240551683821,0.803468303923261
-0.750815033611788,0.803120400848887
-0.751372176675371,0.802781102269414
-0.751912616839122,0.802450158516354
-0.752436962849493,0.802127327856784
-0.752945797555768,0.801812376242015
-0.753439679159861,0.801505077062348
-0.753919142399152,0.801205210908021
-0.754384699666281,0.800912565336427
-0.754836842069567,0.800626934645638
-0.755276040437487,0.800348119654232
-0.755702746270433,0.800075927487417
-0.756117392642788,0.799810171369399
-0.756520395058138,0.799550670421943
-0.7569121522603,0.799297249469038
-0.757293047002651,0.799049738847591
-0.757663446778115,0.798807974224027
-0.758023704512007,0.798571796416711
-0.758374159219811,0.798341051224047
-0.758715136631827,0.798115589258145
-0.759046949786526,0.797895265783918
-0.759369899594336,0.797679940563484
-0.759684275373463,0.797469477705727
-0.759990355359281,0.797263745520888
-0.760288407188724,0.797062616380039
-0.760578688361015,0.796865966579312
-0.760861446676019,0.796673676208736
-0.761136920651403,0.796485629025544
-0.761405339919733,0.796301712331826
-0.761666925606575,0.796121816856374
-0.761921890690586,0.795945836640606
-0.762170440346559,0.795773668928429
-0.762412772272289,0.795605214059908
-0.76264907700012,0.79544037536863
-0.762879538193949,0.795279059082631
-0.763104332932443,0.795121174228769
-0.763323631979169,0.794966632540421
-0.763537600040316,0.794815348368408
-0.763746396010614,0.794667238595011
-0.763950173208075,0.794522222550996
-0.764149079598087,0.794380221935531
-0.764343258007427,0.794241160738891
-0.764532846328656,0.794104965167864
-0.764717977715405,0.793971563573755
-0.764898780768986,0.793840886382899
-0.765075379716751,0.793712866029588
-0.765247894582608,0.793587436891337
-0.765416441350076,0.7934645352264
-0.765581132118234,0.793344099113448
-0.765742075250908,0.793226068393345
-0.765899375519428,0.793110384612937
-0.766053134239247,0.792996990970787
-0.766203449400727,0.79288583226478
-0.766350415794359,0.79277685484154
-0.766494125130683,0.792670006547578
-0.766634666155157,0.792565236682131
-0.766772124758206,0.792462495951607
-0.766906584080681,0.792361736425596
-0.767038124614931,0.792262911494382
-0.767166824301702,0.7921659758279
-0.767292758623044,0.792070885336096
-0.767416000691407,0.791977597130628
-0.767536621335115,0.791886069487862
-0.767654689180359,0.791796261813126
-0.767770270729882,0.791708134606164
-0.767883430438493,0.791621649427753
-0.76799423078557,0.79153676886744
-0.768102732344655,0.791453456512362
-0.7682089938503,0.791371676917102
-0.76831307226227,0.791291395574554
-0.768415022827217,0.791212578887758
-0.768514899137939,0.791135194142656
-0.768612753190339,0.791059209481766
-0.768708635438157,0.790984593878713
