0.290979432725685,-0.840054987638132
0.305220954264538,-0.833352417411026
0.318803333908862,-0.825220547504903
0.331669580425568,-0.815694614607533
0.343766308155875,-0.804816181929737
0.355044121212508,-0.79263286930231
0.365457973869859,-0.779198049169889
0.374967504765249,-0.764570510398609
0.383537342690145,-0.748814092006502
0.391137381925119,-0.731997289104634
0.397743025260192,-0.714192833501761
0.40333539304201,-0.695477251574875
0.407901496799668,-0.675930402141436
0.411434376220705,-0.655634997185573
0.413933198476481,-0.634676108389382
0.415403319130348,-0.613140662501041
0.415856304101338,-0.591116928633291
0.415309912399016,-0.568694000628641
0.413788039590161,-0.545961277651011
0.411320622203521,-0.523007946167495
0.407943503523553,-0.499922466468372
0.403698261466202,-0.476792066838554
0.398631999467981,-0.453702248439609
0.392797101552353,-0.430736303888624
0.386250952963194,-0.407974852429001
0.379055627972661,-0.385495394479334
0.371277546678563,-0.363371888220534
0.362987102803205,-0.341674350739101
0.354258264690301,-0.320468486086817
0.345168151867822,-0.299815342445144
0.335796589701511,-0.279771000397244
0.326225644805191,-0.260386294113151
0.316539143999138,-0.241706567045178
0.306822179715809,-0.223771463512719
0.29716060484244,-0.206614757329339
0.287640520061957,-0.190264218391972
0.278347756806697,-0.174741517913607
0.269367358973384,-0.160062172738451
0.26078306656233,-0.146235528933817
0.252676804398924,-0.133264784607321
0.245128179071024,-0.121147051653036
0.23821398717216,-0.109873455887399
0.232007737877593,-0.0994292747965801
0.226579192798772,-0.0897941118830547
0.221993925961953,-0.0809421063717853
0.218312906639395,-0.0728421768171341
0.215592107627254,-0.0654582969416906
0.213882141413937,-0.0587498018389919
0.213227926517135,-0.0526717224848036
0.213668386088047,-0.0471751463274107
0.215236180688515,-0.0422076015673046
0.217957476942152,-0.0377134625917377
0.221851753545193,-0.0336343739007394
0.226931645898225,-0.029909689749147
0.233202830387346,-0.0264769266346819
0.240663949104224,-0.0232722256856855
0.249306575550403,-0.0202308219442792
0.2591152216235,-0.0172875175017738
0.270067385933213,-0.0143771554233835
0.282133643244865,-0.0114350913987712
0.295277774598987,-0.00839766007370209
0.309456937408878,-0.00520263305595128
0.324621874595523,-0.00178966564536898
0.340717161582316,0.00189927058670919
0.357681489742124,0.00591947215019603
0.375447984667769,0.0103231075918423
0.393944557425326,0.0151588435968602
0.413094286749132,0.0204714956362798
0.432815829949178,0.0263017054012061
0.453023860126882,0.0326856470925712
0.473629527135117,0.0396547644494249
0.494540939573852,0.0472355402014699
0.515663664984639,0.0554492994236306
0.536901245296366,0.0643120480532859
0.558155724481757,0.0738343476057216
0.579328185309694,0.0840212268918137
0.600319292022953,0.0948721313053628
0.621029835734808,0.106380910007352
0.641361279321277,0.118535841092222
0.661216298588798,0.131319694578511
0.680499316519674,0.144709832824507
0.699117027439703,0.158678347730282
0.716978908013638,0.173192233852277
0.733997712054237,0.18821359632685
0.750089946229066,0.203699892276326
0.765176323865379,0.219604204156607
0.779182194186585,0.235875543300458
0.792037944463159,0.252459181716735
0.803679372725516,0.269297010023969
0.814048028865278,0.286327919228288
0.823091522143436,0.303488203901542
0.830763793327968,0.320711984176689
0.841459949936235,0.320799982851505
0.84122357807629,0.348113992035864
0.845192324889083,0.372082173814414
0.84705316646304,0.388873241747381
0.879988340090909,0.398749773023035
0.866816639810512,0.443523882843368
0.830237510204189,0.465481205772856
0.906807595891066,0.482091415657054
0.845415589102305,0.490026801666333
0.83471143995075,0.456077101593488
0.828942434394918,0.480432752398453
0.832538713652745,0.485106924035801
0.784844182127557,0.610171219936714
0.784753270864547,0.530350272952261
0.77373992171639,0.532705951766577
0.738503940721376,0.553155491065126
0.740070514678036,0.558149360986024
0.735537663294494,0.577798519634541
0.692738451380834,0.576811975118651
0.691025607960648,0.579696522166403
0.658586292339129,0.56105654722727
0.618987388489673,0.552464190799659
0.624706854460067,0.587016856923102
0.603041020260451,0.588231366836431
0.575594460206497,0.601054295720816
0.55840035606702,0.587639861658953
0.53560413937056,0.585878562835431
0.512609517233299,0.583180132578811
0.506811748237067,0.579270001267038
0.468396603546628,0.562610645287702
0.443309935108815,0.569863209339244
0.420387670153333,0.563844930142925
0.397689582719774,0.557130492135899
0.375292326444915,0.549783089390587
0.353268910616522,0.541870171390636
0.331688307830934,0.533463063916423
0.310615089130803,0.524636563705084
0.290109088766132,0.51546850929354
0.270225100533285,0.506039330606084
0.251012607446347,0.49643157998551
0.232515546284297,0.486729447487686
0.214772108337288,0.477018263363098
0.197814577447269,0.467383990734624
0.181669206203592,0.457912711548008
0.166356130914688,0.448690108919824
0.151889325733794,0.439800949036842
0.138276596071583,0.431328565770355
0.125519611182914,0.423354351159246
0.113613975570392,0.415957254886282
0.10254933860534,0.40921329582362
0.0923095415288784,0.403195088655902
0.0828728007633203,0.39797138850326
0.0742119262386796,0.393606656362246
0.0662945732219866,0.390160648061111
0.0590835259297468,0.387688029287429
0.0525370110075251,0.386238019091817
0.0466090387765029,0.385854064102353
0.0412497699760703,0.386573545501164
0.0364059055751573,0.388427520618821
0.032021097084018,0.391440500794736
0.0280363746734452,0.395630266933962
0.02439059030067,0.401007723964091
0.021020872951158,0.407576795161584
0.0178630930336935,0.415334357076399
0.0148523329130009,0.424270215538589
0.0119233605299823,0.434367122982242
0.00901110304468423,0.445600837072098
0.00605111744141133,0.457940220368119
0.00298005505893767,0.471347380514567
-0.00026388294860176,0.485777850194444
-0.003740502153137,0.501180805848876
-0.00750718624955816,0.517499323925668
-0.0116184860634856,0.534670673193392
-0.0161257288102831,0.552626641438147
-0.0210766501140866,0.571293894651223
-0.0265150511482839,0.590594366618265
-0.0324804830967517,0.610445676635641
-0.0390079609592217,0.630761572908594
-0.0461277085355489,0.651452399029391
-0.0538649362235479,0.67242558079326
-0.0622396530547107,0.693586130485964
-0.0712665141728554,0.71483716567052
-0.0809547047339288,0.736080439412172
-0.0913078609722375,0.757216878811037
-0.102324028940767,0.778147128661152
-0.113995661192454,0.798772097023392
-0.126309651426799,0.818993499487919
-0.139247406883605,0.838714398909766
-0.152784958024358,0.857839737428601
-0.166893104803402,0.876276857630597
-0.181537598597067,0.893936009776344
-0.19667935863072,0.910730842103452
-0.212274721522857,0.926578871315426
-0.228275722353068,0.941401930488869
-0.244630405458494,0.955126591768355
-0.261283162972339,0.967684561371627
-0.278175098939515,0.979013044596052
-0.295244416679439,0.989055078699608
-0.312426826915698,0.997759831724823
-0.329655974057426,1.00508286554098
-0.346863877898873,1.01098636159716
-0.363981387902339,1.01543930810496
-0.380938647146201,1.01841764760391
-0.397665562954613,1.01990438410249
-0.414092281179019,1.01988964923307
-0.430149661074267,1.01837072710713
-0.445769747703933,1.01535203780683
-0.46088623882057,1.01084507969985
-0.47543494319694,1.00486833101242
-0.489354227433627,0.997447111342056
-0.502585448336549,0.988613404032661
-0.51507336804432,0.978405640570605
-0.526766549189591,0.966868448388612
-0.537617727499946,0.954052363684039
-0.547584159381636,0.940013511067739
-0.556627942182851,0.924813252057952
-0.564716305001136,0.908517804619431
-0.57182186808111,0.891197836120026
-0.577922869042638,0.872928032234256
-0.583003354384814,0.853786644465041
-0.58705333492638,0.833855019079785
-0.590068904067007,0.81321711036476
-0.592052317985032,0.791958981191542
-0.59301203712419,0.770168293960484
-0.59296272856314,0.747933795038609
-0.591925229105798,0.725344795842355
-0.589926469175943,0.702490653729334
-0.586999357844893,0.679460255857443
-0.583182629564628,0.656341509144372
-0.578520653419124,0.633220839416065
-0.573063205942296,0.610182702769157
-0.566865208780388,0.58730911209032
-0.559986432698493,0.564679181575308
-0.552491169643711,0.542368691972965
-0.544447874779925,0.520449679145179
-0.535928780600065,0.498990048383765
-0.52700948539986,0.478053216760256
-0.517768518561214,0.457697785605813
-0.508286885242638,0.43797724502692
-0.498647593207523,0.418939712159446
-0.488935164637716,0.400627704650322
-0.479235135879061,0.383077950633796
-0.469633548146712,0.366321236239393
-0.460216432280566,0.350382291432764
-0.451069290684685,0.335279714749991
-0.442276579608871,0.321025937242183
-0.433921194935319,0.307627225701789
-0.426083964618641,0.295083724996564
-0.418843150893409,0.283389539093046
-0.412273965310066,0.272532850110243
-0.406448099587806,0.262496074507516
-0.401433275182322,0.253256055279813
-0.397292814357668,0.244784288809934
-0.394085235425569,0.237047184812722
-0.391863874673074,0.230006357601334
-0.390676537341392,0.223618946712371
-0.390565179845953,0.217837964745703
-0.391565625241406,0.212612670107586
-0.393707313736339,0.207888962193034
-0.397013089852379,0.203609796406441
-0.401499027602217,0.19971561629886
-0.407174294832283,0.196144799997005
-0.414041057639828,0.192834118013516
-0.422094425532359,0.189719199460814
-0.431322437751258,0.186735003642468
-0.44170609093254,0.183816293966614
-0.453219408027532,0.180898111115793
-0.465829548156363,0.177916242416721
-0.479496956819065,0.174807684381821
-0.494175555644347,0.171511095441691
-0.509812970616159,0.16796723595378
-0.526350797484575,0.16411939265689
-0.543724902841658,0.159913784843265
-0.561865759126229,0.155299949639278
-0.580698811615228,0.150231103921338
-0.600144875264829,0.144664480544759
-0.62012055908288,0.138561636729024
-0.640538715546728,0.131888732622073
-0.661308912428041,0.124616778257841
-0.682337924249802,0.116721847324059
-0.703530240481114,0.108185256370032
-0.724788587473484,0.0989937083054062
-0.746014461058509,0.0891393992694164
-0.767108666661928,0.0786200881843595
-0.787971863743109,0.0674391285456035
-0.808505111342646,0.0556054622417803
-0.828610411513901,0.0431335754414732
-0.848191247427094,0.0300434168251204
-0.867153112966906,0.0163602786815356
-0.885404030696248,0.00211464162585945
-0.902855055129573,-0.0126580160715613
-0.919420758348425,-0.0279174433293982
-0.935019695099304,-0.0436188738378341
-0.949574844638696,-0.0597133147346398
-0.963014026731447,-0.0761478645305607
-0.975270289365866,-0.0928660582517687
-0.986282265920776,-0.109808237591852
-0.995994499705433,-0.126911943704402
-1.0043577339914,-0.144112330120681
-1.0113291658651,-0.16134259314608
-1.01687266244935,-0.178534416974853
-1.02095893827063,-0.195618430665781
-1.02356569278454,-0.212524674042444
-1.02467770731335,-0.229183069521319
-1.02428690089564,-0.245523896829214
-1.02239234479678,-0.26147826754895
-1.01900023567914,-0.276978596428905
-1.01412382768092,-0.291959066407895
-1.00778332390077,-0.30635608434203
-1.00000572803029,-0.320108724474213
-0.990824657116672,-0.333159156759732
-0.980280116671982,-0.345453057252264
-0.968418239571679,-0.356939997863236
-0.955290990402305,-0.367573812933005
-0.940955837125277,-0.377312940194101
-0.925475392118857,-0.38612073386386
-0.908917024842836,-0.393965747775209
-0.891352448538921,-0.400821986639154
-0.872857283533249,-0.406669123729405
-0.853510599845052,-0.41149268348743
-0.833394441926252,-0.415284187763753
-0.812593338460092,-0.4180412646371
-0.791193800232111,-0.419767718985723
-0.769283809153356,-0.420473564223403
-0.746952301563253,-0.420175014854794
-0.724288648967869,-0.418894439749401
-0.70138213937807,-0.416660276279067
-0.678321462401411,-0.413506905708898
-0.6551942012115,-0.409474490474446
-0.632086334469247,-0.404608774217328
-0.609081751202233,-0.398960845685674
-0.586261781561768,-0.392586867833476
-0.563704746272658,-0.385547773672633
-0.541485527468876,-0.377908930641809
-0.51967516347012,-0.369739775455971
-0.498340469900292,-0.361113421588253
-0.47754368938049,-0.352106241710494
-0.457342171846943,-0.342797427579389
-0.437788087349855,-0.333268530000518
-0.418928172983293,-0.323602981631818
-0.400803515380589,-0.313885605500415
-0.383449369985419,-0.304202112201494
-0.366895018077197,-0.294638588824382
-0.351163662292218,-0.285280982708911
-0.336272361140405,-0.276214583173774
-0.322232002773233,-0.267523504378082
-0.309047318012845,-0.259290172477217
-0.296716932407081,-0.251594820214538
-0.285233456831647,-0.244514992051556
-0.274583615920485,-0.238125062881149
-0.264748413369994,-0.232495773291411
-0.255703332933676,-0.227693784252576
-0.24741857370228,-0.223781253986338
-0.239859318052192,-0.220815439646824
-0.232986030442774,-0.218848326296039
-0.226754785052946,-0.217926285494738
-0.221117620069754,-0.218089765653452
-0.216022916277927,-0.21937301609873
-0.211415797450653,-0.221803846607898
-0.207238549908852,-0.22540342395283
-0.20343105849987,-0.230186106770824
-0.199931256147599,-0.236159319849951
-0.196675584045007,-0.243323468678657
-0.193599459497543,-0.251671894866379
-0.190637748382193,-0.261190872795001
-0.187725239162375,-0.271859647611607
-0.184797115393534,-0.283650514422765
-0.181789423668212,-0.29652893830097
-0.178639533982502,-0.310453714466505
-0.17528658955784,-0.325377167764261
-0.171671943222793,-0.341245390316622
-0.16773957754836,-0.357998516001655
-0.163436506036778,-0.375571030182202
-0.158713152787251,-0.39389211289721
-0.153523708201576,-0.412886013523166
-0.147826458447509,-0.432472454722203
-0.141584086566891,-0.452567063315147
-0.134763943297912,-0.473081825554073
-0.127338285875485,-0.493925564120244
-0.119284483278983,-0.515004434041225
-0.110585186611682,-0.536222434605522
-0.101228463519374,-0.557481934255856
-0.0912078957857537,-0.578684205362903
-0.0805226394776072,-0.599729965721214
-0.0691774472522402,-0.620519923567963
-0.0571826526814087,-0.640955322903631
-0.0445541166887356,-0.660938485891823
-0.0313131364397346,-0.680373349133074
-0.0174863172635542,-0.699165990644753
-0.00310540842193634,-0.717225144435589
0.0117928962278761,-0.734462699638849
0.0271671914047965,-0.750794181261988
0.0429716259219694,-0.766139209722498
0.0591561988556093,-0.780421936468549
0.0756670844722588,-0.793571453128521
0.0924469838371339,-0.805522171794391
0.109435500854326,-0.81621417421937
0.126569540331888,-0.825593527899154
0.143783725522029,-0.833612567207225
0.16101083246003,-0.84023013796696
0.178182238315478,-0.845411804065194
0.195228380877044,-0.849130014942276
0.212079226217615,-0.851364233030929
0.228664741530796,-0.852101020459034
0.244915370092835,-0.851334084578276
0.260762505286271,-0.849064282129866
0.276138960623064,-0.845299582108848
0.290979432725685,-0.840054987638133
