0.172389960697668,1.03659702203894
0.173997973662675,1.02404396427301
0.175531947654869,1.01160130422328
0.176992942981265,0.999268100305823
0.178382006700264,0.987043430500432
0.179700172966355,0.974926391800493
0.180948463364148,0.962916099678704
0.182127887232089,0.95101168756808
0.183239441976216,0.939212306357743
0.184284113374283,0.927517123903015
0.185262875870574,0.915925324549321
0.186176692861706,0.90443610866947
0.187026516973733,0.893048692213856
0.187813290330828,0.88176230627318
0.188537944815816,0.870576196653264
0.189201402322825,0.859489623461588
0.189804575002308,0.848501860705164
0.190348365498692,0.837612195899386
0.190833667180873,0.826819929687511
0.191261364365792,0.816124375470435
0.191632332535325,0.805524859046437
0.191947438546676,0.795020718260585
0.192207540836489,0.784611302663498
0.192413489618885,0.774295973179185
0.192566127077588,0.764074101781663
0.192666287552353,0.753945071180109
0.192714797719853,0.743908274512264
0.192712476769195,0.733963115045856
0.192660136572248,0.724109005887788
0.192558581848922,0.714345369700867
0.192408610327554,0.704671638427842
0.192211012900566,0.695087253022538
0.191966573775517,0.685591663187876
0.191676070621697,0.676184327120574
0.1913402747124,0.666864711262335
0.190959951062993,0.657632290057339
0.190535858564922,0.64848654571584
0.190068750115759,0.639426967983715
0.189559372745417,0.630453053917772
0.189008467738645,0.621564307666671
0.188416770753904,0.612760240257283
0.18778501193874,0.604040369386347
0.187113916041747,0.595404219217267
0.186404202521227,0.586851320181908
0.185656585650631,0.578381208787252
0.184871774620887,0.569993427426784
0.184050473639689,0.561687524196464
0.183193382027856,0.553463052715179
0.182301194312811,0.545319571949532
0.181374600319301,0.537256646042871
0.180414285257398,0.529273844148423
0.179420929807892,0.52137074026644
0.178395210205122,0.51354691308524
0.17733779831733,0.505801945826037
0.176249361724607,0.498135426091478
0.175130563794498,0.490546945717758
0.17398206375532,0.483036100630251
0.172804516767279,0.475602490702545
0.171598573991419,0.468245719618801
0.170364882656485,0.460965394739346
0.169104086123753,0.453761126969426
0.167816823949865,0.446632530631019
0.166503731947752,0.439579223337657
0.165165442245678,0.432600825872152
0.163802583344452,0.425696962067184
0.162415780172884,0.418867258688642
0.161005654141498,0.412111345321692
0.159572823194576,0.405428854259461
0.15811790186057,0.398819420394314
0.156641501300915,0.392282681111623
0.155144229357304,0.385818276185992
0.153626690597455,0.379425847679875
0.152089486359415,0.373105039844509
0.150533214794435,0.366855499023143
0.148958470908457,0.360676873556466
0.14736584660226,0.354568813690218
0.145755930710281,0.348530971484906
0.14412930903816,0.342563000727592
0.142486564399044,0.336664556845694
0.140828276648677,0.330835296822763
0.139155022719306,0.325074879116174
0.137467376652446,0.31938296357671
0.135765909630521,0.313759211369966
0.134051190007422,0.308203284899566
0.132323783338006,0.302714847732114
0.130584252406556,0.297293564523877
0.128833157254249,0.291939100949126
0.127071055205641,0.286651123630124
0.1252985008942,0.281429300068714
0.12351604628692,0.276273298579469
0.121724240708025,0.271182788224369
0.119923630861806,0.266157438748983
0.1181147608546,0.261196920520107
0.116298172215936,0.256300904464836
0.114474403918878,0.251469062011035
0.112643992399579,0.246701065029184
0.110807471576072,0.241996585775555
0.108965372866309,0.237355296836712
0.107118225205488,0.232776871075282
0.105266555062662,0.228260981576993
0.103410886456671,0.223807301598935
0.101551740971405,0.219415504519025
0.0996896377704145,0.215085263786655
0.0978250936108945,0.210816252874489
0.0959586228570528,0.206608145231389
0.0940907374928811,0.202460614236452
0.0922219471343469,0.198373333154126
0.0903527590410208,0.19434597509039
0.0884836781271559,0.190378212949967
0.086615206972234,0.186469719394564
0.0847478458309945,0.182620166802106
0.0828820926429598,0.178829227226939
0.0810184430414725,0.175096572361003
0.0791573903622575,0.171421873495937
0.0772994256515246,0.167804801486098
0.0754450376736217,0.164245026712491
0.0735947129182556,0.160742219047577
0.0717489356072901,0.157296047820941
0.069908187701137,0.153906181785818
0.0680729489047487,0.150572289086444
0.0662436966732275,0.147294037226223
0.0644209062170623,0.144071093036695
0.0626050505070037,0.140903122647281
0.0607966002785899,0.13778979145581
0.058996024036333,0.134730764099779
0.0572037880575784,0.131725704428371
0.055420356396046,0.128774275475182
0.053646190885065,0.125876139431668
0.0518817511405117,0.123030957621282
0.0501274945634607,0.120238390474298
0.0483838763425591,0.117498097503302
0.0466513494561329,0.114809737279339
0.0449303646740358,0.112172967408708
0.0432213705592493,0.109587444510383
0.0415248134692424,0.107052824194061
0.0398411375571007,0.104568761038811
0.0381707847724338,0.102134908572319
0.036514194862068,0.0997509192507247
0.0348718053705342,0.0974164444390231
0.0332440516403591,0.0951311343920331
0.0316313668121665,0.0928946382359168
0.0300341818245977,0.0907066039502386
0.0284529254140596,0.088566678350556
0.0268880241143051,0.08647450707153
0.0253399022558573,0.0844297345505456
0.0238089819652816,0.0824320040118333
0.0222956831643147,0.0804809574510806
0.020800423568857,0.0785762356205243
0.0193236186878357,0.0767174780145163
0.0178656818219453,0.074904322855549
0.0164270240622725,0.0731364070807374
0.0150080542888113,0.0714133663287427
0.0136091791688765,0.0697348349271343
0.0122308031554203,0.0681004458801769
0.0108733284852602,0.0665098308570371
0.00953715517722177,0.0649626201804004
0.00822268103020591,0.0634584428154897
0.00693030162118367,0.0619969263594776
0.00566041030312614,0.0605776970312849
0.00441339820287521,0.0592003796617566
0.0031896542189603,0.0578645976842083
0.00198956501936769,0.0565699731253345
0.000813515039267299,0.0553161265964725
-0.000338113521296944,0.0541026772852123
-0.00146494069974793,0.0529292429473476
-0.00256658877334198,0.0517954398991592
-0.00364268226155578,0.0507008830100224
-0.00469284792848838,0.0496451856953344
-0.00571671478527317,0.0486279599097514
-0.00671391409249446,0.0476488161407308
-0.00768407936260387,0.0467073634023695
-0.00862684636233118,0.0458032092295339
-0.00954185311508494,0.0449359596722719
-0.0104287399033378,0.0441052192905032
-0.0112871492709917,0.0433105911489788
-0.0121167260257182,0.0425516768125047
-0.0129171172412693,0.0418280763414222
-0.0136879722597531,0.041139388287339
-0.0144289426938718,0.0404852096891049
-0.0151396824291151,0.0398651360690244
-0.0158198476259052,0.0392787614293016
-0.01646909672169,0.0387256782487096
-0.0170870904329785,0.0382054774794794
-0.0176734917573146,0.037717748544401
-0.0182279659751848,0.0372620793341314
-0.0187501806518557,0.036838056204703
-0.0192398056391368,0.0364452639752262
-0.0196965130770638,0.03608328592578
-0.020119977395499,0.0357517037954851
-0.0205098753156441,0.0354500977807534
-0.0208658858514608,0.0351780465337068
-0.0211876903109961,0.0349351271607613
-0.0214749722976068,0.0347209152213684
-0.0217274177110801,0.0345349847269091
-0.0219447147486461,0.0343769081397347
-0.0221265539058768,0.0342462563723472
-0.0222726279774701,0.0341425987867149
-0.0223826320579115,0.0340655031937162
-0.0224562635420125,0.0340145358527067
-0.0224932221253196,0.0339892614712023
-0.0224932098043908,0.0339892432046742
-0.0224559308769357,0.0340140426564482
-0.0223810919418142,0.0340632198777033
-0.0222684018988916,0.0341363333675644
-0.0221175719487439,0.0342329400732811
-0.0219283155922118,0.0343525953904887
-0.0217003486297967,0.0344948531635449
-0.0214333891608977,0.0346592656859353
-0.0211271575828832,0.0348453837007435
-0.0207813765899941,0.0350527564011784
-0.0203957711720753,0.0352809314311527
-0.0199700686131303,0.035529454885908
-0.0195039984896958,0.0357978713126789
-0.0189972926690321,0.036085723711391
-0.0184496853071253,0.0363925535353859
-0.0178609128464969,0.0367179006921683
-0.0172307140138185,0.0370613035441674
-0.0165588298173246,0.0374222989095083
-0.0158450035440228,0.0378004220627852
-0.0150889807566952,0.0381952067358318
-0.0142905092906872,0.0386061851184818
-0.013449339250481,0.039032887859313
-0.0125652230060481,0.0394748440663692
-0.0116379151889774,0.0399315813078528
-0.0106671726883751,0.0404026256127824
-0.00965275464653189,0.0408875014716077
-0.00859442245435293,0.0413857318367764
-0.00749193974654737,0.0418968381232456
-0.00634507239657222,0.0424203402089311
-0.00515358851132704,0.0429557564350879
-0.00391725842559469,0.0435026036066152
-0.00263585469622421,0.0440603969922787
-0.00130915209605107,0.0446286503248436
6.30723924491608e-05,0.0452068758011103
0.00148103958377847,0.0457945840818471
0.00294496809630967,0.0463912842916116
0.00445507435945999,0.0469964840184537
0.0060115726211491,0.0476096893134928
0.00761467495554687,0.0482304046903621
0.00926459127111487,0.0488581331245121
0.0109615293189466,0.0494923760523655
0.012705694701411,0.050132633370316
0.0144972908811049,0.0507784034335633
0.0163365191901177,0.0514291830547752
0.0182235788396146,0.0520844675025713
0.020158666929743,0.052743750499816
0.0221419784598667,0.0534065242217173
0.0241737063391335,0.054072279293719
0.0262540413973812,0.0547405047891796
0.0283831723963877,0.0554106882268296
0.0305612860414694,0.056082315567997
0.032788566993435,0.056754871213593
0.0350651978808982,0.0574278380008488
0.0373913593129577,0.0581006971997937
0.0397672298922464,0.0587729285094661
0.0421929862283593,0.0594440100538466
0.0446688029516636,0.0601134183775049
0.0471948527274981,0.0607806284409492
0.0497713062707667,0.0614451136156699
0.0523983323609342,0.0621063456788649
0.0550760978574288,0.0627637948078395
0.057804767715458,0.0634169295740666
0.0605845050022462,0.0640652169369001
0.0634154709136974,0.0647081222369272
0.066297824791493,0.0653451091889516
0.0692317241406293,0.065975639874594
0.0722173246474028,0.0665991747344992
0.0752547801978501,0.0672151725601387
0.0783442428966499,0.0678230904851952
0.0814858630864936,0.0684223839765188
0.084679789367934,0.0690125068246408
0.0879261686197173,0.0695929111338333
0.0912251460196087,0.0701630473117017
0.0945768650657176,0.0707223640582958
0.0979814675983322,0.0712703083547287
0.10143909382227,0.0718063254512858
0.104949882329758,0.0723298588550142
0.108513970123838,0.0728403503167744
0.112131492642327,0.073337239817743
0.115802583782323,0.0738199655553489
0.119527375925272,0.0742879639286289
0.123305999962609,0.0747406695229881
0.127138585321981,0.0751775150943473
0.131025259994056,0.0755979315526621
0.134966150559938,0.0760013479447981
0.138961382219194,0.0763871914367438
0.143011078818496,0.0767548872951444
0.147115362880909,0.0771038588681388
0.151274355635809,0.0774335275654822
0.155488177049467,0.0777433128379356
0.159756945856297,0.078032632155902
0.164080779590786,0.0783009009872921
0.168459794620109,0.078547532774598
0.172894106177459,0.078771938911156
0.177383828396087,0.0789735287165757
0.181929074344071,0.0791517094113172
0.18652995605984,0.0793058860903912
0.191186584588441,0.0794354616961629
0.195899070018593,0.0795398369902346
0.20066752152052,0.0796184105243851
0.205492047384582,0.0796705786105409
0.210372755060737,0.0796957352897559
0.215309751198824,0.0796932723001733
0.220303141689699,0.0796625790439444
0.22535303170724,0.0796030425530787
0.230459525751229,0.0795140474541966
0.235622727691144,0.0793949759321588
0.240842740810859,0.0792452076925431
0.246119667854289,0.0790641199229381
0.251453611071985,0.0788510872530272
0.256844672268713,0.078605481713429
0.262292952852015,0.0783266726932641
0.267798553881804,0.0780140268964161
0.273361576120978,0.0776669082964529
0.278982120087106,0.0772846780901746
0.28466028610519,0.0768666946497538
0.290396174361529,0.0764123134734315
0.296189884958717,0.0759208871347309
0.302041517971787,0.0753917652301542
0.307951173505535,0.0748242943253203
0.313918951753046,0.0742178178995058
0.319944953055448,0.0735716762885462
0.326029277962923,0.0728852066260576
0.332172027297001,0.0721577427829334
0.338373302214169,0.0713886153050725
0.344633204270817,0.0705771513492932
0.350951835489564,0.0697226746173849
0.357329298426978,0.0688245052882508
0.363765696242745,0.0678819599480899
0.370261132770293,0.0668943515185691
0.376815712588933,0.0658609891829298
0.383429541097527,0.0647811783099786
0.390102724589738,0.0636542203759035
0.396835370330892,0.0624794128838581
0.403627586636486,0.0612560492812574
0.410479482952389,0.0599834188747209
0.417391169936778,0.0586608067426031
0.424362759543842,0.0572874936450449
0.431394365109299,0.0558627559314821
0.438486101437786,0.0543858654455381
0.44563808489215,0.0528560894272357
0.452850433484687,0.0512726904124514
0.460123266970398,0.0496349261295387
0.467456706942292,0.0479420493930435
0.474850876928795,0.0461933079944323
0.482305902493325,0.0443879445897496
0.489821911336075,0.0425251965841227
0.497399033398079,0.0406042960130233
0.505037400967603,0.0386244694202
0.512737148788932,0.0365849377321859
0.520498414173614,0.0344849161292862
0.528321337114227,0.0323236139129486
0.53620606040073,0.030100234369414
0.544152729739477,0.0278139746295399
0.552161493874959,0.0254640255246936
0.56023250471435,0.0230495714385962
0.56836591745493,0.0205697901550091
0.576561890714479,0.0180238527011368
0.584820586664692,0.0154109231866269
0.59314217116774,0.0127301586380397
0.60152681391603,0.00998070882865248
0.609974688575275,0.00716171610346816
0.618485972930954,0.00427231519928067
0.62706084903827,0.00131163305965858
0.635699503375699,-0.00172121135530879
0.644402127002232,-0.0048271072646538
0.65316891571842,-0.00800695226772308
0.662000070231336,-0.0112616525510916
0.670895796323555,-0.0145921231013589
0.67985630502629,-0.0179992879240179
0.688881812796785,-0.0214840802685696
0.697972541700113,-0.0250474428600809
0.707128719595489,-0.0286903281373797
0.716350580327254,-0.0324136984980917
0.725638363920657,-0.0362185265507291
0.734992316782584,-0.0401057953740514
0.744412691907392,-0.044076498783924
0.753899749087993,-0.0481316416079101
0.76345375513236,-0.052272239967836
0.773074984085622,-0.0564993215705862
0.782763717457914,-0.0608139260073858
0.792520244458174,-0.0652171050618405
0.802344862234071,-0.0697099230270202
0.81223787611825,-0.0742934570318687
0.822199599881114,-0.0789687973772475
0.832230355990332,-0.0837370478819265
0.842330475877308,-0.0885993262388407
0.85250030021082,-0.093556764381957
0.862740179178084,-0.0986105088640958
0.873050472773461,-0.103761721246073
0.883431551095085,-0.109011578497537
0.893883794649653,-0.114361273409897
0.904407594665663,-0.119812015021738
0.91500335341538,-0.125365029057163
0.925671484545822,-0.131021558377481
0.93641241341907,-0.136782863446708
0.947226577462228,-0.14265022281136
0.958114426527356,-0.148624933595015
0.969076423261725,-0.154708312008165
0.980113043488747,-0.1609016938739
