0.178083125314036,0.130957081372027
0.1727073860051,0.13766890682022
0.167080228055013,0.144241463055918
0.16120513304193,0.150665539942221
0.15508591424363,0.156932009827645
0.14872671485276,0.163031839332747
0.142132005777799,0.168956101104801
0.135306583030016,0.174695985526068
0.128255564697211,0.180242812361246
0.120984387505528,0.185588042329633
0.113498802971118,0.190723288587609
0.105804873143944,0.195640328107045
0.0979089659465111,0.200331112935329
0.0898177501107993,0.204787781322757
0.0815381897171893,0.20900266870313
0.073077538339642,0.212968318513517
0.0644433328019035,0.216677492839254
0.055643386549981,0.220123182870402
0.0466857826466245,0.223298619156045
0.037578866394023,0.226197281642967
0.0283312375913993,0.228812909485477
0.0189517424346507,0.231139510613314
0.00944946506564552,0.233171371044833
-0.000166281220765495,0.234903063932867
-0.00988596310351418,0.236329458330969
-0.0196998366869159,0.237445727667962
-0.0295979572677351,0.238247357919047
-0.0395701894079259,0.238730155462001
-0.0496062173028508,0.238890254607326
-0.0596955554343793,0.238724124791531
-0.0698275594978836,0.238228577423094
-0.0799914375917708,0.237400772370974
-0.0901762616578255,0.236238224085969
-0.100370979160286,0.234738807345541
-0.110564424991237,0.232900762613177
-0.120745333589576,0.230722701003742
-0.130902351260493,0.228203608846699
-0.141024048682116,0.225342851839516
-0.151098933585671,0.222140178784015
-0.161115463595261,0.21859572489888
-0.171062059213085,0.214710014701995
-0.180927116935699,0.210483964456763
-0.190699022486703,0.205918884177039
-0.200366164150995,0.201016479185797
-0.209916946195592,0.195778851223152
-0.219339802361804,0.190208499099859
-0.228623209413399,0.184308318892923
-0.23775570072529,0.178081603680486
-0.246725879897083,0.171532042813652
-0.255522434375798,0.164663720723463
-0.264134149071927,0.157481115261765
-0.27254991995297,0.149989095575233
-0.280758767598487,0.142192919512366
-0.288749850700727,0.134098230563818
-0.29651247949485,0.125711054336937
-0.304036129102745,0.117037794565986
-0.31131045277452,0.108085228660002
-0.31832529501173,0.0988605027908518
-0.325070704556494,0.0893711265245333
-0.331536947230737,0.0796249669993719
-0.337714518609852,0.0696302426552491
-0.34359415651525,0.0593955165185756
-0.349166853310337,0.0489296890482411
-0.354423867984662,0.0382419905483079
-0.359356738011104,0.0273419731537451
-0.363957290961201,0.0162395023960193
-0.368217655863882,0.00494474835587586
-0.372130274293123,-0.00653182358884197
-0.375687911170269,-0.0181794624119906
-0.378883665267042,-0.029987141475694
-0.381710979395492,-0.0419435689453471
-0.3841636502715,-0.0540371985732468
-0.386235838038686,-0.0662562408405613
-0.387922075439961,-0.0785886744469012
-0.389217276624241,-0.0910222581362912
-0.390116745576272,-0.103544542847916
-0.390616184157812,-0.116142884179578
-0.390711699748855,-0.128804455151381
-0.39039981247797,-0.14151625925678
-0.389677462031232,-0.154265143787701
-0.388542014029668,-0.167037813420105
-0.38699126596558,-0.179820844045974
-0.385023452688549,-0.192600696837364
-0.382637251432423,-0.205363732527827
-0.379831786375035,-0.218096225896202
-0.376606632722917,-0.230784380437451
-0.372961820313771,-0.243414343204941
-0.368897836729962,-0.255972219808314
-0.364415629916831,-0.268444089550801
-0.359516610300154,-0.280816020689637
-0.354202652397613,-0.293074085802999
-0.348476095919703,-0.305204377246683
-0.342339746356029,-0.317193022683555
-0.33579687504355,-0.329026200668672
-0.328851218713857,-0.340690156272784
-0.321506978517179,-0.352171216726828
-0.313768818521365,-0.363455807069918
-0.305641863684692,-0.374530465783233
-0.29713169730194,-0.385381860392147
-0.28824435792374,-0.395996803018901
-0.278986335749835,-0.406362265868062
-0.269364568497447,-0.416465396627054
-0.259386436746579,-0.426293533763999
-0.249059758764654,-0.435834221705178
-0.23839278481349,-0.44507522587447
-0.227394190942224,-0.454004547577165
-0.216073072270373,-0.462610438710686
-0.204438935765829,-0.470881416284824
-0.192501692523161,-0.478806276734257
-0.180271649548186,-0.48637411000624
-0.167759501055371,-0.493574313406555
-0.154976319285169,-0.500396605186982
-0.141933544849,-0.506831037857771
-0.128642976610129,-0.512868011208822
-0.115116761109266,-0.518498285023523
-0.101367381544245,-0.523712991469477
-0.0874076463137139,-0.528503647150633
-0.0732506771352561,-0.532862164805619
-0.0589098967489357,-0.536780864637439
-0.0443990162177337,-0.540252485259999
-0.0297320218368736,-0.54327019424731
-0.0149231616645097,-0.545827598271587
1.3068313260629e-05,-0.547918752816847
0.0150619383696318,-0.549538171455033
0.0302084995626911,-0.550680834672111
0.045437598585061,-0.551342198232025
0.0607338929228306,-0.551518201066861
0.0760818663086172,-0.551205272682037
0.091465844453191,-0.550400340065822
0.106870011039727,-0.549100834092997
0.122278423964372,-0.547304695412969
0.137675031806465,-0.545010379813197
0.153043690511439,-0.542216863049305
0.168368180269082,-0.538923645133825
0.18363222256957,-0.535130754076072
0.198819497419385,-0.530838749066223
0.213913660698997,-0.52604872309725
0.228898361643911,-0.52076230501897
0.243757260430501,-0.514981661019045
0.258474045847818,-0.508709495526407
0.273032453036394,-0.501949051533173
0.287416281274906,-0.494704110331762
0.301609411795411,-0.486978990664533
0.315595825607749,-0.478778547283926
0.329359621313621,-0.470108168921697
0.342885032890752,-0.460973775666515
0.356156447427514,-0.451381815749807
0.369158422788334,-0.441339261740422
0.381875705190199,-0.430853606149298
0.394293246670599,-0.419932856446005
0.406396222427243,-0.40858552948968
0.418170048009967,-0.396820645377513
0.429600396345315,-0.38464772071462
0.440673214574364,-0.372076761309771
0.451374740684484,-0.359118254302112
0.461691519915881,-0.345783159724634
0.471610420923896,-0.33208290151084
0.481118651678246,-0.318029357951634
0.490203775080587,-0.30363485161015
0.498853724281995,-0.28891213870283
0.507056817682231,-0.273874397955692
0.514801773592882,-0.258535218945352
0.522077724546805,-0.242908589934954
0.528874231236584,-0.227008885215781
0.535181296065023,-0.210850851965883
0.54098937629109,-0.194449596637659
0.546289396755056,-0.177820570886883
0.55107276216697,-0.160979557056234
0.555331368943036,-0.143942653226907
0.559057616574854,-0.126726257852456
0.562244418516951,-0.109347053989498
0.564885212578482,-0.0918219931404264
0.566973970805455,-0.074168278723788
0.568505208840335,-0.0564033491884174
0.569473994746389,-0.0385448607879172
0.569875957284665,-0.0206106700324887
0.569707293632035,-0.00261881583556173
0.568964776529296,0.0154124986269382
0.567645760848884,0.0334649243264303
0.565748189572355,0.0515199850420326
0.563270599168374,0.0695590962524457
0.560212124362566,0.0875635842400844
0.556572502291213,0.105514705387829
0.552352076031397,0.123393665648495
0.547551797500862,0.141181640166841
0.542173229721489,0.158859793033671
0.536218548440964,0.176409297151372
0.529690543107891,0.19381135419001
0.522592617196262,0.21104721461291
0.514928787875905,0.228098197750501
0.506703685026222,0.244945711901041
0.497922549591198,0.26157127443673
0.488591231274424,0.277956531893617
0.478716185573513,0.294083280023623
0.468304470154073,0.30993348378698
0.457363740564048,0.325489297263303
0.445902245290012,0.340733083459573
0.433928820157672,0.355647433993268
0.421452882079581,0.370215188628967
0.408484422153775,0.384419454646785
0.395033998117751,0.398243626021102
0.381112726162941,0.411671402388169
0.36673227211551,0.424686807781284
0.351904841990065,0.43727420911243
0.336643171923512,0.449418334379412
0.320960517497042,0.461104290577765
0.30487064245488,0.472317581296918
0.288387806829154,0.483044123980369
0.271526754480884,0.493270266829883
0.254302700067785,0.502982805334047
0.236731315450237,0.512168998401806
0.218828715547406,0.52081658408199
0.200611443656174,0.528913794850157
0.182096456246129,0.536449372444514
0.163301107244519,0.54341258223305
0.144243131825654,0.549793227094457
0.124940629719837,0.55558166079587
0.105412048057497,0.560768800850913
0.085676163764749,0.565346140842039
0.0657520655271416,0.569305762191653
0.0456591353389173,0.572640345367041
0.0254170296555932,0.57534318050466
0.00504566016819176,0.577408177439919
-0.0154348257820816,0.578829875129154
-0.0360040651294549,0.579603450451108
-0.056641499329785,0.579724726375806
-0.0773263949072094,0.579190179489396
-0.0980378642807182,0.577996946864107
-0.118754886849729,0.576142832263189
-0.139456330317386,0.573626311671325
-0.160120972229966,0.570446538141718
-0.180727521710451,0.56660334595172
-0.201254641364026,0.562097254059612
-0.221680969333012,0.556929468855833
-0.241985141478451,0.551101886202684
-0.262145813665374,0.544617092757281
-0.282141684128554,0.537478366573272
-0.30195151589538,0.529689676977562
-0.321554159242319,0.521255683719092
-0.340928574161325,0.512181735387433
-0.360053852812419,0.502473867099755
-0.378909241938614,0.492138797455508
-0.397474165219274,0.481183924758903
-0.415728245538001,0.469617322510087
-0.433651327141097,0.457447734166672
-0.451223497662707,0.444684567178082
-0.468425109992776,0.431337886295922
-0.48523680396403,0.417418406164417
-0.501639527834288,0.402937483195695
-0.517614559540535,0.387907106735498
-0.533143527701341,0.372339889525682
-0.548208432344377,0.356249057470613
-0.562791665335993,0.339648438715367
-0.576876030490021,0.322552452044379
-0.590444763333265,0.304976094609961
-0.603481550505348,0.286934929000837
-0.615970548770967,0.268445069661593
-0.627896403622854,0.249523168674687
-0.639244267454151,0.230186400917355
-0.649999817279236,0.210452448606473
-0.660149271982478,0.19033948524516
-0.669679409074771,0.169866158985543
-0.678577580938176,0.149051575422831
-0.686831730539459,0.127915279836475
-0.694430406593786,0.106477238894839
-0.701362778160363,0.0847578218404684
-0.707618648652332,0.0627777811736112
-0.713188469243783,0.040558232852291
-0.718063351657326,0.0181206360277795
-0.722235080316241,-0.00451322766509243
-0.725696123845846,-0.0273212752428339
-0.728439645909361,-0.0502811439128816
-0.730459515364162,-0.0733702129968905
-0.73175031572502,-0.0965656262162331
-0.732307353921583,-0.119844314317744
-0.732126668338047,-0.143183018017334
-0.731205036123692,-0.16655831123863
-0.729539979763681,-0.189946624623442
-0.727129772900257,-0.213324269290452
-0.723973445395218,-0.236667460818196
-0.72007078762534,-0.259952343428058
-0.715422354003175,-0.283155014342701
-0.710029465716446,-0.306251548295095
-0.703894212680058,-0.329218022163026
-0.697019454695561,-0.352030539703759
-0.689408821813699,-0.374665256363335
-0.681066713896517,-0.397098404134774
-0.671998299376327,-0.41930631643935
-0.66220951320966,-0.441265453004955
-0.651707054025185,-0.462952424715483
-0.64049838046541,-0.484344018405098
-0.628591706722828,-0.505417221571216
-0.615995997272037,-0.526149246980012
-0.602720960800194,-0.546517557138274
-0.588777043339027,-0.566499888605486
-0.57417542060248,-0.586074276120081
-0.558927989534906,-0.60521907651391
-0.543047359075594,-0.623912992389079
-0.526546840146235,-0.642135095531512
-0.509440434868788,-0.659864850035708
-0.491742825022042,-0.677082135115438
-0.473469359745997,-0.693767267575317
-0.454636042504005,-0.709901023918479
-0.435259517313447,-0.725464662065856
-0.415357054256508,-0.740439942662892
-0.394946534283415,-0.75480914994987
-0.374046433321311,-0.768555112172371
-0.352675805702666,-0.781661221508845
-0.330854266927967,-0.794111453492617
-0.308601975778089,-0.80589038590616
-0.285939615792571,-0.816983217125919
-0.262888376130677,-0.827375783896459
-0.239469931832895,-0.837054578513244
-0.21570642350114,-0.846006765393897
-0.191620436416686,-0.854220197018354
-0.167234979115448,-0.861683429218919
-0.142573461440909,-0.868385735801844
-0.11765967209557,-0.874317122482675
-0.0925177557124553,-0.879468340118297
-0.06717218946873,-0.883830897219232
-0.0416477592640825,-0.887397071726488
-0.0159695354870378,-0.890159922037951
0.0098371516071027,-0.892113297270033
0.0357467368825205,-0.893251846741054
0.0617334456486881,-0.893571028663602
0.0877713193006396,-0.893067118033889
0.113834241248198,-0.891737213706909
0.139895963108258,-0.889579244647054
0.165930131133861,-0.886591975344616
0.191910312853458,-0.88277501038948
0.217810023893445,-0.878128798194155
0.243602754956751,-0.872654633859141
0.269261998930042,-0.866354661174499
0.294761278091817,-0.8592318737524
0.320074171393532,-0.851290115286276
0.345174341785657,-0.84253407893313
0.370035563560457,-0.832969305816438
0.39463174968318,-0.822602182648003
0.41893697908322,-0.811439938468026
0.442925523876781,-0.799490640503576
0.466571876492568,-0.786763189146559
0.489850776671947,-0.77326731205323
0.512737238315191,-0.759013557368162
0.535206576145315,-0.744013286076594
0.557234432161263,-0.728278663489901
0.578796801852233,-0.711822649869927
0.599870060145054,-0.694658990198821
0.620430987056857,-0.676802203101885
0.640456793025278,-0.658267568931928
0.659925143888903,-0.639071117024437
0.678814185490716,-0.619229612133866
0.697102567877805,-0.598760540062118
0.714769469070752,-0.577682092491298
0.731794618376607,-0.556013151033575
0.748158319219653,-0.533773270511927
0.76384147146463,-0.510982661486348
0.778825593207518,-0.487662172040932
0.793092842009412,-0.463833268848108
0.806626035549597,-0.439518017527053
0.819408671674355,-0.414739062314146
0.831424947818687,-0.389519605064057
0.842659779778603,-0.363883383600903
0.853098819812351,-0.337854649439512
0.862728474049453,-0.311458144897722
0.871535919187173,-0.284719079621197
0.879509118454661,-0.257663106543001
0.886636836825694,-0.230316297300857
0.892908655461723,-0.202705117135546
0.898314985367582,-0.174856399294686
0.902847080243057,-0.146797318966519
0.906497048514226,-0.118555366769138
0.909257864529338,-0.0901583218208887
0.911123378904749,-0.0616342244184321
0.912088328007335,-0.0330113483492468
0.91214834256061,-0.00431817286597008
0.911299955362647,0.024416645649662
0.909540608104803,0.0531643023050992
0.906868657281129,0.0818958725688758
0.903283379179254,0.11058234136721
0.89878497394447,0.139194632376034
0.893374568709651,0.167703637478892
0.887054219784626,0.196080246360863
0.879826913899525,0.224295376208482
0.871696568497637,0.252320001485299
0.862668031074235,0.280125183752731
0.852747077558844,0.307682101505489
0.841940409739392,0.334962079990962
0.83025565172765,0.36193662098171
0.817701345466417,0.388577432470198
0.804286945279817,0.414856458254974
0.790022811469168,0.440745907387334
0.774920202957765,0.466218283447769
0.75899126898904,0.491246413621346
0.742249039883433,0.515803477541508
0.7247074168604,0.539863035871714
0.706381160932906,0.563399058594667
0.687285880882772,0.586385952978992
0.667438020326191,0.608798591193505
0.646854843879735,0.630612337539479
0.625554422438102,0.651803075271583
