-0.355426767081675,-0.059205480647108
-0.360616327724324,-0.0599155117356405
-0.248396379338338,0.0385116956843696
-0.371048226917109,-0.0618961787673226
-0.376277213455,-0.0631704373897288
-0.381505829720862,-0.0646360001970664
-0.38672717185754,-0.0662940806649042
-0.391934260090047,-0.0681456459037419
-0.510188729692434,-0.171343744051862
-0.402277428555583,-0.0724318463193252
-0.407399248757744,-0.0748671534787698
-0.412478313106219,-0.0774972838251591
-0.417507395659873,-0.0803219255926801
-0.328793177496397,0.0107720788975358
-0.427386612703948,-0.0865521798289932
-0.432222224767109,-0.0899558476856067
-0.436978829270061,-0.093550135467561
-0.441649186970474,-0.0973334035206079
-0.351085200821508,-0.007188513422617
-0.450702345542876,-0.105458982926049
-0.455070837641314,-0.109796676606111
-0.459324484868035,-0.114314116379134
-0.354104142171574,-0.0239458209735783
-0.467459275039786,-0.123876072138991
-0.567744659722056,-0.234796005469865
-0.478627480697317,-0.139484198946128
-0.482047782251461,-0.145008480986244
-0.488396058149067,-0.156512640394814
-0.39024512483622,-0.0662486918729659
-0.61265078644673,-0.264958300878951
-0.498952442799793,-0.18120126223662
-0.613597028307747,-0.303348420679088
-0.504817564217316,-0.201009727707451
-0.506353726552656,-0.207825493011607
-0.507672449266633,-0.214736582937993
-0.508769254569087,-0.221736013547769
-0.509639890418165,-0.22881661353061
-0.612389891230555,-0.348615100820174
-0.510686818224379,-0.243191743833509
-0.51078400475293,-0.257801141719549
-0.510468415076957,-0.265173990008627
-0.509906278972557,-0.272581475000633
-0.509095116463141,-0.280015334258099
-0.60525774128352,-0.389262356769594
-0.506717184119928,-0.294928528363589
-0.503320415564303,-0.309845214870771
-0.501236802012393,-0.317283091819197
-0.496295395436606,-0.332073688993306
-0.493437026256641,-0.339408538077319
-0.490320342970789,-0.346691096894419
-0.483314294888771,-0.361063185742818
-0.479426847356173,-0.36813459690588
-0.470890274605374,-0.382002850521385
-0.466244971675546,-0.388781616366109
-0.461351403984664,-0.395444807652611
-0.450830625353669,-0.408388740311232
-0.433265495975732,-0.426716275279751
-0.426950307944347,-0.432500547150508
-0.42041244810008,-0.438108214382548
-0.413656818510176,-0.443530965451433
-0.406688624602926,-0.448760623773454
-0.490264279635466,-0.568871461599958
-0.491376079509975,-0.559547396626905
-0.38456518169873,-0.463211528409855
-0.376804715148867,-0.467590127519163
-0.248986282584465,-0.356067625883251
-0.360744329999275,-0.475645460429445
-0.352458550871152,-0.479308118211735
-0.344012250077609,-0.48271841041072
-0.335413152122456,-0.485869850006041
-0.326669231143996,-0.488756187698693
-0.401721716910653,-0.604345667837906
-0.299651859074302,-0.495765855797468
-0.290413115466952,-0.497534367790587
-0.281072894806057,-0.499010414303717
-0.271640502927694,-0.500189359148739
-0.2621254369563,-0.501066863705224
-0.252537375744505,-0.501638894367038
-0.242886170033803,-0.501901729680428
-0.223434526616222,-0.501486529796598
-0.10633778815825,-0.399339576992431
-0.203852359906172,-0.499797986318049
-0.194038487149129,-0.498470407109822
-0.184223600426327,-0.496818217393007
-0.0760289172203104,-0.394614026366338
-0.16463389828916,-0.492534905468714
-0.154880838612078,-0.489902129221295
-0.14517025255872,-0.486941441880088
-0.135513163116592,-0.483652929034187
-0.197449815585814,-0.587088094966199
-0.0976412301052501,-0.467235343912735
-0.0793143057464204,-0.457089236422632
0.0477816517526986,-0.359618151226067
-0.0615111796020814,-0.445676488648692
-0.0528333892754611,-0.439503085770872
-0.0443192247269064,-0.433023329425997
-0.0359794076446397,-0.426241437471103
-0.0198651673086108,-0.411789978059507
-0.0121116135884364,-0.404130698473336
-0.00457412085565695,-0.396189852826879
0.00273723965242001,-0.387973492561784
0.0232164118171304,-0.361737148684543
0.0295260794304944,-0.352486290241761
0.0355620274699112,-0.342995413791457
0.0413153774463476,-0.333272628141828
0.0387658768013072,-0.344418532632453
0.102016986425851,-0.249879698905618
-0.029124118590043,-0.371858873475492
0.0729836688884627,-0.259466484953115
0.111365614149377,-0.278690305692522
0.0401662281244818,-0.284115725039949
0.0815391545564284,-0.225293841254273
0.0803814283734955,-0.247645893985256
0.087858353986569,-0.178060636003443
0.0880905029020269,-0.129608812866223
0.0799611270477369,-0.0785387347311195
0.0545965877387282,-0.0655294472123691
0.082031151969691,-0.0807320288732885
0.0558573119390212,0.0103523089801484
0.065467687507878,-0.0202978225169091
0.0119186497437271,-0.0148373751646816
0.0578835473833496,0.00557528939113915
0.0450538685709412,0.0264913547246741
0.0527688487494239,0.0278867201194123
-0.0411335881970951,-0.0902430937968197
0.00131604595387103,0.0994297408187094
0.157107436530014,0.167123571821136
0.0434177422240462,0.0456702362086613
-0.028886414527971,0.123043845317642
-0.0469361832172939,0.155102758142307
-0.023181949713636,0.122093584397173
-0.038919845787792,0.141022778449247
0.0696534716486997,0.246562803522702
0.060544349091215,0.292372445753341
-0.0746146798921728,0.162623231308408
-0.0379326581045263,0.146861018106239
-0.0530349650097913,0.16487105143025
-0.0459934480224761,0.136897652417187
-0.0830934759597093,0.166863342755518
-0.0889141465671343,0.208860616355411
-0.107159962736779,0.167426911209107
-0.186413434715213,0.160134505667117
-0.155879950517389,0.215807453396876
-0.166452004295473,0.209011436214838
-0.144509651394998,0.205762363674266
-0.194907721291341,0.231251688159728
-0.184549698057478,0.269334308420788
-0.249575837044064,0.246093406935099
-0.274328310810655,0.2493900612167
-0.343940026481176,0.265081232316874
-0.335493748216221,0.2551892193132
-0.377434446059951,0.233765942545912
-0.457231857750566,0.292987275845437
-0.437976248184837,0.244718928312369
-0.457826359687936,0.197095672926271
-0.581330682170171,0.131874126901009
-0.495741152781181,0.228312238588075
-0.509937363869944,0.223029794621716
-0.524004556489784,0.217279076615899
-0.551690121834376,0.204384968017466
-0.565277769313999,0.197248927202431
-0.578674981547864,0.189659310007937
-0.699589879652846,0.0823992027271581
-0.617573343235975,0.164220965114771
-0.630058835364853,0.154871516461596
-0.642279645637605,0.145098225442061
-0.556280360234942,0.244230769101753
-0.677211582216353,0.113312026610237
-0.78057068541146,0.00567676977469084
-0.698918958240894,0.0901510541635722
-0.709258225863368,0.0780075025967644
-0.738064925240904,0.039448770581255
-0.746889319272028,0.0259235427217307
-0.755305227806716,0.0120817312627267
-0.79087861923927,-0.0614301156808041
-0.90120824334131,-0.220022519764866
-0.707999116312305,-0.0158279632478091
-0.81799951824588,-0.157273613904841
-0.825187206151366,-0.292536247455282
-0.823651545256514,-0.309669886937389
-0.818930797202536,-0.343896618162643
-0.81574421475136,-0.360954318048333
-0.79157089255295,-0.444974148843377
-0.762480356082406,-0.509599980108712
-0.7538855572848,-0.525249601973477
-0.744772813840944,-0.540661715069613
-0.714394371855755,-0.585302498765115
-0.703280122046516,-0.599595010562052
-0.679620837499312,-0.627200074105924
-0.65411816524722,-0.653392597762017
-0.640701670769228,-0.66592049481736
-0.597929263090808,-0.701052694743631
-0.582871979751415,-0.71189882614103
-0.567436574503131,-0.722289868194704
-0.43208449020587,-0.787556752074442
-0.413916808220026,-0.793316567784462
-0.358153705677159,-0.807171347093147
-0.281539839691537,-0.817381494871589
-0.223041063388412,-0.818642713200371
-0.183838935128074,-0.816379335629974
-0.164236437311822,-0.814309389987053
-0.144659659977168,-0.811612307843339
-0.00881082330543413,-0.697540301554819
-0.0100349189721441,-0.775219071686178
0.0809281406684939,-0.730826775697878
0.0983433380164017,-0.720174946550791
0.115454308800182,-0.708949165553948
0.132242139597914,-0.697158058329993
0.0411112181287318,-0.778280013673149
0.291080076762215,-0.544913627140061
0.265806691862662,-0.567324117553095
0.290454969284225,-0.533219493727112
0.323451910575234,-0.478986660884502
0.342639361803394,-0.440973186797682
0.351351809051447,-0.421461214070119
0.366956027427242,-0.38151817793542
0.373826256873078,-0.361124869815207
0.385653531512871,-0.31959185564474
0.390592632550049,-0.298492062360759
0.394871122447733,-0.277197219975852
0.298535873370833,-0.361110952347714
0.405240975691501,-0.190485853166501
0.406301457886207,-0.146510725573133
0.277373229723132,-0.0873733119841736
0.382490252677939,0.0294005844608647
0.36199161679732,0.0937654879331697
0.277543338646157,0.254903610613233
0.26407469455426,0.273580530590644
0.220026526863661,0.327156456402409
0.170779273664196,0.376636275236616
0.0976979200088883,0.435368631775437
-0.0256475432817981,0.505772016052562
-0.0475672324696354,0.515250150583438
-0.0698224911082765,0.524048693846247
-0.404162409012901,0.570543423034847
-0.453257526690566,0.564931835254854
