0.200213169248956,-1.01124016741309
0.200287329754508,-1.01120593719785
0.200362916578085,-1.01117095198516
0.200439963824129,-1.01113519122027
0.200518506569493,-1.01109863368399
0.200598580895546,-1.01106125746783
0.200680223921488,-1.01102303994811
0.200763473838901,-1.010983957759
0.200848369947614,-1.01094398676437
0.200934952692925,-1.01090310202843
0.201023263704233,-1.01086127778513
0.201113345835147,-1.0108184874062
0.201205243205133,-1.01077470336784
0.201299001242762,-1.01072989721589
0.201394666730632,-1.01068403952952
0.20149228785203,-1.01063709988332
0.201591914239409,-1.01058904680761
0.201693597024773,-1.01053984774711
0.201797388892026,-1.0104894690177
0.201903344131395,-1.01043787576114
0.202011518696008,-1.01038503189791
0.202121970260721,-1.01033090007777
0.202234758283289,-1.01027544162807
0.202349944068,-1.01021861649976
0.202467590831861,-1.01016038321082
0.202587763773469,-1.01010069878709
0.202710530144667,-1.01003951870034
0.202835959325135,-1.00997679680342
0.202964122900022,-1.00991248526239
0.203095094740774,-1.00984653448532
0.203228951089299,-1.00977889304787
0.20336577064562,-1.00970950761511
0.203505634659171,-1.00963832285972
0.203648627023914,-1.00956528137617
0.203794834377444,-1.00949032359067
0.203944346204264,-1.00941338766686
0.204097254943443,-1.00933440940666
0.204253656100827,-1.00925332214639
0.204413648366055,-1.00917005664762
0.20457733373457,-1.00908454098263
0.204744817634886,-1.00899670041401
0.204916209061344,-1.00890645726833
0.205091620712621,-1.00881373080323
0.205271169136272,-1.00871843706783
0.205454974879579,-1.00862048875592
0.205643162647022,-1.00851979505159
0.205835861464681,-1.00841626146685
0.20603320485191,-1.00830978967072
0.206235331000624,-1.00820027730941
0.206442382962577,-1.00808761781699
0.206654508845019,-1.00797170021597
0.206871862015125,-1.0078524089073
0.207094601313653,-1.00772962344905
0.20732289127825,-1.00760321832317
0.207556902376903,-1.00747306268956
0.207796811252033,-1.00733902012676
0.208042800975737,-1.00720094835835
0.208295061316756,-1.00705869896431
0.208553789019734,-1.00691211707629
0.208819188097379,-1.00676104105592
0.209091470136176,-1.00660530215503
0.209370854616323,-1.00644472415667
0.209657569246593,-1.00627912299578
0.209951850314891,-1.00610830635812
0.210253943055257,-1.00593207325626
0.210564102032181,-1.00575021358094
0.210882591543061,-1.0055625076265
0.211209686039737,-1.0053687255884
0.211545670570063,-1.00516862703135
0.211890841240501,-1.00496196032587
0.212245505700821,-1.00474846205143
0.212609983651997,-1.00452785636374
0.212984607378483,-1.00429985432413
0.213369722306065,-1.00406415318816
0.213765687586609,-1.00382043565105
0.21417287671101,-1.00356836904683
0.214591678151781,-1.0033076044981
0.215022496036743,-1.00303777601321
0.215465750855358,-1.00275849952705
0.215921880199331,-1.00246937188175
0.216391339539154,-1.0021699697431
0.216874603038368,-1.00185984844818
0.217372164407365,-1.00153854077945
0.217884537798651,-1.00120555566022
0.218412258745565,-1.00086037676579
0.218955885146513,-1.00050246104445
0.219515998296864,-1.00013123714188
0.22009320397074,-0.999746103721962
0.220688133554981,-0.999346427676723
0.221301445237662,-0.998931542217212
0.221933825253587,-0.998500744836804
0.222585989189267,-0.998053295137574
0.223258683349914,-0.997588412509692
0.223952686191065,-0.997105273653038
0.224668809817439,-0.996603009929352
0.225407901551692,-0.99608070453231
0.226170845575709,-0.995537389461953
0.226958564647051,-0.994972042288769
0.227772021893163,-0.994383582691613
0.228612222685814,-0.99377086875233
0.229480216598199,-0.993132692988632
0.230377099446922,-0.99246777810526
0.231304015420899,-0.991774772441884
0.232262159298959,-0.991052245094457
0.233252778757585,-0.990298680684857
0.234277176769799,-0.98951247375166
0.235336714095741,-0.988691922732648
0.236432811864808,-0.98783522350736
0.237566954248513,-0.9869404624654
0.238740691222315,-0.986005609063485
0.239955641413603,-0.985028507831263
0.241213495031727,-0.984006869782734
0.242516016874504,-0.982938263186697
0.243865049403817,-0.981820103645934
0.245262515880861,-0.980649643430936
0.246710423549172,-0.979423960009711
0.24821086685068,-0.978139943710724
0.249766030656754,-0.976794284451179
0.251378193492317,-0.975383457457739
0.253049730726613,-0.973903707901348
0.25478311769902,-0.972351034362053
0.256580932742254,-0.970721171033709
0.258445860058339,-0.969009568572072
0.260380692394667,-0.967211373483231
0.262388333458165,-0.965321405942465
0.26447179999491,-0.963334135926649
0.266634223450178,-0.961243657536185
0.268878851109803,-0.95904366137538
0.271209046607442,-0.956727404853144
0.27362828966373,-0.954287680259186
0.276140174901999,-0.951716780464656
0.278748409560824,-0.949006462090624
0.281456809895832,-0.946147905983384
0.284269296031472,-0.943131674832501
0.287189884987247,-0.939947667766486
0.290222681561909,-0.936585071762411
0.293371866712429,-0.933032309710521
0.296641683011864,-0.92927698498375
0.3000364167106,-0.925305822376217
0.303560375858347,-0.921104605295374
0.307217863868793,-0.916658109121282
0.311013147824389,-0.911950030685181
0.314950420724465,-0.906962913870468
0.31903375677519,-0.901678071404931
0.323267058704098,-0.896075502996859
0.327653995954698,-0.89013381007298
0.33219793247769,-0.88383010750752
0.336901842684851,-0.87713993289393
0.341768213970228,-0.870037154109793
0.346798934032237,-0.862493876167783
0.351995161051665,-0.854480348638757
0.357357174597898,-0.845964875285699
0.362884204953469,-0.836913727968741
0.368574238372169,-0.827291067382128
0.374423795627387,-0.817058873775136
0.380427681077141,-0.80617689150204
0.386578699386193,-0.794602592053378
0.392867337023746,-0.782291161153323
0.399281405723097,-0.769195516576236
0.405805645278948,-0.755266364547294
0.412421283407922,-0.740452303951234
0.419105550955296,-0.724699989077452
0.425831151552414,-0.707954363267674
0.432565685980185,-0.690158977580524
0.439271033049963,-0.671256410405164
0.445902690857671,-0.651188805781221
0.452409084891189,-0.629898549923766
0.458730852768404,-0.607329106984171
0.464800119444943,-0.583426036231385
0.470539781635755,-0.558138213394171
0.475862825998266,-0.531419278586308
0.480671712340518,-0.503229331704441
0.48485786069585,-0.473536893039334
0.488301289405968,-0.442321141614064
0.49087046011357,-0.40957443595108
0.492422394362353,-0.375305111049758
0.492803134719263,-0.339540530828863
0.491848630126607,-0.302330356745286
0.489386129465683,-0.263749970510237
0.485236167723993,-0.223903961844516
0.479215224140736,-0.182929561525557
0.471139119555699,-0.140999866629597
0.460827199198672,-0.0983266706227554
0.448107315833265,-0.0551626783917223
0.432821585507453,-0.0118028588915903
0.414832834005163,0.0314153298887876
0.394031587511864,0.0741131125838624
0.370343388678605,0.115873217856403
0.343736143751865,0.15624456268348
0.314227134261657,0.194748944965292
0.281889266227302,0.230889793134299
0.246856090433031,0.264162897326602
0.209325118704981,0.294068900805427
0.169558991732583,0.320127172542732
0.127884129417827,0.341890526023208
0.0846866161324105,0.358960112279257
0.0404052360042019,0.370999714900525
-0.00447823346156188,0.377748627961793
-0.0494511542264323,0.379032317017873
-0.0939840721776524,0.374770154318132
-0.137545988479464,0.364979679409287
-0.179620053820882,0.349777053393522
-0.219718828635061,0.329373629217228
-0.257398273720752,0.304068825783353
-0.292269729962565,0.27423974271142
-0.32400930241449,0.240328159593473
-0.352364264707539,0.202825708779829
-0.377156321746422,0.162258082671059
-0.398281788050339,0.119169133317783
-0.415708934308646,0.074105650961048
-0.429472909303496,0.0276034831865914
-0.439668748540983,-0.019824503891087
-0.446443032010694,-0.067698296818014
-0.449984754997074,-0.115578285901403
-0.450515936020511,-0.163070499468167
-0.448282415778186,-0.209829652683283
-0.443545212230074,-0.255560237648066
-0.436572700859809,-0.300015943056278
-0.427633794942009,-0.342997721985037
-0.416992215280663,-0.384350830231552
-0.404901866743463,-0.423961140952122
-0.39160328210381,-0.46175101043626
-0.377321052444518,-0.497674930427121
-0.362262136547916,-0.531715159368281
-0.346614927319284,-0.563877482122579
-0.330548948975708,-0.594187207772422
-0.314215062020901,-0.622685479770044
-0.297746061622958,-0.649425942821727
-0.281257566927069,-0.674471786680493
-0.26484911244978,-0.69789316825208
-0.248605366775189,-0.719764999565697
-0.232597417416271,-0.740165079546749
-0.216884073327824,-0.759172541422593
-0.201513147816992,-0.776866584279935
-0.186522694336047,-0.793325456119492
-0.171942175838845,-0.80862565615002
-0.157793555107898,-0.822841325552373
-0.144092298840791,-0.836043798139594
-0.130848292480138,-0.848301284940405
-0.11806666594871,-0.859678669514143
-0.105748532776069,-0.870237393600809
-0.0938916467296676,-0.880035415406775
-0.0824909811304432,-0.889127225351117
-0.0715392366613186,-0.897563906406264
-0.0610272837693702,-0.905393228239159
-0.0509445458039394,-0.912659766191046
-0.0412793288932549,-0.919405037732092
-0.032019104296742,-0.925667650405188
-0.0231507486228247,-0.931483456449545
-0.0146607469062516,-0.936885710289305
-0.00653536312019017,-0.941905225905887
0.00123921772483899,-0.946570531805483
0.00867677215737567,-0.950908021863868
0.0157909421551925,-0.954942100797096
0.0225951574199565,-0.958695323384356
0.0291025733920909,-0.962188526872273
0.0353260226976151,-0.965440956230459
0.0412779780055857,-0.968470382116763
0.0469705245330618,-0.971293211556492
0.0524153406655523,-0.973924591450663
0.057623685366344,-0.976378505110616
0.062606391229885,-0.978667862075527
0.0673738621944922,-0.980804581510183
0.0719360750701187,-0.982799669506491
0.0763025841596841,-0.984663290626879
0.0804825283594485,-0.986404834033387
0.0844846402168244,-0.988032974545162
0.0883172565045014,-0.989555728960738
0.0919883299392852,-0.990980507971441
0.0955054417339517,-0.992314163979534
0.0988758147219059,-0.993563035120132
0.102106326838576,-0.994732985770291
0.105203524781229,-0.995829443812372
0.108173637701102,-0.996857434902371
0.111022590809142,-0.997821613977582
0.113756018799933,-0.998726294222011
0.116379279018018,-0.999575473692561
0.118897464307493,-1.00037285979421
0.121315415499639,-1.00112189177842
0.123637733505107,-1.00182576142561
0.125868790986876,-1.00248743206027
0.128012743598318,-1.00310965603536
0.13007354077739,-1.0036949908118
0.132054936093425,-1.00424581374898
0.133960497147477,-1.00476433571224
0.135793615030765,-1.0052526135952
0.137557513348597,-1.00571256184632
0.139255256819455,-1.00614596308178
0.140889759460607,-1.00655447786006
0.142463792372931,-1.00693965368712
0.143979991138595,-1.00730293331539
0.145440862845835,-1.00764566239459
0.146848792755514,-1.00796909652723
0.1482060506243,-1.00827440777756
0.14951479669935,-1.00856269067839
0.150777087399257,-1.00883496777652
0.151994880695836,-1.00909219475417
0.153170041210987,-1.00933526516058
0.154304345042543,-1.00956501478518
0.15539948433257,-1.00978222570089
0.156457071591159,-1.0099876300041
0.157478643788267,-1.01018191327528
0.158465666225659,-1.01036571778235
0.159419536200532,-1.01053964544726
0.160341586471872,-1.01070426059413
0.161233088540116,-1.01086009249632
0.162095255750175,-1.01100763773779
0.162929246227422,-1.01114736240345
0.163736165655737,-1.01127970411148
0.164517069906275,-1.01140507389984
0.165272967525164,-1.01152385797817
0.166004822087911,-1.01163641935527
0.166713554427883,-1.01174309935162
0.167400044745857,-1.01184421900559
0.168065134607207,-1.01194008038139
0.168709628832997,-1.01203096778597
0.169334297290855,-1.01211714890182
0.169939876591207,-1.01219887584175
0.170527071694126,-1.01227638613143
0.17109655743176,-1.01234990362506
0.171648979951027,-1.01241963935896
0.172184958080992,-1.0124857923476
0.172705084629109,-1.01254855032634
0.17320992761024,-1.01260809044445
0.173700031412185,-1.01266457991236
0.174175917901205,-1.01271817660594
0.174638087470846,-1.01276902963128
0.175087020037166,-1.01281727985243
0.175523175983313,-1.01286306038493
0.175946997056203,-1.01290649705732
0.176358907217918,-1.01294770884301
0.176759313454281,-1.01298680826453
0.17714860654292,-1.01302390177191
0.177527161783021,-1.01305909009722
0.177895339688818,-1.01309246858666
0.178253486648779,-1.01312412751183
0.178601935552311,-1.01315415236156
0.17894100638573,-1.01318262411569
0.179271006799109,-1.01320961950179
0.179592232645569,-1.01323521123618
0.179904968494445,-1.01325946825021
0.180209488119722,-1.0132824559027
0.180506054965013,-1.01330423617951
0.180794922586329,-1.01332486788114
0.181076335073772,-1.01334440679899
0.181350527453259,-1.01336290588113
0.181617726069301,-1.0133804153882
0.181878148949812,-1.01339698304011
0.182132006153871,-1.01341265415408
0.182379500103298,-1.01342747177457
0.182620825898877,-1.01344147679569
0.182856171622,-1.01345470807643
0.183085718622462,-1.0134672025493
0.183309641793104,-1.01347899532268
0.18352810983197,-1.01349011977729
0.183741285492588,-1.01350060765723
0.183949325822969,-1.01351048915578
0.184152382393886,-1.0135197929964
0.18435060151695,-1.01352854650916
0.184544124452997,-1.01353677570291
0.184733087611238,-1.01354450533335
0.184917622739648,-1.01355175896749
0.185097857106992,-1.01355855904434
0.185273913676909,-1.01356492693242
0.185445911274422,-1.01357088298407
0.18561396474525,-1.01357644658677
0.185778185108253,-1.01358163621173
0.185938679701333,-1.01358646945979
0.186095552321122,-1.01359096310492
0.186248903356716,-1.01359513313531
0.186398829917759,-1.01359899479236
0.186545425957134,-1.0136025626075
0.186688782388502,-1.01360585043714
0.186828987198942,-1.01360887149572
0.186966125556904,-1.01361163838705
0.187100279915698,-1.01361416313406
0.187231530112717,-1.01361645720689
0.1873599534646,-1.0136185315496
0.187485624858498,-1.01362039660553
0.187608616839636,-1.01362206234126
0.187728999695335,-1.0136235382694
0.187846841535641,-1.01362483347024
0.187962208370725,-1.01362595661224
0.188075164185194,-1.01362691597153
0.188185771009438,-1.01362771945039
0.188294088988162,-1.01362837459482
0.188400176446211,-1.01362888861125
0.188504089951814,-1.01362926838235
0.188605884377355,-1.01362952048215
0.188705612957783,-1.01362965119032
0.188803327346751,-1.01362966650581
0.1888990776706,-1.01362957215979
0.188992912580263,-1.01362937362793
0.189084879301183,-1.01362907614215
0.189175023681334,-1.01362868470176
0.18926339023742,-1.01362820408401
0.189350022199324,-1.01362763885425
0.189434961552898,-1.01362699337548
0.189518249081135,-1.01362627181751
0.189599924403819,-1.01362547816567
