-0.342191283837734,-0.744111491682831
-0.342139015715251,-0.744069502169827
-0.342085761520879,-0.744026628099129
-0.342031498173691,-0.743982846327402
-0.341976201950229,-0.743938132988999
-0.341919848463858,-0.743892463469804
-0.341862412643383,-0.743845812380006
-0.341803868710878,-0.74379815352574
-0.341744190158712,-0.743749459879555
-0.341683349725739,-0.74369970354965
-0.341621319372598,-0.743648855747818
-0.341558070256117,-0.743596886756035
-0.341493572702764,-0.743543765891646
-0.341427796181108,-0.743489461471057
-0.341360709273258,-0.743433940771883
-0.34129227964523,-0.74337716999347
-0.341222474016203,-0.743319114215708
-0.341151258126617,-0.743259737356064
-0.341078596705059,-0.743199002124736
-0.341004453433896,-0.743136869977851
-0.340928790913597,-0.743073301068593
-0.340851570625693,-0.743008254196179
-0.340772752894307,-0.74294168675256
-0.340692296846215,-0.742873554666748
-0.340610160369351,-0.742803812346633
-0.340526300069712,-0.742732412618188
-0.340440671226577,-0.742659306661906
-0.340353227745983,-0.742584443946347
-0.340263922112376,-0.742507772158637
-0.340172705338357,-0.742429237131771
-0.340079526912449,-0.742348782768547
-0.339984334744792,-0.742266350961966
-0.339887075110683,-0.742181881511911
-0.339787692591861,-0.742095312037905
-0.339686130015451,-0.742006577887755
-0.339582328390446,-0.741915612041854
-0.339476226841643,-0.741822345012916
-0.339367762540906,-0.741726704740902
-0.339256870635638,-0.741628616482875
-0.339143484174361,-0.741528002697519
-0.339027534029244,-0.741424782924023
-0.338908948815475,-0.741318873655039
-0.338787654807323,-0.741210188203373
-0.338663575850743,-0.741098636562078
-0.338536633272385,-0.740984125257584
-0.338406745784826,-0.740866557195467
-0.338273829387885,-0.74074583149847
-0.338137797265819,-0.740621843336313
-0.337998559680247,-0.740494483746857
-0.337856023858586,-0.740363639448113
-0.337710093877819,-0.740229192640584
-0.337560670543373,-0.740091020799392
-0.33740765126291,-0.739948996455589
-0.337250929914785,-0.739802986966038
-0.337090396710943,-0.739652854271201
-0.336925938054015,-0.739498454640117
-0.336757436388348,-0.739339638401828
-0.336584770044704,-0.739176249662454
-0.336407813078348,-0.739008126007056
-0.336226435100243,-0.738835098185393
-0.336040501101031,-0.738656989780594
-0.335849871267507,-0.738473616859724
-0.335654400791243,-0.738284787605151
-0.335453939669025,-0.738090301925534
-0.335248332494757,-0.737889951045187
-0.335037418242457,-0.737683517070499
-0.334821030039962,-0.737470772531977
-0.334598994932967,-0.737251479900401
-0.334371133638962,-0.737025391075479
-0.334137260290676,-0.736792246845259
-0.333897182168568,-0.73655177631447
-0.333650699421935,-0.736303696299797
-0.333397604778177,-0.736047710689999
-0.333137683239725,-0.735783509768603
-0.332870711768189,-0.735510769496761
-0.332596458955188,-0.73522915075369
-0.332314684679392,-0.73493829853193
-0.332025139749251,-0.734637841084462
-0.331727565530902,-0.734327389020506
-0.331421693560725,-0.734006534346626
-0.331107245142041,-0.73367484944948
-0.330783930925424,-0.733331886016331
-0.330451450472116,-0.732977173889133
-0.330109491800059,-0.732610219847709
-0.329757730912029,-0.732230506317216
-0.329395831305445,-0.731837489994731
-0.329023443463388,-0.731430600389424
-0.328640204326451,-0.731009238270378
-0.328245736745062,-0.730572774015665
-0.327839648911988,-0.73012054585583
-0.3274215337748,-0.72965185800442
-0.326990968428156,-0.729165978667641
-0.326547513485866,-0.72866213792465
-0.326090712432832,-0.728139525469346
-0.325620090957076,-0.727597288203827
-0.325135156262258,-0.727034527672972
-0.324635396361282,-0.726450297328774
-0.324120279351793,-0.725843599612236
-0.323589252674685,-0.725213382839683
-0.323041742356984,-0.724558537879373
-0.322477152240899,-0.723877894603227
-0.321894863201204,-0.723170218097323
-0.321294232353604,-0.722434204613601
-0.320674592257318,-0.721668477243868
-0.3200352501157,-0.720871581295792
-0.319375486979506,-0.720041979349032
-0.318694556958209,-0.719178045968003
-0.317991686445746,-0.718278062046053
-0.317266073368198,-0.717340208753905
-0.316516886462121,-0.716362561063242
-0.315743264593734,-0.715343080814152
-0.31494431613078,-0.714279609292872
-0.314119118380782,-0.71316985928383
-0.313266717111516,-0.712011406557422
-0.31238612617203,-0.710801680752202
-0.311476327235236,-0.709537955607318
-0.31053626968634,-0.708217338497951
-0.309564870684946,-0.706836759223376
-0.308561015432746,-0.705392957993918
-0.307523557683413,-0.703882472559657
-0.306451320536565,-0.702301624420188
-0.305343097563684,-0.70064650405112
-0.304197654320686,-0.698912955079339
-0.303013730309585,-0.697096557335413
-0.301790041460406,-0.695192608707909
-0.300525283214468,-0.693196105720953
-0.299218134301333,-0.691101722753163
-0.297867261314435,-0.688903789813203
-0.296471324204711,-0.686596268784895
-0.295028982827732,-0.684172728053147
-0.293538904698048,-0.681626315421221
-0.291999774124992,-0.678949729230329
-0.29041030292723,-0.676135187594508
-0.288769242949251,-0.673174395667628
-0.287075400631974,-0.670058510865734
-0.285327653922092,-0.666778105977187
-0.283524971840949,-0.663323130106148
-0.281666437074005,-0.659682867412452
-0.279751271986591,-0.655845893634021
-0.277778868521056,-0.651800030407736
-0.275748822484744,-0.647532297442595
-0.273660972797851,-0.643028862646547
-0.271515446335156,-0.63827499036773
-0.269312709065943,-0.633254987983962
-0.267053624272019,-0.627952151164033
-0.264739518704153,-0.622348708233528
-0.262372257621835,-0.616425764210114
-0.25995432974892,-0.610163245232292
-0.257488943266738,-0.603539844296212
-0.254980134054386,-0.596532969442059
-0.25243288746989,-0.589118695800567
-0.249853275041461,-0.58127172322735
-0.247248607499432,-0.572965341624595
-0.244627605619355,-0.56417140648319
-0.242000590355638,-0.554860327680589
-0.239379693711146,-0.54500107514766
-0.236779091696507,-0.53456120567766
-0.234215260565058,-0.52350691589759
-0.231707257243223,-0.51180312725955
-0.229277024484639,-0.499413609837232
-0.226949720727854,-0.486301152725759
-0.22475407389468,-0.472427789930383
-0.222722757386812,-0.45775509177101
-0.220892785274473,-0.442244532993265
-0.219305922070702,-0.425857949915664
-0.218009100494034,-0.408558099990041
-0.217054838186524,-0.3903093380183
-0.216501641423552,-0.371078423834054
-0.21641438038791,-0.350835476369974
-0.216864616563472,-0.329555088500501
-0.217930858244785,-0.307217615643372
-0.219698715114415,-0.283810648549432
-0.222260917429573,-0.259330676697313
-0.225717159786741,-0.23378494289813
-0.230173724007817,-0.207193481754258
-0.235742830853717,-0.179591324171958
-0.242541666611643,-0.151030836925599
-0.250691028874374,-0.121584150153603
-0.260313536951476,-0.0913456066661886
-0.271531357383033,-0.0604341453754605
-0.28446340511676,-0.0289955077123826
-0.299221997208449,0.00279586825342631
-0.315908959422849,0.0347354243856102
-0.334611217526062,0.0665877078541628
-0.355395944482142,0.0980864367808088
-0.378305381470897,0.128935601191194
-0.403351502802972,0.158811784383272
-0.430510749274234,0.187367862862924
-0.459719106705822,0.21423819614953
-0.490867850458315,0.239045349508866
-0.523800305704916,0.26140830358164
-0.558309979988023,0.280951998198122
-0.594140402482402,0.297317939776865
-0.630986948675026,0.310175482116601
-0.668500838139913,0.319233281250273
-0.706295369183065,0.324250339978246
-0.743954304605909,0.325046010158085
-0.781042159679871,0.321508321916621
-0.81711598245619,0.313600065330575
-0.851738075593727,0.301362162248972
-0.884489005368082,0.284914027108996
-0.914980191640339,0.264450812191257
-0.942865380868706,0.240237645656784
-0.967850373961166,0.212601177860577
-0.989700505298265,0.181918931059397
-1.00824553506494,0.148607081425898
-1.02338180570665,0.113107378061072
-1.03507170442762,0.075873916910693
-1.04334064775289,0.0373604413966876
-1.04827194552391,-0.00199125387406282
-1.05,-0.0417613701821406
-1.0487023468968,-0.0815603047354147
-1.04459105096035,-0.121034856037585
-1.03790393549217,-0.159872425139398
-1.02889606258509,-0.197803319428849
-1.01783179946332,-0.234601353745003
-1.00497771672697,-0.270083001897818
-0.99059647552521,-0.304105381617896
-0.974941779641032,-0.3365633613862
-0.958254399718251,-0.367386063695391
-0.94075922271258,-0.396533011704367
-0.92266324054022,-0.423990130336526
-0.904154366865804,-0.44976577328173
-0.885400958148281,-0.473886907761908
-0.866551912118013,-0.496395551949454
-0.847737221352311,-0.517345527263285
-0.829068869253657,-0.536799560273007
-0.810641968515976,-0.554826746847008
-0.792536056461579,-0.571500374264662
-0.774816476202075,-0.586896084767114
-0.757535786536664,-0.60109035578234
-0.740735156276268,-0.614159267111999
-0.724445709948453,-0.62617752301105
-0.708689801463477,-0.637217696688735
-0.693482200311209,-0.647349665759273
-0.678831181308273,-0.656640209114018
-0.664739513975733,-0.665152738207984
-0.651205351478053,-0.672947138570824
-0.638223021878985,-0.680079700257368
-0.625783726448534,-0.686603118798448
-0.61387615105155,-0.692566550900996
-0.602486997408439,-0.698015711617331
-0.591601441367112,-0.70299300192606
-0.581203525367263,-0.707537657630558
-0.571276492099399,-0.711685912189757
-0.561803066030285,-0.715471167563202
-0.552765689037886,-0.718924168397447
-0.544146715913824,-0.72207317592575
-0.535928574981128,-0.724944138820919
-0.528093898562338,-0.72756085895471
-0.520625627533948,-0.729945150597872
-0.5135070937286,-0.732116992062591
-0.506722083503153,-0.7340946691614
-0.500254885382545,-0.735894910149435
-0.494090324317864,-0.737533012043758
-0.488213784762068,-0.739022958386355
-0.482611224467331,-0.740377528646167
-0.477269180642051,-0.741608399548821
-0.472174769870892,-0.742726238687577
-0.46731568299521,-0.743740790811367
-0.462680175971248,-0.744660957210508
-0.458257057566983,-0.745494868631762
-0.454035674622831,-0.746249952155122
-0.450005895484438,-0.74693299245761
-0.446158092115005,-0.747550187876678
-0.442483121308348,-0.748107201669079
-0.438972305350044,-0.748609208841729
-0.435617412411223,-0.749060938910071
-0.432410636906148,-0.749466714917666
-0.429344579999573,-0.749830489028663
-0.426412230411731,-0.750155874983002
-0.423606945636778,-0.750446177682961
-0.420922433663654,-0.750704420159214
-0.418352735265967,-0.75093336814504
-0.415892206908877,-0.751135552468961
-0.413535504305647,-0.751313289458687
-0.411277566643854,-0.75146869953312
-0.409113601491031,-0.751603724144091
-0.407039070381124,-0.751720141215535
-0.405049675076515,-0.751819579214934
-0.40314134449504,-0.751903529979975
-0.401310222287358,-0.751973360412442
-0.399552655046804,-0.752030323141365
-0.397865181131576,-0.752075566248267
-0.396244520077386,-0.752110142138982
-0.394687562577578,-0.752135015638854
-0.393191361007047,-0.752151071381154
-0.391753120465965,-0.752159120552198
-0.390370190319287,-0.752159907050856
-0.389040056208253,-0.752154113114869
-0.387760332510466,-0.752142364461629
-0.386528755225686,-0.752125234986694
-0.385343175265143,-0.752103251059389
-0.384201552122868,-0.752076895451226
-0.383101947908384,-0.75204661092964
-0.382042521720866,-0.752012803546576
-0.381021524345797,-0.751975845648765
-0.380037293255946,-0.751936078634111
-0.379088247899386,-0.751893815476381
-0.378172885258124,-0.751849343038401
-0.377289775661724,-0.751802924192124
-0.37643755884114,-0.751754799762305
-0.375614940208753,-0.751705190308991
-0.374820687351378,-0.751654297762695
-0.374053626723729,-0.751602306924884
-0.373312640530538,-0.75154938684527
-0.372596663786202,-0.751495692086403
-0.371904681541462,-0.751441363885106
-0.371235726267233,-0.75138653121948
-0.370588875386283,-0.751331311789429
-0.369963248944012,-0.751275812917945
-0.369358007410086,-0.751220132379796
-0.368772349603197,-0.751164359163647
-0.368205510731663,-0.751108574173145
-0.367656760543025,-0.751052850872014
-0.367125401576223,-0.750997255877776
-0.3666107675103,-0.750941849508303
-0.366112221603972,-0.750886686285078
-0.365629155220729,-0.75083181539668
-0.365160986434461,-0.750777281125728
-0.364707158710909,-0.750723123242246
-0.364267139660534,-0.750669377366149
-0.36384041985864,-0.750616075301348
-0.363426511728872,-0.750563245343734
-0.363024948486421,-0.750510912565135
-0.362635283137507,-0.750459099075158
-0.362257087531897,-0.750407824262669
-0.361889951465444,-0.750357105018528
-0.361533481829778,-0.75030695594105
-0.361187301806492,-0.750257389525555
-0.360851050103275,-0.750208416339251
-0.360524380229659,-0.750160045182605
-0.360206959810135,-0.750112283238243
-0.359898469932546,-0.750065136208358
-0.359598604529803,-0.750018608441515
-0.359307069793059,-0.749972703049666
-0.359023583614614,-0.749927422016144
-0.3587478750589,-0.749882766295314
-0.358479683860011,-0.749838735904536
-0.358218759944334,-0.749795330009019
-0.357964862976901,-0.74975254700011
-0.357717761930182,-0.749710384567527
-0.357477234674116,-0.749668839765982
-0.357243067586224,-0.749627909076642
-0.357015055180737,-0.749587588463788
-0.356792999755727,-0.749547873427075
-0.356576711057279,-0.749508759049683
-0.356366005959813,-0.749470240042707
-0.356160708161688,-0.749432310786043
-0.355960647895317,-0.749394965366044
-0.355765661651003,-0.749358197610195
-0.35557559191381,-0.749322001119013
-0.355390286912776,-0.749286369295402
-0.355209600381844,-0.749251295371635
-0.355033391331909,-0.749216772434152
-0.354861523833408,-0.749182793446335
-0.35469386680892,-0.749149351269412
-0.354530293835277,-0.749116438681624
-0.35437068295469,-0.749084048395799
-0.35421491649446,-0.749052173075432
-0.354062880894822,-0.749020805349406
-0.353914466544542,-0.748989937825441
-0.353769567623861,-0.748959563102363
-0.353628081954439,-0.748929673781301
-0.353489910855948,-0.748900262475872
-0.353354959008998,-0.748871321821441
-0.353223134324074,-0.748842844483526
-0.35309434781621,-0.748814823165407
-0.352968513485107,-0.748787250615006
-0.352845548200449,-0.748760119631089
-0.352725371592156,-0.748733423068842
-0.35260790594535,-0.748707153844876
-0.352493076099802,-0.748681304941688
-0.352380809353655,-0.748655869411643
-0.352271035371217,-0.748630840380494
-0.352163686094642,-0.748606211050489
-0.352058695659311,-0.748581974703087
-0.351956000312737,-0.748558124701329
-0.351855538336853,-0.748534654491868
-0.351757249973497,-0.748511557606714
-0.351661077352977,-0.748488827664689
-0.351566964425553,-0.748466458372636
-0.351474856895719,-0.748444443526392
-0.351384702159153,-0.748422777011547
-0.351296449242214,-0.748401452804008
-0.351210048743874,-0.748380464970382
-0.351125452779975,-0.748359807668194
-0.351042614929712,-0.748339475145958
-0.350961490184238,-0.748319461743106
-0.350882034897301,-0.748299761889801
-0.350804206737826,-0.748280370106625
-0.35072796464435,-0.748261281004174
-0.35065326878124,-0.748242489282553
-0.350580080496605,-0.748223989730791
-0.350508362281842,-0.748205777226178
-0.350438077732736,-0.748187846733534
-0.350369191512048,-0.748170193304414
-0.350301669313538,-0.748152812076264
-0.350235477827349,-0.748135698271526
-0.350170584706705,-0.748118847196693
