0.640213490816697,-1.0143300338055
0.62533482896408,-0.991897010546496
0.605465981877891,-0.98850803108785
0.613003129671819,-0.990893799107949
0.586267968909773,-0.943697849009417
0.619820293753119,-0.949607782714897
0.612515738465959,-0.903815569073978
0.654377957729011,-0.828222754525282
0.601853010357468,-0.807921483219325
0.691001994780282,-0.757994105116572
0.688496811161314,-0.693721196882377
0.718929645853823,-0.623634674749721
0.753132223236032,-0.547163542810314
0.779192070254963,-0.456275710033215
0.828876450386684,-0.378437557848076
0.872816458880415,-0.329955430070547
0.905875993146959,-0.19562447086312
0.947219670215235,-0.107696633053034
0.997116266171962,-0.00776394014222995
0.997622334410745,0.0839756786961976
1.0337169475127,0.154954260879248
1.02357784219978,0.260265971436953
1.02582776227462,0.341043571281424
1.00212530033076,0.417402614378495
0.994528718067384,0.486461134591947
0.94577736044673,0.574881110546902
0.925604635537798,0.638894199798757
0.863802697842532,0.653729467959698
0.798864068399218,0.695217585438626
0.724529430865244,0.729830530596593
0.641977090718092,0.757983069157513
0.552610322312223,0.780235800057232
0.458013500012742,0.797268997545922
0.35990202564786,0.809852550973504
0.260067809872182,0.818813095650502
0.160322222457915,0.82499952666859
0.0624385158792983,0.829248143536647
-0.0319042553510005,0.83234868495311
-0.121173850937683,0.835012479592141
-0.20403215177656,0.837843861627339
-0.279375502123448,0.841315881606499
-0.346366679614199,0.845751188436674
-0.404457383961013,0.851308772161527
-0.453400472693931,0.857977046545284
-0.493251537217158,0.865573522727832
-0.524359791716749,0.873751088500256
-0.547348627587228,0.882010670505265
-0.563086553507598,0.889719827347215
-0.572649583011138,0.896136608374534
-0.577276435194704,0.900437823372644
-0.578318169288589,0.90175070933381
-0.577184071079031,0.899186857523113
-0.575285741622442,0.891877181622153
-0.573981401601821,0.87900666874694
-0.574522415816076,0.859847660999365
-0.578003961982319,0.833790465721207
-0.585321619133841,0.800370185984898
-0.597135438718973,0.75928879575888
-0.613842793608142,0.710431651902375
-0.635560986141953,0.653877831709787
-0.662120247290169,0.589903903146391
-0.693067387374009,0.518980967423756
-0.727679977869523,0.441765051882598
-0.764990567126916,0.359081166802578
-0.803820073827595,0.271901564357428
-0.842819173446219,0.181318943487082
-0.88051620659379,0.0885155236516577
-0.915369904093317,-0.00527094311182776
-0.945825050321049,-0.0987830439020004
-0.970369099911505,-0.19078021580971
-0.987587727170201,-0.280074628779443
-0.996217323744189,-0.365565195806175
-0.995192566985354,-0.446268532451324
-0.983687355206499,-0.521345796125007
-0.961147640495874,-0.590124481994618
-0.927314976581152,-0.652114431530412
-0.88223992821354,-0.707017515210527
-0.826284847970609,-0.754730675466111
-0.760115903461844,-0.795342251559623
-0.684684619244445,-0.829121746370667
-0.601199569747896,-0.856503427533826
-0.511089208925557,-0.878064373759616
-0.415957136764579,-0.894497773701838
-0.317531371002438,-0.906582452420432
-0.217609404874096,-0.915149733363355
-0.118000980887444,-0.921048837129205
-0.020470591188614,-0.925112068757127
0.073318275832511,-0.928121051131051
0.161855185753379,-0.930775223080147
0.243829280471955,-0.933663738302405
0.318168645146718,-0.937241778276083
0.384071147118729,-0.941812133239962
0.441025677915278,-0.947512715789074
0.488823071079388,-0.954310458403952
0.527556335991463,-0.962001816907665
0.557610227967949,-0.970219864598864
0.579640554204783,-0.978447725095372
0.594543980078567,-0.986037864177439
0.603419437934813,-0.992236550259213
0.607522538762403,-0.996212607049534
