0.27703518123799,-0.733067721984743
0.264513351083801,-0.685420829980503
0.230185768845968,-0.738741104091883
0.258238077471466,-0.778913076022539
0.288713379048755,-0.687577291854276
0.316799850989611,-0.74720234737661
0.328462639714342,-0.765097671876815
0.291216351002098,-0.721982402563658
0.319689055739403,-0.744914662344509
0.268271072151835,-0.667544413269512
0.31101669827207,-0.703096673360388
0.345477205934138,-0.662281829013136
0.29294778402599,-0.697477657831161
0.382167447189261,-0.639936410930455
0.395003053453825,-0.58665785527498
0.48137255004704,-0.498342507326485
0.492588536572431,-0.334709968472938
0.499439579687238,-0.0665143716269536
0.456026031862374,0.403642875092298
0.112008320302614,0.9160532739789
-0.431344527073512,1.02051857480045
-0.741668589814936,0.444125122208759
-0.638149604897894,-0.10463448908922
-0.369905122237233,-0.453994089568428
-0.197246017069838,-0.611646197022542
-0.0389120515984282,-0.659440156476273
0.0851203980834005,-0.765501426372434
0.137358939348094,-0.755208205823313
0.178611587223381,-0.738143226773408
0.238773055333274,-0.747595878389086
0.219968976166122,-0.741115276545488
0.245124852374719,-0.70268177849321
0.27246839052004,-0.790070024853664
0.208080612251828,-0.728460368252351
0.251124379176008,-0.740178032428519
0.276054963091656,-0.755712771819947
0.257453616999016,-0.739480617070301
0.30918576457665,-0.689199559135459
0.272720720240712,-0.756556350243066
0.308689519318178,-0.74961000235444
