0.585833078257321,0.0437652100754002
0.585484621342465,0.0438220812711955
0.584448335115608,0.0440807094286639
0.582738250662151,0.0446718853281703
0.58036883432451,0.0457237213593708
0.577354859436043,0.0473603763872505
0.573711280845549,0.0497008157313522
0.569453113345374,0.052857617451278
0.564595315075899,0.0569358357184874
0.559152676929291,0.0620319315450646
0.553139718916453,0.0682327805390272
0.546570594393563,0.0756147666682604
0.539459002969077,0.0842429702474137
0.531818112829276,0.0941704575209495
0.523660493131084,0.10543767830848
0.514998057015803,0.118071977213667
0.505842015697426,0.132087222883898
0.49620284397522,0.147483558753731
0.486090257413242,0.164247277620147
0.475513201320311,0.18235082129158
0.464479851553712,0.201752905435519
0.452997627059523,0.222398768630921
0.44107321395292,0.244220543522041
0.428712600834122,0.267137746879128
0.415921124930763,0.291057884308789
0.402703528556306,0.315877164331973
0.389064025277658,0.341481315569685
0.375006375094128,0.367746499854488
0.360533967845256,0.394540313227674
0.34564991398746,0.421722865995485
0.330357141809708,0.449147932309912
0.314658500097037,0.476664159116627
0.298556865198373,0.504116323780234
0.282055251412154,0.531346629259858
0.265156923570098,0.558196025370116
0.247865510676499,0.584505544426729
0.23018511944769,0.610117639444527
0.212120446594141,0.634877513029573
0.193676888695863,0.658634425186803
0.174860648540424,0.681242968449263
0.155678836821766,0.702564299023013
0.136139568136877,0.722467313030625
0.116252050265814,0.740829757422299
0.0960266657783371,0.75753926570275
0.0754750450767346,0.772494309288976
0.0546101300589718,0.785605056062841
0.0334462276681893,0.796794128506433
0.0119990526832461,0.805997254700056
-0.00971424080043395,0.813163806414506
-0.0316750396508065,0.818257219532496
-0.0538632640871873,0.821255293079786
-0.076257372416407,0.822150364225396
-0.0988343782478547,0.820949357712671
-0.121569880207361,0.817673709298991
-0.144438104058761,0.812359163901789
-0.167411957031514,0.805055450262043
-0.190463094043888,0.795825835033879
-0.213561995405008,0.784746560280345
-0.236678055476333,0.771906169391347
-0.259779681674879,0.757404727430991
-0.282834403107652,0.74135294285914
-0.305808988039945,0.723871198447716
-0.328669569320425,0.705088500018185
-0.351381776813757,0.685141352355663
-0.373910875827687,0.66417257230065
-0.396221910466537,0.642330049575756
-0.418279850797453,0.619765466367025
-0.440049742679904,0.596632987043413
-0.461496859083223,0.57308792966042
-0.482586851701489,0.549285431052487
-0.503285901670179,0.525379117372108
-0.52356086819449,0.501519791881219
-0.54337943391532,0.477854151642781
-0.562710245865167,0.454523544498978
-0.581523050902691,0.431662777359452
-0.599788824560849,0.409398986361706
-0.617479892299079,0.387850578910388
-0.634570042214426,0.367126256957529
-0.651034628339237,0.347324130157768
-0.6668506637334,0.328530926727559
-0.681996902666431,0.310821308962614
-0.696453911278152,0.294257299431113
-0.710204126205536,0.278887822869898
-0.72323190076651,0.264748367775804
-0.735523538398345,0.251860770613717
-0.747067313157586,0.240233124466371
-0.757853477199527,0.229859812838191
-0.767874255266818,0.220721668206495
-0.777123826328103,0.212786253798128
-0.785598292617465,0.20600826596802
-0.793295636433091,0.200330053478124
-0.800215665157873,0.195682248930258
-0.806359945064762,0.191984506603902
-0.811731724564739,0.189146339998942
-0.816335847644347,0.187068051492163
-0.820178658322074,0.185641745692948
-0.823267897027806,0.184752417335479
-0.825612589876347,0.184279103878419
-0.827222931864085,0.184096092404566
-0.828110165066756,0.184074169927436
-0.828286452955449,0.184081905823473
-0.827764751977213,0.183986954821135
-0.826558681565616,0.183657368793945
-0.824682393755104,0.182962905525415
-0.822150443571106,0.181776322640267
-0.818977661355432,0.17997464502831
-0.815179028163724,0.17744039432354
-0.81076955533888,0.174062769339413
-0.80576416932161,0.169738766798725
-0.800177602707112,0.164374232229309
-0.794024292495707,0.157884831519974
-0.787318286415646,0.150196934339266
-0.780073158118944,0.1412484014064
-0.772301931966544,0.130989268462077
-0.764017018028293,0.119382320709161
-0.755230157826787,0.106403552471194
-0.745952381253108,0.0920425078416945
-0.736193974977622,0.076302499159966
-0.725964462571387,0.059200701240313
-0.715272596444194,0.0407681203913127
-0.704126361594892,0.0210494383802813
-0.692532991059394,0.000102732615288925
-0.680498992832575,-0.0220009250769389
-0.668030187933207,-0.0451779876140021
-0.655131759177047,-0.0693330652443545
-0.6418083101231,-0.0943596660261202
-0.62806393356291,-0.12014103770224
-0.613902288833253,-0.146551103569154
-0.59932668714966,-0.173455484095271
-0.584340184082538,-0.200712595278034
-0.568945678229924,-0.228174814041134
-0.553146015081759,-0.255689700372688
-0.536944095020484,-0.283101265396144
-0.520342984362235,-0.31025127415304
-0.503346028312291,-0.336980571564007
-0.485956964687991,-0.363130419824573
-0.468180037252232,-0.388543835387112
-0.450020107501092,-0.413066913680653
-0.431482763759936,-0.436550129826357
-0.412574426463575,-0.458849603817105
-0.393302448527469,-0.479828318943172
-0.373675209758241,-0.499357282659469
-0.353702204302605,-0.517316619599608
-0.333394120193744,-0.533596587043698
-0.312762910122626,-0.548098503834743
-0.291821852638194,-0.560735584506801
-0.270585603064031,-0.5714336712298
-0.249070233509287,-0.580131857083506
-0.227293261447636,-0.586782995138623
-0.205273666438738,-0.5913540888377
-0.183031894671484,-0.593826560223348
-0.160589851116063,-0.594196393646945
-0.13797087918174,-0.592474153697679
-0.115199727888167,-0.588684877209759
-0.0923025066691232,-0.582867840324771
-0.0693066280376898,-0.575076202696654
-0.0462407384502018,-0.565376532018564
-0.0231346378117303,-0.553848213114382
-1.91881675324357e-05,-0.540582746863224
0.0230737877780901,-0.525682945203927
0.0461116175826767,-0.509262029389388
0.0690608986082868,-0.491442639519592
0.0918876252901017,-0.472355764169486
0.114557323164942,-0.452139599636601
0.137035188632032,-0.430938348957081
0.159286233365648,-0.40890097137205
0.181275432256136,-0.386179893364251
0.202967873722374,-0.362929692723771
0.224328911215645,-0.339305767338292
0.245324314722018,-0.31546300053572
0.265920421068028,-0.291554434833969
0.28608428184264,-0.267729965873851
0.305783807767041,-0.244135068127309
0.324987908372755,-0.220909563686047
0.343666625887435,-0.198186445047727
0.361791262276279,-0.176090762331662
0.379334498444853,-0.154738584777705
0.396270504675634,-0.134236045715977
0.412575041445288,-0.114678479447157
0.428225549851893,-0.0961496576498776
0.443201230970194,-0.078721132040805
0.45748311354791,-0.0624516890620264
0.471054109556052,-0.0473869213680501
0.483899057210496,-0.0335589198398872
0.49600475118953,-0.0209860887757101
0.507359959882005,-0.00967308580606531
0.517955429611959,0.000389113033613372
0.527783875897198,0.0092230237594224
0.536839961910372,0.0168643422233345
0.54512026442049,0.0233615121210665
0.5526232275997,0.0287751771897293
0.559349105183503,0.0331775225966875
0.565299891571504,0.0366515115115015
0.570479242549409,0.0392900237896905
0.574892386400462,0.0411949045720109
0.578546026255075,0.042475931408153
0.581448234600344,0.0432497092420608
0.583608340935808,0.0436385032409587
0.585036813617638,0.0437690200058839
0.585745136979906,0.0437711481631038
