0.972314049586777,0.0373972267329947
0.953627219817451,0.0275238494861144
0.935715877571359,0.015519837780081
0.918266365678217,0.00224695760770022
0.901157845879342,-0.0119627906438938
0.884316228168119,-0.0269058463545173
0.867688844111323,-0.0424375041931668
0.851235169139543,-0.0584464238204488
0.834922439268143,-0.0748425869284101
0.818723254592557,-0.091550712897959
0.802614135599919,-0.108506292297673
0.786574590679138,-0.125653024888794
0.770586481192851,-0.142941075174746
0.754633570886105,-0.160325834411671
0.738701195258951,-0.177767012217092
0.722776012200636,-0.195227951442985
0.706845809529794,-0.212675099396806
0.690899353519079,-0.230077591666334
0.674926267655175,-0.247406919015546
0.658916934173622,-0.264636656853754
0.6428624130644,-0.281742242705305
0.626754374697188,-0.298700791098976
0.610585043217566,-0.315490938050331
0.594347148571773,-0.332092709250827
0.578033885524728,-0.348487407470742
0.561638878406312,-0.364657515700393
0.545156150595495,-0.380586613308452
0.528580097958301,-0.396259303063365
0.51190546561281,-0.411661147295714
0.495127327515467,-0.42677861181207
0.478241068457289,-0.441599016429958
0.461242368132685,-0.456110491207328
0.444127187002537,-0.470301937601666
0.426891753720273,-0.484162993923423
0.40953255392777,-0.497684004553016
0.392046320258885,-0.510855992475741
0.374430023413779,-0.523670634758699
0.3566808641882,-0.536120240651412
0.338796266359271,-0.548197732039697
0.320773870343948,-0.559896626022423
0.302611527558603,-0.571211019414589
0.284307295418617,-0.582135575008815
0.265859432925792,-0.59266550945187
0.2472663967991,-0.602796582613974
0.228526838110927,-0.612525088346969
0.209639599396861,-0.62184784654352
0.190603712212227,-0.630762196423746
0.171418395113192,-0.639265990988366
0.152083052044491,-0.647357592588996
0.132597271119609,-0.65503586957674
0.112960823782877,-0.662300194000054
0.0931736643462693,-0.66915044033212
0.0732359298969607,-0.675586985216857
0.0531479405748547,-0.681610708231421
0.0329102002224408,-0.687222993671673
0.0125233974125502,-0.692425733375919
-0.00801159313713648,-0.697221330611236
-0.0286937087505038,-0.701612705056255
-0.0495216965643233,-0.705603298924405
-0.0704941108644606,-0.709197084282625
-0.0916093099625516,-0.712398571632627
-0.112865452583843,-0.715212819835217
-0.134260493731395,-0.717645447473309
-0.155792179985604,-0.719702645766385
-0.177458044190834,-0.721391193168841
-0.199255399472693,-0.722718471807398
-0.221181332519821,-0.723692485939233
-0.243232696052757,-0.724321882643603
-0.265406100389059,-0.724615974996472
-0.287697903997934,-0.724584768021464
-0.310104202918531,-0.72423898776287
-0.332620818892987,-0.723590113889814
-0.355243286037351,-0.722650416317616
-0.377966835839138,-0.721432996426648
-0.400786380228016,-0.719951833575258
-0.423696492413445,-0.718221837747916
-0.446691385117113,-0.7162589093611
-0.469764885744486,-0.714080007478915
-0.492910407933049,-0.711703227983648
-0.51612091877707,-0.70914789362499
-0.539388900848847,-0.706434658365802
-0.562706307898722,-0.703585629095334
-0.586064512797857,-0.700624508655262
-0.609454245855316,-0.697576765312117
-0.63286552104383,-0.694469835450331
-0.656287546829295,-0.691333368566177
-0.679708617095579,-0.688199526949398
-0.703115975891688,-0.685103357287309
-0.726495647074912,-0.682083258716423
-0.749832215816367,-0.679181583131021
-0.773108542362484,-0.676445421617006
-0.796305377509033,-0.673927660928347
-0.819400830186056,-0.671688446285439
-0.842369602440492,-0.669797283243075
-0.865181837818919,-0.668336201732859
-0.887801279992145,-0.667404815200554
-0.910182078199857,-0.66712909757479
-0.932262554003286,-0.667678508973351
-0.953950525588569,-0.669306316848307
-0.975072919958949,-0.672488035350166
0.972314049586777,0.0373972267329947
0.951652622922419,0.0329490098677406
0.930215708734828,0.0306314274616396
0.908316964194287,0.029582713521886
0.886077227559478,0.0294708676613455
0.863570588837017,0.0300923292598346
0.840849716460129,0.0313023929863497
0.817955134998226,0.0329897185014973
0.794919608435942,0.0350642874973242
0.771770536677844,0.0374508193547386
0.748531399236799,0.0400848046423178
0.725222687723896,0.042909943121305
0.7018625407765,0.0458763992951227
0.678467194649563,0.048939564419913
0.655051313843033,0.0520591481131995
0.631628240467664,0.0551984932269581
0.608210186704823,0.0583240470686443
0.584808386281854,0.0614049452260387
0.561433215712074,0.0644126784631159
0.538094292759944,0.0673208221891894
0.514800557435482,0.0701048139286057
0.491560339369011,0.0727417682101424
0.46838141441495,0.0752103210493631
0.445271052627059,0.0774904981377244
0.42223605924042,0.0795636022455058
0.399282809925152,0.0814121163630224
0.376417281302286,0.0830196198589466
0.353645077505796,0.0843707155017253
0.330971453417604,0.0854509656219401
0.308401335081263,0.0862468360261612
0.285939337705758,0.0867456465319145
0.263589781596678,0.08693552719715
0.241356706293143,0.0868053794793538
0.219243883141723,0.0863448416889768
0.197254826500542,0.0855442582064354
0.175392803735744,0.0843946520170257
0.153660844147166,0.0828877001878488
0.132061746939061,0.0810157119684279
0.110598088334307,0.0787716092445785
0.0892722279159463,0.0761489091151699
0.0680863142676076,0.073141708395201
0.0470422899739107,0.0697446698772927
0.0261418960330518,0.0659530102082138
0.00538667572606049,0.0617624892581835
-0.0152220220194499,0.0571694008790436
-0.0356830397390682,0.0521705649634605
-0.0559954089881171,0.0467633207315518
-0.0761583483227658,0.0409455211840374
-0.0961712616877481,0.0347155286725331
-0.11603373719655,0.0280722115481425
-0.135745546293502,0.0210149418593226
-0.155306643290578,0.0135435940792541
-0.174717165274953,0.00565854485185696
-0.19397743238653,-0.00263932624571428
-0.2130879484678,-0.0113486349175964
-0.232049402091593,-0.0204674893254844
-0.25086266797559,-0.0299934862023019
-0.269528808795906,-0.0399237058694177
-0.28804907741577,-0.0502547061134022
-0.306424919549316,-0.060982514867316
-0.324657976884909,-0.0721026216294491
-0.342750090697301,-0.0836099675389936
-0.360703305983432,-0.0954989340130356
-0.378519876162907,-0.107763329832094
-0.396202268391361,-0.120396376541772
-0.413753169543185,-0.13339069201535
-0.431175492929741,-0.146738271995649
-0.448472385830488,-0.160430469403414
-0.46564723792787,-0.174457971162679
-0.482703690752678,-0.188810772249822
-0.499645648265766,-0.20347814662055
-0.516477288724992,-0.21844861460574
-0.533203078014312,-0.233709906290073
-0.549827784646209,-0.249248920293175
-0.566356496691014,-0.2650516772567
-0.582794640939269,-0.281103267196176
-0.599148004669284,-0.297387789695126
-0.615422760475595,-0.313888285689446
-0.631625494720715,-0.330586659296847
-0.647763240310379,-0.34746358776764
-0.663843514672285,-0.364498417138962
-0.679874364056094,-0.381669040521564
-0.695864415590642,-0.398951755073771
-0.711822938966867,-0.41632109252905
-0.727759920212036,-0.433749616502971
-0.743686150860255,-0.45120767749926
-0.759613337027655,-0.468663113228172
-0.775554234665229,-0.486080877002396
-0.791522819915689,-0.503422569685417
-0.807534507607918,-0.520645839382953
-0.823606437495484,-0.537703595009103
-0.839757858782619,-0.554542949809896
-0.856010662539279,-0.571103758564938
-0.872390146718527,-0.587316515719436
-0.888926167773784,-0.603099191341787
-0.905654982034241,-0.618352171986226
-0.922622440260212,-0.632949483724125
-0.939890220890467,-0.646721666437698
-0.957550505738867,-0.659415452674877
-0.975776367802171,-0.670555328285152
