-0.623604734210795,0.262617624747938
-0.62350765616094,0.262615132863463
-0.623216375002352,0.262595439905883
-0.622730856556024,0.262540260611007
-0.622051115284025,0.262431400230526
-0.621177214522298,0.262250799673953
-0.620109266699739,0.261980580343922
-0.618847433543,0.261603088563679
-0.617391926266434,0.261100939496492
-0.615743005746616,0.26045706045788
-0.61390098268091,0.259654733522862
-0.611866217729526,0.258677637332065
-0.609639121640546,0.257509888002263
-0.607220155357422,0.256136079048969
-0.604609830108434,0.254541320230863
-0.60180870747765,0.252711275228294
-0.598817399456907,0.250632198070655
-0.5956365684784,0.248290968230269
-0.592266927427429,0.245675124303361
-0.588709239634942,0.242772896201878
-0.584964318849459,0.239573235783245
-0.581033029188058,0.236065845848604
-0.576916285066068,0.232241207443784
-0.57261505110519,0.22809060540098
-0.568130342019742,0.223606152063098
-0.563463222480797,0.218780809136769
-0.558614806957978,0.213608407624201
-0.55358625953872,0.20808366578836
-0.548378793724824,0.202202205110338
-0.542993672206166,0.195960564202284
-0.537432206611452,0.189356210643799
-0.53169575723594,0.182387550714394
-0.52578573274607,0.17505393699926
-0.519703589860992,0.167355673850377
-0.513450833010994,0.159294020689798
-0.507029013972878,0.150871193146719
-0.500439731482347,0.142090362024852
-0.493684630823513,0.13295565010141
-0.486765403395658,0.123472126763894
-0.479683786257405,0.113645800495709
-0.472441561648505,0.103483609226414
-0.465040556489451,0.0929934085672285
-0.457482641859186,0.0821839579571035
-0.44976973245118,0.0710649047493804
-0.441903786008194,0.0596467662736288
-0.433886802736072,0.0479409099118113
-0.425720824696931,0.0359595312323474
-0.417407935182143,0.0237156302300045
-0.408950258065542,0.0112229857237767
-0.400349957137304,-0.00150387203096591
-0.391609235418963,-0.0144496904557767
-0.382730334460091,-0.0275985254237369
-0.373715533617138,-0.0409337736275044
-0.364567149315003,-0.0544382064693772
-0.355287534291889,-0.0680940053985322
-0.345879076828042,-0.0818827986173584
-0.336344199958983,-0.0957856990757351
-0.326685360673857,-0.109783343669221
-0.316905049099553,-0.123855933554417
-0.307005787671255,-0.137983275492258
-0.296990130290097,-0.152144824127687
-0.286860661468631,-0.166319725112063
-0.276619995464793,-0.180486858972737
-0.266270775405098,-0.194624885632593
-0.25581567239779,-0.208712289480833
-0.245257384636676,-0.222727424895089
-0.234598636496397,-0.236648562113886
-0.223842177619878,-0.250453933357709
-0.212990781998719,-0.264121779096337
-0.202047247047284,-0.277630394359786
-0.191014392671241,-0.290958174990068
-0.179895060331326,-0.304083663731112
-0.168692112103088,-0.31698559605452
-0.157408429733369,-0.329642945619409
-0.146046913694279,-0.342034969265408
-0.13461048223542,-0.354141251438875
-0.123102070435095,-0.365941747953669
-0.111524629251252,-0.377416828989282
-0.099881124572877,-0.388547321230793
-0.0881745362725719,-0.399314549057053
-0.0764078572610085,-0.409700374685569
-0.0645840925439675,-0.41968723718489
-0.0527062582826371,-0.429258190267819
-0.0407773808578407,-0.438396938781441
-0.0288004959388444,-0.4470878738129
-0.0167786475573773,-0.455316106332871
-0.00471488718748447,-0.463067499301978
0.00738772716819511,-0.470328698168775
0.0195261318851454,-0.477087159691498
0.0316972586161297,-0.48333117901953
0.0438980351822535,-0.489049914974356
0.0561253864554205,-0.494233413473826
0.0683762352316963,-0.498872629047625
0.0806475030951125,-0.502959444396127
0.0929361112714752,-0.506486687949147
0.105238981471763,-0.509448149385534
0.117553036724727,-0.511838593079106
0.129875202198335,-0.513653769441025
0.142202406009714,-0.51489042413338
0.154531580023308,-0.515546305133496
0.166859660636939,-0.515620167633245
0.179183589555554,-0.515111776762463
0.191500314552408,-0.514021908130407
0.203806790217507,-0.512352346184047
0.216099978693124,-0.51010588038682
0.228376850396277,-0.507286299226347
0.24063438472803,-0.503898382064417
0.252869570769553,-0.499947888847355
0.265079407964883,-0.495441547699638
0.277260906790355,-0.490387040428328
0.289411089410704,-0.484792985970551
0.301526990321875,-0.478668921820797
0.313605656980578,-0.472025283479328
0.325644150420685,-0.464873381967373
0.337639545856563,-0.45722537945908
0.349588933273478,-0.44909426308438
0.361489418005225,-0.440493816961001
0.373338121299162,-0.431438592517765
0.385132180868838,-0.421943877175144
0.396868751434465,-0.41202566145266
0.408545005251442,-0.40170060457623
0.420158132627225,-0.390985998661872
0.431705342426806,-0.379899731555371
0.443183862567121,-0.368460248410453
0.454590940500683,-0.356686512090842
0.465923843688796,-0.344597962484172
0.477179860064684,-0.332214474818127
0.488356298486914,-0.319556317071416
0.499450489183469,-0.306644106574163
0.510459784186885,-0.293498765894119
0.521381557760824,-0.280141478106648
0.532213206818509,-0.266593641547813
0.542952151333429,-0.252876824151038
0.55359583474274,-0.239012717468698
0.56414172434378,-0.225023090480728
0.574587311684144,-0.210929743292751
0.584930112945742,-0.196754460826488
0.595167669323279,-0.182518966605211
0.605297547397592,-0.168244876736757
0.615317339504287,-0.153953654196181
0.625224664098091,-0.139666563509441
0.635017166113371,-0.125404625938584
0.644692517321217,-0.111188575267792
0.654248416683537,-0.0970388142882685
0.663682590704544,-0.08297537207839
0.672992793780062,-0.0690178621737422
0.682176808545029,-0.0551854417196844
0.691232446219576,-0.0414967716968477
0.700157546954066,-0.027969978307598
0.708949980173427,-0.0146226156088642
0.717607644921147,-0.00147162947395502
0.726128470203224,0.0114666770370002
0.734510415332417,0.024176676821501
0.742751470273056,0.0366434503208642
0.750849655986716,0.0488528154784764
0.758803024778984,0.0607913560040997
0.766609660647574,0.0724464478819893
0.774267679631988,0.0838062840645285
0.781775230164938,0.0948598972971458
0.789130493425674,0.105597181024444
0.796331683695384,0.116008908331793
0.80337704871479,0.126086748880996
0.810264870044033,0.135823283803161
0.816993463424933,0.145212018516454
0.823561179145673,0.154247393441062
0.829966402407928,0.162924792588391
0.836207553696462,0.171240550006277
0.842283089151143,0.179191954066797
0.84819150094135,0.186777249588057
0.853931317642683,0.193995637786217
0.859501104615888,0.200847274058829
0.864899464387863,0.20733326360543
0.870125037034599,0.213455654896167
0.875176500565875,0.21921743100403
0.880052571311512,0.22462249882105
0.884752004308959,0.229675676183557
0.889273593691947,0.23438267693624
0.893616173079963,0.238750093969401
0.897778615968218,0.242785380268266
0.901759836117803,0.246496828017724
0.905558787945686,0.249893545810146
0.909174466914181,0.252985434008232
0.912605909919512,0.25578315831891
0.915852195679042,0.258298121638347
0.918912445116772,0.260542434231958
0.921785821746634,0.262528882317056
0.924471532053128,0.264270895119324
0.926968825868832,0.265782510477717
0.92927699674826,0.267078339075648
0.931395382337586,0.268173527379363
0.933323364739689,0.269083719367321
0.93506037087399,0.269825017137068
0.936605872830525,0.270413940478649
0.937959388217695,0.270867385505841
0.939120480503128,0.27120258243867
0.940088759347065,0.271437052632511
0.940863880927691,0.271588564950797
0.941445548257828,0.271675091579788
0.941833511492371,0.271714763385141
0.942027568225899,0.27172582491101
0.942027563779842,0.271726589123221
0.941833391478608,0.271735391998637
0.941444992914071,0.271770547063172
0.94086235819783,0.271850299981008
0.940085526200635,0.271992783297504
0.939114584778399,0.272215971437871
0.937949670984211,0.272537636063189
0.936590971265782,0.272975301884486
0.935038721647743,0.273546203034609
0.933293207898266,0.27426724009636
0.93135476567943,0.275154937883896
0.929223780680837,0.276225404072727
0.926900688735934,0.277494288771736
0.924385975920549,0.278976745128538
0.921680178633163,0.2806873910572
0.918783883656431,0.282640272174826
0.915697728199526,0.284848826030811
0.912422399920856,0.287325847709681
0.908958636930759,0.290083456885366
0.905307227773778,0.293133066401516
0.901469011390161,0.296485352449046
0.897444877056243,0.300150226408543
0.893235764303384,0.304136808421436
0.888842662815189,0.308453402749976
0.884266612302727,0.313107474982066
0.879508702357527,0.318105631132868
0.874570072282127,0.323453598690866
0.869451910897998,0.329156209651729
0.864155456330698,0.335217385578869
0.858681995772113,0.341640124725052
0.8530328652197,0.348426491244837
0.847209449192674,0.355577606522919
0.841213180425085,0.36309364263874
0.835045539535788,0.370973817982945
0.828708054675346,0.379216395036462
0.822202301149896,0.387818680318147
0.815529901022082,0.396777026502071
0.808692522689171,0.406086836700713
0.8016918804385,0.415742570905434
0.794529733980422,0.425737754570824
0.787207887958984,0.436064989324692
0.779728191440549,0.446715965780744
0.772092537380654,0.457681478426247
0.764302862069388,0.468951442552402
0.756361144555625,0.480514913190511
0.748269406050471,0.492360106012579
0.740029709310293,0.504474420150603
0.731644157999762,0.516844462884463
0.72311489603534,0.529456076144195
0.71444410690966,0.54229436476835
0.70563401299732,0.555343726456197
0.696686874842567,0.568587883347758
0.687604990429439,0.58200991516201
0.6783906944349,0.595592293820102
0.669046357465566,0.609316919477093
0.659574385278613,0.623165157882583
0.649977217987484,0.637117878987634
0.640257329253045,0.651155496712538
0.630417225460836,0.665258009787456
0.620459444885086,0.67940504357548
0.610386556840191,0.693575892785502
0.60020116082034,0.707749564980259
0.589905885628002,0.721904824783145
0.579503388492015,0.736020238685792
0.568996354175976,0.750074220357077
0.558387494077707,0.764045076353093
0.547679545320519,0.777911052126665
0.536875269837038,0.791650378234374
0.525977453446348,0.805241316638541
0.514988904925215,0.81866220700142
0.503912455074139,0.831891512868861
0.492750955779016,0.844907867640902
0.481507279069157,0.857690120227245
0.470184316172415,0.870217380286235
0.458784976568203,0.882469062946881
0.447312187039103,0.894424932914601
0.435768890721864,0.906065147862723
0.424158046158469,0.917370301013352
0.41248262634804,0.928321462813019
0.400745617800262,0.938900221610511
0.388950019591043,0.949088723246505
0.3770988424211,0.958869709467039
0.365195107678139,0.968226555075453
0.353241846503293,0.977143303740244
0.341242098862457,0.985604702379238
0.329198912623148,0.993596234043679
0.3171153426375,1.00110414922913
0.304994449831968,1.00811549554357
0.292839300304332,1.01461814566679
0.280652964428512,1.0206008235389
0.268438515967756,1.02605312871964
0.25619903119666,1.03096555886456
0.243937588032538,1.03532953026789
0.231657265176555,1.03913739642646
0.219361141265077,1.0423824645835
0.207052294031627,1.04505901021542
0.194733799479813,1.04716228942943
0.182408731067602,1.04868854924436
0.170080158903227,1.0496350357319
0.157751148953049,1.05
0.145424762261622,1.04978270200539
0.1331040541842,1.04898341218641
0.120792073631905,1.04760341091274
0.108491862329724,1.0456449857532
0.0962064540874992,1.04311142656758
0.0839388740840272,1.04000701843352
0.0716921381643688,1.0363370324242
0.0594692521504318,1.03210771425708
0.0472732111648764,1.02732627083924
0.0351069989683483,1.02200085473902
0.0229735873100285,1.01614054661851
0.0108759352914593,1.009755335666
-0.00118301125641901,1.00285609807174
-0.0132003203831212,0.995454573595069
-0.0251730746154658,0.987563340274757
-0.0370983715415724,0.979195787338928
-0.0489733243821662,0.970366086374706
-0.0607950625493885,0.961089160821663
-0.072560732193314,0.951380653856879
-0.0842674967364166,0.94125689474296
-0.0959125373962339,0.930734863713815
-0.107493053696505,0.919832155476199
-0.119006263967074,0.908566941408134
-0.13044940583287,0.896957930538191
-0.141819736692289,0.885024329392313
-0.153114534185318,0.87278580079741
-0.164331096651768,0.860262421733208
-0.175466743579975,0.847474640325987
-0.186518816046349,0.834443232079739
-0.197484677146185,0.82118925544192
-0.208361712416116,0.807734006802501
-0.219147330248625,0.794098975026219
-0.229838962299051,0.780305795618984
-0.240434063885487,0.76637620463019
-0.250930114382029,0.752331992393239
-0.26132461760578,0.738194957206968
-0.271615102198069,0.723986859060746
-0.281799122000303,0.709729373505906
-0.291874256424904,0.695444045775864
-0.301838110821743,0.681152245256669
-0.311688316840526,0.666875120408931
-0.321422532789543,0.652633554241113
-0.331038443991204,0.63844812043283
-0.340533763134779,0.624339040205433
-0.349906230626745,0.610326140035388
-0.359153614939144,0.596428810304126
-0.368273712956321,0.582665964975934
-0.377264350320448,0.569056002393068
-0.386123381776158,0.555616767274919
-0.394848691514669,0.542365514005164
-0.403438193517719,0.529318871288157
-0.411889831901626,0.516492808252549
-0.420201581261786,0.503902602077053
-0.428371447017881,0.491562807209728
-0.436397465760065,0.47948722624869
-0.444277705596382,0.467688882548361
-0.452010266501629,0.456179994611553
-0.459593280667868,0.444971952323673
-0.467024912856789,0.434075295081211
-0.474303360754049,0.423499691862426
-0.481426855325766,0.413253923283826
-0.488393661177236,0.403345865681575
-0.495202076914009,0.393782477252421
-0.501850435505347,0.384569786284183
-0.508337104650132,0.375712881501086
-0.514660487145235,0.36721590454458
-0.520819021256317,0.359082044605455
-0.526811181091056,0.351313535218263
-0.532635476974709,0.343911653224248
-0.538290455827954,0.336876719904105
-0.54377470154686,0.330208104277057
-0.549086835384891,0.323904228557893
-0.554225516336742,0.317962575758789
-0.559189441523842,0.312379699417933
-0.563977346581305,0.307151235432225
-0.568588006046082,0.302271915966629
-0.573020233746059,0.297735585408094
-0.57727288318982,0.293535218327419
-0.581344847956747,0.289662939407912
-0.585235062087145,0.286110045295345
-0.588942500472019,0.282867028319368
-0.592466179242141,0.279923602032395
-0.595805156155997,0.277268728507901
-0.598958530986212,0.274890647336132
-0.601925445903992,0.272776906251462
-0.60470508586116,0.27091439332194
-0.607296678969283,0.269289370628142
-0.609699496875419,0.267887509355049
-0.611912855133977,0.266693926217571
-0.613936113574167,0.265693221137312
-0.615768676662505,0.264869516085425
-0.617409993859843,0.264206495003736
-0.618859559972348,0.263687444713984
-0.62011691549588,0.263295296722736
-0.62118164695319,0.263012669827614
-0.62205338722335,0.262821913428607
-0.622731815862843,0.262705151446727
-0.623216659417696,0.262644326750873
-0.623507691726085,0.262621245992645
-0.623604734210795,0.262617624747938
