-0.082741584351748,0.276177291512735
-0.0904214751568902,0.272480078978708
-0.0980247646215308,0.268506632955319
-0.105541629746629,0.26425814663419
-0.112962247856459,0.259736159216444
-0.120276808688923,0.254942557038809
-0.127475526555927,0.24987957428018
-0.134548652559336,0.244549793245368
-0.141486486847916,0.238956144223287
-0.148279390900523,0.233101904917317
-0.15491779982073,0.22699069944608
-0.161392234627981,0.220626496913404
-0.167693314530291,0.214013609546736
-0.173811769163488,0.207156690403785
-0.17973845078193,0.20006073064773
-0.185464346385651,0.192731056391779
-0.190980589768859,0.185173325114473
-0.196278473474772,0.177393521647566
-0.201349460641788,0.169397953738907
-0.206185196726055,0.161193247193219
-0.210777521085594,0.15278634059421
-0.215118478411208,0.14418447961198
-0.219200329989528,0.135395210900174
-0.223015564783687,0.126426375587874
-0.226556910317253,0.117286102371707
-0.229817343347206,0.10798280021416
-0.23279010031197,0.0985251506545879
-0.235468687540649,0.0889220997399071
-0.2378468912099,0.0791828495824184
-0.239918787035058,0.0693168495527276
-0.241678749682415,0.0593337871161667
-0.243121461889801,0.0492435783216064
-0.244241923282916,0.0390563579519909
-0.245035458875153,0.0287824693463832
-0.245497727238962,0.0184324539037366
-0.245624728337162,0.00801704027904161
-0.245412811002919,-0.00245286671709276
-0.244858680057499,-0.0129661975039567
-0.243959403055264,-0.0235117293894986
-0.242712416645772,-0.0340780984900896
-0.24111553254325,-0.0446538118986851
-0.239166943094114,-0.0552272600884294
-0.236865226433648,-0.0657867295384016
-0.234209351223398,-0.0763204155678788
-0.231198680961258,-0.0868164353651817
-0.227832977856753,-0.0972628411968693
-0.224112406264416,-0.107647633782769
-0.220037535668709,-0.117958775822069
-0.215609343214398,-0.128184205655433
-0.210829215776802,-0.138311851047898
-0.205698951566841,-0.148329643077057
-0.200220761266353,-0.158225530110873
-0.194397268689637,-0.167987491859255
-0.188231510967752,-0.177603553483385
-0.181726938252616,-0.187061799746636
-0.17488741293851,-0.196350389190778
-0.16771720839913,-0.205457568321087
-0.160221007238903,-0.214371685783856
-0.152403899057819,-0.223081206519753
-0.14427137772962,-0.231574725876412
-0.135829338193728,-0.239840983663607
-0.127084072761875,-0.247868878134347
-0.118042266940966,-0.255647479875242
-0.108710994774264,-0.2631660455895
-0.0990977137035671,-0.270414031755962
-0.0892102589556055,-0.277381108147668
-0.0790568374564667,-0.284057171193483
-0.0686460212784028,-0.29043235716646
-0.0579867406239516,-0.296497055182712
-0.0470882763528539,-0.302241919994709
-0.0359602520578084,-0.307657884563077
-0.0246126256956499,-0.312736172391157
-0.013055680781089,-0.317468309606773
-0.00130001715068108,-0.32184613677588
0.0106434586947654,-0.325861820432986
0.022763543660615,-0.329507864313517
0.0350487485324176,-0.332777120273528
0.0474873088437499,-0.335662798882496
0.0600671961276292,-0.3381584796752
0.072776129540758,-0.340258121049034
0.0856015878493692,-0.341956069793437
0.0985308217649779,-0.343247070238482
0.11155086661789,-0.344126273010032
0.124648555355864,-0.344589243379271
0.137810531854902,-0.344631969194816
0.151023264528714,-0.344250868386038
0.164273060222994,-0.343442796026657
0.177546078380273,-0.342205050948112
0.190828345460695,-0.340535381892704
0.204105769603754,-0.338431993196935
0.217364155515636,-0.335893549996007
0.230589219566501,-0.332919182940915
0.24376660508172,-0.329508492420081
0.256881897810801,-0.325661552278028
0.269920641557407,-0.321378913024098
0.282868353953685,-0.316661604524773
0.295710542361801,-0.311511138173735
0.3084327198854,-0.305929508534325
0.321020421473487,-0.299919194449673
0.333459220099028,-0.29348315961632
0.345734742994418,-0.286624852617779
0.357832687925792,-0.279348206415017
0.369738839488039,-0.271657637291518
0.381439085402274,-0.263558043251113
0.392919432797405,-0.255054801867437
0.4041660244574,-0.246153767584448
0.415165155015771,-0.236861268468078
0.425903287078801,-0.22718410240969
0.436367067259001,-0.217129532782671
0.446543342100313,-0.206705283554057
0.456419173876601,-0.195919533853766
0.465981856245041,-0.184780912004613
0.475218929736075,-0.17329848901688
0.484118197061705,-0.161481771551889
0.492667738224024,-0.149340694359589
0.500855925405997,-0.136885612195821
0.508671437626701,-0.124127291225507
0.516103275143373,-0.111076899918645
0.523140773582843,-0.0977459994465689
0.529773617785138,-0.0841465335865387
0.535991855342293,-0.0702908181433155
0.541785909815644,-0.0561915298969556
0.5471465936152,-0.0418616950866299
0.552065120524936,-0.0273146774408452
0.556533117858229,-0.0125641657649949
0.560542638227945,0.00237583890228343
0.564086170916077,0.0174910365519325
0.567156652828199,0.0327668418739478
0.569747479018385,0.0481883983204479
0.571852512770676,0.0637405925487947
0.573466095223588,0.0794080692307287
0.574583054524598,0.0951752462130098
0.575198714502038,0.111026330014594
0.575308902842252,0.126945331644939
0.574909958760426,0.142916082727592
0.573998740153953,0.158922251912799
0.572572630227765,0.174947361562505
0.570629543581565,0.190974804690686
0.56816793174947,0.206987862141636
0.565186788183115,0.222969719988467
0.561685652669875,0.238903487133757
0.557664615178409,0.254772213093961
0.553124319124368,0.270558905948943
0.548065964049689,0.28624655043768
0.542491307709537,0.30181812618097
0.536402667561567,0.317256626011724
0.529802921652825,0.332545074393236
0.52269550890025,0.347666545905617
0.515084428761394,0.362604183780422
0.506974240292617,0.377341218463359
0.498370060592704,0.391860986184837
0.489277562630505,0.406146947518012
0.479702972455858,0.420182705903907
0.469653065793774,0.433952026123141
0.45913516402249,0.447438852693736
0.448157129536713,0.460627328174501
0.436727360498057,0.473501811353454
0.424854784975338,0.486046895300826
0.4125488544781,0.498247425266209
0.399819536887414,0.510088516399497
0.386677308788669,0.521555571275397
0.37313314721177,0.532634297201366
0.359198520784808,0.543310723289016
0.344885380307967,0.553571217269182
0.330206148755064,0.563402502031027
0.31517371071083,0.572791671865812
0.29980140125262,0.581726208396142
0.28410299428598,0.59019399617181
0.268092690344058,0.598183337913594
0.251785103861516,0.605682969386712
0.235195249934236,0.612682073885911
0.218338530576687,0.619170296314559
0.201230720489447,0.625137756840441
0.183887952349978,0.630575064111365
0.166326701640283,0.635473328014069
0.148563771025707,0.639824171960375
0.130616274299633,0.643619744684948
0.112501619909404,0.646852731539512
0.094237494079321,0.64951636526883
0.0758418435470538,0.651604436254274
0.0573328579303301,0.653111302211325
0.0387289517412071,0.654031897327863
0.0200487460657281,0.654361740830694
0.00131104992717658,0.654096944968269
-0.017465158648413,0.653234222398207
-0.0362607518454352,0.651770892968759
-0.0550564715311401,0.649704889884015
-0.0738329489674934,0.647034765243257
-0.0925707247423196,0.643759694945491
-0.111250268899239,0.639879482950874
-0.129852001245615,0.635394564891374
-0.14835631181743,0.630306011023706
-0.166743581479777,0.624615528518255
-0.184994202641364,0.618325463078385
-0.203088600061272,0.611438799885256
-0.221007251725954,0.603959163863954
-0.238730709774335,0.595890819267485
-0.256239621448709,0.587238668575867
-0.273514750048993,0.578008250708343
-0.290536995867824,0.568205738547406
-0.307287417083885,0.557837935774121
-0.323747250590808,0.546912273014938
-0.339897932738964,0.535436803300951
-0.355721119967469,0.523420196841302
-0.371198709303716,0.510871735113165
-0.386312858707837,0.497801304271524
-0.401046007239533,0.484219387882662
-0.415380895024827,0.47013705898608
-0.429300583000401,0.455565971490248
-0.442788472413335,0.440518350908388
-0.455828324054232,0.425006984441188
-0.468404277201902,0.409045210414099
-0.480500868257996,0.392646907077585
-0.492103049050241,0.375826480779426
-0.503196204783165,0.358598853518874
-0.51376617161552,0.340979449893194
-0.523799253843904,0.322984183447791
-0.533282240672433,0.304629442441827
-0.542202422548669,0.285932075041922
-0.550547607046394,0.26690937395717
-0.55830613427623,0.247579060529395
-0.565466891805525,0.227959268293169
-0.572019329069386,0.208068526020801
-0.577953471255192,0.187925740268072
-0.583259932643438,0.167550177437111
-0.587929929388249,0.146961445373402
-0.591955291721451,0.126179474514479
-0.595328475564621,0.105224498608399
-0.598042573534135,0.0841170350206464
-0.600091325324784,0.0628778646486325
-0.601469127458181,0.0415280114634295
-0.602171042382752,0.020088721698908
-0.602192806912794,-0.00141855729115162
-0.601530839994707,-0.0229721984869122
-0.600182249789188,-0.0445504169458481
-0.598144840058865,-0.066131291813776
-0.595417115851543,-0.087692788581305
-0.591998288469948,-0.109212781563131
-0.58788827971958,-0.130669076577254
-0.583087725427033,-0.152039433800902
-0.577597978221865,-0.173301590779646
-0.57142110957589,-0.194433285565958
-0.564559911094506,-0.21541227996319
-0.557017895055457,-0.236216382850795
-0.548799294191232,-0.256823473566365
-0.539909060712052,-0.27721152531996
-0.53035286456724,-0.29735862861603
-0.520137090943542,-0.31724301465814
-0.509268836999783,-0.33684307871162
-0.497755907838057,-0.35613740339922
-0.485606811712464,-0.375104781904803
-0.472830754477212,-0.393724241060122
-0.459437633276733,-0.411975064289746
-0.445438029481273,-0.42983681438925
-0.430843200872234,-0.447289356111867
-0.415665073082355,-0.464312878538894
-0.399916230296648,-0.480887917209304
-0.383609905220787,-0.496995375984125
-0.366759968324491,-0.512616548621395
-0.349380916368202,-0.527733140037653
-0.331487860222184,-0.542327287232212
-0.313096511987938,-0.556381579850692
-0.294223171432624,-0.569879080364605
-0.274884711747929,-0.582803343844072
-0.255098564645612,-0.595138437301143
-0.234882704802677,-0.606868958581486
-0.214255633669896,-0.617980054782677
-0.193236362658109,-0.628457440177698
-0.171844395717454,-0.638287413622682
-0.15009971132539,-0.64745687542846
-0.128022743900038,-0.655953343675891
-0.105634364656078,-0.663764969955515
-0.0829558619210649,-0.670880554512576
-0.0600089209306706,-0.677289560779036
-0.0368156031220097,-0.682982129274765
-0.0133983249447625,-0.6879490908607
0.0102201637895453,-0.692181979327379
0.0340168019992295,-0.695673043302902
0.057968239843653,-0.698415257465027
0.0820508616319799,-0.700402333042777
0.106240809107006,-0.70162872759365
0.130514005081111,-0.702089654043213
0.154846177400912,-0.701781088974606
0.179212883216776,-0.70069978015622
0.203589533532909,-0.698843253296577
0.227951418013392,-0.696209818016206
0.252273730019119,-0.692798573027111
0.276531591850304,-0.688609410511213
0.300700080168869,-0.68364301968997
0.324754251574773,-0.677900889578197
0.348669168310045,-0.671385310915959
0.372419924064095,-0.664099377273211
0.395981669853628,-0.656046985322774
0.419329639950323,-0.64723283427804
0.44243917782931,-0.637662424492697
0.465285762111307,-0.627342055220621
0.487845032471244,-0.616278821534984
0.510092815486068,-0.604480610406469
0.532005150394448,-0.591956095941418
0.553558314741043,-0.578714733781577
0.574728849878051,-0.564766754668031
0.595493586296767,-0.550123157172783
0.615829668762001,-0.534795699602339
0.635714581222273,-0.518796891078532
0.655126171468868,-0.50213998180272
0.67404267551697,-0.484838952510353
0.692442741682317,-0.46690850312381
0.710305454327027,-0.448364040612239
0.727610357248477,-0.429221666068042
0.744337476685443,-0.409498161010475
0.760467343915961,-0.389210972927696
0.775981017421747,-0.368378200069418
0.79086010459436,-0.347018575503208
0.805086782958681,-0.325151450448198
0.818643820889696,-0.302796776900892
0.831514597799027,-0.279975089568473
0.843683123768124,-0.256707487125821
0.855134058605509,-0.233015612813223
0.865852730306004,-0.208921634392513
0.875825152890428,-0.184448223480106
0.88503804360479,-0.15961853427611
0.893478839458627,-0.134456181709426
0.901135713082758,-0.108985219019385
0.907997587887333,-0.0832301147951847
0.914054152501765,-0.0572157294949976
0.919295874478786,-0.0309672914672613
0.923714013245591,-0.00451037249726252
0.927300632285749,0.0221291370973001
0.930048610536332,0.0489250537975176
0.931951652985435,0.0758509266164798
0.933004300456099,0.102880063209173
0.933201938563397,0.129985556333317
0.932540805832301,0.157140310634905
0.931018000964762,0.184317069731766
0.928631489245285,0.211488443568115
0.925380108075151,0.238626936012598
0.921263571626303,0.265704972672068
0.916282474606817,0.292694928892948
0.910438295130762,0.31956915792176
0.903733396686178,0.346300019196145
0.896171029195804,0.372859906737461
0.887755329166138,0.399221277615772
0.878491318921328,0.425356680458022
0.868384904919357,0.451238783969816
0.857442875148897,0.476840405441337
0.845672895606211,0.502134539207699
0.833083505852405,0.527094385033988
0.819684113652291,0.551693376395328
0.805484988697122,0.575905208622154
0.790497255414354,0.59970386688107
0.774732884868646,0.623063653961599
0.758204685759174,0.645959217839354
0.740926294519376,0.66836557898619
0.722912164526142,0.690258157398125
0.704177554426454,0.711612799311983
0.684738515590416,0.73240580358194
0.664611878700529,0.752613947687418
0.643815239488059,0.772214513344045
0.622366943628202,0.791185311689725
0.60028607080673,0.8095047080182
0.577592417971638,0.827151646032892
0.554306481784299,0.84410567159415
0.530449440285401,0.860346955933571
0.506043133791934,0.875856318309408
0.48111004504224,0.890615248077662
0.455673278607034,0.904605926153956
0.429756539585167,0.917811245841784
0.403384111603579,0.930214833003398
0.376580834141854,0.941801065550107
0.349372079202387,0.95255509222947
0.321783727348086,0.962462850687448
0.29384214313009,0.971511084784331
0.265574149928896,0.979687361143888
0.237007004232757,0.986980084915989
0.208168369378069,0.993378514733634
0.179086288776992,0.998872776846133
0.149789158658177,1.00345387841098
0.12030570034714,1.00711371992777
0.0906649321132824,1.00984510679829
0.0608961406111792,1.01164175999788
0.0310288519442296,1.012498325844
0.00109280237927166,1.01241038484868
-0.0288820912588295,1.01137445964267
-0.0588657614830729,1.00938802195989
-0.0888280203009165,1.0064494986717
-0.118738589601231,1.00255827686165
-0.148567131741112,0.997714707931936
-0.178283280301637,0.991920110734283
-0.207856670981359,0.985176773718561
-0.237256972596219,0.977487956093574
-0.266453918154138,0.968857887995522
-0.295417335972613,0.959291769660551
-0.324117180807235,0.948795769598899
-0.352523564959176,0.937377021769121
-0.380606789329412,0.925043621751955
-0.408337374387524,0.911804621924379
-0.435686091022854,0.897670025635478
-0.462623991245803,0.882650780386775
-0.489122438707152,0.866758770020698
-0.51515313900331,0.850006805921922
