0.928410347652483,0.122386882986223
0.927580902818402,0.136950086080053
0.924590637644564,0.151456039251151
0.919460261391166,0.165810433726869
0.912225217073543,0.179920733477498
0.902935399423814,0.193697170540569
0.891654756190093,0.207053713164093
0.878460776148826,0.219908997391509
0.863443868169706,0.232187213050115
0.84670663659872,0.243818935527241
0.828363059105102,0.25474189522067
0.808537573964596,0.264901677127165
0.787364084517328,0.274252343680241
0.764984889237034,0.282756974659638
0.741549546473346,0.290388118763863
0.71721368347484,0.297128152256703
0.69213775976296,0.302969540961296
0.666485795301643,0.307915002773452
0.640424074191371,0.311977568791109
0.614119834806995,0.31518054210092
0.587739957394452,0.317557354217192
0.561449660141643,0.319151320124212
0.535411214643383,0.320015293821651
0.509782691490383,0.320211227205562
0.484716746429416,0.319809636026071
0.460359457168801,0.318888977538798
0.436849220443389,0.317534945302445
0.414315718410581,0.315839687362138
0.392878962828338,0.313900954789823
0.37264842477324,0.311821188222567
0.353722256897597,0.309706550640868
0.336186614406117,0.307665915156402
0.320115080062029,0.305809817027255
0.305568197617542,0.304249379484284
0.292593117112173,0.303095223231471
0.281223354503294,0.302456369673309
0.271478667094814,0.302439148021375
0.263365045221093,0.303146116439508
0.256874819632901,0.304675007301884
0.251986883029302,0.307117706461618
0.248667023192727,0.310559276160612
0.246868364222754,0.315077030856465
0.246531911435736,0.320739674802421
0.247587194610586,0.327606509695368
0.249953003423395,0.335726720109238
0.253538208132555,0.345138743762181
0.258242657858429,0.355869732931307
0.263958148153565,0.367935112535174
0.270569448986651,0.381338239558522
0.28598994965803,0.412109519424296
0.294543469002818,0.429422469347946
0.303483761664575,0.447962836505986
0.312677327685031,0.467672288818221
0.321990529829212,0.488480656677939
0.331290765529497,0.510306354306361
0.340447617914101,0.533056905775845
0.349333975835125,0.556629571757438
0.357827113134295,0.580912072136511
0.365809717793673,0.60578339876883
0.379806905601058,0.656770312414011
0.385622322992536,0.682608683435874
0.390530450345546,0.708483590049225
0.394454143149347,0.734245230489005
0.397326341028817,0.759741427559856
0.39909053458186,0.78481885069813
0.39970113076756,0.809324258196744
0.397335202662972,0.856014013093046
0.394323896113494,0.877903570380831
0.384642560213333,0.918071054125045
0.378005003498159,0.936087934804
0.37020896701854,0.952566241552967
0.340339841728586,0.991733597433409
0.328424725563142,1.00107700490065
0.315651028864223,1.00844978208341
0.302101525074804,1.01380292434576
0.287864611354343,1.01710125231673
0.273033355451598,1.01832377840684
0.257704505131169,1.01746395850751
0.22595328340522,1.00954400898688
0.209733560630425,1.00254362293202
0.193419452834258,0.993580051406766
0.177110617172185,0.982718604299274
0.160904206576724,0.970038063341103
0.144893890863889,0.955630116048031
0.129168918118103,0.939598682914377
0.113813225212819,0.922059143272208
0.0989046058475666,0.903137466101096
0.0845139439290355,0.88296925289474
0.0707045194993016,0.861698700450588
0.0450408787037257,0.816463626842848
0.0332700970693834,0.792820195243347
0.0222466354755889,0.76871411369353
0.0119882952204667,0.744314826151741
-0.0141672074196627,0.67106231958614
-0.0278989318799546,0.623861108252196
-0.0337468836460146,0.601235900071787
-0.043652791296477,0.558687163998433
-0.0478332851515377,0.539040279212807
-0.0515924488712669,0.520647139869381
-0.0550083641996478,0.503621106097329
-0.0581644077039699,0.488063931604066
-0.0611483626518249,0.474065007794236
-0.0640514825158163,0.461700710397805
-0.06696751499259,0.451033853877229
-0.0699916958090679,0.442113257956428
-0.0732197218900965,0.434973429650392
-0.0767467136752908,0.429634363182185
-0.080666176496639,0.426101459162474
-0.0900423022247692,0.424403124563143
-0.0956687378923612,0.426176469331212
-0.102025264043083,0.429634191803224
-0.109182388548914,0.434711654044295
-0.117203300446263,0.4413315928372
-0.126143093625941,0.449404827241324
-0.136048062537857,0.458831060585841
-0.158891042218066,0.481291173815585
-0.1718724503215,0.494077273647468
-0.185905026969509,0.507722953111407
-0.200983478131234,0.522087132462495
-0.217091339308862,0.537023963756841
-0.271258955169026,0.583766272365724
-0.291097013206842,0.599483182897719
-0.333037221362346,0.630214719598541
-0.354968540747784,0.644936576066984
-0.377411948335261,0.659041606693756
-0.400260859482825,0.672396542395961
-0.493352466439184,0.715920719772959
-0.516416291745608,0.723809314842179
-0.539131819645754,0.730329780101837
-0.582978590845922,0.739015518659524
-0.603842211081208,0.741085893886182
-0.623824636559177,0.74159883144492
-0.642799400915486,0.740538289882594
-0.660645047632644,0.737900841247997
-0.677246237432794,0.7336955270076
-0.692494813206795,0.727943605728252
-0.706290812784809,0.720678195515332
-0.718543420272559,0.7119438151197
-0.729171847180077,0.701795828513784
-0.73810613515181,0.690299798578583
-0.745287872763455,0.677530756331629
-0.75067081957605,0.663572392854334
-0.754221431425398,0.64851618173898
-0.755919281768077,0.632460440465375
-0.755757374796486,0.61550933962951
-0.749894554549732,0.579360772740294
-0.736850417307527,0.540980885015544
-0.717058263023772,0.501305021812231
-0.704823777833911,0.481271559347514
-0.691157180104627,0.461258368328597
-0.676167699866143,0.441373928275531
-0.659974925793844,0.421721953071544
-0.62450426747921,0.38350099220306
-0.605509002705505,0.365107685683622
-0.585873530840366,0.34729671521841
-0.565754443769678,0.330135597905096
-0.483686261772818,0.269010366140052
-0.463592544374407,0.255776874304636
-0.358725892337258,0.19380062787661
-0.345182550285928,0.186125372987
-0.333089113820221,0.179083235282023
-0.322544056715698,0.172609653479364
-0.313633573342858,0.166633663265483
-0.29737329342568,0.150903449593495
-0.295595088498133,0.146110402767928
-0.295677396358343,0.141394988614563
-0.30141499643521,0.131836160578245
-0.307028969857057,0.126813941185055
-0.323534758505429,0.115852385958119
-0.334299316592858,0.109750764872231
-0.346631153125437,0.103134971893328
-0.375600297708172,0.088095806700969
-0.392010988849526,0.0795575644506706
-0.443621708090613,0.0881290568298911
-0.466004629025615,0.083022279840777
-0.439589049054478,0.0106991643645684
-0.485262709912549,-0.00150898947388339
-0.534330942009311,0.0151158578864776
-0.614029390222701,-0.0682944278560047
-0.681848876124293,-0.0601698782217454
-0.695476068655617,-0.152253691628779
-0.791116645042774,-0.300039678285899
-0.764820335308192,-0.275736634221034
-0.778558808117772,-0.326261040519347
-0.736330943141299,-0.374421049229535
-0.753339183861898,-0.361478220712833
-0.731818188400003,-0.410105776794098
-0.726175062694762,-0.418489718882328
-0.674979994436137,-0.397250375881026
-0.565385139799247,-0.484355290732325
-0.573919065593601,-0.47455076450953
-0.59907745287062,-0.442096211342721
-0.536525482572163,-0.428245456036777
-0.455893877379361,-0.44471786284968
-0.349583336659037,-0.328168612797496
-0.309609818644397,-0.340978256700262
-0.307004543018129,-0.311858589631092
-0.304142519796074,-0.323737479491138
-0.26710639295324,-0.281765233023316
-0.199552890370334,-0.310133282281157
-0.230864156064674,-0.252020179731093
-0.188236070145863,-0.251853189362378
-0.183647511450379,-0.206585165590167
-0.136913449829784,-0.167628466426459
-0.105647000250039,-0.145477798281812
-0.121280898481822,-0.162949124877895
-0.0805417858290869,-0.162300994491512
-0.0392781836210794,-0.180075863648696
-0.0682797148815501,-0.282061798736088
-0.0291912159997042,-0.280886555385087
0.00799379874027428,-0.41945395045873
0.0477782532965294,-0.621206451808161
0.163462986320058,-0.722624765784893
0.159747750176797,-0.777134923043764
0.244422563882727,-0.788845848529826
0.321724597225801,-0.71504525946851
0.313181962765817,-0.723502549151762
0.385298807660654,-0.620800528540459
0.363326716790663,-0.634600222020325
0.368282095008825,-0.614030215701467
0.405725378388609,-0.489276215330695
0.370403632150465,-0.444581052096235
0.366401515914056,-0.418550616602505
0.301002128721991,-0.201199411805867
0.292502013139531,-0.181181115132434
0.275333268876256,-0.0349864099015764
0.347534979231306,-0.0447623494598277
0.386521449361006,-0.0503207478206154
0.528753487024459,-0.0614056660145279
0.859651467736673,0.0149207377531822
0.923578465585484,0.0934687408226948
0.928410347652483,0.122386882986223
