0.268455993319139,0.132953763423169
0.260281075197051,0.188692003978181
0.283966188787368,0.154342394196451
0.280978192331419,0.220248206418136
0.272499131416129,0.211675974259142
0.223013792652502,0.197928440484303
0.239684735555046,0.231246487734252
0.226399014918464,0.238562182086257
0.18061241124121,0.221674294839562
0.229065721635937,0.241771305881558
0.168257452738155,0.259292221213767
0.159119671941987,0.246703700366963
0.155414272059288,0.202335464198463
0.102073863116357,0.259816601921422
0.0887299536069667,0.195740462236984
0.0527966866291825,0.22731077613547
0.070656170037704,0.195080401039629
0.0567392809248547,0.176241215634519
0.0558822595393629,0.184645184783031
0.0361996577886883,0.131439733199679
0.0386974306483499,0.0867547079586668
0.034010345994529,0.0956769446535422
0.0290394104625197,0.051719485862598
0.0340436845322549,0.0235964504765653
0.0539766878053648,0.0302600769674033
0.081495748804509,-0.00308244127545339
0.0729373745811285,-0.0579557206215435
0.107313317312126,-0.0809274289569793
0.108661775207225,-0.0785747900514788
0.138987957098248,-0.120988251930221
0.146738541981241,-0.0979303309349982
0.187046976291371,-0.126715013491909
0.252445512754421,-0.161139137458241
0.276404998001086,-0.157903302074656
0.303031215714971,-0.162557769976213
0.377304394375208,-0.172738667031742
0.400101006385081,-0.126368318706086
0.420656108973826,-0.102113807035838
0.483222046615729,-0.0962149833184864
0.470757793810354,-0.0701888709764168
0.531049473899364,-0.0395658043981951
0.55672928028816,-0.0242887169062258
0.578640062008791,0.0173213652065125
0.587754284011589,0.0765038774194451
0.58954884113944,0.130243358896063
0.607666224028595,0.173486090664999
0.606166032663163,0.240128960654403
0.622726965926055,0.246234091950251
0.62152031258201,0.322667048658085
0.572369875476093,0.358450335153682
0.524557675883069,0.402734746836447
0.495428672171496,0.427045098580678
0.476879882595072,0.469179289455197
0.418443802951728,0.521968898381981
0.352490562758812,0.5278096485668
0.346680155230498,0.57928787629907
0.266381762044762,0.583950132155886
0.18166192039619,0.577133065904812
0.118450645046995,0.573965255001245
0.0969524131964269,0.575957879326163
0.02554445386424,0.568009910770587
-0.0514512860254475,0.535439341693446
-0.105854262037843,0.498557286499053
-0.18011305230821,0.468759958171307
-0.183985583567256,0.430710635839343
-0.176658651369418,0.367278535063641
-0.259370614745511,0.322862964042101
-0.280336521854395,0.263090484251119
-0.30637308471854,0.196181595820224
-0.334639876469526,0.111726786964216
-0.320307055424526,0.058225342727854
-0.28190117594528,-0.0410172454192112
-0.31861861416901,-0.108062107690447
-0.278091536268687,-0.155954935742676
-0.231484301526348,-0.229971398969709
-0.231174456154109,-0.296463149748769
-0.157091358775873,-0.326069977061041
-0.0873592260519259,-0.37265365007637
-0.00766614349897816,-0.445566158483508
0.042072175305107,-0.461615804679387
0.108284996043387,-0.484635389130197
0.19434228080586,-0.504276792481862
0.274622048281258,-0.510960956422865
0.378175750467708,-0.538469731942873
0.437123896585885,-0.493396190449352
0.509440634748726,-0.484758769002815
0.598387391799138,-0.438965308858885
0.665723947506548,-0.38981176364403
0.7325990698997,-0.335924560698253
0.789921025053118,-0.291654113204062
0.845010186114797,-0.203002144556506
0.888401087331997,-0.125813581074208
0.922018369514948,-0.0429353014151005
0.942350000740467,0.0271738498988054
0.95710680522331,0.134808298059085
0.946049132287189,0.250882234529953
0.931003777363671,0.311363865812815
0.923227427778777,0.410211694155635
0.888518331369011,0.498393726320493
0.842519621698328,0.582263337677132
