-0.489214419016415,0.874915824915825
-0.489152987493951,0.866461890948256
-0.488410997676818,0.857944424134853
-0.487244353090999,0.849387314095934
-0.485748272681133,0.84079944990181
-0.483979694571652,0.832186146954715
-0.48197826634564,0.823551106515517
-0.479773970585791,0.81489712757854
-0.477390699664461,0.806226440592552
-0.47484819562869,0.797540888556809
-0.472163210337822,0.788842035324555
-0.469350249509202,0.780131235062673
-0.466422075846046,0.771409679220685
-0.463390063701056,0.762678429640027
-0.460264457623471,0.753938442690452
-0.45705456613462,0.745190587359752
-0.453768910378707,0.736435659130908
-0.450415340441279,0.727674390840885
-0.447001127938168,0.71890746132418
-0.443533040822691,0.710135502396375
-0.440017404623566,0.70135910457094
-0.436460153160558,0.692578821793745
-0.432866870983462,0.683795175404907
-0.429242829217138,0.67500865748507
-0.42559301609248,0.666219733705589
-0.42192216315,0.657428845774746
-0.418234767886,0.648636413551854
-0.414535113448921,0.639842836885996
-0.410827285870208,0.631048497224592
-0.40711518921942,0.622253759028192
-0.403402558999873,0.613458971021008
-0.399692974043573,0.604664467301359
-0.395989867118682,0.59587056833192
-0.392296534426476,0.587077581826296
-0.388616144135564,0.578285803545732
-0.384951744077526,0.569495518017527
-0.381306268708866,0.560706999184963
-0.377682545428358,0.551920510997053
-0.374083300325807,0.543136307945213
-0.370511163427449,0.534354635552938
-0.366968673494114,0.525575730823732
-0.363458282420723,0.516799822651817
-0.359982359279278,0.508027132199565
-0.3565431940421,0.499257873245075
-0.353143001017418,0.490492252502899
-0.349783922025542,0.481730469920552
-0.346468029340402,0.472972718953116
-0.343197328418403,0.464219186817987
-0.33997376043397,0.455470054731581
-0.336799204639035,0.446725498129604
-0.333675480561802,0.437985686872308
-0.330604350058469,0.429250785436035
-0.327587519230178,0.420520953092168
-0.324626640216155,0.411796344074529
-0.321723312872926,0.40307710773614
-0.318879086348495,0.394363388696178
-0.316095460559501,0.385655326977878
-0.313373887578609,0.376953058138044
-0.310715772938707,0.368256713388809
-0.308122476859868,0.35956641971217
-0.305595315404484,0.35088229996783
-0.303135561565522,0.342204472994785
-0.300744446292378,0.3335330537071
-0.298423159458442,0.324868153184225
-0.296172850774137,0.316209878756239
-0.293994630648842,0.307558334084311
-0.291889571004873,0.298913619236687
-0.289858706046392,0.290275830760472
-0.287903032985918,0.281645061749455
-0.286023512730854,0.273021401908194
-0.284221070532306,0.26440493761259
-0.282496596598242,0.255795751967128
-0.2808509466729,0.247193924858962
-0.279284942584226,0.238599533009028
-0.277799372760937,0.230012650020308
-0.276394992720731,0.221433346423407
-0.275072525531018,0.21286168971957
-0.273832662243467,0.204297744421239
-0.272676062303534,0.195741572090294
-0.271603353936083,0.187193231374043
-0.270615134508102,0.17865277803909
-0.26971197086945,0.170120265003144
-0.268894399672506,0.161595742364856
-0.268162927671501,0.153079257431764
-0.267518032002283,0.144570854746415
-0.266960160443185,0.13607057611071
-0.26648973165762,0.127578460608559
-0.266107135418963,0.119094544626868
-0.265812732818267,0.110618861874936
-0.265606856455261,0.102151443402281
-0.26548981061309,0.0936923176149549
-0.265461871417168,0.0852415102903721
-0.265523286978517,0.0767990445906915
-0.265674277521896,0.0683649410747775
-0.265915035499007,0.0599392177087683
-0.266245725687021,0.0515218898752734
-0.266666485272646,0.043112970381222
-0.2671774239219,0.0347124694643771
-0.267778623835762,0.0263203947985293
-0.268470139791803,0.0179367514973847
-0.269251999171889,0.00956154211715029
-0.27012420197602,0.00119476665782597
-0.27108672082233,-0.00716357743679534
-0.272139500933249,-0.0155134952804193
-0.273282460107797,-0.023854994546837
-0.274515488679954,-0.0321880854738112
-0.275838449463016,-0.0405127808682709
-0.277251177679809,-0.048829096112826
-0.278753480878632,-0.0571370491736143
-0.280345138834727,-0.0654366606095006
-0.28202590343707,-0.0737279535826434
-0.283795498560248,-0.0820109538704574
-0.285653619921117,-0.0902856898789944
-0.287599934919946,-0.0985521926577728
-0.289634082465684,-0.10681049591609
-0.291755672784953,-0.115060636040855
-0.293964287214344,-0.123302652115974
-0.296259477975521,-0.131536585943352
-0.298640767932638,-0.139762482065532
-0.301107650331461,-0.147980387790055
-0.303659588519615,-0.156190353215572
-0.306296015647238,-0.16439243125979
-0.309016334347343,-0.172586677689313
-0.311819916395067,-0.180773151151452
-0.314706102344952,-0.188951913208083
-0.317674201145331,-0.197123028371652
-0.320723489728792,-0.205286564143401
-0.323853212577638,-0.213442591053935
-0.327062581263152,-0.221591182706239
-0.330350773957389,-0.229732415821245
-0.333716934916109,-0.237866370286111
-0.337160173931345,-0.245993129205319
-0.340679565751992,-0.25411277895477
-0.344274149470644,-0.262225409239025
-0.347942927874786,-0.27033111315187
-0.351684866760254,-0.278429987240411
-0.355498894204731,-0.286522131572894
-0.359383899798839,-0.294607649810488
-0.363338733832156,-0.302686649283271
-0.36736220643129,-0.310759241070696
-0.371453086646845,-0.318825540086825
-0.375610101485857,-0.326885665170655
-0.379831934885931,-0.334939739181889
-0.384117226626996,-0.342987889102524
-0.388464571176162,-0.351030246144692
-0.392872516460765,-0.3590669458652
-0.397339562564166,-0.36709812828728
-0.401864160338362,-0.375123938030109
-0.406444709926825,-0.383144524446711
-0.41107955919033,-0.391160041770908
-0.415767002027736,-0.399170649274081
-0.420505276582843,-0.407176511432572
-0.425292563327449,-0.415177798106636
-0.43012698300962,-0.423174684731976
-0.435006594454932,-0.431167352525009
-0.439929392206981,-0.439155988703131
-0.444893303991834,-0.447140786721424
-0.449896187989185,-0.455121946527403
-0.454935829890802,-0.46309967483562
-0.460009939724366,-0.471074185424174
-0.465116148417873,-0.479045699455437
-0.470252004076402,-0.487014445823631
-0.475414967939126,-0.49498066153226
-0.480602409979807,-0.502944592104819
-0.485811604108638,-0.510906492032725
-0.491039722926849,-0.518866625264988
-0.496283831977934,-0.526825265744893
-0.501540883430312,-0.534782697999738
-0.506807709115375,-0.542739217790768
-0.512081012831847,-0.550695132831588
-0.517357361811567,-0.558650763584873
-0.522633177222527,-0.566606444148942
-0.527904723561412,-0.574562523248007
-0.533168096758664,-0.582519365342618
-0.538419210782835,-0.590477351880195
-0.543653782485488,-0.598436882709821
-0.548867314370318,-0.606398377690809
-0.554055074896815,-0.614362278531441
-0.559212075834083,-0.622329050903072
-0.564333046057263,-0.630299186886346
-0.56941240101656,-0.63827320782138
-0.574444206892209,-0.646251667654044
-0.579422138155493,-0.654235156897808
-0.584339426853093,-0.662224307368254
-0.589188801369179,-0.67021979789988
-0.593962411618202,-0.678222361329648
-0.598651736455959,-0.686232793140542
-0.603247467361121,-0.694251962320353
-0.60773935978445,-0.702280825238835
-0.612116039373242,-0.710320443737421
-0.616364743424282,-0.718372009265636
-0.620470966220226,-0.726436875990362
-0.624417955901728,-0.734516607764843
-0.628185970421749,-0.742613047588335
-0.631751117407934,-0.750728425909607
-0.635083414277587,-0.758865541722981
-0.638143213447625,-0.767028096289325
-0.640873576793616,-0.775221405010876
-0.643179285370921,-0.783454356957942
-0.644804435653558,-0.791750841750842
-0.489214419016415,0.874915824915825
-0.490839569299051,0.866619340122925
-0.493145277876356,0.858386388175859
-0.495875641222347,0.850193079454308
-0.498935440392385,0.842030524887964
-0.502267737262039,0.83389340907459
-0.505832884248223,0.825778030753318
-0.509600898768244,0.817681590929826
-0.513547888449747,0.809601859155345
-0.51765411124569,0.801536992430619
-0.52190281529673,0.793485426902404
-0.526279494885523,0.785445808403818
-0.530771387308851,0.777416945485337
-0.535367118214013,0.769397776305525
-0.540056443051771,0.761387344494632
-0.544830053300793,0.753384781064863
-0.549679427816879,0.745389290533237
-0.554596716514479,0.737400140062791
-0.559574647777763,0.729416650819027
-0.564606453653412,0.721438190986363
-0.569685808612709,0.713464170051329
-0.574806778835889,0.705494034068055
-0.579963779773157,0.697527261696424
-0.585151540299654,0.689563360855793
-0.590365072184485,0.681601865874804
-0.595599643887137,0.673642335045179
-0.600850757911309,0.665684348507601
-0.60611413110856,0.65772750641299
-0.611385677447445,0.649771427313925
-0.616661492858406,0.641815746749857
-0.621937841838125,0.633860115996572
-0.627211145554598,0.625904200955751
-0.632477971239661,0.617947681164722
-0.637735022692039,0.609990248909876
-0.642979131743123,0.602031608429972
-0.648207250561334,0.594071475197708
-0.653416444690165,0.586109575269802
-0.658603886730847,0.578145644697243
-0.66376685059357,0.570179428988614
-0.6689027062521,0.56221068262042
-0.674008914945607,0.554239168589158
-0.679083024779171,0.546264658000604
-0.684122666680787,0.538286929692386
-0.689125550678138,0.530305769886407
-0.694089462462992,0.522320971868114
-0.699012260215041,0.514332335689992
-0.703891871660352,0.506339667896959
-0.708726291342524,0.49834278127162
-0.71351357808713,0.490341494597556
-0.718251852642237,0.482335632439064
-0.722939295479642,0.474325024935891
-0.727574144743147,0.466309507611695
-0.73215469433161,0.458288921195093
-0.736679292105806,0.450263111452263
-0.741146338209207,0.442231929030183
-0.74555428349381,0.434195229309676
-0.749901628042977,0.426152872267507
-0.754186919784041,0.418104722346872
-0.758408753184115,0.410050648335638
-0.762565768023127,0.401990523251808
-0.766656648238683,0.393924224235679
-0.770680120837817,0.385851632448255
-0.774634954871134,0.377772632975471
-0.778519960465242,0.369687114737877
-0.782333987909719,0.361594970405394
-0.786075926795186,0.353496096316853
-0.789744705199328,0.345390392404008
-0.793339288917981,0.337277762119754
-0.796858680738628,0.329158112370302
-0.800301919753864,0.321031353451094
-0.803668080712583,0.312897398986229
-0.806956273406821,0.304756165871222
-0.810165642092334,0.296607574218919
-0.81329536494118,0.288451547308384
-0.816344653524642,0.280288011536635
-0.819312752325021,0.272116896373067
-0.822198938274906,0.263938134316435
-0.825002520322629,0.255751660854296
-0.827722839022734,0.247557414424773
-0.830359266150358,0.239355336380555
-0.832911204338511,0.231145370955039
-0.835378086737335,0.222927465230516
-0.837759376694451,0.214701569108335
-0.840054567455629,0.206467635280958
-0.842263181885019,0.198225619205838
-0.844384772204289,0.189975479081074
-0.846418919750027,0.181717175822756
-0.848365234748856,0.173450673043978
-0.850223356109724,0.165175937035441
-0.851992951232902,0.156892936747627
-0.853673715835246,0.148601643774484
-0.85526537379134,0.140302032338598
-0.856767676990163,0.131994079277809
-0.858180405206957,0.123677764033254
-0.859503365990018,0.115353068638794
-0.860736394562176,0.10701997771182
-0.861879353736724,0.0986784784454025
-0.862932133847642,0.0903285606017786
-0.863894652693952,0.0819702165071573
-0.864766855498083,0.073603441047833
-0.865548714878169,0.0652282316675985
-0.86624023083421,0.056844588366454
-0.866841430748073,0.0484525137006062
-0.867352369397327,0.0400520127837612
-0.867773128982951,0.0316430932897099
-0.868103819170966,0.023225765456215
-0.868344577148076,0.0148000420902057
-0.868495567691455,0.00636593857429173
-0.868556983252804,-0.00207652712538878
-0.868529044056882,-0.0105273344499716
-0.868411998214711,-0.0189864602372979
-0.868206121851706,-0.0274538787099528
-0.867911719251009,-0.0359295614618849
-0.867529123012353,-0.0444134774435754
-0.867058694226787,-0.0529055929457269
-0.866500822667689,-0.0614058715814315
-0.865855926998471,-0.069914274266781
-0.865124454997466,-0.0784307591998725
-0.864306883800522,-0.086955281838161
-0.863403720161871,-0.0954877948741071
-0.862415500733889,-0.104028248209059
-0.861342792366439,-0.11257658892531
-0.860186192426506,-0.121132761256256
-0.858946329138955,-0.129696706554587
-0.857623861949242,-0.138268363258424
-0.856219481909035,-0.146847666855324
-0.854733912085746,-0.155434549844045
-0.853167907997072,-0.164028941693979
-0.851522258071731,-0.172630768802144
-0.849797784137666,-0.181239954447607
-0.847995341939119,-0.189856418743211
-0.846115821684055,-0.198480078584472
-0.84416014862358,-0.207110847595489
-0.8421292836651,-0.215748636071704
-0.84002422402113,-0.224393350919328
-0.837846003895835,-0.233044895591256
-0.83559569521153,-0.241703170019242
-0.833274408377595,-0.250368070542116
-0.83088329310445,-0.259039489829802
-0.828423539265488,-0.267717316802846
-0.825896377810105,-0.276401436547187
-0.823303081731265,-0.285091730223826
-0.820644967091364,-0.293788074973061
-0.817923394110471,-0.302490343812895
-0.815139768321477,-0.311198405531195
-0.812295541797046,-0.319912124571156
-0.809392214453817,-0.328631360909546
-0.806431335439794,-0.337355969927185
-0.803414504611503,-0.346085802271052
-0.80034337410817,-0.354820703707325
-0.797219650030937,-0.363560514964621
-0.794045094236002,-0.372305071566598
-0.790821526251569,-0.381054203653004
-0.78755082532957,-0.389807735788133
-0.78423493264443,-0.398565486755569
-0.780875853652554,-0.407327269337916
-0.777475660627873,-0.416092890080091
-0.774036495390694,-0.424862149034582
-0.77056057224925,-0.433634839486833
-0.767050181175858,-0.442410747658748
-0.763507691242523,-0.451189652387955
-0.759935554344166,-0.45997132478023
-0.756336309241615,-0.46875552783207
-0.752712585961106,-0.47754201601998
-0.749067110592447,-0.486330534852543
-0.745402710534409,-0.495120820380748
-0.741722320243496,-0.503912598661313
-0.73802898755129,-0.512705585166937
-0.734325880626399,-0.521499484136376
-0.730616295670099,-0.530293987856024
-0.726903665450552,-0.539088775863209
-0.723191568799764,-0.547883514059609
-0.719483741221051,-0.556677853721013
-0.715784086783972,-0.56547143038687
-0.712096691519973,-0.574263862609763
-0.708425838577493,-0.583054750540606
-0.704776025452834,-0.591843674320087
-0.70115198368651,-0.600630192239924
-0.697558701509414,-0.609413838628762
-0.694001450046406,-0.618194121405957
-0.690485813847281,-0.626970519231392
-0.687017726731805,-0.635742478159197
-0.683603514228693,-0.644509407675902
-0.680249944291266,-0.653270675965925
-0.676964288535352,-0.662025604194769
-0.673754397046502,-0.670773459525469
-0.670628790968916,-0.679513446475044
-0.667596778823927,-0.688244696055701
-0.66466860516077,-0.69696625189769
-0.66185564433215,-0.705677052159572
-0.659170659041283,-0.714375905391826
-0.656628155005511,-0.723061457427569
-0.654244884084181,-0.731732144413557
-0.652040588324333,-0.740386123350534
-0.65003916009832,-0.749021163789732
-0.648270581988839,-0.757634466736827
-0.646774501578973,-0.766222330930951
-0.645607856993154,-0.774779440969869
-0.644865867176022,-0.783296907783272
-0.644804435653558,-0.791750841750842
