0.859289988879909,-0.361429089666479
0.8587344085915,-0.361055791792004
0.857109543272031,-0.359879489998264
0.854484212177755,-0.357820410405392
0.850934731160911,-0.35480580978916
0.846544218770794,-0.350770647086289
0.841401842028177,-0.345658186395732
0.835602008604391,-0.339420526091145
0.829243512614365,-0.33201904931884
0.822428641646648,-0.323424791856791
0.815262252999105,-0.313618724047354
0.80785082736362,-0.302591944282863
0.800301508404197,-0.290345782312227
0.7927211367986,-0.276891811441021
0.785215287362965,-0.262251769510294
0.77788731785124,-0.24645738935299
0.770837437917027,-0.229550140234381
0.764161806545495,-0.211580882576911
0.75795166600892,-0.192609439043423
0.752292520073542,-0.172704085798791
0.747263363790539,-0.151940968482023
0.742935971743711,-0.130403448092512
0.73937425110485,-0.108181382619262
0.736633665269593,-0.0853703508151116
0.734760733216808,-0.0620708250340733
0.733792609058987,-0.0383873005042258
0.733756745535646,-0.0144273887972392
0.73467064445284,0.00969911642504839
0.736541696296167,0.0338811930592891
0.739367110449061,0.0580075551038036
0.743133936639835,0.0819676194984
0.74781917742699,0.105652466642477
0.753389990720132,0.128955786029463
0.759803980530524,0.151774798568419
0.767009573358164,0.174011147371625
0.774946476858257,0.195571749068252
0.783546216695835,0.216369598056373
0.792732746799729,0.236324516525407
0.802423127572202,0.255363843564807
0.812528266004269,0.273423057218238
0.822953711094371,0.290446323940627
0.833600497474645,0.306386970563081
0.844366029718888,0.32120787456195
0.855144999443295,0.334881769157071
0.865830327018442,0.347391460523995
0.876314119491301,0.358729955188995
0.886488636171414,0.368900496476864
0.896247253266843,0.377916509692787
0.905485418963907,0.385801456533732
0.914101590429869,0.39258860003448
0.921998144378877,0.398320682151525
0.9290822530772,0.403049516867335
0.935266717972013,0.406835502451079
0.940470753505888,0.409747057233077
0.944620714123438,0.411859983932494
0.947650757983208,0.413256768215132
0.949503441452447,0.41402581774486
0.950130239079747,0.414260648523013
0.949491984405207,0.414059025780286
0.947559227673895,0.413522067091061
0.944312507259496,0.412753315717024
0.939742532374765,0.411857792452531
0.933850275436607,0.410941034435853
0.926646973259513,0.410108129506729
0.918154037064235,0.409462754730312
0.90840287210195,0.409106227670389
0.89743460850033,0.409136578881006
0.885299745729796,0.409647653896275
0.872057713858717,0.410728252734985
0.857776355508492,0.412461314601917
0.842531333126786,0.414923155064555
0.826405466863286,0.418182762515704
0.809488008951346,0.42230116020363
0.791873861065176,0.427330839526381
0.773662741630868,0.43331526965117
0.754958310515859,0.440288487838794
0.73586725890162,0.448274774133058
0.716498372454787,0.457288413322556
0.696961576150129,0.467333546303548
0.677366969262276,0.478404112175139
0.657823859130811,0.490483881588492
0.638439802314134,0.503546581057724
0.619319661681561,0.517556107128633
0.600564687850822,0.532466828499754
0.582271633160909,0.548223973405597
0.564531906079868,0.564764098811256
0.547430773586402,0.582015637237706
0.531046618636067,0.599899516344547
0.515450259331428,0.618329845747803
0.500704335865009,0.637214664950576
0.486862770699225,0.656456745719095
0.473970306794118,0.675954441750962
0.462062127997387,0.69560257806043
0.451163564978226,0.715293372151175
0.441289889323299,0.734917378763405
0.432446197626655,0.754364449771746
0.424627386602551,0.773524700675136
0.417818219438054,0.79228947506105
0.411993482788391,0.810552298444394
0.407118233009306,0.82820981297609
0.403148129424603,0.845162684686951
0.400029851650608,0.861316475177362
0.397701597249345,0.876582469980361
0.396093655265641,0.89087845621214
0.395129050526328,0.904129442576248
0.394724252948491,0.916268315301996
0.394789945523672,0.927236424168896
0.395231844121507,0.936984093392632
0.395951561793962,0.94547105281819
0.39684750986429,0.952666785576622
0.397815827756676,0.958550789107016
0.398751333266082,0.963112747217981
0.399548484785451,0.966352611656429
0.400102346900675,0.968280592458638
0.400309550733713,0.968917057172138
0.400069240460994,0.968292339849838
0.399283997557568,0.966446461522594
0.397860734516117,0.963428764645969
0.395711550062199,0.95929746478426
0.392754538230571,0.954119123533046
0.388914544078937,0.947968047384037
0.384123859291538,0.940925617896503
0.378322851461111,0.933079559152301
0.371460521429411,0.92452314903084
0.363494983708188,0.915354381341413
0.35439386568866,0.905675086288594
0.344134622071973,0.895590017118003
0.332704761709366,0.885205911091313
0.32010198482214,0.874630533168294
0.306334229370927,0.863971710927832
0.291419626154224,0.853336369337932
0.275386363030311,0.842829573985946
0.258272459467331,0.832553591304697
0.240125453426236,0.82260697417846
0.221002003363318,0.813083681086264
0.200967408896255,0.804072236640681
0.180095054403102,0.795654941010915
0.158465780511217,0.787907135282826
0.136167189076306,0.780896529309411
0.113292887845099,0.774682598047734
0.0899416815332544,0.769316051767251
0.0662167165280502,0.764838384855371
0.0422245868391506,0.761281507244915
0.018074409266434,0.758667461750932
-0.00612312397155376,0.757008229837915
-0.0302567067038432,0.756305627549493
-0.0542153857975889,0.756551292528256
-0.0778895250532393,0.757726762240728
-0.101171757412212,0.759803642708743
-0.123957916989249,0.762743866241084
-0.14614794262155,0.766500035865122
-0.16764674488086,0.771015853384755
-0.188365028820612,0.776226627244802
-0.208220065125059,0.782059855670007
-0.227136402787591,0.788435879875212
-0.24504651696702,0.795268601518083
-0.261891386248811,0.802466257992584
-0.277620994167989,0.809932248645345
-0.292194750526034,0.817566004542689
-0.305581828749532,0.825263894027487
-0.317761416287286,0.832920155985671
-0.328722875818287,0.840427852494929
-0.338465815838547,0.847679832355114
-0.347000070003143,0.854569696902743
-0.354345585413739,0.860992759491481
-0.360532220854075,0.866846990076919
-0.365599456779199,0.872033936476741
-0.369596019651355,0.876459614085347
-0.37257942397951,0.880035356103316
-0.374615436153555,0.882678616694233
-0.375777464861838,0.884313719901219
-0.376145883535527,0.884872547639286
-0.375807290869632,0.884295160623015
-0.374853716022855,0.882530346687224
-0.373381775591872,0.879536091605907
-0.371491789885802,0.875279968206008
-0.369286866389636,0.869739440301334
-0.366871958598023,0.86290207873173
-0.364352908620471,0.854765687576574
-0.361835482103735,0.845338339412908
-0.359424404085622,0.834638319299787
-0.357222404386096,0.822693977984578
-0.355329281056393,0.80954349563664
-0.353840990245747,0.795234558211902
-0.35284877060955,0.779823949331142
-0.352438310074622,0.763377061308384
-0.352688962399314,0.745967329686951
-0.353673020521913,0.727675596323027
-0.355455053184159,0.708589406693878
-0.358091310752174,0.688802247694583
-0.361629205539718,0.668412732717915
-0.366106871274053,0.647523741282225
-0.371552805638574,0.626241520877557
-0.377985599085244,0.604674759037188
-0.385413752340176,0.582933633907343
-0.393835584234464,0.561128851779563
-0.403239230686496,0.539370680166441
-0.413602734848826,0.517767985041151
-0.424894227619313,0.496427280823951
-0.437072196910074,0.475451801585136
-0.45008584327594,0.454940601744499
-0.463875518733652,0.434987694284289
-0.478373244860805,0.415681234157845
-0.493503305556299,0.397102754172939
-0.509182909177878,0.379326460160659
-0.52532291415342,0.362418591711766
-0.541828611596306,0.346436854177497
-0.558600557946593,0.33142992699603
-0.57553545021338,0.317437052724893
-0.592527036013635,0.304487710439614
-0.609467050292245,0.29260137640628
-0.626246170369959,0.281787374157067
-0.642754980802295,0.272044815300261
-0.658884939444889,0.263362631586833
-0.674529336109874,0.255719697941511
-0.689584235263908,0.249085045354845
-0.703949394360718,0.243418161731059
-0.717529149618284,0.238669378001854
-0.730233261341104,0.234780336055691
-0.741977711248775,0.231684534302164
-0.752685444700148,0.229307945998534
-0.762287051193788,0.227569704816355
-0.770721377075979,0.226382851526297
-0.777936064992161,0.225655135134019
-0.783888015271099,0.225289861314185
-0.788543765127357,0.225186780567785
-0.79187978230068,0.22524300817352
-0.793882670514067,0.225353967720394
-0.794549284918824,0.225414349798256
-0.793886756497766,0.225319077287815
-0.791912425209791,0.224964268632771
-0.788653682473016,0.224248190494666
-0.784147724392313,0.223072191285796
-0.778441217933208,0.221341607246054
-0.771589883020575,0.218966632974526
-0.763657994290423,0.215863148643713
-0.754717806939768,0.21195349651068
-0.74484891179651,0.207167199791713
-0.734137525362586,0.201441617481236
-0.722675721163597,0.194722529267129
-0.710560609261633,0.186964645318201
-0.69789347125028,0.178132036389715
-0.684778858447869,0.16819848040373
-0.671323661333172,0.157147722406071
-0.657636158524221,0.144973645574519
-0.643825053783288,0.131680351746273
-0.629998509637769,0.117282150739886
-0.616263186236839,0.101803458560526
-0.602723294016902,0.0852786053901885
-0.58947966862558,0.0677515550693314
-0.576628876355352,0.0492755385659244
-0.564262358065656,0.0299126046952266
-0.552465619228858,0.00973309209179679
-0.541317473323904,-0.0111849728622734
-0.530889345325526,-0.0327565467883544
-0.521244641500643,-0.0548903027642882
-0.51243819113202,-0.0774894199428349
-0.504515765147531,-0.100452422297898
-0.497513675947192,-0.123674059022625
-0.491458461995746,-0.147046218731863
-0.486366659992288,-0.170458869319878
-0.482244666647121,-0.193801015095347
-0.479088691296548,-0.216961662661472
-0.476884799775922,-0.239830786931012
-0.475609049157072,-0.262300288664811
-0.475227712145598,-0.284264934997935
-0.475697589133579,-0.305623274569281
-0.476966405121242,-0.326278519097026
-0.478973287963944,-0.346139383541556
-0.481649323675277,-0.36512087736688
-0.484918183829607,-0.383145039847754
-0.488696819464131,-0.400141612868799
-0.49289621528719,-0.416048645219465
-0.497422197461571,-0.430813022999765
-0.502176287753477,-0.444390921410733
-0.50705659642418,-0.456748173904858
-0.511958745895666,-0.467860555408843
-0.516776816946975,-0.477713977097533
-0.521404308996871,-0.48630459098679
-0.525735105902732,-0.493638803417535
-0.529664438656274,-0.499733197315818
-0.533089836384294,-0.504614363927529
-0.535912057166904,-0.508318645533796
-0.538035990365644,-0.510891791447196
-0.539371522407981,-0.512388530362391
-0.539834358300568,-0.512872062880935
-0.53934679153852,-0.512413478741979
-0.537838415538212,-0.51109110396225
-0.535246770242674,-0.508989783713818
-0.531517918126901,-0.506200107341367
-0.526606944460081,-0.50281758243677
-0.520478377357403,-0.498941765343116
-0.5131065238695,-0.49467535584894
-0.504475719106556,-0.490123264152797
-0.494580486169799,-0.485391658425568
-0.483425605458686,-0.48058700147093
-0.471026092730447,-0.475815085081561
-0.457407086102589,-0.471180070709143
-0.442603643001156,-0.466783545009817
-0.426660448860825,-0.462723598693968
-0.409631440170107,-0.459093936901234
-0.391579345218922,-0.455983029040345
-0.372575146639926,-0.453473305681243
-0.35269747053255,-0.451640409667136
-0.332031907613583,-0.450552508130351
-0.310670272444453,-0.450269671552499
-0.288709807337679,-0.450843325411269
-0.266252338038424,-0.452315779308596
-0.243403388707242,-0.45471983778364
-0.220271264093086,-0.458078496285296
-0.196966107078311,-0.462404725019138
-0.173598939997048,-0.467701342599753
-0.150280698273035,-0.473960980638204
-0.127121264991452,-0.481166139583057
-0.104228515010966,-0.4892893353193
-0.0817073771370205,-0.498293335219762
-0.0596589227162679,-0.508131481545565
-0.0381794887762947,-0.518748099312878
-0.0173598435266341,-0.530078984989607
0.00271559834090748,-0.542051971664559
0.0219695035588212,-0.554587565649287
0.0403322849102437,-0.567599648835563
0.0577426966524812,-0.580996240544698
0.0741483554324674,-0.594680312074159
0.0895061820535911,-0.608550646676721
0.103782760159404,-0.622502737302033
0.116954608640889,-0.636429714093495
0.129008365343629,-0.650223293367807
0.139940880442482,-0.663774739612821
0.149759218657225,-0.676975831923111
0.158480570295794,-0.689719826252938
0.166132071925122,-0.701902404903557
0.17275053827573,-0.713422604775555
0.178382107778082,-0.724183716106226
0.183081804899211,-0.734094143675219
0.186913023190268,-0.743068222796356
0.189946933663006,-0.751026982816768
0.192261823779303,-0.75789885131267
0.193942372956779,-0.763620292699986
0.195078871059935,-0.768136375563026
0.195766386854771,-0.771401263640159
0.196103893851254,-0.773378626086372
0.196193361338085,-0.774041963352592
0.196138818724751,-0.773374845774285
0.196045401543899,-0.771371062740449
0.196018387630729,-0.76803468111167
0.196162232083674,-0.763380012365382
0.196579609621487,-0.757431488760541
0.197370472885907,-0.750223449625487
0.198631135096764,-0.74179983967433
0.200453385249167,-0.732213822041955
0.202923643752078,-0.721527309488301
0.206122166046813,-0.709810417952531
0.210122301315974,-0.697140847330236
0.214989812901842,-0.683603194995964
0.220782266502769,-0.6692882081932
0.227548491611458,-0.654291981959163
0.235328121005614,-0.638715109737572
0.244151212405163,-0.622661794254447
0.254037955677233,-0.606238926586427
0.264998468206915,-0.589555141634714
0.277032680265277,-0.57271985842813
0.290130311403297,-0.555842313814025
0.304270938088273,-0.539030598154648
0.319424151985325,-0.522390701628623
0.335549807477989,-0.506025579642449
0.352598356225693,-0.490034245686438
0.370511265779598,-0.474510899724483
0.389221518528211,-0.459544099890122
0.408654186527727,-0.44521598487479
0.428727077094892,-0.431601553942018
0.449351443409074,-0.418768010987054
0.470432753790052,-0.406774178490077
0.491871512794778,-0.395669986587503
0.513564126813865,-0.38549604181579
0.535403806451659,-0.376283279371258
0.557281497645526,-0.36805270198438
0.579086833223547,-0.360815207734279
0.600709096417444,-0.35457150833564
0.622038187740863,-0.34931213862314
0.642965586613036,-0.345017557144842
0.663385299154669,-0.341658336963228
0.6831947837062,-0.33919544495768
0.702295845817201,-0.337580607132757
0.72059549472802,-0.336756756669208
0.738006753708149,-0.336658560716571
0.754449417027391,-0.337213021223627
0.769850746811916,-0.338340144442512
0.784146103573404,-0.339953673129551
0.797279504791205,-0.341961874906556
0.809204106569042,-0.344268379745249
0.81988260407405,-0.346773059099214
0.829287547190282,-0.34937293883616
0.837401568575152,-0.351963137821752
0.844217522088563,-0.354437823777286
0.849738530363941,-0.356691177879424
0.85397794110085,-0.358618359492066
0.856959192472984,-0.360116462419271
0.858715588856046,-0.361085454143661
0.859289988879909,-0.361429089666479
