0.892852770125497,0.30837733680796
0.885057265932037,0.30213151531968
0.877631286330435,0.295337851094606
0.870435882685821,0.288202343955423
0.863419353708341,0.280801644216492
0.85655078354941,0.273181586508232
0.849808644652797,0.265374086745262
0.843176657293868,0.257403280611898
0.836641848566097,0.249288401233006
0.830193499076404,0.241045340762373
0.823822513022069,0.232687584282088
0.817521014194215,0.22422680875201
0.811282072793099,0.215673288022763
0.805099512855435,0.207036178336452
0.798967771870408,0.198323726454501
0.792881795564823,0.189543425645074
0.786836957189792,0.180702135345482
0.780828994362972,0.171806174797419
0.774853958795299,0.162861397580145
0.768908175672717,0.153873251829545
0.76298821040566,0.144846829534053
0.75709084109184,0.135786907360246
0.751213035473037,0.126697980815807
0.745351931472221,0.11758429310443
0.739504820616069,0.108449859702946
0.733669133807135,0.0992984894549538
0.727842429027598,0.0901338028007619
0.722022380644674,0.0809592476327582
0.716206770054737,0.0717781131660876
0.710393477454498,0.0625935421383647
0.704580474567541,0.0534085415930361
0.698765818185702,0.0442259924546839
0.692947644409494,0.0350486580679324
0.687124163491529,0.025879191842404
0.681293655202665,0.0167201441226828
0.675454464653481,0.0075739683832293
0.669604998514134,-0.00155697316731854
0.663743721584206,-0.0106704045007452
0.657869153671287,-0.0197641311415552
0.651979866742864,-0.0288360359444839
0.64607448232105,-0.0378840752320218
0.640151669093781,-0.0469062752528624
0.634210140719572,-0.0559007289273316
0.628248653805915,-0.0648655928502254
0.622266006043835,-0.073799084525186
0.616261034483321,-0.0826994798079213
0.610232613936151,-0.0915651105382881
0.604179655494196,-0.100394362343597
0.598101105152688,-0.109185672597518
0.591995942529083,-0.117937528520721
0.585863179669196,-0.126648465410889
0.579701859933164,-0.135317064991103
0.573511056954602,-0.143941953866716
0.567289873666972,-0.152521802081893
0.561037441391815,-0.161055321767857
0.554752918984018,-0.169541265875696
0.548435492029758,-0.177978426987261
0.542084372093181,-0.18636563619833
0.535698796008265,-0.194701762068747
0.529278025212611,-0.202985709634725
0.522821345120234,-0.211216419478975
0.516328064530675,-0.219392866854675
0.509797515071986,-0.227514060859662
0.503229050675369,-0.235579043657553
0.496622047079423,-0.243586889742762
0.489975901362141,-0.251536705246654
0.483290031498944,-0.259427627282303
0.476563875945177,-0.267258823325524
0.469796893241643,-0.275029490630045
0.462988561641829,-0.282738855674851
0.456138378759622,-0.290386173641899
0.449245861236377,-0.297970727922526
0.44231054442631,-0.305491829651032
0.435331982099263,-0.312948817264
0.428309746159947,-0.320341056084064
0.421243426382859,-0.327667937926906
0.414132630162116,-0.334928880730366
0.406976982275511,-0.342123328204647
0.399776124662148,-0.349250749502638
0.392529716213059,-0.356310638909499
0.385237432574265,-0.36330251555068
0.37789896596175,-0.370225923117613
0.370514024987912,-0.377080429610412
0.363082334499025,-0.383865627096903
0.355603635423337,-0.390581131487416
0.348077684629426,-0.397226582324797
0.340504254794477,-0.403801642589115
0.33288313428218,-0.410305998516632
0.325214127029942,-0.416739359432603
0.317497052445179,-0.423101457597515
0.309731745310446,-0.429392048066427
0.301918055697173,-0.435610908561096
0.294055848887841,-0.441757839354588
0.286145005306415,-0.447832663168137
0.278185420456868,-0.453835225080015
0.270177004869691,-0.459765392446219
0.262119684056244,-0.465623054832799
0.25401339847087,-0.471408123959686
0.245858103480678,-0.477120533655902
0.237653769342943,-0.48276023982604
0.229400381190057,-0.488327220427968
0.221097939022021,-0.493821475461685
0.212746457706442,-0.499243026969325
0.204345966986045,-0.504591919046293
0.19589651149372,-0.509868217863569
0.187398150775126,-0.515072011701221
0.178850959318902,-0.520203410993198
0.170255026594557,-0.525262548383504
0.161610457098117,-0.530249578793868
0.152917370405619,-0.535164679503054
0.144175901234581,-0.540008050237998
0.135386199513572,-0.544779913276942
0.126548430460039,-0.549480513564826
0.117662774666565,-0.554110118841164
0.108729428195742,-0.558669019780702
0.0997486026838823,-0.563157530147177
0.0907205254537994,-0.567575986960518
0.0816454396369151,-0.571924750677884
0.0725236043049816,-0.57620420538894
0.0633552946117248,-0.580414759025862
0.0541408019447483,-0.584556843588537
0.0448804340880656,-0.588630915385531
0.0355745153956579,-0.592637455291395
0.0262233869764914,-0.59657696902097
0.0168274068914628,-0.600449987421365
0.00738695036277907,-0.604257066782379
-0.00209759000367628,-0.607998789166171
-0.0116258039824006,-0.611675762757058
-0.0211972634781048,-0.615288622232408
-0.0308115222606303,-0.618838029155636
-0.0404681156841946,-0.622324672392444
-0.0501665603901525,-0.625749268551493
-0.0599063539923899,-0.629112562450828
-0.0696869747443942,-0.632415327611462
-0.0795078811869678,-0.635658366779668
-0.0893685117754576,-0.638842512479632
-0.0992682844852829,-0.641968627598279
-0.109206596394437,-0.645037606004243
-0.119182823241519,-0.648050373203111
-0.129196318957732,-0.651007887031267
-0.139246415171126,-0.653911138390872
-0.149332420681243,-0.65676115202875
-0.159453620902098,-0.659558987362189
-0.169609277271293,-0.662305739354975
-0.179798626622803,-0.665002539447266
-0.190020880520778,-0.667650556543282
-0.200275224551393,-0.670250998061173
-0.210560817569534,-0.672805111049852
-0.220876790896743,-0.675314183378094
-0.231222247466482,-0.677779545001736
-0.241596260912366,-0.680202569315424
-0.251997874594533,-0.682584674596077
-0.262426100558796,-0.68492732554601
-0.272879918422612,-0.687232034944557
-0.283358274181213,-0.689500365418046
-0.293860078926471,-0.691733931339166
-0.304384207470162,-0.693934400868061
-0.314929496862276,-0.696103498149023
-0.325494744793839,-0.698243005678409
-0.336078707872341,-0.700354766861424
-0.346680099756299,-0.702440688777741
-0.357297589133646,-0.704502745178668
-0.367929797526499,-0.706542979741714
-0.378575296902342,-0.708563509612143
-0.389232607068766,-0.71056652926545
-0.399900192825354,-0.712554314729852
-0.410576460842261,-0.714529228213987
-0.421259756230067,-0.716493723192314
-0.431948358759631,-0.718450350009418
-0.442640478683562,-0.720401762074921
-0.453334252102378,-0.722350722733448
-0.46402773580791,-0.72430011290958
-0.474718901523743,-0.726252939646765
-0.485405629446591,-0.728212345682617
-0.496085700972825,-0.730181620232281
-0.506756790469663,-0.732164211188144
-0.517416455919282,-0.734163738990516
-0.528062128224237,-0.736184012482994
-0.538691098911205,-0.738229047142411
-0.549300505903157,-0.740303086172459
-0.559887316941871,-0.742410625080822
-0.57044831012506,-0.744556440534078
-0.580980050863159,-0.746745624520659
-0.59147886434211,-0.748983625176452
-0.60194080227285,-0.751276296080716
-0.612361602273036,-0.753629956475144
-0.62273663759378,-0.756051465797049
-0.633060853961888,-0.758548317314593
-0.643328688866542,-0.761128757789201
-0.653533966344461,-0.763801943462979
-0.663669756595896,-0.76657814818655
-0.673728183411974,-0.769469048919772
-0.683700150989975,-0.772488130744735
-0.693574939936818,-0.775651285815227
-0.703339577345975,-0.778977747256112
-0.712977783492816,-0.782491650751708
-0.722468030821107,-0.786224912216632
-0.731779403482265,-0.790223366281305
-0.740860200186434,-0.794563663260087
-0.749571472298745,-0.799451802975662
0.892852770125497,0.30837733680796
0.884141498013186,0.303489197092384
0.875060701309017,0.299148900113603
0.86574932864786,0.29515044604893
0.856259081319568,0.291417184584006
0.846620875172728,0.28790328108841
0.83685623776357,0.284576819647525
0.826981448816728,0.281413664577033
0.817009481238727,0.27839458275207
0.806951054422649,0.275503682018848
0.796815264171213,0.272727477295277
0.786609986693295,0.270054291621499
0.77634215178864,0.267473851146891
0.766017935420533,0.264976999629347
0.755642900099789,0.262555490307441
0.745222100099603,0.260201829913013
0.734760162168863,0.25790915900875
0.724261348689911,0.255671158352957
0.713729607951813,0.253481974366376
0.703168614768624,0.25133615891312
0.692581803729909,0.249228620004756
0.681972396737958,0.247154580974709
0.67134342605099,0.245109546315292
0.660697753746035,0.243089272822813
0.650038088296415,0.241089745020442
0.639366998799577,0.239107154064578
0.628686927273344,0.237137879514915
0.618000199350496,0.235178473479063
0.607309033634662,0.233225646741878
0.59661554992913,0.231276256565746
0.585921776510315,0.229327295907219
0.575229656586383,0.227375883841716
0.56454105405682,0.225419257024611
0.553857758669013,0.223454762046284
0.543181490652106,0.22147984856215
0.532513904895519,0.219492063097748
0.521856594729095,0.21748904344444
0.511211095353251,0.215468513574012
0.500578886960399,0.213428279010966
0.489961397583051,0.211366222610039
0.479360005699093,0.209280300693722
0.468776042620591,0.207168539510707
0.458210794689029,0.20502903198132
0.447665505296914,0.202859934700359
0.437141376753224,0.200659465171464
0.426639572007966,0.198425899250344
0.416161216249365,0.196157568776855
0.405707398385549,0.193852859378308
0.395279172421286,0.191510208428374
0.384877558739119,0.189128103147721
0.374503545293235,0.186705078834034
0.364158088723495,0.184239717210392
0.353842115396286,0.18173064488215
0.343556522378145,0.179176531893471
0.333302178347531,0.17657609037558
0.323079924449556,0.173928073279563
0.312890575098045,0.171231273187272
0.302734918728851,0.168484521194487
0.292613718507995,0.165686685861048
0.282527712997878,0.16283667222317
0.272477616784484,0.159933420863565
0.262464121068272,0.156975907035409
0.252487894221189,0.153963139836541
0.242549582312035,0.150894161430577
0.23264980960221,0.14776804631193
0.22278917901372,0.144583900611966
0.212968272571147,0.14134086144376
0.203187651819142,0.138038096283125
0.193447858216905,0.134674802383791
0.183749413510947,0.131250206224742
0.174092820087383,0.127763562987934
0.164478561304857,0.124214156064705
0.154907101809153,0.120601296589356
0.145378887830429,0.116924322998468
0.135894347463973,0.113182600614677
0.12645389093529,0.109375521253663
0.117057910850261,0.105502502853268
0.107706782431095,0.101562989123693
0.098400863738687,0.0975564492178284
0.0891404958820043,0.0934823774208347
0.0799260032150278,0.0893402928581595
0.070757693521771,0.0851297392212377
0.0616358581898374,0.0808502845101813
0.0525607723729531,0.076501520792816
0.0435326951428702,0.0720830639794742
0.0345518696310105,0.0675945536129993
0.0256185231601872,0.0630356526734615
0.0167328673667132,0.0584060473971238
0.00789509831318072,0.0537054471092394
-0.000894603407828473,0.0489335840702953
-0.00963607257886641,0.0440902133353521
-0.0183291592713643,0.0391751126261655
-0.0269737287678044,0.034188082215802
-0.0355696614921492,0.0291289448254956
-0.0441168529483738,0.0239975455335184
-0.0526152136669681,0.0187937516958667
-0.0610646691592923,0.0135174528785906
-0.0694651598796891,0.00816856080162284
-0.0778166411952686,0.00274700929398305
-0.0861190833633044,-0.00274724573973417
-0.0943724715161901,-0.0083142263416619
-0.102576805653925,-0.0139539325118002
-0.110732100644117,-0.0196663422080159
-0.118838386229492,-0.0254514113349036
-0.126895707042939,-0.0313090737214833
-0.134904122630116,-0.037239241087687
-0.142863707479663,-0.0432418029995652
-0.150774551061089,-0.0493166268131143
-0.15863675787042,-0.0554635576066063
-0.166450447483694,-0.0616824181012752
-0.174215754618427,-0.0679730085701875
-0.181932829203189,-0.0743351067350988
-0.189601836455428,-0.08076846765107
-0.197222956967725,-0.0872728235785877
-0.204796386802673,-0.0938478838429053
-0.212322337596585,-0.100493334680286
-0.219801036672273,-0.1072088390708
-0.22723272716116,-0.11399403655729
-0.234617668134998,-0.120848543050089
-0.241956134747512,-0.127771950617023
-0.249248418386307,-0.134763827258203
-0.256494826835395,-0.141823716665065
-0.263695684448759,-0.148951137963055
-0.270851332335364,-0.156145585437336
-0.277962128556106,-0.163406528240796
-0.285028448333194,-0.170733410083638
-0.29205068427251,-0.178125648903702
-0.299029246599557,-0.185582636516671
-0.305964563409624,-0.193103738245176
-0.31285708093287,-0.200688292525804
-0.319707263815077,-0.208335610492851
-0.32651559541489,-0.216044975537657
-0.333282578118424,-0.223815642842178
-0.340008733672191,-0.2316468388854
-0.346694603535389,-0.239537760921049
-0.35334074925267,-0.24748757642494
-0.359947752848616,-0.255495422510149
-0.366516217245234,-0.26356040530804
-0.373046766703923,-0.271681599313027
-0.379540047293482,-0.279858046688727
-0.385996727385858,-0.288088756532978
-0.392417498181513,-0.296372704098955
-0.398803074266429,-0.304708829969372
-0.405154194203005,-0.313096039180442
-0.411471621157266,-0.321533200292006
-0.417756143565062,-0.330019144399845
-0.424008575840219,-0.33855266408581
-0.430229759127849,-0.347132512300986
-0.436420562106412,-0.355757401176599
-0.442581881842443,-0.364426000756813
-0.448714644702331,-0.373136937646981
-0.454819807325935,-0.381888793570184
-0.460898357667443,-0.390680103824105
-0.466951316109399,-0.399509355629414
-0.472979736656569,-0.408374986359781
-0.478984708217082,-0.417275381642516
-0.484967355979163,-0.426208873317477
-0.49092884289282,-0.435173737240371
-0.496870371267028,-0.44416819091484
-0.502793184494298,-0.45319039093568
-0.508698568916111,-0.462238430223218
-0.514587855844534,-0.471310335026147
-0.520462423757454,-0.480404061666957
-0.526323700687381,-0.489517493000384
-0.532173166826729,-0.498648434550932
-0.538012357375912,-0.507794610290385
-0.543842865664777,-0.516953658010106
-0.549666346582741,-0.526123124235635
-0.555484520358949,-0.535300458622386
-0.561299176740789,-0.544483007760738
-0.567112179627745,-0.553668008306067
-0.572925472227984,-0.56285257933379
-0.578741082817922,-0.572033713800461
-0.584561131200845,-0.581208268968464
-0.590387835980383,-0.590372955622656
-0.596223522789316,-0.599524325870648
-0.602070633645468,-0.608658759272132
-0.607931737646284,-0.617772446983509
-0.613809543265088,-0.626861373527948
-0.619706912578908,-0.635921295701756
-0.625626877845964,-0.644947717997248
-0.631572660968546,-0.653935863747847
-0.637547696536219,-0.662880640965122
-0.643555659363039,-0.671776601513184
-0.64960049773807,-0.680617891812776
-0.655686474043656,-0.689398192622204
-0.661818215028683,-0.698110644504154
-0.668000774966346,-0.706747754190465
-0.674239716367463,-0.715301274919713
-0.680541215195316,-0.72376205044979
-0.686912201249652,-0.732119806930075
-0.693360550739345,-0.740362867400708
-0.699895359467115,-0.748477746779601
-0.706527346826044,-0.756448552912964
-0.713269485722658,-0.764256052675935
-0.720138055881589,-0.771876110384194
-0.727154584859068,-0.779276810123126
-0.734349988503682,-0.786412317262308
-0.741775968105285,-0.793205981487382
-0.749571472298745,-0.799451802975662
