0.58307354223064,0.964090628555498
0.545518805944504,0.900560897041178
0.471508036482441,0.770122285100102
0.377280948814859,0.695798191365432
0.337718622460056,0.618652587224205
0.323498652647428,0.591504307601632
0.243063833501176,0.473391209648831
0.205420341742818,0.435760130324034
0.148022231834783,0.461958166375561
0.122713485714667,0.38437923799257
0.0821728418402775,0.356828935932308
0.0547528401864611,0.31732308889333
0.0106734797710722,0.316500592675653
-0.0114600551291692,0.303057027332144
-0.0407488570688197,0.273288405851498
-0.0775659386916392,0.26263142808406
-0.120764786380685,0.27259013902213
-0.103217599527684,0.277243132327823
-0.085203374827018,0.292724022169878
-0.111988075618892,0.302592423560683
-0.121953002599158,0.275277465062357
-0.133043610358317,0.278312759355672
-0.104223712370058,0.271007820019034
-0.10198694309104,0.272631802401215
-0.0868895291793385,0.269218828364336
-0.0842755940265688,0.281729378646467
-0.00549573800841645,0.251510698740705
0.00629444631868597,0.220462797684073
0.012232263161677,0.249658801678747
0.0468780726979486,0.210195986931009
0.117251279727118,0.189280731339687
0.124252718022835,0.157357955047585
0.167145111159532,0.122546578328382
0.212480181933273,0.0813887715150299
0.259967126108307,0.0332890656546338
0.309300883581323,-0.0223842568587344
0.360163842901623,-0.0863112079883071
0.412227579292095,-0.159235645119907
0.465154601609547,-0.24198541643161
0.518600078483151,-0.335498603149839
