0.859245029125187,-0.926147423346816
0.748661296529229,-0.938925645927176
0.703484030666292,-0.833224659281388
0.612520518731305,-0.764735405261264
0.559393150693183,-0.754835945961319
0.536678809348151,-0.710055500416451
0.490133293336781,-0.653033243491191
0.418312469966124,-0.650792881588401
0.417489604122355,-0.616766690789181
0.370206663330291,-0.558599336170486
0.395354507565903,-0.569540921062446
0.342621924352635,-0.523398867353829
0.288202159721082,-0.479652731996657
0.304553654521724,-0.442505597835313
0.26041837135436,-0.382653544509835
0.290448490477097,-0.402074113836136
0.164816630683394,-0.457471648756147
0.327353078215623,-0.363446068368048
0.37716506470497,-0.271261275234669
0.223330001884537,-0.42077238988195
0.390270493521215,-0.487525199598233
0.271679867435717,-0.330936790725632
0.178069569659517,-0.493658303853045
0.288198582966045,-0.358502221461792
0.406980046686516,-0.339039204644256
0.394153811209701,-0.303053718060306
0.433758635142088,-0.349253415006803
0.138765901271671,-0.338732903742919
0.320216256571951,-0.596088935963911
0.133026373355184,-0.368324621587975
0.107658629975751,-0.424076120420703
0.32270883187417,-0.695187913769545
0.0904611865215719,-0.518870701147548
0.0168527309768304,-0.527030932885832
0.0197718461341348,-0.54863515320512
0.0392043577733255,-0.708109434302035
-0.110632499871113,-0.646242603081793
0.0248834959929468,-0.690126621314678
-0.241916294588569,-0.718597400286486
-0.215901364813184,-0.876494160593239
