0.678446076930925,-0.279679710450756
0.678351904655952,-0.279664564011048
0.678070942982969,-0.279607225826974
0.677605554676905,-0.279489891973164
0.676958137990552,-0.279294853008983
0.676131120975936,-0.279004537951609
0.675126955822523,-0.278601557948825
0.673948113234957,-0.278068749552952
0.672597076862912,-0.277389217498276
0.671076337795507,-0.276546376885378
0.669388389132546,-0.275523994677145
0.667535720644683,-0.274306230412754
0.665520813534357,-0.27287767604765
0.663346135309114,-0.271223394829525
0.661014134778661,-0.269328959122426
0.658527237186672,-0.267180487093473
0.655887839488088,-0.264764678179224
0.653098305782252,-0.262068847251423
0.650160962911891,-0.259080957404776
0.647078096237549,-0.255789651292508
0.643851945596645,-0.252184280938627
0.640484701455936,-0.248254935959311
0.636978501265661,-0.243992470129295
0.633335426023202,-0.239388526232907
0.629557497053604,-0.23443555914318
0.625646673013784,-0.22912685707645
0.621604847126727,-0.223456560973916
0.617433844651455,-0.217419681965823
0.613135420593994,-0.211012116878205
0.608711257663991,-0.204230661746509
0.604162964481096,-0.197073023304856
0.599492074034606,-0.189537828424239
0.594700042399314,-0.18162463147751
0.589788247709892,-0.173333919613671
0.584757989395547,-0.164667115928622
0.579610487676081,-0.155626580524254
0.574346883319893,-0.14621560945246
0.568968237663843,-0.136438431545375
0.563475532894295,-0.126300203137897
0.557869672588064,-0.11580700069321
0.552151482511371,-0.10496581134676
0.546321711674334,-0.0937845213887564
0.540381033637917,-0.0822719027098911
0.534330048069692,-0.0704375972395177
0.528169282544166,-0.0582920994100204
0.521899194582906,-0.0458467366855158
0.515520173929073,-0.0331136481973544
0.509032545050516,-0.0201057615331273
0.502436569864966,-0.00683676773000896
0.495732450680421,0.00667890547271777
0.488920333343269,0.0204261220632126
0.482000310586242,0.0343890678061988
0.474972425567816,0.0485512818455307
0.467836675594232,0.0628956897905988
0.460593016014879,0.077404638213653
0.453241364281393,0.0920599304819552
0.445781604160427,0.106842863845691
0.43821359008969,0.121734267699756
0.430537151666524,0.136714542934895
0.422752098257971,0.151763702291244
0.414858223720989,0.166861411625061
0.406855311221224,0.181987031997395
0.398743138138504,0.197119662491587
0.39052148104701,0.212238183664868
0.382190120757899,0.227321301537884
0.373748847412014,0.242347592024762
0.365197465610143,0.25729554570536
0.356535799568268,0.272143612840518
0.347763698285085,0.286870248530635
0.338881040709118,0.301453957917513
0.329887740892675,0.315873341329314
0.320783753119943,0.33010713926861
0.311569076996556,0.344134277143812
0.302243762488045,0.357933909644835
0.292807914894662,0.371485464664645
0.283261699750246,0.384768686669322
0.27360534763289,0.397763679420485
0.263839158875424,0.410450947955377
0.253963508163883,0.422811439731512
0.243978849012407,0.434826584844688
0.23388571810326,0.446478335231166
0.223684739480968,0.457749202767116
0.213376628589868,0.468622296180831
0.202962196144727,0.479081356695889
0.192442351824421,0.489110792326225
0.181818107779083,0.498695710747081
0.171090581941507,0.507821950668961
0.160261001134057,0.51647611164505
0.149330703962735,0.52464558224602
0.138301143490571,0.532318566539797
0.127173889682969,0.539484108817591
0.115950631618121,0.546132116511438
0.104633179456159,0.552253381252474
0.0932234661612288,0.557839598023323
0.0817235489711967,0.562883382362211
0.0701356106102941,0.567378285580745
0.0584619602405459,0.571318807961698
0.0467050341484172,0.574700409907676
0.0348673961636997,0.577519521016038
0.0229517378082504,0.5797735470601
0.0109608781727941,0.581460874861283
-0.00110223647939234,0.582580875041558
-0.0132345333824917,0.583133902650264
-0.025432814211825,0.583121295664086
-0.0376937563005544,0.58254537136372
-0.0500139141281646,0.581409420595464
-0.0623897210788745,0.579717699930686
-0.0748174914675179,0.577475421740782
-0.0872934228298522,0.574688742209883
-0.099813598473651,0.571364747312136
-0.11237399028636,0.567511436784938
-0.124970461794523,0.56313770613392
-0.137598771469625,0.558253326709887
-0.150254576274436,0.552868923902167
-0.162933435443419,0.546995953497062
-0.175630814490223,0.540646676254095
-0.188342089434798,0.533834130756797
-0.201062551242137,0.526572104598513
-0.213787410464221,0.518875103967495
-0.226511802076247,0.51075832169904
-0.239230790497813,0.502237603865862
-0.251939374789289,0.493329414981124
-0.264632494013223,0.484050801891644
-0.277305032750275,0.474419356441678
-0.28995182675877,0.464453176990418
-0.302567668766703,0.454170828868894
-0.31514731438467,0.443591303864293
-0.327685488127947,0.432733978821884
-0.34017688953571,0.421618573456677
-0.352616199375111,0.410265107468703
-0.364998085917786,0.398693857057317
-0.377317211276167,0.386925310931273
-0.389568237786834,0.374980125912425
-0.401745834428045,0.362879082231763
-0.413844683258474,0.350643038617235
-0.425859485864151,0.338292887273172
-0.437784969800561,0.325849508851413
-0.449615895016861,0.313333727514219
-0.461347060249192,0.300766266188823
-0.472973309370168,0.288167702113044
-0.484489537681633,0.275558422770714
-0.49589069813797,0.262958582314783
-0.507171807487346,0.250388058574863
-0.518327952318455,0.237866410744667
-0.529354295000527,0.225412837843221
-0.540246079504606,0.213046138042056
-0.550998637094313,0.200784668948565
-0.56160739187465,0.188646308933621
-0.572067866187644,0.176648419589157
-0.582375685844,0.164807809398926
-0.592526585180262,0.153140698702876
-0.602516411931367,0.141662686032733
-0.612341131908874,0.130388715893265
-0.621996833475562,0.119333048060486
-0.631479731807534,0.108509228464654
-0.640786172935428,0.097930061722349
-0.543284854861169,0.195325589488452
-0.557047692920352,-0.0347296812425408
-0.568015299311944,0.182708295943143
-0.781970977049004,-0.0547641305871249
-0.567171317347246,-0.0685427879014267
-0.692731994108501,0.0402103102431161
-0.586369990963522,-0.0733594144661344
-0.59636062176479,0.115218243040348
-0.716069926911758,0.0154427167003529
-0.6237027015879,-0.0848387721628625
-0.821276020087395,-0.0987227052447298
-0.737563064555793,-0.00638584454900593
-0.74430844702583,-0.0129953906559109
-0.864468680416591,-0.11238184467583
-0.858563775146631,-0.117705878952878
-0.763266086748521,-0.0308159040891779
-0.860804991277647,0.0558624919910405
-0.671116746853729,0.0757138204130415
-0.874337079197258,0.048172654086376
-0.785518838624245,-0.0499632995261977
-0.906164119384749,0.0596235402933165
-0.894842688757058,0.0390069841251315
-0.681377223622401,-0.166096295608327
-0.915873363536161,0.0347402135125642
-0.808422088570546,-0.0669175578719175
-0.715251374070096,0.0484070315437771
-0.910027304256143,0.0442454363414072
-0.721926564020846,-0.171527445702756
-0.924665797851216,0.032052201350455
-0.939941552933309,-0.177715754214587
-0.82871630038019,-0.0784346597007971
-0.831345320786041,-0.0795788767742805
-0.833761967097046,-0.0805378222778596
-0.835967579296272,-0.0813263270468435
-0.837963605834556,-0.0819597003850015
-0.839751598818847,-0.082453691670921
-0.841333209059517,-0.0828244509590982
-0.842710180988054,-0.083088488664731
-0.843884347456841,-0.0832626344232331
-0.844857624432929,-0.0833639952173377
-0.845632005597965,-0.0834099128662946
-0.846209556866585,-0.0834179209730964
-0.846592410835777,-0.0834057014268812
-0.846782761177821,-0.0833910405586555
-0.846782856989535,-0.0833917850492607
-0.846594997110616,-0.0834257976890612
-0.84622152442393,-0.0835109130891668
-0.845664820150595,-0.0836648934441133
-0.844927298152721,-0.0839053844458146
-0.844011399256603,-0.0842498714482615
-0.842919585609114,-0.0847156359818889
-0.841654335079938,-0.0853197127157516
-0.840218135722152,-0.0860788469646541
-0.838613480303537,-0.0870094528371625
-0.836842860920777,-0.0881275721190009
-0.834908763708547,-0.0894488339846921
-0.832813663655204,-0.0909884156284548
-0.830560019536574,-0.0927610039033222
-0.828150268979028,-0.0947807580551921
-0.825586823662709,-0.0970612736360794
-0.822872064675481,-0.0996155476782074
-0.820008338027761,-0.102455945207762
-0.816997950338052,-0.105594167174143
-0.813843164698565,-0.109041219867381
-0.810546196729915,-0.112807385893078
-0.807109210833415,-0.116902196770737
-0.803534316649028,-0.121334407217742
-0.799823565726578,-0.126111971177453
-0.795978948417288,-0.131242019646036
-0.792002390992227,-0.13673084034857
-0.787895752993705,-0.142583859310905
-0.783660824825126,-0.148805624369458
-0.779299325584227,-0.155399790656851
-0.774812901144107,-0.162369108096836
-0.77020312248583,-0.169715410937521
-0.765471484285853,-0.177439609347293
-0.760619403760875,-0.185541683093286
-0.755648219772186,-0.194020677317551
-0.750559192190917,-0.20287470042141
-0.745353501525042,-0.212100924063774
-0.740032248808362,-0.221695585274483
-0.734596455751077,-0.231653990678963
-0.729047065150982,-0.241970522825853
-0.723384941563688,-0.252638648604466
-0.717610872229697,-0.263650929734357
-0.711725568255538,-0.274999035304581
-0.705729666045616,-0.286673756335681
-0.699623728980826,-0.29866502233291
-0.693408249339406,-0.310961919794735
-0.687083650454972,-0.323552712636311
-0.680650289106107,-0.336424864483324
-0.674108458131333,-0.349565062787427
-0.667458389262803,-0.362959244710406
-0.660700256171512,-0.376592624720273
-0.653834177716361,-0.39044972383865
-0.646860221388902,-0.404514400475093
-0.639778406945186,-0.418769882780492
-0.632588710215639,-0.433198802448259
-0.625291067083543,-0.447783229888758
-0.617885377622246,-0.462504710699405
-0.610371510380883,-0.477344303349922
-0.602749306808052,-0.492282617999522
-0.595018585802535,-0.507299856360263
-0.58717914837987,-0.522375852518467
-0.579230782443311,-0.53749011462395
-0.571173267647458,-0.552621867354851
-0.563006380342601,-0.567750095064116
-0.55472989858766,-0.582853585512163
-0.546343607219406,-0.597910974088919
-0.537847302965512,-0.612900788427326
-0.529240799588892,-0.627801493309526
-0.520523933050674,-0.642591535766267
-0.511696566679101,-0.657249390269626
-0.502758596331666,-0.67175360391893
-0.493709955537713,-0.686082841519749
-0.48455062060886,-0.700215930456063
-0.475280615704567,-0.714131905256167
-0.465900017840332,-0.727810051753506
-0.45640896182607,-0.741229950744584
-0.446807645122398,-0.754371521047144
-0.437096332602692,-0.767215061863158
-0.427275361209033,-0.779741294352725
-0.417345144490312,-0.791931402326673
-0.407306177011093,-0.803767071967673
-0.397159038620043,-0.815230530491759
-0.386904398567094,-0.826304583664567
-0.376543019458802,-0.836972652089074
-0.366075761041714,-0.847218806184416
-0.355503583803965,-0.857027799778204
-0.344827552385675,-0.866385102237884
-0.33404883878917,-0.875276929069907
-0.323168725380489,-0.883690270918868
-0.312188607674061,-0.891612920902377
-0.301109996892962,-0.899033500221039
-0.289934522297625,-0.905941481986848
-0.278663933276381,-0.912327213217179
-0.267300101191765,-0.918181934945686
-0.255845020977032,-0.923497800405589
-0.244300812477885,-0.928267891245093
-0.232669721534998,-0.932486231739104
-0.220954120803455,-0.936147800965816
-0.209156510305861,-0.939248542921288
-0.197279517716407,-0.941785374549721
-0.185325898373835,-0.943756191671749
-0.194322337747549,-0.967035053642434
-0.161200437275663,-0.945996280818079
-0.1596184013355,-0.94736052021787
-0.128213115609751,-0.95733168946422
-0.140904060267351,-0.894206450207683
-0.112668233574986,-0.958935097063565
-0.0997630256015826,-0.941733098750029
-0.0716362107640945,-0.939942479213079
-0.0714920461125211,-1.00393214265043
-0.0850259198596889,-0.967834650456624
-0.0540554750699081,-0.927785170013939
-0.0363310755632334,-0.917544487508562
-0.0190437663460786,-0.891749063711771
-0.0233486468507679,-0.907959530104113
0.000919725543666608,-0.906948137238414
0.0289450802937931,-0.920109051190435
0.0447355815185992,-0.915566861968693
0.0157124596555696,-0.907278295527799
0.0613014299299574,-0.882689895604961
0.0645119113840817,-0.869615520792756
0.0772263267354412,-0.860898972112739
0.0945578364180644,-0.857404417887341
0.102611286240022,-0.8423461444963
0.117145551610888,-0.831781972476185
0.127903572346598,-0.822418427559771
0.140501973794021,-0.811985091977198
0.150914082425534,-0.804800009343897
0.165576996068407,-0.790275372491392
0.192859468450173,-0.753146822914785
0.177404857500928,-0.766966974213402
0.202805456038626,-0.755901039343811
0.215091198916695,-0.744041582904887
0.227306176203894,-0.732015865065809
0.239445062613027,-0.719844710929192
0.251502549160576,-0.707549001591608
0.263473349612848,-0.695149629106362
0.275352206920765,-0.682667451487997
0.287133899630246,-0.670123247858575
0.298813248255232,-0.65753767383536
0.310385121600396,-0.644931217259053
0.321844443020776,-0.632324154360881
0.333186196605607,-0.619736506465911
0.344405433273865,-0.607187997328694
0.355497276769153,-0.594698011195963
0.36645692954183,-0.58228555168943
0.377279678506493,-0.569969201599905
0.387960900663166,-0.55776708368193
0.398496068570909,-0.545696822535802
0.408880755662793,-0.533775507661524
0.419110641391605,-0.522019657766478
0.429181516195936,-0.510445186405911
0.439089286276771,-0.499067369032232
0.448829978175033,-0.487900811526058
0.458399743141014,-0.476959420278545
0.467794861287053,-0.466256373891121
0.477011745515304,-0.455804096555082
0.486046945212895,-0.445614233169763
0.494897149707321,-0.435697626254098
0.503559191475402,-0.426064294702378
0.512030049099677,-0.416723414430875
0.520306849966682,-0.407683300957763
0.528386872702052,-0.398951393954477
0.536267549338046,-0.390534243802167
0.543946467209582,-0.382437500182517
0.551421370575541,-0.374665902727541
0.55869016196263,-0.367223273748442
0.565750903229724,-0.36011251305894
0.572601816351221,-0.353335594903765
0.579241283918523,-0.346893566998354
0.585667849359402,-0.340786551681025
0.591880216875582,-0.335013749174191
0.597877251099515,-0.329573442946468
0.60365797647191,-0.324463007162822
0.609221576342187,-0.319678916205229
0.614567391794631,-0.3152167562417
0.619694920203598,-0.311071238816942
0.624603813521737,-0.307236216433386
0.629293876305732,-0.303704700086901
0.63376506348466,-0.300468878717089
0.638017477876608,-0.297520140527835
0.642051367459729,-0.294849096129546
0.645867122404443,-0.292445603450481
0.649465271874011,-0.290298794360599
0.652846480601188,-0.288397102947528
0.656011545249166,-0.286728295380559
0.658961390565441,-0.285279501295022
0.66169706533772,-0.284037246626009
0.66421973816137,-0.282987487817138
0.666530693028322,-0.282115647327021
0.668631324747735,-0.281406650353158
0.670523134209036,-0.280844962690276
0.672207723498344,-0.280414629637592
0.673686790879524,-0.280099315867121
0.674962125651447,-0.279882346163024
0.676035602893261,-0.279746746940015
0.67690917810971,-0.279675288447113
0.677584881788745,-0.279650527561511
0.678064813883832,-0.279654851075965
0.678351138233517,-0.279670519382057
0.678446076930925,-0.279679710450756
