0.921353962912871,-0.00633532461022293
0.92091769369076,-0.00624865950981948
0.919615314844539,-0.00596139509541777
0.917458550407487,-0.00543316896497956
0.91446185887106,-0.00462447632681975
0.910642374373499,-0.0034968370048524
0.906019837438536,-0.00201295840163399
0.900616515539212,-0.000136893770273122
0.894457113802176,0.0021658048351221
0.887568676206873,0.00492793953968568
0.879980477671711,0.00818052614443068
0.871723907455382,0.011952660699145
0.862832344335934,0.0162713936833444
0.853341024062748,0.0211616122969067
0.8432868996072,0.0266459313298466
0.832708494766296,0.0327445930466622
0.821645751699887,0.039475376484931
0.810139873006118,0.0468535165304877
0.798233158961351,0.0548916330927434
0.785968840569976,0.0635996706636382
0.773390909086077,0.0729848485025315
0.760543942682884,0.0830516216471879
0.747472930957221,0.0938016529080691
0.734223097964682,0.105233795959575
0.720839724487098,0.117344089597857
0.707367970236806,0.130125763190532
0.693852696702498,0.143569253299226
0.680338291338796,0.157662231411549
0.666868493796371,0.172389642675047
0.653486224881246,0.187733755482004
0.640233418921109,0.203674221710953
0.627150860202862,0.220188147388443
0.614278024129472,0.237250173493293
0.601652923725437,0.254832566585316
0.589311962098892,0.272905318901512
0.577289791444769,0.291436257525173
0.565619179147378,0.310391162197339
0.554330881512651,0.329733891305758
0.543453525629915,0.349426515554046
0.533013499830849,0.369429458783267
0.523034853179079,0.389701645389781
0.513539204388074,0.410200653757009
0.504545660527498,0.430882875094913
0.496070745839395,0.451703677059507
0.488128340945364,0.472617571505756
0.480729632684709,0.493578385710784
0.47388307478128,0.514539436390556
0.467594359493786,0.535453705822074
0.461866400360723,0.556274019374772
0.456699326107054,0.576953223749186
0.452090485735437,0.597444365218133
0.448034464780431,0.617700867165616
0.444523112659785,0.637676706221439
0.441545581012859,0.657326586295037
0.439088372872637,0.676606109820375
0.437135402474766,0.695471945534771
0.435668065464847,0.713881992128238
0.434665319223914,0.731795537116308
0.4341037729919,0.749173410308185
0.433957787429956,0.76597813126352
0.434199583225058,0.782174050154904
0.43479935830442,0.797727481479297
0.435725413193052,0.812606830089955
0.436944284015489,0.826782709050859
0.438420882612346,0.840228048848026
0.440118643214121,0.852918197526372
0.441999675088633,0.864831011356731
0.444024920554746,0.875946935675187
0.446154317733728,0.886249075575804
0.448346967390779,0.89572325617808
0.450561303203005,0.904358072231733
0.452755264776499,0.912144926863744
0.454886472724261,0.919078059315547
0.456912405108504,0.92515456156195
0.45879057454543,0.930374383747416
0.460478705267923,0.934740328419635
0.461934909441766,0.938258033584761
0.463117862033887,0.940935944652955
0.4639869735369,0.942785275386918
0.464502559862658,0.943819958009689
0.464626008728768,0.94405658267094
0.464319941875878,0.943514326513166
0.46354837247009,0.942214872620402
0.46227685706391,0.940182319172166
0.46047264151073,0.93744307916417
0.458104800251772,0.934025771094704
0.455144368420729,0.929961101051378
0.451564466239768,0.925281736667032
0.447340415211165,0.920022173445771
0.442449845641307,0.914218593990357
0.436872795068236,0.907908720690285
0.430591797199887,0.901131662455778
0.423591961007876,0.893927756106501
0.415861039660671,0.886338403044982
0.40738948902029,0.878405901863369
0.398170515468051,0.870173277548238
0.388200112867208,0.86168410796167
0.377477088513375,0.852982348287495
0.366003077967326,0.844112154139726
0.353782548708826,0.835117704035402
0.340822792594487,0.826043021936573
0.327133907147047,0.816931800565843
0.312728765747743,0.80782722619677
0.297622976847467,0.798771805614543
0.281834832355954,0.7898071959337
0.265385245411133,0.780974037948284
0.248297677772926,0.772311793675775
0.230598057126908,0.763858588739473
0.212314684623252,0.75565106021477
0.193478133015137,0.747724210543032
0.174121135798035,0.74011126809271
0.154278467787036,0.732843554920903
0.133986817603277,0.725950362259971
0.113284652572675,0.71945883422314
0.0922120765702219,0.713393860190389
0.0708106813711134,0.707777976301444
0.0491233920957023,0.702631276446531
0.027194307358726,0.697971333107845
0.00506853475424918,0.693813128365563
-0.0172079776737388,0.690168995341884
-0.0395886133091945,0.687048570315144
-0.0620262615112054,0.684458755693651
-0.084473494140744,0.682403693995845
-0.106882743369384,0.680884752939614
-0.129206480067284,0.679900521699546
-0.151397392065446,0.67944681834655
-0.17340856158773,0.679516708439864
-0.195193641151418,0.680100534697228
-0.216707027241167,0.681185957624986
-0.23790403107001,0.68275800694641
-0.258741045752633,0.684799143623617
-0.279175709230351,0.687289332226452
-0.299167062304051,0.690206123360584
-0.31867570115078,0.693524745827148
-0.337663923721498,0.697218208147625
-0.356095869441782,0.701257409050463
-0.373937651663843,0.705611256480361
-0.391157482346899,0.7102467946573
-0.407725788473812,0.715129338680422
-0.423615319744638,0.720222616141928
-0.438801247122311,0.72548891518828
-0.453261251841963,0.730889238440426
-0.466975604533192,0.736383462161455
-0.479927234143784,0.741930500039267
-0.492101786393816,0.747488470933482
-0.503487671530605,0.753014869920062
-0.51407610119734,0.758466741954
-0.523861114271453,0.76380085746002
-0.53283959157245,0.768973889153529
-0.541011259383106,0.773942589389167
-0.548378681772235,0.778663967332171
-0.554947241751672,0.78309546524842
-0.56072511134434,0.787195133212513
-0.565723210684274,0.790921801539464
-0.5699551563129,0.794235250254579
-0.573437198878751,0.797096374927817
-0.576188150489764,0.799467348213325
-0.578229302008342,0.801311776451797
-0.579584330619221,0.80259485071293
-0.580279198038743,0.803283491677203
-0.580342039771222,0.803346487780644
-0.579803045853573,0.802754626072942
-0.578694333563131,0.801480815268119
-0.577049812595383,0.799500200497914
-0.574905043248246,0.796790269310932
-0.57229708817716,0.79333094849527
-0.569264358310799,0.789104691338745
-0.565846453540296,0.784096554978703
-0.562083998815581,0.778294267532701
-0.558018476300645,0.771688284741848
-0.553692054255106,0.764271835900162
-0.549147413322435,0.756040958885766
-0.544427570915442,0.746994524152959
-0.539575704397135,0.737134247587931
-0.534634973759821,0.726464692175075
-0.52964834450726,0.714993258465177
-0.524658411443863,0.702730163881159
-0.519707224071272,0.689688410941322
-0.514836114286272,0.67588374452395
-0.51008552706481,0.661334598340583
-0.505494854805015,0.646062030828063
-0.501102275987577,0.630089650711377
-0.496944598794678,0.613443532530311
-0.493057110308956,0.596152122462663
-0.489473431891828,0.578246134815286
-0.486225381315952,0.559758439591185
-0.483342842199763,0.540723941576299
-0.480853641263055,0.521179451423196
-0.478783433891469,0.501163549240649
-0.477155598464826,0.480716441227765
-0.475991139869365,0.45987980991891
-0.475308602577557,0.438696658631003
-0.475123993641114,0.417211150727724
-0.475450715903514,0.395468444335739
-0.476299511697743,0.373514523166058
-0.477678417253348,0.351396024109093
-0.479592727994397,0.329160062284741
-0.482044974866654,0.306854054238934
-0.485034911788565,0.28452553998541
-0.48855951427642,0.262222004596049
-0.492612989249737,0.239990700044882
-0.497186795978533,0.217878468009886
-0.502269678089873,0.195931564332851
-0.507847706507245,0.174195485831036
-0.513904333152841,0.15271480014498
-0.520420455200148,0.131532979294806
-0.527374489622331,0.110692237602631
-0.534742457741033,0.0902333746213543
-0.542498079440505,0.0701956236902745
-0.550612876673588,0.0506165067156256
-0.559056285849214,0.031531695749451
-0.567795778655772,0.0129748819132634
-0.576796990841228,-0.00502234781619967
-0.586023858439266,-0.0224306254730018
-0.595438760901154,-0.0392229081667918
-0.605002670565595,-0.0553745749282474
-0.614675307873654,-0.070863513953635
-0.624415301713026,-0.085670199905028
-0.634180354255516,-0.0997777609621628
-0.643927409633746,-0.113172035362556
-0.653612825787826,-0.125841617208207
-0.66319254880014,-0.137777891359759
-0.672622289026446,-0.148975057282297
-0.681857698324357,-0.159430141750741
-0.690854547675873,-0.169143000367023
-0.699568904499015,-0.178116307885549
-0.707957308944816,-0.186355537387884
-0.715976948479919,-0.193868928391774
-0.723585830061758,-0.200667444023539
-0.730742949222857,-0.206764717426203
-0.737408455392951,-0.212176987618453
-0.743543812802551,-0.216923025061306
-0.749111956329049,-0.221024047230216
-0.754077441666469,-0.224503624529955
-0.75840658922248,-0.227387576927911
-0.762067621171071,-0.229703861718232
-0.765030791116465,-0.231482452864425
-0.767268505853055,-0.2327552124014
-0.768755438737498,-0.233555754409433
-0.769468634222317,-0.233919302101956
-0.769387603135388,-0.233882538596403
-0.768494408326333,-0.233483451962367
-0.766773740339063,-0.232761175163992
-0.764212982809173,-0.231755821533783
-0.760802267325655,-0.230508316432705
-0.756534517538141,-0.229060225766556
-0.751405482333482,-0.22745358204105
-0.745413757948823,-0.225730708647782
-0.738560798932152,-0.223934043080259
-0.73085091790552,-0.222105959783377
-0.722291274130493,-0.220288593341191
-0.712891850919793,-0.218523662706433
-0.702665421983266,-0.21685229717109
-0.691627506840201,-0.215314864770429
-0.679796315473333,-0.21395080380317
-0.667192682442525,-0.212798458138135
-0.65383999071786,-0.211894916962655
-0.639764085532672,-0.211275859610367
-0.624993178596544,-0.210975406085873
-0.609557743046548,-0.211025973881098
-0.593490399551673,-0.211458141653218
-0.576825794020473,-0.212300520306775
-0.559600467395224,-0.213579631993199
-0.541852718047245,-0.215319797509539
-0.523622457317347,-0.217543032544849
-0.504951058772551,-0.220268953187565
-0.485881201775091,-0.223514691070435
-0.466456709982264,-0.227294818491316
-0.446722385415757,-0.231621283808556
-0.426723838756645,-0.236503357368893
-0.406507316537162,-0.241947588183991
-0.386119525912688,-0.247957771529081
-0.365607457706899,-0.254534927593805
-0.345018208429901,-0.261677291271518
-0.324398801973213,-0.269380313129059
-0.303796011686681,-0.277636671554651
-0.283256183540928,-0.286436296037208
-0.262825061074567,-0.295766401486138
-0.24254761281833,-0.305611533456917
-0.222467862878409,-0.315953624104417
-0.202628725348749,-0.326772058643377
-0.183071843206848,-0.338043752053702
-0.163837432329783,-0.349743235727609
-0.144964131246884,-0.36184275371617
-0.12648885722268,-0.374312368194674
-0.108446669238637,-0.387120073729662
-0.0908706384148043,-0.400231919895506
-0.0737917263829857,-0.413612141755277
-0.0572386720914709,-0.427223297689397
-0.0412378874879184,-0.441026414026411
-0.0258133624917567,-0.454981135903165
-0.010986579630586,-0.469045883756973
0.00322356132324451,-0.48317801482994
0.0168008084194241,-0.497333989045704
0.029731612044202,-0.5114695386015
0.0420051686688844,-0.525539840603634
0.0536134536612735,-0.539499692062379
0.0645512430323834,-0.553303686552886
0.0748161240346863,-0.566906391842073
0.0844084945723612,-0.580262527777572
0.0933315514284022,-0.593327143733726
0.101591267357811,-0.606055794911385
0.109196357140266,-0.618404716792697
0.116158232729454,-0.63033099705943
0.122490947679518,-0.641792744293322
0.128211131071592,-0.652749252789737
0.133337911205054,-0.663161162831222
0.137892829358746,-0.672990615785595
0.141899743966761,-0.6822014034136
0.145384725591467,-0.690759110794176
0.148375943112906,-0.698631252300589
0.150903541588562,-0.705787400088245
0.152999512270529,-0.712199304584651
0.154697555298228,-0.717841006503648
0.156032935613853,-0.72268893993966
0.157042332674623,-0.726722026133008
0.157763684560518,-0.729921757534307
0.158236027098396,-0.732272271834412
0.158499328643165,-0.733760415666134
0.158594321173904,-0.734375797724846
0.158562328377417,-0.734110831097082
0.158445091403702,-0.73296076462893
0.158284592986978,-0.730923703209513
0.15812288063245,-0.728000616888729
0.158001889572656,-0.724195338792699
0.157963266198157,-0.719514551844755
0.158048192665455,-0.713967764344154
0.158297213380322,-0.707567274498865
0.158750064047296,-0.700328124052558
0.159445503965907,-0.692268041189111
0.160421152241307,-0.683407372940471
0.161713328561444,-0.673769007365293
0.163356899174786,-0.663378285806291
0.16538512868199,-0.652262905573579
0.167829538231804,-0.640452813439201
0.170719770686093,-0.627980090364442
0.174083463291239,-0.614878827916281
0.177946128363342,-0.601184996862235
0.182331042462887,-0.586936308463863
0.187259144500825,-0.572172069018092
0.192748943182603,-0.556933028222281
0.19881643415958,-0.541261221963421
0.205475027218821,-0.525199810153898
0.212735483802326,-0.508792910255917
0.220605865105872,-0.492085427153693
0.229091490965569,-0.475122880047
0.238194909697497,-0.457951227051449
0.247915879012275,-0.440616688199885
0.258251358082504,-0.423165567545666
0.269195510796743,-0.405644075072041
0.280739720189296,-0.388098149112653
0.292872613990743,-0.370573279986052
0.305580101200016,-0.353114335542333
0.318845419535056,-0.335765389312336
0.332649193575975,-0.318569551939522
0.346969503372138,-0.301568806561571
0.36178196324312,-0.284803848793056
0.377059810462985,-0.268313931942266
0.392774003478138,-0.252136718074462
0.408893329271144,-0.23630813551061
0.425384519446628,-0.220862243325105
0.442212374580705,-0.205831103378211
0.459339896342648,-0.191244660388978
0.476728426866575,-0.177130630522552
0.494337794822224,-0.163514398931931
0.512126467607222,-0.150418926658697
0.530051709058981,-0.137864667260129
0.548069742062432,-0.125869493491442
0.566135915410326,-0.114448634332049
0.584204874255997,-0.103614622603629
0.602230733484098,-0.0933772533858112
0.620167253313363,-0.0837435533923619
0.637968016436389,-0.0747177614273304
0.655586605995478,-0.0663013199965812
0.67297678369008,-0.0584928781059137
0.690092667310926,-0.0512883052325502
0.706888906998137,-0.0446807164124376
0.723320859525618,-0.0386605083417092
0.739344759921862,-0.033215406346926
0.754917889747806,-0.0283305220356007
0.7699987413656,-0.023988421396117
0.784547177548037,-0.0201692030746957
0.798524585796816,-0.0168505865166655
0.811894026758765,-0.0140080096201655
0.824620376152543,-0.0116147355126405
0.836670459644005,-0.00964196802430492
0.848013180136394,-0.00805897539822523
0.858619636971538,-0.00683322174399201
0.868463236570268,-0.00593050571122164
0.877519794074244,-0.00531510583047007
0.885767625586955,-0.00494993194269
0.893187630648989,-0.0047966821141881
0.899763364621276,-0.00481600441227747
0.905481100690089,-0.0049676628975201
0.910329881248638,-0.00521070717172128
0.914301558452233,-0.00550364480672086
0.917390823786878,-0.00580461596758833
0.919595226534697,-0.00607156953511345
0.920915181063601,-0.00626244002652895
0.921353962912871,-0.00633532461022293
