0.368719821643486,-0.900175673050718
0.368559340670925,-0.899793239538094
0.368102329413098,-0.898636690239137
0.367386101898888,-0.896694042740009
0.366448734978657,-0.893955875588159
0.365328908560781,-0.890415369907992
0.3640657435242,-0.886068340830889
0.362698637952041,-0.880913258613827
0.361267102337993,-0.874951259361707
0.268660542103345,-0.970976214897528
0.261517344765816,-0.965504063203363
0.356979240528092,-0.852275041035642
0.355681567703332,-0.843149842560444
0.354512946431506,-0.833263040805475
0.238272561636517,-0.917607635299826
0.352143661008874,-0.799212940730664
0.450552250681384,-0.672989241818828
0.351853208534417,-0.77307631851769
0.352189975640093,-0.759055282089164
0.352886665868359,-0.744438748555323
0.256119511745568,-0.826064612551995
0.355464621071088,-0.713549512056272
0.357393323563813,-0.697346276885646
0.359776621763375,-0.680686217820605
0.362632828532746,-0.663607774563356
0.365977942339089,-0.646150612478663
0.369825577021939,-0.628355472228886
0.374186901130086,-0.610264015249869
0.379070587069441,-0.591918665678813
0.384482770265203,-0.57336244935932
0.390427018501893,-0.554638830560378
0.396904311564443,-0.535791547055075
0.509270119565054,-0.402153687365167
0.52573704943154,-0.399371892868014
0.419505301046282,-0.478945702833572
0.437139200111998,-0.441229217492983
0.446690464677218,-0.42255286399492
0.45670964059651,-0.404052772767564
0.467177514956925,-0.385768951468675
0.478072567140645,-0.367740230867102
0.489371049224027,-0.350004119180624
0.501047075343089,-0.332596661736534
0.513072719672141,-0.315552306509515
0.525418122628145,-0.298903776068021
0.538051604880664,-0.282681946434934
0.550939788716314,-0.266915733340837
0.564047726277394,-0.251631986318904
0.577339034167093,-0.236855391059274
0.590776033888376,-0.222608380408022
0.723330916602651,-0.0901684024255924
0.73770084899075,-0.0978269178228608
0.72515600676527,-0.0632995362622157
0.65875573909282,-0.15993525784712
0.685546731964174,-0.139086361009755
0.698687406323745,-0.129591283792119
0.711601698992446,-0.120716290993385
0.612309195481251,-0.224258217570563
0.84925463472552,-0.00578230997472749
0.760162134145804,-0.0913208265919317
0.771325583840045,-0.0854517398497193
0.782020570539794,-0.0801473799953643
0.801859051217926,-0.0711596113162992
0.923863699059293,0.0383837919286442
0.819400129268531,-0.0641890831858248
0.834392962681702,-0.0590343752029984
0.840863655552236,-0.0570668429981995
0.846617263149633,-0.0554645857292778
0.85163159360473,-0.0541947857293691
0.855886770356418,-0.0532233016454363
0.859365310985937,-0.0525148135696587
0.862052196708158,-0.0520329728442157
0.863934932244196,-0.0517405559428817
0.865003595837793,-0.051599621816674
0.865250879216985,-0.0515716720770614
0.864672117342392,-0.0516178133789889
0.863265307823963,-0.0516989213572485
0.857972893144893,-0.0518093740482337
0.854096625303751,-0.0517607990290569
0.849410950312685,-0.0515916794922137
0.729476626701428,-0.15664963764943
0.837658889269262,-0.0507413079765145
0.703043547181814,-0.149963384006831
0.814323227539372,-0.0476439595812239
0.805104671117539,-0.0459891214879598
0.795206961274455,-0.0439701144522537
0.78465781932697,-0.041557505758076
0.736568742324242,-0.0274460086189014
0.695290985302816,-0.0115714003590446
0.635298516009854,0.0174129214220521
0.60392953154094,0.0353800070866236
0.556124732717082,0.06665580173718
0.631016413376143,0.191366662329986
0.52425162899727,0.0902968611722133
0.508439230553999,0.102915335227053
0.492763431699111,0.116042554286807
0.461976869149336,0.143739320193364
0.446940597381756,0.158261235428307
0.432189625404631,0.173196805938066
0.417757444738036,0.188516943504122
0.403675810783584,0.204190636927091
0.389974623191838,0.22018506764966
0.376681813705659,0.236465732648569
0.495370088640732,0.346899309297625
0.323116569609417,0.263947947603001
0.34533650831672,0.29488082642132
0.317170874528793,0.320853899657986
0.361175641601926,0.341931239348005
0.290694017133892,0.3421045570404
0.307597821740843,0.343828681809159
0.378198280719208,0.513504485289326
0.248129608956938,0.390487571592891
0.263163347215558,0.423307701959896
0.364096757615329,0.550152270146176
0.235269359254637,0.45087684914451
0.250871378242147,0.507639460607155
0.239941030311368,0.502553151100694
0.238732580193478,0.488856444255471
0.22523772523544,0.532833758875108
0.218969064095404,0.560293664846457
0.228547509691146,0.589989844990361
0.211481263528135,0.608217796452529
0.210502649861385,0.618563081163762
0.209820050435168,0.628200905719324
0.192567570308976,0.650987911489162
0.273140307230165,0.779084527044583
0.218270489832567,0.668403369097575
0.210391354991247,0.67424706387761
0.232106322289041,0.688118631840961
0.211436621605374,0.681865887056682
0.215526251087611,0.672084038224507
0.218114651642627,0.664577006572472
0.227625361007501,0.665227648045525
0.198789824445714,0.649080037388494
0.191319562214738,0.634063848895017
0.186787444621421,0.625698411233665
0.176023396851102,0.607424071429333
0.169755808083868,0.597587984050347
0.162877971062801,0.587336563175422
0.155378012000567,0.576709093612104
0.147246551179181,0.56574573533676
0.138476749855665,0.554487364700332
0.129064347080362,0.542975412945426
0.119007686279445,0.531251702675063
0.10830773149378,0.519358282921532
0.0723971022186863,0.483080174337659
0.0591860091892163,0.470927139587003
0.0309822938185924,0.446775450533384
-0.0489845857188352,0.389088745523431
-0.158822004453728,0.329746156034562
-0.273624639869455,0.222766342956834
-0.236925446401073,0.298758471851074
-0.256688461980061,0.292240138875152
-0.276460033922466,0.286232836727544
-0.296196276051454,0.280741892216807
-0.315853146721543,0.275770042587066
-0.335386615012518,0.271317429383006
-0.252522911302839,0.370472406495167
-0.373908271138985,0.263957536104991
-0.39280994302491,0.261037651257026
-0.411415507350336,0.258611853646039
-0.498586676970835,0.253371268480372
-0.530019987998919,0.2541148268079
-0.58555571635091,0.259316335528245
-0.597755008699741,0.261206715974334
-0.609235317818614,0.263264332658105
-0.629967744107364,0.267734536218061
-0.673514986372769,0.281213812752941
-0.678001602732049,0.283056616514652
-0.684620952408604,0.286042159513124
-0.688165726144259,0.287840352952355
-0.688818623306133,0.2882021111537
-0.688747953938619,0.28815864122438
-0.786430037743475,0.17974769910074
-0.686518222720278,0.286722758689396
-0.558325970343723,0.383766009207045
-0.674402181768135,0.277610194523563
-0.561005056440762,0.368384913824164
-0.664984161185805,0.269516099231036
-0.659551007480474,0.264509375457168
-0.640793625088917,0.245460690664288
-0.485830595126538,0.253932505238837
-0.571661013639631,0.150557290285924
-0.540344606843044,0.0908417557749525
-0.532910425582428,0.0744079870372588
-0.512105727211727,0.0219056570479345
-0.505773146046262,0.00343917609837621
-0.49417785129477,-0.0347404545533551
-0.60745439661545,-0.146846286245849
-0.484167065122557,-0.0743361587820519
-0.479806915239972,-0.0945675035903024
-0.589246621872731,-0.22648268836161
-0.472458939698466,-0.135691945339742
-0.469496582414895,-0.156500195534485
-0.467021466683026,-0.177414739700618
-0.465040032650738,-0.198391655573073
-0.462083561778171,-0.261253824837318
-0.46258291889664,-0.302662446135087
-0.564737613571448,-0.451485156566654
-0.471955181000942,-0.401923179776516
-0.482475410154296,-0.456948035144234
-0.491137345033211,-0.491138349779269
-0.506006632277341,-0.538070841281237
-0.630296811702108,-0.650490479999969
-0.527889762163057,-0.591499222317743
-0.652501538517082,-0.711592180408848
-0.539037283615341,-0.613970968953661
-0.549899820096904,-0.633497603734414
-0.564952303129274,-0.657199885492452
-0.569477988396093,-0.663616771156153
-0.577555611459713,-0.674265402318962
-0.588771363819125,-0.68718886711481
-0.590342078023658,-0.688779578780658
-0.590765289634797,-0.689300176739828
-0.584220516517394,-0.684387195014638
-0.580622306072651,-0.681916731068576
-0.576290238490574,-0.679090232808008
-0.571212680308223,-0.675945454334813
-0.551429114363723,-0.664990100194431
-0.524765505882824,-0.652588336563102
-0.514361511901964,-0.64832002234358
-0.611405462888219,-0.740942443014667
-0.389171182292557,-0.614384547314339
-0.336594677993004,-0.60755588976581
-0.318126099701227,-0.606032013290246
-0.240540164627235,-0.604263231511387
-0.179600273290185,-0.607896140540178
0.0245666855948127,-0.652037663718868
0.117728059628301,-0.690274531726218
0.135040622380536,-0.698871046251895
0.260231224896721,-0.623642328839286
0.213388340772146,-0.744844630333481
0.227253869730829,-0.754383224834486
0.296546881607754,-0.810708679704096
0.322008923627497,-0.836437618221975
0.358636743651484,-0.882693487798528
0.484999152782385,-0.804891391013027
0.277709817856007,-1.01801663723756
