0.621969753081856,-0.888059292462049
0.577381884170876,-0.861264844190344
0.626330715767238,-0.849314095360707
0.636338269823943,-0.743059219426054
0.709002980719962,-0.640454573838484
0.775183790497011,-0.48525327496701
0.859024162061674,-0.293505807215166
0.940067491105425,-0.0959713371355315
1.01012682300011,0.124157679675351
1.00814507051208,0.25192017924723
0.956167691933403,0.420373533285347
0.84797105033171,0.530656611819377
0.687618832527877,0.597082202675794
0.488794867258487,0.649073843823552
0.267207550871591,0.643471114891586
0.0574230722067856,0.683942464935837
-0.104934277514776,0.687465799338017
-0.227514013960677,0.708879600382197
-0.28539362391398,0.694424480496826
-0.348576412849656,0.746218676368536
-0.369939328519452,0.752858210139237
-0.358282332039775,0.702761506477143
-0.354344285976177,0.694113970028309
-0.381868466826843,0.606063767799536
-0.408767375423971,0.501176971378527
-0.506577400455917,0.327639455616221
-0.593631486107985,0.141784366363273
-0.639691738663485,-0.0483800883849728
-0.726527058573987,-0.249639362394317
-0.733332165866758,-0.424324290582107
-0.682418631062482,-0.568780512435558
-0.571313515302706,-0.677219736970282
-0.407788454212057,-0.749936445517966
-0.208567179460552,-0.792648244540488
0.00386537598034933,-0.814707673692397
0.205665085326048,-0.826590447993231
0.376290398183409,-0.837221818528372
0.502416559629065,-0.851736115217815
0.580259319360348,-0.870167327367707
0.615813827556107,-0.887362134632284
