0.0644581264838764,0.73595041322314
0.23107129449284,0.805446346726656
0.0689701527905591,0.720372860568758
0.0393946892436559,0.681045051364664
0.07527127354779,0.705046748741816
0.0892059866371894,0.660635840731173
0.0695886443383115,0.700836141059512
0.0866283943590774,0.682325373083866
0.0907911420244682,0.674804570816554
0.200963543994941,0.768242155504196
0.112007540307416,0.652084002277345
0.0907740407234399,0.669619433944328
0.110704323247077,0.647062122017083
0.151620413317836,0.653397835545044
0.129875285222679,0.602620648162783
0.123445662798384,0.622652996330896
0.128476720325118,0.615254227056277
-0.00528966332579604,0.460377939096578
0.171797816807652,0.577568834369788
0.0298053797072022,0.522030399776614
0.148589331899954,0.578512840066543
0.144689610531538,0.571022788941837
0.155494469212712,0.52700513839271
0.185661189318163,0.554615009565973
0.159222556984858,0.50447285261482
0.166259340142078,0.533052598531652
0.181066296319339,0.583530949303193
0.282536480676536,0.630385715312081
0.192230483088444,0.526944174504115
0.225292898582424,0.510141965465226
0.230291213157599,0.536657261319308
0.206696047504321,0.484232072797986
0.215541474358489,0.4910573306141
0.219408851870567,0.490234653644296
0.241377431720674,0.489988511991965
0.256422794001772,0.471436722856605
0.23559252839338,0.468191606154781
0.22869401039498,0.471987930139584
0.144688182699987,0.363121327970534
0.251588413937449,0.446122166364364
0.260917712273994,0.420258351454212
0.364821141521433,0.481063895149382
0.253625691514889,0.432160885307852
0.272506824484278,0.416638704047817
0.27486119801959,0.399570558920339
0.279178970937564,0.414549685081912
0.27659935778734,0.39004696455313
0.419774168738656,0.506861775996254
0.329985395607869,0.35761783424113
0.283489682289825,0.356024419162309
0.417691831966975,0.468797761405491
0.192585969274198,0.253746588274901
0.343835757165845,0.362287524055187
0.253597639390178,0.197347983730015
0.438415001016358,0.426444820591451
0.237712817605074,0.226175143141211
0.335730339583456,0.320148291747475
0.272873531188125,0.197570399841811
0.482282662399568,0.407734340568398
0.363231490352315,0.287898135329064
0.329496332559324,0.292100334786298
0.355044697625368,0.290364536394525
0.361718512802043,0.275165661510836
0.33787189617924,0.287231037630362
0.3714523540745,0.239380488802155
0.37382186297767,0.252549161550629
0.375801676717973,0.222262915162388
0.386819608133946,0.240542428373529
0.410063519239655,0.182595948627549
0.294863118273067,0.119568560175379
0.382190764880754,0.203683985531703
0.396102548448959,0.207045477891336
0.401048749327446,0.213540067684616
0.456926144720836,0.223627481851961
0.406230814781909,0.184151397999273
0.368439227590273,0.167343444731888
0.412593636452302,0.168833957670169
0.425890770659449,0.146082553972819
0.418638549757716,0.153471838234092
0.442271094302648,0.13369087205496
0.424360597791779,0.138064343043284
0.427099128537579,0.130343380141295
0.5531087418314,0.230125086597709
0.432328621259507,0.114866660815782
0.403531477356808,0.12776376951723
0.437224913746175,0.0993431132510822
0.44317575541165,0.104325479153515
0.441784670651676,0.0837722686948982
0.443937427798232,0.0759689806823253
0.426397669534951,0.094992880518237
0.447137283375019,0.0645257118991756
0.551566376951664,0.194165679438996
0.501906583189943,0.0464463741949825
0.425211255728853,0.0182902117139392
0.434105939310794,0.0546652490141103
0.45660708560434,0.0210087168737585
0.357769473674353,-0.105805414363644
0.439878026990544,-0.00715505846184651
0.452859801335168,-0.0027486456083516
0.433352663847646,-0.0340653880256349
0.463061689521637,-0.0186133391983389
0.464091893475269,-0.0265743917736433
0.465035191812743,-0.0345476581367829
0.344212180684294,-0.135539139765859
0.466661308863542,-0.0505307988868628
0.452671883013435,-0.0752416734871209
0.451946519279035,-0.0741186623443135
0.482825285664401,-0.0716615417818399
0.464530946020132,-0.0904699150606109
0.484860779002343,-0.102609206720125
0.474361021496821,-0.112150638133444
0.469631553905083,-0.106854226261485
0.472523119181888,-0.0874536196979643
0.452505437360374,-0.118621178572312
0.462930908068699,-0.115286443760697
0.464659793439336,-0.171395515667439
0.46919410654325,-0.147444896973163
0.474574810741648,-0.126107769921689
0.467477432831592,-0.155734860562209
0.348052782825251,-0.263268635782495
0.433942708924848,-0.200176729228819
0.478099921270204,-0.182700895640515
0.42326985814282,-0.173124214815901
0.448236131479004,-0.236298904579621
0.464191295452663,-0.212994702610585
0.439407075955807,-0.24256344269141
0.562899060106394,-0.135668217536176
0.576039519164453,-0.142226807166271
0.457014401831733,-0.249383438626265
0.458484740067221,-0.254325898162038
0.457115160274038,-0.262624218348225
0.35894684162616,-0.373109324248686
0.434410315772916,-0.294802648434516
0.43314501518264,-0.293818758446139
0.45135581585763,-0.313493626989238
0.424429880012804,-0.321410093177201
0.396802308627652,-0.324207975254294
0.445503706628731,-0.320996969827675
0.470835064231412,-0.309447793462209
0.441565611983104,-0.337762109534032
0.452523769041114,-0.349154198017166
0.465108305636966,-0.397423527181661
0.435175167680607,-0.362977742807008
0.40936663606594,-0.417915433625134
0.554956239332635,-0.276269594933265
0.415395022932119,-0.349965002604701
0.423869762276666,-0.376474610918956
0.425740522102475,-0.427999447642942
0.42355523943279,-0.385454374138158
0.327619071877525,-0.519266400055662
0.395624803956937,-0.398230201004612
0.508548018528274,-0.330120186994048
0.512417686594769,-0.330387108609122
0.400762082027802,-0.489939089318687
0.404517617489915,-0.464556440087077
0.407743579670939,-0.473080008102791
0.30091481249428,-0.597982594168815
0.428828107131746,-0.479156660093214
0.392818816299345,-0.498623952566863
0.389805781525692,-0.507153245287801
0.379531028386644,-0.484873605564032
0.390832763698298,-0.515824154673257
0.504954424412292,-0.449401278314921
0.36489140400507,-0.545350463344109
0.396029374875597,-0.561842426314903
0.371164543570276,-0.558408130223111
0.367987928923228,-0.566960412595996
0.364798860593182,-0.575514445219885
0.35965475344659,-0.592803625459927
0.369411852142068,-0.590782789748066
0.469097413271248,-0.503556145348649
0.358303574558837,-0.622581626921798
0.348777903443166,-0.618295235404787
0.342060538898867,-0.629674049627031
0.341791676906596,-0.653997305331061
0.419185259469329,-0.551246933681092
0.336084767434133,-0.652502492529934
0.329991009076209,-0.641056790513719
0.356095523298972,-0.597559514634964
0.326811452042136,-0.678123286912168
0.328791571889415,-0.693467617343958
0.320821041947648,-0.69517686074478
0.312713718589346,-0.69514899099519
0.31503841857921,-0.712201232057473
0.313157295936042,-0.691682598876602
0.309517750527437,-0.729188787951307
0.340945142706811,-0.712131657013696
0.309215588558595,-0.737128361401622
0.291086178981153,-0.731478055312505
0.301979411947303,-0.758496993890577
0.329033458228679,-0.79162532620872
0.311138017792263,-0.768808920233811
0.295567520262303,-0.796301970046775
0.291542280178104,-0.796561781949263
0.286979966741941,-0.806517224692453
0.288644233826423,-0.813180752400258
0.287569447287798,-0.821437642096384
0.315963318843031,-0.839851867564921
0.269753792271529,-0.84188778356108
0.28748060576095,-0.863099691342853
0.0644581264838764,0.73595041322314
0.0448643843567484,0.750669656883034
0.0644146438479504,0.719732625539469
0.0430119815347298,0.726782632369579
0.0625820667614762,0.703263397028357
0.0487513329374102,0.680190966189266
0.0698289499711102,0.682656110124098
0.0579277614563238,0.678291762179226
0.0616067072122138,0.650644519758731
0.0539175894869334,0.661516492665625
0.0516987923302123,0.653098822762322
0.064632821503077,0.64423080886133
0.0614797038956085,0.602446136978096
0.0449559541416729,0.616905971657614
-0.0556892031029115,0.509036502421654
0.0433892833984557,0.622729836216347
0.0361878820086889,0.602283876685572
0.0226069948794601,0.583972463662569
0.144787218708558,0.725122377631856
0.024888232067015,0.545415283939674
0.0344255749963155,0.572590813738936
0.0213567228786791,0.559670301707529
0.0182639270540799,0.551129799301914
0.121750041562848,0.667780639079198
0.10285066149456,0.636953309605078
-0.011565784076021,0.532279715474717
-0.0181357983278451,0.525651213765502
0.0315577446689381,0.547245769613167
-0.0020778552940415,0.472021585614576
-0.0134618663735304,0.526432767674314
0.0169005079897965,0.480770540465029
0.00984867329848421,0.487214668394135
-0.0135725600052831,0.465597089847984
-0.025496316453505,0.479962748238853
0.107459327252746,0.606702125332562
-0.0230994712040786,0.439940654899385
-0.047092011829007,0.422792427400616
-0.117237366506093,0.342460563821868
-0.0156599224922869,0.389135590292675
-0.041345444000738,0.42479727843415
-0.0345018221861806,0.365368476627077
-0.0415925157114459,0.388706597194962
-0.0456019559559326,0.382526017015546
-0.0294299901632878,0.35300414495661
-0.0714625990444563,0.358584547467526
-0.0532913169020159,0.354639084715176
-0.041261851788034,0.339305818156692
-0.0706556100206009,0.351305619187756
-0.0616366357300627,0.32914871174464
-0.0632671516855774,0.373361754091064
-0.0727520845428731,0.357617067253602
-0.0776138408217057,0.338122662773246
0.0572914289858123,0.369976557230187
-0.0890667203094995,0.283395992974042
-0.0770091256670268,0.278353219384276
-0.0826242007539474,0.257259176932925
-0.101727341477803,0.256985639037595
-0.0911301455406269,0.226100504235526
-0.0804488663912308,0.249103859824829
-0.113438882275937,0.203118923441811
-0.0903393113952049,0.227844754162131
-0.227749457591478,0.0665413313859774
-0.0837275371828445,0.224323467700177
-0.0952611989293104,0.195165072181153
-0.189735895102086,0.11529410839729
-0.114023048046253,0.170144796669177
-0.108876071144501,0.19584681510208
-0.0773061694116445,0.182619640839461
-0.101885047579688,0.119503350949368
-0.104403469617065,0.14000429928503
-0.123974911374792,0.153080669547256
-0.108552995169342,0.136120766554031
-0.133222670648893,0.163035300087196
-0.108607341317093,0.118449597121943
-0.144182558375009,0.135153933990837
-0.112964994864764,0.103077347238684
-0.116812412027291,0.0575642416653531
-0.101887477428573,0.0884241465614478
-0.115449093630451,0.0784107150280862
-0.116116495087505,0.0702110795713688
-0.116702597993758,0.062022869880841
-0.117206856904179,0.0538461626138027
-0.214392577758876,-0.0423203202487984
-0.081977491233164,0.048277973227263
-0.0651958665594358,0.165985651521284
-0.0998933424427112,0.0454448898463505
-0.118483419338737,0.0131375619693926
-0.194029447920578,-0.102167673677146
-0.109281187994392,-0.00778884759054259
-0.0576102839544519,0.0881676081751636
0.0172215809772888,0.0977993931797771
-0.106165023450975,-0.0155434409839757
-0.117224568000117,-0.0353205478058808
-0.0950142563718871,-0.0429997127846749
-0.208928427623568,-0.184373970376988
-0.111220342312256,-0.0555796760461927
-0.128086759501221,-0.0665208627541531
-0.110173982599735,-0.072066925222017
-0.134400950922867,-0.0834926188853489
-0.111835388933738,-0.0913040161735619
-0.118509809625357,-0.106624335283997
-0.109514185134303,-0.107189468851798
-0.115704046616516,-0.113364396823642
-0.106845385231449,-0.12302607008352
-0.106469862146355,-0.157394590427954
-0.119584318365071,-0.119191504202217
-0.102191711737399,-0.146689553822819
-0.100467529234779,-0.154553074073583
-0.0729920914395317,-0.191645421793405
-0.083780554143425,-0.15852168811741
-0.214349769748072,-0.274885889142254
-0.0670300159968856,-0.2005156294136
0.0189431987655935,-0.100943230261813
-0.0883207495611295,-0.201480985312471
-0.0729476293898052,-0.200635972739807
-0.0835923359103506,-0.217028126708896
-0.0811023206716081,-0.224784016187683
0.0124199149836544,-0.126991973733711
-0.0987783807216608,-0.235037689283375
0.0378955339839321,-0.142210652904859
-0.0600237256526635,-0.256207526012552
-0.171955815305522,-0.336528113869412
-0.0355276572657209,-0.281137920720104
-0.0512797569335921,-0.253729478872075
-0.0498080373452261,-0.271291031396503
-0.0740829307714984,-0.283821456819079
-0.0701976997068142,-0.27118081440324
-0.0483292278528321,-0.30934227965463
-0.191093875818226,-0.478547868775666
-0.0646712346109492,-0.345685761316329
-0.0453811780851235,-0.31747790636588
-0.0414425108831759,-0.345621744578522
-0.0303142532315783,-0.347339631578524
-0.0139387814755929,-0.359066715831449
-0.0225955623897708,-0.36246651692253
-0.00273205582508862,-0.389454930136866
-0.0145953163746035,-0.377553832267457
-0.0568752708744812,-0.41019624192751
-0.0063219164076766,-0.392602758328001
-0.00927928298268353,-0.420004260890532
0.00812068331800941,-0.388248093987235
-0.00130972967543416,-0.426197045350084
0.011007685910872,-0.422590594748538
0.0154959610044428,-0.430065647119375
0.0105179426566788,-0.480259314673482
0.041154677677664,-0.454893711835736
0.0293134090681913,-0.452441246331624
0.000649679458031419,-0.493648455788715
0.0244999633548645,-0.443895168835094
0.0756278237941203,-0.494542980339967
0.067923663131053,-0.488527406946222
0.0534283637919228,-0.489581301960248
0.058399678044857,-0.496988467604434
0.0352966283765322,-0.491217050448309
0.0675842849890384,-0.511860349551558
0.074117224911709,-0.517585665786464
0.0787194761036215,-0.526556059419718
-0.061648853283573,-0.650264609576254
0.0908433528465848,-0.534848311891947
0.0622246792634559,-0.572189660042561
0.0901229173431745,-0.503809935215869
0.104944607499017,-0.563399549057536
0.110277412918293,-0.570755910431467
0.140161367680735,-0.568074566066192
0.121011062177825,-0.585459071002853
0.151443203983772,-0.605721309334794
0.139437962094649,-0.610435054812894
0.183668753910509,-0.58406390904416
0.156918164680795,-0.608900588007139
0.156746300267012,-0.625722449255013
0.174169741022927,-0.638691271924739
0.171303344355741,-0.613209867380052
0.201941164341816,-0.651074648105804
0.191662616666205,-0.674323875618492
0.0558699096687116,-0.771107237172933
0.0521520612472126,-0.780632601812854
0.220850051953338,-0.689934778835662
0.208338969492903,-0.691790686256488
0.19674706195588,-0.688296806561087
0.202039459458343,-0.695658846897375
0.199409617467395,-0.689442283361492
0.212498413223587,-0.710400613402817
0.190901205949968,-0.707899201561243
0.122383352317567,-0.783092669120625
0.223584456596248,-0.719361968340487
0.0971050287856548,-0.860241517927601
0.186243052305725,-0.774252557497637
0.26873546646407,-0.802494818094147
0.251296156547094,-0.747771548215479
0.232314010250004,-0.756555452336762
0.256119190588675,-0.777222657631314
0.262054926587982,-0.76128618749022
0.254146382080635,-0.817904966261189
0.268588437017672,-0.799787734226658
0.277604495066708,-0.816940375560871
0.313222367011023,-0.818580548765131
0.376013087413018,-0.711854752229778
0.410201029586776,-0.739587723853813
0.284839590809779,-0.838032975002146
0.289878643806262,-0.830940495656109
