1.02623875043698,0.0339786049385628
1.01532120190525,0.0291254803999907
1.00448344992646,0.0243692074871647
0.993724930023075,0.0197085723213288
0.983045091823742,0.0151423783027531
0.972443398659077,0.0106694456500379
0.961919327168906,0.00628861095335728
0.951472366920538,0.00199872674116599
0.941102020037712,-0.00220133894007638
0.93080780083987,-0.0063127029336019
0.920589235491401,-0.0103364673678658
0.910445861660544,-0.0142737200403163
0.900377228187621,-0.0181255347897908
0.890382894762308,-0.0218929718579063
0.880462431609646,-0.0255770782398061
0.870615419184509,-0.0291788880246075
0.860841447874269,-0.0326994227258788
0.851140117709383,-0.0361396916024701
0.841511038081667,-0.0395006919700022
0.831953827469995,-0.0427834095033142
0.822468113173216,-0.0459888185301538
0.813053531050041,-0.0491178823163828
0.803709725265696,-0.0521715533429738
0.794436348045131,-0.0551507735750413
0.785233059432585,-0.058056474723165
0.776099527057306,-0.0608895784972381
0.767035425905247,-0.0636509968530733
0.75804043809656,-0.0663416322319865
0.7491142526687,-0.0689623777935745
0.740256565364987,-0.0715141176418917
0.731467078428456,-0.0739977270452262
0.722745500400838,-0.076414072649668
0.714091545926528,-0.0787640126866553
0.705504935561383,-0.0810483971746798
0.696985395586222,-0.0832680681153209
0.688532657824879,-0.0854238596837829
0.680146459466696,-0.0875165984140891
0.671826542893305,-0.0895471033790989
0.663572655509595,-0.091516186365491
0.655384549578746,-0.0934246520438635
0.647261982061198,-0.0952732981340924
0.639204714457465,-0.0970629155660825
0.631212512654671,-0.0987942886360486
0.623285146776724,-0.100468195158448
0.615422391037998,-0.102085406613694
0.607624023600456,-0.103646688291768
0.599889826434109,-0.105152799431844
0.592219585180713,-0.106604493358049
0.584613089020626,-0.108002517611445
0.57707013054274,-0.109347614078365
0.569590505617405,-0.110640519115189
0.562174013272252,-0.111881963669657
0.554820455570867,-0.113072673398824
0.547529637494215,-0.114213368783751
0.540301366824752,-0.115304765241002
0.533135454033157,-0.116347573231064
0.526031712167614,-0.117342498363747
0.518989956745583,-0.118290241500662
0.512010005647978,-0.119191498854857
0.505091679015726,-0.12004696208767
0.498234799148606,-0.120857318402902
0.491439190406346,-0.121623250638349
0.484704679111896,-0.122345437354797
0.478031093456837,-0.123024552922524
0.471418263408872,-0.123661267605381
0.46486602062134,-0.124256247642521
0.458374198344713,-0.124810155327838
0.451942631340023,-0.125323649087165
0.445571155794172,-0.125797383553308
0.43925960923708,-0.126232009638957
0.433007830460635,-0.126628174607535
0.426815659439385,-0.126986522142044
0.420682937252947,-0.127307692411953
0.414609506010092,-0.127592322138175
0.408595208774449,-0.1278410446562
0.402639889491818,-0.128054489977411
0.396743392919029,-0.128233284848639
0.390905564554328,-0.128378052810009
0.385126250569254,-0.128489414251108
0.379405297741958,-0.128567986465521
0.373742553391956,-0.128614383703787
0.36813786531626,-0.128629217224804
0.362591081726877,-0.128613095345721
0.357102051189629,-0.128566623490372
0.351670622564271,-0.128490404236264
0.346296644945888,-0.128385037360179
0.340979967607526,-0.128251119882409
0.335720439944044,-0.128089246109672
0.330517911417154,-0.127900007676721
0.325372231501624,-0.12768399358671
0.320283249632628,-0.127441790250317
0.315250815154204,-0.127173981523675
0.310274777268805,-0.126881148745136
0.305354984987926,-0.126563870770895
0.300491287083773,-0.126222724009499
0.295683532041959,-0.125858282455288
0.290931568015206,-0.125471117720761
0.286235242778031,-0.125061799067932
0.281594403682396,-0.124630893438674
0.277008897614307,-0.124178965484082
0.272478570951329,-0.123706577592892
0.268003269521024,-0.123214289918967
0.263582838560268,-0.122702660407873
0.259217122675441,-0.122172244822576
0.254905965803477,-0.121623596768281
0.250649211173752,-0.121057267716424
0.246446701270791,-0.120473807027853
0.242298277797785,-0.119873761975209
0.238203781640899,-0.119257677764526
0.234163052834356,-0.118626097556081
0.23017593052628,-0.117979562484504
0.226242252945292,-0.117318611678158
0.222361857367838,-0.116643782277837
0.21853458008623,-0.115955609454761
0.214760256377403,-0.115254626427921
0.211038720472359,-0.114541364480766
0.207369805526297,-0.113816352977263
0.203753343589407,-0.113080119377336
0.200189165578319,-0.112333189251718
0.196677101248206,-0.111576086296203
0.193216979165509,-0.110809332345341
0.189808626681288,-0.110033447385576
0.186451869905188,-0.109248949567847
0.183146533679995,-0.108456355219663
0.179892441556792,-0.107656178856666
0.176689415770685,-0.106848933193702
0.173537277217107,-0.106035129155406
0.170435845428669,-0.105215275886318
0.167384938552573,-0.104389880760542
0.164384373328557,-0.103559449390962
0.161433965067373,-0.10272448563802
0.158533527629784,-0.101885491618088
0.155682873406078,-0.101042967711415
0.152881813296085,-0.10019741256969
0.150130156689686,-0.0993493231232184
0.147427711447809,-0.0984991945877215
0.144774283883911,-0.0976475204707759
0.142169678745922,-0.0967947925779012
0.139613699198657,-0.095941501018307
0.137106146806682,-0.0950881342103091
0.134646821517626,-0.0942351788864249
0.132235521645935,-0.0933831200981595
0.129872043857061,-0.0925324412204906
0.127556183152068,-0.0916836239560634
0.12528773285267,-0.0908371483391033
0.123066484586665,-0.0899934927390577
0.12089222827379,-0.0891531338639749
0.118764752111961,-0.0883165467636286
0.116683842563912,-0.0874842048323984
0.114649284344213,-0.0866565798119143
0.112660860406679,-0.0858341417934728
0.110718351932135,-0.0850173592202353
0.108821538316557,-0.0842066988892142
0.106970197159577,-0.083402625953058
0.10516410425333,-0.082605603921641
0.10340303357166,-0.0818160946634666
0.101686757259667,-0.0810345584068917
0.100015045623584,-0.0802614537411805
0.0983876671209918,-0.0794972376173945
0.0968043883513612,-0.0787423653491264
0.0952649740469073,-0.0779972906130854
0.093769187063766,-0.0772624654495414
0.092316788373476,-0.0765383402626347
0.0909075370547669,-0.0758253638205584
0.0895411902856447,-0.0751239832556211
0.0882175033357727,-0.0744346440641958
0.0869362295591395,-0.0737577901065626
0.0856971203870119,-0.0730938636066517
0.0844999253211658,-0.0724433051516924
0.0833443919273911,-0.071806553691777
0.0822302658292653,-0.071184046539343
0.0811572907021913,-0.0705762193685825
0.0801252082676946,-0.0699835062147839
0.0791337582879744,-0.0694063394736123
0.0781826785607051,-0.0688451499003353
0.077271704914083,-0.0683003666089995
0.0764005712021129,-0.0677724170715646
0.0755690093001312,-0.0672617271170005
0.0747767491005603,-0.0667687209303538
0.0740235185088895,-0.0662938210517889
0.0733090434398791,-0.0658374483756107
0.0726330478139812,-0.0654000221492738
0.0719952535539753,-0.0649819599723833
0.0713953805818118,-0.0645836777956953
0.0708331468156609,-0.0642055899201201
0.0703082681671621,-0.0638481089957349
0.0698204585388682,-0.0635116460208118
0.0693694298218828,-0.0631966103408667
0.068954891893684,-0.0629034096477331
0.0685765526161312,-0.0626324499786686
0.0682341178336512,-0.0623841357154974
0.067927291371598,-0.062158869583796
0.0676557750347836,-0.0619570526521258
0.0674192686061742,-0.0617790843313193
0.0672174698457483,-0.0616253623738244
0.0670500744895123,-0.0614962828731129
0.0669167762486693,-0.0613922402631571
0.0668172668089367,-0.0613136273179814
0.0667512358300089,-0.0612608351512933
0.0667183709451603,-0.0612342532161987
0.0667183577609847,-0.0612342693050077
0.0667508798572662,-0.061261269549135
0.066815618786979,-0.0613156384191015
0.0669122540764093,-0.0613977587246405
0.0670404632253979,-0.061508011614915
0.0671999217076965,-0.0616467765788516
0.0673903029714356,-0.0618144314455945
0.0676112784396983,-0.0620113523850864
0.0678625175111964,-0.0622379139087805
0.0681436875610443,-0.0624944888704902
0.068454453941626,-0.0627814484673789
0.0687944799835515,-0.0630991622410987
0.0691634269966973,-0.06344799807908
0.0695609542713282,-0.0638283222159796
0.0699867190792936,-0.0642404992352912
0.0704403766752958,-0.0646848920711232
0.0709215802982255,-0.0651618620101513
0.0714299811725587,-0.0656717686937482
0.0719652285098126,-0.0662149701202979
0.0725269695100531,-0.0667918226476991
0.0731148493634529,-0.0674026809960632
0.0737285112518918,-0.0680478982506118
0.0743675963505972,-0.0687278258647803
0.075031743829819,-0.0694428136635317
0.0757205908565341,-0.0701932098468871
0.0764337725961764,-0.0709793609936772
0.0771709222143859,-0.0718016120655226
0.0779316708787746,-0.0726603064110454
0.0787156477607009,-0.0735557857703204
0.0795224800370511,-0.0744883902795705
0.0803517928920201,-0.0754584584761113
0.081203209518887,-0.0764663273035523
0.0820763511217823,-0.0775123321172595
0.0829708369174381,-0.0785968066900849
0.0838862841369191,-0.07972008321837
0.0848223080273273,-0.0808824923282282
0.085778521853476,-0.0820843630821133
0.0867545368995265,-0.0833260229856788
0.0877499624705836,-0.0846077979949352
0.0887644058942428,-0.0859300125237115
0.0897974725220838,-0.087292989451427
0.0908487657311063,-0.0886970501311794
0.0919178869250991,-0.0901425143981565
0.0930044355359399,-0.0916297005783779
0.0941080090248173,-0.0931589254977724
0.0952282028833706,-0.0947305044915992
0.0963646106347403,-0.0963447514142188
0.0975168238345238,-0.0980019786492209
0.0986844320716287,-0.0997024971199164
0.0998670229690193,-0.101446616300199
0.101064182184348,-0.10323464422579
0.102275493410465,-0.105066887505858
0.103500538375802,-0.106943651335047
0.104738896844619,-0.10886523950589
0.105990146617112,-0.110831954421643
0.10725386352937,-0.112844097109523
0.108529621453176,-0.114901967234384
0.109816992295649,-0.117005863112813
0.111115545998708,-0.119156081727671
0.112424850538367,-0.121352918743088
0.113744471923837,-0.1235966685199
0.115073974196437,-0.12588762413157
0.116412919428308,-0.128226077380571
0.117760867720906,-0.130612318815255
0.119117377203291,-0.133046637747221
0.120482004030184,-0.135529322269172
0.121854302379783,-0.138060659273296
0.123233824451347,-0.140640934470161
0.124620120462519,-0.143270432408143
0.126012738646397,-0.145949436493394
0.127411225248319,-0.148678229010357
0.12881512452239,-0.151457091142853
0.130223978727698,-0.154286302995727
0.131637328124247,-0.157166143617088
0.133054710968572,-0.160096891021134
0.134475663509037,-0.163078822211584
0.135899719980807,-0.166112213205736
0.137326412600476,-0.169197339059138
0.138755271560344,-0.172334473890911
0.140185825022335,-0.17552389090972
0.14161759911154,-0.178765862440411
0.143050117909376,-0.182060659951329
0.14448290344635,-0.185408554082318
0.145915475694412,-0.188809814673441
0.147347352558891,-0.1922647107944
0.148778049869994,-0.195773510774706
0.150207081373865,-0.19933648223458
0.15163395872318,-0.202953892116628
0.153058191467274,-0.206626006718287
0.154479287041776,-0.210353091725058
0.155896750757758,-0.214135412244556
0.15731008579035,-0.217973232841376
0.158718793166849,-0.221866817572804
0.160122371754265,-0.225816430025379
0.16152031824632,-0.229822333352338
0.162912127149874,-0.233884790311944
0.164297290770748,-0.23800406330673
0.165675299198958,-0.242180414423667
0.167045640293311,-0.246414105475286
0.16840779966537,-0.250705398041762
0.169761260662755,-0.255054553513988
0.171105504351772,-0.259461833137652
0.172440009499346,-0.263927498058355
0.173764252554239,-0.268451809367764
0.175077707627541,-0.27303502815085
0.176379846472402,-0.277677415534216
0.177670138462992,-0.282379232735543
0.178948050572672,-0.287140741114183
0.180213047351349,-0.291962202222919
0.181464590901985,-0.296843877860911
0.182702140856261,-0.301786030127868
0.183925154349348,-0.306788921479467
0.185133085993774,-0.311852814784031
0.186325387852365,-0.316977973380527
0.187501509410223,-0.322164661137876
0.188660897545731,-0.327413142515637
0.189802996500545,-0.332723682626065
0.190927247848556,-0.338096547297605
0.192033090463787,-0.343532003139829
0.193119960487201,-0.349030317609864
0.194187291292393,-0.354591759080337
0.195234513450126,-0.360216596908877
0.196261054691693,-0.365905101509209
0.197266339871065,-0.371657544423873
0.198249790925794,-0.377474198398612
0.199210826836639,-0.383355337458462
0.20014886358588,-0.389301236985591
0.201063314114289,-0.39531217379892
0.201953588276707,-0.401388426235581
0.202819092796211,-0.407530274234239
0.203659231216816,-0.413737999420341
0.204473403854677,-0.420011885193321
0.205261007747759,-0.426352216815831
0.206021436603916,-0.432759281505017
0.206754080747352,-0.439233368525921
0.207458327063413,-0.445774769287049
0.20813355894166,-0.452383777438143
0.208779156217187,-0.45906068897025
0.209394495110127,-0.465805802318099
0.209978948163296,-0.47261941846489
0.210531884177933,-0.479501841049523
0.21105266814747,-0.486453376476341
0.211540661189284,-0.493474334027457
0.211995220474386,-0.500565025977726
0.212415699154964,-0.507725767712426
0.212801446289742,-0.51495687784773
0.213151806767089,-0.522258678354033
0.213466121225807,-0.529631494682212
0.213743725973536,-0.537075655892904
0.213983952902723,-0.544591494788864
0.214186129404056,-0.552179348050509
0.214349578277322,-0.559839556374716
0.214473617639593,-0.567572464616969
0.21455756083068,-0.575378421936949
0.21460071631576,-0.583257781947654
0.214602387585111,-0.591210902868152
0.214561873050859,-0.599238147680064
0.214478465940658,-0.607339884287887
0.214351454188205,-0.615516485683254
0.214180120320509,-0.623768330113249
0.213963741341813,-0.632095801252894
0.213701588614061,-0.640499288381918
0.213392927733832,-0.648979186565934
0.213037018405603,-0.657535896842156
0.21263311431127,-0.66616982640978
0.212180462975776,-0.674881388825165
0.21167830562876,-0.683671004201957
0.211125877062093,-0.692539099416301
0.210522405483173,-0.701486108317286
0.209867112363863,-0.710512471942784
0.20915921228493,-0.71961863874084
0.208397912775842,-0.728805064796784
0.207582414149799,-0.738072214066222
0.206711909333829,-0.747420558614112
0.205785583693808,-0.756850578860078
0.204802614854249,-0.766362763830178
0.203762172512685,-0.77595761141531
0.202663418248481,-0.785635628636463
0.201505505325905,-0.795397331917036
0.200287578491271,-0.805243247362426
0.199008773763954,-0.815173911047138
0.197668218221111,-0.825189869309626
0.196265029775871,-0.835291679055142
0.194798316948801,-0.845479908066814
0.193267178632438,-0.855755135325246
0.191670703848637,-0.866117951336899
0.190007971498523,-0.876568958471542
0.188278050104789,-0.887108771309066
0.186479997546097,-0.897738016995968
0.184612860783307,-0.908457335611825
0.182675675577277,-0.919267380546095
0.180667466197939,-0.930168818885563
0.178587245124366,-0.941162331812828
0.17643401273551,-0.952248615016164
0.174206756991319,-0.963428379111164
0.171904453103876,-0.97470235007455
0.169526063198237,-0.98607126969059
0.167070535962602,-0.99753589601052
0.164536806287455,-1.00909700382545
0.161923794893285,-1.02075538515321
