0.837858388383919,-0.536203302922842
0.814751010972712,-0.513292660015165
0.788201645607468,-0.537633570798991
0.821037716470854,-0.553173012977268
0.699567733880332,-0.617408175588575
0.897678100506568,-0.381817778691964
0.801653251889454,-0.499278592054457
0.797235339506042,-0.493762945554139
0.792365930275887,-0.487275769119766
0.763980009488149,-0.473693184747297
0.799913808300101,-0.490387012288346
0.764549375460288,-0.478798391257538
0.767433569951432,-0.436272379516524
0.738211790987402,-0.439929036138909
0.624989697600539,-0.551038878103043
0.740559307155932,-0.421391231786179
0.742744665564527,-0.397691596299034
0.734130397772688,-0.367738772200791
0.712624146373439,-0.351974285593218
0.750211524367337,-0.308425511997733
0.719493353736713,-0.313899436417792
0.715892507225486,-0.291787188248912
0.720320843914377,-0.257464675459966
0.709064087896828,-0.253574342059684
0.706739904473525,-0.232290763713633
0.708969851931089,-0.224413609624117
0.703604980959603,-0.197628710453994
0.80470526553595,-0.0519883699770236
0.737003652953746,-0.156093181902881
0.719372848573718,-0.143604012333501
0.707083636202886,-0.0969455574392964
0.698496261152694,-0.0851250549282726
0.771790089515335,0.0388776366363201
0.701527422137077,0.000231093762626457
0.724945805439,0.00825864405029986
0.718606113981453,0.0499070509479852
0.839452225129259,0.185657501016028
0.762415755200762,0.0945795736452541
0.75923591887369,0.115797611114189
0.764065092494269,0.124606898233299
0.773012133847422,0.144295267149365
0.791338114920616,0.206913229617272
0.693513690399637,0.0871706391060025
0.7997511093112,0.21161659960041
0.832174788878494,0.212479147402664
0.842344230820122,0.204426727449733
0.807868549868276,0.235006512703443
0.835573575039518,0.259187349514847
0.854556552048749,0.273544629782802
0.880894191227261,0.298688361704382
0.798491921034226,0.317015756109959
0.885309288188634,0.30720899930706
0.8950145985788,0.316553332345388
0.922523610195223,0.30648638097801
0.912915940489499,0.347615034758303
0.921507352706903,0.339106115494523
0.943661072962114,0.334411697362285
0.909025707397406,0.311622132411047
0.968053288884887,0.322289462690808
0.948261129673337,0.357347447168385
0.953023128715656,0.36004141134125
0.956911468203179,0.362082911863089
0.959881912556148,0.363525859992569
0.96189486809473,0.364427550345188
0.96291563362578,0.364848289456355
0.850931358191415,0.248421313750824
0.820944176896039,0.282326893101824
0.948967656847432,0.373356113996136
0.880568163333246,0.247672312939892
0.822539089079707,0.269158463654482
0.932958089882872,0.358808889212997
0.915390373064397,0.349226183499115
0.919323442009545,0.397391345124635
0.904131096719789,0.356760840433633
0.992216871120863,0.460991465142997
0.875398328263672,0.345628351066472
0.852206793369342,0.358828556354139
0.946757444393793,0.49741728537504
0.821230511508288,0.362937382151802
0.779741184838264,0.340248495793955
0.777701974132267,0.379175477985362
0.768745043391252,0.33667542911327
0.73158227876254,0.368865960773412
0.713803557923792,0.391595582972421
0.65367615827302,0.425026562475937
0.655324635687706,0.416288975376533
0.723502651404321,0.526701589286951
0.615914439017299,0.436702657276697
0.576850835792744,0.460164571286844
0.551219292964837,0.459638963760734
0.562111417586553,0.437178986382309
0.521516526213306,0.511586749235189
0.500156781930058,0.538945681641617
0.450684873182769,0.562723567342075
0.549333069692796,0.633907971833066
0.442817470505076,0.580112945429166
0.403889112808132,0.631340386516051
0.505470999570224,0.739302915790392
0.366178808173733,0.666170650269926
0.354817002363911,0.683763453069493
0.33206517834678,0.680342567846726
0.334572385915684,0.718600800635145
0.322958401297681,0.761710221098845
0.287643672188699,0.860129939289305
0.2884219211081,0.825765873481922
0.283490874399772,0.860011332248572
0.401526137305195,0.97171448384603
0.22765987837409,0.884636768482656
0.275327085592833,0.912522626633888
0.238476564933413,0.9356472014681
0.356752637962417,1.00967073380466
0.253907701896103,0.916439573701926
0.304572345570079,0.92899294930918
0.284855267984929,0.911371482463969
0.276031507611043,0.931694585273262
0.304321789463263,0.902166312623238
0.26239710832216,0.921949308600549
0.264692759516552,0.899300091276349
0.166183356087002,0.774205430350479
0.161324232047185,0.785804315239634
0.211970184813594,0.864659921094108
0.259690768216193,0.854084719665297
0.251022917334698,0.845872870100921
0.243896740415769,0.872563212169316
0.22154348268959,0.827157484128499
0.176086851818485,0.818909908795099
0.312587525168662,0.920985844169038
0.178073613005995,0.775973506305408
0.204289555206672,0.781899884247186
0.150980739251247,0.74950242240321
0.127566694561817,0.727676225914018
0.106298271074943,0.700358324755676
0.0812755857046778,0.714057007648133
0.0686763003043722,0.685311425840667
0.026793784632682,0.639354477410101
-0.0269878303712505,0.59837751008066
-0.0540679895349954,0.644750024123335
-0.073746060580374,0.612272927767174
-0.0804594527259564,0.640764949743038
-0.129919533712468,0.61116112944134
-0.156246002436662,0.623955106173444
-0.321404053584385,0.475757680318086
-0.216696473877546,0.583684964810263
-0.251062755655777,0.568849513132552
-0.270350689543158,0.549732954424132
-0.299267567631774,0.570609465383956
-0.282147084340987,0.557002010418125
-0.232962881096571,0.674064571028551
-0.391235264220146,0.567992931137828
-0.385299866794286,0.551568851519215
-0.462995069231069,0.550238819788738
-0.428773077789896,0.597918604782655
-0.484870664484368,0.574590656003937
-0.482767996804948,0.586281894958737
-0.571843246759641,0.470146714265741
-0.538809450071083,0.588131980166835
-0.511078278726385,0.610279545096029
-0.523387441146051,0.570257889526271
-0.548713968804203,0.619693334905666
-0.529194449809193,0.635396365391656
-0.556294820854965,0.634817435759014
-0.43940696008822,0.715037550445565
-0.5979056009298,0.630391562124377
-0.645142888413932,0.534187723018758
-0.530719123214064,0.651613595315447
-0.493542220895687,0.627453888236911
-0.478416783857532,0.63168055769276
-0.552185001530005,0.590428485075377
-0.516000694985617,0.60040374221871
-0.422260762497531,0.656091571335503
-0.545388658399683,0.571296844488878
-0.509128354008595,0.54360010661784
-0.410963330472389,0.64848843169824
-0.481935743034592,0.542971539153564
-0.486045718732449,0.499190976257423
-0.432710259646105,0.460262403503103
-0.465450899319158,0.385984203009021
-0.449898514120198,0.356364901119463
-0.415992960334031,0.29782423840012
-0.449468370526511,0.30470095651134
-0.379879149449885,0.314859550895161
-0.467904413595111,0.158653712520833
-0.475763310353513,0.199933448530484
-0.462855365339729,0.123566518461766
-0.474992023493798,0.10841399320192
-0.487349976807451,0.0346476575234923
-0.487955029466219,-0.000609184847878277
-0.422982139632969,0.0696543311512705
-0.537477491435962,-0.0346871144892967
-0.539894306466858,-0.0433763061636695
-0.543771209727141,-0.0947012751751699
-0.582185593226927,-0.146180222995811
-0.612604708878122,-0.205449527111671
-0.673247872476787,-0.221821577126279
-0.689048789041289,-0.24836788083936
-0.694229654493881,-0.251407139789992
-0.729127548128558,-0.26771759673437
-0.697618319899139,-0.246941563926084
-0.706004403272397,-0.257343812796293
-0.666564907172441,-0.238654292561739
-0.680681922242702,-0.234532258291392
-0.653051605897167,-0.249573583093029
-0.641928045474148,-0.249285178335229
-0.511943686718992,-0.124713554378391
-0.61683376031762,-0.249834091103374
-0.617977159621518,-0.283166526294997
-0.574520840463053,-0.233396053908936
-0.522167045678988,-0.264317298541576
-0.521201230726953,-0.262999431989174
-0.485695977676602,-0.274544873523613
-0.453227442462374,-0.313465773430831
-0.396202685893664,-0.309473071955906
-0.291603548264735,-0.372274682374779
-0.221289172945727,-0.344935766181035
-0.276867801342738,-0.399374407672823
-0.219185737366945,-0.431136533738467
-0.128224221527135,-0.532398298904047
-0.0929261638657127,-0.585158085670566
-0.179585777816298,-0.683626315478061
-0.0735110224127758,-0.61981168552595
-0.0790773305638131,-0.632686968609903
-0.0536714052687803,-0.70391769772344
-0.0307082610600264,-0.728699902973659
-0.0297617615387146,-0.76510870850432
-0.0200581290828721,-0.785574552030247
-0.0189110285102792,-0.801750182186928
-0.0181868679638132,-0.809085129198684
-0.020174782412149,-0.851709579030604
-0.0144515439334687,-0.824165029966553
-0.0201561521336218,-0.84152331746192
-0.0188660917590686,-0.82150015066597
-0.0242663944315381,-0.817753458067972
-0.0122512899895787,-0.788740641568546
-0.00413159562726882,-0.786122105037382
-0.0031054791008731,-0.777319092018974
0.0722256796644886,-0.675180536741832
0.18113657424573,-0.577698783495081
0.362105047786624,-0.459259820940129
0.291639790553454,-0.54017153607036
0.274006544147862,-0.522976020680303
0.317195542461555,-0.49761137195952
0.568901666111335,-0.44797061739752
0.776623533685818,-0.492498815286102
0.905027960151668,-0.397868741679587
0.915705813242176,-0.418852036675915
