0.0880943251144112,0.156331894748497
0.0816461760382289,0.155247950632301
0.0751884225345893,0.153938562953936
0.068728913866273,0.152402074491809
0.0622755934007832,0.150637100214874
0.0558364892077916,0.14864253154156
0.0494197044824757,0.146417540275083
0.0430334078058471,0.143961582208426
0.0366858232534209,0.141274400392655
0.0303852203638093,0.138356028062621
0.0241399039790508,0.135206791214494
0.017958203968691,0.131827310829986
0.0118484648498308,0.128218504742539
0.00581903531553685,0.124381589141139
-0.0001217423158211,0.12031807970791
-0.00596554271759103,0.116029792385989
-0.0117040682253634,0.111518843774714
-0.017329059548022,0.106787651149515
-0.0228323065062382,0.101838932104409
-0.0282056587852299,0.0966757038154302
-0.0334410366885339,0.0913012819237694
-0.0385304418794762,0.085719279037882
-0.0434659680969814,0.0799336028542704
-0.0482398118323327,0.073948453897114
-0.0528442829534818,0.0677683228773875
-0.0572718152635091,0.0613979876725737
-0.0615149769798554,0.0548425099285437
-0.0655664811209806,0.048107231285647
-0.0694191957871576,0.0411977692315153
-0.073066154322174,0.0341200125835552
-0.0765005653428032,0.0268801166045629
-0.079715822623,0.0194844977553566
-0.0827055148198969,0.0119398280887828
-0.0854634350288052,0.00425302928990194
-0.0879835901545761,-0.00356873363238586
-0.0902602100868348,-0.011518058996571
-0.092287756666786,-0.0195873154364756
-0.0940609324334782,-0.0277686492193237
-0.0955746891376248,-0.0360539918869335
-0.0968242360113062,-0.0444350682125981
-0.0978050477821134,-0.0529034044658081
-0.0985128724205488,-0.0614503369765641
-0.0989437386097691,-0.0700670209906241
-0.0990939629270324,-0.0787444398066439
-0.098960156726515,-0.0874734141857863
-0.0985392327134635,-0.0962446120240029
-0.0978284111999793,-0.105048558276832
-0.0968252260330599,-0.113875645126208
-0.0955275301858733,-0.122716142378428
-0.0939335010036013,-0.131560208082115
-0.0920416450955561,-0.140397899354669
-0.0898508028656599,-0.149219183405426
-0.08736015267377,-0.15801394874344
-0.0845692146207342,-0.166772016557508
-0.0814778539504775,-0.175483152255834
-0.0780862840628432,-0.184137077152441
-0.0743950691313454,-0.192723480287212
-0.0704051263204278,-0.201232030366244
-0.066117727597279,-0.209652387808952
-0.0615345011337049,-0.217974216888201
-0.0566574322940278,-0.22618719794955
-0.0514888642054503,-0.234281039695537
-0.0460314979078004,-0.2422454915208
-0.0402883920800533,-0.250070355883665
-0.034262962341519,-0.257745500699768
-0.0279589801260693,-0.265260871743148
-0.0213805711282803,-0.272606505040173
-0.0145322133208606,-0.279772539241615
-0.0074187345432401,-0.28674922795813
-4.53096616979121e-05,-0.293526952044364
0.00758254269808592,-0.30009623181693
0.0154589638446669,-0.306447739191452
0.0235777591387581,-0.312572309723948
0.0319324025330371,-0.318460954541837
0.0405160415309228,-0.324104872149909
0.0493215025609075,-0.329495460096693
0.0583412967625244,-0.334624326486736
0.0675676261795272,-0.339483301324415
0.0769923903553676,-0.344064447675035
0.0866071933255563,-0.348360072629125
0.0964033510010052,-0.352362738055962
0.106371898935966,-0.356065271132587
0.116503600473699,-0.359460774634731
0.126788955262525,-0.362542636976292
0.137218208134472,-0.365304541984236
0.147781358338228,-0.367740478396044
0.158468169117692,-0.369844749067061
0.169268177626969,-0.371611979875409
0.180170705172195,-0.373037128312406
0.191164867770174,-0.374115491746725
0.202239587013397,-0.374842715350876
0.213383601230583,-0.375214799678892
0.224585476931506,-0.375228107884502
0.235833620524497,-0.374879372569372
0.247116290294596,-0.374165702251438
0.258421608630028,-0.373084587443692
0.269737574484289,-0.371633906334223
0.281052076060793,-0.369811930058698
0.292352903706751,-0.367617327556932
0.30362776300259,-0.365049170005595
0.314864288032985,-0.362106934819581
0.326050054825247,-0.358790509215016
0.337172594940604,-0.355100193327352
0.348219409203603,-0.351036702878463
0.359177981554694,-0.346601171387174
0.370035793010794,-0.341795151918118
0.380780335718461,-0.336620618364344
0.391399127084104,-0.331079966259606
0.401879723965523,-0.325176013116774
0.412209736908887,-0.318911998289346
0.422376844415162,-0.312291582353557
0.432368807219875,-0.305318846009128
0.442173482570001,-0.297998288497236
0.451778838481711,-0.290334825534823
0.461172967962618,-0.282333786764924
0.470344103182166,-0.274000912723228
0.479280629573759,-0.265342351321653
0.487971099852229,-0.256364653850251
0.496404247930265,-0.247074770499353
0.504569002717467,-0.237480045404351
0.512454501785715,-0.227588211216152
0.520050104884661,-0.21740738320082
0.527345407291199,-0.206946052872513
0.534330252976909,-0.196213081164367
0.540994747577597,-0.185217691142513
0.547329271149173,-0.173969460268965
0.553324490694326,-0.162478312219659
0.558971372444581,-0.15075450826444
0.564261193882585,-0.138808638216348
0.569185555489631,-0.126651610958051
0.573736392203728,-0.114294644553807
0.577905984573719,-0.101749255955837
0.581686969595286,-0.0890272503144843
0.585072351214914,-0.0761407099020487
0.588055510488245,-0.0631019826606458
0.590630215379527,-0.0499236703849247
0.592790630189257,-0.0366186165509358
0.594531324597429,-0.0231998938029017
0.595847282310199,-0.00968079111007469
0.596733909298146,0.00392519939370614
0.597187041614739,0.0176043958747164
0.597202952784001,0.0313429405548774
0.596778360746825,0.0451268137442859
0.595910434355823,0.0589418481365382
0.594596799409053,0.0727737433522886
0.592835544213446,0.086608080716122
0.590625224669221,0.1004303382515
0.587964868867094,0.114225905878222
0.584853981190579,0.127980100796533
0.581292545916198,0.141678183041744
0.577281030304943,0.155305371192944
0.57282038717888,0.168846858219145
0.567912056977322,0.182287827445976
0.562557969287549,0.195613468625809
0.556760543845635,0.208808994094016
0.550522691003476,0.221859654993887
0.543847811658741,0.23475075755256
0.536739796644997,0.247467679390195
0.529203025579887,0.259995885844486
0.521242365169808,0.27232094629252
0.51286316697016,0.284428550451904
0.504071264600796,0.296304524643012
0.494872970416959,0.307934847994185
0.485275071636553,0.319305668571666
0.475284825925224,0.330403319416072
0.46490995644134,0.341214334467228
0.45415864634355,0.351725464359201
0.443039532764223,0.361923692067464
0.431561700252674,0.371796248390176
0.419734673692679,0.381330627245678
0.407568410699412,0.390514600768416
0.395073293501476,0.399336234185661
0.382260120314391,0.407783900457524
0.369140096212382,0.415846294662987
0.355724823505992,0.423512448114839
0.342026291633567,0.430771742186637
0.328056866575254,0.437613921835064
0.313829279798715,0.444029108801294
0.29935661674633,0.450007814475282
0.284652304874183,0.455540952407151
0.26973010125371,0.460619850450227
0.254604079747373,0.465236262520539
0.239288617770269,0.469382379958012
0.223798382650114,0.473050842474919
0.208148317598469,0.476234748677552
0.192353627306659,0.478927666147488
0.176429763180221,0.481123641069242
0.160392408226226,0.482817207391523
0.144257461608264,0.484003395509801
0.128041022884274,0.484677740458313
0.111759375942882,0.484836289600167
0.0954289726542419,0.484475609804668
0.0790664162518103,0.48359279410153
0.0626884444618297,0.482185467802131
0.0463119123976524,0.480251794078556
0.0299537752363738,0.477790478991673
0.0136310706955548,0.474800775960084
-0.00263909867188072,0.471282489662368
-0.0188395833462214,0.467235979365587
-0.0349532048543845,0.462662161673673
-0.0509627739093222,0.457562512689863
-0.0668511086563256,0.451939069588014
-0.0826010530069448,0.445794431588216
-0.0981954950410632,0.43913176033276
-0.113617385457491,0.431954779659176
-0.128849756053318,0.424267774767658
-0.143875738212139,0.416075590780887
-0.158678581381172,0.407383630694877
-0.1732416715172,0.398197852720143
-0.187548549481246,0.388524767013168
-0.201582929361807,0.378371431798766
-0.21532871670652,0.367745448884645
-0.228770026642093,0.356654958570128
-0.241891201862405,0.345108633951634
-0.254676830464707,0.333115674628223
-0.267111763613958,0.32068579981116
-0.279181133015404,0.307829240842106
-0.290870368175655,0.29455673312522
-0.302165213432638,0.280879507479119
-0.313051744734977,0.266809280915279
-0.323516386151549,0.252358246850127
-0.33354592609215,0.237539064758713
-0.343127533220464,0.222364849278492
-0.352248772040754,0.206849158772372
-0.360897618139984,0.191005983360821
-0.369062473067371,0.174849732433427
-0.376732178833679,0.158395221650932
-0.3838960320129,0.141657659449334
-0.390543797429326,0.124652633058271
-0.3966657214134,0.107396094046451
-0.402252544610102,0.0899043434074571
-0.407295514324078,0.0721940161998498
-0.411786396386109,0.0542820657559665
-0.415717486526017,0.036185747474401
-0.419081621237525,0.0179226022116278
-0.421872188121114,-0.000489560711262882
-0.424083135691393,-0.0190326808702547
-0.425708982636051,-0.0376884644516089
-0.426744826513958,-0.0564384022992072
-0.427186351880564,-0.0752637882782313
-0.427029837829299,-0.0941457379369578
-0.426272164938257,-0.113065207448058
-0.42491082161205,-0.132003012810393
-0.422943909809312,-0.150939849291971
-0.42037015014697,-0.169856311094341
-0.417188886373021,-0.188732911218429
-0.4134000892002,-0.207550101511497
-0.409004359493582,-0.226288292874614
-0.404002930805825,-0.244927875609798
-0.398397671254424,-0.263449239885736
-0.392191084736057,-0.281832796300766
-0.385386311473757,-0.300058996521636
-0.377987127893374,-0.318108353976357
-0.369997945826478,-0.335961464579341
-0.361423811037572,-0.353599027466882
-0.352270401074193,-0.371001865720927
-0.342544022439204,-0.388150947059027
-0.332251607085298,-0.405027404468282
-0.321400708232474,-0.421612556761078
-0.309999495509949,-0.437887929030397
-0.298056749424718,-0.453835272982496
-0.285581855159704,-0.469436587124812
-0.27258479570515,-0.484674136786977
-0.259076144327662,-0.499530473952954
-0.245067056382001,-0.513988456882394
-0.230569260471484,-0.528031269499449
-0.215595048963544,-0.541642440527458
-0.200157267867734,-0.554805862348075
-0.184269306084143,-0.567505809563646
-0.167945084030947,-0.579726957241847
-0.151199041660441,-0.591454398821878
-0.134046125873671,-0.602673663661745
-0.116501777344396,-0.613370734206511
-0.0985819167638294,-0.623532062757677
-0.0803029305182555,-0.633144587824222
-0.0616816558122549,-0.642195750036208
-0.0427353652509519,-0.650673507602206
-0.0234817508952879,-0.658566351292261
-0.0039389078049652,-0.665863318928503
0.015874682915701,-0.672554009365993
0.0359401715531883,-0.678628595946844
0.0562383576850284,-0.684077839411175
0.0767497085279562,-0.688893100248932
0.0974543777164411,-0.693066350477192
0.118332224493558,-0.696590184828057
0.139362833295668,-0.699457831332865
0.160525533711857,-0.70166316128899
0.181799420798627,-0.703200698596144
0.203163375729883,-0.70406562844966
0.224596086761816,-0.704253805378927
0.246076070491852,-0.703761760619752
0.267581693390501,-0.702586708810103
0.289091193584486,-0.700726553999372
0.31058270286924,-0.698179894961971
0.33203426892853,-0.694946029806779
0.353423877738609,-0.69102495987469
0.374729476134082,-0.686417392917197
0.395928994512364,-0.681124745549734
0.417000369653378,-0.675149144974185
0.437921567630956,-0.668493429965773
0.458670606792185,-0.661161151120262
0.479225580780796,-0.653156570358199
0.499564681580544,-0.644484659683683
0.51966622255443,-0.63515109919593
0.539508661455498,-0.625162274352688
0.559070623384914,-0.614525272485344
0.578330923672963,-0.603247878566355
0.597268590658616,-0.591338570230415
0.615862888343309,-0.578806512051605
0.634093338894629,-0.565661549079502
0.651939744975671,-0.551914199638076
0.669382211875915,-0.53757564739198
0.686401169419585,-0.522657732685602
0.702977393627615,-0.507172943161071
0.719092028109491,-0.491134403662185
0.73472660516145,-0.47455586543199
0.749863066547738,-0.457451694612543
0.764483783941871,-0.439836860056121
0.778571579005103,-0.421726920457953
0.792109743079633,-0.403138010821244
0.80508205647437,-0.384086828266057
0.817472807321437,-0.364590617194317
0.82926680998198,-0.344667153823943
0.840449422980204,-0.324334730105825
0.851006566445021,-0.303612137038066
0.860924739039102,-0.282518647392581
0.870191034355606,-0.261073997869846
0.878793156763344,-0.239298370698226
0.886719436681635,-0.21721237469498
0.893958845266665,-0.194837025806643
0.90050100849168,-0.172193727147118
0.906336220603938,-0.149304248552414
0.911455456941934,-0.126190705671507
0.915850386097018,-0.102875538613414
0.91951338140416,-0.0793814901710526
0.92243753174726,-0.0557315836430284
0.924616651665083,-0.0319491002749648
0.926045290744552,-0.00805755634247288
0.926718742288874,0.0159193201016797
0.926633051248641,0.0399576127932008
0.925785021404828,0.0640332411113309
0.924172221793315,0.0881219841994765
0.921792992361326,0.112199505327338
0.918646448846986,0.136241376469949
0.914732486873912,0.160223103078882
0.910051785253614,0.184120149020483
0.904605808489244,0.207907961655735
0.898396808475062,0.231561997036208
0.89142782538681,0.255057745190184
0.883702687759003,0.278370755473022
0.875226011746013,0.301476661955513
0.866003199564613,0.324351208823989
0.85604043711657,0.346970275765708
0.845344690790649,0.369309903313054
0.833923703444316,0.391346318120008
0.821785989566245,0.413055958144287
0.808940829621607,0.434415497708632
0.795398263582985,0.455401872414667
0.781169083650618,0.475992303882885
0.76626482616655,0.496164324292349
0.750697762728064,0.515895800693873
0.734480890506754,0.535164959070502
0.717627921780281,0.553950408119401
0.70015327268487,0.572231162729339
0.682072051197318,0.589986667128276
0.663400044356184,0.607196817675774
0.644153704732679,0.623841985275218
0.624350136162498,0.639903037381206
0.60400707875079,0.655361359577711
0.583142893163112,0.670198876703097
0.561776544216144,0.684398073498319
0.539927583782586,0.697942014755206
0.517616133025564,0.710814364942023
0.494862863978484,0.722999407284094
0.471688980487121,0.734482062277675
0.448116198531415,0.745247905615815
0.424166725945111,0.755283185505496
0.399863241552152,0.764574839355882
0.375228873739349,0.77311050981809
0.350287178485508,0.780878560157533
0.325062116867872,0.787868088940493
0.299578032067312,0.794068944017225
0.273859625894283,0.799471735784605
0.247931934858236,0.804067849711964
0.221820305803556,0.807849458114537
0.195550371135824,0.810809531159618
0.169148023662541,0.812941847091298
0.142639391073033,0.814241001660426
0.11605081008271,0.814702416747195
0.0894088002672085,0.814322348164573
0.0627400376124894,0.813097892631608
0.0360713278071857,0.81102699390644
0.00942957930402619,0.80810844806973
-0.0171582238226811,0.804341907950037
-0.0436650491960714,0.79972788668355
-0.0700638436046386,0.794267760401461
-0.09632756059114,0.787963770039133
-0.122429188134369,0.780819022262134
-0.148341776395512,0.77283748950508
-0.174038465500594,0.76402400912017
