0.0928192360688171,0.0520408245133617
0.0872830835022116,0.0613370688346428
0.0794599345855883,0.0697179644081886
0.06951049307176,0.0767584662888691
0.0576655877945639,0.0820617024182316
0.0442213549707134,0.085269785532202
0.029532826465982,0.0860738256992385
0.0140060528803747,0.0842229160039186
-0.00191107804311749,0.079531884132813
-0.0177391386407475,0.0718876271735392
-0.032978360281048,0.0612538753357477
-0.0471204994874544,0.0476742620002069
-0.059661120630373,0.0312736118890023
-0.070112033512578,0.0122573955615865
-0.0780136183052373,-0.00909066382860225
-0.0829467697817381,-0.0324128072693446
-0.0845441976872752,-0.0572832177236029
-0.0825008303144815,-0.0832156594422384
-0.0765830837666055,-0.109672643564727
-0.0666367797166436,-0.136075951612737
-0.0525935193540068,-0.161818318312546
-0.0344753502004896,-0.186276048664125
-0.012397595043358,-0.208822321856638
0.0134302522281827,-0.228840916984902
0.0427056212508873,-0.245740082935786
0.0750359682080173,-0.258966267580656
0.109943864888059,-0.268017419722768
0.146874011073479,-0.272455581195854
0.185202067907099,-0.271918496074268
0.224245171722327,-0.266129979010992
0.263273951897207,-0.254908805037351
0.301525843317919,-0.238175908404993
0.338219454682173,-0.215959707797701
0.372569728742445,-0.188399408969861
0.403803610214393,-0.155746172981202
0.431175921904118,-0.118362078025561
0.453985139992501,-0.0767168446685066
0.471588755608219,-0.0313823373433572
0.483417911969181,0.0169751015948125
0.488991014510861,0.0676043859109058
0.487926025473384,0.119681346457743
0.479951174199663,0.172322138107124
0.464913839607964,0.224598174694376
0.442787391542674,0.275552340581073
0.41367581247749,0.324216198212229
0.377815959756119,0.369627886638801
0.33557737053752,0.410850386917501
0.287459556127587,0.446989817018001
0.234086778633157,0.477213411691668
0.188367472064147,0.500363575258017
0.106523253585751,0.483425212970165
0.0951648194291982,0.540200357757179
-0.0155995083449516,0.525372495697923
-0.0759348813581904,0.529105564719102
-0.178621893922448,0.514858785624925
-0.24161041224503,0.494687517019708
-0.289731976770545,0.486206229241476
-0.381161121660446,0.44473601201969
-0.384137844726926,0.34517991409569
-0.430383748871414,0.287276169816866
-0.469468095782273,0.222951661643805
-0.540387855853564,0.187894278029255
-0.52271421075404,0.078757896012511
-0.499405637688427,0.041777114275807
-0.524181595680666,-0.0555820400529305
-0.517587595088441,-0.130169416623883
-0.512745244975196,-0.23983243517367
-0.498040732764791,-0.35318503445424
-0.488740005230981,-0.442506236377577
-0.403939825143867,-0.467495375241757
-0.338966938677247,-0.528804337436907
-0.262063948154424,-0.604353887087412
-0.197972599209152,-0.635735321362939
-0.116894288368028,-0.675730756655179
-0.0302919649890091,-0.705488528748849
0.0605287076007781,-0.724250191368048
0.134584416046868,-0.69962909554772
0.294872825785611,-0.713254261181329
0.343825809568954,-0.709577364099973
0.429348907579438,-0.675245047342471
0.508636059655243,-0.638199377325474
0.569948553096692,-0.578960587702526
0.663762967333494,-0.514760573533479
0.781465018796046,-0.4699576104503
0.832246701759749,-0.343730026217332
0.820365043519376,-0.229701889661885
0.882829177842688,-0.213976095969089
0.957070337597868,-0.110435557361071
0.948594793317533,0.0355221131704705
0.977581480379208,0.140500172862938
0.947578303851511,0.251585744923779
0.905285924440978,0.361617502078106
0.844184566251263,0.442074203689036
0.807324337745335,0.565140534976864
0.763927421576552,0.614939447438005
0.619648881275767,0.789872308140514
0.569380270933541,0.864612369326795
0.500905335752198,0.913965303812202
0.357379324455455,0.926171666981819
0.233758954895445,0.963080103391217
