0.974057414144909,-0.522493729115479
0.941123469108749,-0.48191230132644
0.938848067422089,-0.51891396883994
0.913588052817788,-0.527535545842542
0.978094886034111,-0.453609176175305
0.926651759973902,-0.514999156911119
0.923393698495778,-0.493062675111657
0.942690007732721,-0.503366896282519
0.870041270064137,-0.438202332533124
0.849472990227259,-0.524474556115661
0.8485125509743,-0.449442776508517
0.838576842910534,-0.500472982163572
0.836980178994672,-0.509824550129141
0.865203101893594,-0.489977083829313
0.837408942940746,-0.466279132691622
0.827175600395923,-0.462840140177672
0.817053262020612,-0.459382795699586
0.845818744778103,-0.496829635713518
0.793128669155486,-0.468099224346454
0.79847183291731,-0.443952793727081
0.777654759790272,-0.445380926281697
0.811936514427022,-0.4076368269366
0.765001323618184,-0.451729186207166
0.749225327581149,-0.434713628562776
0.723913956797247,-0.40086964952046
0.690722887795445,-0.41160139355813
0.694915988329192,-0.415007446425922
0.752846615381985,-0.426971188169856
0.703904580387756,-0.416661434386987
0.693667165100671,-0.403530911393347
0.736240400629719,-0.378947944701928
0.724426529887011,-0.448168444482068
0.669443423286328,-0.402011115532951
0.661265698146486,-0.446960042301643
0.652793836377348,-0.394627655167198
0.644611615828359,-0.390923105120124
0.638240508124265,-0.369725345227572
0.628528605331355,-0.383490842371347
0.659002906247192,-0.339968267976676
0.612815985574746,-0.376030967983545
0.601982325441781,-0.329239392554511
0.597468054620035,-0.368547371977426
0.580286741275542,-0.328195690580638
0.551137266591187,-0.400764054017832
0.57511779077231,-0.357285909605151
0.564995976057799,-0.339875345896913
0.546938321522221,-0.310306393557407
0.55236912870354,-0.336580119035303
0.546263746461422,-0.353567055744695
0.539613525580765,-0.338452167767439
0.532768713901926,-0.334679922736978
0.502267766227572,-0.373399507927895
0.53753121224564,-0.344460484475621
0.552078240735909,-0.373112848793532
0.514365278503425,-0.304203592536762
0.510244529805003,-0.350066501498808
0.486648080195533,-0.351879443455672
0.440806052942336,-0.351447234259797
0.450607461173909,-0.324486683378142
0.518113096412935,-0.273810572546619
0.48442933968334,-0.324254395757778
0.462875431824359,-0.293234454419206
0.454521223442855,-0.322633101223804
0.454213256287953,-0.296642450448577
0.411914907865133,-0.2392120260104
0.423166281180517,-0.310447176637654
0.448987029553958,-0.242102769936568
0.428742546681973,-0.270801144067912
0.423315581110134,-0.267083217680144
0.46023521579438,-0.21938091105615
0.432426788868958,-0.25425575244689
0.371012116556717,-0.281236527583581
0.382921001745483,-0.202999022785295
0.368285766358637,-0.223196300283849
0.35586182310369,-0.210112355608389
0.393325393077253,-0.204919671669619
0.37556911000405,-0.239360892166176
0.334771673949097,-0.251913981571379
0.357534363699723,-0.250774735995163
0.386650431971663,-0.234765163880363
0.375269099357502,-0.182110195656963
0.399188659915237,-0.230008290611748
0.354794171429539,-0.215965703822218
0.379369664014437,-0.203841126422344
0.34609382856397,-0.20884192916904
0.341841316506332,-0.20530013779425
0.352294449581501,-0.172820648141292
0.350822659694356,-0.162447307913977
0.303919815744032,-0.240244790295951
0.325470562747605,-0.191275857395592
0.321535193942007,-0.187807397252135
0.366953116541421,-0.213687151467746
0.344984000202079,-0.178656209490974
0.300712786539698,-0.189284115532341
0.355698089650605,-0.185629836323347
0.302777447610981,-0.170709352755446
0.299206270887791,-0.167341157825131
0.311539844696233,-0.180061179524041
0.317617024297348,-0.165388109006991
0.288844679590777,-0.157345895057987
0.253911373514906,-0.161470451134659
0.250562126476289,-0.161779663285894
0.319710138707487,-0.195750747667718
0.281722799504536,-0.189084626737789
0.254348891035656,-0.131521570248678
0.26966156264161,-0.137879066240128
0.266658385176128,-0.134706527624803
0.233921513098381,-0.114420458441463
0.260814002694114,-0.12842616993147
0.237844078337632,-0.155203865527288
0.219140897455371,-0.0929577146234279
0.268623172804977,-0.159153686087567
0.249759746641088,-0.116133662390832
0.247125590832192,-0.113118330122112
0.267858355328565,-0.119982356530757
0.242009239299754,-0.107159285811258
0.202744561934421,-0.0550592467258463
0.237092336087391,-0.101297860451319
0.234707491941459,-0.0984045434653129
0.233783196066596,-0.0984586205409548
0.230082649746342,-0.0926942583518535
0.2000583706593,-0.065304125373217
0.225647779930772,-0.087087821934597
0.252511236565667,-0.0757190717649255
0.243154195168186,-0.072313362223735
0.197312802725126,-0.0439682471801875
0.251766006126382,-0.0807177790472057
0.193276180543672,-0.105352399430777
0.230747100631041,-0.0760965049122366
0.246809958013755,-0.0405710101737833
0.209732361755008,-0.065748580994321
0.207940342455714,-0.0632082360246157
0.185042302159743,-0.0813159598394469
0.204482709845564,-0.0582153887249057
0.187037690531825,-0.0839476162579221
0.203649212921492,-0.0707344422499297
0.194325759962737,-0.0574920182759163
0.1980598258726,-0.0485888006086206
0.225860573535031,-0.0515408675528616
0.173570320537785,-0.0915702012271398
0.18283568817323,-0.0221744983637128
0.174355039914057,-0.0128598186837904
0.19958420047329,-0.0245228467872488
0.189599636569906,-0.0350789127228661
0.141023558714616,-0.0270916116801371
0.195004836029335,-0.0415843931845106
0.185870158440984,-0.0287576519192975
0.161320311903782,-0.0552387805655932
0.183560539863316,-0.0247086942775223
0.16191063675335,-0.0418924011339755
0.207798518134208,-0.0555469560634972
0.223045052343527,0.0279066369913704
0.154563099784615,0.0153555932191759
0.224477437937088,-0.0425984055159252
0.215964205722943,-0.0155844294014194
0.202027656335758,0.0251112235108146
0.188567300146098,0.0270641407094609
0.176670690299131,0.0078506147791496
0.213907066012856,-0.0346586240494673
0.175145361019896,-0.0486896359555031
0.172444236693355,-0.0033031174573748
0.171714444252807,-0.00175012953173858
0.17101264960141,-0.000233655346093185
0.152327209259808,-0.00435239532614903
0.132136139890072,-0.0438244029404285
0.179111122310422,-0.0106189914961019
0.187914715774227,0.0105298411531019
0.174842858149704,0.0385067823098132
0.167362788554207,0.0080870547574749
0.153734669704896,-0.0347808061229291
0.175261519937676,0.00607511123286202
0.127497862665233,-0.0355571500818935
0.160455941771228,0.0383785597857198
0.179882324870301,-0.034155640163486
0.195754436870708,0.0411955294998254
0.164715528038178,0.0393465911593583
0.163856271497639,0.0170524362893683
0.127032336457262,-0.0210391917361227
0.157468633660738,0.00554262805292229
0.162896472653868,0.0197702818332259
0.162615670558362,0.020596795269075
0.11431702216812,0.0275135270497623
0.180070795593435,0.0345713532924771
0.136639365008083,-0.00363759320503197
0.161675002087573,0.0235014392548006
0.163187508452312,-0.00956870875455694
0.144647952062404,0.0140879123259562
0.1611473553766,0.0252541971249765
0.192517945520208,0.00701953466674399
0.160872863457079,0.026217800325984
0.167114814609468,0.0692885308235153
0.191839652258293,0.0765607288311191
0.182068467085495,0.0218664725079009
0.12597122149075,0.0398245281111201
0.160428118088993,0.0279017259075534
0.160376581105599,0.0281131821792051
0.160336349519625,0.0282825758762294
0.135597897421344,0.0573172167665954
0.185405497997004,0.03581998991745
0.160278478997401,0.0285372204757894
0.132649717174397,0.0424415559284191
0.125176600298104,-0.0128544132063603
0.196993019138928,0.0156725922791778
0.204938635432698,-0.0111458941758047
0.16036130922628,0.0281099360410468
0.200818289612617,0.00464927118603892
0.202082023453885,0.0142942653040482
0.160496404435765,0.0273380801028167
0.132207837840219,0.00303993617263934
0.169487380630135,0.0329581228546463
0.166579778387441,0.0301173961400831
0.15086953754107,0.052123808869514
0.182169799340355,0.0464117924056723
0.195645410954212,0.0394875581994024
0.208148797689291,-0.012887693289351
0.161050907471891,0.0233687838491343
0.161130925730297,0.0226757753834123
0.161211620405664,0.0219387921119326
0.118929806413874,0.0308546986414954
0.161372989207339,0.0203326551938501
0.194560500542464,0.036118250511737
0.128055610270998,0.0145045369026859
0.161607289530981,0.0175921700551025
0.189294066488135,0.0621462005503814
0.136737627043992,-0.0184405107652857
0.207754351273847,0.0113295711693428
0.197552188538953,0.0310811050115422
0.209568441201291,0.00528633109757987
0.19747061587487,0.0574129705194342
0.112175456059877,-0.0318422076863795
0.142874905557425,-0.00449862526064308
0.118526421033413,0.00792702991634257
0.128753113312499,-0.00871011912860036
0.199289421364989,0.0142523587433677
0.162188307906149,0.00263180012882038
0.118917981517303,-0.0197879773008426
0.19025291894086,-0.02404149817376
0.162174474701611,-0.00211226741423281
0.146965873113489,-0.0345297902091711
0.162115117531736,-0.00549863951144841
0.141380479576755,0.027971063158558
0.196069886706252,0.0344247491683441
0.177982015395615,-0.0353612632202917
0.161857185202804,-0.0128083964371983
0.131156481041631,-0.016484132513748
0.15188505966911,-0.056168547585101
0.161525330464159,-0.0187605641764553
0.161385532132002,-0.0208340762892391
0.16123026102652,-0.0229522951066326
0.116374470624873,0.0228998658730548
0.160871177414739,-0.0273227844846577
0.150407444420171,-0.00514265293814017
0.182587540089692,0.00502872052173461
0.160203219602624,-0.0342133281873741
0.205224473290412,0.00363141965516173
0.201621110941877,-0.0197137902541727
0.159367260197821,-0.0415050026956306
0.154423456942195,-0.0806135682878993
0.122286972460062,-0.046140523428084
0.182838881990964,-0.00801418936960797
0.171943477128588,-0.097444439925279
0.11292745414427,-0.0254464341929812
0.15713345913653,-0.0572879684036861
0.157007179507913,-0.0948779204088569
0.165137077413538,-0.0381582204900754
0.15570652984911,-0.065776901558196
0.170363611807854,-0.045008893513441
0.122857445254031,-0.0999476786243343
0.114200535665779,-0.0843838291981282
0.145242607811915,-0.0582239117871372
0.155436238235506,-0.0998538600217092
0.198749871665295,-0.122592284940763
0.151472002472568,-0.0871231958171427
0.150755630885353,-0.0903475909924523
0.158463696042265,-0.1026990328965
0.181551152027366,-0.146863664939962
0.108329036378217,-0.114262211740154
0.121117728324959,-0.0620216156831134
0.146720151149319,-0.107120824962914
0.145818459669589,-0.110605164866477
0.14488394112927,-0.114132540079014
0.181769090127526,-0.06778587510334
0.14291419278952,-0.121316042775181
0.177838878213412,-0.0829460915207829
0.140806434668738,-0.12867060599499
0.166919955518008,-0.144774790278766
0.138556176645513,-0.136195471504161
0.18045982796527,-0.130587152745214
0.130177770803399,-0.15175062873719
0.140399903320192,-0.127189932146117
0.133610101931143,-0.15175292422082
0.115897121632954,-0.198961920961056
0.129831001307239,-0.199979252809211
0.129492792079845,-0.163861974472778
0.128039640654185,-0.167981735034875
0.126545174049949,-0.172143012367949
0.129727844863297,-0.211743130896496
0.0937921958851228,-0.149872643303722
0.121808105698671,-0.184874780149227
0.149705933292085,-0.184769946604761
0.16200325331934,-0.149317843237313
0.139135052997757,-0.177684002708186
0.114878414851894,-0.202424500306258
0.0891116695019547,-0.164317977637911
0.130605626507075,-0.214173481502983
0.104428149121405,-0.22994472853906
0.0679404239781353,-0.196060043232283
0.0686774130219624,-0.234741447445502
0.10309263610457,-0.229962803795811
0.089058525935097,-0.283266945530033
0.0987740136973718,-0.239461696404169
0.0965388654587058,-0.244270429685061
0.0572544935731513,-0.270193479712236
0.0779805937428638,-0.22957716746714
0.0895227746938046,-0.258932099487515
0.0998264633816284,-0.279422843004898
0.0845803795164087,-0.268901347941031
0.082027829437924,-0.273943979615265
0.0794202151033823,-0.279025087773843
0.0671811764832691,-0.276453072995573
0.0702657782782754,-0.244437447692493
0.0975848366159926,-0.308578844924341
0.0919552115549875,-0.267235333158663
0.0655341920349497,-0.305002569973477
0.100850415027986,-0.354460082305604
0.0666453622890952,-0.267485884933512
0.0565013345207946,-0.321041169887677
0.0805026550593061,-0.29179550744819
0.0519419230627441,-0.313230920833175
0.049456603643915,-0.318484555648521
0.0924862005480349,-0.371235220232792
0.0859693934229603,-0.381976949544027
0.0226614945084884,-0.348167739665622
0.0785083270644268,-0.343179992784679
0.0296900794229878,-0.365432182977771
0.00210812916410443,-0.349177198206373
0.0223394133481323,-0.376891593032475
-0.0275194081922431,-0.402146780823832
0.0381773332860126,-0.37561225265353
0.010805371250836,-0.394346745199865
0.00682242463631938,-0.400235426159104
0.00365340103183644,-0.380568263944308
-0.00135510605534944,-0.412117260803607
-0.0462461517375756,-0.415407614943607
0.031912297812166,-0.471322423420724
-0.0586049104824907,-0.42177603542462
-0.018576850720554,-0.436294271482369
-0.0143046095241121,-0.433755996088865
-0.0462098949398203,-0.431206239506056
-0.0322745825269893,-0.454783583020604
-0.00101559756985029,-0.483960253820723
-0.0417897355186793,-0.467277143891444
0.00038000458567404,-0.520374791418074
-0.0343332919083144,-0.485893981478472
-0.0751815972206832,-0.453277024592321
-0.0960558867667961,-0.508874331704004
-0.0463540686458112,-0.485959236939102
-0.0722431164026876,-0.505546932606847
-0.116154004512377,-0.531221967960776
-0.0880955654035267,-0.526827354450079
-0.088582418629113,-0.525117801141958
-0.121637145552299,-0.561899420905549
-0.148433996009331,-0.491922104254496
-0.0986257946432095,-0.589699351941086
-0.104172700619417,-0.550735778462873
-0.105221124761843,-0.595362585827135
-0.130480330443855,-0.610962214835068
-0.0877967294420553,-0.578643489141481
-0.131233494244723,-0.600322964419864
-0.154021522054391,-0.560866554916347
-0.118221092822396,-0.632405470086445
-0.177626140655984,-0.552610112649682
-0.161887258104713,-0.606210164487919
-0.129174226945833,-0.662614018643355
-0.175411918085179,-0.620150727808017
-0.134805311299004,-0.623464316967647
-0.175829091942164,-0.65634091383187
-0.196439360976296,-0.641283363007292
-0.167010709849349,-0.665144766917741
-0.210962962821444,-0.655518110206091
-0.218379434161511,-0.662678999338076
-0.222908919382802,-0.622225773275809
-0.236068963459586,-0.716181844372027
-0.243526957382577,-0.642361245810698
-0.249101199764589,-0.691609836225004
-0.222914831516424,-0.681705065855799
-0.301172878992453,-0.730196690399758
-0.275329030318622,-0.756634437751543
-0.256638163686473,-0.745248430448425
-0.313263721173711,-0.682451409871036
-0.269868869493834,-0.778278032280588
-0.259126085712128,-0.784371348025599
-0.315845334097727,-0.750827517153599
-0.324708193822431,-0.758354921956664
-0.329347603939179,-0.77704768755281
-0.377423503482451,-0.810382425540448
-0.352019832156567,-0.781102034324531
-0.361369103790758,-0.788739133497302
-0.337319409260752,-0.796819230969042
-0.406359553654324,-0.795293908957429
