-0.81515541777223,0.653543550918051
-0.815211707536312,0.653430930524769
-0.815268986828752,0.653316027793255
-0.815327276900246,0.653198785139478
-0.81538659953191,0.65307914324318
-0.815446977050007,0.652957040987067
-0.815508432341106,0.652832415393585
-0.81557098886769,0.652705201559149
-0.815634670684212,0.652575332585746
-0.815699502453632,0.652442739509762
-0.815765509464425,0.65230735122793
-0.815832717648094,0.652169094420253
-0.815901153597187,0.652027893469772
-0.815970844583836,0.651883670379041
-0.816041818578835,0.651736344683133
-0.816114104271267,0.651585833359052
-0.816187731088694,0.65143205073135
-0.816262729217926,0.651274908373795
-0.816339129626382,0.651114315006895
-0.816416964084057,0.650950176391088
-0.816496265186113,0.650782395215385
-0.816659401969816,0.650435499881536
-0.816743307179871,0.650256174674103
-0.816828818140865,0.65007278455008
-0.816915971935301,0.649885214996297
-0.81700480662019,0.649693347651733
-0.817187675926505,0.649296226001065
-0.817281791783962,0.649090714351367
-0.817377751062242,0.648880389889509
-0.817475597115314,0.648665112629641
-0.81757537444666,0.648444737732655
-0.817677128741099,0.648219115311301
-0.817780906897389,0.647988090226419
-0.817994728661356,0.647509183961587
-0.818104872440641,0.647260964276509
-0.818217240495678,0.647006664440448
-0.818331886311373,0.646746099654736
-0.818448864798599,0.64647907843282
-0.818568232332233,0.646205402320262
-0.818690046789926,0.645924865601461
-0.818941255739582,0.645342349318703
-0.819070773859553,0.645039919178149
-0.819202986241908,0.644729726586914
-0.819337958883867,0.644411524608568
-0.819475759532039,0.644085056964961
-0.819760124839131,0.643406250391117
-0.819906834127614,0.64305334841986
-0.820056660769216,0.642691053779513
-0.820209681910026,0.642319056939433
-0.820365976708075,0.641937036252222
-0.820525626377348,0.641544657406529
-0.82068871423152,0.641141572851969
-0.820855325727248,0.640727421194582
-0.821025548506824,0.640301826561159
-0.821199472439976,0.639864397930675
-0.821377189664571,0.639414728430915
-0.82155879462597,0.638952394598325
-0.821744384114699,0.638476955598926
-0.821934057302139,0.637987952408056
-0.822326063560005,0.636967321170557
-0.822528607162822,0.636434676113046
-0.822735655579894,0.635886430872796
-0.822947320323417,0.635322021549108
-0.82407896916459,0.632236020303097
-0.824568129402646,0.630865815551767
-0.82507968895533,0.629408966992126
-0.825344204652295,0.628645952907272
-0.825614728087399,0.627858683225054
-0.825891399739497,0.627046209785432
-0.826174362044291,0.626207540755216
-0.826463759241306,0.62534163833036
-0.826759737194969,0.624447416303616
-0.827062443186867,0.623523737488963
-0.82737202567592,0.622569410993638
-0.827688634022883,0.621583189327994
-0.828012418175179,0.620563765342709
-0.828343528307674,0.619509768982191
-0.828682114414518,0.618419763842259
-0.829382310789065,0.616125627737582
-0.829744215671067,0.61491825823939
-0.830492358127577,0.612374208715925
-0.830878873387521,0.611033781650582
-0.831273862182085,0.60964509664973
-0.831677450418954,0.608206034475004
-0.832089756838888,0.606714367332907
-0.832510891703164,0.605167752609952
-0.832940955328386,0.603563726213172
-0.833380036452153,0.601899695489819
-0.833828210411279,0.600172931698362
-0.834752058771553,0.59651956094633
-0.835712752007906,0.592578744942012
-0.836206895488151,0.590492031532088
-0.837222488936733,0.586067319732778
-0.837743721025775,0.583721231632168
-0.838273697212754,0.581280221641808
-0.838812199576652,0.578739663400527
-0.839913636868985,0.573340088171059
-0.840475841459417,0.570470461326696
-0.841620843200809,0.564362711230508
-0.842202429780247,0.561112063252727
-0.842789098748595,0.557721280959505
-0.843974055260973,0.550490096533722
-0.845167057339942,0.542606393742995
-0.846946135098685,0.529401275631344
-0.848102671653704,0.519559801647474
-0.848664712677781,0.514293537102366
-0.849740820719433,0.503006221500635
-0.850727618740736,0.49061854319564
-0.851176253422412,0.483973658320467
-0.851956562850377,0.469696909273121
-0.852536487245688,0.453979170491295
-0.852731656387364,0.445528924675517
-0.852884886843706,0.427333284915741
-0.852820617444485,0.417539112109436
-0.852645409447043,0.407245939897244
-0.851300197514879,0.373086798220914
-0.845113474305379,0.30328358477959
-0.843048579080728,0.287067067935644
-0.840629454075625,0.270005718962315
-0.834561081635551,0.233177854418235
-0.830817193252429,0.21332363712789
-0.821636551367271,0.170511126720863
-0.809769103085897,0.123262363608722
-0.802643247415599,0.0978661168156945
-0.794610500758971,0.0712345594548767
-0.785577504072919,0.0433309551945011
-0.751424518387613,-0.0483065093290648
-0.737296937382295,-0.0815584231785233
-0.72158106768443,-0.116172251614485
-0.704134874566068,-0.152135268863261
-0.684808984490175,-0.189419470780802
-0.639889648467346,-0.267746993889873
-0.520403046314498,-0.43667081011764
-0.483417886745029,-0.480536007453149
-0.39992856463397,-0.568558096400196
-0.303118755825573,-0.654761088100222
-0.249610113954854,-0.696189391683391
-0.192730682235343,-0.735889334943908
-0.132574517372548,-0.773353851935314
-0.0693015216855664,-0.808044683981458
0.209086172140992,-0.907734239913279
0.575069141077104,-0.905363951224015
0.643499060820628,-0.884305477327117
0.708389198159186,-0.85614929539918
1.00235208546619,-0.488785841796864
1.01559399008832,-0.419300933604117
1.01914361671136,-0.275474449460417
0.993839899069359,-0.130566994270517
0.943195089455863,0.0096767627327858
0.909789405234028,0.0765783210794498
0.871836346655808,0.140721200185374
0.829986758940056,0.201758323471632
0.737166327773622,0.313555463519232
0.53142908037753,0.493466204234988
0.426329584505427,0.562169951210012
0.273827734217493,0.641757325971084
0.225300778437992,0.662763906712742
0.132621423800057,0.697654924882964
0.04635036379976,0.724305475187955
0.00573581975499487,0.734985388665568
-0.0331775168805614,0.744121060280005
-0.172112375996317,0.768101245727167
-0.202831829856708,0.77158432558783
-0.232037067100355,0.77427881577934
-0.259781882715183,0.776276332440427
-0.286122590596933,0.777659906975662
-0.33482370428257,0.778877884856025
-0.378607374328439,0.77844722247117
-0.417932716409103,0.776781580180099
-0.49954728193579,0.769210495774705
-0.526526320845257,0.765395350688269
-0.55077764352936,0.761363276482928
-0.561973904555756,0.759300376292214
-0.582677590882094,0.755135045098419
-0.59224748876025,0.753050097588984
-0.601334848519169,0.750973314277906
-0.609966687974033,0.748910681559813
-0.625964218367518,0.744847507478466
-0.633376517489581,0.742854929620204
-0.640426663424751,0.740892602585757
-0.65351948537404,0.73706822810568
-0.690529136003615,0.724874552942248
-0.703022757927269,0.720243173747766
-0.71392590763806,0.715961047167824
-0.723471967298043,0.712012571008702
-0.726387170315217,0.710767274753837
-0.731856501498287,0.708378367321909
-0.739243786513756,0.705037238514212
-0.745772183729342,0.701967463172619
-0.751558555209504,0.699147633611264
-0.753340015015833,0.698259647366457
-0.755053425320697,0.697396402029714
-0.762702917156029,0.693426636673983
-0.764067870536657,0.692697274133511
-0.76787473551357,0.690627032773352
-0.770192817023975,0.68933924271896
-0.771291443896994,0.688721395454126
-0.773376207862264,0.687535185254026
-0.775321179184925,0.686411654194846
-0.777137587607774,0.685347052169862
-0.778000803149971,0.684835740811766
-0.781180761706626,0.682920795012801
-0.783308023966441,0.681610737268696
-0.78397297173286,0.681196193024629
-0.785241615146611,0.680398362092022
-0.790540153194815,0.676959922513629
-0.7909884466579,0.676660474998392
-0.791423957350535,0.676368190076926
-0.792258389036255,0.675804298766044
-0.793424700245045,0.675007290343812
-0.793792238055877,0.674753919186348
-0.794836023317134,0.674028348328574
-0.795486035772181,0.673571856745057
-0.796102115328838,0.673135774005823
-0.79874356147184,0.67122549815724
-0.801819867822484,0.668905896998503
-0.801976430044239,0.668784711665173
-0.802129478575558,0.668665924798596
-0.802279110327163,0.668549478527259
-0.802845299776807,0.668105997878521
-0.803724332591524,0.667408029170372
-0.804380356687301,0.666879078092705
