0.913691710768077,-0.593060959652919
0.900586129805932,-0.590027189253347
0.887617928835414,-0.586960399518643
0.874785777752636,-0.583861299484475
0.862088370846295,-0.580730592207459
0.849524426122047,-0.577568974905541
0.837092684646612,-0.574377139093583
0.824791909910926,-0.571155770714325
0.81262088721171,-0.567905550264878
0.800578423050845,-0.564627152918891
0.788663344551963,-0.561321248644549
0.776874498893686,-0.55798850231853
0.765210752758964,-0.554629573836059
0.753670991800001,-0.551245118217198
0.742254120118245,-0.54783578570947
0.730959059758968,-0.544402221886973
0.71978475021997,-0.540945067746063
0.708730147973942,-0.537464959797751
0.69779422600407,-0.533962530156887
0.686975973352451,-0.530438406628264
0.676274394680917,-0.526893212789726
0.665688509843893,-0.523327568072378
0.65521735347289,-0.519742087837988
0.644859974572296,-0.516137383453685
0.6346154361261,-0.512514062364014
0.624482814715222,-0.508872728160456
0.614461200145123,-0.505213980648478
0.604549695083376,-0.501538415912194
0.594747414706914,-0.497846626376713
0.58505348635864,-0.494139200868251
0.575467049213135,-0.490416724672065
0.565987253951191,-0.486679779588282
0.556613262442903,-0.4829289439857
0.547344247439064,-0.479164792853597
0.538179392270631,-0.47538789785164
0.529117890556012,-0.471598827357926
0.520158945915957,-0.467798146515232
0.511301771695825,-0.463986417275515
0.502545590695025,-0.460164198442719
0.493889634903406,-0.456332045713954
0.485333145244421,-0.452490511719065
0.476875371324855,-0.448640146058678
0.468515571190937,-0.444781495340739
0.460253011090661,-0.440915103215608
0.45208696524213,-0.437041510409742
0.44401671560777,-0.433161254758017
0.436041551674239,-0.429274871234728
0.428160770237876,-0.4253828919833
0.42037367519555,-0.42148584634476
0.412679577340734,-0.417584260884994
0.405077794164694,-0.413678659420841
0.397567649662631,-0.409769563045043
0.390148474144649,-0.405857490150092
0.382819604051424,-0.401942956451015
0.375580381774443,-0.398026475007114
0.368430155480689,-0.394108556242696
0.361368278941665,-0.390189707966838
0.354394111366627,-0.386270435392193
0.347507017239931,-0.382351241152879
0.340706366162372,-0.378432625321481
0.333991532696427,-0.374515085425179
0.327361896215282,-0.370599116461048
0.32081684075556,-0.36668521091053
0.314355754873654,-0.362773858753126
0.307978031505564,-0.358865547479321
0.301683067830149,-0.354960762102759
0.295470265135727,-0.351059985171702
0.289339028689909,-0.347163696779794
0.283288767612607,-0.343272374576135
0.277318894752132,-0.339386493774713
0.271428826564294,-0.335506527163185
0.265617982994455,-0.331632945111046
0.259885787362424,-0.327766215577202
0.254231666250164,-0.323906804116956
0.248655049392218,-0.320055173888435
0.243155369568788,-0.316211785658469
0.237732062501415,-0.312377097807948
0.232384566751189,-0.308551566336656
0.227112323619428,-0.304735644867621
0.221914777050765,-0.300929784650977
0.216791373538599,-0.297134434567361
0.211741562032828,-0.293350041130868
0.206764793849841,-0.289577048491557
0.201860522584686,-0.28581589843755
0.19702820402539,-0.28206703039671
0.192267296069353,-0.278330881437934
0.187577258641798,-0.274607886272057
0.182957553616194,-0.270898477252395
0.178407644736649,-0.267203084374924
0.17392699754218,-0.26352213527812
0.169515079292859,-0.259856055242464
0.165171358897766,-0.256205267189624
0.160895306844713,-0.252570191681332
0.156686395131712,-0.24895124691796
0.152544097200124,-0.245348848736803
0.148467887869475,-0.241763410610091
0.144457243273882,-0.238195343642733
0.140511640800068,-0.234645056569793
0.13663055902692,-0.231112955753734
0.132813477666558,-0.227599445181409
0.12905987750689,-0.224104926460832
0.125369240355601,-0.220629798817722
0.121741048985572,-0.217174459091843
0.118174787081664,-0.213739301733131
0.11466993918887,-0.210324718797638
0.111225990661781,-0.206931099943281
0.107842427615347,-0.203558832425417
0.10451873687691,-0.200208301092242
0.101254405939465,-0.196879888380042
0.098048922916142,-0.193573974308268
0.0949017764958657,-0.190290936474481
0.0918124559001814,-0.187031150049147
0.0887804508412101,-0.183794987770303
0.0858052514807176,-0.180582819938091
0.0828863483902664,-0.177395014409183
0.080023232512434,-0.174231936591076
0.0772153951230692,-0.171093949436299
0.0744623277945678,-0.167981413436505
0.0717635223601436,-0.164894686616477
0.0691184708790746,-0.161834124528044
0.066526665602905,-0.158800080243909
0.0639875989425783,-0.155792904351415
0.0615007634364872,-0.152812944946222
0.059065651719417,-0.149860547625936
0.0566817564923643,-0.146936055483664
0.0543485704932131,-0.144039809101528
0.0520655864682507,-0.141172146544119
0.0498322971445023,-0.138333403351917
0.0476481952028718,-0.135523912534661
0.0455127732520671,-0.132744004564698
0.0434255238032957,-0.129994007370294
0.0413859392457141,-0.127274246328925
0.0393935118226139,-0.124585044260549
0.0374477336083294,-0.121926721420859
0.0355480964858516,-0.119299595494532
0.0336940921251327,-0.116703981588468
0.031885211962067,-0.114140192225029
0.0301209471781335,-0.111608537335281
0.0284007886806849,-0.109109324252245
0.026724227083871,-0.10664285770415
0.0250907526901807,-0.104209439807719
0.0234998554725905,-0.101809370061453
0.0219510250573055,-0.0994429453389585
0.0204437507070801,-0.0971104598822835
0.0189775213051059,-0.094812205295299
0.0175518253394538,-0.0925484705371069
0.016166150888058,-0.0903195419154879
0.0148199856042304,-0.0881257030803921
0.0135128167026924,-0.0859672350174733
0.0122441309461136,-0.0838444160416731
0.0110134146321442,-0.0817575217908568
0.00982015358093208,-0.0797068252195043
0.00866383312311103,-0.0776925965924603
0.00754393808825073,-0.0757151034787463
0.00645995279375662,-0.0737746107454378
0.0054113610342101,-0.0718713805516092
0.00439764607113732,-0.0700056723423514
0.00341829062319706,-0.0681777428428626
0.00247277685677745,-0.0663878460526172
0.00156058637699071,-0.0646362332396148
0.000681200219057052,-0.0629231529347128
-0.000165901159932738,-0.0612488509260447
-0.000981237888885692,-0.0596135702535281
-0.00176533069021515,-0.0580175512034635
-0.00251870088699921,-0.0564610313032282
-0.00324187040979792,-0.0549442453160677
-0.00393536180313923,-0.053467425235986
-0.00459969823168165,-0.052030800282739
-0.00523540348606361,-0.0506345968969333
-0.00584300198844788,-0.0492790387352316
-0.00642301879776981,-0.0479643466656688
-0.0069759796146982,-0.0466907387630811
-0.00750241078631755,-0.0454584303046493
-0.00800283931053976,-0.0442676337655602
-0.00847779284025411,-0.0431185588147873
-0.0089277996872236,-0.0420114123109943
-0.00935338882573611,-0.0409463982985629
-0.00975508989601853,-0.0399237180037467
-0.0101334332074217,-0.0389435698309556
-0.0104889497413847,-0.03800614935917
-0.0108221711541863,-0.03711164933849
-0.0111336297794912,-0.0362602596868187
-0.0114238586306991,-0.0354521674866849
-0.0116933914031053,-0.0346875569822047
-0.0119427624758789,-0.0339666095761859
-0.0121725069138676,-0.0332895038273763
-0.0123831604692366,-0.0326564154478581
-0.0125752595829491,-0.0320675173005914
-0.0127493413860956,-0.0315229793971068
-0.0129059437010805,-0.0310229688953514
-0.0130456050426726,-0.0305676500976889
-0.0131688646189274,-0.0301571844490557
-0.013276262331989,-0.029791730535275
-0.0133683387787785,-0.0294714440815324
-0.0134456352515766,-0.0291964779510119
-0.0135086937385076,-0.0289669821436965
-0.0135580569239327,-0.0287831037953358
-0.0135942681887597,-0.0286449871765789
-0.0136178716106754,-0.0285527736922796
-0.0136294119643107,-0.0285066018809707
-0.0136294347213429,-0.0285066074145128
-0.0136184860505439,-0.0285529230979183
-0.0135971128177821,-0.0286456788693509
-0.0135658625859843,-0.0287850018003055
-0.0135252836150652,-0.0289710160959667
-0.0134759248618328,-0.0292038430957513
-0.0134183359798757,-0.0294836012740329
-0.0133530673194404,-0.0298104062410535
-0.0132806699273062,-0.0301843707440222
-0.0132016955466647,-0.0306056046684024
-0.0131166966170109,-0.0310742150393907
-0.0130262262740553,-0.031590306023588
-0.0129308383496612,-0.0321539789308649
-0.0128310873718181,-0.032765332216423
-0.0127275285646568,-0.0334244614830542
-0.0126207178485134,-0.0341314594835993
-0.0125112118400521,-0.0348864161236074
-0.0123995678524515,-0.0356894184641987
-0.0122863438956643,-0.0365405507251312
-0.0121720986767572,-0.037439894288074
-0.0120573916003388,-0.0383875277000881
-0.0119427827690838,-0.0393835266773175
-0.0118288329843604,-0.0404279641088905
-0.0117161037469701,-0.0415209100610349
-0.0116051572580068,-0.0426624317814073
-0.0114965564198443,-0.0438525937036392
-0.0113908648372588,-0.0450914574521008
-0.0112886468186965,-0.0463790818468849
-0.0111904673776929,-0.0477155229090119
-0.0110968922344531,-0.0491008338658587
-0.0110084878176012,-0.0505350651568115
-0.0109258212661073,-0.0520182644391469
-0.0108494604314006,-0.0535504765941395
-0.0107799738796775,-0.0551317437334015
-0.0107179308944132,-0.0567621052054532
-0.0106639014790857,-0.0584415976025276
-0.0106184563601214,-0.0601702547676107
-0.0105821669900712,-0.0619481078017187
-0.0105556055510255,-0.0637751850714153
-0.0105393449582793,-0.0656515122165688
-0.0105339588642546,-0.0675771121583531
-0.0105400216626905,-0.0695520051074931
-0.0105581084931118,-0.0715762085727567
-0.0105887952455833,-0.0736497373696955
-0.0106326585657617,-0.0757726036296357
-0.010690275860255,-0.0779448168089219
-0.0107622253022982,-0.0801663836984151
-0.0108490858377569,-0.0824373084332469
-0.010951437191469,-0.0847575925028324
-0.0110698598739339,-0.0871272347611437
-0.0112049351883626,-0.0895462314372457
-0.0113572452380961,-0.0920145761460969
-0.0115273729344066,-0.0945322598996165
-0.01171590200469,-0.0970992711180211
-0.0119234170010634,-0.0997155956414324
-0.012150503309377,-0.102381216741758
-0.0123977471586548,-0.105096115134848
-0.0126657356309731,-0.10786026899293
-0.0129550566717921,-0.110673653957326
-0.0132662991007501,-0.113536243151446
-0.0136000526229359,-0.116448007194074
-0.0139569078406493,-0.11940891421294
-0.014337456265665,-0.122418929858578
-0.0147422903320124,-0.125478017318481
-0.0151720034092847,-0.128586137331549
-0.0156271898164912,-0.131743248202838
-0.0161084448364673,-0.134949305818606
-0.0166163647308563,-0.138204263661665
-0.0171515467556769,-0.141508072827036
-0.0177145891774927,-0.14486068203792
-0.0183060912901977,-0.148262037661975
-0.0189266534324338,-0.151712083727909
-0.0195768770056558,-0.155210761942393
-0.0202573644928608,-0.158758011707296
-0.0209687194779967,-0.162353770137241
-0.021711546666069,-0.165997972077492
-0.0224864519039604,-0.169690550122173
-0.0232940422019834,-0.173431434632819
-0.0241349257561807,-0.177220553757263
-0.0250097119713945,-0.181057833448875
-0.0259190114851214,-0.184943197486131
-0.0268634361921725,-0.188876567492547
-0.0278435992701581,-0.192857862956955
-0.0288601152058176,-0.196887001254137
-0.0299135998222128,-0.200963897665831
-0.0310046703068075,-0.205088465402084
-0.0321339452404538,-0.209260615622992
-0.0333020446273063,-0.213480257460803
-0.0345095899256872,-0.217747298042401
-0.0357572040799238,-0.222061642512173
-0.0370455115531831,-0.226423194055269
-0.0383751383613264,-0.230831853921241
-0.0397467121078076,-0.235287521448095
-0.0411608620196408,-0.239790094086734
-0.0426182189844636,-0.244339467425812
-0.0441194155887193,-0.248935535217007
-0.0456650861569884,-0.253578189400701
-0.0472558667924925,-0.258267320132092
-0.0488923954188039,-0.263002815807738
-0.050575311822783,-0.267784563092528
-0.0523052576987793,-0.272612446947101
-0.0540828766941216,-0.277486350655717
-0.0559088144559308,-0.282406155854571
-0.0577837186792852,-0.28737174256058
-0.0597082391567723,-0.292382989200633
-0.0616830278294587,-0.297439772641317
-0.0637087388393144,-0.302541968219124
-0.0657860285831234,-0.30768944977115
-0.0679155557679204,-0.31288208966629
-0.0700979814679863,-0.318119758836943
-0.0723339691834433,-0.32340232681122
-0.0746241849004872,-0.328729661745684
-0.0769692971532968,-0.334101630458619
-0.0793699770876611,-0.33951809846383
-0.0818268985263663,-0.344978930005001
-0.0843407380363867,-0.350483988090606
-0.0869121749979209,-0.356033134529384
-0.0895418916753228,-0.3616262299664
-0.0922305732899708,-0.367263133919683
-0.0949789080951239,-0.372943704817469
-0.0977875874528149,-0.378667800036048
-0.100657305912831,-0.384435275938234
-0.103588761293833,-0.390245987912463
-0.106582654766667,-0.396099790412535
-0.109639690939925,-0.401996536998013
-0.112760577947808,-0.407936080375286
-0.115946027540353,-0.413918272439316
-0.11919675517608,-0.419942964316076
-0.122513480117128,-0.426010006405695
-0.125896925526929,-0.43211924842633
-0.129347818570507,-0.438270539458766
-0.132866890517439,-0.444463727991777
-0.136454876847583,-0.450698661968244
-0.140112517359612,-0.456975188832061
-0.143840556282442,-0.463293155575844
-0.147639742389635,-0.469652408789446
-0.151510829116841,-0.476052794709318
-0.155454574682365,-0.48249415926871
-0.159471742210939,-0.488976348148755
-0.163563099860798,-0.495499206830431
-0.167729420954117,-0.502062580647445
-0.171971484110932,-0.508666314840034
-0.176290073386617,-0.515310254609733
-0.180685978413018,-0.521994245175102
-0.185159994543342,-0.528718131828461
-0.189712923000909,-0.535481759993635
-0.194345571031859,-0.542284975284753
-0.199058752061935,-0.549127623566105
-0.203853285857446,-0.556009551013103
-0.208729998690522,-0.562930604174354
-0.213689723508792,-0.569890630034891
-0.218733300109597,-0.576889476080573
-0.223861575318861,-0.583926990363694
-0.229075403174765,-0.591003021569834
-0.234375645116342,-0.598117419085965
-0.239763170177151,-0.605270033069873
-0.245238855184145,-0.6124607145209
-0.250803584961918,-0.619689315352065
-0.256458252542448,-0.626955688463584
-0.262203759380522,-0.63425968781783
-0.26804101557499,-0.641601168515778
-0.273970940096023,-0.648979986874966
-0.27999446101855,-0.656396000509018
-0.286112515762048,-0.663849068408765
-0.292326051336886,-0.671339051025021
-0.298636024597398,-0.678865810353046
-0.305043402501893,-0.686429210018748
-0.311549162379816,-0.694029115366678
-0.31815429220626,-0.701665393549856
-0.324859790884052,-0.709337913621496
-0.331666668533652,-0.717046546628668
-0.338575946791094,-0.724791165707971
-0.34558865911421,-0.732571646183256
-0.352705851097394,-0.74038786566547
-0.359928580795179,-0.748239704154688
-0.367257919054879,-0.756127044144386
-0.374694949858589,-0.764049770728025
-0.382240770674841,-0.772007771708027
-0.3898964928202,-0.780000937707194
-0.397663241831133,-0.788029162282669
-0.40554215784646,-0.796092342042494
-0.413534396000733,-0.804190376764861
-0.421641126828888,-0.81232316952013
-0.429863536682534,-0.820490626795713
-0.438202828158248,-0.82869265862389
-0.446660220538279,-0.836929178712681
-0.455236950244049,-0.845200104579844
-0.463934271302877,-0.853505357690119
-0.472753455828366,-0.861844863595804
-0.4816957945149,-0.870218552080791
-0.490762597146713,-0.87862635730816
-0.499955193122033,-0.887068217971451
-0.509274931992791,-0.895544077449741
-0.518723184020428,-0.904053883966649
-0.528301340748354,-0.912597590753392
-0.538010815591601,-0.921175156216045
-0.547853044444289,-0.929786544107138
-0.557829486305508,-0.93843172370173
-0.567941623924235,-0.947110669978127
-0.578190964463982,-0.955823363803398
