0.524729091948174,-0.621670848542285
0.535482286303101,-0.560237884388439
0.5689609630291,-0.571050510250415
0.510865066553047,-0.587071291555971
0.591191238189702,-0.55094024431523
0.543175930184088,-0.589328166674405
0.530894221753213,-0.535815210036636
0.504224482397207,-0.555672856511465
0.502456727810472,-0.583817970334764
0.522059604299715,-0.547414468082299
0.480635626650734,-0.58022472022173
0.541128719305775,-0.51009913248479
0.485779271583329,-0.476230457752362
0.501341045556701,-0.454831927684235
0.544824267033038,-0.455604473989854
0.49906115817816,-0.45845613848819
0.451190182921295,-0.459796286479056
0.495193509425833,-0.420848154884259
0.516488069361968,-0.359039756453637
0.494224150155959,-0.380225982878856
0.494964057610292,-0.359010586926126
0.493150968138472,-0.289044304705371
0.528659823732566,-0.329260678864503
0.477500161961268,-0.276819342347904
0.515142461938693,-0.235832472590153
0.486063695346673,-0.232335890182563
0.563305178079073,-0.225980019107619
0.511985098682314,-0.234439973338071
0.517460078499736,-0.225615658474485
0.54256406542678,-0.159386589403047
0.552256930807069,-0.13816446499718
0.562697218860509,-0.117498760032682
0.552627096407825,-0.129959021436733
0.549037689459939,-0.0959029882671555
0.593328235205454,-0.0536063272935394
0.628206937452039,-0.0332547729205863
0.640652489509047,-0.0103642388360127
0.656835596494315,0.0297504777521323
0.686526497639238,-0.0403061536700505
0.677723192060911,0.031411696824512
0.715624474608847,0.032107817775523
0.704340758023034,0.0533920755007162
0.717179856862371,0.0627679035539522
0.741865874087343,0.110472284456217
0.741404598481929,0.0783782206686487
0.752592420319408,0.0846762402671912
0.755928016659515,0.079106327878303
0.819308925709869,0.130248433572602
0.781358462170711,0.0981108128433963
0.832180766107579,0.107785032919418
0.766952927100752,0.124928713391292
0.837200562418492,0.0953998009380975
0.808138302158529,0.0610582090928644
0.852957508442686,0.140646926787477
0.80878447709711,0.106696176536084
0.815542493396163,0.0867074329031382
0.796573171565244,0.0844616226056949
0.821389537617384,0.0622969084528608
0.788360884635429,0.108155303972139
0.810171865389028,0.138549873839825
0.744888030873182,0.100771220988234
0.806456811853653,0.0996512484665435
0.758710202618303,0.153643287476749
0.737175303810595,0.120925912202959
0.746916691425959,0.169663002309457
0.672036538104523,0.108264357874603
0.632234716995119,0.0985435232699047
0.657887538017375,0.136602134551864
0.660364214635911,0.163881903848071
0.595266543066349,0.178436491064984
0.617513637066508,0.186632435996072
0.598110962209437,0.243030105687646
0.585190133130891,0.213237284936307
0.569239178501618,0.228020354785179
0.538253719259328,0.260349803620233
0.573101700648878,0.320584250609426
0.533564189801666,0.307989874867204
0.494556552345399,0.301468449904264
0.493581195518818,0.332952269930013
0.448247204383244,0.395725961725343
0.46293623889036,0.452998023409561
0.429881859774464,0.437954751531664
0.422113600580066,0.459164568930522
0.362910603733952,0.565798540160629
0.395293138583707,0.581077572345379
0.355761825063605,0.564230021522654
0.393252727693027,0.61723822757026
0.374654502280663,0.665982636003708
0.396878957272161,0.678619719328696
0.372177329177265,0.735256853676356
0.422429451142095,0.69196951720842
0.403770494448677,0.713094018793047
0.408933685488789,0.729978609957134
0.411382559429019,0.736543904420672
0.413693798058167,0.710685705963327
0.416977469189847,0.748808100807556
0.399701009826022,0.72627556905955
0.414737893909175,0.746435948774966
0.382579908209798,0.743558822661337
0.407858655332196,0.738823166782331
0.402875061639286,0.733897329912104
0.418210297631295,0.776982075958527
0.319654970139348,0.663275369869333
0.283012598138577,0.642493646252839
0.275542222661228,0.638774232715222
0.277885777297821,0.687079276696501
0.21628378474976,0.678162265677646
0.198151925371939,0.616968164164701
0.17169983941256,0.670401397508225
0.150475340599211,0.634860287357971
0.121737227561595,0.646441510212207
0.0441908083082854,0.648092920572893
0.0845783876060362,0.644116175476484
0.0352426299713268,0.635779223221138
-0.00834525743449514,0.639939381501287
-0.0584849828012368,0.615958018549514
-0.0564848983793152,0.652863095760763
-0.124050661782517,0.671756963822056
-0.132680139761423,0.655552834053347
-0.196229372302834,0.711041564590037
-0.184184694939435,0.727695144205197
-0.215997965674902,0.701216480254471
-0.267277338147559,0.784238930133684
-0.260696697095584,0.799403529735087
-0.286526190373149,0.788863798075625
-0.287216967237187,0.783503179580356
-0.295846606899488,0.793009058163088
-0.30987325674576,0.810385574449802
-0.282069881475786,0.827539863761939
-0.329561236367623,0.842978569009401
-0.367744099291304,0.848750733633091
-0.329102965575338,0.839748585946837
-0.287063960927105,0.800708344564128
-0.281541034875282,0.828041060671459
-0.292393122953832,0.827801586177554
-0.317499727803836,0.851466213079593
-0.280775064156785,0.805279205666751
-0.310527370396428,0.730194327562461
-0.339468394161068,0.709549305165156
-0.376036175216154,0.679470338892435
-0.368749817180824,0.722001563194381
-0.324387060250506,0.694313867506706
-0.385973455549399,0.624409962195902
-0.417250334820885,0.59989922864264
-0.380463835502883,0.580747731943672
-0.479199480709467,0.47405390126282
-0.559094007529673,0.40918828142218
-0.53137448073017,0.427079337682198
-0.54974736857975,0.41299005209402
-0.540659967546577,0.361539763765116
-0.610004481534098,0.390346664725345
-0.625612950877958,0.36577900115878
-0.649935869934994,0.355974882144549
-0.682977304584466,0.327462212314062
-0.727867196240337,0.288729751596566
-0.747870563762762,0.347715574282483
-0.81724510840205,0.349910964646817
-0.795744990876819,0.31404921662144
-0.808557478344479,0.313229111005141
-0.863205873817494,0.323796771584586
-0.830157320929574,0.360917866969594
-0.830317687653291,0.326401673478665
-0.861121738962801,0.316285244447128
-0.848364643248977,0.317965838879411
-0.844865583705273,0.292366413573681
-0.87922874536614,0.268848512920298
-0.870515887580841,0.318545028059748
-0.877925521745994,0.306703390099901
-0.850970935097174,0.307594560599413
-0.844206371183851,0.302905839207065
-0.828463799091351,0.290530725690015
-0.821783772918793,0.317170969397655
-0.827746468769848,0.319566352363149
-0.79104253812726,0.22719052912155
-0.79079935504969,0.252749032649918
-0.780686948403314,0.240481684015905
-0.750652930417371,0.255247535239888
-0.756571855763741,0.208172937243834
-0.634300242487773,0.0429749423654792
-0.662476303864402,-0.0466158402476358
-0.647506108466305,-0.0907373359066799
-0.709385885653878,-0.0782609188889745
-0.65378188176043,-0.103388881466885
-0.689934897542507,-0.19845520460863
-0.701252345773405,-0.206519029567938
-0.680141521988715,-0.21096618216532
-0.68989703940978,-0.251678057259153
-0.76334659755653,-0.327074956096315
-0.718887438830695,-0.333009649188026
-0.730720464491181,-0.351658629112845
-0.786463235353416,-0.375515580203726
-0.835940242645178,-0.457398314929753
-0.795924679896059,-0.431859931248128
-0.845709374348878,-0.452151709467535
-0.819708210019524,-0.453382117771631
-0.766698169837169,-0.445664635194914
-0.777408816524827,-0.462235409774295
-0.758145217260908,-0.418717274972854
-0.721115616244808,-0.420132141672911
-0.617632997598204,-0.4327377930069
-0.671378248980349,-0.441838694873671
-0.587181496793555,-0.420013164571743
-0.611884964157363,-0.455209879440604
-0.483888062644676,-0.450814752374203
-0.489080219488775,-0.475785092121131
-0.401362272727429,-0.494543928935944
-0.373139809245672,-0.532921903048797
-0.356097222219273,-0.593787916847016
-0.253219812053315,-0.597058127440535
-0.281336004246058,-0.630778918438378
-0.242602734407462,-0.692327842925862
-0.129080714665453,-0.785894401747193
-0.184833469419018,-0.759180267894761
-0.162563507925138,-0.831783769926974
-0.162585773158923,-0.839506554512603
-0.16270991917052,-0.841440993666431
-0.158051851886471,-0.875103284129648
-0.168008454895069,-0.804208417817564
-0.198806172670609,-0.783741235308109
-0.139098671006337,-0.783911762754126
-0.106558925735855,-0.736497768435661
0.0197247500972852,-0.588062042405244
0.272755714657416,-0.498387930132571
0.359344870352194,-0.514097941392739
0.481523856103633,-0.522549074403426
0.496021196790989,-0.538239749885454
0.523064929869322,-0.646130531643241
0.513380302082977,-0.622472144424114
