-0.879303132333435,-0.042138405053966
-0.878839572358086,-0.0421243994591679
-0.877438546439094,-0.0421981469925466
-0.875085365462359,-0.0425318080979817
-0.871766572845226,-0.0432941987508963
-0.867470098744025,-0.0446491141318048
-0.862185409059148,-0.0467536982747938
-0.855903647867424,-0.0497568744024452
-0.848617771963186,-0.0537978501160109
-0.84032267625272,-0.0590047109403847
-0.831015308821472,-0.0654931149335706
-0.820694774578584,-0.073365100166958
-0.809362426478389,-0.0827080158738458
-0.79702194342256,-0.0935935869583128
-0.783679394058746,-0.10607712036457
-0.769343285810751,-0.120196860538992
-0.75402459860054,-0.135973499884414
-0.73773680285255,-0.153409848720906
-0.720495861504684,-0.172490667841413
-0.702320215886878,-0.193182665297202
-0.683230755465968,-0.215434657579784
-0.663250771593617,-0.23917789389618
-0.64240589553093,-0.264326540776048
-0.620724021158013,-0.290778322815297
-0.598235212907837,-0.318415313964344
-0.574971599590201,-0.347104872422301
-0.55096725489226,-0.376700710913434
-0.526258065455867,-0.407044092910432
-0.500881587537952,-0.437965144241331
-0.474876893357234,-0.469284268483366
-0.448284408318078,-0.500813653616762
-0.421145740379293,-0.532358856592913
-0.393503502901563,-0.563720451771751
-0.365401132361392,-0.594695728608686
-0.336882702361423,-0.625080423527405
-0.307992735396425,-0.654670470604997
-0.278776013850854,-0.683263755523162
-0.249277391707529,-0.710661857205126
-0.219541608437639,-0.736671761662677
-0.189613106520001,-0.76110753282053
-0.159535854002575,-0.783791925463852
-0.129353173471852,-0.804557925965847
-0.0991075787364297,-0.823250207091279
-0.0688406204603317,-0.839726483933015
-0.0385927419000588,-0.853858758915254
-0.00840314580774928,-0.865534444781366
0.0216903265380783,-0.874657355567293
0.0516513033219577,-0.881148556733718
0.0814449764654484,-0.884947066881156
0.111038181572984,-0.886010404790674
0.140399463065104,-0.884314976907283
0.169499124146876,-0.879856301800977
0.198309261394503,-0.872649069589201
0.226803783880036,-0.862727035771396
0.2549584168915,-0.850142750397994
0.282750690442397,-0.834967124959789
0.310159912899267,-0.817288840825919
0.337167130187528,-0.797213604466858
0.363755071163033,-0.77486325606033
0.389908079858558,-0.750374739380756
0.41561203542961,-0.723898942105108
0.440854260731626,-0.695599416818903
0.465623420559711,-0.665650994065249
0.489909410671772,-0.634238299737909
0.513703238795379,-0.601554189967748
0.536996898887285,-0.567798117383109
0.559783239971525,-0.533174443232073
0.58205583092709,-0.497890710332879
0.603808822628714,-0.462155892163576
0.625036808864189,-0.426178633610396
0.645734687458614,-0.390165498964349
0.66589752303,-0.35431924268658
0.685520412781797,-0.31883711825578
0.704598356706333,-0.283909240067124
0.723126133529139,-0.249717012875053
0.741098183668091,-0.216431642665821
0.758508500413722,-0.18421274211566
0.77535053045856,-0.153207042943035
0.791617084814639,-0.123547226506511
0.807300261060173,-0.0953508829415689
0.822391377749736,-0.0687196079799215
0.836880921708018,-0.0437382453636297
0.850758508806402,-0.0204742814646341
0.864012858695353,0.00102260264018918
0.876631783834933,0.0207208177955308
0.888602193032003,0.03860698969411
0.899910109556868,0.0546859171640883
0.910540703775617,0.0689803663492438
0.920478340098356,0.0815307027796162
0.929706637909172,0.0923943647782622
0.938208546012198,0.101645183066795
0.942930310590732,0.151533967647668
0.956350791311014,0.157105382553366
0.944096933925641,0.165585514062165
0.946369367283366,0.153170063142348
0.969190511553657,0.127322405567869
0.923769684381511,0.140147613589223
1.01681408352832,0.10560901248321
1.00446152253885,0.0865850168026186
1.00817467107203,0.147379382867142
0.97925387847834,0.131365802236013
0.935701691822196,0.167603599612542
0.993602046701819,0.168730390894108
0.9743262836623,0.131905348275128
0.968167726402023,0.117047314309626
0.922355767405005,0.105591698104433
0.981866063774477,0.146231238646289
0.954156142027584,0.139894253476423
0.955309530669095,0.172334294685116
0.938070401358856,0.149732072655853
0.928509739784712,0.156557362399453
0.87592415782185,0.167232871871011
0.930595662349736,0.163290178939187
0.89853427179818,0.19601868281124
0.88016772060695,0.198682182345891
0.863020030042258,0.213692491027232
0.812251728251353,0.240793987080933
0.833494840649516,0.24725650970865
0.81601839808835,0.26674394743805
0.785727619530598,0.269448078745184
0.778297878216793,0.310463360533131
0.758099178545949,0.334566650771195
0.726794547152755,0.321710972986565
0.715155842440265,0.386811027534632
0.692470242734415,0.414724148000715
0.619714454298888,0.418777639964936
0.644834190991362,0.473452562804658
0.619954596617843,0.503956692550446
0.575686090623492,0.55644244562488
0.552900607651941,0.584298109394685
0.539596252742913,0.573092484965028
0.479729584371971,0.655050659952601
0.511775141390565,0.628833984147598
0.496666824749559,0.705860871363776
0.429672889806249,0.721790008125311
0.447415090488409,0.760542015482689
0.354779627012131,0.738595839495486
0.321096169503124,0.811426046819492
0.311043861504261,0.869714489994632
0.278348052934964,0.86347288730734
0.251043008824562,0.925778533128344
0.206319310695202,0.877911248694031
0.191520836113619,0.916811912547866
0.161254902483828,0.932713604941697
0.131017970494753,0.946241662906294
0.100848913377662,0.957287511964539
0.0707852146452073,0.965759204986661
0.0408628634665925,0.971582235877934
0.0111162639231208,0.974700203158975
-0.0184218412748161,0.975075317520165
-0.0477204321575427,0.972688748818142
-0.0767502576340837,0.967540809409116
-0.105483866215439,0.959650972168362
-0.133895621277419,0.949057723014484
-0.161961700954615,0.93581824922803
-0.189660082893417,0.920007966313423
-0.216970514225934,0.90171988758821
-0.243874467257338,0.881063842081252
-0.270355081485047,0.858165547669403
-0.296397092688406,0.833165547668431
-0.321986749940948,0.806218020306789
-0.347111721502878,0.77748947163975
-0.371760990648299,0.747157323496171
-0.395924742568874,0.715408408981525
-0.419594243572464,0.682437388880642
-0.442761713861013,0.64844510300439
-0.46542019522603,0.613636871100099
-0.487563415041961,0.578220758390892
-0.509185647967166,0.542405821119951
-0.530281576778885,0.506400347649751
-0.5508461537723,0.470410110701539
-0.570874464144616,0.434636646216698
-0.590361592763017,0.399275574080038
-0.609302495680628,0.364514975567558
-0.627691877717555,0.330533841871318
-0.645524077365116,0.297500607416176
-0.662792960200965,0.265571780923129
-0.679491821921736,0.234890686298441
-0.695613302008647,0.20558632444467
-0.711149308941183,0.177772366007684
-0.726090957765273,0.151546283902637
-0.740428520706417,0.126988633211917
-0.754151391395919,0.104162484730632
-0.767248063150888,0.0831130170618171
-0.77970612161716,0.0638672707466605
-0.791512251949861,0.0464340664671882
-0.802652260570291,0.0308040878929613
-0.813111111401251,0.0169501282725388
-0.822872976347231,0.00482749840781189
-0.831921299652108,-0.00562540779208207
-0.840238875636452,-0.0144863953878726
-0.847807939190356,-0.0218486046895762
-0.854610268277035,-0.027819509611386
-0.860627297588285,-0.0325197872066701
-0.86584024238646,-0.0360820686378251
-0.870230231469625,-0.038649582894172
-0.873778448108101,-0.0403747055284471
-0.87646627772234,-0.0414174255301639
-0.878275461004765,-0.0419437441846631
-0.879188251132477,-0.0421240203734869
