-0.713381293011776,0.867294298355436
-0.713734585972397,0.866977648810254
-0.714115537964705,0.866633212694569
-0.714526869610512,0.866257912730921
-0.714971623503203,0.865848258628439
-0.715453208616984,0.865400281766251
-0.715975451671048,0.864909457955558
-0.716542656655395,0.86437061580944
-0.71715967395063,0.863777827675508
-0.717831980743393,0.863124279364703
-0.626664995252409,0.9602253187659
-0.719368083723143,0.861602244138907
-0.72024689338782,0.860714124902959
-0.721211297549277,0.859725478864847
-0.722271674037451,0.858621961153591
-0.723439891438818,0.857386750018972
-0.724729552109799,0.8560000441058
-0.726156277962928,0.854438442412621
-0.727738046486986,0.852674176029972
-0.729495585441595,0.85067415171327
-0.731452835520718,0.848398755417802
-0.639813164038443,0.961897279076583
-0.736081626383943,0.842821365232292
-0.738822421517751,0.839391902863307
-0.857062367165311,0.727564767021559
-0.745373251231463,0.830820868533061
-0.652227306314967,0.92041361276602
-0.753722858673966,0.819140075077276
-0.758745184574176,0.811704892426265
-0.880200224247703,0.696174236249906
-0.770918934373984,0.792376206707918
-0.778274259397597,0.779764974771141
-0.786623436183641,0.764543826037259
-0.694063382261596,0.861270683051944
-0.806735162116689,0.723465750060928
-0.930919348341095,0.581903366093487
-0.831805033656613,0.661322523789606
-0.846014657027315,0.618594675255787
-0.860829189433442,0.565237666085517
-0.8753330355011,0.498431898928942
-0.977965233571496,0.321526342278483
-0.895529852514247,0.310430608237362
-0.777481590339328,0.27601012789246
-0.875494169725693,0.0250947487032622
-0.830977646570285,-0.158821283420197
-0.748111325105693,-0.364349145816671
-0.615036630473629,-0.575924633898682
-0.425677999386484,-0.765753180149091
-0.187672336301029,-0.896156523851844
0.0717572137500992,-0.930245847371224
0.420718267886724,-0.743523257073522
0.480358060649093,-0.662688668336925
0.559360070781029,-0.409943358856325
0.436427204225716,-0.231066882080421
0.465932479226601,0.113887290906019
0.344429461386393,0.324982452890265
0.208184916472422,0.489581146477098
0.0744939884097587,0.611736493790603
-0.0471983637418689,0.699390093735182
-0.153100220983308,0.760867780990311
-0.242797080588003,0.803311972082834
-0.317575812713049,0.832273576068589
-0.379390686501233,0.851834879387145
-0.430303543985874,0.86490330749979
-0.472219421101665,0.873511559965903
-0.506787030726204,0.879066390198685
-0.535382806154122,0.882536514082172
-0.455633627478388,0.980449174906841
-0.578946556775119,0.885677937121209
-0.595556614547123,0.886121813118994
-0.609549669869436,0.886136269410275
-0.621396591977042,0.885870720544913
-0.631475793940692,0.885428075341661
-0.640092249343893,0.884879071700829
-0.647492615748119,0.884272129012338
-0.653877183309285,0.883640145699349
-0.659409286576855,0.883005208175665
-0.664222713186431,0.882381866120359
-0.668427541279938,0.881779419214786
-0.672114748317463,0.881203519091278
-0.77782306359599,0.762674965205521
-0.795868509353675,0.781747845542118
-0.680765447093934,0.879658294652435
-0.579612176703229,0.969950009168169
-0.685035917718016,0.878781783919623
-0.68683595124895,0.878386706213319
-0.688450085866109,0.878018424958391
-0.68990137126245,0.877675326961311
-0.691209559493054,0.877355784310717
-0.692391634622029,0.877058197128579
-0.693462248778539,0.876781021303637
-0.694434082532287,0.876522785608583
-0.695318143834477,0.876282101359287
-0.696124016898554,0.876057666883714
-0.696860070136538,0.875848268428144
-0.697533630484092,0.875652778667272
-0.698151130035295,0.875470153651914
-0.698718229785297,0.875299428787507
-0.69923992438312,0.875139714262539
-0.699720631079376,0.87499019022015
