0.426335295801472,0.593903215946622
0.432900008437219,0.583472180381928
0.391615204599746,0.563811724921168
0.41166804457535,0.564258995792959
0.479778374427221,0.525586746047136
0.445915534628723,0.510599257674331
0.417478265404481,0.455292656621703
0.398845168587364,0.506398142708527
0.425918481543353,0.453224342742704
0.45632361175564,0.409478344566396
0.441670719101344,0.432481795565131
0.433607962071633,0.394453178238827
0.455804580907628,0.36771717295056
0.442928982911923,0.389404999191409
0.44305185865013,0.375559849282709
0.456272257163371,0.359391807156431
0.429802469536012,0.351936056573807
0.442594711844407,0.335520844675411
0.483250375123395,0.353083338094806
0.468506523387182,0.261832831033918
0.44099066557903,0.297664324178185
0.450196227420149,0.25371436099127
0.4225988723314,0.308985167247979
0.438353073324289,0.261916029161257
0.480162598126457,0.256597499702083
0.436074191884792,0.239221068378275
0.402997757881207,0.241184123022236
0.420880606815231,0.248307909006954
0.431952655062224,0.206836834672063
0.463773393073753,0.164432665699102
0.428779910075055,0.186326521003717
0.427076995435537,0.176388619295733
0.536280418435309,0.0584770963244546
0.483607561504144,0.0783455935287554
0.537967417439649,0.265561620383722
0.4726000014277,-0.0100003638226161
0.30609100720774,0.239662554446875
0.269894950137448,0.259621899445774
0.282443161105834,0.262037186825416
0.322943558000114,0.214302380510235
0.41692326944829,0.133793563032709
0.480702136216809,-0.0234285614617956
0.379416017790854,0.0486310675112641
0.401937000589271,0.0728442588178506
0.284066937710785,0.191007807158317
0.324924584324822,-0.000827319099859822
0.499211035103319,0.152905122397407
0.263092157617429,-0.0432725192050835
0.491793069043442,0.153570480259139
0.35317353248372,0.0798581800674005
0.349176962562481,0.00228057701354617
0.507742082915945,-0.0917053559853536
0.49552619445445,0.10425563925105
0.479743807616452,-0.0963233590248196
0.369360193489418,-0.0290532006242864
0.27863299782766,0.136355542148736
0.26333977230943,0.0822751518247428
0.472298100195416,0.0921941589391708
0.36437882258774,-0.0193450523045393
0.422048787942283,-0.133325981888367
0.449638231165481,0.0849249116030598
0.356855685986909,-0.0333070250985806
0.240890827466333,-0.145954283101976
0.380275740192867,-0.0742935640026897
0.34364586531136,-0.0689176794298816
0.347101918283316,-0.0497887789115291
0.3397056045615,-0.0867308314849735
0.361872171739605,-0.0566175715981047
0.318527946203037,-0.0541782201528036
0.289497977861254,-0.0864386302285121
0.341261855034848,-0.0298311069482112
0.329142706848588,-0.0682518062115856
0.318054957886436,-0.0851381513167063
0.369703601540681,-0.0685988321427619
0.341755597628827,-0.0487989433776326
0.325116932970242,-0.0810688586049843
0.352205678583138,-0.0823346363888049
0.29152460355615,-0.116497980533404
0.31945876375551,-0.0879029627003905
0.362467310865229,-0.0627204825015251
0.315984917433371,-0.0918554291881334
0.301015004502269,-0.10073838178133
0.35621645121349,-0.0807217864785836
0.28515877872116,-0.105019479266189
0.309832263322378,-0.0983866463200893
0.276352760619466,-0.0770046292208778
0.307187562626951,-0.100999413326948
0.305980383313292,-0.102150158420325
0.300500530159781,-0.123465368572566
0.331964348697731,-0.057246725897741
0.30653488851491,-0.145508161712626
0.338537830735794,-0.0855901734171383
0.258355850504105,-0.101054813031793
0.296856097385827,-0.15520263462205
0.304129398074398,-0.132605627835885
0.299348590405301,-0.107914805450568
0.320875727136754,-0.0938993315245482
0.29860073417387,-0.108483782110909
0.261519443324006,-0.091797626717395
0.298245980420213,-0.108741334393081
0.298220351416906,-0.108759320977351
0.343693392352553,-0.153837051162342
0.298481034598815,-0.108585858726599
0.338219262807011,-0.12852122942381
0.3363064082411,-0.0913284563711991
0.260776742893521,-0.111414602837656
0.300295851487005,-0.107470309825924
0.319509718623548,-0.151977775516413
0.33359813451942,-0.074287391394739
0.278710195987599,-0.126149373261286
0.303918551354091,-0.105464167141995
0.273921446612247,-0.129600434448519
0.324149836715985,-0.0695728208314589
0.349398734887637,-0.111572200069087
0.334701597036661,-0.108799022405214
0.341755148197796,-0.0933060600724199
0.324639476869772,-0.149019801596564
0.314144830256447,-0.141541663577136
0.308995250493801,-0.0620434986222381
0.285487850766116,-0.0591746410761511
0.317898551780192,-0.111561201410809
0.285644495140708,-0.0529473202870836
0.288828621112436,-0.122249822455917
0.297895751537501,-0.109170107968603
0.338072063418026,-0.0512506487109358
0.368181582236612,-0.137403346085865
0.33827755222901,-0.0919014779260033
0.30050385988347,-0.105239879523552
0.310094540540987,-0.135607977261941
0.367500128916633,-0.107742818422225
0.391325890053405,-0.0666096423085159
0.356068008173318,-0.0870526292826147
0.360052652338825,-0.0861111736127222
0.395508200821018,-0.0418681217590044
0.368455988484304,-0.0842804205824066
0.355625780466206,-0.102834338158027
0.377443964127152,-0.0825393917979622
0.342558179898198,-0.114167242305041
0.416448954292456,-0.0329737358720373
0.382111088554801,-0.122948090859474
0.397200830959304,-0.0794247474897022
0.402515756843565,-0.0787407968640904
0.404623667435218,-0.0385896608626937
0.393353316301417,-0.0701572434538121
0.437353917997455,-0.08715828755841
0.425301024316623,-0.076478945753738
0.43138233106141,-0.0760480886050376
0.403173363237919,-0.119941743091578
0.42822011860313,-0.0884599917811026
0.461102835241433,-0.0335394157079749
0.473028248943038,-0.0870715588069576
0.43141270949851,-0.0960877226272305
0.471156530175754,-0.0748471052031303
0.472176191354031,-0.0630852204985027
0.527511242439228,-0.0515099719202299
0.499457398324642,-0.121358872961111
0.512586396142023,-0.123116480014679
0.48903499682029,-0.070606010010245
0.489476315191496,-0.118072449551895
0.524815477307809,-0.0771678753650611
0.513966474134772,-0.0833715789162929
0.541609393872412,-0.0787254172997912
0.572954368730551,-0.0475713857880608
0.596707893128038,-0.12924245987631
0.534804405822219,-0.131143585065686
0.58608358438404,-0.119283846621557
0.571404880454071,-0.124378528830676
0.552159965354786,-0.0470010747821781
0.605610241549697,-0.0879285061866421
0.590386402310761,-0.121043276074518
0.61112710799964,-0.120677604530113
0.661119482071493,-0.139235850190211
0.684709895778588,-0.12201319740247
0.608100021464705,-0.0776518536546229
0.652276047168025,-0.0892440787510968
0.69998515682309,-0.103415780761926
0.68892433770203,-0.106932839207145
0.7373882291518,-0.145897270068134
0.711489770807566,-0.113335364098509
0.723037728953557,-0.116808834940781
0.707168736580709,-0.106384259981523
0.712222335218365,-0.0745790070530582
0.800790462641966,-0.156580280808904
0.723911856443092,-0.0962950155739834
0.78347022998468,-0.13708821073001
0.799348227841322,-0.110216841685446
0.808920934149677,-0.146651617028855
0.832722142455579,-0.149290703535186
0.865777677226042,-0.174161894037987
0.848498280020327,-0.162683056723977
0.838772993713543,-0.152390160847016
0.83461983053742,-0.168509947802928
0.876737352840521,-0.173826453488586
0.90394866933978,-0.187443109595731
0.87876459276899,-0.219567942591898
0.955176257225668,-0.186245563161287
0.947610266958401,-0.208763593621184
0.97643933013796,-0.206807680970831
0.977737408855047,-0.224384888432067
1.01819275123494,-0.226707748405066
