-0.423278236914601,0.416269433866124
-0.415984499053542,0.41541167953924
-0.408555829502948,0.41515429271452
-0.401042965275928,0.415271523207312
-0.393464785068366,0.415679371806379
-0.38583257778437,0.416327609457413
-0.378154204198562,0.417181260287502
-0.370435608842912,0.418213874588486
-0.362681528766683,0.419404375247611
-0.354895878150017,0.420735346440895
-0.347081978319981,0.422192010195563
-0.339242705269658,0.423761570015918
-0.331380589411391,0.425432767039477
-0.323497885894575,0.42719556716369
-0.315596625866798,0.429040932963716
-0.307678654892972,0.43096065274962
-0.299745662427759,0.43294720943124
-0.29179920487759,0.434993677905629
-0.283840723957918,0.437093643377953
-0.275871561524956,0.439241135368885
-0.259906131010042,0.443656723716067
-0.251912146631159,0.445914658922542
-0.243912063666194,0.448199729288338
-0.235906871112603,0.450507534350267
-0.227897507074823,0.452833900089468
-0.219884863254239,0.455174858953649
-0.211869788854307,0.457526632481582
-0.203853093996851,0.459885616102561
-0.195835552726807,0.462248365767034
-0.187817905668126,0.464611586129382
-0.179800862382139,0.466972120054575
-0.171785103470657,0.469326939260593
-0.163771282458897,0.471673135940505
-0.155760027487529,0.474007915233843
-0.14775194283846,0.476328588437746
-0.139747610315157,0.478632566865345
-0.131747590495156,0.480917356272794
-0.123752423869855,0.483180551787886
-0.115762631884494,0.485419833282727
-0.10777871788947,0.487632961140949
-0.0998011680126099,0.489817772376602
-0.0838670237579598,0.494094155070974
-0.0759113224266431,0.496181752992549
-0.0679637726173244,0.498233081384574
-0.0520947577643251,0.502219676140168
-0.0441740752040405,0.504151460907949
-0.0362631101030664,0.506040008636353
-0.0204717638482264,0.509681023325219
-0.0125920702729952,0.511430430960857
-0.00472347004992923,0.513130479634541
0.00313371962353831,0.51477975800227
0.0109791916037591,0.516376899453536
0.0188126485079996,0.51792058080822
0.0266338024393673,0.519409521092675
0.0422380956889679,0.522218258753705
0.0500207043909149,0.52353569519657
0.0577899484426288,0.524793666722742
0.0655455837884824,0.525991087426691
0.07328737451683,0.527126907638874
0.0810150926789849,0.528200113120274
0.0887285181183272,0.529209724302043
0.104111648203061,0.531034414573477
0.111780950087239,0.531847701610104
0.127074074833403,0.533271920498688
0.134697537751265,0.533881250808738
0.142305372534466,0.534421045013508
0.149897416242325,0.534890578121774
0.172577270260753,0.535870800351967
0.18010465127966,0.536052622121384
0.187615523993167,0.536160991537897
0.195109763845534,0.536195354400941
0.202587252399094,0.536155183731814
0.210047877266693,0.536039979473081
0.217491532048318,0.535849268206595
0.224918116271746,0.535582602889429
0.232327535337078,0.535239562607079
0.239719700465015,0.53481975234333
0.247094528648766,0.534322802766259
0.254451942609455,0.533748370029832
0.261791870754939,0.533096135590679
0.269114247141942,0.532365806039594
0.305460936002472,0.527534203417606
0.312676929392097,0.526330531432075
0.327055321283603,0.523684721397226
0.334217681744748,0.522242414088768
0.240208991839451,0.623016088526264
0.348488677389632,0.519118753249947
0.257392942775586,0.608766626416967
0.362688030283146,0.515676323856191
0.273930386670426,0.627147062352607
0.278789124022733,0.619170439480125
0.383852895801467,0.50991572882733
0.493073313567501,0.627149198388937
0.507930853803914,0.619319134597465
0.51080896438048,0.606981412523379
0.311334024453988,0.592072355025104
0.318846706924904,0.398193463238211
0.522781038741448,0.600748102287042
0.546283848997921,0.601019935666998
0.446389412662366,0.488371046605328
0.561445736046548,0.379027680816764
0.361142410487224,0.363780623497977
0.365192280031284,0.373776165064033
0.48052238259553,0.473689682911742
0.487297977641788,0.470526494564455
0.616293659687729,0.552815539498039
0.402151235315772,0.338607854717143
0.417589819331752,0.567429407124158
0.440088300402389,0.343610408716086
0.540910420346057,0.44258551884094
0.655780079935386,0.539770513515816
0.463061194754829,0.332517464634502
0.663809291712876,0.326405007476693
0.473309692897768,0.321013083793625
0.472675852046724,0.531806813243501
0.586999560472498,0.414480868037579
0.59352492591016,0.410204303539764
0.60003621878163,0.405865124311168
0.606533667035594,0.401464344590804
0.613017506583697,0.397003014048219
0.619487981481567,0.39248221858894
0.62594534412065,0.387903081208033
0.632389855431601,0.383266762895083
0.638821785100051,0.378574463594213
0.651649023415224,0.369026922755436
0.658044917341574,0.364174285371292
0.670802790742911,0.354318111029142
0.677165414978656,0.349317442881321
0.689859730186549,0.339178471562631
0.696192131226082,0.334043327778436
0.702515187398395,0.328866604772861
0.708829283572717,0.323650014990014
0.715134817363215,0.318395327581575
0.721432199631716,0.313104370643585
0.727721855028737,0.307779033623752
0.734004222576701,0.302421269916385
0.740279756299657,0.297033099664319
0.746548925904451,0.291616612789683
0.759070134493424,0.280707417746922
0.777816948300502,0.264187899658729
0.784058776928952,0.258649761348977
0.796535364205344,0.24754202743022
0.802771404519175,0.241978134488612
0.809006841060311,0.23641155510985
0.815242383390083,0.230845446428963
0.82771678133233,0.219727971247224
0.833957221111564,0.214183653366629
0.840200940673601,0.208653928611014
0.852701832354679,0.197654335150461
0.858960931575613,0.192193040927572
0.871501668260335,0.181370734547562
0.884080192107334,0.170716559051478
0.890386818156983,0.165466731560675
0.896706909291588,0.160276815862641
0.903042021917579,0.155153737060324
0.909393845489618,0.150105012243883
0.92215519331417,0.140264297063283
0.954509112384353,0.117667192252798
0.974379602106439,0.106147378123365
0.981119821479236,0.10282678861416
-0.423278236914601,0.416269433866124
-0.416318891175842,0.413923829176594
-0.409494477126619,0.410977856984899
-0.402754257753822,0.407657267475694
-0.382883768031736,0.396137453346261
-0.376349279787569,0.391901480028864
-0.36985027626398,0.387507620353325
-0.363382843280829,0.382973290143626
-0.337768501137001,0.363699633355176
-0.331416677564962,0.358650908538736
-0.325081564938971,0.353527829736418
-0.318761473804366,0.348337914038384
-0.306160245074572,0.337784762058843
-0.293601830115774,0.327041113711553
-0.27482348736721,0.310661881066388
-0.256091436979714,0.294076674351835
-0.243617039037466,0.282959199170096
-0.237381496707694,0.277393090489209
-0.231146060166558,0.271826511110447
-0.224910019852728,0.266262618168839
-0.193697853920623,0.238585376276
-0.181186873166291,0.227630673320631
-0.174923581551834,0.222188032809376
-0.143509473010598,0.195409318017485
-0.0991774463902942,0.159486534569917
-0.0928040563657082,0.154533767917865
-0.0736160674430107,0.139977222375943
-0.0607645110789843,0.130537882703977
-0.0349083226829767,0.112340301008255
-0.028410874429013,0.107939521287891
-0.00883455795940602,0.095110807363297
0.00428847915549441,0.0868793990590358
0.0174711411121714,0.0789132866051968
0.0240853033246042,0.075031816084583
0.0307149240065601,0.0712191267581185
0.0373601728231759,0.0674759735369349
0.0506982000011808,0.0602011459115347
0.0573912844749188,0.0566708335291457
0.084327366710829,0.0432781510346039
0.0911029617570864,0.0401149626873174
0.0978954204893043,0.0370268079296361
0.104704849307497,0.034014160179708
0.111531348683886,0.03107746648046
0.125235931690251,0.0254335989937309
0.132114187106317,0.0227271895543887
0.173751727007258,0.00812615172635675
0.180753188856368,0.00596793922067629
0.18777244855115,0.00388891677172937
0.194809538761342,0.00188922974084638
0.208937314069471,-0.00187167825713175
0.223136666962985,-0.00531410765088813
0.244570023069014,-0.00988007579816663
0.251750279285789,-0.0112427574075475
0.287919235445603,-0.0168651671256934
0.309833473597678,-0.0192914899916199
0.317173401743162,-0.0199437244307725
0.32453081570385,-0.0205181571671997
0.354133812304299,-0.0220446226075362
0.376515580507083,-0.0223907088018821
0.399048074091864,-0.0220661547529079
0.421727928110292,-0.0210859325227149
0.429319971818151,-0.0206163994144489
0.436927806601352,-0.0200766052096791
0.452190190906598,-0.0187891633954287
0.467513696149556,-0.0172297689744176
0.48289682623429,-0.0154050787029844
0.490610251673632,-0.014395467521215
0.506079760564135,-0.0121864418276324
0.513835395909988,-0.0109890211236824
0.537182969624384,-0.00703783479015285
0.560646152748858,-0.00257225385447751
0.568491624729079,-0.000975112403211464
0.607888454455683,0.00776463696270652
0.687387976237111,0.0283848123163319
0.695377768222472,0.0306240938111734
0.703372934847773,0.0328872893262647
0.711372954667774,0.0351720787337137
0.743410447823273,0.0444777063384657
0.767460897079424,0.0515562798320253
0.831531475362659,0.0701479218829922
0.910868049622275,0.090043075583141
0.957457922136987,0.0974770361416464
