0.449058391170079,-0.800112336381282
0.461322154489755,-0.792217493729339
0.472666154859892,-0.782839521200387
0.483034073634119,-0.772030200036044
0.492376635726619,-0.759850595158241
0.500652171925737,-0.746370469803519
0.507827116585718,-0.731667631936858
0.513876435684999,-0.715827218445404
0.518783980850818,-0.698940923630728
0.522542765602868,-0.68110617897793
0.525155160757455,-0.662425291576854
0.526633006652009,-0.643004548901645
0.526997640591449,-0.622953297916981
0.52627983867621,-0.602383006670406
0.524519671939895,-0.581406316648694
0.521766277495702,-0.560136094221193
0.51807754615805,-0.538684489464375
0.513519728762298,-0.517162010559758
0.50816696414438,-0.495676621783022
0.502100732456854,-0.474332872857199
0.495409238181879,-0.453231067129616
0.488186727848844,-0.432466475653727
0.480532748068842,-0.412128603816582
0.472551350054542,-0.392300516654516
0.464350247297088,-0.373058228448233
0.456039933516957,-0.354470161588881
0.447732768389094,-0.336596679064376
0.439542038860592,-0.319489694235951
0.431581004128745,-0.303192360864923
0.423961932526139,-0.287738845615237
0.41679513866577,-0.273154184505294
0.410188029231997,-0.259454224019451
0.404244165761924,-0.246645646822445
0.399062352646872,-0.234726081255636
0.394735758395746,-0.223684293039231
0.391351077942917,-0.213500456866392
0.388987743454866,-0.204146504859811
0.387717190695034,-0.195586548175538
0.38760218754848,-0.187777367388446
0.388696230791025,-0.180668966684781
0.391043016615964,-0.174205186324916
0.394675989810152,-0.168324367328934
0.399617975805682,-0.162960061883316
0.405880899129329,-0.158041782573023
0.413465591035451,-0.153495783212844
0.422361688345694,-0.14924586378821
0.432547624737217,-0.145214191820742
0.443990714927109,-0.141322132349509
0.456647331401157,-0.137491078666138
0.470463172537225,-0.133643275961095
0.4853736201841,-0.129702630129244
0.501304183982842,-0.125595494144309
0.518171028966111,-0.121251424642583
0.535881582248371,-0.116603901653955
0.554335213932525,-0.111591004780217
0.573423986712612,-0.106156039543442
0.593033468053294,-0.100248108106908
0.613043598280299,-0.0938226191033504
0.633329607426593,-0.0868417318851956
0.653762973251192,-0.0792747311336664
0.674212412484896,-0.0710983284224825
0.69454489706313,-0.0622968880213274
0.714626686883133,-0.052862574937978
0.734324370472788,-0.0427954239295076
0.75350590488305,-0.0321033289555866
0.772041646115564,-0.0208019532938437
0.78980536147203,-0.00891456128170942
0.806675215361256,0.00352822661564467
0.822534720322575,0.0164887529924427
0.83727364531831,0.0299227138289973
0.850788873710751,0.0437796161746161
0.862985203767531,0.0580032987705442
0.87377608502951,0.0725325106046391
0.883084284423149,0.0873015418435223
0.890842476599958,0.102240901093097
0.896993753633764,0.117278032499146
0.90149204989657,0.132338065820197
0.904302478659605,0.147344592288496
0.905401577721485,0.162220458824602
0.904777462143566,0.17688857298924
0.902429882966787,0.191272710944152
0.898370191587601,0.205298320653001
0.892621210276015,0.218893312584211
0.885217010119135,0.231988830279782
0.876202598462111,0.244519993326716
0.86563351868796,0.256426605509261
0.853575365921807,0.267653821228484
0.840103222957075,0.278152763648119
0.825301021374891,0.287881088458744
0.80926083345763,0.296803487642362
0.792082101077546,0.304892128161918
0.773870808266888,0.312127021090338
0.754738604642231,0.318496317326103
0.73480188725882,0.323996526711283
0.714180848807317,0.3286326580676
0.692998500332282,0.332418278389907
0.671379676847083,0.335375490178095
0.649450034341795,0.337534826641113
0.627335046728312,0.33893506526371
0.605159011239845,0.339622960980833
0.583044070700705,0.339652900949508
0.561109260907676,0.339086483636776
0.53946959111813,0.337992025648129
0.51823516532446,0.336444000397644
0.49751035161248,0.334522413362275
0.477393006456483,0.33231211926287
0.457973760299786,0.329902087067842
0.439335370211361,0.327384619216936
0.421552144801513,0.324854531907691
0.404689445928105,0.322408303671794
0.388803271035225,0.320143199788961
0.373939919244764,0.318156380339391
0.360135743574445,0.316543999879599
0.347416990890176,0.315400306838972
0.335799730422911,0.314816750774394
0.325289870897537,0.314881105587311
0.315883265540451,0.315676616701825
0.307565903460575,0.317281180024542
0.300314185142199,0.319766560258477
0.294095279054129,0.323197655826363
0.288867555674514,0.327631817275923
0.284581094560649,0.333118225594341
0.281178259463996,0.33969733635517
0.27859433590802,0.347400395062536
0.276758225115399,0.356249028449742
0.275593187696339,0.366254915837412
0.275017630095219,0.377419543965956
0.27494592644221,0.389734047994416
0.27528926817283,0.403179140609012
0.275956533564094,0.417725130416562
0.276855169192608,0.433332030017204
0.277892075249037,0.449949753364355
0.278974486645047,0.467518401234594
0.280010841923172,0.485968632853139
0.280911632126129,0.505222120958614
0.281590221998496,0.525192086850743
0.281963636178315,0.54578391125299
0.281953303386347,0.566895816145307
0.28148575203319,0.588419612086178
0.28049325113533,0.61024150495365
0.278914390956234,0.632242955497346
0.276694598362821,0.654301584612421
0.273786582505904,0.676292116826273
0.270150707089806,0.69808735413347
0.265755286185271,0.719559172026997
0.260576801254774,0.740579529357081
0.254600037793921,0.761021483504747
0.247818140740003,0.780760202287048
0.240232588552306,0.799673964015393
0.231853086621505,0.817645137207734
0.222697381410697,0.8345611316087
0.212790997461419,0.850315312398183
0.202166900107978,0.864807869766089
0.190865087425951,0.877946636396817
0.178932115589763,0.889647845838084
0.166420562423894,0.899836825221442
0.153388434497062,0.908448616351931
0.139898523623502,0.915428519786938
0.126017719095632,0.920732557174397
0.111816282373862,0.924327847812181
0.09736709129833,0.926192896117961
0.0827448611610343,0.926317787455563
0.0680253501826478,0.924704290543375
0.0532845570744186,0.921365865465807
0.0385979184308251,0.916327577113221
0.0240395136924386,0.909625914682218
0.0096812853408871,0.90130851866945
-0.00440771816036592,0.891433817581406
-0.0181620693831847,0.880070577352898
-0.0315206518983134,0.867297367211522
-0.0444273065231455,0.853201946437714
-0.0568314276023645,0.837880577143936
-0.0686885035386503,0.821437268826081
-0.0799605963126487,0.803982961019924
-0.0906167553020792,0.78563465092036
-0.100633361324037,0.766514473286495
-0.109994397476633,0.746748740357651
-0.118691644040175,0.726466949840142
-0.126724795407888,0.705800769289805
-0.134101497745271,0.68488300540794
-0.140837306818924,0.663846566887446
-0.146955566183289,0.642823429489943
-0.152487206660508,0.621943612003752
-0.157470468787546,0.601334171626643
-0.161950550629306,0.581118227137546
-0.165979184059896,0.561414017969359
-0.169614143290203,0.542334006973057
-0.172918690062206,0.523984034274136
-0.175960960533198,0.506462529169752
-0.178813299430753,0.489859786502528
-0.181551547566717,0.474257313379611
-0.184254289251059,0.45972725148813
-0.187002066539953,0.446331879596187
-0.189876567583222,0.434123200127811
-0.192959796601281,0.423142612967102
-0.196333233218409,0.413420678887481
-0.200076989005661,0.404976974223408
-0.204268969141791,0.397820037610805
-0.208984047083582,0.391947408825832
-0.214293260047947,0.387345758956564
-0.220263032947834,0.383991110355461
-0.226954438193649,0.381849144049329
-0.234422498473519,0.380875591534321
-0.242715539261904,0.381016707163189
-0.251874597379925,0.382209816646593
-0.261932891446108,0.384383936545876
-0.272915359517254,0.387460459036934
-0.284838268630608,0.39135389567877
-0.297708900325661,0.395972673430852
-0.311525315552317,0.401219975734623
-0.326276201667817,0.406994621110143
-0.341940803493979,0.413191971422041
-0.358488939655513,0.419704861742086
-0.375881104656061,0.426424543580775
-0.394068656378105,0.433241633178469
-0.412994087922782,0.440047056538512
-0.432591381942937,0.446732982950218
-0.452786444874173,0.453193738888016
-0.47349761774109,0.45932669438293
-0.494636259515724,0.46503311424197
-0.516107398338868,0.470218966837302
-0.537810445288394,0.474795683596988
-0.559639964797639,0.478680862798937
-0.581486495296573,0.48179891179506
-0.603237413173785,0.484081622368793
-0.624777832742444,0.485468674550844
-0.645991534542386,0.485908064879536
-0.666761914026338,0.485356455787574
-0.68697294246388,0.483779443520084
-0.706510131753974,0.481151742732848
-0.725261494767236,0.477457286678121
-0.743118492843294,0.472689242651384
-0.75997696214677,0.466849943139011
-0.775738010736908,0.459950733867227
-0.790308878429687,0.452011740700079
-0.803603751825308,0.443061558061709
-0.815544527235946,0.433136862259621
-0.826061514675432,0.42228195375444
-0.83509407656044,0.410548233052037
-0.842591195317617,0.397993615480202
-0.848511964688184,0.384681890649035
-0.852826000165653,0.370682032877196
-0.855513764687896,0.356067469290778
-0.856566806425854,0.340915312664188
-0.855987906261389,0.325305566369771
-0.853791133319659,0.309320309032481
-0.850001807710061,0.293042866645666
-0.84465637042749,0.2765569799927
-0.837802161165197,0.25994597523603
-0.82949710558512,0.24329194548014
-0.81980931437398,0.226674950988653
-0.808816597177014,0.210172245539397
-0.79660589523908,0.193857536136779
-0.783272637288624,0.177800282970584
-0.768920023867362,0.162065046117517
-0.753658245931644,0.146710885030027
-0.73760364412484,0.131790816350367
-0.720877815638632,0.117351335031136
-0.703606676040259,0.103432003141783
-0.685919483838414,0.0900651100992977
-0.667947835889276,0.0772754073864094
-0.649824642002917,0.0650799201181987
-0.631683087297032,0.0534878370946186
-0.613655590957694,0.0425004802384876
-0.595872770104717,0.0321113535729027
-0.578462417421931,0.0223062711454731
-0.561548501100329,0.0130635625661014
-0.545250195455806,0.00435435409700485
-0.5296809503246,-0.00385707747508709
-0.514947607010738,-0.0116128816376583
-0.50114956816379,-0.0189611457262353
-0.48837802850544,-0.0259553459906636
-0.476715272803723,-0.0326537434408823
-0.46623404691894,-0.0391187302802347
-0.456997007120228,-0.0454161332019065
-0.449056252201873,-0.0516144802339109
-0.442452942219834,-0.0577842381663638
-0.437217006927508,-0.0639970278784679
-0.433366946222217,-0.0703248250989736
-0.430909724126851,-0.0768391542809485
-0.429840757031454,-0.0836102833480607
-0.430143996114339,-0.090706427074537
-0.431792103058502,-0.0981929667943884
-0.434746717383842,-0.106131693997968
-0.438958812935781,-0.114580085166623
-0.444369140313246,-0.123590614920955
-0.450908751290161,-0.133210114217456
-0.458499600590966,-0.143479179925068
-0.467055219728309,-0.15443164165113
-0.476481457005543,-0.166094091169371
-0.486677277233315,-0.178485479235691
-0.497535614213169,-0.191616783965582
-0.508944268605843,-0.205490754295606
-0.520786843431783,-0.220101731366311
-0.532943709149293,-0.235435549951449
-0.545292990024324,-0.251469521324785
-0.557711563347201,-0.268172498207817
-0.570076062966656,-0.28550502168605
-0.582263878601324,-0.303419549225028
-0.594154142453052,-0.321860762166828
-0.605628694784496,-0.340765950350086
-0.616573020334113,-0.360065470778516
-0.626877147722838,-0.379683276570746
-0.636436504355883,-0.39953751176459
-0.645152719737043,-0.419541166927425
-0.652934370587802,-0.439602789946997
-0.65969766169522,-0.459627245848912
-0.665367036996167,-0.479516519013203
-0.669875716035702,-0.499170550746991
-0.673166151608729,-0.518488104817343
-0.675190405100346,-0.53736765326117
-0.675910436775296,-0.555708274570165
-0.675298309024108,-0.57341055620042
-0.673336301346024,-0.59037749328005
-0.670016936629868,-0.606515375384558
-0.665342919076675,-0.62173465331915
-0.659326984885086,-0.635950777989172
-0.651991667585576,-0.649085003653202
-0.643368980655486,-0.661065148136316
-0.63350002076717,-0.671826302931318
-0.622434495709916,-0.681311486530197
-0.610230181676561,-0.689472234803286
-0.596952315212284,-0.696269122775344
-0.582672925680465,-0.701672212731507
-0.567470114604008,-0.705661424216591
-0.551427288685699,-0.708226822163155
-0.534632353694075,-0.709368820091022
-0.517176876718805,-0.709098296057539
-0.499155224548826,-0.707436619797119
-0.480663686105444,-0.704415590263906
-0.461799586969865,-0.700077283575932
-0.442660404079261,-0.694473812145831
-0.423342888627384,-0.687666996565229
-0.403942205095433,-0.679727952580251
-0.384551094157369,-0.67073659624745
-0.36525906695314,-0.660781071086121
-0.34615163790541,-0.649957101737987
-0.327309602873693,-0.638367279302372
-0.308808368997576,-0.626120284128425
-0.29071734208219,-0.613330052410199
-0.273099376828841,-0.600114893440281
-0.256010294616809,-0.586596564828876
-0.239498472904081,-0.572899313383303
-0.223604509641381,-0.559148889664723
-0.208360965390968,-0.545471544491224
-0.193792185116189,-0.531993015837103
-0.179914200865882,-0.518837514685519
-0.166734715826426,-0.506126718424529
-0.154253169460272,-0.493978780334673
-0.142460882699941,-0.482507363599733
-0.131341281427659,-0.471820708082324
-0.120870195749552,-0.462020737843811
-0.11101623187634,-0.453202217056204
-0.10174121275588,-0.445451961554822
-0.0930006829728745,-0.438848112818076
-0.0847444728431707,-0.433459480638815
-0.0769173160896953,-0.429344960174646
-0.0694595149990355,-0.42655302843764
-0.0623076465263798,-0.425121324612217
-0.0553953024458804,-0.425076317879656
-0.0486538563367759,-0.426433065684796
-0.0420132499556297,-0.429195064611497
-0.0354027913738388,-0.433354195245132
-0.0287519571588137,-0.438890761599508
-0.0219911908476362,-0.445773624879383
-0.0150526900039623,-0.453960430544925
-0.00787117426194448,-0.463397926848338
-0.000384626943954055,-0.474022372232277
0.00746499690970215,-0.485760028221384
0.0157311029435286,-0.498527733709101
0.0244618367859185,-0.512233555847966
0.0336995162682986,-0.526777512099233
0.0434801220921827,-0.54205235739226
0.0538328519250742,-0.557944429791295
0.0647797423129982,-0.574334547571536
0.0763353621636224,-0.59109895017228
0.0885065808850878,-0.608110275126152
0.101292413567928,-0.625238562763145
0.114683944877219,-0.642352280259033
0.128664332585824,-0.659319356441701
0.143208890934088,-0.676008218687244
0.158285253253287,-0.692288823231162
0.173853612546473,-0.708033670288554
0.189867037987684,-0.723118795520099
0.206271864585783,-0.737424729596924
0.223008152568554,-0.750837417904586
0.240010212382907,-0.763249092782527
0.257207190583775,-0.774559091116627
0.274523711303372,-0.784674610585617
0.291880567459442,-0.793511398402593
0.30919545538042,-0.800994366985938
0.326383746102032,-0.807058131634414
0.343359286227182,-0.811647465963281
0.360035220942823,-0.814717671576078
0.376324831556335,-0.816234859193764
0.392142379752188,-0.816176139232718
0.407403950678749,-0.814529720608805
0.422028286956043,-0.811294917339441
0.43593760574832,-0.806482063312328
0.449058391170079,-0.800112336381282
