-0.12940352169474,-0.00548912319793354
-0.131813318978845,-0.0145735538454644
-0.133939087919431,-0.02377603023019
-0.135775781033734,-0.0330876284965526
-0.137318632604493,-0.0424992239075902
-0.13856316632672,-0.0520014997852444
-0.139505202669432,-0.0615849567330432
-0.140140865942151,-0.0712399221320317
-0.140466591056257,-0.0809565599004563
-0.140479129971608,-0.0907248805073605
-0.140175557819131,-0.100534751229903
-0.139553278690442,-0.110375906643876
-0.138610031085891,-0.120237959336589
-0.137343893012771,-0.130110410830957
-0.135753286725806,-0.139982662709347
-0.133836983102402,-0.149844027925445
-0.131594105645549,-0.159683742292123
-0.129024134107612,-0.169490976133048
-0.126126907728723,-0.179254846085484
-0.122902628083826,-0.188964427041556
-0.119351861532916,-0.198608764214969
-0.115475541269389,-0.208176885320014
-0.111274968961899,-0.217657812849459
-0.106751815985537,-0.227040576437787
-0.101908124238619,-0.236314225296029
-0.0967463065418048,-0.245467840704339
-0.0912691466167652,-0.254490548548294
-0.0854797986420477,-0.263371531884783
-0.0793817863842965,-0.27210004352328
-0.0729790019034429,-0.280665418608158
-0.0662757038309665,-0.289057087187674
-0.0592765152208166,-0.297264586755178
-0.051986420973066,-0.305277574748071
-0.0444107648308603,-0.313085840989997
-0.0365552459517159,-0.320679320061788
-0.0284259150547113,-0.328048103586634
-0.0200291701456084,-0.335182452415039
-0.0113717518224303,-0.342072808695117
-0.00246073816451542,-0.348709807813885
0.00669646079144637,-0.355084290195248
0.0160921089843988,-0.361187312940501
0.0257181506664485,-0.367010161297264
0.0355662171399739,-0.372544359942883
0.0456276338888775,-0.377781684068514
0.0558934280980659,-0.382714170250213
0.066354336554776,-0.38733412709358
0.0770008139248993,-0.391634145638657
0.0878230413970019,-0.395607109512026
0.0988109356862793,-0.399246204813237
0.10995415839025,-0.402544929722974
0.12124212568754,-0.405497103820582
0.132664018370704,-0.408096877098896
0.14420879220357,-0.410338738664537
0.155865188593234,-0.412217525112197
0.167621745566371,-0.413728428561712
0.179466809039186,-0.414867004347061
0.191388544369914,-0.415629178346763
0.203374948182423,-0.416011253945515
0.215413860449097,-0.416009918617258
0.227492976820852,-0.415622250120257
0.239599861191787,-0.41484572229516
0.251721958485635,-0.413678210457403
0.263846607650909,-0.412117996375774
0.275961054851287,-0.410163772829314
0.288052466837553,-0.407814647735238
0.300107944487094,-0.405070147840955
0.312114536496735,-0.401930221973746
0.324059253214426,-0.398395243842126
0.335929080595095,-0.394466014383368
0.347710994265753,-0.390143763652178
0.359391973684764,-0.385430152245987
0.370959016379989,-0.380327272262809
0.382399152250388,-0.374837647788147
0.393699457915482,-0.368964234907913
0.404847071096987,-0.362710421244861
0.415829205016794,-0.356080025016533
0.426633162795387,-0.349077293613271
0.437246351834729,-0.34170690169534
0.447656298169554,-0.33397394880878
0.457850660771003,-0.325883956520093
0.467817245786495,-0.317442865070462
0.477544020699728,-0.308657029550671
0.487019128394704,-0.299533215598509
0.496230901107744,-0.290078594620909
0.505167874251448,-0.280300738543664
0.513818800094687,-0.270207614092068
0.522172661282739,-0.259807576606388
0.530218684181841,-0.249109363396596
0.537946352032508,-0.238122086641309
0.545345417896127,-0.226855225836457
0.552405917379497,-0.215318619799665
0.559118181122146,-0.203522458236903
0.565472847031465,-0.191477272878444
0.57146087225089,-0.179193928191699
0.577073544846613,-0.166683611678981
0.582302495198521,-0.153957823768761
0.587139707081356,-0.141028367309467
0.591577528422332,-0.127907336675346
0.595608681721759,-0.114607106494391
0.599226274123534,-0.101140320008799
0.602423807122684,-0.087519877078871
0.605195185897479,-0.0737589218417143
0.607534728253994,-0.05987083003654
0.609437173171386,-0.0458691960087634
0.610897688936506,-0.0317678194055338
0.611911880856905,-0.0175806915757096
0.612475798541668,-0.00332198168767796
0.612585942739969,0.0109939774211982
0.61223927172767,0.0253527036493848
0.61143320723272,0.0397395802757504
0.610165639890614,0.0541398708291089
0.608434934221612,0.0685387341676156
0.606239933121926,0.0829212397525964
0.60357996186157,0.097272383101117
0.600454831582089,0.111577101401321
0.596864842287883,0.125820289274329
0.592810785325389,0.13998681466624
0.588293945344891,0.154061534853584
0.583316101740309,0.16802931254535
0.577879529562834,0.181875032064549
0.571986999904842,0.195583615592106
0.565641779751106,0.209140039455728
0.558847631294852,0.222529350446265
0.551608810716824,0.235736682143985
0.543930066426059,0.248747271237073
0.53581663676169,0.261546473814629
0.527274247155658,0.274119781616345
0.518309106756804,0.286452838221052
0.50892790451742,0.298531455156285
0.499137804743893,0.310341627911038
0.488946442113708,0.321869551833902
0.478361916161633,0.333101637898824
0.467392785238518,0.344024528320794
0.456048059946726,0.354625112003855
0.444337196056797,0.364890539803928
0.43227008691053,0.374808239589074
0.419857055316252,0.384365931079966
0.407108844942618,0.393551640453487
0.394036611217869,0.402353714692577
0.380651911742009,0.410760835665639
0.366966696219971,0.418762033919036
0.352993295924357,0.426346702166459
0.338744412696899,0.433504608459191
0.324233107498343,0.440225909021585
0.309472788516948,0.446501160736356
0.294477198846364,0.452321333264597
0.279260403744134,0.457677820785784
0.263836777482565,0.462562453343343
0.248220989804236,0.466967507781762
0.232427991994848,0.470885718261568
0.216473002586628,0.474310286338926
0.200371492705933,0.477234890597002
0.184139171079144,0.479653695816671
0.167791968711382,0.481561361674616
0.151346023252981,0.482953050957274
0.134817663069054,0.483824437279612
0.118223391027889,0.484171712298179
0.101579868024256,0.483991592408361
0.0849038962540833,0.48328132491633
0.0682124022572971,0.482038693676648
0.0515224197459135,0.480262024187067
0.0348510722348155,0.477950188132591
0.0182155554929012,0.475102607371442
0.00163311983257308,0.471719257356116
-0.0148789477442174,0.467800669983331
-0.0313033415249198,0.463347935867228
-0.0476227551716779,0.458362706030792
-0.0638198998941055,0.452847193011068
-0.0798775226905305,0.446804171374351
-0.0957784246385239,0.440236977638162
-0.111505479215404,0.43314950959742
-0.127041650629298,0.425546225052875
-0.142370012141243,0.417432139940492
-0.157473764358739,0.4088128258611
-0.172336253481113,0.399694407010282
-0.186940989477048,0.390083556509114
-0.201271664174568,0.379987492137
-0.215312169243849,0.369413971468513
-0.229046614053204,0.358371286416782
-0.242459343378682,0.346868257186614
-0.255534954947777,0.334914225641206
-0.268258316797845,0.322519048086905
-0.280614584429953,0.309693087481154
-0.292589217739015,0.296447205069387
-0.304167997701231,0.282792751457257
-0.315337042800043,0.268741557125227
-0.326082825171993,0.254305922393175
-0.336392186454125,0.239498606843291
-0.3462523533148,0.224332818210121
-0.35565095265006,0.208822200747275
-0.364576026427954,0.192980823080862
-0.373016046163569,0.176823165560335
-0.380959927007795,0.16036410711799
-0.388397041433239,0.14361891164895
-0.395317232501024,0.126603213924004
-0.401710826692625,0.10933300504824
-0.407568646291275,0.0918246174789278
-0.412882021297893,0.0740947096166488
-0.417642800866935,0.0561602499841614
-0.421843364247998,0.0380385010080117
-0.425476631219502,0.0197470024183546
-0.42853607200125,0.00130355428294521
-0.431015716633157,-0.0172738003083045
-0.432910163807979,-0.0359667928913706
-0.434214589146389,-0.0547569475914946
-0.434924752903297,-0.0736255993842413
-0.435037007094875,-0.0925539126361832
-0.43454830203632,-0.111522899906796
-0.433456192280976,-0.130513440992799
-0.431758841952032,-0.149506302195833
-0.429455029458625,-0.168482155794085
-0.426544151588798,-0.187421599698129
-0.423026226972405,-0.206305177271017
-0.41890189890767,-0.225113397292407
-0.414172437545791,-0.243826754046229
-0.408839741428614,-0.262425747511256
-0.402906338375078,-0.280890903633684
-0.396375385712812,-0.299202794660713
-0.38925066985192,-0.31734205951394
-0.381536605198719,-0.335289424181258
-0.373238232407842,-0.353025722105873
-0.364361215971828,-0.370531914550937
-0.354911841148042,-0.387789110918263
-0.344897010223427,-0.404778588999543
-0.334324238118321,-0.421481815138486
-0.323201647331283,-0.437880464282292
-0.31153796222754,-0.453956439900922
-0.299342502674413,-0.46969189375268
-0.286625177027756,-0.485069245474691
-0.273396474474153,-0.50007120197699
-0.259667456734324,-0.514680776619022
-0.245449749133861,-0.528881308147547
-0.230755531048149,-0.54265647937508
-0.215597525728972,-0.555990335578207
-0.199988989521009,-0.568867302595337
-0.183943700477093,-0.581272204603679
-0.167475946381783,-0.59319028155551
-0.15060051219344,-0.604607206254062
-0.133332666915675,-0.615509101049689
-0.115688149909655,-0.625882554137283
-0.0976831566594162,-0.635714635436256
-0.0793343240029066,-0.64499291203479
-0.0606587148421641,-0.653705463180437
-0.0416738023465558,-0.66184089479956
-0.0223974536636533,-0.669388353528541
-0.00284791315285735,-0.67633754024013
0.0169562148425474,-0.682678723048791
0.0369959836686738,-0.688402749779355
0.057252122462899,-0.693501059883853
0.0777050546670446,-0.697965695791857
0.0983349169341057,-0.701789313680265
0.119121578410278,-0.704965193648975
0.140044660373579,-0.707487249289501
0.16108355620991,-0.709350036634147
0.182217451706976,-0.710548762473988
0.203425345646077,-0.711079292034502
0.224686070671413,-0.710938155998351
0.245978314416145,-0.710122556865437
0.267280640864143,-0.708630374641048
0.288571511926006,-0.706460171843538
0.30982930920764,-0.703611197823714
0.331032355949405,-0.700083392388769
0.352158939113575,-0.695877388724299
0.373187331597616,-0.690994515608694
0.394095814550597,-0.685436798914857
0.414862699769809,-0.679206962394984
0.435466352154557,-0.672308427744852
0.455885212193908,-0.664745313944804
0.476097818465073,-0.656522435875376
0.496082830118989,-0.647645302206259
0.515819049329644,-0.638120112558043
0.53528544368356,-0.627953753936965
0.554461168485916,-0.61715379644362
0.573325588959727,-0.605728488257384
0.591858302314552,-0.593686749899049
0.610039159661271,-0.581038167774931
0.627848287749512,-0.567792987006486
0.645266110504427,-0.553962103550233
0.662273370339666,-0.539557055613525
0.678851149223508,-0.524590014372488
0.694980889475312,-0.509073773999184
0.710644414269654,-0.493021741005809
0.725823947825716,-0.47644792291448
0.740502135259773,-0.459366916261896
0.754662062078874,-0.441793893948886
0.768287273294133,-0.42374459194558
0.781361792132336,-0.405235295363653
0.793870138324957,-0.386282823907794
0.805797345954001,-0.366904516719216
0.817128980834508,-0.347118216624761
0.827851157413969,-0.326942253805762
0.837950555169316,-0.306395428901509
0.847414434482631,-0.285496995562814
0.856230651977175,-0.264266642471778
0.864387675295862,-0.242724474844493
0.871874597304791,-0.220890995434001
0.878681149705022,-0.198787085051406
0.884797716036317,-0.17643398262363
0.890215344057145,-0.153853264806813
0.894925757485869,-0.131066825174909
0.898921367088622,-0.108096853003537
0.902195281100014,-0.0849658116696347
0.904741314963473,-0.0616964166879342
0.906554000378682,-0.0383116134057277
0.907628593644231,-0.014834554377827
0.907961083284336,0.0087114235559775
0.907548196949142,0.0323028224682572
0.906387407578891,0.0559160067930436
0.90447693882292,0.0795272270032605
0.901815769705256,0.103112643492793
0.898403638529265,0.126648350639171
0.894241046014651,0.150110401022599
0.88932925766081,0.173474829776782
0.883670305331374,0.196717679046839
0.877266988055551,0.219815022529324
0.870122872042678,0.242742990069273
0.862242289907198,0.265477792288994
0.853630339102095,0.287995745223267
0.844292879559627,0.31027329493544
0.83423653053903,0.332287042088925
0.82346866668168,0.354013766448512
0.811997413275016,0.375430451285907
0.79983164072738,0.39651430766395
0.78698095825673,0.417242798573949
0.773455706797024,0.437593662900701
0.759266951126891,0.457544939189811
0.744426471226033,0.477074989192062
0.728946752865617,0.496162521159755
0.712840977439737,0.514786612870063
0.696123011045828,0.532926734350706
0.678807392822735,0.550562770283423
0.66090932255592,0.56767504206101
0.642444647560104,0.584244329473954
0.623429848850398,0.600251892002999
0.603882026613774,0.615679489694329
0.583818884993478,0.630509403594366
0.563258716199757,0.644724455721628
0.542220383960981,0.658308028553423
0.520723306330019,0.67124408400565
0.498787437861399,0.683517181884382
0.476433251175504,0.695112497788443
0.453681717926774,0.706015840442596
0.430554289193471,0.716213668441611
0.407072875307347,0.725693106385899
0.38325982514206,0.734441960390063
0.359137904879901,0.74244873294626
0.334730276276981,0.749702637124868
0.310060474447545,0.756193610095625
0.285152385188764,0.761912325953014
0.260030221867765,0.766850207830355
0.234718501893315,0.770999439287746
0.209242022794947,0.774352974959713
0.18362583793292,0.776904550449115
0.157895231862765,0.778648691454626
0.132075695378641,0.779580722119848
0.106192900260169,0.779696772592873
0.0802726737476981,0.778993785785896
0.0543409727714533,0.777469523325294
0.0284238579602236,0.775122570683348
0.0025474674556501,0.77195234148366
-0.0232620094416188,0.76795908097309
-0.0489783587672774,0.763143868653923
-0.0745753685035091,0.75750862007079
-0.100026855276838,0.75105608774774
-0.125306691116588,0.74378986127173
-0.150388830246598,0.735714366519634
-0.175247335882718,0.72683486402681
-0.199856407008624,0.717157446496066
-0.224190405102272,0.706689035446833
-0.248223880785427,0.695437377005162
-0.27193160036856,0.683411036836111
-0.295288572263559,0.670619394220944
-0.318270073236614,0.657072635282469
-0.340851674473844,0.642781745362721
-0.363009267432247,0.627758500558102
-0.384719089448723,0.612015458417942
-0.405957749080123,0.595565947813373
-0.426702251147382,0.578424057984237
-0.446930021457112,0.560604626772655
-0.466618931174205,0.542123228052742
-0.485747320819336,0.522996158366788
-0.504294023865496,0.503240422779122
-0.522238389908098,0.482873719959648
-0.53956030738346,0.461914426509973
-0.556240225810986,0.440381580545734
-0.572259177534632,0.418294864549694
-0.587598798939816,0.395674587510818
-0.602241351122335,0.372541666365441
-0.616169739986315,0.348917606757369
-0.629367535748839,0.324824483134453
-0.641818991829322,0.300284918200036
-0.653509063102366,0.275322061738234
-0.664423423493342,0.249959568832886
-0.674548482896637,0.224221577500527
-0.683871403397058,0.198132685758549
-0.692380114775609,0.171717928150245
-0.700063329281509,0.145002751749131
-0.706910555653013,0.118012991665517
-0.712912112370334,0.0907748460788583
-0.718059140124701,0.0633148508200327
