0.148351009671988,0.687077482718698
0.148319028948954,0.687131898354651
0.148286358821961,0.687187353183675
0.148252980882727,0.68724387186282
0.148218876137815,0.687301479746191
0.148184024987096,0.687360202907748
0.148148407201297,0.687420068164942
0.148112001898617,0.687481103103233
0.148074787520351,0.687543336101516
0.148036741805485,0.687606796358505
0.147997841764198,0.687671513920109
0.147958063650246,0.68773751970783
0.147917382932144,0.687804845548252
0.147875774263112,0.687873524203637
0.147833211449709,0.6879435894037
0.147789667419103,0.688015075878594
0.147745114184905,0.688088019393169
0.147699522811494,0.68816245678255
0.147652863376768,0.688238425989102
0.147605104933231,0.688315966100823
0.147556215467343,0.688395117391253
0.147506161857046,0.688475921360932
0.147454909827364,0.688558420780506
0.147402423903992,0.688642659735529
0.147348667364769,0.68872868367305
0.147293602188922,0.688816539450052
0.147237189003971,0.688906275383836
0.147179387030179,0.688997941304422
0.147120154022406,0.689091588609073
0.147059446209253,0.68918727031902
0.146997218229337,0.689285041138494
0.146933423064551,0.689384957516175
0.146868011970156,0.689487077709146
0.146800934401532,0.68959146184949
0.146732137937409,0.689698172013633
0.146661568199396,0.689807272294556
0.146589168767597,0.689918828877018
0.146514881092118,0.690032910115924
0.146438644400228,0.690149586617968
0.146360395598944,0.690268931326723
0.14628006917279,0.69039101961132
0.146197597076452,0.690515929358889
0.146112908622065,0.690643741070935
0.146025930360814,0.690774537963829
0.145936585958539,0.69090840607361
0.145844796065012,0.691045434365295
0.145750478176512,0.691185714846909
0.14565354649133,0.69132934268846
0.145553911757795,0.691476416346082
0.145451481114387,0.691627037691603
0.145346157921482,0.691781312147784
0.14523784158425,0.691939348829495
0.145126427366168,0.692101260691123
0.145011806192623,0.692267164680495
0.144893864443998,0.692437181899634
0.144772483737626,0.692611437772664
0.144647540697947,0.69279006222122
0.144518906714154,0.692973189847709
0.144386447684583,0.693160960126802
0.144250023747028,0.693353517605555
0.144109488994141,0.693551012112566
0.143964691172977,0.693753598976605
0.143815471367735,0.693961439255176
0.143661663664628,0.694174699973476
0.143503094797784,0.694393554374266
0.14333958377498,0.694618182179161
0.14317094148194,0.694848769861898
0.142996970263846,0.695085510934154
0.1428174634826,0.695328606244508
0.142632205048286,0.69557826429118
0.142440968923179,0.695834701549205
0.142243518596516,0.696098142812725
0.142039606528124,0.696368821553109
0.141828973558878,0.696646980293665
0.141611348285798,0.696932871001707
0.141386446399442,0.697226755498792
0.141153969981108,0.697528905889985
0.140913606757135,0.697839605013017
0.140665029307434,0.698159146908247
0.140407894225161,0.698487837310394
0.140141841224198,0.698825994162995
0.139866492190899,0.699173948156626
0.139581450176264,0.699532043291914
0.13928629832444,0.699900637468428
0.138980598733136,0.700280103100564
0.1386638912412,0.700670827761537
0.138335692138275,0.701073214856664
0.137995492791037,0.701487684327108
0.137642758180124,0.701914673385278
0.137276925341415,0.702354637283099
0.136897401704822,0.702808050114363
0.136503563323251,0.703275405652365
0.136094752983822,0.703757218224026
0.135670278192818,0.704254023621661
0.135229409025188,0.704766380053529
0.134771375828721,0.705294869134232
0.134295366772217,0.705840096915971
0.133800525226192,0.706402694961543
0.133285946963723,0.706983321459867
0.132750677168089,0.707582662384664
0.13219370723283,0.708201432696709
0.131613971338693,0.708840377589868
0.131010342790747,0.709500273780838
0.130381630097629,0.710181930842169
0.129726572773451,0.710886192577769
0.129043836841408,0.711613938439595
0.128332010016458,0.712366084983687
0.127589596542688,0.713143587363054
0.126815011659079,0.713947440854128
0.126006575665344,0.714778682412628
0.125162507557304,0.715638392253612
0.124280918198933,0.716527695449267
0.123359802995668,0.717447763536602
0.122397034030898,0.718399816125519
0.121390351624646,0.719385122495886
0.120337355270435,0.720405003169994
0.11923549390301,0.721460831444283
0.118082055446214,0.722554034861267
0.116874155586587,0.723686096599257
0.115608725714488,0.724858556753584
0.114282499970481,0.726073013478601
0.112892001330536,0.727331123954629
0.111433526659288,0.728634605138174
0.10990313065609,0.729985234247045
0.108296608614099,0.73138484892432
0.106609477908042,0.732835347016365
0.104836958121804,0.734338685890089
0.102973949722572,0.735896881203184
0.101015011184157,0.737512005028079
0.0989543344583331,0.739186183215516
0.0967857186899005,0.740921591866754
0.0945025420687592,0.742720452764264
0.092097731711007,0.744585027589003
0.0895637314611625,0.74651761072773
0.0868924675095487,0.748520520445934
0.0840753117231273,0.750596088170465
0.081103042595261,0.752746645590512
0.077965803730736,0.754974509245618
0.0746530597977836,0.757281962224753
0.0711535498998397,0.759671232550336
0.0674552383476572,0.762144467765338
0.0635452628485978,0.764703705179577
0.0594098801762924,0.767350837162721
0.055034409442403,0.770087570796045
0.0504031731654571,0.772915381112323
0.045499436422449,0.775835457063447
0.040305344480493,0.778848639258536
0.0348018594420603,0.781955348411951
0.0289686966026629,0.785155503331697
0.0227842614192474,0.788448427165623
0.0162255882266707,0.791832740507956
0.00926828212474523,0.795306239855011
0.00188646579633911,0.79886575979107
-0.00594726658460487,0.802507017189087
-0.0142618857296615,0.806224435634086
-0.0230879507287001,0.81001094822986
-0.0324576158632035,0.813857776944971
-0.0424046162256999,0.817754186708405
-0.0529642268145736,0.821687212598908
-0.0641731888561282,0.825641358710093
-0.0760695960873081,0.829598267646143
-0.0886927326183417,0.833536360146374
-0.102082852797678,0.837430445093577
-0.116280892245158,0.841251301179499
-0.131328097940211,0.844965232835947
-0.147265564004457,0.848533604751486
-0.164133658679112,0.851912361444497
-0.181971327071088,0.855051541015837
-0.200815253664404,0.85789479541567
-0.220698868540245,0.860378933373393
-0.241651181936792,0.862433506578036
-0.26369543347065,0.863980464743816
-0.286847545341414,0.864933910782608
-0.311114373493779,0.865199993288999
-0.336491757386935,0.864676979683187
-0.362962378089568,0.863255559288189
-0.390493446216812,0.860819430828023
-0.419034256002943,0.857246232642106
-0.448513659654738,0.852408875458825
-0.478837536908314,0.846177335828206
-0.509886357928415,0.838420962113775
-0.541512962406825,0.829011333056368
-0.573540702452179,0.81782569017015
-0.605762119513578,0.80475093865969
-0.637938343405223,0.789688176649685
-0.66979941119093,0.772557669501145
-0.701045701558955,0.753304136048721
-0.731350662637942,0.731902159181836
-0.760364974689467,0.708361478173119
-0.787722231552918,0.682731869822034
-0.813046145690325,0.655107286316577
-0.835959183230407,0.625628896883065
-0.856092422581523,0.594486684795342
-0.873096311187317,0.56191928689333
-0.886651880916963,0.528211832663624
-0.896481886452455,0.493691643743173
-0.902361266351784,0.458721787501343
-0.904126305219333,0.423692630479973
-0.901681905969328,0.38901169510205
-0.895006466381544,0.355092269641959
-0.884153990158145,0.322341339867604
-0.869253238734226,0.291147485917901
-0.850503929535792,0.261869409291138
-0.828170188848599,0.234825718146085
-0.802571651766909,0.210286507627972
-0.77407274894093,0.188467135738598
-0.743070816172076,0.169524429861705
-0.709983701287756,0.153555382850127
-0.675237523546123,0.140598229118196
-0.639255171198974,0.130635646497579
-0.602446014955528,0.123599720280349
-0.565197183906369,0.119378237982146
-0.527866611369118,0.11782185749572
-0.490777924866639,0.118751703359519
-0.454217137753136,0.121966988386952
-0.418431006812304,0.127252321668511
-0.383626853624487,0.134384439458785
-0.349973607497256,0.143138174067789
-0.317603811642123,0.153291550623785
-0.286616337845533,0.164629967512285
-0.25707957319358,0.176949470498659
-0.229034870524269,0.190059171870082
-0.202500087743445,0.203782894650676
-0.177473076277402,0.217960139291385
-0.153935012970741,0.232446478023893
-0.131853500777243,0.247113482338693
-0.111185390516805,0.261848283822083
-0.0918792982959858,0.276552859696205
-0.0738778108969766,0.291143123396652
-0.0571193848344427,0.305547888620746
-0.0415399543586356,0.319707763400201
-0.0270742700353433,0.333574019527312
-0.0136569932655283,0.347107472490935
-0.0012235737955737,0.360277398167544
0.01028906257205,0.373060504934311
0.0209419897881729,0.385439973598376
0.0307938962646859,0.39740457247824
0.0399008159577918,0.408947851002335
0.0483159556243722,0.420067412162069
0.0560896004297944,0.430764261925463
0.0632690824126351,0.441042232143182
0.0698987985097346,0.450907472433691
0.0760202668676289,0.460368005906351
0.0816722119897004,0.469433343274214
0.0868906708843965,0.478114149841607
0.0917091137917318,0.48642195995944
0.0961585742835209,0.494368933770556
0.100267784572285,0.501967651376678
0.104063312741803,0.509230939915344
0.107569699346885,0.516171729415507
0.110809591438963,0.522802933686061
0.113803872574419,0.529137352869834
0.116571787769911,0.535187594657719
0.119131062697334,0.540966011497826
0.121498016673116,0.546484651449736
0.12368766920321,0.551755220622274
0.125713840006006,0.556789055394657
0.127589242558537,0.561597102855826
0.129325571303805,0.566189908106535
0.130933582724585,0.570577607254873
0.132423170536684,0.574769925100144
0.133803435286279,0.578776176644362
0.135082748655117,0.582605271696791
0.136268812786776,0.586265721947023
0.137368714949017,0.589765649977552
0.138388977843544,0.59311279976956
0.139335605866474,0.596314548326937
0.140214127611851,0.59937791810501
0.141029634897516,0.602309589983107
0.141786818578263,0.605115916565229
0.142490001396095,0.607802935631517
0.143143168101979,0.610376383596012
0.143749993068124,0.612841708853964
0.144313865594679,0.615204084925455
0.144837913100153,0.617468423321956
0.145325022370777,0.619639386079079
0.145777859030723,0.621721397912776
0.146198885382421,0.623718657967829
0.146590376754398,0.625635151137188
0.146954436482921,0.627474658938652
0.147293009643423,0.629240769941957
0.147607895638053,0.630936889744645
0.147900759736807,0.63256625049941
0.148173143661488,0.634131919999048
0.148426475294145,0.635636810327844
0.148662077584689,0.637083686090339
0.148881176725958,0.638475172229988
0.14908490965864,0.639813761451419
0.149274330963075,0.641101821260761
0.149450419189996,0.642341600639093
0.149614082677805,0.643535236364284
0.149766164899799,0.64468475899664
0.149907449381034,0.645792098543657
0.15003866422105,0.646859089819027
0.150160486255544,0.647887477510717
0.150273544887197,0.648878920972603
0.150378425613283,0.649834998753689
0.150475673275244,0.650757212878496
0.150565795053291,0.651646992891686
0.150649263227077,0.652505699679484
0.150726517721687,0.653334629079924
0.150797968456544,0.654135015293412
0.150863997513314,0.654908034104583
0.150924961137531,0.655654805925875
0.150981191587414,0.656376398672762
0.151032998842189,0.657073830480067
0.151080672181211,0.657748072268292
0.151124481644213,0.65840005016843
0.151164679382149,0.659030647813288
0.151201500907307,0.65964070850288
0.151235166250639,0.660231037251075
0.151265881033616,0.660802402720254
0.151293837461267,0.661355539050362
0.151319215242573,0.661891147588389
0.151342182443825,0.662409898523957
0.151362896280136,0.66291243243637
0.151381503849851,0.663399361758187
0.151398142816226,0.663871272160058
0.151412942040391,0.66432872386132
0.151426022169289,0.664772252870575
0.151437496181989,0.665202372160209
0.151447469897499,0.665619572778615
0.151456042446954,0.666024324903628
0.151463306712836,0.666417078840505
0.151469349737663,0.666798265967558
0.1514742531044,0.667168299632389
0.151478093290673,0.667527576001493
0.151480941998683,0.667876474865842
0.151482866462611,0.668215360404882
0.151483929735125,0.668544581911281
0.151484190954504,0.668864474478581
0.151483705593763,0.669175359653811
0.151482525693077,0.669477546056986
0.151480700076675,0.669771329969314
0.151478274555314,0.670056995891814
0.151475292115348,0.670334817075964
0.151471793095329,0.670605056027887
0.151467815351009,0.670867964987519
0.151463394409562,0.671123786384102
0.151458563613751,0.671372753269263
0.151453354256755,0.671615089728897
0.15144779570828,0.671851011274968
0.151441915532562,0.672080725218296
0.151435739598802,0.672304431023344
0.151429292184559,0.672522320645942
0.151422596072558,0.67273457885485
0.151415672641378,0.672941383538
0.151408541950408,0.67314290599422
0.151401222819464,0.673339311211179
0.151393732903425,0.673530758130286
0.1513860887622,0.673717399899186
0.151378305926355,0.673899384112518
0.151370398958665,0.674076853041503
0.151362381511873,0.67424994385295
0.151354266382886,0.674418788818212
0.151346065563659,0.674583515512588
0.151337790288956,0.674744247005652
0.151329451081211,0.674901102042981
0.151321057792665,0.675054195219674
0.151312619644944,0.675203637146104
0.15130414526626,0.675349534606262
0.151295642726368,0.675491990709064
0.151287119569427,0.675631105032968
0.151278582844899,0.675766973764223
0.151270039136609,0.675899689829054
0.151261494590066,0.676029343020086
0.151252954938178,0.676156020117277
0.151244425525441,0.676279805003618
0.1512359113307,0.676400778775859
0.151227416988577,0.676519019850494
0.151218946809639,0.676634604065221
0.151210504799387,0.676747604776099
0.151202094676136,0.676858092950603
0.151193719887857,0.676966137256758
0.15118538362804,0.677071804148548
0.151177088850633,0.677175157947759
0.151168838284123,0.677276260922434
0.151160634444805,0.677375173362076
0.15115247964928,0.677471953649772
0.151144376026243,0.677566658331353
0.151136325527588,0.677659342181742
0.151128329938883,0.677750058268608
0.15112039088924,0.677838858013448
0.15111250986063,0.677925791250219
0.151104688196655,0.67801090628161
0.151096927110836,0.678094249933084
0.151089227694419,0.67817586760477
0.151081590923739,0.678255803321304
0.151074017667175,0.678334099779709
0.1510665086917,0.678410798395405
0.15105906466907,0.678485939346418
0.151051686181656,0.678559561615877
0.151044373727955,0.678631703032871
0.15103712772778,0.678702400311721
0.151029948527166,0.678771689089764
0.151022836402996,0.678839603963684
0.151015791567368,0.678906178524463
0.151008814171711,0.678971445391016
0.151001904310679,0.679035436242552
0.150995062025814,0.679098181849727
