1.039072543618,0.00152666289531006
1.03894987680967,0.00153267030524666
1.03858217647934,0.00156614080491106
1.03796993751088,0.00165019428104973
1.03711371362357,0.00180783474570926
1.03601411633797,0.00206189325440003
1.03467181393355,0.00243497121236464
1.03308753040018,0.00294938419688239
1.03126204438584,0.00362710642238901
1.02919618814268,0.0044897159737549
1.02689084647369,0.00555834093134986
1.024346955682,0.00685360650952988
1.02156550252504,0.00839558332791868
1.01854752317566,0.0102037369323254
1.01529410219209,0.0122968786793492
1.01180637149886,0.014693118095675
1.00808550938054,0.0174098168197699
1.00413273949021,0.0204635442301555
0.999949329874401,0.0238700348606628
0.995536592016339,0.0276441476990849
0.990895879899075,0.0317998274614345
0.986028589090148,0.036350067929599
0.980936155849291,0.0413068774355782
0.975620056260615,0.0466812465706894
0.970081805390632,0.0524831181931586
0.964322956473385,0.058721359802377
0.958345100123871,0.0654037383428159
0.952149863580847,0.0725368974951632
0.945738909980007,0.0801263375066886
0.939113937658449,0.0881763976071678
0.932276679491221,0.0966902410509207
0.92522890226066,0.105669842819648
0.917972406059119,0.115115980014806
0.910509023725603,0.125028224962246
0.902840620316692,0.135404941045787
0.894969092612071,0.146243281280285
0.886896368654838,0.157539189628647
0.878624407326706,0.169287405061094
0.870155197958063,0.181481468348855
0.86149075997278,0.194113731578368
0.852633142567561,0.207175370365951
0.843584424425481,0.220656398746916
0.83434671346333,0.234545686707077
0.824922146612197,0.248830980318712
0.815312889630701,0.263498924437218
0.805521136950144,0.278535087908966
0.795549111550758,0.293923991235239
0.785399064868154,0.309649136631661
0.77507327672897,0.32569304041714
0.764574055314627,0.34203726766116
0.75390373715203,0.358662469013195
0.743064687129952,0.375548419633116
0.732059298539769,0.392674060136796
0.720889993139149,0.410017539466565
0.709559221237184,0.427556259591898
0.698069461799449,0.445266921941569
0.686423222571344,0.463125575464683
0.674623040218059,0.481107666214298
0.662671480479415,0.499188088343954
0.650571138337801,0.517341236404267
0.638324638197373,0.535541058823813
0.625934634072623,0.553761112455859
0.613403809784413,0.571974618070141
0.600734879161509,0.590154516666708
0.587930586245635,0.608273526487049
0.574993705498036,0.626304200596108
0.561927042005517,0.644218984907533
0.54873343168392,0.661990276523456
0.535415741476969,0.679590482259435
0.521976869548435,0.6969920772247
0.508419745465548,0.714167663327746
0.494747330371602,0.731090027577437
0.480962617145706,0.747732200050238
0.467068630547637,0.764067511394908
0.453068427345798,0.780069649746999
0.438965096426265,0.795712716926812
0.424761758880986,0.81097128379603
0.410461568073188,0.825820444650112
0.396067709678109,0.840235870525649
0.381583401697206,0.854193861304318
0.367011894444049,0.867671396497682
0.352356470500143,0.88064618460006
0.337620444638997,0.893096710899827
0.322807163716818,0.905002283642944
0.307920006528245,0.916343078446159
0.292962383625658,0.927100180861222
0.277937737100617,0.937255626995545
0.262849540326095,0.946792442099054
0.247701297658242,0.955694677031513
0.232496544096492,0.963947442529295
0.21723884490092,0.971536941195455
0.201931795165842,0.978450497142039
0.186579019348734,0.984676583218768
0.171184170753671,0.990204845767593
0.155750930968527,0.995026126848139
0.140283009255346,0.999132483884641
0.124784141893333,1.00251720669075
0.109258091474046,1.00517483183439
0.0937086461484877,1.0071011543107
0.0781396188258498,1.00829323649731
0.0625548463238306,1.00874941437182
0.0469581884705027,1.00846930097798
0.0313535271578461,1.00745378713262
0.0157447653471497,1.00570503937201
0.000135826026605501,1.00322649514215
-0.0154693488784823,1.0000228552437
-0.0310667996423452,0.996100073548404
-0.0466525499216102,0.991465344009983
-0.0622226079836393,0.986127084998224
-0.0777729679794958,0.980094920991314
-0.0932996112605933,0.973379661667041
-0.10879850773798,0.965993278439414
-0.124265617283112,0.957948878492891
-0.139696891168868,0.949260676371966
-0.155088273549474,0.939943963189304
-0.170435702977906,0.930015073520909
-0.185735113959256,0.919491350061928
-0.200982438538447,0.908391106121703
-0.216173607920624,0.896733586041445
-0.231304554122449,0.88453892362255
-0.24637121165245,0.871828098657973
-0.261369519218516,0.858622891663291
-0.276295421460562,0.844945836908097
-0.291144870706289,0.830820173852108
-0.305913828747965,0.816269797093942
-0.320598268638032,0.801319204943792
-0.335194176501333,0.785993446734279
-0.349697553361703,0.770318068986579
-0.364104416980592,0.754319060551413
-0.378410803705406,0.738022796846812
-0.392612770325155,0.721455983316497
-0.406706395931028,0.704645598234494
-0.420687783779439,0.687618834983005
-0.434553063155113,0.670403043931717
-0.448298391231749,0.65302567404761
-0.461919954927762,0.63551421436491
-0.475413972754674,0.617896135445089
-0.488776696655635,0.600198830956877
-0.502004413831641,0.582449559505907
-0.515093448552983,0.564675386843066
-0.528040163953483,0.546903128579765
-0.540840963805114,0.529159293537168
-0.55349229427062,0.511470027855007
-0.565990645631753,0.493861059983895
-0.57833255399085,0.476357646683043
-0.590514602943438,0.458984520143036
-0.602533425219651,0.441765836350815
-0.614385704292285,0.424725124811169
-0.626068175949355,0.407885239736061
-0.637577629829098,0.391268312809767
-0.648910910915419,0.374895707634302
-0.660064920991858,0.358787975955842
-0.671036620052194,0.342964815768828
-0.681823027665942,0.327445031390285
-0.692421224296995,0.312246495592425
-0.702828352573831,0.297386113877022
-0.713041618509725,0.282879790970253
-0.723058292671528,0.268742399611713
-0.732875711295668,0.254987751706192
-0.74249127735011,0.241628571901513
-0.751902461541117,0.228676473650284
-0.761106803263753,0.216141937807898
-0.77010191149517,0.204034293813396
-0.778885465629832,0.192361703494067
-0.787455216255914,0.181131147528774
-0.795808985872254,0.170348414599046
-0.803944669545307,0.160018093250981
-0.811860235505691,0.15014356648493
-0.819553725684003,0.140727009083836
-0.827023256185701,0.131769387684981
-0.834267017704961,0.123270463593761
-0.841283275877525,0.115228798331977
-0.848070371572662,0.107641761907019
-0.854626721124488,0.10050554378223
-0.860950816502973,0.0938151665227223
-0.867041225425103,0.0875645020848951
-0.87289659140675,0.0817462907120493
-0.878515633755911,0.0763521623926184
-0.883897147508088,0.0713726608318425
-0.889040003304673,0.0667972698820759
-0.893943147215313,0.062614442371435
-0.898605600505312,0.0588116312651235
-0.90302645934924,0.0553753230885691
-0.907204894491986,0.0522910735364424
-0.911140150858616,0.0495435451867496
-0.914831547114441,0.0471165472344836
-0.918278475176816,0.0449930771548056
-0.921480399680255,0.04315536420142
-0.924436857396528,0.0415849146416981
-0.92714745661146,0.0402625586262332
-0.929611876460253,0.0391684985868522
-0.931829866223185,0.0382823590536926
-0.933801244583607,0.0375832377787882
-0.935525898850221,0.0370497580506806
-0.937003784145674,0.0366601220819174
-0.938234922563525,0.0363921653488972
-0.939219402295719,0.0362234117613947
-0.939957376732706,0.0361311295372451
-0.940449063538392,0.0360923876560895
-0.94069474370213,0.036084112764792
-0.940694760569983,0.0360831464061256
-0.940449518857504,0.0360663024416041
-0.93995948364629,0.0360104245389021
-0.939225179366567,0.0358924435941598
-0.938247188768097,0.0356894349596159
-0.937026151881626,0.0353786753474434
-0.935562764973171,0.0349376992813895
-0.93385777949335,0.0343443549688274
-0.931912001023989,0.0335768594671251
-0.929726288224207,0.0326138530198088
-0.927301551778136,0.0314344524398567
-0.924638753346409,0.0300183034195843
-0.921738904523528,0.0283456316489819
-0.918603065803139,0.0263972926270247
-0.915232345553251,0.0241548200533985
-0.911627899003319,0.0216004726912519
-0.907790927245121,0.0187172795950034
-0.90372267624924,0.0154890836008843
-0.899424435898949,0.0119005829817792
-0.894897539043183,0.00793737117202514
-0.89014336057025,0.00358597447214621
-0.885163316503825,-0.00116611235199091
-0.879958863122722,-0.00633039265640634
-0.874531496105836,-0.0119173367685452
-0.868882749703559,-0.0179363531699938
-0.863014195936924,-0.0243957620780274
-0.85692744382558,-0.0313027714862845
-0.850624138645668,-0.0386634557193696
-0.844105961218541,-0.0464827365505652
-0.83737462723117,-0.0547643669261075
-0.830431886589004,-0.0635109173336598
-0.823279522801939,-0.0727237648466988
-0.815919352403941,-0.0824030848705594
-0.808353224406778,-0.092547845609838
-0.800583019788223,-0.103155805270774
-0.792610651014948,-0.11422351200612
-0.784438061600278,-0.125746306603874
-0.77606722569683,-0.137718327915122
-0.767500147723969,-0.150132521010101
-0.758738862029916,-0.162980648045522
-0.749785432588246,-0.176253301820091
-0.740641952728382,-0.189939921989196
-0.731310544899633,-0.204028813903751
-0.721793360468188,-0.218507170032334
-0.712092579546398,-0.233361093919988
-0.702210410853591,-0.248575626631344
-0.692149091607533,-0.264134775620224
-0.681910887445607,-0.280021545962402
-0.671498092374663,-0.296217973882934
-0.660913028748389,-0.312705162504355
-0.650158047271022,-0.329463319737021
-0.639235527026078,-0.34647179822813
-0.628147875528741,-0.363709137281322
-0.616897528800466,-0.381153106654335
-0.605486951464274,-0.39878075213802
-0.593918636859155,-0.416568442815994
-0.582195107171939,-0.434491919900472
-0.570318913584913,-0.452526347036249
-0.558292636437444,-0.470646361961567
-0.546118885399775,-0.48882612941149
-0.533800299657145,-0.507039395146675
-0.521339548102338,-0.525259540987868
-0.508739329534708,-0.543459640734206
-0.496002372863729,-0.561612516841407
-0.483131437315048,-0.579690797734228
-0.470129312637049,-0.597666975626125
-0.45699881930586,-0.615513464717904
-0.443742808726779,-0.63320265964629
-0.43036416343003,-0.650706994052767
-0.416865797258817,-0.667998999142737
-0.40325065554758,-0.685051362105085
-0.389521715288435,-0.701836984262475
-0.375681985283729,-0.718329038823341
-0.36173450628269,-0.734501028107367
-0.347682351100187,-0.750326840117411
-0.333528624715586,-0.765780804332296
-0.319276464349796,-0.780837746596553
-0.304929039518574,-0.795473042985257
-0.290489552060219,-0.809662672524314
-0.275961236135848,-0.823383268649132
-0.261347358200465,-0.836612169287362
-0.246651216943118,-0.849327465454476
-0.231876143194477,-0.861508048254237
-0.217025499800239,-0.873133654179647
-0.202102681458838,-0.884184908613731
-0.187111114521981,-0.89464336743354
-0.172054256756657,-0.904491556624898
-0.156935597067283,-0.91371300981993
-0.141758655176786,-0.922292303673926
-0.126526981265462,-0.930215091002969
-0.11124415556658,-0.937468131608692
-0.0959137879177447,-0.94403932072167
-0.0805395172671761,-0.949917715000268
-0.0651250111341114,-0.955093556027158
-0.0496739650226636,-0.959558291251331
-0.0341901017885625,-0.963304592329063
-0.0186771709582903,-0.966326370823092
-0.00313894800025925,-0.968618791225157
0.0124207664522519,-0.970178281272948
0.0279981474265582,-0.971002539538602
0.0435893464844831,-0.971090540271865
0.0591904926446775,-0.970442535487224
0.0747976933531856,-0.96906005429038
0.0904070355019931,-0.966945899445587
0.106014586495186,-0.96410414119155
0.121616395362244,-0.960540108319627
0.137208493917875,-0.95626037653424
0.152786897967722,-0.95127275412137
0.168347608559124,-0.94558626495706
0.183886613276047,-0.939211128893714
0.199399887577191,-0.932158739567844
0.214883396176167,-0.924441639678611
0.230333094462549,-0.916073493792178
0.245744929962522,-0.907069058732334
0.26111484383773,-0.897444151623262
0.276438772420849,-0.887215615655508
0.291712648786339,-0.876401283651281
0.306932404354712,-0.865019939510099
0.3220939705286,-0.8530912776205
0.33719328035881,-0.840635860328071
0.352226270238496,-0.827675073554329
0.367188881623483,-0.814231080665128
0.382077062776746,-0.800326774691138
0.396886770534944,-0.78598572900658
0.411613972094888,-0.771232146575851
0.426254646817743,-0.756090807880823
0.440804788048716,-0.740587017644531
0.45526040494996,-0.72474655046963
0.469617524344347,-0.708595595512414
0.483872192567764,-0.692160700315284
0.498020477327528,-0.675468713922449
0.512058469564498,-0.658546729405217
0.525982285316454,-0.641422025924492
0.539788067580271,-0.62412201045917
0.553471988170442,-0.606674159329777
0.567030249571446,-0.589105959647204
0.580459086781514,-0.571444850816482
0.593754769145308,-0.553718166225434
0.60691360217306,-0.535953075247585
0.619931929343714,-0.518176525688019
0.632806133889663,-0.500415186799816
0.645532640560655,-0.48269539299749
0.658107917364521,-0.465043088392167
0.670528477282367,-0.447483772271504
0.682790879955945,-0.43004244564513
0.694891733344946,-0.412743558974045
0.706827695351995,-0.395610961199763
0.71859547541323,-0.378667850185993
0.730191836052324,-0.361936724682603
0.74161359439597,-0.345439337918059
0.752857623648808,-0.329196652923021
0.763920854525952,-0.31322879968376
0.774800276641252,-0.29755503422009
0.785492939849571,-0.282193699678094
0.79599595554141,-0.267162189523475
0.806306497888298,-0.252476912916638
0.81642180503747,-0.238153262345713
0.826339180254415,-0.224205583588715
0.836055993012009,-0.210647148070765
0.845569680025011,-0.197490127677006
0.854877746228829,-0.184745572076284
0.863977765701519,-0.172423388605116
0.872867382528147,-0.16053232475567
0.881544311606684,-0.149079953305732
0.890006339394755,-0.138072660122657
0.898251324596655,-0.127515634667358
0.906277198790142,-0.117412863218369
0.914081966992653,-0.107767124829869
0.921663708166665,-0.0985799900315219
0.929020575664079,-0.0898518222717889
0.936150797609559,-0.0815817821002874
0.943052677222911,-0.073767834078606
0.949724593080692,-0.0664067564029283
0.956164999317319,-0.0594941532157096
0.962372425766098,-0.0530244695776833
0.968345478040654,-0.0469910090654993
0.974082837557403,-0.0413859539544358
0.979583261499754,-0.0362003879398563
0.984845582724883,-0.0314243213453967
0.989868709613973,-0.0270467187603183
0.994651625866966,-0.0230555290430307
0.999193390242912,-0.0194377176225033
1.00349313624714,-0.0161793010241398
1.00755007176655,-0.0132653835417373
1.01136347865436,-0.010680195972331
1.0149327122659,-0.00840713632614084
1.0182572009468,-0.00642881241940253
1.02133644547546,-0.00472708625366869
1.0241700184612,-0.00328312008117434
1.02675756370013,-0.00207742405208398
1.02909879549045,-0.00108990533591502
1.03119349790899,-0.000299918606126607
1.03304152405115,0.000313682226173641
1.03464279523606,0.000772491146251469
1.03599730017908,0.0010984961568675
1.03710509413381,0.00131402450813646
1.03796629800554,0.0014416871597523
1.03858109743858,0.00150432260092348
1.03894974187939,0.00152494015479799
1.039072543618,0.00152666289531006
