-0.92596961731749,0.594705986641984
-0.926020396588721,0.594605852213118
-0.926072070087987,0.594503687699069
-0.926124657063814,0.594399441860947
-0.926178177246721,0.594293061914373
-0.926232650862674,0.59418449347534
-0.926288098646926,0.594073680503897
-0.92634454185828,0.5939605652456
-0.926402002293763,0.593845088170589
-0.926460502303735,0.593727187910212
-0.926520064807449,0.593606801191082
-0.926580713309058,0.593483862766431
-0.926642471914104,0.593358305344664
-0.92670536534648,0.593230059514968
-0.926769418965897,0.593099053669843
-0.926834658785852,0.592965213924418
-0.926901111492121,0.592828464032394
-0.926968804461794,0.592688725298469
-0.927037765782852,0.592545916487067
-0.927108024274311,0.592399953727204
-0.92717960950694,0.592250750413309
-0.927252551824574,0.592098217101802
-0.92732688236603,0.591942261403235
-0.927402633087634,0.591782787869772
-0.927479836786394,0.591619697877796
-0.927558527123801,0.591452889505396
-0.9276387386503,0.59128225740449
-0.927720506830421,0.591107692667323
-0.927803868068605,0.59092908268706
-0.927888859735711,0.590746311012184
-0.927975520196235,0.590559257194398
-0.928063888836243,0.590367796629691
-0.928154006092027,0.590171800392247
-0.928245913479497,0.589971135060818
-0.928339653624311,0.589765662537197
-0.92843527029275,0.589555239856374
-0.928532808423344,0.589339718987962
-0.928632314159253,0.589118946628441
-0.928733834881395,0.588892763983746
-0.928837419242331,0.588661006541703
-0.928943117200891,0.588423503833779
-0.929050980057543,0.588180079185597
-0.929161060490485,0.587930549455611
-0.929273412592454,0.587674724761336
-0.929388091908229,0.587412408192448
-0.929505155472804,0.587143395510086
-0.929624661850198,0.58686747483158
-0.929746671172885,0.586584426299855
-0.929871245181778,0.58629402173666
-0.929998447266741,0.585996024278751
-0.930128342507553,0.585690187996099
-0.93026099771528,0.58537625749113
-0.930396481473961,0.585053967477961
-0.930534864182533,0.584723042340508
-0.930676218096893,0.584383195668313
-0.930820617371981,0.584034129768813
-0.930968138103768,0.583675535154758
-0.931118858370998,0.583307090005348
-0.931272858276513,0.582928459599611
-0.931430219988005,0.582539295720437
-0.931591027777959,0.58213923602758
-0.93175536806258,0.581727903397844
-0.931923329439435,0.581304905230553
-0.932095002723533,0.580869832716292
-0.932270480981502,0.580422260066752
-0.932449859563529,0.579961743703428
-0.932633236132647,0.579487821402705
-0.932820710690926,0.579000011394778
-0.933012385602077,0.57849781141364
-0.933208365609921,0.577980697695209
-0.933408757852094,0.577448123920484
-0.933613671868335,0.576899520100408
-0.933823219602581,0.576334291398895
-0.934037515398035,0.575751816890259
-0.934256675984294,0.57515144824703
-0.934480820455488,0.574532508353864
-0.934710070238303,0.573894289842997
-0.934944549048615,0.573236053546365
-0.935184382835345,0.572557026859208
-0.935429699709979,0.571856402009604
-0.93568062986003,0.571133334228041
-0.935937305444558,0.570386939810705
-0.936199860469626,0.569616294069766
-0.936468430641377,0.568820429163461
-0.936743153194144,0.567998331798317
-0.937024166690743,0.567148940795312
-0.937311610791797,0.566271144511225
-0.937605625990588,0.565363778105836
-0.937906353309563,0.564425620644996
-0.938213933954232,0.563455392028897
-0.938528508919694,0.562451749734167
-0.938850218544561,0.561413285357614
-0.939179202006455,0.560338520948625
-0.939515596752667,0.559225905116345
-0.93985953785883,0.558073808896795
-0.940211157307734,0.556880521364099
-0.940570583179543,0.555644244968905
-0.940937938743735,0.554363090585925
-0.941313341442035,0.553035072251334
-0.941696901750474,0.551658101569425
-0.942088721907388,0.55022998176657
-0.942488894492779,0.548748401369061
-0.942897500842846,0.547210927479858
-0.943314609281746,0.545614998627615
-0.943740273150701,0.543957917159649
-0.944174528612364,0.542236841148657
-0.944617392205994,0.540448775781095
-0.945068858126248,0.538590564193094
-0.945528895195487,0.536658877717681
-0.945997443496132,0.534650205504904
-0.946474410625941,0.532560843474147
-0.946959667535024,0.530386882555585
-0.947453043898822,0.528124196175324
-0.947954322976251,0.525768426936297
-0.948463235896622,0.523314972444514
-0.94897945531268,0.520758970227773
-0.949502588350206,0.518095281691524
-0.950032168776927,0.515318475054159
-0.950567648304955,0.512422807201844
-0.951108386931463,0.5094022044009
-0.951653642211858,0.50625024180405
-0.952202557347959,0.50296012168542
-0.952754147960862,0.499524650338337
-0.953307287403791,0.495936213569692
-0.953860690454419,0.49218675072521
-0.954412895208654,0.488267727181556
-0.95496224297852,0.484170105244023
-0.955506855975451,0.479884313392989
-0.956044612536855,0.475400213828576
-0.956573119627953,0.470707068271643
-0.957089682322623,0.465793501990647
-0.957591269935963,0.460647466038758
-0.958074478447471,0.455256197704565
-0.958535488816935,0.449606179203504
-0.95897002075523,0.443683094666812
-0.959373281469165,0.437471785521383
-0.959739908853318,0.430956204398758
-0.960063908552444,0.424119367766006
-0.960338584265869,0.416943307537313
-0.960556460610463,0.40940902200457
-0.960709197801974,0.40149642652062
-0.960787497356455,0.393184304482532
-0.960780997955291,0.384450259297581
-0.960678160560522,0.375270668174744
-0.960466141813703,0.365620638773544
-0.960130654704193,0.355473969964134
-0.959655815454894,0.344803118212602
-0.959023975549523,0.333579171408701
-0.958215537821126,0.321771832305391
-0.957208755543665,0.30934941414669
-0.955979513526027,0.296278851528764
-0.95450109031138,0.282525730075162
-0.952743900747717,0.268054339116912
-0.950675218433751,0.252827752257132
-0.948258877877257,0.236807941472328
-0.945454956653527,0.219955931260927
-0.942219438446923,0.202232000293244
-0.938503858629933,0.183595939041268
-0.934254935018164,0.164007372960647
-0.929414187676895,0.143426161942433
-0.923917553190848,0.121812887919413
-0.917695000692322,0.0991294436584013
-0.910670159224983,0.0753397368357107
-0.902759968752021,0.0504105243966379
-0.893874370344763,0.0243123928333534
-0.883916054848356,-0.00297909975967236
-0.872780293635343,-0.031482104353035
-0.860354879919484,-0.0612069700321484
-0.84652021446519,-0.0921545293078113
-0.831149575290829,-0.124314171148391
-0.814109616950228,-0.157661698485794
-0.795261150911395,-0.1921569743251
-0.774460264037862,-0.227741370443843
-0.751559836671191,-0.264335045379567
-0.726411524598004,-0.301834094294906
-0.698868269359511,-0.34010763258373
-0.668787397836171,-0.378994897751197
-0.63603436355523,-0.418302479885552
-0.60048716734738,-0.457801819256563
-0.562041472419624,-0.497227139015756
-0.520616397337418,-0.536274009785858
-0.476160928876768,-0.574598768527177
-0.428660844877224,-0.611819033104188
-0.378145975690869,-0.647515562381466
-0.324697563451876,-0.681235704864425
-0.268455404669517,-0.712498652111129
-0.209624388909929,-0.740802662007125
-0.148479981827472,-0.765634338279326
-0.0853721534772368,-0.786479945120841
-0.0207272327292802,-0.80283860127827
0.0449528141663638,-0.814237042010145
0.111094119489438,-0.820245469902388
0.177057987990067,-0.820493850892512
0.242151464889962,-0.814687867824128
0.305641339767134,-0.802623640136555
0.366771280404867,-0.784200274013561
0.424781529730273,-0.759429337952534
0.478930350770212,-0.728440472954836
0.528516197844545,-0.691482543635103
0.572899454532277,-0.648920004884976
0.611522532207369,-0.601224476087372
0.643927179425001,-0.548961850648479
0.669768012011333,-0.492775587728377
0.688821523020092,-0.433367101027402
0.700990145674111,-0.3714743476322
0.706301287727178,-0.307849809663215
0.704901595858963,-0.243239046904286
0.69704700942374,-0.178360886894625
0.683089396721336,-0.113890128497239
0.663460716771743,-0.0504433917883041
0.63865570971469,0.0114315194135038
0.609214094667583,0.0712626376815471
0.575703159053581,0.128657363205309
0.538701477425166,0.183302822491713
0.49878432209515,0.234963504851288
0.456511142926237,0.283476705302332
0.412415316699995,0.328746329658687
0.366996210368928,0.370735601996338
0.320713475095917,0.409459167054255
0.273983392670645,0.444975011478448
0.227177032308112,0.477376548357371
0.180619940940401,0.506785127717335
0.134593079236671,0.533343157966045
0.0893347233445429,0.557207954001188
0.0450430733621962,0.578546369257478
0.00187933894612968,0.597530222226201
-0.0400288938645585,0.614332492679048
-0.0805841757792232,0.629124237934414
-0.119715715026719,0.64207216355912
-0.157376002769041,0.653336774267541
-0.193537613174585,0.663071027841694
-0.228190225261098,0.671419416160671
-0.261337894801655,0.678517401606057
-0.292996589622589,0.684491143137674
-0.323191990121632,0.689457453372136
-0.351957548334499,0.69352393541234
-0.379332792895542,0.696789255514977
-0.405361863306928,0.699343514638489
-0.430092254624905,0.701268688295738
-0.453573752616363,0.702639109842733
-0.475857539315783,0.703521977331138
-0.49699544945799,0.703977868346885
-0.517039359263844,0.704061250888921
-0.536040690346712,0.703820981367162
-0.554050012959329,0.703300783282655
-0.571116734317698,0.702539702163562
-0.587288859251755,0.701572533934604
-0.602612811893676,0.700430225157289
-0.617133308492038,0.699140244550406
-0.63089327271478,0.697726925935242
-0.643933785966057,0.696211783291683
-0.656294066288894,0.694613798997423
-0.66801147035888,0.692949686584769
-0.679121513898931,0.691234129514607
-0.689657906568667,0.689479997556917
-0.699652598012218,0.687698542399829
-0.709135832294148,0.685899574099096
-0.718136208423294,0.68409161993869
-0.72668074506714,0.682282067210263
-0.73479494790294,0.680477291341686
-0.742502878343405,0.678682770718442
-0.749827222621307,0.676903189450505
-0.75678936042472,0.67514252924488
-0.763409432448385,0.673404151452382
-0.769706406371528,0.671690870268344
-0.775698140892671,0.67000501798192
-0.781401447551174,0.668348503088154
-0.786832150146689,0.666722862001642
-0.792005141634047,0.665129305040442
-0.796934438424894,0.66356875728413
-0.801633232070435,0.662041894850283
-0.806113938333924,0.660549177079159
-0.810388243688376,0.65909087506661
-0.814467149295676,0.657667096940092
-0.818361012538908,0.656277810231666
-0.822079586191223,0.654922861664881
-0.825632055312633,0.653601994639016
-0.829027071971431,0.652314864664082
-0.832272787890002,0.651061052972955
-0.835376885116104,0.649840078512714
-0.838346604820541,0.648651408495503
-0.841188774320926,0.647494467669726
-0.84390983242912,0.646368646454923
-0.846515853217216,0.645273308068081
-0.849012568293696,0.644207794755177
-0.851405387677845,0.643171433229291
-0.85369941935674,0.642163539405517
-0.855899487605217,0.641183422512969
-0.858010150145275,0.640230388655351
-0.860035714217407,0.639303743883641
-0.861980251632434,0.638402796837445
-0.863847612868605,0.637526861005285
-0.865641440274996,0.636675256648526
-0.867365180438629,0.635847312428658
-0.869022095769311,0.635042366773235
-0.870615275352862,0.634259769011832
-0.872147645120259,0.633498880309867
-0.873621977377236,0.632759074425016
-0.87504089973603,0.632039738308162
-0.8764069034883,0.631340272568354
-0.877722351455703,0.630660091819047
-0.878989485352235,0.629998624920929
-0.880210432690204,0.629355315134895
-0.881387213259603,0.628729620197201
-0.882521745208675,0.628121012327406
-0.88361585075162,0.627528978178535
-0.884671261527664,0.626953018737757
-0.88568962363408,0.62639264918493
-0.886672502354273,0.625847398715493
-0.887621386600588,0.625316810333414
-0.888537693090214,0.624800440619223
-0.889422770271319,0.624297859477555
-0.890277902015387,0.623808649868088
-0.891104311090698,0.623332407523276
-0.891903162430845,0.622868740655866
-0.892675566211298,0.622417269658794
-0.893422580746132,0.621977626799734
-0.894145215216231,0.621549455912274
-0.894844432239552,0.621132412085423
-0.895521150293299,0.620726161352925
-0.896176245997229,0.62033038038366
-0.896810556266692,0.619944756174207
-0.897424880343455,0.619568985744505
-0.898019981711808,0.619202775837385
-0.898596589906992,0.618845842622651
-0.899155402222497,0.618497911406231
-0.899697085322378,0.618158716344879
-0.90022227676432,0.617828000166759
-0.900731586438837,0.617505513898238
-0.901225597929609,0.617191016597073
-0.901704869799673,0.616884275092198
-0.902169936807866,0.61658506373019
-0.90262131105964,0.616293164128519
-0.90305948309611,0.616008364935594
-0.903484922924955,0.615730461597621
-0.903898080996553,0.61545925613224
-0.904299389128538,0.615194556908897
-0.904689261381744,0.614936178435879
-0.905068094890339,0.614683941153917
-0.905436270648775,0.614437671236275
-0.905794154257987,0.614197200395182
-0.906142096633187,0.613962365694515
-0.906480434675382,0.61373300936857
-0.90680949190868,0.61350897864681
-0.907129579085277,0.613290125584427
-0.907440994759934,0.61307630689858
-0.907744025835621,0.61286738381016
-0.908038948081923,0.612663221890925
-0.9083260266277,0.612463690915861
-0.908605516429398,0.612268664720611
-0.908877662716345,0.612078021063824
-0.909142701414263,0.611891641494277
-0.909400859548174,0.611709411222608
-0.909652355625797,0.611531218997541
-0.909897400002482,0.61135695698642
-0.910136195228658,0.611186520659957
-0.910368936380703,0.611019808681011
-0.91059581137613,0.610856722797292
-0.910817001273888,0.610697167737852
-0.911032680560564,0.61054105111322
-0.911243017423208,0.610388283319073
-0.91144817400947,0.610238777443315
-0.911648306675713,0.610092449176435
-0.911843566223688,0.609949216725043
-0.912034098126382,0.609809000728464
-0.912220042743563,0.609671724178285
-0.912401535527554,0.60953731234074
-0.912578707219714,0.60940569268185
-0.912751684038101,0.609276794795199
-0.912920587856745,0.609150550332262
-0.913085536376946,0.609026892935193
-0.913246643290994,0.608905758171973
-0.913404018438676,0.608787083473856
-0.913557767956925,0.608670808074992
-0.913707994422937,0.608556872954189
-0.913854796991081,0.608445220778706
-0.913998271523889,0.608335795850009
-0.914138510717417,0.608228544051434
-0.914275604221238,0.608123412797667
-0.914409638753329,0.608020350985979
-0.914540698210084,0.607919308949167
-0.914668863771686,0.607820238410116
-0.91479421400306,0.607723092437938
-0.914916824950597,0.607627825405622
-0.915036770234861,0.607534392949153
-0.915154121139457,0.607442751928022
-0.915268946696232,0.607352860387104
-0.915381313766986,0.607264677519831
-0.915491287121844,0.607178163632626
-0.915598929514439,0.607093280110554
-0.915704301754061,0.607009989384126
-0.915807462774887,0.606928254897246
-0.915908469702453,0.606848041076225
-0.916007377917455,0.606769313299852
-0.916104241117026,0.606692037870462
-0.916199111373585,0.606616181985986
-0.91629203919137,0.606541713712923
-0.916383073560757,0.606468601960224
-0.916472262010451,0.606396816454037
-0.916559650657657,0.606326327713301
