0.348977519682952,1.0785248409763
0.45280115581986,0.95516530792969
0.565096156912714,0.813371852185044
0.329384043102089,1.0154852697219
0.338601969690968,0.781614394118048
0.538494652983702,0.965423484337781
0.551580533486138,0.945562573878609
0.555632545109591,0.703696656696095
0.552789585309082,0.88142796782739
0.535685420917745,0.673772891303672
0.429855254431394,0.743921500129614
0.312334555014009,0.831804479364611
0.311069936516781,0.583857606836629
0.518684056261758,0.792564825147235
0.415402361609061,0.661478882415843
0.319349561932703,0.525493216236193
0.40737293062815,0.622700269077925
0.403177015315974,0.603901294833576
0.511444796615344,0.688534696323036
0.512559514231662,0.461575039445798
0.293126467146852,0.450802447792417
0.385310548758821,0.532515398027513
0.380599330884112,0.515595883718243
0.284778196448981,0.608759836440872
0.274693216148712,0.372397706144066
0.365959733789156,0.46698463058283
0.360927644349361,0.451481312257072
0.355827507510017,0.436320779960149
0.350664076988295,0.421498704643892
0.345442052033851,0.407010835987162
0.340166078845279,0.392852997464657
0.334840751890512,0.379021081650605
0.329470615136505,0.365511045745367
0.324060163193234,0.35231890731367
0.318613842376753,0.339440740223908
0.313136051695784,0.326872670778506
0.307631143766047,0.314610874025986
0.302103425656338,0.30265157024586
0.296557159670092,0.290991021598035
0.290996564066011,0.279625528928841
0.285425813721112,0.268551428726266
0.279849040739383,0.25776509021739
0.274270335009061,0.247262912601392
0.268693744711397,0.237041322411861
0.26312327678361,0.22709677100251
0.257562897338608,0.217425732150674
0.252016532043904,0.208024699773292
0.246488066462061,0.198890185750356
0.240981346354855,0.19001871785106
0.235500177953255,0.181406837758138
0.230048328195209,0.173051099186103
0.224629524933139,0.164948066089323
0.219247457112941,0.157094310956079
0.213905774926226,0.149486413184918
0.208608089937422,0.142120957539825
0.203357975187327,0.134994532680896
0.198158965274594,0.128103729767322
0.193014556416578,0.121445141129717
0.187928206490914,0.115015359008874
0.182903335059129,0.108810974358239
0.177943323373543,0.102828575707484
0.173051514368649,0.0970647480846649
0.168231212638116,0.0915160719946119
0.163485684398535,0.086179122451234
0.158818157440927,0.0810504680615808
0.154231821071063,0.0761266701595575
0.149729826039538,0.071404281987292
0.145315284462552,0.066879847922231
0.140991269734291,0.0625499027481196
0.136760816431765,0.0584109709680923
0.132626920212945,0.0544595661581692
0.128592537709004,0.0506921903595186
0.124660586411417,0.0471053335079055
0.120833944554688,0.0436954728988034
0.117115450995406,0.0404590726867005
0.113507905088343,0.0373925834171812
0.110014066560246,0.0344924415904113
0.10663665538199,0.0317550692547002
0.103378351639718,0.0291768736288543
0.10024179540557,0.026754246752076
0.0972295866086016,0.0244835651601983
0.0943442849064605,0.0223611895870794
0.0915884095583822,0.0203834646900148
0.0889644393000404,0.0185467187980526
0.0864748122207828,0.0168472636821275
0.0841219256437625,0.0152813943459533
0.0819081360094642,0.0138453888366383
0.0798357587631112,0.0125355080740102
0.0779070682464284,0.0113479956976586
0.0761242975942232,0.0102790779307196
0.074489638636239,0.0093249634594471
0.0730052418047229,0.00848184332762919
0.0716732160481422,0.00774589084492263
0.0704956287514758,0.00711326150819188
0.0694745056634968,0.00658009293494932
0.0686118308314578,0.0061425048080045
0.0679095465435817,0.00579659883043765
0.0673695532797553,0.00553845869002105
0.066993709670818,0.00536415003221718
0.0667838324668313,0.00526972044088752
0.0667416965147121,0.00525119942584955
0.0668690347456068,0.00530459841642141
0.0671675381723817,0.00542591076009506
0.0676388558976,0.00561111172547815
0.0682845951323565,0.005856158508644
0.069106321226334,0.00615699024202572
0.070105557709451,0.00650952800498735
0.0712837863454626,0.0069096748351993
0.0726424471978803,0.00735331573993914
0.0741829387085756,0.00783631770643166
0.0759066177894337,0.00835452971033216
0.0778147999274219,0.00890378272144842
0.0799087593034448,0.00947988970578334
0.0821897289253551,0.0100786456229693
0.0846589007754956,0.0106958274181494
0.0873174259731508,0.0113271940073466
0.0901664149522907,0.0119684862553435
0.0932069376549936,0.0126154269450769
0.0964400237409429,0.013263720737532
0.099866662813396,0.0139090541210993
0.103487804662035,0.0145470953493313
0.107304359523109,0.0151734943660142
0.111317198357302,0.0157838827164413
0.115527153145744,0.0163738734437445
0.119935017204627,0.0169390609691115
0.124541545518865,0.0174750209546819
0.129347455095279,0.017977310147881
0.134353425335778,0.0184414662059109
0.139560098431037,0.0188630074990813
0.144968079775178,0.0192374328916173
0.150577938401985,0.0195602214985379
0.156390207443203,0.0198268324171513
0.16240538460947,0.0200327044316599
0.168623932694483,0.0201732556893177
0.175046280103002,0.0202438833465226
0.181672821403306,0.0202399631831654
0.188503917904788,0.0201568491834967
0.195539898261334,0.019989873081698
0.202781059101233,0.0197343438702788
0.210227665684328,0.0193855472693381
0.217879952587206,0.0189387451546511
0.225738124417219,0.0183891749424549
0.233802356556192,0.0177320489287151
0.242072795934695,0.0169625535805586
0.250549561837816,0.0160758487774552
0.259232746743386,0.0150670669996215
0.268122417193707,0.0139313124610038
0.277218614701816,0.0126636601840772
0.286521356693435,0.0112591550135622
0.296030637485778,0.00971281056602828
0.305746429304455,0.00801960811220118
0.315668683339779,0.00617449538863946
0.325797330843861,0.00417238533527531
0.336132284269933,0.00200815475514268
0.346673438455428,-0.000323357107573447
0.357420671850439,-0.00282735007523406
0.368373847793249,-0.00550906463446356
0.379532815834727,-0.00837378362839353
0.390897413113507,-0.0114268340481744
0.402467465783926,-0.0146735889287532
0.414242790498879,-0.0181194693541915
0.426223195949803,-0.0217699465780816
0.438408484466197,-0.0256305442649351
0.450798453677173,-0.0297068408587442
0.463392898237721,-0.0340044720852716
0.476191611622514,-0.0385291335949954
0.489194387990247,-0.0432865837540476
0.502401024121705,-0.0482826465909017
0.515811321434931,-0.0535232149070334
0.529425088081094,-0.0590142535602685
0.543242141124862,-0.064761802930048
0.557262308813348,-0.0707719825744179
0.57148543293794,-0.0770509950891421
0.585911371293605,-0.0836051301799835
0.60054000024056,-0.0904407689598984
0.615371217373517,-0.0975643884836211
0.630404944304057,-0.104982566532921
0.645641129562047,-0.112701986666665
0.661079751622413,-0.120729443550741
0.676720822064014,-0.129071848583878
0.692564388867817,-0.137736235836482
0.708610539862049,-0.146729768320723
0.724859406322557,-0.156059744611367
0.741311166737172,-0.165733605838152
0.75796605074347,-0.175758943071962
0.77482434325002,-0.186143505128577
0.791886388751905,-0.196895206815458
0.809152595852087,-0.20802213764883
0.826623442001019,-0.219532571070249
0.844299478467838,-0.231434974193988
0.862181335557415,-0.24373801811882
0.880269728088649,-0.256450588840264
0.898565461150515,-0.269581798802039
0.917069436153639,-0.283140999128376
0.93578265719654,-0.297137792581975
0.954706237767139,-0.311582047295851
0.973841407801764,-0.32648391133102
0.993189521125609,-0.341853828116022
1.01275206330052,-0.357702552828711
1.03253065990806,-0.374041169785547
