0.917891031527395,-0.144521633128127
0.921823469338588,-0.155989774382993
0.931379370321264,-0.146217620585646
0.91391949985411,-0.142944214619413
0.910922929042215,-0.141264623578977
0.931036209265501,-0.156612172217004
0.945718654010258,-0.159950561014864
0.91801872366433,-0.148160709036837
0.891492884174746,-0.124528968335581
0.879941237952951,-0.108875549840898
0.87777020121762,-0.108213220532255
0.908066631331877,-0.120977139180445
0.861692295374219,-0.0854049223137658
0.866812109733983,-0.117220426659884
0.843458814385538,-0.0554955114117494
0.816126184812175,-0.051845735242534
0.811161104743579,-0.00284449544660962
0.777198182630912,0.00990934309410298
0.801133444735169,0.0267232224293235
0.782590702758617,0.0776635444446587
0.792951433895643,0.0630354797276652
0.764634609843995,0.107522174222174
0.737033929759277,0.133459166541433
0.749308958363888,0.151801291929034
0.70234826572195,0.214526163410133
0.709791914514676,0.237048851936977
0.698145464826578,0.287882155602478
0.679637918951031,0.3088948023244
0.663843680664104,0.34602813947959
0.643160807906779,0.398292349172541
0.630755362428217,0.42179229958216
0.591653964420848,0.455953274872571
0.595569557075705,0.498232406963333
0.608395087564001,0.543904090884896
0.575911116910438,0.567275133586449
0.538590569526029,0.610538623776892
0.504011405673981,0.65951307766216
0.487303350770676,0.654877156447372
0.509852676123695,0.725871078465382
0.45418551156261,0.74716238519514
0.431503818736343,0.7776555716643
0.423566680207469,0.814792342412478
0.385330916913393,0.843961179528869
0.389206700422025,0.88456303097813
0.321869368469589,0.876548907143475
0.303592565927499,0.897094896683789
0.284768997256276,0.918710008024218
0.254677467603804,0.931818063460689
0.232637619801327,0.958883023693556
0.194806849062312,0.970685533712168
0.169660380276541,0.960061100711611
0.141929714301301,0.959524092356505
0.110289416888607,0.965196460310287
0.0763318500232766,0.966315697338123
0.0976894379881807,0.958955322410277
0.0178529886255676,0.952673166018439
-0.0136966510738272,0.943335102523392
-0.0597218998026156,0.958664569638746
-0.0748171475240486,0.937507309101368
-0.0992284700319167,0.871106457590843
-0.149801524498274,0.88778567578925
-0.195046312918259,0.88233348014105
-0.200257540066401,0.788710910238772
-0.240309819995725,0.860741012618663
-0.265888576839734,0.791712606250135
-0.321007235004079,0.788556030871009
-0.338893668980152,0.742523391804039
-0.381381898399871,0.736980215918924
-0.409132597310089,0.712092615028221
-0.429480179584808,0.654038781720187
-0.456714727984247,0.631220917915718
-0.461799174215548,0.605134891919966
-0.505476375072116,0.57631518110321
-0.547464914880539,0.524724529503374
-0.569672747025812,0.499473095295973
-0.56007700660308,0.488830926695732
-0.635409109133828,0.444940620517481
-0.663186438243761,0.425605948755516
-0.667514372403625,0.4186415322597
-0.676602100435871,0.396621056470546
-0.704226438455265,0.395281176276027
-0.748780670912868,0.334653786713462
-0.763094600819695,0.325320986628545
-0.782024508963376,0.308270498787864
-0.776891070639502,0.307768456609456
-0.835906997509017,0.301392070624327
-0.808599885874706,0.272340084470758
-0.854543739127553,0.286671421551916
-0.837556216003015,0.205363670022537
-0.853943255060352,0.223633262062421
-0.88618405928016,0.214437504396927
-0.868023817097798,0.181243103207966
-0.893476188086905,0.219482583585529
-0.928959933832243,0.232748511625889
-0.94525834529284,0.22728681325778
-0.919675998813571,0.215840779846075
-0.91201571513508,0.228396998120428
-0.920404135141319,0.231995288857927
-0.929160336692662,0.214669128806561
-0.95857841492017,0.192309340814914
-0.93056525577083,0.214781403247309
-0.924349018468,0.206453782602356
-0.921646635327327,0.229991629165486
-0.926664877844085,0.228123785273899
-0.922753598073075,0.210983739457999
-0.918789451460466,0.208215885289506
-0.939002609131554,0.211172648240249
-0.908115528761641,0.155614874375467
-0.935533503692871,0.219487147884525
-0.895906796305465,0.185317693161379
-0.883191136620221,0.185334899364567
-0.862804880059616,0.149609403418253
-0.900882191005172,0.186710732017535
-0.87347751631572,0.138900322595684
-0.853739373658015,0.121503146941443
-0.84374487235163,0.103297164113087
-0.852352760993707,0.0840520420970393
-0.822336697477857,0.0612382618257761
-0.810946637474869,0.0374148123723888
-0.799110474285656,0.0117786282901621
-0.786833239670991,-0.0156103553969263
-0.74795383302683,-0.0246679890677506
-0.763715056535117,-0.0574598472896563
-0.752344347853748,-0.107780219675809
-0.733323738396885,-0.140892367405914
-0.720764392334654,-0.147705323618842
-0.68363705457755,-0.248878356129467
-0.643774759659464,-0.237360500346827
-0.667485454289137,-0.290729697384491
-0.656105609382255,-0.322949080290944
-0.639177113248232,-0.36107786063839
-0.682525374755083,-0.391174125352023
-0.608072479405877,-0.451701824486653
-0.585161643793434,-0.475352904901412
-0.566552219377522,-0.485394887409856
-0.546306973273745,-0.549355016653503
-0.52787812864605,-0.586974483487284
-0.528246136124953,-0.610377063055416
-0.485505279748071,-0.660302012158593
-0.461278208433591,-0.684681866129226
-0.40469207097673,-0.739902298735966
-0.408231744817553,-0.738053806264719
-0.390805563324395,-0.769072329429484
-0.412483675861576,-0.80766621475406
-0.338125627939229,-0.788367319324043
-0.307951845184677,-0.861472523746662
-0.287809974153616,-0.850709735770955
-0.251149678261186,-0.844110200340821
-0.232582149447599,-0.876293314390002
-0.204093294410659,-0.885036360474168
-0.15027085581779,-0.897259661473469
-0.141237343751943,-0.899372710446714
-0.143636375163869,-0.929403020188896
-0.1014667443888,-0.908788954690535
-0.050195779494516,-0.891757245145676
-0.0518906465549231,-0.893501398415641
0.00892867352360212,-0.870350258963712
0.0408339568803953,-0.857986137689784
0.0565074458671674,-0.862731674582336
0.105268761567825,-0.826517285987611
0.129278173386864,-0.796155359344603
0.16493971866355,-0.754630525207315
0.19670714921913,-0.756868484117496
0.258280381279302,-0.738829265767776
0.269298057071797,-0.720866577252077
0.299366393619899,-0.689216327633366
0.327777932491089,-0.624991256871192
0.362660577893734,-0.633943642325881
0.366718293368802,-0.570765037841305
0.402978491113805,-0.615081716655031
0.450551608739936,-0.534014793456761
0.511442647067025,-0.52232591477667
0.521274547040394,-0.488565596331242
0.541141781570561,-0.461596313215574
0.568584574248256,-0.433916861286594
0.610480989177135,-0.392534217153005
0.611280285694988,-0.350796335399134
0.641684948917804,-0.311918034548814
0.688131343793356,-0.370436427843032
0.694602387991159,-0.296631525260779
0.731739561271487,-0.277517919425608
0.726224042242031,-0.242457910827816
0.789675596226184,-0.234151562439976
0.741543446446109,-0.212840922298093
0.773383190154046,-0.222136439260217
0.838307744169006,-0.207771690984922
0.854377486368319,-0.191215944838507
0.826520767783312,-0.163988474686473
0.849937938864607,-0.17397929590615
0.861662917355828,-0.16642702983741
0.872228849030063,-0.160208558055268
0.860562939214006,-0.168547130202106
0.893244236875182,-0.135659896671723
0.911561467895136,-0.131674035988407
0.927584212072155,-0.136335549140433
0.908117957553984,-0.145325130124025
0.91991109036136,-0.14300082816709
0.910404101480081,-0.110785614388364
0.916840937660347,-0.14441853216114
0.917775736328717,-0.144502967080702
