0.408804539637608,-0.25710670191477
0.408587180275749,-0.256906819274679
0.407943773920754,-0.25629830626045
0.40688787082086,-0.255268409657875
0.405433717961676,-0.253805127509815
0.403596224326974,-0.251897239443305
0.401390924738509,-0.249534335298605
0.398833942356263,-0.246706841995472
0.39594194992351,-0.243406048575764
0.392732129843851,-0.239624129365605
0.389222133179988,-0.235354165204494
0.385430037666385,-0.230590162693057
0.38137430483015,-0.225327071415549
0.37707373631644,-0.219560799097714
0.372547429516479,-0.213288224665235
0.367814732597775,-0.20650720917263
0.362895199037491,-0.19921660457726
0.357808541760964,-0.191416260337848
0.352574586988292,-0.183107027821806
0.347213227892482,-0.174290762510514
0.34174437817311,-0.164970323996613
0.336187925649578,-0.1551495737723
0.330563685978018,-0.144833370812514
0.324891356595588,-0.134027564961844
0.319190470995385,-0.122738988138844
0.313480353434438,-0.11097544337635
0.307780074176285,-0.0987456917211711
0.302108405368389,-0.0860594370213359
0.29648377765326,-0.0729273086337475
0.290924237610453,-0.0593608420897629
0.285447406124769,-0.0453724577607502
0.280070437773903,-0.030975437570132
0.27480998132646,-0.0161838998027887
0.269682141438807,-0.00101277206692324
0.264702441636509,0.0145222375323839
0.259885788663213,0.0304046709447193
0.255246438276798,0.0466173523839237
0.250797962569331,0.0631424221249692
0.246553218883977,0.0799613718138353
0.242524320398418,0.0970550812127209
0.238722608440594,0.114403856299726
0.235158626598711,0.131987468639124
0.23184209668343,0.149785195935505
0.228781896595998,0.167775863682436
0.225986040151813,0.185937887813841
0.223461658904548,0.204249318264071
0.221214986011445,0.222687883340605
0.219251342175856,0.241231034811507
0.217575123698415,0.259855993608184
0.21618979266355,0.278539796042599
0.215097869283202,0.297259340436951
0.214300926414841,0.315991434062937
0.213799586265973,0.334712840286966
0.213593519292424,0.353400325817303
0.213681445292808,0.37203070794883
0.214061136696632,0.390580901701157
0.214729424038605,0.409027966746036
0.215682203606807,0.427349154020498
0.216914447247497,0.445521951922838
0.218420214304553,0.463524131989497
0.220192665666679,0.481333793952056
0.222224079890883,0.498929410074907
0.224505871366004,0.516289868675823
0.227028610475533,0.533394516733402
0.229782045714496,0.550223201487452
0.232755127710779,0.566756310940583
0.235936035096994,0.582974813171764
0.239312202174881,0.598860294375191
0.242870348310169,0.614394995540713
0.246596508991994,0.62956184769505
0.25047606848719,0.644344505626246
0.254493794016243,0.658727380017206
0.258633871374241,0.672695667917666
0.262879941916938,0.686235381487694
0.267215140828982,0.699333374949629
0.271622136588486,0.711977369689387
0.276083171539399,0.724155977452167
0.280580103480711,0.735858721581838
0.285094448179169,0.747076056257652
0.289607422710164,0.757799383686389
0.294099989529539,0.768021069212579
0.298552901177455,0.777734454314105
0.302946745514008,0.786933867455188
0.307261991385081,0.795614632773527
0.311479034615972,0.803773076583193
0.315578244229546,0.811406531679752
0.319540008785183,0.818513339438956
0.323344782734492,0.825092849705295
0.326973132689695,0.831145418471593
0.330405783500802,0.836672403355757
0.333623664038072,0.841676156885713
0.336607952576919,0.846160017608405
0.339340121683286,0.850128299043621
0.341801982498628,0.853586276508168
0.343975728324937,0.856540171840692
0.345843977411824,0.858997136062083
0.347389814849423,0.860965230011025
0.348596833472866,0.862453402998737
0.34944917368627,0.863471469531377
0.349931562116583,0.864030084152858
0.350029349010216,0.86414071446503
0.3497285442882,0.863815612386224
0.349015852178587,0.863067783713063
0.347878704347953,0.861910956054246
0.346305291457224,0.860359545208592
0.344284593070547,0.858428620063128
0.341806405849573,0.856133866090262
0.338861369969356,0.853491547526211
0.335440993696011,0.850518468315781
0.33153767607038,0.847231931911325
0.327144727646164,0.843649700016263
0.322256389235299,0.839789950365871
0.31686784861781,0.835671233640192
0.310975255177907,0.831312429605839
0.304575732432674,0.826732702585164
0.297667388424442,0.821951456352762
0.290249323952664,0.816988288560521
0.282321638625918,0.811862944793484
0.27388543471955,0.806595272359604
0.264942818829316,0.801205173917013
0.255496901316337,0.795712561042823
0.245551793543551,0.790137307847545
0.235112602908817,0.784499204739135
0.224185425684697,0.77881791244029
0.21277733767984,0.773112916362058
0.200896382741763,0.767403481436011
0.188551559125609,0.761708607506175
0.175752803758228,0.756046985380676
0.162510974431616,0.75043695364153
0.148837829964375,0.744896456309338
0.134746008374358,0.739443001457697
0.120249003110113,0.734093620870001
0.105361137393075,0.72886483082898
0.090097536726644,0.72377259412677
0.0744740996323817,0.718832283380553
0.0585074666775283,0.714058645735904
0.0422149878618146,0.709465769036846
0.0256146884352376,0.705067049538321
0.0087252332219421,0.700875161233356
-0.00843411047131279,0.696902026863536
-0.0258435112804596,0.693158790677661
-0.0434826134585989,0.689655792999531
-0.061330577712248,0.686402546661745
-0.0793661231093763,0.683407715358218
-0.0975675699668587,0.680679093963833
-0.115912883622783,0.67822359086522
-0.134379718997076,0.67604721234217
-0.152945465842178,0.674155049034563
-0.171587294583907,0.67255126452507
-0.190282202651394,0.671239086063092
-0.209007061193839,0.670220797450651
-0.227738662080989,0.669497734106071
-0.246453765083608,0.669070280316438
-0.265129145129805,0.668937868684898
-0.283741639532898,0.669098981773965
-0.302268195086601,0.669551155941067
-0.320685914923546,0.670290987357663
-0.33897210503375,0.671314140198379
-0.357104320340339,0.672615356981729
-0.375060410230857,0.674188471039189
-0.392818563443689,0.676026421084623
-0.410357352210564,0.678121267851336
-0.427655775557763,0.680464212759426
-0.44469330167052,0.683045618571539
-0.461449909227223,0.685855031990676
-0.477906127612259,0.688881208149372
-0.494043075918915,0.692112136935299
-0.509842500656372,0.695535071094245
-0.525286812077782,0.699136556047455
-0.540359119049434,0.70290246135643
-0.555043262384293,0.706818013764641
-0.569323846566628,0.710867831742046
-0.58318626979799,0.715035961454931
-0.596616752298582,0.719305914080407
-0.609602362801921,0.723660704381879
-0.622131043184732,0.728082890458965
-0.634191631178159,0.732554614582702
-0.64577388111066,0.737057645024454
-0.656868482637328,0.741573418784697
-0.667467077414875,0.746083085125809
-0.677562273686087,0.750567549811233
-0.687147658742208,0.755007519951722
-0.696217809236452,0.759383549358085
-0.704768299326623,0.763676084298618
-0.712795706629639,0.767865509558562
-0.720297615975667,0.771932194698201
-0.727272620954439,0.77585654040576
-0.733720323251257,0.779619024841032
-0.739641329775112,0.7832002498657
-0.745037247586263,0.78658098705651
-0.749910676635497,0.78974222339795
-0.754265200332212,0.792665206551803
-0.758105373963243,0.795331489601824
-0.76143671098918,0.797722975173013
-0.764265667249624,0.799821958826278
-0.766599623113492,0.801611171630917
-0.768446863615063,0.803073821819168
-0.769816556620924,0.804193635429109
-0.770718729077356,0.804954895844407
-0.771164241392003,0.805342482141926
-0.771164760007764,0.805341906160771
-0.77073272823092,0.804939348209261
-0.769881335379356,0.804121691329299
-0.768624484320488,0.802876554040831
-0.766976757472092,0.801192321492483
-0.764953381342621,0.799058174947971
-0.762570189690874,0.796464119541621
-0.75984358538792,0.793401010240158
-0.756790501067092,0.789860575951937
-0.753428358650513,0.785835441728883
-0.749775027843156,0.781319149010693
-0.745848783687692,0.776306173865164
-0.741668263275482,0.770791943183015
-0.737252421710928,0.764772848790101
-0.732620487428052,0.758246259444552
-0.727791916959598,0.751210530691099
-0.722786349260167,0.743665012549607
-0.717623559685863,0.735610055019659
-0.71232341373369,0.727047011387909
-0.706905820644446,0.717978239329801
-0.701390686973173,0.708407099802186
-0.695797870231237,0.698337953728265
-0.690147132703996,0.68777615648123
-0.684458095547537,0.676728050177855
-0.678750193267378,0.665200953798187
-0.673042628681137,0.653203151152332
-0.667354328466078,0.640743876720103
-0.661703899391128,0.62783329939407
-0.656109585331389,0.614482504161207
-0.650589225161459,0.600703471762917
-0.645160211621836,0.586509056377747
-0.639839451250532,0.571912961375487
-0.634643325469619,0.556929713195648
-0.629587652913822,0.541574633407525
-0.624687653085519,0.52586380901305
-0.619957911417469,0.509814061057615
-0.615412345821514,0.493442911617767
-0.611064174798088,0.476768549238332
-0.606925887177915,0.459809792894957
-0.6030092135636,0.442586054561366
-0.599325099535014,0.425117300463712
-0.595883680678407,0.407424011107361
-0.592694259495109,0.389527140164169
-0.589765284241469,0.371448072310833
-0.587104329747332,0.353208580111286
-0.584718080255959,0.334830780038188
-0.582612314323718,0.316337087730505
-0.580791891813317,0.297750172585875
-0.579260743009606,0.27909291178795
-0.578021859882252,0.260388343870125
-0.577077289514783,0.241659621918168
-0.576428129714626,0.222929966514991
-0.576074526813898,0.204222618531447
-0.57601567566579,0.185560791867333
-0.576249821836482,0.166967626246933
-0.576774265987579,0.148466140173272
-0.577585370439205,0.130079184144929
-0.578678567898941,0.111829394238673
-0.580048372337006,0.0937391461603494
-0.581688391983228,0.0758305098654266
-0.583591344416625,0.0581252048493305
-0.585749073713715,0.0406445562062058
-0.588152569617067,0.0234094515530329
-0.59079198868109,0.0064402989141068
-0.593656677347603,-0.0102430143412746
-0.596735196899431,-0.0266211614173768
-0.600015350236045,-0.042675414778896
-0.603484210411198,-0.0583876835208968
-0.607128150868539,-0.0737405493395311
-0.610932877307406,-0.0887173010243574
-0.614883461107319,-0.103301967396394
-0.618964374236216,-0.117479348619471
-0.623159525564145,-0.131235045816092
-0.627452298500964,-0.144555488922796
-0.631825589873641,-0.157427962723909
-0.636261849955946,-0.169840631006656
-0.640743123560767,-0.181782558784781
-0.645251092102865,-0.193243732542111
-0.649767116537716,-0.204215078451943
-0.654272281080121,-0.214688478532606
-0.658747437604501,-0.22465678470417
-0.663173250627249,-0.234113830715941
-0.667530242770225,-0.243054441919127
-0.671798840603358,-0.251474442863852
-0.675959420763474,-0.259370662704552
-0.67999235624584,-0.266740938402651
-0.683878062764504,-0.27358411572035
-0.687597045077355,-0.279900048004233
-0.691129943171861,-0.285689592762376
-0.694457578207796,-0.290954606043505
-0.697560998113724,-0.29569793463167
-0.700421522734827,-0.299923406074768
-0.703020788430614,-0.303635816570047
-0.705340792022273,-0.306840916734532
-0.707363933990874,-0.309545395292974
-0.709073060829268,-0.3117568607206
-0.71045150645243,-0.313483820882477
-0.711483132573047,-0.314735660715755
-0.712152367951489,-0.315522618005414
-0.712444246431755,-0.315855757308392
-0.712344443677727,-0.315746942085072
-0.711839312526911,-0.315208805101111
-0.710915916881947,-0.314254717166416
-0.709562064063416,-0.312898754281804
-0.707766335550865,-0.311155663267382
-0.705518116042609,-0.309040825950106
-0.702807620768546,-0.306570221991114
-0.69962592099417,-0.303760390436523
-0.695964967657941,-0.300628390078156
-0.691817613088354,-0.297191758713327
-0.687177630751327,-0.293468471395276
-0.682039732982875,-0.289476897768031
-0.676399586666585,-0.28523575858156
-0.670253826819912,-0.280764081484852
-0.66360006805804,-0.276081156196168
-0.65643691390872,-0.271206489151099
-0.648763963956334,-0.266159757730183
-0.640581818798218,-0.26096076416879
-0.631892082801209,-0.255629389252647
-0.622697364651221,-0.250185545902864
-0.613001275693613,-0.244649132754533
-0.602808426067022,-0.239039987832978
-0.592124418638241,-0.2333778424315
-0.580955840750636,-0.227682275293996
-0.569310253803451,-0.221972667205126
-0.557196180684208,-0.216268156089793
-0.544623091081159,-0.210587592722522
-0.531601384707506,-0.204949497145974
-0.518142372473731,-0.199372015896211
-0.504258255648973,-0.193872880130528
-0.489962103056847,-0.188469364751612
-0.475267826355505,-0.183178248619577
-0.460190153455993,-0.178015775940959
-0.444744600137111,-0.172997618921117
-0.428947439919,-0.168138841763659
-0.412815672261581,-0.163453866097459
-0.396366989157665,-0.158956437908675
-0.379619740194178,-0.154659596051754
-0.362592896158323,-0.150575642409906
-0.34530601126877,-0.146716113771803
-0.327779184114997,-0.143091755487431
-0.310033017390855,-0.13971249696203
-0.292088576511008,-0.136587429042929
-0.273967347201509,-0.133724783349855
-0.255691192157973,-0.131131913594925
-0.237282306866917,-0.128815278934091
-0.218763174687738,-0.12678042938724
-0.200156521294364,-0.125031993359524
-0.181485268577148,-0.123573667291793
-0.162772488106675,-0.122408207463225
-0.144041354262219,-0.121537423964434
-0.125315097128268,-0.120962176854474
-0.106616955263092,-0.12068237451027
-0.0879701284436106,-0.120696974172076
-0.0693977304908429,-0.121003984683686
-0.0509227422800975,-0.121600471421153
-0.0325679650395809,-0.122482563398916
-0.0143559740405316,-0.12364546253733
0.00369092721893891,-0.125083455070773
0.0215507522351831,-0.126789925070689
0.0392018760257673,-0.128757370053208
0.0566230788633776,-0.130977418636303
0.0737935891204479,-0.13344085020686
0.0906931251299913,-0.136137616553528
0.107301935970362,-0.139056865416815
0.123600841084051,-0.142186965903606
0.139571268643186,-0.145515535709089
0.155195292577273,-0.149029470085035
0.170455668181599,-0.152714972489462
0.185335866227983,-0.156557586848942
0.199820105502786,-0.160542231361188
0.213893383700711,-0.164653233762122
0.22754150660647,-0.168874367978324
0.240751115500327,-0.173188892082658
0.25350971272737,-0.177579587467945
0.265805685374539,-0.182028799150829
0.277628327003613,-0.186518477115434
0.288967857392696,-0.191030218604062
0.299815440243183,-0.195545311260084
0.31016319881371,-0.200044777026228
0.320004229447226,-0.204509416699783
0.329332612961993,-0.208919855044749
0.338143423882102,-0.213256586359703
0.346432737487891,-0.217500020399139
0.35419763467151,-0.221630528545194
0.361436204587761,-0.225628490126151
0.368147545095266,-0.229474338777707
0.374331760987924,-0.233148608742958
0.379989960021524,-0.236631981007082
0.385124246745339,-0.239905329163164
0.38973771415335,-0.242949764906076
0.393834433174659,-0.24574668305225
0.397419440027423,-0.248277805984137
0.400498721465415,-0.250525227419475
0.403079197951002,-0.252471455406956
0.405168704792959,-0.254099454451587
0.406775971292032,-0.255392686674995
0.40791059794165,-0.256335151918035
0.408583031735461,-0.25691142669544
0.408804539637608,-0.25710670191477
