0.36810019385777,-0.173038786401704
0.36801337646466,-0.173028940247206
0.367753840202722,-0.172988447508077
0.367322988324354,-0.172900916093147
0.366722260581786,-0.172750038856574
0.365953129895805,-0.172519634077636
0.365017099036249,-0.172193685664595
0.363915697321674,-0.171756382991912
0.36265047734554,-0.171192160280905
0.361223011736205,-0.170485735434958
0.359634889957885,-0.1696221482416
0.35788771515964,-0.168586797855213
0.35598310107934,-0.167365479475687
0.353922669009371,-0.165944420140181
0.351708044830733,-0.164310313547108
0.349340856121981,-0.162450353833605
0.346822729349269,-0.160352268230133
0.344155287143577,-0.158004348518303
0.341340145670957,-0.155395481220742
0.338378912101437,-0.152515176454614
0.335273182181948,-0.149353595383414
0.33202453791841,-0.14590157620478
0.328634545371847,-0.142150658615313
0.325104752573102,-0.138093106696851
0.321436687560483,-0.133721930172102
0.317631856544313,-0.129030903981234
0.313691742202129,-0.124014586134755
0.309617802107887,-0.118668333801845
0.305411467298275,-0.112988317597288
0.301074140978863,-0.106971534034128
0.296607197372521,-0.100615816113302
0.292011980712171,-0.0939198420256656
0.287289804379617,-0.0868831419460165
0.282441950191843,-0.0795061029030157
0.277469667835824,-0.0717899717131879
0.272374174452537,-0.0637368559715125
0.267156654370512,-0.0553497230954602
0.261818258988925,-0.0466323974236767
0.256360106809835,-0.0375895553748693
0.25078328361889,-0.028226718676778
0.245088842813398,-0.0185502456794361
0.23927780587637,-0.00856732077119947
0.233351162994773,0.00171405807973078
0.227309873819888,0.0122850936313793
0.221154868367347,0.0231362054906163
0.214887048054086,0.0342570480172187
0.208507286869125,0.0456365299702858
0.202016432674774,0.0572628358540216
0.195415308634561,0.0691234489160965
0.188704714763859,0.0812051757481052
0.181885429598931,0.0934941724340554
0.174958211979797,0.105975972189351
0.167923802942074,0.118635514429409
0.160782927712688,0.131457175203836
0.15353629780409,0.14442479892905
0.14618461320138,0.157521731349304
0.138728564636542,0.170730853653342
0.131168835943735,0.184034617671296
0.123506106489443,0.197415082074056
0.11574105367107,0.210853949495049
0.107874355477407,0.224332604492323
0.0999066931042496,0.237832152266944
0.0918387536183141,0.251333458052006
0.0836712326624565,0.264817187085044
0.0754048371951176,0.27826384507534
0.0670402882568125,0.29165381907648
0.0585783237564157,0.304967418673618
0.0500197012699337,0.318184917394177
0.0413652008444189,0.331286594250201
0.0326156277996518,0.344252775320299
0.0237718155202162,0.357063875278969
0.0148346282305954,0.369700438781237
0.00580496374595285,0.382143181610842
-0.00331624380870721,0.394373031500697
-0.0125280213182311,0.406371168535106
-0.0218293540430274,0.418119065044103
-0.031219183037865,0.429598524901419
-0.0406964026307198,0.440791722138906
-0.050259857968507,0.45168123879172
-0.0599083426363957,0.46225010189033
-0.0696405963572477,0.47248181951724
-0.079455302777552,0.482360415848445
-0.0893510873460404,0.491870465101846
-0.0993265152909737,0.500997124317309
-0.109380089701875,0.509726164895615
-0.119510249721256,0.518044002826333
-0.129715368851658,0.525937727537527
-0.139993753383047,0.533395129303298
-0.150343640945395,0.540404725148345
-0.160763199190942,0.546955783192073
-0.171250524610395,0.553038345378247
-0.181803641487018,0.558643248539779
-0.192420500992248,0.563762143751912
-0.203098980426178,0.568387513930922
-0.213836882605927,0.572512689639283
-0.224631935404583,0.576131863062302
-0.235481791443074,0.579240100125245
-0.246384027937004,0.58183335072412
-0.257336146700114,0.583908457047496
-0.268335574305713,0.585463159970958
-0.279379662407049,0.58649610351009
-0.290465688217269,0.587006837322195
-0.30159085514922,0.586995817251308
-0.312752293615029,0.586464403915389
-0.323947061985019,0.585414859338952
-0.335172147705171,0.583850341638729
-0.346424468571994,0.581774897774286
-0.357700874163306,0.579193454379825
-0.368998147423079,0.576111806697653
-0.380313006398176,0.572536605638054
-0.391642106124434,0.5684753429944
-0.402982040659255,0.563936334846528
-0.414329345257494,0.558928703189339
-0.425680498687154,0.5534623558276
-0.437031925681049,0.547547964581742
-0.448379999520314,0.541196941853188
-0.459721044745323,0.534421415601442
-0.471051339989323,0.527234202788641
-0.482367120929762,0.519648781350704
-0.493664583352077,0.511679260757488
-0.504939886320422,0.503340351227476
-0.516189155449568,0.494647331665528
-0.527408486272008,0.485616016395037
-0.538593947694046,0.476262720758531
-0.54974158553447,0.466604225663247
-0.560847426139203,0.456657741150567
-0.571907480065175,0.446440869070347
-0.582917745826456,0.435971564943161
-0.593874213695588,0.425268099095274
-0.604772869552906,0.414349017152786
-0.615609698776501,0.403233099982764
-0.626380690165437,0.391939323170434
-0.637081839888677,0.380486816122518
-0.647709155452181,0.36889482088759
-0.658258659676535,0.357182650784999
-0.668726394677458,0.345369648934254
-0.679108425841537,0.333475146777028
-0.689400845789497,0.321518422683902
-0.69959977831938,0.309518660737797
-0.709701382322002,0.297494909785595
-0.719701855661134,0.285466042848886
-0.729597439010905,0.273450716983918
-0.739384419643032,0.261467333679833
-0.749059135156538,0.24953399988306
-0.7586179771428,0.237668489734304
-0.76805739477884,0.225888207102997
-0.777373898341958,0.21421014900225
-0.786564062638957,0.202650869965398
-0.795624530343384,0.191226447463044
-0.804552015234418,0.179952448437197
-0.813343305331215,0.168843897026574
-0.821995265916781,0.157915243554476
-0.830504842445627,0.147180334847817
-0.838869063329756,0.136652385952897
-0.84708504259774,0.126343953310386
-0.855149982421965,0.116266909448713
-0.863061175509351,0.106432419251663
-0.870816007351181,0.096850917852445
-0.878411958327958,0.087532090202868
-0.885846605665515,0.0784848523625086
-0.893117625238916,0.0697173345488923
-0.900222793221037,0.06123686598579
-0.907159987572996,0.0530499615826933
-0.913927189373997,0.0451623104744381
-0.920522483988438,0.0375787664457901
-0.926944062068527,0.030303340261582
-0.933190220390974,0.0233391939187331
-0.939259362526675,0.0166886368321869
-0.945149999342682,0.0103531239624683
-0.9508607493361,0.00433325588822916
-0.956390338799894,-0.00137121917720374
-0.961737601820969,-0.00676140143061262
-0.966901480111232,-0.011839233594668
-0.971881022672697,-0.0166074931186866
-0.976675385298048,-0.0210697824826286
-0.981283829908431,-0.0252305176268379
-0.985705723730579,-0.0290949145342185
-0.989940538315714,-0.0326689739956725
-0.993987848403019,-0.0359594645936829
-0.997847330630786,-0.0389739039429142
-1.00151876209866,-0.0417205382305936
-1.00500201878476,-0.0442083201032434
-1.00829707382165,-0.0464468849500247
-1.0114039956356,-0.0484465256365442
-1.01432294595369,-0.0502181657464356
-1.01705417768368,-0.0517733313913634
-1.01959803267183,-0.0531241216532989
-1.02195493934412,-0.0542831777259749
-1.02412541023638,-0.0552636508253343
-1.02611003941944,-0.0560791689415384
-1.02790949982521,-0.0567438025076937
-1.02952454048011,-0.0572720290628744
-1.03095598365224,-0.0576786969892695
-1.03220472191908,-0.0579789884053522
-1.03327171516239,-0.0581883812988568
-1.03415798749733,-0.0583226109850489
-1.03486462414295,-0.0583976309772831
-1.03539276824113,-0.0584295733581582
-1.0357436176313,-0.0584347087406962
-1.03591842158832,-0.0584294059098897
-1.03591847753097,-0.0584300912356786
-1.03574512770844,-0.0584532079489282
-1.03539975587233,-0.0585151753722892
-1.03488378394182,-0.0586323481979242
-1.03419866866927,-0.0588209759039779
-1.0333458983139,-0.0590971624013664
-1.03232698933097,-0.0594768260019413
-1.03114348308376,-0.0599756597983743
-1.02979694258579,-0.0606090925451851
-1.02828894928039,-0.0613922501292194
-1.0266210998648,-0.0623399177165707
-1.02479500316579,-0.0634665026614251
-1.02281227707365,-0.0647859982606122
-1.02067454554129,-0.0663119484357558
-1.01838343565493,-0.0680574134228472
-1.01594057478288,-0.0700349365468141
-1.01334758780835,-0.0722565121562382
-1.01060609445256,-0.0747335547907807
-1.00771770669355,-0.0774768696511254
-1.00468402628648,-0.0804966244383384
-1.0015066423905,-0.0838023226264868
-0.998187129307255,-0.0874027782291566
-0.994727044335754,-0.0913060921171748
-0.991127925748029,-0.0955196299413748
-0.987391290889741,-0.100050001710662
-0.983518634409623,-0.104903043071936
-0.979511426621269,-0.110083798334623
-0.975371112000532,-0.115596505278688
-0.971099107821434,-0.121444581780987
-0.966696802933167,-0.127630614290784
-0.96216555668044,-0.134156348181113
-0.957506697969072,-0.141022679998473
-0.95272152447841,-0.148229651629104
-0.947811302021768,-0.155776446395827
-0.942777264055779,-0.163661387095076
-0.937620611339152,-0.171881935979466
-0.932342511741019,-0.180434696686857
-0.926944100198667,-0.189315418112531
-0.921426478824122,-0.198519000216771
-0.915790717158693,-0.208039501755787
-0.910037852574227,-0.217870149919649
-0.904168890819494,-0.228003351856617
-0.898184806709784,-0.238430708059031
-0.892086544957423,-0.249143027581804
-0.885875021140636,-0.260130345060391
-0.879551122807817,-0.271381939491164
-0.873115710713972,-0.282886354733128
-0.866569620185761,-0.294631421686065
-0.859913662611301,-0.306604282096493
-0.853148627050556,-0.318791413939107
-0.846275281961881,-0.331178658317922
-0.839294377039998,-0.343751247827887
-0.832206645160433,-0.356493836314481
-0.825012804425155,-0.369390529965687
-0.817713560303965,-0.382424919667752
-0.810309607865918,-0.395580114553279
-0.802801634094845,-0.408838776667589
-0.795190320282871,-0.422183156676721
-0.787476344495592,-0.435595130538144
-0.779660384102441,-0.449056237053076
-0.771743118365577,-0.462547716217334
-0.763725231080522,-0.47605054828585
-0.755607413261602,-0.489545493464366
-0.747390365865176,-0.503013132140436
-0.739074802543503,-0.516433905564624
-0.73066145242204,-0.529788156891783
-0.722151062892886,-0.543056172491478
-0.713544402417048,-0.556218223436013
-0.70484226332816,-0.569254607074103
-0.696045464630284,-0.58214568859802
-0.687154854782415,-0.59487194251208
-0.678171314462333,-0.607413993910494
-0.669095759302487,-0.619752659473059
-0.659929142590626,-0.631868988087759
-0.650672457927992,-0.643744301010185
-0.641326741837935,-0.655360231470668
-0.631893076317962,-0.666698763641285
-0.622372591328286,-0.67774227087627
-0.612766467210137,-0.688473553140988
-0.603075937027187,-0.698875873546441
-0.593302288823652,-0.708932993908216
-0.583446867792779,-0.718629209250995
-0.573511078349627,-0.727949381182051
-0.563496386102267,-0.736878970059675
-0.553404319715733,-0.745404065885155
-0.543236472663288,-0.753511417849765
-0.532994504859814,-0.761188462471196
-0.522680144172418,-0.768423350256999
-0.512295187803553,-0.775204970835892
-0.501841503542298,-0.781522976501168
-0.491321030879693,-0.787367804113991
-0.48073578198432,-0.792730695317986
-0.470087842534649,-0.797603715020303
-0.459379372404972,-0.801979768098179
-0.448612606202059,-0.805852614293969
-0.437789853650031,-0.809216881265634
-0.426913499821228,-0.812068075763792
-0.415986005211256,-0.814402592910584
-0.405009905656685,-0.816217723559843
-0.393987812094246,-0.817511659722305
-0.382922410160724,-0.818283498043915
-0.371816459633089,-0.818533241329605
-0.360672793708775,-0.818261798109261
-0.349494318126353,-0.817470980246955
-0.338284010127222,-0.816163498598874
-0.32704491725928,-0.814342956729694
-0.315780156023888,-0.812013842701501
-0.304492910367805,-0.809181518953594
-0.293186430022102,-0.805852210295807
-0.281864028690417,-0.802032990042133
-0.270529082089241,-0.797731764315592
-0.259185025843252,-0.792957254559345
-0.247835353239077,-0.787718978293035
-0.236483612841105,-0.782027228157245
-0.22513340597337,-0.775893049292765
-0.213788384071767,-0.769328215105056
-0.202452245911164,-0.762345201467881
-0.191128734712287,-0.75495715942356
-0.179821635133482,-0.747177886440626
-0.168534770152754,-0.73902179629286
-0.157271997845723,-0.730503887626771
-0.146037208065353,-0.721639711287453
-0.134834319029571,-0.712445336475552
-0.123667273823072,-0.702937315810636
-0.112540036819817,-0.693132649378705
-0.10145659003292,-0.683048747843809
-0.0904209293987658,-0.672703394705844
-0.0794370610023825,-0.662114707788452
-0.0685089972512121,-0.651301100042688
-0.0576407530045394,-0.640281239753588
-0.0468363416659727,-0.629074010238138
-0.0360997712464283,-0.61769846912422
-0.0254350404051675,-0.606173807301052
-0.0148461344764829,-0.59451930763236
-0.00433702148966603,-0.582754303524021
0.00608835181006889,-0.570898137438238
0.0164260639320458,-0.558970119446402
0.0266722225943056,-0.546989485912713
0.036822968653874,-0.534975358400294
0.0468744800055182,-0.522946702891068
0.0568229754414797,-0.510922289409888
0.0666647184646991,-0.49892065214258
0.0763960210482083,-0.486960050136351
0.0860132473333973,-0.475058428669771
0.0955128172600584,-0.463233381377997
0.104891210121208,-0.451502113217206
0.114144968035839,-0.439881404350346
0.123270699332973,-0.428387575034202
0.132265081840502,-0.417036451585572
0.14112486607257,-0.405843333501885
0.149846878309405,-0.394822961809043
0.158428023563788,-0.38398948870648
0.166865288428541,-0.373356448576557
0.175155743799691,-0.362936730422333
0.183296547470242,-0.352742551794563
0.19128494658971,-0.342785434265434
0.199118279984938,-0.333076180503085
0.206793980337925,-0.323624852997387
0.214309576216759,-0.314440754483738
0.221662693956039,-0.30553241010786
0.228851059383488,-0.296907551370638
0.235872499389778,-0.288573101888145
0.242724943338968,-0.28053516499781
0.249406424317211,-0.272799013237699
0.255915080217826,-0.265369079721558
0.262249154661102,-0.258248951428122
0.2684069977476,-0.25144136441886
0.274387066644049,-0.244948200994026
0.2801879260013,-0.238770488792567
0.285808248204158,-0.23290840183706
0.291246813453256,-0.227361263520537
0.29650250967952,-0.222127551527676
0.301574332292093,-0.217204904678553
0.306461383760972,-0.212590131678811
0.311162873035944,-0.208279221755869
0.315678114803757,-0.204267357156558
0.32000652858581,-0.200548927477425
0.324147637678967,-0.19711754579483
0.328101067942465,-0.193966066557965
0.331866546434154,-0.191086605203943
0.335443899899694,-0.188470559450298
0.338833053118578,-0.186108632216457
0.34203402711119,-0.183990856122115
0.345046937211384,-0.182106619506916
0.347871991009348,-0.180444693912446
0.350509486169792,-0.178993262964266
0.352959808130756,-0.177739952588601
0.355223427688575,-0.176671862495282
0.357300898474777,-0.175775598855764
0.359192854330912,-0.175037308102301
0.360900006587508,-0.174442711771918
0.362423141253559,-0.173977142316434
0.363763116123108,-0.17362557979767
0.364920857805678,-0.173372689384951
0.365897358687425,-0.173202859570274
0.36669367383004,-0.173100241014853
0.36731091781455,-0.173048785939373
0.367750261537242,-0.173032287969068
0.368012928965044,-0.173034422343698
0.36810019385777,-0.173038786401704
