0.338338278487969,-0.843263866850137
0.333741181274362,-0.83750457724934
0.322106537272241,-0.819021039215483
0.307010827169411,-0.786851634186365
0.29219119863528,-0.74123350806253
0.281168894817134,-0.683590853616928
0.276894670894323,-0.616406957410314
0.281451113005545,-0.542992550297843
0.295841173042222,-0.467173199713286
0.319883748171649,-0.392926444366937
0.352226600198241,-0.324004314498821
0.390475363252464,-0.263578317181675
0.431425964717629,-0.213941755073499
0.4713776075636,-0.176298605996309
0.506495533496253,-0.150659674700682
0.533187885551777,-0.135856174923447
0.548459598090167,-0.129669347527832
0.550208498393529,-0.129063305581999
0.537434485309725,-0.13049814261785
0.510341197728132,-0.130292444968064
0.470320158308102,-0.124999489701489
0.419818935742211,-0.11176006429992
0.362106274944424,-0.0885971451893761
0.300957276855349,-0.054623393195903
0.240289571309143,-0.0101410021395556
0.18378624422932,0.0433759717633109
0.134542580376783,0.103415109183026
0.0947713370931371,0.166661868414614
0.0655955037414863,0.229315370881204
0.0469488925648441,0.287452707037294
0.037594296370879,0.337405962465139
0.0352573806016404,0.376114909781083
0.0368630899448879,0.401420702846857
0.0388512629245437,0.412271710524787
0.0375403541518659,0.408821267194487
0.0295034298374707,0.392407746523845
0.0119193934747101,0.365418937926051
-0.0171351657837764,0.331054083272183
-0.0584822692191582,0.293006995464409
-0.111747085785327,0.25510144038105
-0.175380159461189,0.220914656121543
-0.246795198211322,0.193426046808372
-0.322608927736806,0.174725608017489
-0.398959472393092,0.165810761209101
-0.471872000111779,0.166491573742244
-0.537635717883891,0.175413675126449
-0.593155186813881,0.190196598358399
-0.636241450877779,0.207673916875395
-0.665814392913264,0.224211530209339
-0.68199646272398,0.236072760316579
-0.686088606561526,0.239794312409765
-0.680430813596265,0.232536082263373
-0.668161043512908,0.212370361859797
-0.652896293675549,0.178481954088141
-0.638367221227028,0.131259468817649
-0.628042301785956,0.0722687751364968
-0.624778532886373,0.00411117503758435
-0.630533076001716,-0.0698197978498211
-0.64616423309846,-0.145659080129387
-0.671341362225806,-0.219436784420535
-0.704572616529576,-0.28745488828711
-0.743347796877007,-0.346636904764722
-0.784382280577979,-0.39481619193901
-0.823938041854567,-0.430934596224174
-0.858190192270248,-0.45513194547825
-0.883602987705199,-0.468717646059686
-0.897278313545468,-0.474027236038362
-0.89724236352767,-0.474178064068264
-0.882642304180339,-0.47274818657925
-0.853833568271907,-0.473410128771101
-0.812349176371968,-0.479555594393358
-0.760754087488366,-0.493948098740076
-0.702398886448823,-0.518437751184777
-0.641097014977938,-0.553766298274903
-0.580757271458411,-0.59948165749042
-0.525007701591196,-0.653970398907227
-0.4768478460224,-0.714605026971192
-0.43836351848373,-0.777991619026934
-0.410532133821743,-0.840293502356973
-0.393137694891717,-0.897599168715177
-0.384803757228261,-0.946298270805029
-0.383141082150132,-0.983428747242583
-0.384995404472837,-1.00696095976111
-0.386770890399448,-1.01599091966247
-0.384797413490392,-1.01082362055569
-0.375705464541738,-0.992938301790548
-0.35677175893132,-0.964839078540161
-0.326201486531786,-0.929805647949556
-0.283319381174723,-0.891568607142301
-0.228650755826929,-0.85394133151806
-0.163884473776049,-0.820444631481495
-0.0917214404040292,-0.793961112503134
-0.0156234620086025,-0.776453237713091
0.0605128802632889,-0.768772821896706
0.132725316206557,-0.770580687650399
0.197361680032351,-0.780384373762499
0.251425498647737,-0.795690169065959
0.29285743207963,-0.813254494876574
0.320724932464908,-0.829409882417943
0.335301515332215,-0.84043345013232
