-0.264431897373212,-0.276611174600932
-0.222256312632536,-0.265227639367681
-0.179795907373617,-0.268241576152224
-0.241614412321639,-0.302413783599837
-0.224201320620543,-0.291283659484536
-0.223902332818282,-0.252989227396642
-0.249149624281503,-0.310186723453894
-0.221129774563184,-0.367403084295803
-0.222836526384842,-0.326685798474687
-0.221771877215552,-0.335592688467451
-0.220414221076992,-0.344503123068881
-0.218762291735761,-0.353407442007278
-0.219096160334735,-0.394204883083803
-0.230390179476949,-0.40222703227368
-0.19854829650919,-0.414619045745711
-0.233073816921346,-0.342008569150857
-0.160184185922535,-0.401474819244925
-0.202640684004774,-0.406155741970502
-0.198920586513269,-0.414741743345031
-0.194907822056928,-0.42324252131418
-0.164169294935521,-0.425651607514501
-0.145882946299376,-0.423952915792312
-0.23023587822918,-0.398711099538832
-0.175969189565867,-0.45619478156664
-0.210017563059411,-0.484452099862321
-0.164804145444697,-0.471902472384802
-0.158809251689169,-0.479530146398692
-0.200232052687217,-0.442857573397352
-0.144933205463059,-0.494319902676628
-0.106475134095365,-0.548445137119496
-0.17080346969393,-0.491982394402446
-0.124883126471797,-0.515028314060429
-0.166296921976336,-0.549450127342831
-0.0942110890099989,-0.558528909732686
-0.101553199710631,-0.533886691415684
-0.0933167831526641,-0.539713600107373
-0.113322779176006,-0.508031481909396
-0.118430724454999,-0.562008365449878
-0.0662512427800144,-0.572185735736935
-0.0836825576156034,-0.537521395105496
-0.0490036613161644,-0.565039462275417
-0.0395691950774364,-0.569289956695713
0.0149550346431493,-0.620196348002439
-0.0201954233441264,-0.576920070807962
-0.0233025618792223,-0.603798461087818
-0.00780277701327177,-0.547325705648074
0.042966948126158,-0.555105224153671
0.0203158902961192,-0.588522288605934
0.030755248678443,-0.590627752056614
0.0217815628750135,-0.612683996149708
0.0249349157750468,-0.577751101545305
0.0358855513873049,-0.58121498014908
0.0858621843535729,-0.605631507326626
0.0843111070606414,-0.596147872419366
0.128798457797515,-0.630743437141155
0.0610257650489084,-0.584894615178196
0.117144100315287,-0.595322445076991
0.128138204411976,-0.594340987980986
0.149555428891003,-0.602051085583707
0.164385307132091,-0.623139966671259
0.190286120424069,-0.579849058592772
0.217912365768382,-0.61247616393523
0.201706844663185,-0.592289308645288
0.147096800457294,-0.56036045417407
0.235692066239138,-0.53520582733398
0.21532014438117,-0.573598654904208
0.258552092813439,-0.528948359798438
0.229510630565215,-0.551532945514447
0.246882471604306,-0.559925494577169
0.291188996846958,-0.541956776923624
0.265853060325671,-0.563181633376987
0.277086346697206,-0.499369674780207
0.287179422891477,-0.536816545174391
0.296856977635323,-0.530190473011147
0.256884404268668,-0.549992059113862
0.306671375348891,-0.537803340511534
0.324754894087327,-0.508345631159492
0.360036990085718,-0.534344932864865
0.342296720950515,-0.492197278498587
0.308297134343358,-0.446858874140084
0.32447255210323,-0.509398903639388
0.392376234134757,-0.475705301567395
0.393522813227764,-0.465916276272667
0.381829776021675,-0.446651905189856
0.414767150599098,-0.485779453529461
0.400667500057843,-0.416768196860305
0.399464859934125,-0.374263425121977
0.408352304981149,-0.405398836114957
0.387642480989642,-0.441137144466475
0.452874849455614,-0.393998524285634
0.424882731473285,-0.372020733755287
0.451537979427942,-0.343646029200631
0.43417958853971,-0.348756759519603
0.438288756649105,-0.336853205137796
0.433792305168113,-0.293527151256881
0.437010696511955,-0.285481973288476
0.486323294065955,-0.285422463762551
0.450977066129362,-0.287692722484527
0.453182771212995,-0.275075028592681
0.454991517118091,-0.26235066550929
0.46796905588828,-0.287305048628672
0.451312509100288,-0.257249799368711
0.456370385915311,-0.180844833932617
0.488097598746339,-0.190726419404836
0.450357054962132,-0.200159106853417
0.457282214166233,-0.184477893710385
0.456208027480641,-0.171366808900997
0.504083927353772,-0.198191383617408
0.44912984963361,-0.173543702326145
0.450450630826631,-0.132075223226676
0.486772292373324,-0.121415629974756
0.448914479437405,-0.0964378621538551
0.471531339380239,-0.0461162053937415
0.425552091423607,-0.113384837495868
0.417798745895897,-0.0554044476415853
0.427511685858522,-0.0549146034058936
0.460019686948574,-0.0616404571015814
0.463963149456989,-0.0260760099580654
0.379811936135183,-0.0485768436853603
0.388954448271932,-0.000519476132057578
0.406402549401137,-0.0118436485308782
0.368230929331514,0.0204433497015386
0.381914322838351,0.0293698477063001
0.373812430437606,0.0406528804146865
0.358129350132677,0.0162499977984257
0.318817188590437,0.014210458211877
0.300716296470166,0.0894247799874545
0.38206972502346,0.0983005873622275
0.327722030626864,0.0933789006613169
0.284099769587563,0.0861159632864784
0.3551783601128,0.116488190142751
0.280446553284361,0.120718335608016
0.252870388310924,0.133150845816624
0.257078067883808,0.115268936168019
0.21344120107334,0.170690772108804
0.218040886032757,0.113143947403225
0.236568956071157,0.162025927843632
0.247833298277626,0.158759406678495
0.210911993049416,0.175613572586897
0.247714038344589,0.162368140351592
0.192057513300203,0.190737697587078
0.201510433906283,0.242875104651528
0.156789406082778,0.197963074850212
0.123762801555285,0.156956200205042
0.11573107320657,0.196468516717698
0.15031472029826,0.251281871008257
0.060720415908097,0.212615684849508
0.0643511875422344,0.194756632998877
-0.0460706485153626,0.128293638895867
0.146278794610484,0.118657091854047
-0.100717637292407,0.28668465266597
0.162645602984015,0.349124718011668
-0.0161066618819358,0.270326171386017
-0.0997512979838932,0.315271604947338
0.109919350549453,0.079029438344485
-0.189083718636411,0.113922853224123
-0.209570377120204,0.156364970214304
0.020438683122738,0.348412824595972
0.0177129175270629,0.0531927014051899
-0.15620475226017,0.165128172354215
-0.19834606860005,0.365885500549374
0.0341846080928922,0.265922999012326
-0.0435038481529017,0.0818856295848194
-0.215895067718817,0.0930189133304467
-0.171007288033491,0.189817205833677
-0.185559077091618,0.183898733659316
-0.306996356648289,0.0725608450062557
-0.214180437211331,0.170636637295774
-0.270828501208653,0.14785424956577
-0.273845957486844,0.176511589152001
-0.347426963005857,0.247782114883007
-0.131747092496406,0.0180565963050955
-0.163369203371384,0.243694518050932
-0.193695617805968,0.0194881632787016
-0.173546045874638,-0.00811622260518632
-0.211841271701737,0.210854488013766
-0.335777989918761,0.067825296979527
-0.259045773917115,-0.0744128889647003
-0.355026358466765,0.0655519733175696
-0.369193756237829,0.0166709029357625
-0.410991610825262,0.00973721893342768
-0.387934242626148,0.0745788021163434
-0.396840895289807,0.0151581633854455
-0.378263986412241,-0.0315503764503756
-0.415417538641624,-0.0121381361122589
-0.427612709131867,-0.0363240054417175
-0.43231490153331,-0.0407062329125634
-0.479267465303448,-0.102267243094514
-0.449485958563971,-0.110427944049464
-0.503360225710653,-0.0803234594056934
-0.460731298238767,-0.101236853283059
-0.490878953690143,-0.156958067890826
-0.472096594606057,-0.132974565007638
-0.502646432060277,-0.159706138529872
-0.513302707359288,-0.194343190974199
-0.485460998873926,-0.17722045874383
-0.459971153583301,-0.154963079470687
-0.447572243852958,-0.226438218521139
-0.461306853648845,-0.235496367692827
-0.513000434805669,-0.250081677786457
-0.514318372690502,-0.237967051405861
-0.497888716110081,-0.284140963649963
-0.498079823993679,-0.301452879376257
-0.539401764869734,-0.296103686299766
-0.496810891261168,-0.336181351317014
-0.498897291445066,-0.384490949267237
-0.526787818859202,-0.413399581160908
-0.490752460226074,-0.38827185902459
-0.443820402359355,-0.365696660393518
-0.483935520364669,-0.422790350653258
-0.466130712648813,-0.445030980084063
-0.474901800815215,-0.456975475334647
-0.469558025301064,-0.473898376886445
-0.508328954198602,-0.48295582406863
-0.45723044319964,-0.507315825826988
-0.413012992637938,-0.534112429067498
-0.442741278427711,-0.540044169624977
-0.38490657412495,-0.548075110734992
-0.475849697572382,-0.570437227338307
-0.369045446486137,-0.563620872307805
-0.43298372751078,-0.597281523917585
-0.393174859932298,-0.660510587191175
-0.423513613095574,-0.598179329928521
-0.375639983485402,-0.647163115347379
-0.364878990150737,-0.694387427126965
-0.357928774810604,-0.71208856619487
-0.292549922425052,-0.731483541074079
-0.325373344605572,-0.747048421025793
-0.313182038349727,-0.714271850928327
-0.299364225784479,-0.726548642404969
-0.293415163537804,-0.711568811366066
-0.270495727108,-0.749840451462911
-0.266282831545103,-0.760038138649091
-0.240069235748564,-0.771358510225742
-0.224305652768598,-0.781419587802118
-0.255227575956629,-0.762036451649974
-0.238151369385027,-0.791127262360373
-0.129491418272746,-0.810657372302585
-0.157921698667573,-0.816727023840153
-0.0919436729327246,-0.778925272727981
-0.122948286058207,-0.831262635415525
-0.145812667970194,-0.829070937206121
-0.113928685025969,-0.882307556665322
-0.0445671801938279,-0.840674909255132
-0.0524081047726539,-0.857495634922945
-0.073341392064419,-0.826187027877667
-0.0124985178060165,-0.861481799597995
0.00653075314400053,-0.864483877815465
0.0321248752227441,-0.877371038357744
0.0297310331644494,-0.81943785031375
0.0880521217925275,-0.822153009600208
0.0940571195144553,-0.861675477350258
0.103225132241982,-0.870424915821301
0.151062402761201,-0.843182162754915
0.161875016725821,-0.905123258628973
0.153129772204573,-0.908911336032633
0.181530258317103,-0.879808064087271
0.200725905063978,-0.860947701195347
0.264299516536793,-0.844979083101564
0.251896776232363,-0.829201112671749
0.295939631800228,-0.890969162942224
0.323964443449822,-0.796686772883231
0.262772084386258,-0.80219801522631
0.29844101635507,-0.843998923411026
0.304738636124234,-0.846449951587912
0.332847633626238,-0.860740720441742
0.347318914796838,-0.840317853284296
0.388257693564198,-0.795729914918424
0.378038641598462,-0.753201698399659
0.44357361879009,-0.816733215432932
0.421738536613741,-0.784262998524805
0.447413281272437,-0.714139168891786
0.473381242534336,-0.740978493589729
0.4540486287996,-0.711522794877348
0.469126301185836,-0.694977919107523
0.520333807626484,-0.701587299172107
0.520184770852577,-0.702573484646209
0.549624294684849,-0.672778103107787
0.563615928417919,-0.657645544795023
0.613692011139671,-0.600719883893984
0.598132755527635,-0.581457709850018
0.55437947725674,-0.575747774307643
0.614856364703766,-0.592578396933008
0.676046746282615,-0.59680194225536
0.674915285619017,-0.510310749709437
0.697393995590905,-0.528269023814748
0.657833068999142,-0.520970101660663
0.664818489639844,-0.538451657182153
0.665305557004119,-0.489959454617353
0.684134283753508,-0.463601787280197
0.691709413765137,-0.443875778008463
0.698671217152711,-0.423879092911264
0.743008699053812,-0.365660037056421
0.710717259717171,-0.383150441617148
0.735315120719269,-0.383908983770664
0.742966486073187,-0.336105963499703
0.690959697065652,-0.331310658240781
0.727070007998718,-0.299306833674599
0.729505416886094,-0.277967634116103
0.774962136973835,-0.221547467102076
0.732354567467632,-0.234981675159156
0.724640474945943,-0.165733243521021
0.696927835813127,-0.159942009568327
0.745733534463082,-0.133584659701157
0.729864175032724,-0.148379452119633
0.745518542737889,-0.0885162522034217
0.705858888558727,-0.113605204893469
0.705535637366667,-0.0523652274220186
0.739966273249162,-0.0882722807376935
0.684599337234939,-0.0791505248980408
0.70851352100046,-0.0351090477805535
0.674944876663817,0.0490196786990298
0.713177002946347,0.0232653407109111
0.670320317435912,0.0104728696284893
0.67560416107533,0.0636517308809483
0.646207039161026,0.0950405800928388
0.616460451560624,0.140181203292945
0.646233732297748,0.123598375969866
0.629275820398631,0.190148703008812
0.607896762032991,0.16084021907064
0.611113884426529,0.180827009782836
0.605130637868894,0.23685863205457
0.569188830112443,0.244516978864771
0.619174388536015,0.236005295475788
0.555788635349696,0.251951450474976
0.562846066344806,0.294109540781359
0.511757398423517,0.248896761892906
0.481943850699197,0.342314635333256
0.459799279328902,0.35922025555554
0.517743714008161,0.378460071200006
0.465081393486227,0.311380408707982
0.389033908687565,0.382879687683842
0.419890075899606,0.394370626501522
0.372388321792481,0.363556380065112
0.380032506019562,0.396419534842976
0.358694608748817,0.40827875191119
0.337151790461021,0.444907131442945
0.285288346279254,0.447073773213675
0.304962302516469,0.457122166967812
0.253480778943065,0.433782206327343
0.284205028153305,0.495538668125304
0.209675345726164,0.430504862600461
0.178132650813783,0.425680599162452
0.223433787864196,0.505779837368023
0.186854552736843,0.522726397001844
0.140993065986671,0.485312428559969
0.117759301445367,0.489228757803862
0.133819167342884,0.474250979260048
0.117779170648094,0.454119387537601
0.0909767082661807,0.501173083136716
0.0235035098755296,0.497536581613408
-0.000274157770402177,0.497750178881119
-0.0240901130204546,0.497211421757558
-0.0778302454886799,0.511951669492988
-0.0624230330286416,0.486387346677155
-0.122354040254601,0.51969261531138
-0.110151700808919,0.467720733265559
-0.142906732174963,0.483182026160163
-0.166449068894355,0.478109639400735
-0.184628031201255,0.458684616123994
-0.192438015528717,0.47573115458699
-0.236200833141304,0.458395580653653
-0.294495090873529,0.421353294203725
-0.286704959464038,0.484781036975002
-0.271509138113566,0.459242781468726
-0.284134449334829,0.393925375681848
-0.380869230236129,0.398268483142493
-0.409336929115139,0.424653852425895
-0.390799088746236,0.386815645779589
-0.42642037839015,0.340423270464958
-0.436815127244273,0.399260034442074
-0.469335104929191,0.31699302081654
-0.468049171835024,0.347620227958545
-0.499015019411287,0.290851279715254
-0.509442244125569,0.29867988892282
-0.571195983596431,0.326546278587251
-0.558692126915527,0.242486290416
-0.587956035907566,0.271964094840187
-0.548856314674292,0.188675897885763
-0.620608032479604,0.195373079134164
-0.610409202683646,0.188617716505294
-0.584471811974578,0.151505590172664
-0.639417943606762,0.147647915848879
-0.642713432832309,0.12004984756379
-0.665873309779683,0.104780512689827
-0.698118805908787,0.0355324115319273
-0.698740520255841,0.0200812806568464
-0.715930857540047,0.0727883662465036
-0.744905350855289,0.00145347750325942
-0.753445720224371,-0.0460819725695936
-0.756297344629851,-0.00517593025993361
-0.743546271080931,-0.0655914882195048
-0.743830763798412,-0.0823557711703355
-0.750235846584417,-0.107144168937959
-0.724972137214238,-0.149040580881288
-0.760708221366739,-0.157393462965476
-0.758297312598845,-0.17128224373805
-0.800842555055036,-0.199002562118052
-0.756959522851968,-0.191475606695172
-0.742139983245822,-0.271423872326089
