-0.155327608395305,-0.797079358441596
-0.148838064917885,-0.762406940975774
-0.151379984336215,-0.787321108703868
-0.155831818904033,-0.776739310240123
-0.196309564400815,-0.773935444067565
-0.179355134524554,-0.772034929158762
-0.161470084681315,-0.745793310215953
-0.126642325815765,-0.712627617244913
-0.131138950926343,-0.701662643182595
-0.158141388920789,-0.742923645907397
-0.195696118208284,-0.733562016419936
-0.107719994894647,-0.75219709154271
-0.129124848400577,-0.701565564784323
-0.167978292106003,-0.767082880268625
-0.155380376880989,-0.774898203208924
-0.145144934791588,-0.735135803487874
-0.174076959392421,-0.69150601748766
-0.157482348351268,-0.746323610648126
-0.154533592721322,-0.68113953296846
-0.108680737822351,-0.696350943480233
-0.0797358873628086,-0.776345551896393
-0.105873019087179,-0.710312784899253
-0.116468743312754,-0.724375334341748
-0.111008748574834,-0.722807535991817
-0.105186795881099,-0.721247370541258
-0.0942289052185184,-0.748128813626119
-0.0924366081708981,-0.718166449248034
-0.0490582282427102,-0.710914774160484
-0.0608765047080448,-0.76115326040185
-0.0311011747002843,-0.693805410814993
-0.0624104119621514,-0.712256524438681
-0.0120856362030295,-0.749307455712582
-0.0859325465838365,-0.684248648496123
-0.0358787023804079,-0.70811942119915
0.00993129679656736,-0.658748875255738
-0.0236249215059314,-0.734984468632927
-0.0461137386887832,-0.680228942886328
-0.0290790416513116,-0.666386748085661
0.0158909780326492,-0.701862649365954
0.062575568419101,-0.683791707229196
0.0391488186281157,-0.69957174037128
0.0512995287897988,-0.698465172874784
0.0363505905013784,-0.658360141976749
0.076604049740893,-0.696316707176511
0.0559453148720454,-0.725768253137585
0.103183372410546,-0.694232530422311
0.152680621774298,-0.680196432995709
0.118719331310122,-0.673006169904339
0.162750914142029,-0.739823433476177
0.141551310671655,-0.6415356861273
0.142840985041992,-0.643747120564252
0.185084587678635,-0.656244886075137
0.224549310806604,-0.65869842257181
0.236034044533737,-0.684679911839048
0.291489716745662,-0.72499724329828
0.262203623565383,-0.692246641879598
0.23706952625384,-0.641725187636387
0.278612344090918,-0.67902554275196
0.310428588363051,-0.65915308039663
0.332913354137931,-0.676638264608619
0.349393247945806,-0.675036965845155
0.358097149134102,-0.658327722497024
0.364810238350016,-0.715520583161922
0.445210054083718,-0.671732788927851
0.415588338697323,-0.667599731794825
0.432110879073559,-0.665442229620215
0.422857481430517,-0.673713343781353
0.447909439309796,-0.673990425271138
0.492922305361824,-0.67485956708578
0.497520479131505,-0.655377600482863
0.513607029459673,-0.652462939201025
0.560926624458143,-0.642638328872675
0.576325005321157,-0.638978371610061
0.591505915638581,-0.635113867218629
0.620071684849097,-0.635154350007963
0.597692789484414,-0.650628478424578
0.635570116693309,-0.622225246085812
0.641241591453912,-0.630329518213668
0.650206604813197,-0.596559863245213
0.677068927951953,-0.607262090016631
0.70310312797399,-0.596059016513987
0.736918799620812,-0.599060750193837
0.761641451040931,-0.6270797418394
0.750900840693911,-0.557460683217461
0.7633527086056,-0.588726355254528
0.754704711760013,-0.551971448428896
0.772184787060671,-0.556164746616925
0.800205508933099,-0.53286125844818
0.787270447671395,-0.569769864800738
0.822647210814874,-0.500381593857428
0.809838065299525,-0.52409002087098
0.818121592759059,-0.515371480545933
0.827429631696138,-0.45050220015801
0.873678468173919,-0.480522192576964
0.89008016729708,-0.469349051413991
0.878677100196492,-0.399029598895428
0.86734966196291,-0.435626068789495
0.871342246423123,-0.424440775988996
0.841065721493633,-0.4159946914542
0.88417547673667,-0.364732701782049
0.886061815762283,-0.339192441645592
0.929928195732847,-0.369354925573959
0.870611805742844,-0.325797718658059
0.907609588156963,-0.319206412828856
0.896424739549996,-0.28981134266193
0.883135258879909,-0.271700671493144
0.926408013291935,-0.279075052827235
0.856138921219119,-0.200230351204763
0.870266652762491,-0.19988856330593
0.81781517204778,-0.146107630420135
0.872748562667895,-0.206592199717405
0.835490360479654,-0.193317792679555
0.867187946818719,-0.118542443892551
0.806324786053194,-0.14503122137982
0.806321033347954,-0.0983523037702847
0.817453450510452,-0.118753762483651
0.831247437876819,-0.0582162911925829
0.850269331449277,-0.0349839596766238
0.821133248066582,-0.0485533484074912
0.78987182764279,-0.0750300129392409
0.76713995698421,0.0207783132055142
0.776348861092754,-0.00882993012069107
0.78870287746515,0.0280212992883469
0.78185118661577,0.0432117088531526
0.795837290119997,0.0778151579413959
0.813816180755998,0.069510415469878
0.781547778694811,0.0900367259943692
0.62452140956315,0.0365172361665363
0.611060925353635,0.20973371369892
0.612655502440861,0.27031752483812
0.611117345479816,0.0521966348130595
0.864086215439866,0.0766455884659402
0.704540345812759,0.203061903529973
0.792874825059875,0.12310986247407
0.679608662682557,0.181131417123412
0.751827291635932,0.203609269114116
0.719357897354333,0.300160680661695
0.500377995552753,0.395625582648286
0.659353408962075,0.293507508855173
0.740503774609613,0.223752005634929
0.568766880473672,0.458819359764986
0.715897411982057,0.239986664504067
0.740662659426059,0.233578210218148
0.71533818620247,0.296998959054328
0.495120743066602,0.28910738693922
0.772159773624008,0.2771725721435
0.500730408248044,0.308973851607091
0.664243941821209,0.580366539124905
0.457490909388433,0.311207643730519
0.586602672247854,0.457673742486081
0.540788133205712,0.476754125987531
0.508117101368152,0.338909664636102
0.491045954357532,0.384976502582542
0.573450293485521,0.504151888181278
0.474597495788044,0.637814916430442
0.428297837026378,0.594779177963407
0.617348694869754,0.51384655712905
0.619788382042259,0.378358743030054
0.61947652979684,0.475085399713811
0.523627407307019,0.56255854453981
0.60067669169872,0.536268323365599
0.589334979365922,0.567766942820914
0.571064521736868,0.537904033222951
0.549929040769594,0.588508451140017
0.539626226053877,0.499911929973424
0.593298103905689,0.496134684128545
0.559838511953356,0.537353325772958
0.604845908521937,0.508928347262081
0.586135727339186,0.575810520528659
0.580773649972577,0.5032241239972
0.572710630593804,0.544386291630066
0.572497135924058,0.544083328437303
0.567211837096342,0.494028210156187
0.602453839438779,0.557893819205936
0.541216626840813,0.525710785715958
0.605966380600508,0.577611193058292
0.563023283828294,0.536141632934183
0.603162966626273,0.518405159093773
0.555035478102656,0.521334800051788
0.509346421837535,0.488550115021784
0.533758166673212,0.549885391304504
0.450061633928551,0.551597133016674
0.467394099090276,0.507742079191158
0.458741240435064,0.506347255492995
0.449705899869448,0.50498357109461
0.445545247606567,0.495627917644784
0.399975006273829,0.506065717518217
0.398867420065728,0.498647361865678
0.378112670744926,0.454363125900053
0.333471141024992,0.467883601438242
0.296465556491152,0.442987823023916
0.241977625955005,0.485800531244009
0.194178295574997,0.488870428293781
0.165242994010227,0.480284290798352
0.143822918740858,0.52237041941333
0.051514701434171,0.470395374479916
0.0302407918978119,0.440372174986224
0.0105658572109341,0.443018144878455
-0.0311885468760871,0.46050746248482
-0.0785401841089173,0.407974505586326
-0.119078866800773,0.472833167054919
-0.214936342015629,0.459798942329683
-0.256889666236836,0.439322862424438
-0.312524877485398,0.383178777579942
-0.32444611910801,0.376801130197685
-0.346370844450841,0.371741073505737
-0.338798320170978,0.351747249654435
-0.357819018714827,0.356055561984859
-0.417071328798218,0.326134621730387
-0.371646053899515,0.326279709335724
-0.38628439524617,0.239605104849526
-0.443682206351565,0.225768563880449
-0.478585321298582,0.258224590802426
-0.467105341501235,0.178690810703646
-0.476593004734394,0.141855184103199
-0.434638865426769,0.0767492144510234
-0.468689228138577,0.032453604188816
-0.462793269336828,0.00342355148876261
-0.42439448738337,-0.0789395603704958
-0.432069459475901,-0.101616776681807
-0.40817452203594,-0.210157083808033
-0.410468345687636,-0.21642356267559
-0.376121950297329,-0.239430258440944
-0.411942710346661,-0.244020956173343
-0.363513854249955,-0.28640292666822
-0.333956972870197,-0.328984754212874
-0.319777064616412,-0.357876833720603
-0.313455120344452,-0.455290016062278
-0.259315237623838,-0.478891368428129
-0.221613369052188,-0.561062048691714
-0.158713747836072,-0.644409545453299
-0.138022113872712,-0.691588408389949
-0.2101210511189,-0.729233307926789
-0.16113836576055,-0.705001090130516
-0.137256379930319,-0.733968985834192
-0.192898833971465,-0.766435561959675
-0.159142127719972,-0.708323055054453
