0.670923703605666,-0.476427778028551
0.670528064287364,-0.476128883812002
0.66936758707531,-0.475200033995194
0.667484844529806,-0.473595529206608
0.664926069925714,-0.471273305839604
0.661740862207322,-0.468195209585418
0.657981870292791,-0.464327244876511
0.65370445868638,-0.459639798691426
0.648966356472423,-0.45410783733114
0.643827291867959,-0.447711074944335
0.638348614600341,-0.440434112754041
0.632592908451537,-0.4322665481196
0.626623596371712,-0.42320305275481
0.620504540610672,-0.413243419614158
0.614299640346567,-0.402392578153194
0.608072429306704,-0.390660577865021
0.601885675875303,-0.378062540191414
0.595800988167591,-0.364618579103041
0.589878426518769,-0.350353690837326
0.584176125790418,-0.335297613473627
0.578749929835983,-0.319484657212236
0.573653040391625,-0.302953506405241
0.568935682569253,-0.285746994562285
0.564644789025627,-0.267911853721696
0.560823704765659,-0.249498439736294
0.557511914410113,-0.230560435172386
0.554744793618647,-0.211154531659165
0.55255338620943,-0.191340093653045
0.550964208357253,-0.171178805696611
0.549999081084254,-0.1507343053541
0.549674992081955,-0.130071804094109
0.550003987721552,-0.109257698464837
0.550993095922268,-0.0883591739673745
0.552644280356298,-0.0674438040777288
0.554954426274681,-0.0465791468983615
0.557915358042408,-0.0258323419346809
0.561513888274559,-0.00526970949114925
0.565731898269386,0.0150436448345694
0.570546449240276,0.0350442181125889
0.57592992365762,0.0546704880968374
0.581850195825004,0.0738632789576933
0.588270830632925,0.0925661124688917
0.595151309258563,0.110725542476487
0.602447280413152,0.128291470581265
0.610110835580089,0.145217441082379
0.618090806538248,0.161460913358524
0.626333083326785,0.176983510002712
0.634780950681031,0.191751239177005
0.643375440854522,0.205734689813237
0.652055700640668,0.218909198454059
0.660759370319467,0.231254986704325
0.669422972180765,0.242757268444944
0.677982306216126,0.253406326148675
0.686372850526933,0.263197555828801
0.694530163967026,0.272131480345934
0.702390288524306,0.28021373099429
0.709890148947261,0.287454997485279
0.716967947139424,0.293870946642086
0.723563548877083,0.299482110312763
0.729618860453114,0.304313743200073
0.735078192912155,0.308395651492723
0.739888611619149,0.311761993363514
0.744000268994141,0.314451052574253
0.747366718350432,0.316504986593882
0.749945206890236,0.317969550794188
0.751696946041079,0.318893800435661
0.752587357456512,0.31932977229368
0.752586293155457,0.319332147901314
0.751668228434683,0.318957900498933
0.749812426357566,0.318265927881753
0.74700307279834,0.31731667342378
0.743229381203456,0.316171737629874
0.738485666419234,0.314893482626308
0.732771387126615,0.313544632043929
0.726091156618301,0.312187868776544
0.718454721849652,0.310885433110294
0.709876910891263,0.309698723717453
0.700377549106861,0.308687903990312
0.689981344573923,0.307911516157675
0.678717743454912,0.307426105578255
0.666620756213201,0.307285857542164
0.653728755748339,0.307542248834132
0.640084248699276,0.308243716220639
0.625733621330337,0.309435343918177
0.610726861572241,0.311158571982263
0.595117258938081,0.313450927427149
0.578961084171309,0.316345779745258
0.562317250608241,0.319872122344197
0.5452469593509,0.324054381258538
0.527813330446244,0.328912252324518
0.510081022354534,0.334460567829423
0.492115842062073,0.340709193464725
0.473984348251499,0.347662956224249
0.455753449985784,0.355321603696842
0.437490003389845,0.363679795008467
0.419260408826025,0.372727123472471
0.40113021105664,0.382448170810269
0.383163704868185,0.392822592609042
0.365423548597958,0.4038252344894
0.347970387954825,0.415426278265678
0.330862492462049,0.427591417195629
0.314155406771835,0.440282059235956
0.297901619009075,0.453455557046595
0.282150248196224,0.467065463320829
0.266946752692955,0.481061809861361
0.252332661454013,0.49539140867528
0.238345329767248,0.50999817322437
0.225017720982112,0.524823457842275
0.212378215577798,0.539806413217412
0.200450448750806,0.554884355740932
0.189253177524919,0.569993148433053
0.178800178203689,0.585067591089309
0.169100174797408,0.600041817231057
0.160156798864673,0.614849695402401
0.151968581013897,0.629425232328664
0.14452897411397,0.643702975439983
0.137826408066751,0.657618412267481
0.131844375798474,0.671108364238758
0.126561549933715,0.684111372434141
0.121951929425388,0.696568072914842
0.117985015228642,0.708421559298777
0.114626013926508,0.719617730338706
0.111836068041962,0.730105620350297
0.109572511605669,0.739837710443841
0.107789149392186,0.748770218632318
0.1064365580907,0.75686336701927
0.105462407540492,0.764081624411961
0.104811800036918,0.770393922857458
0.104427625601778,0.775773846760846
0.104250931012956,0.780199793414571
0.104221300302976,0.78365510394502
0.104277244365041,0.786128163865678
0.10435659724866,0.787612472614471
0.104396916685529,0.788106681645027
0.104335886360105,0.787614600836368
0.104111717428476,0.786145173181811
0.103663546793818,0.783712417914326
0.102931829666777,0.780335342421122
0.101858723974555,0.776037823493571
0.100388464232965,0.770848458648513
0.0984677225610143,0.764800388442377
0.0960459545972312,0.757931090879219
0.0930757281705176,0.750282149186662
0.0895130326851526,0.741898994398622
0.0853175672990771,0.732830624339819
0.080453006105999,0.723129300753178
0.0748872386743412,0.712850226446617
0.0685925844487614,0.702051204459472
0.0615459796819282,0.690792281360137
0.0537291357344523,0.67913537688479
0.0451286677582881,0.66714390221163
0.035736192962443,0.654882369235414
0.0255483978483112,0.642415993262793
0.0145670739942319,0.629810291589644
0.00279912216376201,0.617130680447052
-0.00974347529156959,0.604442072812659
-0.0230437135677802,0.591808479578649
-0.0370796557195538,0.579292616546816
-0.051824553591111,0.56695551968495
-0.0672469986212175,0.55485617102759
-0.0833111015916203,0.543051137538107
-0.0999767002088176,0.531594225168773
-0.117199593236612,0.520536150261216
-0.134931799732342,0.509924230322141
-0.153121841784143,0.49980209608913
-0.171715049000915,0.490209426669311
-0.190653882871912,0.481181709390692
-0.209878278989689,0.472750025852777
-0.22932600501946,0.46494086550066
-0.248933032200317,0.457775967876223
-0.268633918079877,0.451272194522301
-0.288362198114339,0.445441431331897
-0.308050783710902,0.440290521945816
-0.327632364249617,0.435821232609661
-0.347039810597026,0.432030248706144
-0.366206577614668,0.428909202982344
-0.385067103171751,0.426444735295108
-0.403557201192891,0.424618583502422
-0.42161444630878,0.423407704935577
-0.439178547729615,0.422784427697379
-0.456191710027884,0.42271663084681
-0.472598978598172,0.423167952351514
-0.488348567656574,0.424098023517354
-0.503392168750448,0.425462728440209
-0.517685237869958,0.427214486870058
-0.531187259385436,0.429302558732292
-0.543861985178117,0.431673368416967
-0.555677647485494,0.434270846824153
-0.566607144145363,0.437036789043489
-0.57662819509361,0.439911225449111
-0.585723469148877,0.442832803907981
-0.593880680301304,0.445739180730699
-0.601092652911491,0.448567417939717
-0.607357355418364,0.451254384390627
-0.612677902349789,0.453737158258328
-0.617062524626065,0.455953428391359
-0.620524508342907,0.457841892044646
-0.623082102415747,0.459342646523331
-0.624758395660123,0.460397572308028
-0.62558116407222,0.460950705284603
-0.625582689258252,0.460948595769036
-0.624799549140103,0.460340652099717
-0.623272382236344,0.459079466665127
-0.62104562698147,0.457121122343612
-0.618167237700803,0.454425477453349
-0.614688379003089,0.450956427443688
-0.610663100486531,0.44668214170315
-0.606147993775897,0.441575274013506
-0.601201834017804,0.435613145342638
-0.595885208057499,0.428777897840233
-0.590260131602948,0.421056619078773
-0.584389657750226,0.412441435766628
-0.578337479297678,0.402929576349179
-0.572167527314736,0.392523402106647
-0.565943568454459,0.381230406552492
-0.559728803506569,0.369063183132633
-0.55358546968002,0.35603936142212
-0.547574449080985,0.342181512211076
-0.54175488581368,0.327517022064469
-0.53618381407798,0.312077938129408
-0.530915799569575,0.295900784147962
-0.526002596405928,0.279026348811935
-0.521492821705048,0.261499447767362
-0.517431649834652,0.243368660739757
-0.513860528227332,0.224686045405267
-0.510816916523682,0.205506829776988
-0.50833405066072,0.185889085008773
-0.506440733368309,0.165893380640217
-0.505161152372607,0.145582424415256
-0.50451472743384,0.125020688902434
-0.504515987166925,0.104274027226594
-0.505174476408943,0.0834092802892924
-0.506494694708049,0.0624938779078696
-0.508476066315566,0.041595436340861
-0.511112941867717,0.0207813546897684
-0.514394631747049,0.000118412674178326
-0.518305470917235,-0.0203276277312962
-0.522824914829871,-0.0404924143337149
-0.527927665809294,-0.0603133880068217
-0.533583829132521,-0.0797301548532647
-0.539759097837393,-0.0986848449418459
-0.546414965113874,-0.117122455400821
-0.553508962962548,-0.134991175745174
-0.560994925641494,-0.152242693425916
-0.568823276269088,-0.168832477711972
-0.576941334806715,-0.184720040149481
-0.585293645512876,-0.199869169988496
-0.593822321839429,-0.21424814312212
-0.602467406632577,-0.227829903247285
-0.611167245406337,-0.240592214128469
-0.619858870375158,-0.252517782024694
-0.628478392865597,-0.263594347525037
-0.636961401675055,-0.273814746227404
-0.645243364908582,-0.283176937888386
-0.65326003280321,-0.291684003867344
-0.660947839043071,-0.299344112884341
-0.668244298077853,-0.306170455307842
-0.675088395981844,-0.312181146383106
-0.6814209724308,-0.317399099004607
-0.687185091428821,-0.321851866824543
-0.692326398487103,-0.325571458673279
-0.696793462040294,-0.328594125445289
-0.700538096983804,-0.330960120774783
-0.703515668326146,-0.332713436987582
-0.70568537307355,-0.333901517968972
-0.707010498598874,-0.334574950730291
-0.707458655892549,-0.334787137588974
-0.707001986248823,-0.334593950996863
-0.70561734010514,-0.334053373159114
-0.703286426924978,-0.333225122680216
-0.699995935193845,-0.332170270554016
-0.695737621783231,-0.33095084788065
-0.69050837012711,-0.3296294477445
-0.684310216848748,-0.328268823723448
-0.677150346671007,-0.326931487520577
-0.66904105563983,-0.325679308214824
-0.659999682886848,-0.324573115617078
-0.650048511351969,-0.323672310192716
-0.639214638079065,-0.323034481970865
-0.627529814886367,-0.322715040804957
-0.615030260396683,-0.322766860278775
-0.601756444589987,-0.323239937467614
-0.58775284721111,-0.324181070665873
-0.573067691527232,-0.325633557081086
-0.557752655082566,-0.327636912370585
-0.541862559240083,-0.330226613761664
-0.525455039431569,-0.333433868349906
-0.508590198156741,-0.337285408014308
-0.491330242879038,-0.341803312222871
-0.4737391110592,-0.347004859829451
-0.455882084647459,-0.352902410783019
-0.437825396420356,-0.359503318485062
-0.419635830598784,-0.366809873340923
-0.401380320219164,-0.374819277857559
-0.383125543749789,-0.38352365344466
-0.364937523448996,-0.392910078879613
-0.346881227950966,-0.40296066020053
-0.329020181538763,-0.413652631596791
-0.311416082522707,-0.424958486674434
-0.294128433085741,-0.43684613928546
-0.277214182886347,-0.449279112926913
-0.260727388624302,-0.462216757538476
-0.244718891675597,-0.475614492357571
-0.229236015790864,-0.489424073329367
-0.214322286727292,-0.503593883416983
-0.200017175548072,-0.518069244015151
-0.186355867176741,-0.532792745539852
-0.173369055637253,-0.547704595147533
-0.161082767245249,-0.562742979431329
-0.149518212842755,-0.57784443984887
-0.138691669988552,-0.592944258557298
-0.128614395830822,-0.607976852266598
-0.119292571198524,-0.622876171672589
-0.110727276254501,-0.637576103996313
-0.102914497857704,-0.652010876137248
-0.0958451685854474,-0.66611545594391
-0.089505237170373,-0.679825949117032
-0.0838757699121604,-0.6930799892875
-0.0789330824320436,-0.705817118853464
-0.07464890095017,-0.717979158218265
-0.0709905520828867,-0.729510561142584
-0.0679211799802971,-0.740358754010276
-0.065399989455005,-0.750474456906888
-0.0633825135919019,-0.759811984522564
-0.0618209041771325,-0.76832952501596
-0.0606642431429773,-0.775989395112287
-0.0598588730951448,-0.782758269855847
-0.059348744870714,-0.788607385594339
-0.0590757799694296,-0.793512714938109
-0.058980245608879,-0.797455112611026
-0.0590011400758432,-0.800420431290016
-0.0590765859823101,-0.802399606716187
-0.0591442289856467,-0.803388711550781
-0.059141639498559,-0.803388977642847
-0.0590067148959341,-0.802406786571148
-0.0586780797225763,-0.800453628519379
-0.0580954814182236,-0.79754602973989
-0.0572001791040071,-0.79370544905572
-0.0559353230174989,-0.788958144042492
-0.0542463222414388,-0.783335007719576
-0.0520811984437585,-0.776871376762548
-0.049390923433202,-0.76960681242543
-0.046129738435117,-0.761584855530183
-0.0422554531052665,-0.752852757041582
-0.0377297224250508,-0.743461185896801
-0.0325182997585878,-0.733463915899932
-0.0265912644998189,-0.722917493621309
-0.0199232228952339,-0.711880889359122
-0.012493480794061,-0.700415133325771
-0.00428618725167116,-0.688582939312794
0.0047095519073901,-0.676448318165836
0.014499591274245,-0.664076183464116
0.0250846943053176,-0.651531951847165
0.0364605133599799,-0.638881140464658
0.0486176014536741,-0.626188964042971
0.0615414556574501,-0.613519934064378
0.0752125918787635,-0.600937462541678
0.0896066505639043,-0.58850347284249
0.10469453267083,-0.576278019973733
0.120442565073581,-0.564318922678113
0.13681269437711,-0.552681409621181
0.153762707945227,-0.541417781860225
0.171246480775845,-0.5305770936852
0.189214246697386,-0.520204853808134
0.207612892209631,-0.51034274875119
0.226386271151871,-0.501028390146045
0.245475538252162,-0.492295087508988
0.264819499494528,-0.484171647898222
0.284354977136619,-0.476682203693271
0.304017187119657,-0.46984606956203
0.323740126535561,-0.463677629500143
0.343456968753926,-0.458186254640955
0.363100463763918,-0.453376252343603
0.382603341253927,-0.449246846872926
0.401898713934722,-0.445792191789088
0.420920478610388,-0.443001413968256
0.439603712515221,-0.440858688979634
0.457885062464045,-0.439343347349835
0.475703124407953,-0.438430011054074
0.492998811046849,-0.438088759386403
0.509715705224179,-0.438285323179042
0.525800396917252,-0.438981306165195
0.541202801738233,-0.440134432111508
0.555876458975329,-0.441698816186561
0.569778807330528,-0.443625258881601
0.582871436648313,-0.445861560659936
0.595120314078585,-0.448352855382888
0.606495983275348,-0.45104196044386
0.616973735399755,-0.453869741438454
0.62653375087083,-0.456775489108497
0.635161210988304,-0.459697306221709
0.642846378738746,-0.462572501987161
0.649584648286974,-0.465337991559916
0.655376562848831,-0.467930698156676
0.660227800837162,-0.470287955288055
0.664149130369493,-0.472347906612286
0.667156332421816,-0.474049900929935
0.669270093107155,-0.475334879869204
0.67051586574886,-0.476145755856678
0.670923703605666,-0.476427778028551
