-0.726619610774271,-0.216052096759925
-0.717864624754229,-0.214249698184627
-0.70918343782895,-0.212505334947866
-0.700575443449871,-0.210818210053019
-0.692040048139624,-0.209187536878175
-0.683576671122994,-0.207612538904017
-0.675184743968463,-0.206092449450054
-0.66686371023997,-0.204626511418945
-0.658613025158555,-0.203213977048612
-0.650432155273558,-0.201854107671918
-0.642320578143053,-0.200546173483624
-0.634277782023213,-0.19928945331441
-0.626303265566322,-0.198083234411716
-0.618396537527145,-0.196926812227181
-0.610557116477389,-0.195819490210464
-0.60278453052799,-0.194760579609242
-0.595078317058984,-0.193749399275187
-0.587438022456714,-0.192785275475725
-0.579863201858139,-0.191867541711394
-0.572353418902024,-0.190995538538625
-0.564908245486801,-0.190168613397775
-0.557527261534878,-0.189386120446232
-0.550210054763209,-0.18864742039646
-0.542956220459927,-0.187951880358798
-0.535765361266853,-0.187298873688894
-0.528637086967698,-0.186687779839603
-0.521571014281796,-0.186117984217236
-0.514566766663185,-0.185588878042008
-0.507623974104888,-0.185099858212565
-0.500742272948233,-0.184650327174466
-0.493921305697057,-0.184239692792496
-0.48716072083666,-0.183867368226693
-0.480460172657359,-0.183532771811987
-0.47381932108251,-0.18323532694133
-0.467237831500872,-0.182974461952221
-0.460715374603176,-0.182749610016524
-0.454251626222795,-0.182560209033475
-0.44784626718037,-0.182405701525796
-0.441498983132313,-0.182285534538811
-0.435209464423042,-0.182199159542491
-0.428977405940872,-0.182146032336322
-0.422802506977435,-0.182125612956939
-0.416684471090548,-0.182137365588427
-0.410623005970421,-0.182180758475216
-0.404617823309116,-0.182255263837505
-0.398668638673169,-0.18236035778913
-0.392775171379292,-0.182495520257811
-0.386937144373051,-0.182660234907716
-0.381154284110471,-0.182853989064266
-0.375426320442456,-0.183076273641127
-0.369752986501974,-0.18332658306932
-0.364134018593914,-0.1836044152284
-0.358569156087562,-0.183909271379628
-0.3530581413116,-0.184240656101103
-0.3476007194516,-0.184598077224784
-0.342196638449902,-0.184981045775348
-0.336845648907857,-0.185389075910854
-0.33154750399034,-0.18582168486513
-0.326301959332492,-0.186278392891871
-0.321108772948635,-0.186758723210374
-0.315967705143288,-0.187262201952881
-0.31087851842425,-0.187788358113477
-0.305840977417688,-0.188336723498508
-0.300854848785175,-0.188906832678476
-0.295919901142639,-0.189498222941363
-0.291035904981173,-0.190110434247359
-0.286202632589651,-0.190743009184948
-0.281419857979115,-0.191395492928316
-0.276687356808893,-0.192067433196045
-0.272004906314386,-0.192758380211063
-0.267372285236511,-0.193467886661817
-0.262789273752734,-0.194195507664622
-0.258255653409671,-0.194940800727182
-0.253771207057218,-0.195703325713222
-0.249335718784164,-0.196482644808224
-0.244948973855265,-0.197278322486227
-0.240610758649729,-0.198089925477663
-0.236320860601098,-0.198917022738209
-0.232079068138474,-0.199759185418621
-0.227885170629078,-0.200615986835524
-0.22373895832209,-0.201487002443143
-0.219640222293762,-0.20237180980593
-0.215588754393756,-0.203269988572093
-0.211584347192696,-0.204181120447972
-0.207626793930889,-0.205104789173261
-0.203715888468206,-0.20604058049705
-0.199851425235082,-0.206988082154657
-0.196033199184624,-0.207946883845239
-0.192261005745786,-0.208916577210157
-0.18853464077761,-0.209896755812077
-0.18485390052448,-0.210887015114786
-0.181218581572397,-0.211886952463703
-0.177628480806233,-0.212896167067078
-0.174083395367948,-0.213914259977837
-0.17058312261575,-0.214940834076087
-0.167127460084186,-0.215975494052238
-0.16371620544512,-0.217017846390737
-0.160349156469612,-0.218067499354399
-0.157026110990651,-0.219124062969315
-0.153746866866737,-0.220187149010323
-0.150511221946299,-0.221256370987032
-0.147318974032915,-0.222331344130369
-0.144169920851336,-0.223411685379664
-0.141063860014282,-0.224497013370219
-0.138000588990006,-0.225586948421389
-0.1349799050706,-0.226681112525131
-0.132001605341042,-0.227779129335024
-0.129065486648947,-0.228880624155738
-0.12617134557503,-0.229985223932953
-0.123318978404259,-0.2310925572437
-0.120508181097674,-0.23220225428712
-0.117738749264873,-0.233313946875638
-0.115010478137148,-0.234427268426521
-0.112323162541251,-0.235541853953825
-0.109676596873784,-0.23665734006072
-0.107070575076205,-0.237773364932171
-0.104504890610424,-0.238889568327978
-0.101979336434993,-0.240005591576149
-0.0994937049818682,-0.241121077566622
-0.0970477881337355,-0.242235670745296
-0.094641377201893,-0.243349017108382
-0.0922742629046733,-0.244460764197063
-0.0899462353463992,-0.245570561092439
-0.0876570839968622,-0.246678058410776
-0.085406597671312,-0.247782908299014
-0.0831945645109498,-0.248884764430562
-0.0810207719639133,-0.249983282001349
-0.0788850067667466,-0.251078117726122
-0.0767870549263436,-0.252168929835007
-0.0747267017023575,-0.253255378070287
-0.0727037315900667,-0.254337123683432
-0.0707179283036898,-0.255413829432337
-0.068769074760139,-0.25648515957878
-0.0668569530632067,-0.257550779886096
-0.0649813444881742,-0.258610357617045
-0.0631420294668369,-0.259663561531874
-0.0613387875729373,-0.260710061886576
-0.0595713975079977,-0.261749530431324
-0.0578396370875464,-0.262781640409078
-0.0561432832277291,-0.263806066554369
-0.0544821119322984,-0.264822485092241
-0.0528558982799746,-0.265830573737347
-0.0512644164121716,-0.266830011693198
-0.0497074395210791,-0.267820479651558
-0.0481847398380967,-0.268801659791976
-0.0466960886226117,-0.26977323578145
-0.0452412561511154,-0.27073489277422
-0.0438200117066501,-0.271686317411682
-0.0424321235685822,-0.272627197822416
-0.0410773590026941,-0.273557223622331
-0.0397554842515893,-0.274476085914911
-0.038466264525405,-0.27538347729156
-0.0372094639928258,-0.276279091832051
-0.0359848457723929,-0.277162625105051
-0.0347921719241044,-0.278033774168749
-0.0336312034412983,-0.278892237571549
-0.0325017002428164,-0.279737715352852
-0.0314034211654397,-0.280569909043895
-0.0303361239565943,-0.281388521668673
-0.0292995652673181,-0.282193257744907
-0.0282935006454867,-0.282983823285083
-0.0273176845292914,-0.283759925797535
-0.026371870240965,-0.284521274287577
-0.02545580998075,-0.285267579258689
-0.0245692548211047,-0.285998552713729
-0.023711954701142,-0.286713908156191
-0.0228836584212964,-0.287413360591493
-0.0220841136382139,-0.288096626528289
-0.021313066859861,-0.288763423979806
-0.0205702634408473,-0.289413472465203
-0.0198554475779571,-0.290046493010946
-0.0191683623058867,-0.290662208152187
-0.0185087494931808,-0.291260341934162
-0.0178763498383656,-0.291840619913584
-0.0172709028662728,-0.292402769160042
-0.0166921469245509,-0.292946518257392
-0.0161398191803586,-0.293471597305147
-0.0156136556172372,-0.293977737919847
-0.0151133910321564,-0.294464673236425
-0.0146387590327305,-0.294932137909546
-0.0141894920345999,-0.29537986811493
-0.0137653212589734,-0.295807601550648
-0.013365976730329,-0.296215077438389
-0.012991187274267,-0.296602036524697
-0.0126406805155118,-0.296968221082169
-0.0123141828760593,-0.297313374910615
-0.0120114195734648,-0.297637243338183
-0.0117321146192678,-0.297939573222423
-0.0114759908175493,-0.298220112951318
-0.0112427697636181,-0.298478612444254
-0.0110321718428219,-0.298714823152937
-0.0108439162294786,-0.298928498062247
-0.0106777208859253,-0.299119391691039
-0.0105333025616793,-0.299287260092868
-0.0104103767927083,-0.299431860856655
-0.0103086579008055,-0.299552953107273
-0.0102278589930658,-0.299650297506066
-0.0101676919614584,-0.299723656251281
-0.0101278674824934,-0.299772793078428
-0.010108095016977,-0.299797473260551
-0.0101080828098521,-0.299797463608408
-0.0101275378901197,-0.299772532470568
-0.0101661660708388,-0.29972244973341
-0.0102236719491984,-0.299646986821022
-0.0102997589066596,-0.299545916695008
-0.0103941291091636,-0.299419013854184
-0.0105064835074005,-0.299266054334174
-0.0106365218371358,-0.299086815706891
-0.0107839426195911,-0.298881077079909
-0.0109484431618737,-0.298648619095721
-0.0111297195574523,-0.298389223930874
-0.0113274666866738,-0.298102675294985
-0.011541378217318,-0.297788758429633
-0.0117711466051857,-0.297447260107118
-0.0120164630947162,-0.297077968629099
-0.0122770177196296,-0.296680673825086
-0.0125524993035914,-0.296255167050802
-0.0128425954608929,-0.295801241186403
-0.0131469925971451,-0.295318690634554
-0.0134653759099814,-0.294807311318357
-0.013797429389764,-0.294266900679133
-0.0141428358202915,-0.293697257674045
-0.0145012767795017,-0.293098182773572
-0.0148724326401657,-0.292469477958813
-0.0152559825705703,-0.291810946718641
-0.0156516045351822,-0.29112239404668
-0.0160589752952907,-0.290403626438118
-0.0164777704096254,-0.289654451886347
-0.0169076642349415,-0.288874679879424
-0.0173483299265717,-0.288064121396358
-0.0177994394389373,-0.28722258890321
-0.0182606635260153,-0.286349896349004
-0.0187316717417564,-0.285445859161461
-0.019212132440449,-0.284510294242521
-0.019701712777025,-0.283543019963686
-0.0202000787073017,-0.282543856161155
-0.0207068949881553,-0.281512624130753
-0.0212218251776217,-0.280449146622656
-0.0217445316349182,-0.27935324783591
-0.0222746755203822,-0.278224753412722
-0.0228119167953211,-0.277063490432551
-0.0233559142217685,-0.275869287405957
-0.0239063253621414,-0.274641974268242
-0.0244628065787926,-0.273381382372849
-0.0250250130334538,-0.272087344484534
-0.0255925986865626,-0.270759694772297
-0.0261652162964694,-0.269398268802074
-0.0267425174185168,-0.268002903529181
-0.0273241524039872,-0.266573437290508
-0.0279097703989122,-0.265109709796464
-0.0284990193427377,-0.263611562122657
-0.0290915459668388,-0.262078836701315
-0.0296869957928788,-0.260511377312444
-0.0302850131310056,-0.258909029074703
-0.0308852410778793,-0.257271638436017
-0.0314873215145249,-0.255599053163902
-0.0320908951040034,-0.253891122335505
-0.0326956012888942,-0.252147696327356
-0.0333010782885833,-0.250368626804828
-0.0339069630963491,-0.248553766711291
-0.0345128914762398,-0.246702970256968
-0.0351184979597347,-0.244816092907476
-0.0357234158421827,-0.242892991372061
-0.0363272771790106,-0.240933523591502
-0.0369297127816928,-0.238937548725696
-0.0375303522134766,-0.236904927140916
-0.0381288237848535,-0.234835520396723
-0.03872475454877,-0.232729191232546
-0.0393177702955686,-0.230585803553908
-0.0399074955476525,-0.228405222418301
-0.0404935535538637,-0.226187314020703
-0.0410755662835674,-0.223931945678725
-0.0416531544204335,-0.221638985817391
-0.0422259373559061,-0.219308303953536
-0.0427935331823534,-0.216939770679825
-0.0433555586858856,-0.214533257648372
-0.0439116293388355,-0.21208863755397
-0.0444613592918889,-0.209605784116909
-0.0450043613658569,-0.207084572065387
-0.0455402470430792,-0.2045248771175
-0.0460686264584481,-0.201926575962802
-0.0465891083900441,-0.199289546243439
-0.0471013002493704,-0.19661366653483
-0.0476048080711773,-0.193898816325909
-0.0480992365028638,-0.191144875998905
-0.0485841887934469,-0.188351726808652
-0.0490592667820844,-0.185519250861428
-0.0495240708861425,-0.182647331093314
-0.0499782000887926,-0.179735851248057
-0.0504212519261285,-0.176784695854431
-0.0508528224737879,-0.17379375020309
-0.0512725063330675,-0.170762900322901
-0.0516798966165177,-0.167692032956748
-0.0520745849330033,-0.164581035536794
-0.0524561613722155,-0.161429796159195
-0.0528242144886232,-0.158238203558255
-0.0531783312848457,-0.155006147080008
-0.0535180971944358,-0.151733516655221
-0.0538430960640533,-0.148420202771798
-0.0541529101350186,-0.145066096446585
-0.0544471200242257,-0.141671089196559
-0.0547253047044008,-0.138235073009385
-0.0549870414836884,-0.134757940313329
-0.0552319059845494,-0.131239583946528
-0.0554594721219503,-0.12767989712558
-0.0556693120808294,-0.124078773413464
-0.0558609962928179,-0.120436106686758
-0.0560340934121991,-0.116751791102156
-0.0561881702910847,-0.113025721062252
-0.0563227919537891,-0.109257791180598
-0.0564375215703813,-0.105447896245998
-0.0565319204293917,-0.101595931186041
-0.0566055479096543,-0.0977017910298414
-0.0566579614512603,-0.0937653708699857
-0.0566887165256015,-0.0897865658236514
-0.0566973666044793,-0.085765270992896
-0.0566834631282558,-0.0817013814240884
-0.0566465554730215,-0.0775947920664672
-0.0565861909167553,-0.0734453977298068
-0.0565019146044507,-0.0692530930411726
-0.0563932695121798,-0.0650177724007417
-0.0562597964100695,-0.0607393299366735
-0.0561010338241614,-0.0564176594590035
-0.055916517997125,-0.052052654412543
-0.055705782847796,-0.0476442078287579
-0.0554683599295082,-0.0431922122766076
-0.0552037783871868,-0.0386965598123158
-0.0549115649131734,-0.0341571419280524
-0.054591243701745,-0.0295738494994979
-0.054242336402297,-0.0249465727322672
-0.0538643620711518,-0.0202752011071632
-0.0534568371219589,-0.0155596233242346
-0.0530192752746479,-0.0107997272456077
-0.0525511875028952,-0.00599539983706443
-0.0520520819800676,-0.00114652710833607
-0.051521464023599,0.00374700594792071
-0.0509588360377601,0.0086853154184941
-0.0503636974547772,0.0136685185333689
-0.0497355446742567,0.0186967337308938
-0.0490738710008669,0.0237700807243983
-0.048378166580233,0.0288886805702983
-0.0476479183329956,0.0340526557377211
-0.0468826098869808,0.039262130179699
-0.046081721507433,0.0445172294059592
-0.045244730025256,0.0498180805573612
-0.0443711087632071,0.0551648124820164
-0.0434603274599885,0.0605575558131394
-0.042511852192176,0.0659964430486719
-0.0415251452939286,0.0714816086327271
-0.0404996652744122,0.0770131890389031
-0.0394348667328767,0.0825913228555135
-0.0383302002713195,0.0882161508727883
-0.037185112404667,0.0938878161720946
-0.0359990454684041,0.0996064642172354
-0.0347714375235798,0.10537224294788
-0.033501722259111,0.111185302875183
-0.032189328891313,0.117045797179661
-0.0308336820605698,0.12295388181137
-0.0294342017250667,0.128909715592473
-0.0279903030514984,0.134913460322237
-0.0265013963026639,0.140965280884555
-0.0249668867218585,0.14706534535804
-0.023386174413968,0.153213825128778
-0.021758654223168,0.159410895005812
-0.0200837156071276,0.165656733339435
-0.0183607425076151,0.171951522142376
-0.0165891132173973,0.178295447213955
-0.0147682002433192,0.184688698267299
-0.0128973701654539,0.191131469059716
-0.0109759834921999,0.197623957526303
-0.0090033945112042,0.204166365916898
-0.00697895113598472,0.210758900936468
-0.00490199474811774,0.217401773889041
-0.00277186003485798,0.224095200825287
-0.000587874822045985,0.23083940269385
0.00165064009783998,0.237634605496569
0.00394437114264167,0.244481040447671
0.00629401212264357,0.251378944137094
0.00870026442802245,0.258328558698043
0.0111638372217946,0.265330131978924
0.0136854476384331,0.272383917719788
0.0162658209883357,0.279490175733424
0.0189056909683345,0.28664917209126
0.0216057998784366,0.293861179314201
0.0243668988450016,0.301126476568594
0.0271897480505644,0.308445349867459
0.0300751169705171,0.315818092277162
0.0330237846168819,0.32324500412972
0.0360365397894001,0.330726393240901
0.0391141813341888,0.338262575134328
0.0422575184102107,0.345853873271772
0.0454673707638208,0.353500619289846
0.0487445690116624,0.361203153243319
0.0520899549321951,0.368961823855252
0.0555043817661451,0.376776988774217
0.0589887145261855,0.384649014838803
0.0625438303161629,0.392578278349697
0.0661706186601991,0.400565165349563
0.0698699818420083,0.408610071911014
0.0736428352547915,0.416713404432946
