0.200739688175658,-0.0405124857798174
0.175890583264785,-0.0541365390620824
0.15526559895238,-0.0153264046139729
0.237860893729481,0.00177670763927514
0.198424463310505,0.0158761448862604
0.214733575452136,0.0253965967024781
0.23342078222403,0.0228530115413048
0.219528706353812,0.0251812462950959
0.223200562427221,0.0342891017284256
0.238907202503048,0.0192534975237822
0.229700061554156,0.0529906955377263
0.231164450152043,0.0583145730879784
0.236748166075365,0.0975445312753337
0.217364231280661,0.0545861201721633
0.226459439713462,0.088512821910162
0.252819662898404,0.128081773722216
0.233821636144051,0.117797036038724
0.242933882489926,0.12259216439924
0.243544486278926,0.132931685834133
0.243821562515707,0.143339317531112
0.243761434882665,0.153804255784619
0.220320869554462,0.142622502151915
0.254197538206896,0.167953882602808
0.241526374425385,0.185432486179786
0.24008779141064,0.196015512816524
0.248109818028771,0.19010651902603
0.242657343846774,0.20060256284211
0.233665389520608,0.227724457004049
0.218569142831037,0.248730926082973
0.226917036506203,0.242942341974327
0.207047508991919,0.23894433095615
0.22015695080659,0.269470746095756
0.214823226865385,0.292613725214852
0.211286800050114,0.289901678926532
0.206326926884199,0.299964718253971
0.201019865216006,0.309910191677891
0.192568582280971,0.361618356948631
0.192067518827914,0.32562379630427
0.180120563193878,0.337177953429442
0.166813011684771,0.355055316418682
0.164647349311886,0.359223013697837
0.154548946264822,0.348059629536972
0.154411972990065,0.375241881947439
0.144936770694344,0.399864750040261
0.16176402030101,0.404396675207201
0.149148628183708,0.429472362200039
0.139151662646766,0.392072971521802
0.101112556301734,0.408387143437627
0.0914193735671545,0.44671003106462
0.12113334388981,0.418991542902678
0.0824272333953751,0.437061799308533
0.0838162671765705,0.436400755832158
0.0183130436196682,0.464017877563605
0.00218725439143167,0.483761229849891
0.0662874310908651,0.471448990552475
0.0512917632837675,0.479304350862409
0.0260647320306925,0.477186714395621
-0.00211022433988414,0.484760077546141
-0.0258991099101201,0.485075759648656
-0.0644963586492937,0.496830172119684
-0.0471626540315456,0.463048509242453
-0.0575197948983026,0.504712074165653
-0.0408203494387419,0.470161078766828
-0.0674454526218207,0.495368232337482
-0.0892499170197993,0.490355669874959
-0.1167385527685,0.507735250736801
-0.105848463305045,0.499850460498617
-0.105358366323641,0.493074303377888
-0.103570687613083,0.495261385394823
-0.144990694727943,0.500634312097811
-0.171181766858785,0.507179303505707
-0.164795668579335,0.50490409308129
-0.154712962996434,0.473049623377197
-0.197706893303214,0.495760351447393
-0.212981516972478,0.462623606921019
-0.224042366937141,0.490746140285296
-0.260804112326355,0.452594064250263
-0.270059984831371,0.521335038114798
-0.265657238116873,0.484681005634935
-0.236495859653786,0.489711796252793
-0.288908282523239,0.47065161062751
-0.301600421868713,0.465342839719341
-0.269641826770894,0.439028668018775
-0.307173835433695,0.448558164168312
-0.319653304642506,0.471000818417005
-0.350955827790527,0.439880534357033
-0.359027647827098,0.440209780788944
-0.374587373446005,0.424663467803843
-0.386092630311428,0.416449392532827
-0.362569680301927,0.395818282640227
-0.409313954849866,0.388303813930986
-0.413483943403162,0.401084611904918
-0.430132143883997,0.387859517631992
-0.437063204798101,0.34485082972344
-0.449921782414237,0.359070420148748
-0.467557221447976,0.32249137974336
-0.461939888808086,0.381438452854987
-0.477905380733724,0.325512776234396
-0.469469920234358,0.273808472191257
-0.515956681229974,0.318849228815286
-0.520599051686394,0.280229586027653
-0.510398107729178,0.276266604667284
-0.501522229397294,0.300432632499122
-0.5480304512853,0.267381785506236
-0.547942371333607,0.24764768029027
-0.565409169579808,0.165428175441939
-0.542284205605553,0.208449470237154
-0.555459343933574,0.187621428717922
-0.552072364106186,0.179687712682665
-0.549764924071566,0.1580624375053
-0.560063404892202,0.150151165579239
-0.582008695680008,0.151690015234737
-0.566198478735656,0.119952854191017
-0.56855358547687,0.104642056930477
-0.536828595574359,0.100464704213292
-0.571810105740972,0.0736723961032494
-0.57270141963354,0.0580442949081705
-0.573095519162605,0.042341527940727
-0.554497751269846,0.0299688229159085
-0.627576590108373,0.0158873259134164
-0.561518941369719,0.0150457204528751
-0.596130527298931,-0.023067202018277
-0.566882460650807,-0.0510782710715659
-0.564840954746849,-0.0525437792054443
-0.558003303577935,-0.0475036082059452
-0.557999169800217,-0.0840337865362974
-0.528065128979656,-0.093179151593007
-0.561795121922229,-0.111157595512134
-0.551795827865835,-0.132723788702714
-0.524855013437594,-0.13460184457336
-0.517293931525559,-0.178004534499731
-0.525218825474761,-0.176222328417296
-0.51507387794184,-0.238653995355691
-0.510269083756823,-0.205745435573538
-0.50934666505866,-0.205909993488842
-0.493758408265236,-0.24451724446252
-0.481010687044606,-0.240757662323807
-0.477400878579982,-0.268511471385502
-0.436827149113256,-0.293019248815896
-0.453857764005372,-0.288851580888859
-0.442838686249872,-0.301737991670865
-0.430329839436249,-0.297681179266162
-0.428679634619179,-0.311335737479516
-0.411270820861369,-0.318914204395211
-0.435429016282283,-0.343589444348718
-0.35976639111883,-0.381404997811358
-0.368173673119027,-0.37297743384106
-0.35390111774238,-0.382243870037401
-0.360039220766985,-0.37750163315509
-0.283349966311624,-0.433876420453536
-0.290730003396056,-0.415885132831999
-0.294766837575821,-0.419400653486701
-0.279163149140505,-0.427556252554996
-0.242718288510106,-0.459905359105386
-0.21166067757357,-0.459865874701314
-0.234450208223946,-0.468436946795042
-0.203795908228534,-0.447292033439149
-0.200215711673584,-0.455645902071462
-0.189582895013455,-0.4781293298316
-0.162372562186547,-0.470725344662278
-0.15329774661576,-0.495283792065361
-0.113700482271555,-0.467589957498461
-0.109138571822228,-0.481263699813346
-0.132928336856392,-0.478274873000758
-0.0729265547635477,-0.48548408277849
-0.0546570348764582,-0.486735304465207
-0.0109413293208355,-0.478017883243892
0.0214582364388171,-0.479582269046266
0.00058651944179143,-0.486998748560612
-0.0047297186444952,-0.508188086946467
0.0407730934861914,-0.45629444454417
0.0560910259318994,-0.481959449811405
0.0862936906840645,-0.476450717890671
0.110590146150729,-0.468634957043138
0.0919125889275288,-0.458237455741961
0.129616925953151,-0.466919159225752
0.147784670798485,-0.461674047951668
0.153979455950462,-0.481561211622317
0.178750169281154,-0.430134810744286
0.20146680977602,-0.442404176840631
0.219023163709725,-0.434813565848784
0.210765954704953,-0.411199346821672
0.256246838748875,-0.424630642397905
0.263542848974083,-0.417901199288254
0.287052979853186,-0.398738972717644
0.327825584142856,-0.387709921465993
0.319488667798905,-0.377361510089598
0.311616627973211,-0.422825543884629
0.377956602019467,-0.369558349160621
0.352327584320064,-0.334510109029691
0.380120191223142,-0.375553011185615
0.399633544814508,-0.280764830216243
0.400881887323791,-0.294263859708046
0.421448110242156,-0.299754854744795
0.435350793622301,-0.271171283456313
0.468531001262651,-0.265771492371458
0.460170386486476,-0.239887745753282
0.483005511461418,-0.237938813780324
0.484117248016985,-0.208423495970439
0.493782636914862,-0.189830868197641
0.500402600115488,-0.158144966030558
0.533700578190093,-0.151763461675227
0.523883612695685,-0.136867456303337
0.557583739460508,-0.120951688650047
0.539239670940544,-0.0990678486567057
0.534177406079947,-0.104662729474393
0.552029676854144,-0.0388261422092904
0.571221726668904,-0.0302694841962359
0.556226782868999,-0.0334995441860892
0.599456712222086,0.0123239120551314
0.558929285087121,0.007720303317967
0.589583675502075,0.0350420031361272
0.54214233919161,0.0736404496719147
0.584994980802934,0.0520423576762064
0.579376519565189,0.0884931986025017
0.61806812135731,0.109183163406662
0.587009029065491,0.144208050118372
0.607947230460557,0.182207649877897
0.585260976779452,0.170220148526234
0.570130282513182,0.234284648462858
0.582016136304219,0.228885005336087
0.57334383752439,0.256686066510436
0.585584369824673,0.239941928500946
0.575317011977306,0.277451017946171
0.566193828155764,0.31310501198668
0.539611470454145,0.327555565725056
0.56022061929385,0.335595594281849
0.538137662333116,0.358294802100846
0.579936424984524,0.378932253075946
0.522610223281468,0.408142270572243
0.522290441884867,0.435532222442193
0.512666285168487,0.45520303371206
0.502398241063681,0.474607080992502
0.479217611948063,0.479223144724797
0.485629145724537,0.500650389380645
0.470242266764775,0.539399812181473
0.452758830245123,0.531967370572866
0.441678715006656,0.566895119732119
0.459129012591642,0.578682130995617
0.439319675983686,0.603348591005646
0.415943541237965,0.615643873746094
0.379568440594378,0.65330256925086
0.383795614667904,0.634932253914664
0.344827594394533,0.654514718360312
0.343430919130412,0.706436243590506
0.324420844293869,0.716678584713882
0.317955672298321,0.71288274727469
0.27766773379171,0.719919370185196
0.256313923339891,0.725282064532149
0.257176084366002,0.733927446738813
0.205231324334846,0.763326201751305
0.19864568780413,0.766171763970384
0.166599971367757,0.746851408382266
0.156803371203669,0.785595114731675
0.131200133912444,0.774261259222599
0.127829385761521,0.792110187484766
0.0565955733907802,0.78306499279336
0.0796673943612973,0.802292011666482
0.0684264386112084,0.83065854947525
0.0366668211207975,0.806836686550882
-0.00165803032877984,0.82666987447199
-0.0176729291081413,0.863469630482939
-0.014441936643896,0.841041890073176
-0.0912384209214217,0.794733534221177
-0.0929107631356061,0.843547034188991
-0.116641150377894,0.844467817064352
-0.147476012074594,0.87121701940801
-0.164293061842454,0.844051902015386
-0.228972196776342,0.840287483954412
-0.212040182611558,0.8406058327533
-0.224514029231143,0.865925484073313
-0.25968917787124,0.834116097756156
-0.307403718912331,0.859836922596023
-0.307045398940723,0.824581560481135
-0.385603844010657,0.831769537830614
-0.389272120660988,0.758996992915347
-0.377107793856025,0.799452381834762
-0.400099130050399,0.79643602334352
-0.414682073027596,0.770334528942805
-0.466522723362999,0.769008397670931
-0.480127433593317,0.758999279053959
-0.489236755485594,0.768038274388054
-0.51587924614506,0.772540613263481
-0.582131687919048,0.701765289526889
-0.521178534211256,0.681465342642832
-0.57417023698785,0.704946280187042
-0.609148671472922,0.678864430391358
-0.61408485201962,0.675116134587006
-0.625858377806787,0.676844873577227
-0.63149178656644,0.652640431947136
-0.670526532134899,0.625518439076797
-0.662740561792851,0.640039182617959
-0.69710184746509,0.570735170455244
-0.743946014426696,0.572804528506404
-0.734691897800598,0.535148898722207
-0.754064045195565,0.53088185482841
-0.741879309210825,0.505096826187501
-0.783340060986078,0.489221719762784
-0.786271421915056,0.445685406472735
-0.810036645744833,0.445607989536686
-0.822376570940268,0.42311826381786
-0.796687814520436,0.323455072713964
-0.84496292728755,0.376877374838054
-0.870757722465467,0.357977302560288
-0.864663198454044,0.329099621146722
-0.8733980595447,0.304690623791856
-0.875632518369245,0.28058765921398
-0.888577407390107,0.254948719912543
-0.895000149144374,0.229663585753075
-0.900631686594056,0.20413481376543
-0.912845651366018,0.178294241718971
-0.896542833154179,0.146223675343622
-0.91269316108556,0.126336308322802
-0.915077909991422,0.100084145296508
-0.934472395792568,0.0888831539768989
-0.921096166159403,0.0609170334029023
-0.910287145308763,0.0500763220727114
-0.916289149471752,-0.00582800240179068
-0.914491373855904,-0.0323996665627463
-0.91184885015904,-0.0589553571618893
-0.9283123057324,-0.0924142543536478
-0.931869016296639,-0.114962582619984
-0.897311509403238,-0.118438042663574
-0.894073355107134,-0.169020953984356
-0.864694701674383,-0.206178229688185
-0.879997861493256,-0.183556723421268
-0.869742144416409,-0.242133735610547
-0.904524788479175,-0.240306740516676
-0.850209936245984,-0.292790874015277
-0.830748882580038,-0.302459831906334
-0.827424114947275,-0.342310039825791
-0.81483125828736,-0.366577288982944
-0.801450885455731,-0.390481780327988
-0.78729338190624,-0.413997940533272
-0.78076432261418,-0.416752279225371
-0.776561998450314,-0.488848312911681
-0.740274354375713,-0.481965291112476
-0.762070348134821,-0.445505719563925
-0.699274017518123,-0.520104344714344
-0.686713773869325,-0.545548421484709
-0.683772843225017,-0.56841904607909
-0.63565610545018,-0.591596075024833
-0.629129237172511,-0.591379756071724
-0.605842853956491,-0.62242059192601
-0.589428155840935,-0.647178270072288
-0.549322648277303,-0.656393471104063
-0.538721283977735,-0.673387113882862
-0.515220813313983,-0.688994676707683
-0.488963639955914,-0.734217172782799
-0.484802264597638,-0.737978982904515
-0.427491624809495,-0.735519406898785
-0.416165320310138,-0.744031215518262
-0.390253457040217,-0.755858192217485
-0.34800164937716,-0.775375742738851
-0.337221481084675,-0.77708645508817
-0.337151001782454,-0.784338030511612
-0.257254093570859,-0.813335782569001
-0.255034667961672,-0.802663733108894
-0.22935815883186,-0.815087016514811
-0.210169581069431,-0.80866864764685
-0.170315900451044,-0.820444968340316
-0.138344402552863,-0.809707685196387
-0.124812870900847,-0.850730100435978
-0.0670885333245174,-0.845754626992223
-0.0547054240597151,-0.831603782744586
-0.0129600228826132,-0.82375509187665
-0.0264565274144282,-0.796467359407137
0.00148457853515035,-0.816458112407497
0.0622596624417728,-0.828070401964889
0.0819442084582375,-0.85990276761501
0.116389867863852,-0.829439459924398
0.156320623882599,-0.79319254674395
0.178705952430554,-0.809682520561433
0.240921821044401,-0.819488642232792
0.21622288173512,-0.83275039534834
0.279933264283019,-0.804900146201555
0.292740987475482,-0.776517458274262
0.282604790618357,-0.769016570148217
0.393670509683908,-0.780816223232854
0.413582950663998,-0.753436848319404
0.399551236909855,-0.728963492551858
0.413432889992206,-0.750177663309073
0.467108507588293,-0.677691123674245
0.510692397897174,-0.646729232062925
0.506096857114885,-0.667372252985456
0.518547392232384,-0.639718920524776
0.541584501142349,-0.585305301041246
0.578718375589099,-0.612578219469503
0.605380205892283,-0.609038750972726
0.613428374927183,-0.587103125038768
0.617840243622753,-0.535162542300853
0.667418063806185,-0.528777596457323
0.691331206758475,-0.510381889224193
0.676759100955074,-0.484884525788095
0.725558430198373,-0.467750987586707
0.747687911331415,-0.426278169526995
0.798233670371262,-0.391971971059654
0.780345660177909,-0.371643425626597
0.813033594970103,-0.384183014437562
0.842607339392062,-0.365298639073316
