0.906900544105992,-0.507294241072282
0.9052850726505,-0.506094631065392
0.900661599372241,-0.502241986472557
0.893408963408927,-0.495399880598276
0.883957339617756,-0.485297753440088
0.872777344542996,-0.471738043426554
0.860368155449297,-0.454601520302559
0.847244936667634,-0.433850686750667
0.833925884628509,-0.409531164122412
0.820919212379045,-0.381771027533294
0.808710395863766,-0.350778106315337
0.797749997756526,-0.316835316165936
0.788442370323796,-0.280294138035256
0.781135517031554,-0.241566404651691
0.776112363917922,-0.201114597460728
0.773583656851532,-0.159440893611005
0.773682660545087,-0.117075233550049
0.776461790590752,-0.0745627040258935
0.781891261932757,-0.0324505482297407
0.789859787276924,0.00872487596009181
0.800177308192204,0.0484508673898495
0.812579691341311,0.0862505671456223
0.826735273631537,0.121694257119647
0.842253094306571,0.154409492524031
0.858692610238339,0.184089818103669
0.875574653958001,0.210501852847796
0.892393363196028,0.233490568372299
0.908628786644109,0.252982630843498
0.923759853901936,0.268987724232477
0.937277388544187,0.281597822641349
0.948696842160602,0.290984430192983
0.957570434111873,0.29739385726777
0.963498396435555,0.301140650460393
0.96613904546581,0.302599339313936
0.965217430750974,0.302194704537416
0.960532347045442,0.300390808995332
0.951961535646428,0.297679063368803
0.939464946139605,0.294565622269779
0.923085977602036,0.291558423151687
0.902950668298765,0.289154189191877
0.87926485366381,0.287825718204779
0.852309362621255,0.288009772557923
0.822433370833693,0.290095870181344
0.790046075062434,0.294416254452556
0.755606894358435,0.301237291556463
0.719614440246792,0.310752508584259
0.682594528519234,0.32307744502224
0.645087528954607,0.338246445395299
0.607635365660372,0.356211472781736
0.570768489363378,0.376842972894705
0.534993143662033,0.399932767669226
0.500779239967461,0.425198907058079
0.468549140788669,0.452292359268382
0.438667628529115,0.480805374162691
0.41143330761588,0.510281313130257
0.387071652304111,0.540225702430547
0.365729871766566,0.570118236720824
0.347473719098841,0.599425435951879
0.332286322758483,0.627613642633379
0.320069068901042,0.654162038033035
0.310644512317217,0.678575355390842
0.303761243468418,0.700395975712882
0.299100590705995,0.719215106973478
0.296284991339937,0.734682770222128
0.294887823920149,0.746516345601638
0.294444457929476,0.754507466906063
0.294464246957424,0.758527094159795
0.294443168072724,0.758528638771601
0.293876794119216,0.754549063994146
0.292273277418966,0.746707933508321
0.289166023082777,0.735204431713141
0.284125737808603,0.72031242947977
0.27677155550249,0.702373717480747
0.266780963902325,0.681789574536185
0.253898286056413,0.659010879605764
0.237941506272457,0.634527012079576
0.218807271122891,0.6088538149908
0.196473941255799,0.582520918947187
0.171002617999226,0.556058740382917
0.14253611886677,0.529985475776454
0.111295926833685,0.504794413564616
0.0775771883990831,0.480941877605941
0.0417418837403015,0.458836100402705
0.00421033750501812,0.438827301267645
-0.0345487201442486,0.421199214788364
-0.0740292967363565,0.406162279037886
-0.113700209644087,0.393848651892292
-0.153017788883572,0.384309178562723
-0.191438896647523,0.377512385149111
-0.228433941813448,0.373345522872045
-0.263499567784311,0.371617636878364
-0.296170700094523,0.372064583401447
-0.326031656048896,0.374355870829057
-0.352726041864414,0.378103155083346
-0.375965192780223,0.382870178766665
-0.395534947647784,0.388183907786424
-0.41130059071871,0.393546589526999
-0.423209838692671,0.398448433820103
-0.431293799449863,0.402380602541896
-0.43566587907497,0.404848186016942
-0.436518664540658,0.405382844725356
-0.43411885950205,0.4035548030822
-0.428800398820176,0.398983898082681
-0.420955912489939,0.39134940898652
-0.41102675048182,0.380398424371318
-0.399491815605769,0.36595253907165
-0.386855480989606,0.347912714842484
-0.373634891403204,0.326262184019719
-0.360346962893378,0.301067323872904
-0.347495402646028,0.272476479557174
-0.335558070477005,0.240716764330639
-0.324974994884422,0.206088915753685
-0.316137340382119,0.168960334689389
-0.309377599277989,0.129756478889112
-0.304961250744924,0.0889508236615709
-0.303080093706279,0.0470536375798151
-0.303847418621192,0.00459985050106296
-0.307295137733006,-0.0378636863662183
-0.313372944863182,-0.0797912335711304
-0.321949525593047,-0.120651167674921
-0.332815787919885,-0.159938635336534
-0.34569003345826,-0.197187544580704
-0.3602249412198,-0.231981597003038
-0.376016191133736,-0.263964088399912
-0.392612513876767,-0.292846235787794
-0.40952691826878,-0.318413825242316
-0.426248818334575,-0.340532016539903
-0.442256759852478,-0.359148186195585
-0.457031431359957,-0.374292739031125
-0.47006863753166,-0.386077868676542
-0.480891913761133,-0.394694298161577
-0.489064469641354,-0.400406081735548
-0.494200165631707,-0.403543597027645
-0.495973251109518,-0.404494901437663
-0.494126622641171,-0.403695667121563
-0.488478397912894,-0.40161794410529
-0.478926642428727,-0.3987580300538
-0.465452131781889,-0.395623747322726
-0.448119080904838,-0.392721442580566
-0.42707382200007,-0.390543031147055
-0.402541463603598,-0.38955340707866
-0.374820613180057,-0.390178530972579
-0.344276293556621,-0.392794490680404
-0.311331228186742,-0.397717806037008
-0.276455710588416,-0.405197217915248
-0.24015630832667,-0.415407165174882
-0.202963680739391,-0.428443111293857
-0.16541981152621,-0.444318836685835
-0.128064971789366,-0.462965764052474
-0.0914247357752604,-0.484234333796638
-0.0559973702510386,-0.507897395778682
-0.0222419091944448,-0.533655533788054
0.00943279149346651,-0.561144191261719
0.0386777488045203,-0.589942422193309
0.0652120574738903,-0.619583050945789
0.0888294022501424,-0.649563989801498
0.10940271686361,-0.679360434419642
0.126886874842286,-0.70843763563229
0.141319346036507,-0.736263931733381
0.152818803062086,-0.762323718954628
0.161581712610257,-0.786130039337463
0.167876996446142,-0.807236474663601
0.172038894691321,-0.825248052264763
0.174458208478183,-0.839830892969734
0.175572139173017,-0.850720362559746
0.175852976098715,-0.857727525121042
0.175795913186973,-0.860743738690494
0.175906296548669,-0.859743279546684
0.176686619036217,-0.854783930267794
0.178623584134549,-0.846005517051939
0.182175559803019,-0.833626432528852
0.187760733241297,-0.817938230128485
0.195746260207096,-0.799298423778891
0.206438677901556,-0.778121671102141
0.220075819168334,-0.754869558264377
0.236820428598772,-0.730039239224803
0.256755639017382,-0.70415121046262
0.279882420781521,-0.677736523639386
0.306119067505936,-0.651323752548056
0.335302731425036,-0.625426036765122
0.367192970880434,-0.600528522508954
0.401477222623889,-0.577076511362682
0.437778063988398,-0.555464609987791
0.475662085681974,-0.536027149168517
0.514650156095565,-0.51903010910081
0.554228823575303,-0.504664750550635
0.593862574942037,-0.49304310927752
0.633006647344966,-0.484195464995623
0.671120076835712,-0.478069847267537
0.707678661183362,-0.474533590305168
0.742187516565091,-0.47337689793508
0.774192917808575,-0.474318330227737
0.803293129583111,-0.477012075722537
0.829147960897536,-0.481056828980444
0.851486806847156,-0.486006053457326
0.870114978977198,-0.491379375397148
0.884918167970742,-0.496674826443587
0.895864928576889,-0.501381631654466
0.903007125626581,-0.504993226095581
0.906478330428083,-0.507020177523367
