0.79086394385505,-0.829087628749396
0.79076262434941,-0.828980970693408
0.790471702498913,-0.828647859148073
0.790010728635478,-0.828068670557231
0.789399208235263,-0.8272239304279
0.788656553812556,-0.826094361935111
0.787802037127444,-0.824660934183606
0.786854741815033,-0.822904910017374
0.785833516542984,-0.820807893269044
0.784756928802965,-0.818351875342336
0.783643219440143,-0.815519281022267
0.782510258023184,-0.81229301340949
0.781375499155329,-0.808656497877081
0.780255939824966,-0.80459372495026
0.779168077891795,-0.80008929201188
0.778127871802104,-0.795128443739171
0.777150701623908,-0.789697111179971
0.776251331489728,-0.783781949379757
0.775443873531621,-0.777370373473934
0.774741753389709,-0.770450593163317
0.774157677371907,-0.763011645494264
0.773703601338866,-0.755043425868723
0.773390701384212,-0.746536717213369
0.773229346376199,-0.737483217241111
0.773229072422636,-0.727875563742461
0.773398559316687,-0.717707357848667
0.773745609016649,-0.706973185212999
0.774277126208277,-0.695668635061217
0.774999100993519,-0.683790317066972
0.77591659374477,-0.671335876012764
0.777033722158875,-0.658304004201954
0.778353650540189,-0.644694451592381
0.77987858133698,-0.630508033627177
0.781609748950401,-0.615746636743493
0.783547415830181,-0.600413221545045
0.785690870866019,-0.584511823629554
0.788038430078521,-0.568047552067397
0.790587439608371,-0.551026585533007
0.793334280997255,-0.533456166095794
0.7962743787489,-0.515344590682542
0.799402210153503,-0.496701200228474
0.802711317353709,-0.477536366539259
0.806194321625281,-0.457861476891391
0.809842939840638,-0.437688916403376
0.813648003078506,-0.417032048215122
0.817599477338143,-0.395905191517841
0.821686486311846,-0.374323597481529
0.825897336164826,-0.352303423131781
0.830219542267044,-0.329861703232291
0.83463985781718,-0.307016320233782
0.8391443042947,-0.283785972354475
0.843718203671827,-0.260190139861323
0.848346212313291,-0.236249049625273
0.853012356487939,-0.211983638027665
0.857700069412643,-0.187415512298518
0.862392229745487,-0.162566910371015
0.86707120144199,-0.137460659339727
0.871718874884986,-0.112120132613295
0.876316709195975,-0.0865692058551608
0.880845775633039,-0.0608322118086581
0.885286801977987,-0.0349338941052527
0.889620217813164,-0.00889936015699999
0.893826200586309,0.0172459667636792
0.897884722360099,0.0434763961519845
0.901775597141423,0.0697660194999811
0.90547852868413,0.0960887600192674
0.9089731586579,0.122418422748117
0.912239115075035,0.148728744933289
0.915256060866372,0.174993446576091
0.918003742497148,0.2011862810319
0.920462038513544,0.227281085552227
0.922611007910733,0.253251831658545
0.924430938213662,0.279072675237445
0.925902393162379,0.304718006247343
0.927006259894589,0.330162497927764
0.927723795519212,0.355381155403403
0.928036672976039,0.380349363576438
0.927927026078162,0.405042934202204
0.927377493635639,0.429438152045114
0.926371262560876,0.453511820013795
0.924892109858472,0.477241303176627
0.922924443404708,0.500604571561418
0.920453341424551,0.523580241645599
0.917464590576936,0.546147616446284
0.91394472256214,0.568286724122598
0.909881049168353,0.589978355006055
0.905261695678015,0.611204096978186
0.900075632558097,0.63194636911836
0.894312705362342,0.652188453548548
0.887963662777414,0.671914525405809
0.881020182749053,0.691109680877427
0.873474896628561,0.709759963237956
0.865321411284378,0.727852386831859
0.856554329127976,0.745374958950009
0.847169266007985,0.762316699552976
0.837162866931148,0.778667658798868
0.826532819573566,0.794418932338314
0.815277865550589,0.809562674344189
0.803397809418682,0.8240921082487
0.790893525387659,0.838001535165547
0.777766961726729,0.851286339980028
0.764021142852972,0.86394299509516
0.749660169095965,0.875969061827047
0.734689214137482,0.887363189448023
0.719114520130347,0.898125111881262
0.702943390505673,0.908255642055828
0.686184180482868,0.917756663936274
0.668846285301901,0.926631122246131
0.650940126202374,0.934883009909707
0.632477134178977,0.942517353241709
0.613469731547813,0.949540194919199
0.593931311363001,0.955958574775319
0.573876214727689,0.96178050845906
0.553319706048343,0.967014964010101
0.532277946285716,0.97167183640234
0.510767964260378,0.975761920114295
0.488807626075007,0.97929687978889
0.466415602719831,0.982289219049412
0.443611335931654,0.984752247542487
0.420415002380786,0.986700046282877
0.396847476263902,0.988147431378662
0.372930290384432,0.989109916218943
0.348685595805403,0.989603672209617
0.324136120162872,0.989645488146011
0.299305124731042,0.989252728314127
0.274216360332937,0.988443289415116
0.248894022193084,0.987235556410156
0.223362703830982,0.985648357385323
0.197647350096306,0.983700917538168
0.171773209448662,0.981412812389694
0.145765785586414,0.978803920327065
0.119650788530549,0.975894374583916
0.0934540852707339,0.972704514766296
0.0672016500817186,0.969254838033297
0.0409195146189439,0.965565950042161
0.0146337179027291,0.961658515768143
-0.0116297436993766,0.957553210309661
-0.0378449663824592,0.953270669789279
-0.0639861885969657,0.94883144246081
-0.0900278404154261,0.944255940132346
-0.115944592465014,0.939564390014287
-0.141711404318779,0.934776787100459
-0.167303572239598,0.92991284718919
-0.192696776172296,0.924991960649769
-0.217867125881136,0.920033147037997
-0.242791206131707,0.915055010662627
-0.267446120818424,0.910075697202345
-0.291809535941195,0.90511285147055
-0.315859721337344,0.900183576422612
-0.339575591077711,0.895304393497486
-0.362936742438769,0.890491204382536
-0.385923493365816,0.885759254287235
-0.408516918345642,0.881123096807997
-0.430698882610614,0.876596560462816
-0.452452074599856,0.872192716970639
-0.473760036607073,0.867923851346453
-0.494607193548603,0.863801433879023
-0.514978879789486,0.859836094053933
-0.53486136396966,0.856037596480262
-0.554241871776825,0.852414818874678
-0.573108606617138,0.848975732152156
-0.591450768139537,0.845727382667745
-0.6092585685743,0.842675876649023
-0.626523246851314,0.839826366853929
-0.643237080468441,0.837183041483674
-0.659393395085437,0.834749115375369
-0.674986571823878,0.832526823493895
-0.69001205225871,0.830517416737361
-0.704466341092141,0.828721160065324
-0.718347006505782,0.827137332953714
-0.731652678192077,0.82576423217519
-0.744383043071277,0.82459917689843
-0.756538838705306,0.823638516094665
-0.768121844425047,0.822877638234562
-0.779134870192614,0.822310983253443
-0.789581743225266,0.821932056757725
-0.799467292412553,0.821733446440433
-0.808797330563215,0.821706840668678
-0.817578634523187,0.821843049201121
-0.825818923210785,0.82213202598865
-0.833526833619768,0.822562894006829
-0.840711894845531,0.823123972064107
-0.847384500194014,0.823802803525337
-0.85355587743724,0.824586186885853
-0.859238057283449,0.8254602081272
-0.864443840133813,0.826410274781582
-0.869186761201482,0.827421151628295
-0.873481054072363,0.828476997941692
-0.877341612790501,0.829561406206767
-0.880783952554172,0.830657442215138
-0.883824169111909,0.831747686451091
-0.886478896950544,0.832814276674438
-0.888765266370024,0.833838951604261
-0.890700859542226,0.834803095605108
-0.892303665653243,0.835687784274958
-0.893592035230624,0.836473830832225
-0.894584633758854,0.837141833197255
-0.895300394687934,0.837672221662214
-0.895758471941225,0.838045307041904
-0.895978192029849,0.838241329196942
-0.895979005881756,0.838240505819915
-0.895780440494216,0.838023081374459
-0.895402050518821,0.837569376076891
-0.894863369888256,0.836859834809866
-0.89418386359393,0.835875075857684
-0.89338287972324,0.834595939353238
-0.892479601864602,0.833003535327191
-0.891493001987545,0.831079291250876
-0.890441793904098,0.828804998965475
-0.889344387416339,0.826162860891416
-0.888218843253452,0.82313553541348
-0.887082828899817,0.819706181338945
-0.885953575413675,0.815858501328135
-0.884847835333642,0.811576784199013
-0.883781841767902,0.806845946009943
-0.88277126875826,0.801651569827464
-0.881831193008314,0.795979944088811
-0.880976057061996,0.789818099472054
-0.880219634015405,0.783153844190033
-0.87957499384146,0.77597579762774
-0.879054471403215,0.768273422246516
-0.878669636227941,0.760037053682242
-0.878431264110069,0.751257928968743
-0.878349310607006,0.741928212821763
-0.878432886487582,0.732041021923202
-0.878690235188481,0.721590447149743
-0.87912871232951,0.710571573694552
-0.879754767333943,0.698980499035447
-0.880573927195431,0.686814348707692
-0.881590782428156,0.674071289844486
-0.882808975232011,0.660750542453138
-0.884231189899614,0.646852388400021
-0.885859145486904,0.632378178082428
-0.88769359076403,0.617330334770646
-0.889734301458091,0.601712356608737
-0.891980079794139,0.585528816267719
-0.894428756335728,0.568785358250071
-0.897077194121087,0.551488693849725
-0.899921295085878,0.533646593776899
-0.902956008758343,0.515267878462362
-0.906175343207548,0.496362406060863
-0.909572378220381,0.476941058178579
-0.91313928067794,0.457015723354534
-0.916867322097026,0.436599278330901
-0.920746898297571,0.415705567152062
-0.924767551152081,0.394349378137122
-0.928917992368477,0.372546418775291
-0.933186129253156,0.350313288598225
-0.937559092396635,0.32766745008787
-0.942023265219842,0.304627197682762
-0.9465643153149,0.281211624949968
-0.951167227510254,0.257440589993939
-0.955816338586066,0.233334679177458
-0.960495373562144,0.208915169233672
-0.965187483477067,0.184203987851728
-0.969875284573877,0.159223672821981
-0.974540898804481,0.133997329829926
-0.979165995561962,0.108548588991029
-0.983731834547236,0.0829015602214354
-0.988219309673893,0.0570807875421467
-0.992608993912752,0.0311112024165976
-0.996881184975515,0.00501807622376721
-1.00101595173499,-0.0211730280291443
-1.00499318127769,-0.047436304648731
-1.00879262648324,-0.0737457547448981
-1.01239395402364,-0.10007523615944
-1.01577679267465,-0.126398513724288
-1.01892078183079,-0.152689309739276
-1.02180562011488,-0.178921354558801
-1.02441111397292,-0.205068437176466
-1.02671722614499,-0.231104455696872
-1.02870412390324,-0.257003467583869
-1.03035222694843,-0.28273973957517
-1.03164225485718,-0.3082877971539
-1.03255527397332,-0.333622473468665
-1.03307274363739,-0.358718957594964
-1.03317656165062,-0.383552842032185
-1.03284910887044,-0.408100169332169
-1.03207329283739,-0.43233747775723
-1.03083259033471,-0.456241845867697
-1.02911108878466,-0.479790935941385
-1.02689352638817,-0.502963036130058
-1.02416533091692,-0.5257371012607
-1.02091265707025,-0.548092792192452
-1.01712242231226,-0.570010513643282
-1.01278234110798,-0.591471450403858
-1.00788095748097,-0.612457601859676
-1.00240767581824,-0.632951814746251
-0.996352789852786,-0.652937814066149
-0.989707509757421,-0.672400232100656
-0.982463987288296,-0.691324635453193
-0.974615338920553,-0.709697550065917
-0.96615566692312,-0.72750648415546
-0.957080078324195,-0.744739949018413
-0.947384701723649,-0.761387477661874
-0.937066701913401,-0.777439641219212
-0.926124292271626,-0.792888063116173
-0.914556744901653,-0.807725430957384
-0.9023643984914,-0.821945506108439
-0.889548663874264,-0.835543130953855
-0.876112027277486,-0.848514233816351
-0.862058051249158,-0.860855831528104
-0.847391373260201,-0.872566029649872
-0.832117701982813,-0.883644020339078
-0.81624381125203,-0.894090077873192
-0.799777531722235,-0.903905551839967
-0.782727740235546,-0.913092858011247
-0.76510434692409,-0.921655466922238
-0.746918280073268,-0.929597890183215
-0.728181468778023,-0.936925664555691
-0.708906823429082,-0.943645333830017
-0.689108214070941,-0.949764428546302
-0.66880044667814,-0.955291443605292
-0.647999237400911,-0.960235813820568
-0.626721184835935,-0.96460788746797
-0.604983740382206,-0.968418897892598
-0.582805176746347,-0.971680933238082
-0.560204554665787,-0.974406904366939
-0.537201687922217,-0.976610511044876
-0.513817106721504,-0.978306206465724
-0.490072019519904,-0.979509160197399
-0.465988273379853,-0.980235219632742
-0.441588312941901,-0.980500870032432
-0.416895138102425,-0.980323193250275
-0.391932260489617,-0.97971982523407
-0.36672365883296,-0.978708912397982
-0.341293733323812,-0.977309066964831
-0.315667259067007,-0.975539321378972
-0.289869338725367,-0.973419081892502
-0.263925354460833,-0.970968081429333
-0.237860919277485,-0.968206331833273
-0.211701827873039,-0.965154075607566
-0.185474007106511,-0.961831737254504
-0.159203466190579,-0.958259874324533
-0.132916246717782,-0.954459128284931
-0.106638372630092,-0.950450175318489
-0.0803958002414614,-0.946253677162774
-0.0542143684228828,-0.941890232100407
-0.0281197490590952,-0.937380326210444
-0.00213739788548875,-0.932744284990333
0.0237074941871389,-0.928002225457035
0.0493900491533086,-0.92317400883486
0.0748857492938867,-0.91827919393615
0.100170483753613,-0.913336991339438
0.125220594213283,-0.908366218467845
0.150012919556664,-0.90338525566848
0.174524839434454,-0.898412003391322
0.198734316630174,-0.893463840563568
0.222619938135357,-0.888557584252777
0.246160954844504,-0.883709450709166
0.269337319783136,-0.878935017874385
0.292129724785713,-0.87424918944071
0.314519635543536,-0.869666160541181
0.336489324946435,-0.86519938514748
0.358021904645825,-0.860861545248543
0.379101354770683,-0.856664521878866
0.39971255173213,-0.85261936806133
0.419841294056513,-0.848736283725051
0.439474326191338,-0.845024592654324
0.458599360232862,-0.841492721520177
0.47720509552884,-0.838148181041353
0.495281236114573,-0.834997549316779
0.512818505945347,-0.832046457366678
0.529808661893125,-0.829299576914547
0.54624450448045,-0.826760610437163
0.562119886329499,-0.824432283504714
0.577429718309281,-0.822316339427996
0.592169973369215,-0.820413536224425
0.606337688052317,-0.818723645909449
0.619930961686551,-0.817245456114671
0.632948953257911,-0.81597677402881
0.645391875974111,-0.814914432652402
0.65726098953277,-0.814054299351937
0.668558590113183,-0.813391286693988
0.679287998115772,-0.812919365534739
0.689453543678349,-0.812631580335297
0.699060550003277,-0.81252006666813
0.708115314534455,-0.812576070875091
0.716625088027861,-0.812789971832622
0.724598051564048,-0.813151304775043
0.732043291555599,-0.813648787122161
0.738970772806948,-0.814270346252958
0.745391309688365,-0.815003149162753
0.751316535490034,-0.81583363393697
0.756758870026247,-0.816747542970584
0.761731485563576,-0.817729957858395
0.766248271150645,-0.818765335877497
0.770323795430647,-0.81983754797976
0.773973268021107,-0.820929918208712
0.777212499548618,-0.82202526445203
0.780057860429185,-0.82310594043782
0.782526238487651,-0.824153878880076
0.784634995512214,-0.82515063567609
0.786401922842417,-0.826077435056263
0.787845196091099,-0.826915215584539
0.788983329102748,-0.827644676905832
0.789835127252334,-0.828246327135072
0.790419640190172,-0.828700530781062
0.79075611413958,-0.828987557097106
0.79086394385505,-0.829087628749396
