-0.880884603611876,0.899782510993325
-0.870921116333643,0.896747813890424
-0.860634397960193,0.894487090069042
-0.85014598984606,0.892709310100389
-0.83950111621965,0.891306185069873
-0.828726819837568,0.890212961395979
-0.817841931315508,0.88938454937776
-0.806860690878176,0.888786850954698
-0.795794446205475,0.888392694232806
-0.784652573780709,0.88817962732655
-0.773443029897827,0.888128598978086
-0.762172704045858,0.888223112382159
-0.750847657869441,0.88844865299774
-0.739473293616275,0.888792285202479
-0.728054476934014,0.889242358256898
-0.716595628903951,0.889788285930756
-0.705100796642687,0.890420377448124
-0.693573708547582,0.891129705202769
-0.682017818271861,0.891907999460254
-0.670436340254289,0.892747563282521
-0.658832278804107,0.893641202884325
-0.647208452188432,0.894582169956238
-0.635567512788638,0.895564113400399
-0.623911964124962,0.896581038565303
-0.612244175357175,0.897627272524082
-0.600566393729981,0.898697434274161
-0.588880755328805,0.899786408982617
-0.57718929443458,0.900889325586266
-0.565493951707538,0.902001537195648
-0.553796581385133,0.903118603859694
-0.542098957644298,0.904236277331367
-0.530402780250944,0.90535048754
-0.518709679597971,0.906457330527828
-0.507021221215852,0.907553057649455
-0.495338909825956,0.908634065866209
-0.483664192995594,0.90969688899418
-0.471998464444593,0.910738189786659
-0.460343067045723,0.911754752749656
-0.448699295555071,0.912743477604047
-0.437068399103338,0.913701373320185
-0.42545158347473,0.914625552661127
-0.413850013196501,0.915513227179252
-0.402264813459164,0.91636170261832
-0.390697071884849,0.917168374679176
-0.379147840159032,0.917930725112582
-0.367618135539058,0.91864631810708
-0.356108942251227,0.919312796943681
-0.344621212786862,0.919927880892454
-0.333155869106565,0.920489362328935
-0.321713803760856,0.920995104050775
-0.310295880934478,0.921443036777174
-0.298902937420859,0.921831156815522
-0.287535783532568,0.922157523881338
-0.276195203952968,0.922420259058989
-0.264881958533761,0.922617542891985
-0.253596783042637,0.922747613592729
-0.242340389864857,0.922808765362595
-0.231113468662192,0.922799346814106
-0.219916686992347,0.922717759487716
-0.208750690891714,0.922562456456437
-0.197616105423996,0.922331941012146
-0.186513535197077,0.922024765427952
-0.175443564850252,0.921639529791532
-0.164406759513772,0.921174880904754
-0.153403665242488,0.920629511245315
-0.142434809425227,0.920002157986508
-0.131500701171386,0.91929160207151
-0.120601831676131,0.918496667338931
-0.109738674565449,0.917616219696585
-0.0989116862222192,0.91664916634072
-0.0881213060943617,0.91559445501815
-0.077367956986063,0.914451073328927
-0.0666520453329663,0.913218048067403
-0.055973961462173,0.91189444459965
-0.0453340798378251,0.910479366275423
-0.0347327592929783,0.90897195387294
-0.0241703432484292,0.907371385074903
-0.0136471599190994,0.905676873974313
-0.00316352250854354,0.903887670608724
0.00728027060790076,0.902003060521691
0.0176839357108414,0.900022364350268
0.028047203574993,0.897944937437488
0.0383698193173616,0.895770169468842
0.0486515422550751,0.893497484131855
0.0588921457725086,0.891126338797921
0.0690914171973867,0.888656224225628
0.0792491576855637,0.88608666428487
0.0893651821142121,0.883417215701085
0.0994393189831726,0.880647467819038
0.109471410324236,0.8777770423856
0.119461311618153,0.874805593351027
0.129408891719185,0.8717328066883
0.139314032787026,0.86855840023011
0.149176630225949,0.865282123523145
0.158996592631038,0.861903757699343
0.168773841741389,0.85842311536384
0.178508312400192,0.854840040499369
0.18819995252158,0.851154408386903
0.197848723064206,0.847366125542369
0.20745459801147,0.8434751296693
0.217017564358356,0.839481389627335
0.226537622104864,0.835384905416472
0.23601478425601,0.831185708177075
0.245449076828394,0.82688386020561
0.254840538863363,0.822479454986149
0.264189222446783,0.817972617237721
0.273495192735467,0.813363502977593
0.282758527990315,0.808652299600626
0.291979319616246,0.803839225974885
0.301157672208986,0.798924532553681
0.310293703608841,0.793908501504323
0.319387544961549,0.78879144685383
0.328439340786361,0.783573714651946
0.337449249051484,0.778255683151799
0.346417441257079,0.772837763008626
0.355344102525973,0.767320397496988
0.364229431702311,0.761704062746991
0.37307364145837,0.755989268000047
0.381876958409773,0.750176555884762
0.390639623239393,0.744266502713611
0.399361890830225,0.738259718801102
0.408044030407552,0.732156848804204
0.416686325690768,0.725958572085862
0.42528907505521,0.71966560310252
0.433852591704433,0.713278691816626
0.442377203853358,0.706798624135178
0.450863254922782,0.700226222375474
0.459311103745761,0.693562345759296
0.467721124786436,0.68680789093689
0.476093708371909,0.67996379254218
0.484429260937824,0.673031023780819
0.492728205288365,0.666010597052753
0.500990980871456,0.658903564611169
0.509218044069973,0.651711019259816
0.517409868509904,0.644434095090883
0.525566945386414,0.637073968265759
0.533689783808902,0.629631857841266
0.541778911166194,0.622109026644113
0.549834873513141,0.614506782196602
0.557858235979994,0.606826477696865
0.565849583206048,0.599069513057225
0.573809519799186,0.591237336004572
0.581738670823114,0.583331443247031
0.58963768231422,0.575353381711589
0.597507221830212,0.567304749857792
0.60534797903286,0.559187199073118
0.613160666307425,0.55100243515619
0.620946019421597,0.542752219894607
0.628704798227078,0.53443837274486
0.636437787407231,0.526062772622581
0.644145797274625,0.517627359812251
0.651829664622688,0.50913413800648
0.659490253636162,0.500585176486068
0.667128456865569,0.491982612453364
0.67474519627151,0.483328653532831
0.682341424345308,0.474625580454403
0.689918125313263,0.465875749937065
0.69747631643272,0.457081597792278
0.705017049389155,0.448245642269279
0.712541411804697,0.439370487667223
0.720050528869862,0.43045882824235
0.727545565111901,0.421513452442281
0.73502772631502,0.412537247503958
0.742498261609922,0.40353320445703
0.749958465752693,0.39450442358062
0.757409681616103,0.385454120368717
0.764853302919979,0.376385632068032
0.772290777231632,0.367302424862474
0.779723609272431,0.358208101790716
0.787153364572848,0.349106411498151
0.794581673525786,0.340001257942547
0.802010235897152,0.330896711194569
0.809440825863882,0.321797019501256
0.816875297663429,0.312706622813676
0.824315591956025,0.303630168021289
0.831763743022602,0.294572526187279
0.839221886948588,0.285538812144568
0.846692270978683,0.276534406895734
0.854177264272662,0.267564983367642
0.861679370350758,0.258636536211797
0.869201241594349,0.249755416526063
0.876745696270548,0.240928372619864
0.884315738688599,0.232162598278448
0.891914583287266,0.223465790439872
0.899545683719774,0.214846218838573
0.907212768383483,0.206312811080784
0.914919884394994,0.197875257942433
0.9226714528356,0.189544145653763
0.930472339352954,0.181331124954251
0.938327946194757,0.173249131466247
0.946244335005648,0.16531267973078
0.954228395274653,0.157538266553104
0.962288083295724,0.149944943191065
0.970432775552164,0.142555161530196
0.978673819723876,0.135396093464484
0.987025456035566,0.128501837054447
0.995506515102928,0.121917482001032
1.00414403968257,0.115707781885754
1.01298325400289,0.109981025623204
1.02214569941843,0.105028242642175
-0.880884603611876,0.899782510993325
-0.871722158196338,0.894829728012296
-0.862882943876017,0.889102971749747
-0.854245419296378,0.882893271634468
-0.845764360229016,0.876308916581053
-0.837412723917325,0.869414660171016
-0.829171679745613,0.862255592105304
-0.821026987489174,0.854865810444435
-0.812967299468103,0.847272487082396
-0.804983239199097,0.83949807390472
-0.797066850388207,0.831561622169253
-0.789211243546404,0.823479628681249
-0.78141035702905,0.815266607981737
-0.773658788588444,0.806935495693067
-0.765951672576932,0.798497942554716
-0.758284587913224,0.789964534796927
-0.750653487480716,0.781344963195628
-0.743054642882049,0.772648155357052
-0.735484600463998,0.763882381015636
-0.727940145787798,0.755055337109438
-0.720418274544208,0.746174217423703
-0.712916168466112,0.737245770267858
-0.705431175172133,0.728276346739766
-0.697960791142038,0.719271941490931
-0.690502647216052,0.710238227448221
-0.683054496149475,0.70118058561421
-0.675614201856878,0.692104130821824
-0.668179730057332,0.683013734134244
-0.660749140090602,0.673914042440931
-0.653320577719235,0.664809495692953
-0.645892268766298,0.655704342137349
-0.638462513465881,0.646602651844784
-0.631029681425082,0.637508328773026
-0.623592207113429,0.628425121567468
-0.616148585809553,0.619356633266783
-0.608697369946143,0.61030633005488
-0.601237165803372,0.60127754917847
-0.59376663050847,0.592273506131542
-0.58628446930535,0.583297301193219
-0.578789433063312,0.57435192539315
-0.571280315998147,0.565440265968277
-0.563755953582605,0.556565111366221
-0.556215220626169,0.547729155843222
-0.548657029506713,0.538935003698435
-0.541080328538758,0.530185173181097
-0.53348410046496,0.521482100102669
-0.525867361059019,0.512828141182136
-0.518229157829612,0.504225577149432
-0.510568568816138,0.49567661562902
-0.502884701468074,0.487183393823249
-0.495176691600681,0.478747981012919
-0.487443702420528,0.47037238089064
-0.479684923615047,0.462058533740893
-0.471899570500875,0.45380831847931
-0.46408688322631,0.445623554562382
-0.456246126023662,0.437506003777708
-0.44837658650767,0.429457371923911
-0.440477575016564,0.421479310388469
-0.432548423992636,0.413573417630928
-0.424588487399498,0.405741240578275
-0.416597140173444,0.397984275938635
-0.408573777706591,0.390303971438898
-0.400517815359644,0.382701726991387
-0.392428688002352,0.375178895794234
-0.384305849579864,0.367736785369741
-0.376148772703354,0.360376658544617
-0.367956948263423,0.353099734375684
-0.359729885064906,0.345907189024332
-0.351467109481815,0.338800156582747
-0.343168165131273,0.33177972985468
-0.334832612565359,0.32484696109332
-0.326460028979886,0.318002862698611
-0.318050007939211,0.311248407876204
-0.309602159116232,0.304584531260026
-0.301116108046808,0.298012129500322
-0.292591495897883,0.291532061818874
-0.28402797924866,0.28514515053298
-0.275425229884218,0.278852181549638
-0.266782934601002,0.272653904831296
-0.258100795023674,0.266551034834398
-0.249378527432843,0.260544250921889
-0.240615862603223,0.254634197750738
-0.23181254565182,0.248821485635453
-0.222968335895761,0.243106690888509
-0.214083006719423,0.237490356138512
-0.205156345450529,0.231972990626874
-0.196188153244934,0.2265550704837
-0.187178244979811,0.221237038983555
-0.178126449154999,0.21601930678167
-0.169032607802291,0.210902252131177
-0.159896576402436,0.205886221081819
-0.150718223809696,0.200971527660615
-0.141497432183765,0.196158454034874
-0.132234096928917,0.191447250657907
-0.122928126640233,0.186838136397779
-0.113579443056813,0.18233129864935
-0.104187981021843,0.17792689342989
-0.0947536884494594,0.173625045458424
-0.0852765262983142,0.169425848219028
-0.0757564685518059,0.165329364008165
-0.0661935022049198,0.1613356239662
-0.0565876272576561,0.157444628093131
-0.0469388567150297,0.153656345248597
-0.0372472165936416,0.149970713136131
-0.0275127459348391,0.14638763827166
-0.0177354968244876,0.142906995936157
-0.00791553441939917,0.139528630112355
0.00194706301952402,0.13625235340539
0.0118522040873655,0.1330779469472
0.0217997841883975,0.130005160284473
0.0317896854823145,0.1270337112499
0.0418217768233776,0.124163285816462
0.0518959136923379,0.121393537934415
0.0620119381209865,0.11872408935063
0.0721696786091635,0.116154529409872
0.0823689500340417,0.113684414837579
0.0926095535514751,0.111313269503645
0.102891276489189,0.109040584166658
0.113213892231557,0.106865816198011
0.123577160095709,0.104788389285232
0.13398082519865,0.102807693113809
0.144424618315094,0.100923083026776
0.15490825572565,0.0991338796611868
0.165431439054979,0.0974393685605973
0.175993855099529,0.0958387997625603
0.186595175644375,0.094331387360077
0.197235057268723,0.0929163090358502
0.207913141139516,0.0915927055680968
0.218629052792613,0.0903596803065724
0.229382401900912,0.0892162986173504
0.240172782028769,0.0881615872947799
0.250999770372,0.087194533938915
0.261862927482681,0.0863140862965687
0.272761796977936,0.0855191515639897
0.283695905231777,0.0848085956489921
0.294664761049038,0.084181242390185
0.305667855320322,0.0836358727307465
0.316704660656802,0.083171223843968
0.327774631003627,0.0827859882075483
0.338877201230546,0.082478812623354
0.350011786698264,0.0822482971790626
0.361177782798898,0.0820929941477844
0.372374564468742,0.0820114068213943
0.383601485671408,0.0820019882729049
0.394857878849187,0.082063140042771
0.406143054340311,0.0821932107435145
0.417456299759519,0.0823904945765111
0.428796879339118,0.0826532297541623
0.440164033227409,0.0829795968199781
0.451556976741028,0.0833677168583265
0.462974899567406,0.0838156495847248
0.474416964913115,0.0843213913065652
0.485882308593412,0.084882872743046
0.497370038057778,0.0854979566918186
0.508879231345608,0.0861644355284201
0.520408935965582,0.0868800285229179
0.531958167691399,0.087642378956324
0.543525909265715,0.0884490510171805
0.555111109003051,0.0892975264562476
0.566712679281281,0.0901852009743731
0.578329494909888,0.091109380315315
0.589960391361621,0.0920672760314528
0.601604162852274,0.0930560008858441
0.613259560251143,0.0940725638488413
0.624925288802144,0.0951138646413199
0.636600005632507,0.0961766877692914
0.648282317022402,0.0972576959860453
0.659970775404521,0.098353423107672
0.671663876057494,0.0994602660954996
0.683360053450848,0.100574476304133
0.695057677191683,0.101692149775806
0.706755047514088,0.102809216439852
0.71845039024113,0.103921428049234
0.730141851135356,0.105024344652883
0.741827489536531,0.106113319361339
0.753505271163726,0.107183481111418
0.765173059931512,0.108229715070197
0.776828608595188,0.109246640235101
0.788469547994982,0.110228583679262
0.800093374610658,0.111169550751175
0.811697436060839,0.112063190352979
0.823278914078412,0.112902754175246
0.834834804354132,0.113681048432731
0.846361892449237,0.114390376187376
0.857856724710501,0.115022467704744
0.869315572740565,0.115568395378601
0.880734389422825,0.116018468433021
0.892108753675991,0.11636210063776
0.903433799852408,0.116587641253341
0.914704125704378,0.116682154657414
0.925913669587259,0.11663112630895
0.937055542012026,0.116418059402694
0.948121786684726,0.116023902680802
0.959103027122058,0.11542620425774
0.969987915644118,0.114597792239521
0.9807622120262,0.113504568565627
0.99140708565261,0.112101443535111
1.00189549376674,0.110323663566458
1.01218221214019,0.108062939745076
1.02214569941843,0.105028242642175
