-0.299223387915875,-0.539740591260095
-0.299150385641422,-0.539657016374752
-0.29892059785407,-0.539415161873225
-0.298517915404674,-0.539028335266647
-0.297926344243946,-0.538509820828389
-0.297130045300338,-0.537872846871541
-0.296113374078212,-0.537130553238014
-0.294860919886849,-0.536295959072538
-0.293357544611719,-0.535381930954186
-0.291588420940399,-0.534401151457244
-0.289539069956738,-0.533366088212237
-0.287195398018264,-0.532288963536826
-0.28454373283342,-0.531181724704954
-0.281570858656968,-0.530056014921202
-0.278264050523872,-0.528923145065703
-0.274611107444088,-0.527794066273239
-0.270600384483005,-0.526679343408227
-0.266220823654748,-0.525589129495324
-0.261461983558188,-0.524533141163181
-0.256314067688304,-0.523520635156624
-0.250767951358475,-0.522560385970118
-0.244815207172372,-0.52166066465284
-0.23844812898736,-0.52082921883307
-0.231659754314628,-0.52007325400683
-0.224443885104809,-0.519399416132899
-0.216795106871382,-0.518813775573353
-0.208708806107877,-0.518321812415778
-0.200181185958709,-0.517928403210182
-0.191209280107316,-0.517637809150474
-0.18179096484929,-0.517453665727086
-0.171924969322202,-0.51737897387407
-0.161610883867919,-0.517416092630572
-0.15084916650741,-0.517566733333249
-0.139641147512184,-0.5178319553527
-0.127989032060801,-0.518212163383551
-0.115895900973108,-0.518707106294309
-0.10336570951918,-0.519315877539636
-0.0904032843041974,-0.520036917134137
-0.0770143182348133,-0.520868015183285
-0.063205363576797,-0.521806316963584
-0.0489838231180401,-0.522848329540603
-0.0343579394551919,-0.523989929910043
-0.0193367824264011,-0.525226374643601
-0.00393023471675524,-0.526552311017974
0.0118510243329084,-0.527961789602057
0.0279955366791426,-0.529448278274078
0.0444910852523845,-0.531004677637204
0.0613247153143515,-0.532623337799021
0.0784827574501505,-0.53429607647721
0.0959508521452621,-0.536014198390761
0.113713975894028,-0.537768515893173
0.131756468782853,-0.539549370801296
0.150062063488047,-0.541346657370778
0.168613915625081,-0.543149846366495
0.187394635382996,-0.544948010173876
0.206386320374873,-0.546729848894694
0.225570589632521,-0.548483717368655
0.244928618671011,-0.550197653060062
0.264441175546287,-0.551859404746837
0.284088657826877,-0.5534564619474
0.303851130398663,-0.554976085019223
0.323708364019844,-0.556405335861352
0.343639874541514,-0.557731109151825
0.363624962707821,-0.558940164049704
0.38364275444835,-0.560019156290358
0.403672241574293,-0.560954670601751
0.423692322789047,-0.561733253368766
0.443681844923193,-0.562341445471963
0.463619644303289,-0.562765815226839
0.483484588163617,-0.562992991349337
0.503255616009913,-0.563009695873315
0.522911780844235,-0.562802776945759
0.542432290160381,-0.562359241425779
0.561796546619835,-0.561666287213831
0.58098418831888,-0.560711335238204
0.599975128558437,-0.559482061026553
0.618749595029306,-0.557966425791157
0.637288168326746,-0.556152706957644
0.65557181970987,-0.554029528068171
0.673581948022961,-0.551585887991376
0.691300415697703,-0.548811189373008
0.708709583757362,-0.545695266262752
0.725792345746153,-0.542228410854638
0.742532160509444,-0.538401399280346
0.758913083752975,-0.53420551639684
0.774919798312012,-0.529632579511962
0.790537643064191,-0.524674960993998
0.805752640422864,-0.519325609713678
0.820551522350876,-0.513578071269668
0.83492175483802,-0.507426506951323
0.848851560788813,-0.500865711395229
0.862329941270795,-0.493891128895015
0.875346695077173,-0.486498868326868
0.887892436561398,-0.478685716656255
0.8999586117051,-0.470449150994537
0.91153751238474,-0.461787349177342
0.922622288806332,-0.452699198839876
0.933206960081682,-0.443184304967677
0.943286422923697,-0.433242995904706
0.952856458442524,-0.422876327804092
0.961913737028494,-0.412086087510328
0.970455821312093,-0.400874793865167
0.978481167195464,-0.389245697433019
0.98598912295424,-0.377202778645103
0.992979926412772,-0.364750744365187
0.999454700200136,-0.351895022883215
1.00541544509854,-0.338641757346617
1.01086503149999,-0.324997797642615
1.01580718899133,-0.31097069074822
1.0202464940918,-0.29656866956808
1.02418835617162,-0.281800640283664
1.02763900158374,-0.266676168240597
1.03060545604537,-0.251205462404211
1.03309552530931,-0.235399358416557
1.0351177741692,-0.219269300291231
1.03668150384652,-0.202827320785421
1.03779672781048,-0.186086020491483
1.03847414608571,-0.169058545693252
1.03872511810595,-0.151758565035002
1.03856163417503,-0.134200245053627
1.03799628559967,-0.116398224627161
1.03704223356149,-0.0983675883951263
1.0357131767985,-0.0801238392085292
1.0340233181688,-0.0616828696694534
1.03198733017194,-0.0430609328222394
1.02962031950551,-0.0242746120601244
1.02693779073665,-0.0053407903129602
1.02395560917035,0.0137233814167724
1.02068996299784,0.0329005161009823
1.01715732481035,0.0521730232460527
1.01337441256446,0.0715231418948892
1.00935815008694,0.0909329739988335
1.00512562720754,0.110384518086533
1.00069405960943,0.129859703156195
0.996080748487212,0.149340422717149
0.991303040103,0.168808568906317
0.986378285331433,0.188246066605028
0.981323799284138,0.207634907481602
0.976156821104255,0.226957183885298
0.970894474021101,0.246195122517574
0.965553725754458,0.265331117807056
0.960151349357213,0.284347764915326
0.954703884584012,0.303227892301422
0.949227599872463,0.321954593773953
0.943738455021963,0.340511259960847
0.938252064653718,0.358881609128083
0.932783662533685,0.377049717280156
0.927348066838275,0.395000047476693
0.921959646440506,0.412717478301302
0.916632288291979,0.430187331420706
0.91137936597362,0.447395398174168
0.906213709485461,0.46432796513543
0.901147576342969,0.480971838591622
0.896192624044492,0.497314367886075
0.891359883971294,0.513343467574417
0.886659736778437,0.529047638346066
0.88210188933144,0.544415986665896
0.87769535324013,0.55943824309376
0.873448425037551,0.574104779242483
0.869368668048085,0.58840662333794
0.865462895985149,0.602335474347985
0.86173715831495,0.61588371465016
0.858196727418817,0.62904442121137
0.854846087582592,0.641811375256019
0.851688925837461,0.654179070402463
0.848728124672459,0.666142719251058
0.845965756634663,0.677698258410508
0.84340308082888,0.6888423519527
0.841040541324357,0.699572393289709
0.838877767471766,0.709886505470175
0.836913576129431,0.719783539895738
0.835145975793484,0.729263073461772
0.833572172622367,0.738325404130138
0.832188578341843,0.746971544945157
0.830990820012458,0.755203216507487
0.829973751637229,0.763022837923998
0.829131467583198,0.770433516255129
0.828457317786416,0.777439034484561
0.827943924705932,0.784043838039301
0.82758320198843,0.790253019891523
0.827366374801317,0.79607230427662
0.827284001788328,0.801508029065049
0.827325998598064,0.806567126828476
0.827481662932356,0.811257104643686
0.827739701057915,0.815586022680471
0.828088255721488,0.819562471622453
0.828514935405526,0.823195548972347
0.829006844858403,0.826494834295663
0.829550616830359,0.829470363459206
0.830132444943587,0.832132601922921
0.830738117622399,0.834492417145771
0.831353053006956,0.836561050168264
0.831962334771876,0.838350086436067
0.832550748768984,0.839871425930842
0.833102820411594,0.841137252675936
0.833602852716065,0.842160003685951
0.834034964914867,0.842952337430438
0.834383131554108,0.843527101883029
0.834631221987377,0.843897302228204
0.834763040176843,0.844076068298676
0.834762364711857,0.844076621816904
0.834612988954804,0.843912243514715
0.834298761223633,0.84359624020522
0.833803624920422,0.843141911881335
0.833111658515394,0.842562518915103
0.832207115296171,0.841871249431791
0.83107446279249,0.841081186932317
0.829698421787363,0.840205278236982
0.828064004826549,0.839256301822742
0.826156554139313,0.838246836625379
0.823961778884742,0.837189231376819
0.821465791639391,0.836095574546696
0.818655144043689,0.83497766495583
0.815516861526414,0.833846983127797
0.812038477028587,0.832714663443098
0.808208063650348,0.831591467158608
0.804014266146758,0.830487756353038
0.79944633120106,0.829413468857065
0.794494136406602,0.828378094224534
0.789148217891525,0.827390650798831
0.783399796523326,0.826459663926023
0.777240802633559,0.825593145363793
0.770663899206231,0.824798573932517
0.763662503476864,0.824082877452007
0.75623080689274,0.823452416004579
0.748363793388465,0.822912966562106
0.74005725593477,0.822469709011647
0.73130781132229,0.822127213611115
0.722112913145992,0.821889429903204
0.712470862959931,0.821759677112549
0.702380819576083,0.821740636047727
0.691842806485156,0.821834342526354
0.68085771738142,0.822042182338085
0.669427319777866,0.82236488775689
0.657554256702228,0.82280253561047
0.645242046468683,0.823354546911223
0.632495080524337,0.82401968804959
0.619318619373884,0.824796073547193
0.605718786590125,0.825681170363576
0.591702560922264,0.826671803746943
0.577277766518189,0.827764164615779
0.56245306128108,0.828953818454808
0.547237923384934,0.830235715705339
0.531642635977591,0.831604203626699
0.515678270103996,0.833053039602127
0.499356665886313,0.83457540585928
0.482690412001432,0.836163925572294
0.465692823500222,0.837810680309261
0.448377918016521,0.839507228785936
0.430760390417518,0.841244626883567
0.412855585950602,0.84301344888588
0.394679471945127,0.844803809887518
0.376248608130769,0.846605389323588
0.357580115637228,0.848407455567448
0.33869164474298,0.850198891541463
0.319601341443555,0.851968221283158
0.300327812912472,0.853703637407068
0.280890091930431,0.855393029400529
0.261307600360649,0.857024012689801
0.241600111750367,0.858583958411161
0.221787713140517,0.860060023819987
0.20189076616728,0.861439183269444
0.181929867540881,0.862708259689069
0.161925808988322,0.863853956492398
0.141899536747991,0.864862889841843
0.12187211070506,0.865721621198155
0.101864663257403,0.866416690081191
0.0818983580023651,0.866934646968192
0.0619943483351255,0.86726208625545
0.0421737360495906,0.867385679209083
0.0224575300327477,0.867292206830648
0.00286660514323367,0.866968592563462
-0.0165783386355679,0.866401934765873
-0.035856816678171,0.865579538878193
-0.0549485997464511,0.864488949210688
-0.0738337534780301,0.863117980280815
-0.0924926772468508,0.861454747628933
-0.110906142310634,0.859487698042795
-0.12905532916148,0.857205639122479
-0.146921863997646,0.854597768118851
-0.164487854236489,0.851653699980227
-0.181735922990687,0.848363494543711
-0.198649242432165,0.844717682809502
-0.21521156597062,0.84070729223855
-0.231407259176158,0.836323871016075
-0.247221329378401,0.83155951122574
-0.262639453877278,0.826406870881716
-0.277648006703894,0.820859194768387
-0.292234083873031,0.814910334040073
-0.306385527072216,0.808554764535929
-0.320090945735753,0.801787603768013
-0.333339737455742,0.794604626543445
-0.346122106685744,0.787002279184646
-0.358429081696623,0.778977692314724
-0.370252529747918,0.770528692178273
-0.381585170442108,0.761653810471119
-0.392420587233154,0.752352292655821
-0.402753237064818,0.742624104743147
-0.412578458118405,0.732469938523111
-0.421892475653794,0.721891215232629
-0.430692405931847,0.710890087650311
-0.438976258210568,0.699469440612414
-0.446742934811649,0.687632889947491
-0.453992229258354,0.675384779830768
-0.460724822489944,0.662730178562809
-0.466942277162165,0.649674872780552
-0.472647030047536,0.636225360112239
-0.477842382553433,0.622388840291255
-0.482532489380106,0.608173204747332
-0.486722345344943,0.593587024696912
-0.490417770403347,0.578639537757853
-0.493625392900588,0.563340633116915
-0.496352631092946,0.547700835281689
-0.498607672980296,0.531731286451776
-0.50039945449602,0.515443727547117
-0.501737636103802,0.498850477934332
-0.502632577854377,0.481964413894846
-0.503095312958744,0.464798945881353
-0.503137519937621,0.447367994611919
-0.502771493410094,0.429685966053532
-0.502010113587419,0.411767725349454
-0.500866814540826,0.39362856974703
-0.499355551314841,0.375284200584856
-0.497490765960274,0.3567506944003
-0.495287352563322,0.338044473220311
-0.492760621349547,0.319182274100293
-0.489926261943446,0.300181117977475
-0.486800305866261,0.28105827790674
-0.483399088356324,0.261831246748256
-0.479739209597714,0.242517704377451
-0.47583749544434,0.223135484488967
-0.471710957727615,0.203702541067112
-0.467376754236852,0.184236914596061
-0.462852148462168,0.164756698083671
-0.458154469190229,0.145280002973144
-0.453301070043448,0.125824925017063
-0.448309289053388,0.10640951018838
-0.443196408358964,0.0870517207028592
-0.437979614119808,0.0677694012272484
-0.432675956734606,0.0485802453470069
-0.427302311453528,0.029501762366848
-0.421875339472987,0.0105512445166585
-0.416411449599835,-0.00825426536564722
-0.410926760570834,-0.026898005603713
-0.405437064111747,-0.0453635268354822
-0.399957788818709,-0.0636347224811108
-0.394503964942709,-0.0816958584595883
-0.389090190155943,-0.0995316020893572
-0.383730596376604,-0.117127050109914
-0.378438817726288,-0.134467755763467
-0.37322795969164,-0.151539754877688
-0.368110569559151,-0.168329590892943
-0.363098608189168,-0.184824338779623
-0.358203423192139,-0.201011627793768
-0.353435723567002,-0.216879663021679
-0.348805555858307,-0.232417245666965
-0.344322281885256,-0.247613792036261
-0.339994558092337,-0.262459351182709
-0.335830316567551,-0.276944621169354
-0.331836747770515,-0.291060963917601
-0.328020285008875,-0.3048004186091
-0.324386590697538,-0.318155713612573
-0.320940544431221,-0.331120276910457
-0.317686232896781,-0.343688245003497
-0.314626941647613,-0.355854470274878
-0.311765148758254,-0.367614526798869
-0.309102520373124,-0.378964714582415
-0.306639908159045,-0.389902062231641
-0.304377348666951,-0.400424328038658
-0.302314064603892,-0.410529999487674
-0.300448468012154,-0.420218291182824
-0.298778165348057,-0.429489141203737
-0.297299964448701,-0.438343205898268
-0.296009883370724,-0.446781853125389
-0.294903161080914,-0.454807153964579
-0.293974269974381,-0.462421872911549
-0.293216930191884,-0.469629456583446
-0.292624125703863,-0.476434020960016
-0.292188122124793,-0.482840337190449
-0.291900486217557,-0.488853815998827
-0.291752107043762,-0.494480490724184
-0.291733218712238,-0.499726999034255
-0.291833424674332,-0.504600563354895
-0.292041723511201,-0.509108970060024
-0.292346536154888,-0.513260547469707
-0.292735734481792,-0.517064142706594
-0.293196671214043,-0.520529097463508
-0.293716211061366,-0.52366522273736
-0.294280763033195,-0.526482772586861
-0.29487631384822,-0.528992416973681
-0.295488462366036,-0.531205213748699
-0.296102454963283,-0.53313257984692
-0.296703221774538,-0.534786261756329
-0.297275413716261,-0.536178305327608
-0.297803440210348,-0.537321024993062
-0.298271507522249,-0.538226972464399
-0.298663657627214,-0.538908904980169
-0.298963807517061,-0.539379753174635
-0.299155788858828,-0.539652588640693
-0.299223387915875,-0.539740591260095
