-0.387302695874695,-0.782863420575603
-0.361756500560452,-0.850458412767463
-0.466839568932864,-0.928974531678093
-0.488952311692207,-0.958069347743497
-0.484956082660736,-0.947326804583401
-0.484824903637229,-0.947366855691221
-0.475113860304323,-0.951199503806608
-0.484554427794752,-0.947448947025754
-0.501280902704172,-0.920951345437481
-0.50953674517232,-0.928025338743775
-0.484127363141293,-0.947577251490382
-0.483979017696368,-0.947621451430683
-0.499987390321066,-0.994207436181408
-0.482424232309574,-0.928767429562883
-0.512602319159778,-0.962169292710555
-0.48786729598425,-0.922161521803252
-0.492753832011287,-0.932762231808969
-0.483020343999813,-0.947902685391585
-0.474950126684203,-0.936690233039619
-0.482672507542524,-0.948002902645355
-0.482492852256812,-0.948054296641046
-0.457445851104499,-0.971783035305308
-0.492592495600254,-0.931811966599763
-0.48192966371791,-0.948213822906675
-0.450254579936133,-0.949929424795848
-0.481532886361772,-0.948324802904052
-0.481327742505918,-0.948381736086725
-0.494653511485565,-0.93901785690342
-0.480903304515933,-0.948498582958462
-0.448544348107209,-0.920695111895364
-0.430911551364421,-0.975562296594955
-0.468788095806877,-0.896479257978342
-0.457470262367945,-0.916728789105311
-0.505343426112371,-0.944477144156716
-0.48507868580519,-0.930825235419779
-0.509830200303091,-0.947759082737925
-0.586705109320637,-1.05899326252531
-0.489034317305512,-0.924346368653111
-0.478460295004054,-0.949147661061137
-0.478182679215276,-0.949219021594881
-0.47789826746162,-0.949291645508259
-0.496036905329028,-0.957726099939661
-0.4864681923175,-0.915781567909107
-0.477002154919286,-0.949517335110451
-0.47161644202704,-0.932810958069676
-0.355402642911665,-0.83569977646732
-0.501264785005903,-0.950186334128114
-0.475351903787272,-0.949921012597166
-0.469189221489281,-0.948192058153026
-0.515798883660229,-0.964190518376071
-0.473344414554116,-0.964038475735801
-0.46405138481156,-0.924523514070755
-0.374010371346548,-0.839099941686807
-0.519624899081865,-0.942121616366626
-0.471790512944903,-0.950743431787191
-0.522999880210752,-1.06149937223181
-0.474544461115655,-0.942950686944948
-0.475073089019676,-0.962005892665333
-0.472748448846724,-0.966502782202691
-0.369663563323233,-0.85942464258952
-0.478834238172072,-0.952144576503768
-0.517014322372515,-0.92737218068444
-0.427843805447045,-0.951405350552653
-0.466078148268868,-0.95193931182544
-0.354632227367608,-0.881315026511453
-0.464834557599548,-0.952181499991531
-0.468200868739666,-0.955695271244742
-0.418495952187362,-0.950984960242715
-0.479586858601087,-0.920338227108819
-0.445249976865446,-0.965424394948103
-0.503357752338502,-0.968637640606979
-0.471346135257822,-0.96433402386284
-0.459854790511491,-0.953092407020865
-0.479383976714026,-0.937774822931411
-0.450555212437345,-0.955604129128386
-0.445773314227686,-0.970973197562541
-0.456495130666956,-0.953657268747354
-0.41221375283787,-0.919389301457862
-0.464674580749618,-0.938297778515518
-0.452684748940653,-0.954253147019454
-0.451653148464412,-0.954406675449041
-0.542251190441779,-1.07266410570896
-0.437243855861704,-0.983410598541717
-0.443298868655062,-0.982965211669907
-0.419402926872733,-0.934600839023933
-0.449134958461556,-0.941710311193578
-0.443393008249315,-0.955524188642354
-0.462594171747001,-0.943495122551829
-0.437710389838961,-0.956185428412347
-0.461065212571516,-0.955416534937781
-0.434555487477861,-0.956517374727381
-0.392359679682091,-0.968634617608075
-0.422137188210206,-0.941278503018156
-0.339316430018652,-0.85136503950104
-0.419370304865197,-0.957793136712164
-0.417132865038084,-0.957938961402121
-0.414093698681327,-0.924382811994932
-0.412391953479948,-0.958214437470462
-0.404605280976881,-0.949360574291304
-0.387274596209961,-0.947294123607268
-0.362487895383037,-0.92309562026721
-0.398779987437447,-0.958765190559348
-0.392524419410659,-0.958905455750064
-0.389199640411851,-0.958952482793049
-0.385734795636551,-0.958981675713774
-0.371865182132332,-0.977489261552876
-0.275700974122322,-0.870802385356468
-0.340674013134411,-0.929034748655969
-0.371789819812987,-0.966559008861616
-0.356917524613869,-0.958487403546553
-0.342098771340314,-0.936411509604817
-0.334199888036163,-0.960473463256463
-0.341626008068033,-0.95772786947606
-0.336058635880437,-0.95737123791729
-0.330235334453798,-0.956953859977439
-0.329778608353849,-0.936489895583105
-0.297350172706471,-0.997231830587766
-0.326520873953937,-0.948789412133985
-0.209589533682951,-0.895782634335444
-0.193770472183656,-0.852910163902412
-0.396251605978048,-1.06381521109276
-0.296226251155999,-0.957901417933132
-0.152595449680006,-0.837018405652725
-0.234614715482182,-0.944202177693222
-0.229554066431073,-0.962416914114579
-0.212682259303725,-0.939839199022188
-0.239122908285603,-0.951104880306383
-0.167968044743055,-0.909477801605286
-0.151548610305345,-0.914831449677345
-0.171849150656875,-0.949547247741685
-0.100216636080532,-0.909851945263932
-0.0628690828555079,-0.907771060743026
-0.0811404796800731,-0.922853908561631
-0.0475300369923186,-0.902219105986306
-0.124191597441239,-0.962884765364654
0.0212630552864258,-0.844801346679724
0.0562150687873671,-0.834424641126635
0.138865473052784,-0.818412228363189
0.210259634120401,-0.800817725818245
0.225101764107919,-0.724452274814817
0.236093310720891,-0.727687430235763
0.294599763343374,-0.706485561541746
0.318447885043008,-0.701382302186291
0.572593744431467,-0.453125777029191
0.536843498355832,-0.501723401023919
0.492350750033291,-0.597092432804206
0.57612492831217,-0.453664676586084
0.627759951414549,-0.373721350527137
0.661004171572183,-0.335039260570683
0.801923589714564,-0.185112293061941
0.730845424005226,-0.224773219779761
0.646413090465372,-0.284841470090067
0.703941889684681,-0.197667057130057
0.807633731051631,-0.019960164277995
0.843169810832193,0.126830602820376
1.00100886209333,0.33009743493727
0.892601223941408,0.250398366811008
0.902682283775504,0.316503929728789
0.821750157177309,0.461894825664739
0.85270613929511,0.626300733604994
0.805904726676917,0.653493532051677
0.804335425801243,0.753259794967642
0.737141877530324,0.789743114831519
0.726379817662561,0.892821963063308
0.584426199520073,0.96374595630212
0.433651579405067,1.02363738086375
0.138065280081376,1.02707378049096
-0.098040713880335,0.954094789993052
-0.243850708868233,0.799077107880654
-0.290190722385315,0.776325955181294
-0.436634457292344,0.584326565530735
-0.395831518981685,0.670789893894725
-0.549070552864803,0.498709346492119
-0.565912652902406,0.411221992350757
-0.601637532366928,0.349420434252457
-0.586641173322889,0.264096325451431
-0.640447821055646,0.243751062752479
-0.606586418952455,0.236438208549236
-0.635520576144696,0.0837589974832144
-0.771603405424175,-0.090927292450718
-0.678446112951562,-0.019406452500811
-0.675250866132057,-0.222056250437206
-0.686400546758039,-0.278154654464639
-0.682179539296768,-0.274265459779093
-0.704287342343151,-0.326960134631678
-0.804777467831037,-0.49041929522864
-0.705202272073804,-0.410655869875292
-0.691924504425173,-0.466772393376395
-0.679712589933925,-0.551378641180877
-0.676852676445805,-0.553768711273373
-0.67674911762102,-0.580201720890338
-0.660260613861311,-0.623199659299435
-0.68333531207528,-0.596781829864039
-0.535124620912294,-0.561308011120372
-0.643723022288555,-0.678659827443347
-0.617661391686138,-0.719803183756876
-0.639845353703394,-0.685999888122017
-0.737525742951287,-0.820431385494024
-0.499241355233266,-0.648619959090312
-0.617284071593067,-0.753612896853383
-0.594210104520918,-0.774458484475045
-0.576476514620072,-0.763538077178146
-0.570704893185279,-0.803528031409615
-0.598116240307648,-0.835162673192248
-0.613121840329375,-0.82153804742531
-0.583995189478301,-0.853782081772939
-0.567962038934314,-0.85018632701496
-0.570231270834501,-0.829956687154761
-0.475949325280654,-0.760323374256091
-0.440107749111983,-0.771339545200528
-0.54622806546329,-0.884229660112477
-0.554115302875335,-0.897795365991941
-0.578187382278032,-0.876130600839732
-0.581083726920163,-0.87597474694943
-0.382859628823523,-0.774003845075698
-0.485529069150513,-0.858475221187435
-0.533648123853419,-0.90156965481366
-0.542636037514357,-0.92745582202647
-0.517174118664534,-0.895203291371673
-0.524617557640617,-0.912961466728313
-0.552674740567038,-0.910843619167258
-0.516705789454665,-0.900479369332471
-0.485233993175608,-0.93239479380835
-0.519077930344992,-0.919500539271182
-0.48581340643271,-0.93986030766275
-0.442146365943737,-0.80195911541417
-0.555737549810951,-0.94555040437487
-0.527506957146529,-0.93114983023392
-0.514322001203164,-0.924829206219764
-0.510976836539547,-0.928410676730423
-0.615473312956247,-1.04800132618432
-0.508843699589739,-0.930618571763454
-0.496538104955452,-0.926323002498876
-0.537136677536551,-0.947793292131039
-0.506572594550874,-0.932900549914823
-0.533531435946461,-0.939104322683939
-0.609484386112153,-1.04575265381402
-0.503353240021887,-0.936004748608368
-0.49705168058923,-0.912033222824536
-0.549480653166337,-0.94894696215424
-0.459281291565639,-0.944027709835989
-0.501934583744036,-0.937319799692155
-0.510343692787091,-0.918942305489681
-0.406388571243913,-0.844396380431916
-0.522056387948673,-0.920732955852431
-0.512698808647577,-0.910719832626458
-0.608802458699203,-1.03200366815748
-0.500269395627433,-0.938817796443138
