1.02552465578969,-0.496108254554369
1.03010412248404,-0.481883782035161
1.03165015553452,-0.466461096800309
1.03014684594744,-0.449991528816148
1.02560839963592,-0.432635007499509
1.01807924071766,-0.414557743902536
1.00763377918886,-0.395929860565635
0.994375843832939,-0.376923000149315
0.978437785107767,-0.357707944051476
0.959979256595618,-0.338452271920173
0.939185687350936,-0.319318092287683
0.916266461097262,-0.300459873489338
0.891452821663397,-0.282022402604124
0.864995527269035,-0.264138898382171
0.837162279233286,-0.246929302029771
0.808234953350206,-0.230498767332307
0.778506664521751,-0.214936368939896
0.74827869723222,-0.200314044753357
0.717857336065252,-0.186685785265797
0.687550631685289,-0.174087079476612
0.657665138515169,-0.162534623640821
0.628502660730219,-0.152026295689566
0.600357043151894,-0.142541394700376
0.573511043160644,-0.13404114135189
0.548233318863517,-0.126469431910255
0.524775567456996,-0.11975383500593
0.503369846034871,-0.113806817311342
0.484226105024134,-0.108527181261168
0.467529962013228,-0.103801695205239
0.453440740994754,-0.0995068938836564
0.442089799011214,-0.0955110248960219
0.433579158903109,-0.0916761149295893
0.427980463352525,-0.0878601279386634
0.425334261733372,-0.0839191862494337
0.425649637465097,-0.0797098247161565
0.428904179664909,-0.0750912475869391
0.435044298950121,-0.0699275576564593
0.443985883303758,-0.06408992759003
0.455615286029144,-0.057458683994968
0.4697906340288,-0.0499252758828943
0.486343440993788,-0.0413941005973955
0.505080506624847,-0.0317841620578389
0.525786079766519,-0.0210305382702517
0.548224260358078,-0.00908563745410915
0.572141612425125,0.00407977519995165
0.597269957984313,0.0184757952250849
0.623329319738179,0.0340928530087571
0.650030978820329,0.0509014530802286
0.677080612631793,0.0688521838945604
0.704181477000946,0.0878759999926391
0.731037596510654,0.107884774921477
0.75735692687124,0.128772119812252
0.782854453675035,0.150414459078775
0.807255192741523,0.172672351359277
0.830297058540092,0.195392040621524
0.851733568844262,0.21840721932557
0.871336355806147,0.241540982728062
0.888897456018019,0.264607950852567
0.904231354820029,0.287416532374415
0.917176763086661,0.30977130270513
0.927598107943361,0.331475466936035
0.935386722290108,0.352333377034286
0.940461721599086,0.37215307179412
0.942770560166034,0.390748807543978
0.942289262784682,0.407943547503609
0.939022331635514,0.423571377977135
0.933002331988352,0.437479820256024
0.924289164067489,0.449532008182852
0.912969032073698,0.459608702780792
0.899153124856257,0.467610117168371
0.882976026038705,0.473457527133111
0.86459387448537,0.477094645206122
0.844182298815717,0.478488738833221
0.821934152197119,0.477631476244253
0.798057075844722,0.474539486844819
0.772770921504152,0.469254626355305
0.746305064668095,0.461843940459757
0.718895641364709,0.452399324359347
0.690782742042738,0.441036879307853
0.662207596358254,0.42789597089517
0.633409782539205,0.413137997494473
0.604624494469481,0.396944880854857
0.57607989870197,0.379517294260409
0.54799461229276,0.361072646946662
0.520575330663739,0.341842846525935
0.494014632670046,0.32207186398645
0.468488987698189,0.302013128361451
0.444156986979835,0.281926780382189
0.42115781840861,0.262076816304895
0.399610001028931,0.242728154612726
0.379610392065784,0.224143659419906
0.361233475923498,0.206581155131898
0.344530941042441,0.190290467232452
0.329531546908937,0.175510523970568
0.316241279909798,0.162466553207659
0.304643793152865,0.151367407762304
0.294701121882724,0.142403051266703
0.286354662748826,0.135742234839881
0.279526401972784,0.131530392807093
0.274120374451677,0.129887783276523
0.270024333061106,0.130907896650967
0.267111604919167,0.134656152135626
0.265243109170362,0.141168899038411
0.264269508973116,0.150452736184563
0.26403346884833,0.162484159123664
0.264371987386974,0.177209541037157
0.265118774535684,0.194545449402742
0.266106642289056,0.214379296584021
0.267169877619809,0.23657031863558
0.268146566872057,0.260950872791219
0.268880841622747,0.287328040381781
0.26922501717122,0.315485518353192
0.269041596331573,0.345185779167462
0.268205113057333,0.376172475710022
0.266603792599073,0.40817306493349
0.264141007355128,0.44090162137552
0.260736510292368,0.474061809427777
0.256327430753479,0.507349981331517
0.250869020592279,0.54045836635562
0.244335141849836,0.573078315493679
0.236718490560355,0.604903565311497
0.228030554714446,0.635633484293881
0.218301307865387,0.664976265183686
0.207578643297817,0.692652027375263
0.195927557044973,0.718395794412559
0.183429091297791,0.741960313037571
0.170179052856269,0.763118682021695
0.156286524191225,0.781666761169635
0.14187218737674,0.797425333388
0.127066483586033,0.810241995528846
0.112007632986079,0.81999275681942
0.0968395416917645,0.826583327036548
0.081709623925999,0.82995008013823
0.066766568659117,0.830060682784207
0.0521580807548726,0.826914381017697
0.0380286270216771,0.820541942297081
0.0245172175515825,0.81100525401283
0.0117552523258077,0.798396583555022
-0.000135537720951623,0.782837508864198
-0.0110450271450406,0.764477532157553
-0.0208764834337971,0.743492393129432
-0.0295481807870822,0.720082101337505
-0.0369948177636606,0.694468710663853
-0.0431687187836306,0.666893861646363
-0.0480408022062856,0.637616120076426
-0.0516013006574844,0.606908142523743
-0.0538602224252011,0.575053701351846
-0.0548475460373811,0.542344603306854
-0.0546131435416066,0.509077536879823
-0.0532264314790214,0.475550884347135
-0.0507757520421698,0.442061534676367
-0.0473674903842789,0.408901733344291
-0.0431249374625383,0.376356004551666
-0.0381869111073707,0.344698180343819
-0.0327061511719809,0.314188569769127
-0.026847507591837,0.2850712994465
-0.0207859429346042,0.257571854789837
-0.0147043735125715,0.231894848677849
-0.00879137533003266,0.208222041591979
-0.00323878301923855,0.186710634206792
0.00176078854394282,0.167491850142937
0.006016469079732,0.150669823122309
0.0093416725402716,0.136320799139987
0.0115566194785557,0.12449266053154
0.0124908100804515,0.115204775012238
0.0119854161810906,0.108448168941915
0.00989556137296135,0.104186020271577
0.00609245948556753,0.10235446290035
0.000465383262421903,0.102863690558466
-0.00707656303724621,0.105599344876488
-0.0166028911494877,0.110424169043603
-0.0281604179241878,0.117179905437097
-0.0417722147261471,0.125689412856247
-0.0574368327300206,0.135758976549117
-0.0751278164496131,0.147180782108212
-0.0947935144032407,0.159735522555023
-0.116357192251485,0.173195106553945
-0.139717450094731,0.187325434708234
-0.164748941929479,0.201889210304998
-0.191303391579442,0.216648750698419
-0.219210895784464,0.231368765751015
-0.248281501591904,0.245819070387644
-0.278307041794339,0.259777199346808
-0.309063208936172,0.273030893624867
-0.340311845409482,0.285380429882342
-0.371803424413511,0.296640766194842
-0.403279694096367,0.306643479957285
-0.434476455062847,0.315238476458314
-0.465126439645275,0.322295449598189
-0.494962259917913,0.32770507939091
-0.523719390407956,0.331379954230543
-0.551139150831171,0.333255209371219
-0.576971653966652,0.333288876627126
-0.600978683986875,0.331461943899173
-0.622936471175186,0.327778126734612
-0.642638329986945,0.322263357680458
-0.659897128831859,0.314965002657743
-0.67454756175769,0.305950816918902
-0.686448194379216,0.295307656314545
-0.695483258896223,0.283139962549884
-0.701564175851608,0.269568043819564
-0.704630783362706,0.254726174639777
-0.704652257879835,0.238760540819356
-0.701627714046867,0.221827057301454
-0.69558647491799,0.204089088043545
-0.686588007579486,0.185715098168807
-0.674721523090426,0.166876269304465
-0.660105243546085,0.147744109314905
-0.642885342936425,0.128488087536714
-0.623234572273385,0.109273326131541
-0.601350583149746,0.0902583772979328
-0.577453967425061,0.0715931148368181
-0.551786034068631,0.0534167669635557
-0.524606347285728,0.0358561153231527
-0.496190052874514,0.0190238829193267
-0.466825022273313,0.00301733114112862
-0.43680884593116,-0.0120829167049349
-0.406445709442595,-0.0262138109388233
-0.376043187308776,-0.0393305588738664
-0.345908990203802,-0.0514070480549777
-0.31634770222533,-0.0624360048123427
-0.287657544784573,-0.0724288870222967
-0.260127203540084,-0.0814155134231224
-0.234032754105018,-0.0894434352545523
-0.209634721166387,-0.096577059332984
-0.187175304159815,-0.102896534897853
-0.166875800761779,-0.1084964196279
-0.148934257215309,-0.113484143090778
-0.133523371920865,-0.117978288519658
-0.120788675832025,-0.122106716173277
-0.110847010029502,-0.126004553601471
-0.103785317444361,-0.129812079880794
-0.0996597621018354,-0.133672532282345
-0.0984951855035585,-0.137729864868755
-0.100284905902179,-0.142126489176321
-0.104990862294006,-0.147001027413042
-0.112544101008548,-0.152486108490062
-0.122845598855091,-0.15870623670399
-0.135767412941926,-0.165775762006619
-0.151154143558557,-0.173796979547409
-0.168824692949008,-0.182858384568049
-0.188574299446976,-0.193033106787195
-0.210176823330226,-0.204377546160965
-0.233387257918877,-0.216930229368791
-0.257944436922857,-0.230710903586157
-0.283573906867214,-0.24571988110001
-0.30999093161531,-0.261937645136622
-0.336903594589774,-0.279324723944809
-0.364015963275792,-0.297821836751146
-0.391031279991936,-0.317350311720734
-0.417655142736673,-0.337812772560588
-0.443598640165224,-0.359094086936515
-0.468581405417718,-0.381062566481746
-0.492334554596993,-0.403571404899113
-0.514603477169022,-0.426460337539312
-0.535150447412743,-0.44955750291519
-0.553757028255961,-0.472681483922752
-0.570226241372945,-0.495643504118047
-0.584384480256567,-0.518249752275942
-0.596083146078701,-0.540303806659482
-0.6051999894797,-0.561609128980183
-0.611640144940933,-0.581971596949416
-0.615336848051275,-0.6012020436235
-0.616251829735173,-0.619118771440141
-0.614375385321474,-0.635550008936502
-0.609726120152918,-0.650336278629666
-0.602350377220619,-0.663332645423929
-0.592321356010727,-0.674410816176627
-0.579737935328016,-0.683461062690864
-0.564723216270834,-0.690393942390774
-0.547422804733538,-0.695141793249604
-0.528002855768525,-0.697659982155753
-0.506647904815636,-0.697927888786009
-0.483558513170955,-0.695949610174208
-0.458948757092498,-0.69175437448012
-0.433043591603771,-0.685396655937771
-0.40607612133912,-0.676955986552771
-0.378284811662791,-0.666536463781179
-0.349910673777727,-0.654265957113711
-0.321194457615649,-0.640295020163767
-0.292373885967721,-0.624795518471176
-0.263680962580415,-0.607958986741609
-0.235339385814545,-0.589994732601332
-0.207562097961864,-0.571127707117101
-0.180548998452787,-0.551596165272585
-0.154484846994565,-0.531649142269145
-0.129537380179612,-0.51154377389709
-0.105855662330053,-0.491542491273652
-0.0835686883318717,-0.471910121940216
-0.0627842529978532,-0.452910930632038
-0.0435880981227591,-0.434805633961685
-0.0260433448987774,-0.41784842378014
-0.0101902157874467,-0.402284034089541
0.00395395366010867,-0.38834488607586
0.0163944161352265,-0.376248345111162
0.0271584336931603,-0.366194122450421
0.0362944287384162,-0.35836185282961
0.0438708782446255,-0.35290887727674
0.04997496769457,-0.349968258197343
0.0547110241218528,-0.349647051216235
0.0581987502775212,-0.352024855378285
0.0605712843008556,-0.357152660165619
0.0619731113153106,-0.36505200441412
0.0625578550739161,-0.375714458647664
0.0624859791232292,-0.38910143863622
0.0619224279255329,-0.405144354167444
0.0610342389644191,-0.423745093145813
0.0599881570529527,-0.444776837244464
0.0589482818649081,-0.468085201478862
0.0580737791215933,-0.493489686293927
0.0575166848977917,-0.520785427102275
0.0574198311733525,-0.549745222724174
0.0579149190694489,-0.580121820901267
0.0591207641923214,-0.611650436025336
0.0611417361882966,-0.644051471476296
0.0640664120215794,-0.677033416533541
0.0679664596537039,-0.710295885740437
0.0728957657664296,-0.743532766888687
0.0788898179666626,-0.77643544246771
0.0859653485830308,-0.808696048510654
0.0941202437509407,-0.84001073427393
0.103333718029198,-0.870082886117851
0.113566751339952,-0.898626279313063
0.124762781618123,-0.925368122277201
0.136848643239327,-0.950051958939726
0.149735738108177,-0.972440396526347
0.163321423271701,-0.9923176280293
0.177490596113264,-1.00949172096299
0.192117455616045,-1.02379664666867
0.20706741589401,-1.03509402739581
0.222199146201194,-1.0432745816166
0.237366709971888,-1.04825925148577
0.252421774136057,-1.05
0.267215859012305,-1.04848026919651
0.281602598517194,-1.04371509461466
0.295439980251764,-1.03575087518182
0.308592535236348,-1.02466480162866
0.320933447660806,-1.01056395044376
0.332346555991955,-0.993584054196119
0.342728218121493,-0.97388796274281
0.351989014929549,-0.951663813353815
0.360055268660458,-0.927122931086113
0.366870354833476,-0.90049748378539
0.372395789013222,-0.87203791885137
0.376612072610509,-0.842010211338764
0.379519284938563,-0.810692955052816
0.381137411974709,-0.778374330011719
0.381506405633219,-0.745348980968274
0.380685970799529,-0.711914842595631
0.378755080866585,-0.678369947435818
0.37581122600704,-0.645009252781202
0.371969401866915,-0.612121522306676
0.367360849733799,-0.579986297500565
0.362131562473681,-0.548870992763938
0.356440573604147,-0.519028146476689
0.350458049739338,-0.490692858383695
0.344363209267419,-0.464080441359445
0.338342092471074,-0.439384312993005
0.332585210345559,-0.416774149528691
0.327285101081027,-0.39639432153676
0.322633824533696,-0.378362627310973
0.318820425996186,-0.362769336436737
0.316028401177487,-0.349676552287517
0.314433194508863,-0.339117898432501
0.314199762699762,-0.331098530120391
0.315480234878344,-0.325595468188269
0.318411699670638,-0.322558248976304
0.323114148211197,-0.321909880153397
0.32968860035183,-0.32354808881946
0.338215439263618,-0.327346844888592
0.348752977234946,-0.333158139613765
0.361336272783138,-0.34081399622463
0.375976216251059,-0.350128687049425
0.392658897888138,-0.360901129210064
0.411345269055354,-0.372917429042477
0.431971103686356,-0.385953543824346
0.454447263524317,-0.399778028207083
0.478660266979822,-0.414154831961127
0.504473157763827,-0.428846115261544
0.531726665786163,-0.443615047767491
0.560240649218887,-0.458228558182772
0.58981580314885,-0.472460001818465
0.620235616927754,-0.486091714901134
0.65126855921138,-0.49891742596502
0.68267046680113,-0.510744496613197
0.714187110796069,-0.521395966206025
0.745556911264823,-0.530712377606475
0.776513769682761,-0.538553363948661
0.80678998677554,-0.544798979462587
0.83611923218633,-0.549350760646602
0.864239531556156,-0.552132507488602
0.890896236186961,-0.553090777955721
0.915844940450618,-0.552195092556304
0.93885431251666,-0.549437849383542
0.959708804792379,-0.544833953632675
0.978211211693427,-0.538420169099438
0.99418504397728,-0.530254202573371
1.00747669085789,-0.520413535294137
1.0179573434551,-0.508994018702656
1.02552465578969,-0.496108254554369
