0.922566391184573,-0.0709508033138094
0.922008805434272,-0.0562978931778637
0.920338487783871,-0.0416903363175278
0.917562743148451,-0.027173174851012
0.913693700181982,-0.0127908306096028
0.9087482422625,0.00141319994890807
0.902747911453388,0.0153966447942737
0.895718786018498,0.0291187473938269
0.887691332227841,0.04254054789739
0.878700231345023,0.0556251525983503
0.868784182836627,0.0683379899061993
0.857985684986339,0.0806470511510011
0.846350794232019,0.0925231146360465
0.833928864671208,0.103939951460761
0.820772269298999,0.114874511751122
0.806936104651084,0.125307090058658
0.792477880623389,0.135221468820819
0.777457197327489,0.144605038914251
0.761935410917405,0.153448896477449
0.745975290387883,0.161747915329493
0.729640667396623,0.169500794466128
0.712996081202629,0.176710080272399
0.69610642083983,0.183382163251386
0.679036566659135,0.189527249230313
0.661851033373059,0.195159305167391
0.644613616724975,0.200295979844272
0.627387045880083,0.204958499888751
0.610232643597342,0.209171541729606
0.593209996191289,0.212963080238974
0.576376635230085,0.216364214966647
0.559787732841658,0.219408975014124
0.543495812414078,0.222134103733276
0.527550476379564,0.224578824564211
0.511998152664713,0.226784589448618
0.496881861272999,0.228794811367598
0.482241002340336,0.230654582656285
0.468111166871028,0.232410380840495
0.454523971220859,0.234109763822882
0.441506916246977,0.235801056316933
0.4290832718918,0.237533029486215
0.417271987811099,0.239354575793257
0.406087630495905,0.241314381096881
0.39554034717472,0.243460596058652
0.385635856617859,0.245840508928053
0.376375466800551,0.248500221772086
0.367756119216688,0.251484332198217
0.359770459471929,0.254835622589978
0.352406933624133,0.258594758832368
0.345649909581925,0.262800000449646
0.339479822719455,0.267486924011497
0.3338733447181,0.272688161585386
0.328803574504857,0.278433155923522
0.324240250023376,0.284747933972887
0.320149979447767,0.291654900186835
0.316496490332287,0.29917265099746
0.313240895082503,0.307315811680059
0.310341971036129,0.316094896705337
0.307756453355143,0.325516194532323
0.305439338855411,0.335581677646222
0.303344198836472,0.346288938491505
0.301423498922609,0.357631151792349
0.299628923887318,0.369597063591134
0.297911705406847,0.382171007172017
0.296222950674922,0.395332945871671
0.294513969810078,0.409058542614101
0.292736599999201,0.423319255842072
0.290843524345873,0.438082461355126
0.288788583429748,0.453311599404353
0.28652707763317,0.468966346238157
0.28401605835333,0.485002809142013
0.281214606292018,0.501373743869706
0.278084095099941,0.518028793224629
0.274588438748233,0.534914745418268
0.270694321105425,0.551975810709805
0.266371406313246,0.569153914716649
0.261592528678357,0.586389006681296
0.256333860928762,0.603619380885945
0.250575059822375,0.620782009323266
0.244299388240107,0.63781288366022
0.237493813046063,0.654647364472273
0.230149078151978,0.671220535678095
0.222259752380966,0.687467562070216
0.213824251885999,0.703324047815342
0.204844837040234,0.7187263937892
0.195327583878427,0.733612151615068
0.185282330330146,0.747920372292337
0.174722597645325,0.76159194733168
0.16366548756988,0.77456994035631
0.152131555982699,0.786799907184176
0.140144663854287,0.798230202473543
0.127731806530841,0.808812271093633
0.114922922484579,0.818500922472592
0.101750682800991,0.827254586276241
0.0882502627953712,0.835035547882431
0.0744590972639419,0.841810162236521
0.0604166209782088,0.847549044802924
0.0461639961244022,0.852227238464904
0.0317438284722662,0.855824355369126
0.0171998741286161,0.85832469286193
0.00257673879050554,0.859717322819934
-0.0120804285398174,0.859996153837595
-0.026726245381036,0.859159965897545
-0.0413154071204949,0.857212417315105
-0.0558029978544641,0.854162023915194
-0.070144798695058,0.850022110566916
-0.0842975915339224,0.844810735367436
-0.0982194562814764,0.838550586931283
-0.111870059641657,0.831268855402924
-0.125210933535557,0.822997077968425
-0.138205741352664,0.813770959795167
-0.150820530285274,0.803630171476104
-0.163023968089518,0.792618124195932
-0.174787562714788,0.780781723969971
-0.186085863351587,0.768171106431717
-0.196896641565223,0.754839353761155
-0.207201051308646,0.74084219545226
-0.216983766741279,0.7262376947141
-0.226233096921052,0.711085922384902
-0.234941076583231,0.695448620311958
-0.243103532370998,0.679388856211704
-0.250720124038268,0.662970672073562
-0.257794360303841,0.646258728207669
-0.264333589196772,0.629317945060362
-0.270348962894774,0.612213144932051
-0.275855377219484,0.595008695729811
-0.280871386113593,0.577768158871724
-0.285419091584091,0.560553943431786
-0.28952400975227,0.543426968573214
-0.293214913803584,0.526446336264565
-0.296523654778184,0.50966901620747
-0.299484961284845,0.493149544827489
-0.302136219356286,0.476939740091011
-0.304517233791701,0.461088433811847
-0.306669972451791,0.445641223001825
-0.308638295082089,0.430640241700944
-0.310467668341066,0.416123954595218
-0.312204868799864,0.402126973595047
-0.313897675759935,0.388679898404656
-0.315594555802793,0.375809181964624
-0.317344341042205,0.363537021495844
-0.319195903092963,0.351881275715252
-0.321197824801749,0.340855408632363
-0.323398071804169,0.330468460172041
-0.325843665977809,0.320725043704057
-0.328580362854028,0.311625370394761
-0.331652335031188,0.303165300131813
-0.335101863599271,0.295336418610203
-0.338969039540535,0.288126140007879
-0.343291477013258,0.281517834523148
-0.34810404035609,0.275490979894534
-0.353438586569494,0.270021335877967
-0.35932372493869,0.265081140516908
-0.365784595359972,0.260639326909091
-0.37284266681993,0.256661759049947
-0.380515557355574,0.253111485217991
-0.388816876693482,0.249949007262451
-0.397756092628551,0.247132564058671
-0.407338422058682,0.244618427312959
-0.417564747441594,0.242361207826093
-0.428431559284867,0.240314170264128
-0.439930925121259,0.238429554436683
-0.452050485259245,0.236658901047018
-0.46477347543464,0.234953379854979
-0.478078776324088,0.233264118183553
-0.491940989716122,0.231542527702277
-0.506330540971476,0.229740627436173
-0.521213807242373,0.227811360977021
-0.536553270761589,0.225708905914555
-0.552307696357215,0.223388973558187
-0.568432332199198,0.220809097084935
-0.584879132639739,0.217928906325787
-0.601597001872564,0.214710387490422
-0.618532057006556,0.211118126228413
-0.635627909028296,0.207119532533079
-0.652825960016277,0.20268504611153
-0.670065714867689,0.197788320970195
-0.687285105707403,0.192406388098637
-0.704420827068581,0.186519795274804
-0.721408679865772,0.180112723161181
-0.738183922124876,0.173173077012698
-0.7546816243902,0.165692553472724
-0.770837027697437,0.15766668209213
-0.786585901982838,0.149094841367164
-0.801864902793301,0.139980249253795
-0.816611924169592,0.130329928278233
-0.830766445595431,0.120154645524482
-0.844269870938522,0.109468827939054
-0.857065857355723,0.0982904535493396
-0.869100632192957,0.0866409193446542
-0.88032329598105,0.074544886716665
-0.890686109710784,0.0620301054978749
-0.900144764663736,0.049127217772163
-0.908658633179292,0.0358695427592477
-0.916190998851982,0.0222928441945447
-0.922709264776214,0.00843508173646543
-0.928185138586965,-0.00566385196591052
-0.932594793184066,-0.0199624068213086
-0.935919002173659,-0.0344176616577464
-0.938143249212245,-0.0489856195256515
-0.939257810595583,-0.0636215100147774
-0.939257810595583,-0.0782800966128411
-0.938143249212245,-0.0929159871019675
-0.93591900217366,-0.107483944969872
-0.932594793184066,-0.12193919980631
-0.928185138586965,-0.136237754661708
-0.922709264776215,-0.150336688364084
-0.916190998851983,-0.164194450822163
-0.908658633179292,-0.177771149386866
-0.900144764663735,-0.191028824399782
-0.890686109710784,-0.203931712125494
-0.88032329598105,-0.216446493344284
-0.869100632192956,-0.228542525972273
-0.857065857355723,-0.240192060176958
-0.844269870938523,-0.251370434566672
-0.830766445595431,-0.2620562521521
-0.816611924169593,-0.272231534905851
-0.801864902793302,-0.281881855881414
-0.786585901982839,-0.290996447994782
-0.770837027697437,-0.299568288719748
-0.7546816243902,-0.307594160100343
-0.738183922124876,-0.315074683640317
-0.721408679865772,-0.3220143297888
-0.704420827068581,-0.328421401902423
-0.687285105707404,-0.334307994726256
-0.670065714867689,-0.339689927597814
-0.652825960016278,-0.344586652739148
-0.635627909028297,-0.349021139160697
-0.618532057006557,-0.353019732856031
-0.601597001872565,-0.356611994118041
-0.584879132639739,-0.359830512953405
-0.568432332199197,-0.362710703712554
-0.552307696357215,-0.365290580185806
-0.536553270761589,-0.367610512542173
-0.521213807242373,-0.36971296760464
-0.506330540971476,-0.371642234063792
-0.491940989716123,-0.373444134329896
-0.478078776324089,-0.375165724811171
-0.464773475434641,-0.376854986482597
-0.452050485259246,-0.378560507674636
-0.439930925121259,-0.380331161064302
-0.428431559284867,-0.382215776891747
-0.417564747441594,-0.384262814453711
-0.407338422058683,-0.386520033940578
-0.397756092628552,-0.38903417068629
-0.388816876693482,-0.391850613890069
-0.380515557355574,-0.39501309184561
-0.37284266681993,-0.398563365677566
-0.365784595359973,-0.40254093353671
-0.35932372493869,-0.406982747144526
-0.353438586569494,-0.411922942505586
-0.34810404035609,-0.417392586522152
-0.343291477013258,-0.423419441150767
-0.338969039540535,-0.430027746635498
-0.335101863599271,-0.437238025237822
-0.331652335031188,-0.445066906759432
-0.328580362854028,-0.453526977022379
-0.325843665977809,-0.462626650331676
-0.323398071804169,-0.47237006679966
-0.321197824801749,-0.482757015259981
-0.319195903092963,-0.49378288234287
-0.317344341042205,-0.505438628123462
-0.315594555802794,-0.517710788592242
-0.313897675759935,-0.530581505032275
-0.312204868799864,-0.544028580222666
-0.310467668341066,-0.558025561222836
-0.308638295082089,-0.572541848328563
-0.306669972451791,-0.587542829629443
-0.304517233791701,-0.602990040439465
-0.302136219356286,-0.61884134671863
-0.299484961284845,-0.635051151455108
-0.296523654778184,-0.651570622835088
-0.293214913803584,-0.668347942892183
-0.28952400975227,-0.685328575200832
-0.285419091584091,-0.702455550059405
-0.280871386113593,-0.719669765499343
-0.275855377219484,-0.73691030235743
-0.270348962894774,-0.75411475155967
-0.264333589196772,-0.771219551687981
-0.257794360303841,-0.788160334835287
-0.250720124038269,-0.80487227870118
-0.243103532370998,-0.821290462839322
-0.234941076583231,-0.837350226939576
-0.226233096921053,-0.852987529012521
-0.216983766741279,-0.868139301341719
-0.207201051308646,-0.882743802079879
-0.196896641565223,-0.896740960388774
-0.186085863351587,-0.910072713059336
-0.174787562714788,-0.92268333059759
-0.163023968089518,-0.934519730823551
-0.150820530285274,-0.945531778103723
-0.138205741352664,-0.955672566422786
-0.125210933535557,-0.964898684596044
-0.111870059641657,-0.973170462030543
-0.0982194562814766,-0.980452193558901
-0.084297591533922,-0.986712341995055
-0.0701447986950577,-0.991923717194535
-0.0558029978544641,-0.996063630542813
-0.0413154071204949,-0.999114023942723
-0.026726245381036,-1.00106157252516
-0.0120804285398176,-1.00189776046521
0.00257673879050532,-1.00161892944755
0.0171998741286156,-1.00022629948955
0.0317438284722655,-0.997725961996746
0.0461639961244016,-0.994128845092523
0.0604166209782082,-0.989450651430543
0.0744590972639419,-0.98371176886414
0.088250262795371,-0.97693715451005
0.10175068280099,-0.96915619290386
0.114922922484579,-0.960402529100211
0.12773180653084,-0.950713877721252
0.140144663854287,-0.940131809101162
0.152131555982699,-0.928701513811795
0.16366548756988,-0.916471546983929
0.174722597645325,-0.903493553959299
0.185282330330146,-0.889821978919956
0.195327583878427,-0.875513758242687
0.204844837040234,-0.860628000416819
0.213824251885999,-0.84522565444296
0.222259752380966,-0.829369168697835
0.230149078151978,-0.813122142305714
0.237493813046063,-0.796548971099892
0.244299388240107,-0.779714490287839
0.250575059822375,-0.762683615950885
0.256333860928762,-0.745520987513565
0.261592528678357,-0.728290613308916
0.266371406313246,-0.711055521344268
0.270694321105424,-0.693877417337425
0.274588438748233,-0.676816352045887
0.278084095099941,-0.659930399852248
0.281214606292018,-0.643275350497325
0.28401605835333,-0.626904415769633
0.28652707763317,-0.610867952865776
0.288788583429748,-0.595213206031971
0.290843524345873,-0.579984067982745
0.292736599999201,-0.565220862469691
0.294513969810078,-0.55096014924172
0.296222950674922,-0.53723455249929
0.297911705406847,-0.524072613799636
0.299628923887318,-0.511498670218752
0.301423498922609,-0.499532758419969
0.303344198836472,-0.488190545119124
0.305439338855411,-0.477483284273841
0.307756453355143,-0.467417801159942
0.310341971036129,-0.457996503332956
0.313240895082503,-0.449217418307678
0.316496490332287,-0.441074257625078
0.320149979447767,-0.433556506814454
0.324240250023376,-0.426649540600506
0.328803574504857,-0.420334762551141
0.3338733447181,-0.414589768213004
0.339479822719455,-0.409388530639116
0.345649909581924,-0.404701607077265
0.352406933624132,-0.400496365459987
0.359770459471929,-0.396737229217597
0.367756119216688,-0.393385938825836
0.376375466800551,-0.390401828399705
0.385635856617859,-0.387742115555672
0.39554034717472,-0.385362202686271
0.406087630495905,-0.3832159877245
0.417271987811098,-0.381256182420876
0.4290832718918,-0.379434636113834
0.441506916246977,-0.377702662944551
0.454523971220858,-0.376011370450501
0.468111166871028,-0.374311987468114
0.482241002340336,-0.372556189283904
0.496881861273,-0.370696417995217
0.511998152664712,-0.368686196076236
0.527550476379564,-0.36648043119183
0.543495812414077,-0.364035710360895
0.559787732841658,-0.361310581641743
0.576376635230083,-0.358265821594266
0.593209996191289,-0.354864686866593
0.610232643597341,-0.351073148357225
0.627387045880083,-0.346860106516369
0.644613616724976,-0.34219758647189
0.661851033373059,-0.33706091179501
0.679036566659135,-0.331428855857931
0.696106420839829,-0.325283769879005
0.712996081202629,-0.318611686900018
0.729640667396623,-0.311402401093747
0.745975290387883,-0.303649521957112
0.761935410917404,-0.295350503105068
0.777457197327489,-0.28650664554187
0.792477880623388,-0.277123075448438
0.806936104651084,-0.267208696686276
0.820772269298999,-0.25677611837874
0.833928864671207,-0.24584155808838
0.846350794232019,-0.234424721263665
0.857985684986339,-0.22254865777862
0.868784182836627,-0.210239596533818
0.878700231345023,-0.19752675922597
0.887691332227841,-0.184442154525009
0.895718786018498,-0.171020354021446
0.902747911453387,-0.157298251421893
0.9087482422625,-0.143314806576527
0.913693700181982,-0.129110776018017
0.917562743148451,-0.114728431776607
0.920338487783871,-0.100211270310091
0.922008805434272,-0.0856037134497552
0.922566391184573,-0.0709508033138096
