-0.135475835932738,-0.429302673096407
-0.135488653986105,-0.42912504997025
-0.135523371366309,-0.428592024071889
-0.135574373808562,-0.427703559096404
-0.135636040484369,-0.426459883480898
-0.135702750957717,-0.42486149033979
-0.135768892138154,-0.422909137159332
-0.13582886522352,-0.420603845251592
-0.135877092625103,-0.417946898968405
-0.135908024868013,-0.41493984467601
-0.135916147459585,-0.411584489491324
-0.135895987718674,-0.40788289978105
-0.135842121558708,-0.403837399425025
-0.135749180217461,-0.399450567845463
-0.135611856926523,-0.394725237803953
-0.135424913513509,-0.389664492968322
-0.135183186930155,-0.384271665251668
-0.134881595699466,-0.37855033192612
-0.134515146275211,-0.372504312514068
-0.134078939307119,-0.366137665459854
-0.133568175805254,-0.359454684585093
-0.132978163197104,-0.352459895331037
-0.132304321271082,-0.345158050791572
-0.131542188000205,-0.33755412754066
-0.130687425239874,-0.329653321258236
-0.129735824293765,-0.321461042158737
-0.128683311342026,-0.312982910226683
-0.127525952726059,-0.304224750263864
-0.126259960084359,-0.295192586752895
-0.124881695333989,-0.285892638542085
-0.123387675492464,-0.276331313356719
-0.121774577334953,-0.266515202142025
-0.120039241881878,-0.256451073243279
-0.118178678712176,-0.246145866428621
-0.116190070097636,-0.235606686760353
-0.114070774953936,-0.22484079832058
-0.111818332604167,-0.213855617797261
-0.109430466350831,-0.202658707936803
-0.106905086852479,-0.19125777086951
-0.104240295301388,-0.179660641314303
-0.101434386398815,-0.167875279669224
-0.0984858511246396,-0.155909764994389
-0.0953933792983609,-0.143772287894108
-0.0921558619286524,-0.131471143305024
-0.0887723933488811,-0.119014723197195
-0.085242273136219,-0.106411509195128
-0.081565007812187,-0.0936700651258436
-0.0777403123226977,-0.0807990295011348
-0.0737681112958826,-0.0678071079412247
-0.0696485400762138,-0.0547030655470983
-0.0653819455336577,-0.0414957192288189
-0.0609688866468233,-0.0281939299971899
-0.0564101348592976,-0.014806595226145
-0.0517066742085876,-0.00134264089328551
-0.0468597012273216,0.0121889861940073
-0.0418706246165867,0.0257793261794397
-0.0367410646915178,0.0394194139382063
-0.0314728525994738,0.0531002868494838
-0.0260680293113767,0.0668129925535844
-0.0205288443870106,0.0805485966863558
-0.0148577545153104,0.0942981905834423
-0.00905742183089642,0.10805289894705
-0.00313071200833939,0.121803887467904
0.00291930786413941,0.13554237039513
0.0090893716295978,0.149259618046847
0.0153760166237818,0.162946964254323
0.0217755864506406,0.176595813732605
0.0282842339693589,0.190197649370631
0.0348979244901009,0.203744039433873
0.0416124391754525,0.217226644672713
0.0484233786443336,0.230637225329776
0.0553261667749548,0.243967648039609
0.0623160547031794,0.257209892614163
0.0693881250124642,0.270356058707679
0.0765372961113506,0.283398372354672
0.0837583267942864,0.296329192374866
0.0910458209813776,0.309141016639034
0.0983942326324782,0.321826488189878
0.105797870830856,0.334378401212172
0.113250905031494,0.346789706846615
0.120747370468923,0.359053518841917
0.12828117371931,0.371163119039882
0.135846098411377,0.383111962688355
0.143435811080565,0.39489368357711
0.151043867160724,0.406502098991915
0.158663717107443,0.417931214482209
0.166288712647023,0.429175228437984
0.173912113144959,0.440228536471686
0.181527092087657,0.451085735601126
0.189126743671026,0.46174162822958
0.196704089489441,0.472191225919499
0.204252085318488,0.482429752956403
0.211763627984796,0.492452649699781
0.219231562316179,0.502255575718012
0.226648688165203,0.511834412704544
0.234007767499246,0.521185267172788
0.241301531550024,0.530304472927383
0.248522688015492,0.539188593309745
0.255663928306998,0.547834423216001
0.262717934834477,0.556238990885668
0.269677388322468,0.564399559459632
0.276534975149667,0.572313628306233
0.283283394704733,0.579978934114488
0.289915366751016,0.587393451753709
0.29642363879287,0.594555394899003
0.302800993436215,0.601463216422383
0.309040255736006,0.60811560854944
0.31513430052327,0.614511502781766
0.321076059704392,0.620650069585542
0.326858529525361,0.626530717846943
0.332474777793692,0.632153094095232
0.33791795105081,0.637517081494668
0.343181281687703,0.642622798606547
0.348258094996696,0.647470597922945
0.353141816152287,0.652061064173957
0.357825977114017,0.656395012410445
0.362304223444437,0.660473485864511
0.366570321035318,0.664297753590173
0.370618162735311,0.667869307886891
0.374441774872391,0.671189861508836
0.378035323664484,0.674261344662994
0.381393121511813,0.6770859017994
0.384509633164592,0.679665888197017
0.387379481759805,0.68200386634895
0.389997454720978,0.684102602150917
0.39235850951492,0.685965060897054
0.3944577792596,0.687594403087349
0.396290578177433,0.688993980051168
0.39785240688842,0.690167329391531
0.399138957537736,0.691118170254946
0.400146118752494,0.691850398431813
0.400869980422625,0.692368081292543
0.401306838300946,0.692675452564723
0.401453198417669,0.692776906956793
0.401305781304801,0.692676994633872
0.400861526026047,0.692380415551482
0.400117594008032,0.691892013653093
0.39907137266884,0.691216770937525
0.397720478840079,0.690359801402353
0.396062761978862,0.689326344869629
0.394096307166303,0.688121760700289
0.391819437889364,0.686751521403766
0.389230718603046,0.685221206149413
0.386328957070174,0.683536494186423
0.383113206476234,0.681703158179049
0.379582767316914,0.679727057463972
0.375737189056266,0.677614131236772
0.371576271553584,0.675370391674501
0.36710006625735,0.673001917001426
0.362308877164818,0.670514844505053
0.35720326154603,0.667915363509614
0.351784030431291,0.665209708314196
0.346052248861367,0.662404151102764
0.340009235899886,0.659504994833324
0.33365656440768,0.656518566113508
0.326996060579007,0.653451208069845
0.320029803239853,0.650309273218038
0.312760122908727,0.647099116341481
0.305189600620614,0.643827087385327
0.29732106651495,0.640499524373319
0.289157598188758,0.637122746354625
0.280702518816274,0.633703046387857
0.271959395036648,0.630246684569413
0.262932034611514,0.626759881113249
0.25362448385446,0.623248809489105
0.244041024834648,0.619719589626182
0.234186172357051,0.61617828118916
0.224064670722012,0.612630876933403
0.21368149026701,0.609083296146077
0.203041823693773,0.605541378179878
0.192151082184063,0.602010876085878
0.181014891307664,0.598497450352
0.16963908672633,0.595006662753432
0.158029709697619,0.591543970321226
0.146193002382769,0.588114719435199
0.134135402962933,0.584724140047103
0.121863540568307,0.581377340039922
0.10938423002483,0.578079299728996
0.0967044664233771,0.57483486651054
0.0838314195164621,0.571648749662966
0.0707724279477052,0.568525515306249
0.057534993319441,0.565469581524454
0.0441267741040249,0.562485213656323
0.0305555794045382,0.559576519758685
0.016829362570744,0.556747446247266
0.00295621467628973,0.554001773719289
-0.0110556421367154,0.551343112962074
-0.025197861439482,0.548774901151661
-0.0394619794183011,0.546300398245268
-0.0538394218897765,0.543922683571229
-0.0683215114229116,0.541644652619824
-0.0828994745613309,0.539469014038232
-0.0975644491388204,0.537398286832607
-0.112307491681267,0.535434797780101
-0.127119584888004,0.533580679053401
-0.14199164518549,0.531837866060167
-0.156914530346167,0.530208095499521
-0.171879047165285,0.52869290363752
-0.186875959188444,0.527293624803319
-0.201895994482496,0.52601139010753
-0.216929853442485,0.524847126384006
-0.231968216627197,0.523801555356116
-0.247001752615906,0.522875193028294
-0.262021125878863,0.522068349303452
-0.277017004654074,0.521381127826595
-0.291980068822876,0.520813426054767
-0.306901017776873,0.520364935553199
-0.321770578268737,0.520035142517339
-0.336579512239457,0.519823328520172
-0.351318624614595,0.51972857148404
-0.36597877106216,0.519749746875937
-0.380550865704749,0.519885529125013
-0.395025888778628,0.520134393260819
-0.40939489423251,0.520494616770574
-0.423649017258815,0.520964281673541
-0.437779481750274,0.521541276810349
-0.451777607674827,0.522223300344914
-0.465634818361811,0.523007862476346
-0.479342647692552,0.523892288358083
-0.49289274718855,0.524873721221215
-0.506276892990559,0.525949125698799
-0.519486992721948,0.527115291347739
-0.532515092229874,0.52836883636462
-0.545353382197878,0.529706211491668
-0.557994204623695,0.531123704108829
-0.570430059156122,0.532617442507774
-0.58265360928502,0.53418340034343
-0.594657688378579,0.535817401258485
-0.606435305562192,0.537515123676109
-0.617979651433398,0.539272105755995
-0.629284103607536,0.541083750508612
-0.640342232088906,0.542945331062457
-0.651147804462403,0.544851996078882
-0.661694790900776,0.546798775308956
-0.67197736898283,0.548780585286667
-0.681989928318089,0.550792235152623
-0.691727074973604,0.552828432602282
-0.701183635698815,0.55488378995262
-0.710354661944543,0.556952830321009
-0.719235433672405,0.559029993909975
-0.72782146295115,0.561109644391382
-0.73610849733661,0.563186075383516
-0.744092523032188,0.565253517014392
-0.751769767827005,0.567306142564581
-0.759136703809057,0.569338075182728
-0.766190049850927,0.571343394666855
-0.772926773865873,0.573316144304515
-0.77934409483226,0.57525033776475
-0.78543948458461,0.577139966034779
-0.791210669369702,0.578979004394294
-0.796655631166439,0.58076141942019
-0.801772608768389,0.582481176014523
-0.806560098628161,0.58413224444848
-0.811016855463004,0.585708607415092
-0.815141892621238,0.58720426708345
-0.818934482209381,0.588613252147137
-0.822394154980055,0.58992962485964
-0.825520699980977,0.591147488049453
-0.828314163965603,0.592260992107666
-0.830774850566196,0.593264341940808
-0.832903319230331,0.594151803881769
-0.834700383922093,0.594917712551664
-0.836167111589425,0.595556477665519
-0.837304820399337,0.596062590774771
-0.838115077742899,0.596430631939566
-0.83859969801216,0.596655276323945
-0.83876074015138,0.596731300707094
-0.838600504985146,0.596653589903858
-0.838121532326188,0.596417143087887
-0.837326597865919,0.596017080010791
-0.83621870985092,0.595448647110853
-0.834801105548812,0.594707223504917
-0.833077247507157,0.593788326857183
-0.831050819609232,0.592687619118783
-0.82872572293071,0.591400912132119
-0.826106071401483,0.589924173094078
-0.823196187277039,0.588253529872381
-0.820000596424009,0.586385276169481
-0.816524023424656,0.584315876528533
-0.812771386505254,0.582041971176171
-0.808747792293511,0.579560380696932
-0.804458530410291,0.576868110534377
-0.799909067901112,0.573962355314095
-0.795105043513013,0.570840502983986
-0.79005226182253,0.567500138767352
-0.784756687220697,0.56393904892457
-0.779224437761082,0.560155224319249
-0.773461778877026,0.55614686378501
-0.767475116974375,0.551912377289207
-0.761270992906097,0.547450388890103
-0.754856075335303,0.542759739484235
-0.748237153993299,0.537839489340889
-0.741421132839374,0.532688920420844
-0.734415023129148,0.527307538476719
-0.727225936398364,0.521695074932518
-0.719861077369108,0.515851488540152
-0.712327736785499,0.50977696681095
-0.704633284185957,0.5034719272204
-0.696785160619219,0.496937018184577
-0.688790871311324,0.490173119806941
-0.680657978290825,0.48318134439443
-0.672394092979523,0.475963036741983
-0.664006868756055,0.468519774184864
-0.655503993499682,0.460853366418405
-0.646893182121635,0.45296585508499
-0.638182169091391,0.444859513128351
-0.629378700965253,0.436536843915479
-0.620490528924578,0.428000580126671
-0.611525401331022,0.419253682414486
-0.602491056306104,0.410299337832582
-0.593395214342399,0.40114095803568
-0.584245570953608,0.391782177252067
-0.575049789370725,0.382226850030358
-0.565815493291457,0.372479048762366
-0.556550259690008,0.362543060984251
-0.54726161169426,0.352423386458255
-0.537957011537329,0.342124734037613
-0.52864385359037,0.331652018317404
-0.519329457483441,0.321010356074336
-0.510021061321146,0.310205062498692
-0.500725814999646,0.299241647221812
-0.491450773631562,0.288125810142773
-0.482202891085155,0.276863437058045
-0.472989013644065,0.265460595098172
-0.463815873793742,0.253923527975664
-0.454690084140619,0.242258651048518
-0.445618131469873,0.230472546203937
-0.436606370947549,0.218571956567029
-0.427661020472619,0.206563781039409
-0.418788155184422,0.194455068672829
-0.409993702130762,0.182253012883114
-0.401283435101788,0.169964945509838
-0.392662969634594,0.157598330727344
-0.384137758193323,0.145160758812843
-0.375713085529353,0.132659939777491
-0.367394064225997,0.120103696866473
-0.35918563043192,0.107499959934253
-0.351092539787331,0.0948567587012767
-0.343119363546752,0.0821822158985504
-0.33527048490204,0.0694845403066028
-0.327550095509062,0.0567720196954685
-0.319962192221279,0.0440530136724432
-0.312510574033232,0.0313359464444058
-0.305198839236767,0.0186292995016649
-0.298030382792556,0.00594160423029461
-0.291008393919315,-0.00671856553995409
-0.284135853902863,-0.0193426010450101
-0.277415534126945,-0.0319218661459423
-0.270849994327552,-0.0444477049312237
-0.264441581072187,-0.0569114493545432
-0.258192426465362,-0.0693044269007802
-0.252104447081341,-0.0816179682728111
-0.246179343124923,-0.0938434150917183
-0.24041859782085,-0.105972127603005
-0.234823477032158,-0.117995492381385
-0.229395029107602,-0.12990493002672
-0.224134084958012,-0.141691902843687
-0.219041258361243,-0.153347922497752
-0.214116946495123,-0.164864557640075
-0.209361330697608,-0.176233441493961
-0.204774377453072,-0.187446279395549
-0.200355839603504,-0.198494856281417
-0.196105257783076,-0.209371044115899
-0.192021962074406,-0.220066809250877
-0.188105073884542,-0.230574219710978
-0.184353508038524,-0.24088545239707
-0.180765975088142,-0.250992800201108
-0.177340983833286,-0.26088867902542
-0.174076844053094,-0.270565634699631
-0.170971669443862,-0.280016349788511
-0.168023380760504,-0.289233650284143
-0.165229709158121,-0.298210512175912
-0.16258819973005,-0.306940067891934
-0.160096215238569,-0.315415612605668
-0.157750940034232,-0.323630610401578
-0.155549384159623,-0.331578700293854
-0.153488387633136,-0.339253702092333
-0.151564624908203,-0.346649622109916
-0.149774609503226,-0.353760658705922
-0.148114698797273,-0.36058120765998
-0.146581098986477,-0.367105867371227
-0.145169870195856,-0.373329443877744
-0.143876931741184,-0.379246955691325
-0.142698067535329,-0.384853638442883
-0.141628931633372,-0.390144949333934
-0.140665053910679,-0.395116571389837
-0.139801845867929,-0.399764417510606
-0.139034606557025,-0.40408463431537
-0.13835852862166,-0.408073605776674
-0.1377687044462,-0.41172795664111
-0.137260132406451,-0.415044555632891
-0.136827723215767,-0.418020518437241
-0.136466306359854,-0.420653210460677
-0.136170636613551,-0.422940249365458
-0.135935400632777,-0.424879507375715
-0.135755223614761,-0.426469113352985
-0.135624676019606,-0.427707454639105
-0.135538280346176,-0.428593178664629
-0.135490517955235,-0.429125194321188
-0.135475835932738,-0.429302673096407
