0.992749183464501,0.891930098814446
1.0144124150284,0.898334943912036
0.957684876272543,0.889214148481976
0.99741853212255,0.877943001129018
1.02319916625218,0.910793863969616
1.00416896509139,0.894833339008084
0.989020178340105,0.80417068708284
0.979140984065448,0.810460793570155
0.926159973004536,0.869362656956578
0.993921976067719,0.79078393387442
0.944866555575012,0.798508787150956
0.939636013258814,0.753920428702843
0.891917496235344,0.779078147229835
0.924248724413241,0.762248824285765
0.917542024376059,0.749969054278575
0.906353758738178,0.784737464545161
0.940871584978545,0.704175998000829
0.897811337736482,0.712676476196799
0.891342595523112,0.700119728917444
0.84006099492533,0.72953553904833
0.877931329874873,0.667506724905679
0.872182349848228,0.662163171060594
0.865861251714004,0.649434569569271
0.859622210425855,0.681835857867239
0.853291027045411,0.623893593348651
0.847033886498024,0.611090546740741
0.850458272611282,0.580006130418299
0.82833033694064,0.572602405417514
0.855958793738319,0.548480251060918
0.828267915512416,0.59459206475656
0.841079221121728,0.517965819060378
0.794238324895659,0.538390226332861
0.79624854057149,0.531234714791464
0.748375511226426,0.477666520750315
0.784678410695588,0.482808743637219
0.810671206512812,0.470072021808245
0.821188214333739,0.472554626004616
0.803956294931349,0.48467810003661
0.714421083477822,0.447065313532971
0.779934313005579,0.391549130133794
0.717881777907879,0.371232331611667
0.732376980820543,0.344938793058563
0.694133018005219,0.377302981476753
0.769916099898638,0.309875402072792
0.717493089377628,0.391305486898279
0.742561020130361,0.348785225562465
0.657610828217982,0.298469733639822
0.640420831980842,0.302719130473518
0.680947668537788,0.282169510590582
0.661453126631898,0.277183808295867
0.66730876407607,0.257872452343224
0.653480094557089,0.233796276128954
0.646683560485645,0.228811216811464
0.613594540106211,0.222819646373117
0.625213859042371,0.186352664780916
0.577816911802452,0.167716043466087
0.638100156201074,0.170267333495143
0.565903451139603,0.1454600866364
0.588647491236633,0.128484000837277
0.627142144760335,0.122462328634683
0.552764545420986,0.139923151550584
0.561073460555529,0.0479780870544084
0.550596774549767,0.0723430838424447
0.542799117522875,0.0613331619378243
0.573065765402476,0.0373584817022667
0.542417380427387,-0.0326575230221821
0.47116588483396,0.0008196373115281
0.486377951719321,-0.013597407367188
0.526617489806886,0.0135578976098319
0.482788446274983,-0.0292000772528646
0.419106062019841,-0.0401617838460052
0.464690285304299,-0.0181574928523082
0.435349991605274,-0.0747193303473726
0.382916139952783,-0.113541791237008
0.430844395855503,-0.133700159618756
0.42406955404873,-0.118364028412005
0.440578253385458,-0.103050709204016
0.381754796354788,-0.132853052419909
0.394554993413754,-0.184453857320742
0.353972353847033,-0.16077357733369
0.335081790666652,-0.178957829189839
0.325525352491056,-0.187920571484648
0.305686779287516,-0.156983194433527
0.270468247012487,-0.159199014889728
0.314378092227985,-0.229071339530896
0.28655618089474,-0.222906218675226
0.276627750865808,-0.231435971261379
0.285073388428777,-0.292511252710688
0.208886389861521,-0.228082974989753
0.225869060348394,-0.272785107637517
0.185601152064648,-0.321107777613345
0.205760661213411,-0.311828527527909
0.230538321281397,-0.250904677994849
0.183583424866666,-0.256544517093885
0.155156997819136,-0.291451075509118
0.160262139083743,-0.331901960128893
0.151699126507427,-0.327056531231166
0.153912967052558,-0.375564265851926
0.111891707714437,-0.301002102603624
0.118816599244432,-0.349040678257948
0.131566980813751,-0.338115848622036
0.0965356193232555,-0.36327856531161
0.0852884486642238,-0.370273335031611
0.0708348735507241,-0.425489879132589
0.0566657828468688,-0.405641572450673
0.0754723437888254,-0.445415408982932
0.0221697304176791,-0.407060665502177
0.0663133417837042,-0.37351874634123
-0.0226071471375468,-0.453315543805803
-0.0587410299301609,-0.46699920583324
0.00663376017867383,-0.450162245383696
-0.0228030972681892,-0.412039586847852
-0.0550374572151181,-0.447971823912865
-0.100266305281324,-0.465120083541785
-0.0863668214866976,-0.420515073529001
-0.103706782613388,-0.442647792190611
-0.124957219340762,-0.498107479451012
-0.1289457613023,-0.448149263759324
-0.141186506315133,-0.488299841005948
-0.124276343316809,-0.475362130429234
-0.180603370535884,-0.511619276141976
-0.204464950732613,-0.515076280305496
-0.174071178106294,-0.523753587188413
-0.242944392121047,-0.480228295156238
-0.266192425029027,-0.579959514661877
-0.312551341171933,-0.505812096270782
-0.239824777827055,-0.507777470110949
-0.302517306157441,-0.552281105406616
-0.354583115105935,-0.533431426311379
-0.299962981248403,-0.536148206045472
-0.361362190908629,-0.573486128468416
-0.374704850824291,-0.578041798314102
-0.388081409520122,-0.582558010782381
-0.426926962888273,-0.619166527822084
-0.487107440397191,-0.633600883922007
-0.482510267496408,-0.61324852640626
-0.509232168338689,-0.630231746766202
-0.517012153637233,-0.64007407367308
-0.536909299424092,-0.630274181544444
-0.560531284005512,-0.676178728323786
-0.550023009017476,-0.669174950687007
-0.605065362528697,-0.651373188192364
-0.572407487918629,-0.646997507795049
-0.660952164937378,-0.620329277535904
-0.685210068275741,-0.709685918462839
-0.702691899440047,-0.679569379522906
-0.637920681823225,-0.705865463115565
-0.69592193218235,-0.69615470083924
-0.708974917576362,-0.653511260508498
-0.764481944305785,-0.690234786774442
-0.750418658092993,-0.744482495646523
-0.801776768779365,-0.75401836179884
-0.845109284998211,-0.733519527277908
-0.870316773683943,-0.74435102742826
-0.903678330673163,-0.770294358503796
-0.941750062487557,-0.783850018523479
-0.941488300671306,-0.782026315560028
1.02364554637282,0.907674007702555
1.00183696432618,0.892886260709133
0.996618628120459,0.910433305817711
0.916642801986273,0.851446778038648
0.883184603901733,0.798960252904817
0.886290302520435,0.859675562507177
0.758114681682243,0.794935235726106
0.744578919758603,0.790604332045124
0.777753137054366,0.812463375173671
0.761941947097937,0.774571674040392
0.68394014019111,0.800887448921465
0.660321719894281,0.771711031191385
0.637815351103746,0.724839736634123
0.667672945776689,0.706724732388347
0.58672455026706,0.738257732309747
0.576392238043776,0.734942742299377
0.582028058418531,0.742199131935092
0.507784726885746,0.72699022617002
0.343964889282269,0.693157514155148
0.328930299991737,0.667301858169058
0.335491637826216,0.659775458279227
0.189260667792592,0.570231134664048
0.183554310347556,0.638777465328532
0.174528177684967,0.57745961098874
0.186559312064873,0.570989273616383
0.138693728579412,0.571874685680281
0.116973751745809,0.584511299632001
0.102516853468593,0.553725081539443
0.0979447360208206,0.502320482732388
0.0319349165707061,0.515363524504796
-0.0692770784654563,0.45239599971982
-0.0821814858384435,0.449749809906084
-0.164635965242601,0.382615595520762
-0.152106958423256,0.422912569127181
-0.1950913151241,0.35780627149657
-0.208530414661874,0.366492986906761
-0.215022663906678,0.340833469435966
-0.244361134539215,0.314724124413266
-0.263548273678589,0.296885079950579
-0.273030562177308,0.287836029187721
-0.312568185500568,0.249538590822539
-0.332915554807436,0.235778681976111
-0.376035864526412,0.231870823811309
-0.355064413153279,0.202545598847957
-0.372497153347832,0.182664475557008
-0.39811494948846,0.152224353529907
-0.387319276128992,0.0835895023022517
-0.450737637978773,0.131007951103014
-0.461777714719016,0.115509362454887
-0.486797363243338,0.0345002727526666
-0.506528138213241,-0.00418341786557486
-0.546480220639859,-0.0567199748120919
-0.587790704775675,-0.123035659579918
-0.616165767042537,-0.17646974931026
-0.636182684124095,-0.158478228235126
-0.636865818936703,-0.153842365344103
-0.64440794324654,-0.171605090643005
-0.657317463465732,-0.23941478155714
-0.712330135810541,-0.27841628613279
-0.700554456033606,-0.336863112636584
-0.775195808581343,-0.447981712811386
-0.746164204770909,-0.496136441067362
-0.800648832860166,-0.544235920299854
-0.831789523877282,-0.566215932173957
-0.826277820748419,-0.594749225436059
-0.869831045520319,-0.666890606415515
-0.829404424919879,-0.638689113970069
-0.813606375344052,-0.630296037169723
-0.848760875203634,-0.697479722192579
-0.934206891315663,-0.770415493590626
-0.913643609647468,-0.79599025580768
-1.00197483778921,-0.781287357599673
