0.0212810403342138,0.0501696921665309
0.0228053485986266,0.0462225177107867
0.0245066352182979,0.0422850891133426
0.0263857452637045,0.0383646772283042
0.0284432401979928,0.0344686141088234
0.0306793949146875,0.0306042823193991
0.0330941951683749,0.0267791041240281
0.0356873354031877,0.0230005305643904
0.038458216983413,0.0192760304424328
0.0414059468300328,0.0156130792218753
0.0445293364664928,0.0120191478633094
0.0478269014764683,0.00850169160768158
0.0512968613758738,0.00506813872306242
0.0549371399008297,0.00172587922968964
0.0587453657127666,-0.00151774638165614
0.0627188735213108,-0.0046554584228338
0.0668547056250569,-0.00768004925794161
0.0711496138697919,-0.0105843945141798
0.0756000620231968,-0.0133614642388279
0.0802022285645112,-0.0160043339872142
0.0849520098871035,-0.0185061958265965
0.0898450239113553,-0.0208603692409399
0.0948766141047296,-0.0230603119216561
0.100041853905358,-0.0250996304294712
0.105335551544956,-0.0269720907127083
0.110752255266339,-0.0286716284674095
0.116286258930306,-0.0301923593248795
0.121931608006124,-0.0315285888524065
0.127682105939347,-0.0326748223531127
0.133531320890192,-0.0336257744510947
0.13947259283521,-0.0343763784482472
0.14549904102448,-0.034921795439407
0.151603571786094,-0.0352574231727218
0.157778886669214,-0.035378904642426
0.164017490916532,-0.0352821364015081
0.170311702256506,-0.0349632765820637
0.176653660005293,-0.0344187526114635
0.183035334467898,-0.0336452686128077
0.189448536627614,-0.0326398124785017
0.195884928112423,-0.0313996626061644
0.202336031426667,-0.0299223942864699
0.208793240435869,-0.0282058857329272
0.215247831092267,-0.0262483237440261
0.221690972388233,-0.0240482089885995
0.228113737524449,-0.021604360905706
0.23450711527936,-0.018915922210785
0.240862021566136,-0.0159823630003088
0.247169311163084,-0.0128034844476313
0.253419789603182,-0.0093794220832249
0.259604225208132,-0.00571064865299281
0.26571336125212,-0.00179797654885416
0.271737928240234,0.00235744019368433
0.277668656286274,0.00675410433573234
0.283496287574544,0.0113901743172247
0.289211588890006,0.0162634635848249
0.294805364201055,0.0213714403686694
0.300268467279037,0.0267112279105436
0.305591814338522,0.032279605145532
0.310766396682263,0.0380730078386153
0.315783293334676,0.0440875301771329
0.320633683647671,0.050318926819455
0.325308859862567,0.0567626153996441
0.329800239611886,0.0634136794873137
0.334099378344771,0.0702668720013206
0.338197981659825,0.0773166190753553
0.342087917529222,0.0845570243729239
0.345761228397992,0.0919818738486469
0.34921014314249,0.0995846409522282
0.352427088872139,0.107358492270886
0.3554047025587,0.115296293605471
0.358135842477432,0.123390616474947
0.360613599444707,0.131633745043342
0.362831307836798,0.140017683462736
0.364782556374789,0.148534163625324
0.366461198660773,0.157174653317023
0.367861363450732,0.165930364764595
0.368977464649779,0.174792263567721
0.36980421101571,0.183751078006953
0.370336615557102,0.192797308717971
0.370570004612533,0.201921238722063
0.370500026597812,0.211112943802297
0.370122660408467,0.220362303214337
0.369434223465101,0.22965901072044
0.368431379389619,0.238992585934687
0.367111145300716,0.248352385967091
0.36547089871744,0.25772761735379
0.363508384060062,0.26710734826013
0.361221718737953,0.276480520943044
0.358609398814592,0.285835964458775
0.355670304240336,0.295162407601593
0.352403703644036,0.30444849205884
0.348809258675111,0.313682785767302
0.344887027888174,0.32285379645557
0.340637470162845,0.331949985356787
0.336061447651907,0.340959781075878
0.331160228251502,0.34987159359511
0.325935487587622,0.358673828401578
0.320389310513714,0.367354900719998
0.314524192114764,0.37590324983398
0.308343038213831,0.384307353478765
0.301849165377569,0.392555742288254
0.295046300417859,0.400637014278997
0.287938579387291,0.408539849353708
0.280530546066812,0.416253023806732
0.272827149944469,0.423765424813849
0.264833743684802,0.431066064888688
0.256556080089023,0.438144096288036
0.248000308546743,0.444988825348243
0.239172970980649,0.451589726734983
0.230080997286097,0.45793645758861
0.220731700268251,0.464018871547403
0.211132770079989,0.469827032631065
0.201292268164414,0.475351228966908
0.191218620706418,0.480581986341282
0.18092061159837,0.485510081558904
0.170407374925582,0.490126555592921
0.159688386977813,0.494422726508693
0.148773457793696,0.498390202144459
0.13767272224551,0.502020892532294
0.126396630672351,0.505307022042959
0.114955939070304,0.508241141238507
0.103361698848801,0.510816138416806
0.0916252461628924,0.513025250832372
0.0797581908317413,0.514862075578288
0.0677724048541465,0.516320580114241
0.055680010532475,0.517395112426111
0.0434933682168736,0.518080410802897
0.0312250636821461,0.518371613217127
0.0188878951501801,0.518264266295337
0.00649485997128288,0.517754333865603
-0.00594085902174277,0.516838205069548
-0.0184059074724994,0.515512702026706
-0.0308867737581511,0.51377508703959
-0.0433698035296934,0.511623069328307
-0.0558412145197812,0.50905481128403
-0.0682871116021747,0.506068934231211
-0.0806935020864928,0.502664523688874
-0.0930463112315961,0.498841134121941
-0.105331397960596,0.494598793174045
-0.117534570760161,0.489938005373877
-0.129641603746496,0.484859755307692
-0.141638252880075,0.479365510251178
-0.153510272310971,0.473457222254505
-0.16524343083636,0.467137329674969
-0.17682352845158,0.460408758152274
-0.188236412975894,0.453274921022115
-0.199467996733965,0.445739719164372
-0.210504273273866,0.437807540282844
-0.221331334102315,0.429483257614132
-0.231935385417733,0.420772228063899
-0.242302764821593,0.411680289769421
-0.252419957988501,0.40221375908799
-0.262273615275359,0.392379427011404
-0.271850568249986,0.382184555007435
-0.281137846119506,0.37163687028985
-0.290122692038908,0.360744560519225
-0.298792579280152,0.349516267937457
-0.307135227242322,0.337961082939559
-0.315138617283374,0.326088537086984
-0.322791008354165,0.313908595567405
-0.330080952415564,0.301431649106514
-0.336997309619628,0.288668505338093
-0.343529263235967,0.275630379639264
-0.349666334304673,0.262328885438434
-0.355398395997369,0.248776024004167
-0.360715687668207,0.234984173723788
-0.365608828576903,0.220966078881181
-0.370068831266189,0.206734837943884
-0.374087114576376,0.192303891370159
-0.377655516280046,0.177687008947345
-0.380766305320261,0.162898276673397
-0.38341219363603,0.147952083194071
-0.385586347559199,0.132863105808815
-0.387282398767303,0.117646296058972
-0.3884944547774,0.102316864912432
-0.389217108966317,0.0868902675594266
-0.389445450103231,0.0713821878346611
-0.389175071381008,0.0558085222814679
-0.388402078933197,0.0401853638741849
-0.387123099824131,0.0245289854153917
-0.385335289500115,0.00885582262512158
-0.383036338690232,-0.00681754306042745
-0.380224479745884,-0.0224744019627164
-0.37689849240876,-0.038097933888882
-0.373057708997528,-0.0536712260952148
-0.368702019004169,-0.0691772914670104
-0.363831873091476,-0.0845990868953717
-0.358448286483922,-0.099919531831216
-0.352552841744702,-0.115121526996452
-0.34614769093246,-0.130187973232008
-0.339235557131855,-0.14510179046215
-0.331819735352819,-0.159845936754283
-0.323904092794041,-0.174403427453243
-0.315493068466916,-0.18875735436887
-0.306591672176895,-0.202890904995528
-0.297205482859898,-0.216787381742068
-0.287340646272154,-0.230430221150627
-0.277003872032572,-0.243803013082572
-0.266202430017443,-0.256889519849823
-0.254944146108061,-0.269673695269737
-0.243237397292505,-0.282139703621748
-0.231091106123631,-0.294271938483928
-0.218514734536016,-0.306055041427686
-0.205518277025329,-0.317473920548879
-0.19211225319438,-0.328513768813673
-0.178307699670774,-0.339160082197626
-0.164116161401865,-0.349398677596555
-0.149549682333423,-0.359215710487945
-0.134620795479145,-0.368597692321806
-0.119342512388857,-0.377531507620106
-0.103728312023977,-0.38600443076413
-0.087792129049499,-0.39400414244936
-0.0715483415524681,-0.401518745787759
-0.0550117581975982,-0.408536782037636
-0.0381976048313703,-0.415047245941596
-0.0211215105466133,-0.421039600653406
-0.00379949322023318,-0.426503792235021
0.0137520554625937,-0.431430263705346
0.0315163854838171,-0.43580996862279
0.0494764044529219,-0.439634384184034
0.0676146940371719,-0.442895523821964
0.0859135268459081,-0.445585949286139
0.104354883752542,-0.447698782189693
0.122920471637323,-0.449227715007092
0.141591741533415,-0.450167021507681
0.160349907158273,-0.450511566610544
0.179175963811816,-0.450256815646755
0.198050707622377,-0.449398843015692
0.216954755120971,-0.447934340222718
0.235868563123908,-0.445860623286133
0.254772448903421,-0.443175639501968
0.27364661062548,-0.439877973555839
0.292471148033654,-0.435966852971751
0.311226083357433,-0.431442152888447
0.329891382423137,-0.42630440015458
0.348446975945184,-0.420554776734704
0.366872780975173,-0.414195122418821
0.385148722486003,-0.407227936828932
0.403254755067949,-0.399656380716816
0.421170884713415,-0.391484276547991
0.438877190666863,-0.382716108367599
0.456353847316255,-0.373357020944716
0.473581146102163,-0.363412818192372
0.490539517420609,-0.352889960861363
0.507209552495559,-0.3417955635067
0.523572025196937,-0.330137390726391
0.539607913779987,-0.317923852672973
0.555298422521751,-0.305163999839106
0.570625003230472,-0.291867517119265
0.585569376603739,-0.278044717150422
0.600113553411251,-0.263706532935393
0.614239855478164,-0.248864509753352
0.627930936445096,-0.233530796362784
0.641169802280998,-0.217718135502985
0.653939831525265,-0.201439853700989
0.666224795235645,-0.184709850391621
0.678008876618739,-0.167542586359129
0.689276690320105,-0.149953071509665
0.700013301351271,-0.131956851984644
0.710204243631236,-0.113569996625758
0.719835538120376,-0.0948090828032374
0.728893710525025,-0.0756911816196252
0.737365808551335,-0.0562338425021335
0.745239418687479,-0.0364550771973462
0.752502682493618,-0.0163733431827423
0.759144312379552,0.00399247348975659
0.765153606850406,0.0246230759023494
0.770520465201222,0.0454987745154778
0.77523540164184,0.0665995059303012
0.779289558833969,0.0879048521516684
0.782674720822942,0.109394060333129
0.78538332534721,0.131046062984881
0.787408475509237,0.152839498624995
0.788743950792091,0.174752732853684
0.789384217406653,0.196763879829801
0.789324437955045,0.218850824128284
0.788560480396556,0.24099124295668
0.78708892630302,0.26316262870846
0.784907078391363,0.285342311830339
0.782012967321713,0.307507483980378
0.77840535775026,0.329635221453235
0.774083753626788,0.351702508848535
0.769048402727584,0.373686262957954
0.763300300415231,0.395563356846281
0.756841192617567,0.417310644101385
0.749673578018936,0.438904983227763
0.741800709457659,0.460323262158006
0.733226594524495,0.481542422856363
0.723955995357713,0.502539485988317
0.713994427631224,0.523291575629924
0.703348158733115,0.543775943990497
0.692024205132746,0.563969996122122
0.680030328935504,0.583851314589329
0.667375033625106,0.603397684072247
0.65406755899429,0.622587115876469
0.640117875265575,0.641397872322863
0.625536676404654,0.659808490990599
0.610335372629895,0.677797808786655
0.594526082122275,0.695344985815189
0.578121621940963,0.712429529020248
0.56113549815067,0.729031315575406
0.543581895167724,0.745130615994099
0.525475664332725,0.760708116934608
0.506832311718488,0.775744943673865
0.487667985182867,0.79022268222449
0.467999460676862,0.804123401069772
0.447844127819312,0.817429672491564
0.427219974750255,0.830124593466469
0.40614557227593,0.84219180610596
0.384640057319144,0.853615517616553
0.36272311568959,0.864380519756512
0.340414964189441,0.874472207766037
0.317736332070386,0.883876598748331
0.294708441858962,0.892580349479465
0.271352989567869,0.900570773625467
0.247692124311603,0.907835858345589
0.223748427345542,0.914364280261324
0.199544890548232,0.920145420771298
0.17510489436738,0.925169380692792
0.150452185250662,0.929426994211311
0.125610852583128,0.932909842120251
0.100605305153579,0.935610264333435
0.075460247172915,0.937521371653959
0.0502006538680058,0.938637056783558
0.0248517466751997,0.938952004557413
-0.000561031941895385,0.938461701390122
-0.0260120440252117,0.937162443919308
-0.0514754819799861,0.93505134683417
-0.0769253947314097,0.932126349877092
-0.102335714153682,0.928386224007247
-0.127680281744545,0.923830576716011
-0.152932875518057,0.918459856484845
-0.178067237087967,0.912275356377182
-0.203057098913778,0.905279216756772
-0.22787621168128,0.897474427125796
-0.252498371789074,0.888864827077013
-0.276897448912387,0.879455106355111
-0.301047413615282,0.869250804023357
-0.324922364982192,0.858258306732581
-0.348496558239563,0.846484846090498
-0.371744432338327,0.833938495130278
-0.394640637467755,0.82062816387828
-0.417160062471338,0.806563594021774
-0.439277862135164,0.791755352678499
-0.460969484319429,0.776214825270793
-0.482210696903684,0.759954207508059
-0.502977614516485,0.742986496482276
-0.523246725020328,0.725325480882195
-0.542994915722759,0.706985730332881
-0.562199499284857,0.687982583868141
-0.580838239298373,0.668332137544426
-0.598889375503166,0.648051231205628
-0.616331648616739,0.62715743440924
-0.633144324748053,0.605669031525209
-0.649307219368105,0.583605006019751
-0.664800720810095,0.560985023937344
-0.679605813272456,0.537829416594953
-0.693704099298375,0.514159162503505
-0.707077821705943,0.489995868532448
-0.719709884943513,0.465361750334146
-0.731583875845399,0.44027961204565
-0.742684083763517,0.414772825286307
-0.752995520051236,0.388865307470369
-0.76250393687619,0.362581499454711
-0.771195845339512,0.33594634254239
-0.779058532879562,0.308985254863664
-0.786080079938869,0.281724107156803
-0.79224937587377,0.254189197971661
-0.797556134086869,0.226407228319846
-0.801990906363274,0.198405275795792
-0.805545096392248,0.170210768193911
-0.808210972456786,0.141851456647426
-0.809981679274371,0.113355388315264
-0.810851248973051,0.0847508786438341
-0.810814611187783,0.0560664832311551
-0.809867602262919,0.0273309693212848
-0.808006973547533,-0.00142671304251596
-0.805230398771258,-0.0301774601769267
-0.801536480489178,-0.0588920442006821
-0.796924755585289,-0.087541142729876
-0.791395699824989,-0.1160953687963
-0.784950731448009,-0.144525300958307
-0.777592213794203,-0.172801513573419
-0.769323456955593,-0.200894607201485
-0.760148718449047,-0.228775239107144
-0.750073202905035,-0.25641415382989
-0.739103060768856,-0.283782213790048
-0.727245386011815,-0.310850429898706
-0.714508212850832,-0.337589992139497
-0.70090051147601,-0.363972300090184
-0.686432182786748,-0.389968993351737
-0.671114052137981,-0.415551981852764
-0.654957862099268,-0.440693475997011
-0.637976264230379,-0.465366016621829
-0.6201828098782,-0.489542504735452
-0.60159194000073,-0.513196231001163
-0.582218974025036,-0.536300904936484
-0.562080097747071,-0.558830683795761
-0.541192350282267,-0.580760201104712
-0.519573610076894,-0.602064594815754
