0.930014533436542,-0.331063417884958
0.83736930108212,-0.43402737182956
0.938822950998743,-0.300822719093519
1.05122883882119,-0.180097754602656
0.944363272168843,-0.269708269022
0.945903355220531,-0.253905296406025
0.946627542894194,-0.237982973462903
1.03804841727597,-0.123164945381001
0.945660371562626,-0.205914049206416
0.943993156318584,-0.189833721467338
0.941558214087684,-0.173766168430181
0.938375391018286,-0.157742971519684
0.934467473026076,-0.141794726508365
0.92986006474618,-0.125950851989214
0.924581452307948,-0.110239406327398
0.918662450728787,-0.0946869142654594
1.01260284531491,0.0256260415157653
0.905038168558163,-0.0641562578309169
0.897405592052524,-0.0492220711744428
1.00550892857764,0.0816029768412725
0.880695002818872,-0.0201103050131956
0.871699734046782,-0.00596374601169281
0.862334990690357,0.00789318594900162
0.949322127094177,0.116076092189621
0.842673867462982,0.0347026547316031
0.832467226219551,0.0476437185964251
0.822070095401149,0.0602722505046656
0.699067741450646,-0.027080926995968
0.800884434566388,0.0845966724448913
0.790184819969864,0.0963012877538178
0.779472062596735,0.107710725678076
0.884713799421134,0.224627690701239
0.747670805090944,0.140282817269961
0.737313993144517,0.150637243392344
0.727140206234825,0.160769780821057
0.717183118039727,0.170700896606869
0.698042116863278,0.190048545281469
0.688913466094153,0.199513307298839
0.671657758657618,0.218153495754542
0.774722668310023,0.334205382639474
0.655861103529374,0.236588723156446
0.648544954698322,0.245798973071252
0.64162941171377,0.255041685793293
0.635119906015611,0.264344706309005
0.51386415653783,0.177510303319316
0.623324954884767,0.283240809612835
0.618034651168188,0.292886703838991
0.613140748715001,0.302698112272101
0.60863319885476,0.312698754683131
0.604499040399347,0.322910921960649
0.600722501565543,0.333355291300697
0.597285118204987,0.344050750957704
0.594165867581007,0.355014235712708
0.591341316838559,0.366260574149876
0.586471519041978,0.389649769811625
0.58436887821713,0.401810563843542
0.580671671963545,0.427090197703545
0.579010212746576,0.440211287755845
0.575886161524218,0.467400954066457
0.574351074967049,0.481455111046133
0.572784863778972,0.495801194893279
0.571150498798947,0.51042500964994
0.464265290214083,0.414178656627141
0.567529955419286,0.540435427795394
0.563199481132502,0.571319277616511
0.465975526511353,0.481533272997938
0.557881685446612,0.60286953018727
0.554770982435011,0.618819850029766
0.551318562950858,0.634842996851186
0.547496233453435,0.650903700136608
0.543277757959483,0.666965069357897
0.53863901348395,0.682988786614569
0.533558131530545,0.698935309415741
0.528015624802982,0.714764082398717
0.521994498401581,0.730433756721847
0.403898544901137,0.636622022354971
0.508461422543742,0.761127806161592
0.50092871681046,0.776067571637625
0.492875983893488,0.7906794901371
0.386305267666298,0.705572011497694
0.475199454780546,0.818752991260009
0.455437851985679,0.845022204198513
0.433641358549418,0.869178163468667
0.409902637712486,0.890936156461594
0.397344860240313,0.900835217488486
0.370952471192481,0.918531623455128
0.35716412276018,0.926279753521297
0.343014965582135,0.93326622243239
0.328532553866542,0.939473414720969
0.313745890842023,0.944886724415853
0.283381910865976,0.953288856195064
0.252176573083074,0.958419027866671
0.236340623149543,0.959754639064629
0.220393696959456,0.960275853765917
0.204369257737175,0.959990710544288
0.188300555286071,0.958910486882448
0.156161024366103,0.954425754398825
0.124228879542547,0.946974110906225
0.10841553878882,0.942196148254685
0.0927414084001449,0.936754454402713
0.0619135055429435,0.924007877664691
0.046806611013835,0.916772607895797
0.140552013558451,1.00254429992647
-0.0866280637579963,0.781717625704398
0.00295315238976815,0.892077174382313
-0.0111220261057382,0.882985452338788
-0.144235677007595,0.764176087720673
-0.0383867948186916,0.863770613695159
-0.0515611315697553,0.853736511405363
-0.0644241438402423,0.843478009285553
-0.0769745392620936,0.83304031319615
-0.089213559114988,0.82246846355319
-0.124112101052339,0.790390771483864
-0.135167411014217,0.779720863257496
-0.145954029556091,0.769131042055815
-0.156487253547561,0.758660339257351
-0.176864580159868,0.738223325304306
-0.301434085001004,0.609507825825297
-0.196459266232656,0.718683041776664
-0.206020010977476,0.709324519112126
-0.30862870490247,0.598516266870534
-0.224793218165495,0.691558889262816
-0.234058555628799,0.683194713260131
-0.243279448487681,0.675200040232573
-0.270954679588666,0.653557799504925
-0.280277085021743,0.647150281583026
-0.289694009158152,0.64115115039987
-0.39327277705175,0.526622545513574
-0.430813463434309,0.529763557591535
-0.328825102339214,0.621159195659327
-0.339093448609234,0.617116028027437
-0.34959889333748,0.613426111423089
-0.360359851391737,0.610070328920029
-0.382711853328329,0.604272236447252
-0.394329177567051,0.601779700060588
-0.418494360862576,0.597466620224178
-0.317118553132609,0.705801046507833
-0.443934440809508,0.593841004714926
-0.457135362572231,0.592202443085803
-0.498608744131055,0.587557859150524
-0.513025699314465,0.585978080802248
-0.542663259449992,0.58254945409148
-0.6539125065407,0.477643672795313
-0.588825245481894,0.576188228047887
-0.620442392812732,0.570728407814211
-0.652450039505108,0.563992692137645
-0.66851442689256,0.560073705777797
-0.684570026800013,0.555752338809496
-0.700578195798428,0.551005019168992
-0.716499118008592,0.545810462375033
-0.747915386192482,0.534006659017442
-0.675860601411083,0.626475880242178
-0.807870300697458,0.504375053802907
-0.822013623938525,0.495667768697837
-0.848996731712699,0.476684534445105
-0.861757340769544,0.466417045193161
-0.873979978888096,0.45564249847875
-0.885628552576539,0.444371860347479
-0.896668751797954,0.432618660098928
-0.925826894616249,0.394635264773945
-0.934132961150132,0.381134630028696
-0.851514939651374,0.423457713990169
-0.967703569899767,0.293115889135317
-0.970473855598073,0.277554544526937
-0.972423569991123,0.261823794590096
-1.07747775489841,0.131155553851752
-0.87157373362869,0.332812080965392
-0.877913759135647,0.297277970943675
-0.856785571107173,0.267465998182994
-0.963698479044697,0.149757611584991
-0.954490736403454,0.118076879849449
-0.935844340517188,0.0717100253026773
-0.903434219543431,0.0130015127220139
-0.894248758005565,-0.00100157553180008
-0.864785129958246,-0.0412121922843974
-0.833403755094352,-0.0786310733950522
-0.812015361186622,-0.102042310047863
-0.801311954810986,-0.113307903133572
-0.780094684819365,-0.135016475806042
-0.749320503631043,-0.165759172923431
-0.720626278904618,-0.194795727619384
-0.686854791345617,-0.2319870122597
-0.638027368550024,-0.307673350350887
-0.633708312786297,-0.317777065464634
-0.617219557708956,-0.371993836812527
-0.610575133196607,-0.408010187144956
-0.599166459302368,-0.503079380650163
-0.595678427108214,-0.532843704734877
-0.586506143731578,-0.594932214566208
-0.583555160372468,-0.610833450651719
-0.5726260188084,-0.658936665249719
-0.552253797085793,-0.722621416055247
-0.539222553646607,-0.753548167202572
-0.515841366427675,-0.797849407422013
-0.612907720321565,-0.918079198401936
-0.477364534381958,-0.851270900554909
-0.430867122197091,-0.895970459290988
-0.418090208525041,-0.905526954291453
-0.377320905194432,-0.929869365923694
-0.363001581506075,-0.936468212729028
-0.34836333556967,-0.942280097564013
-0.333435823682612,-0.947291954915847
-0.318249860673735,-0.951493860757291
-0.287230414965527,-0.95744420652072
-0.351266293426187,-1.06501824345883
-0.223526321372266,-0.959549153784304
-0.159367103277873,-0.949105049813929
-0.0665271683055056,-0.912955707872567
-0.00913730524920161,-0.878302392156437
0.0308437477033207,-0.848632483976074
0.0798091878299233,-0.806456604667481
0.102486270938855,-0.785048309803285
0.212613515472136,-0.674808389701182
0.134476228069554,-0.753481373756132
0.0554074557543191,-0.813926823374421
0.211484877937581,-0.67915024014001
0.229900487782158,-0.66393068961
0.239132463216123,-0.656914362598904
0.276866695591304,-0.632913710191004
0.286634450113601,-0.627921533714955
0.296585635216694,-0.623318498661148
0.501669520515512,-0.485298801739997
0.507971074286091,-0.583451750382058
0.52303856292367,-0.581609466197223
0.569490873182164,-0.574929330886387
0.617238309393723,-0.565809250735577
0.633293021977745,-0.562081937592049
0.697226205047799,-0.543039474719124
0.728462430439319,-0.530749765818862
0.828254016869606,-0.471614754896708
