0.317257380485044,-0.666302859830172
0.317167242595612,-0.665989855822944
0.316910084327474,-0.66504746543831
0.316505987770967,-0.663471445348339
0.315975260543337,-0.661258659697084
0.315338385662357,-0.658407088747558
0.314615971055119,-0.654915835113792
0.313828698815885,-0.650785127563629
0.312997274327359,-0.646016322383323
0.312142375360125,-0.640611902300439
0.311284601264964,-0.634575472966964
0.310444422372596,-0.627911757009991
0.309642129714902,-0.620626585662711
0.308897785180952,-0.612726887993865
0.308231172220205,-0.604220677759135
0.307661747203991,-0.595117037903219
0.307208591554934,-0.585426102746611
0.30689036475223,-0.575159037896198
0.306725258318739,-0.564328017923902
0.306730950893661,-0.552946201862498
0.306924564492099,-0.541027706572665
0.307322622050199,-0.528587578039989
0.307941006351639,-0.515641760665292
0.308794920428166,-0.50220706461609
0.309898849523574,-0.488301131311317
0.311266524707013,-0.473942397115575
0.312910888217836,-0.459150055323178
0.314844060620299,-0.443944016516038
0.317077309842401,-0.428344867383052
0.319621022168911,-0.41237382809209
0.322484675254267,-0.396052708308876
0.325676813216524,-0.379403861960059
0.32920502386883,-0.36245014084058
0.333075918140192,-0.345214847167972
0.337295111732316,-0.327721685188599
0.341867209054378,-0.309994711942924
0.346795789472428,-0.292058287298744
0.352083395904978,-0.273937023362998
0.357731525791071,-0.255655733384057
0.363740624451821,-0.237239380257603
0.370110080861039,-0.218713024750018
0.376838225835209,-0.20010177355385
0.383922332647615,-0.181430727290275
0.391358620066037,-0.162724928573598
0.39914225780799,-0.144009310252644
0.407267374402062,-0.125308643943546
0.415727067438549,-0.106647488967703
0.424513416187211,-0.0880501418078327
0.433617496554681,-0.0695405861938302
0.443029398348835,-0.0511424439287478
0.452738244812252,-0.0328789265635476
0.462732214381811,-0.0147727880273699
0.4729985646265,0.00315372168207861
0.483523658310632,0.0208789016457882
0.494292991524884,0.038381643908737
0.505291223822974,0.0556414760064101
0.516502210297264,0.0726386020387828
0.527909035522274,0.0893539422012672
0.539494049290859,0.105769170685556
0.55123890406381,0.121866751866955
0.563124594049816,0.137629974698623
0.575131495829009,0.153042985237143
0.587239410429924,0.168090817228031
0.599427606766378,0.182759420684126
0.611674866337773,0.197035688394274
0.623959529093451,0.210907480304375
0.636259540359128,0.22436364571757
0.648552498721051,0.237394043265271
0.660815704761357,0.249989558605671
0.673026210536193,0.262142119811461
0.685160869686486,0.273844710413665
0.697196388069815,0.285091380073703
0.709109374800665,0.295877252861099
0.720876393585391,0.30619853311963
0.732474014237576,0.316052508910035
0.743878864259003,0.32543755302288
0.755067680371341,0.334353121560542
0.766017359883689,0.342799750092749
0.776705011781511,0.350779047395494
0.787108007423061,0.35829368678856
0.797204030730287,0.365347395092239
0.80697112776227,0.371944939229142
0.81638775556066,0.378092110502268
0.825432830158136,0.383795706585664
0.834085773642781,0.389063511269125
0.842326560173352,0.393904272003402
0.850135760842746,0.398327675297271
0.857494587289503,0.402344320022636
0.864384933959967,0.405965688688478
0.870789418926725,0.409204116749022
0.876691423172137,0.412072760015857
0.882075128249166,0.414585560247978
0.886925552235348,0.416757208997795
0.891228583899493,0.418603109795025
0.894971015004703,0.420139338754099
0.898140570675432,0.421382603694238
0.900725937760587,0.422350201864639
0.90271679112916,0.42305997637037
0.904103817839438,0.423530271397411
0.90487873912759,0.423779886337996
0.905034330166259,0.423828028919845
0.904564437548762,0.42369426744509
0.903463994459532,0.423398482246689
0.901729033496603,0.422960816471843
0.89935669711715,0.422401626303471
0.896345245682377,0.421741430731976
0.892694063083385,0.421000860990616
0.88840365993505,0.420200609768456
0.883475674330311,0.419361380315431
0.87791287015273,0.418503835554246
0.871719132950599,0.417648547313828
0.864899463381289,0.416815945798769
0.857459968239954,0.416026269408657
0.849407849092056,0.415299515020407
0.84075138853452,0.414655388845673
0.831499934115607,0.41411325797409
0.821663879948768,0.413692102711625
0.811254646060923,0.413410469821447
0.800284655520587,0.41328642677279
0.788767309396253,0.41333751710094
0.776716959600235,0.41358071697906
0.76414887967789,0.4140323930998
0.751079233606698,0.414708261961735
0.737525042674112,0.415623350652514
0.723504150507353,0.416791959217259
0.709035186332435,0.418227624697202
0.694137526543641,0.419943086919807
0.678831254668433,0.421950256117703
0.663137119816319,0.424260182449673
0.647076493703603,0.426883027492662
0.630671326349078,0.429828037769388
0.613944100538684,0.433103520371555
0.596917785159887,0.436716820733995
0.579615787509042,0.440674302610253
0.562061904677261,0.444981330295194
0.544280274122403,0.44964225313518
0.526295323536519,0.454660392361273
0.508131720119738,0.460038030275685
0.489814319372825,0.465776401816455
0.471368113521712,0.471875688519999
0.45281817968816,0.478335014895836
0.434189627921185,0.485152447222351
0.415507549204249,0.49232499476709
0.396796963553227,0.499848613429612
0.378082768319934,0.507718211799539
0.359389686815567,0.515927659617004
0.340742217367651,0.524469798617352
0.322164582923108,0.53333645573659
0.303680681308876,0.542518458648802
0.28531403625996,0.55200565360155
0.267087749323139,0.56178692551008
0.249024452742544,0.571850220266165
0.23114626343115,0.582182569212405
0.213474738129769,0.592770115727976
0.196030829852496,0.603598143867088
0.178834845714656,0.614651108986819
0.161906406236225,0.625912670296526
0.145264406210388,0.637365725256728
0.128926977223398,0.64899244575123
0.112911451908211,0.660774315952247
0.0972343300104884,0.672692171794528
0.0819112463415149,0.684726241970849
0.0669569406883533,0.696856190357831
0.0523852297471959,0.709061159777847
0.0382089811413372,0.72131981699975
0.0244400895805489,0.73361039887841
0.0110894552138352,0.74591075953045
-0.00183303577732544,0.75819841844127
-0.014318528303183,0.770450609396327
-0.0263592131703661,0.782644330127808
-0.0379483395351751,0.794756392566177
-0.0490802249789682,0.806763473584756
-0.0597502631843878,0.818642166124339
-0.0699549291965437,0.830369030583998
-0.0796917822586575,0.84192064636361
-0.0889594662170862,0.853273663443286
-0.0977577074960714,0.864404853884774
-0.10608731064799,0.875291163140069
-0.113950151490284,0.885909761052866
-0.121349167845642,0.896238092439162
-0.128288347907361,0.906253927134237
-0.134772716257091,0.915935409394401
-0.140808317567449,0.925261106543331
-0.146402198027104,0.934210056754475
-0.151562384531052,0.942761815862908
-0.156297861683791,0.950896503102186
-0.160618546667941,0.958594845664107
-0.164535262035682,0.965838221981889
-0.168059706484955,0.972608703640132
-0.17120442368691,0.97888909581795
-0.173982769235412,0.984662976174914
-0.176408875793602,0.989914732092919
-0.178497616516549,0.994629596190714
-0.180264566832854,0.998793680031696
-0.18172596467173,1.00239400594954
-0.182898669225565,1.0054185369205
-0.183800118341212,1.00785620441535
-0.18444828463632,1.00969693416886
-0.184861630439883,1.01093166980865
-0.185059061658742,1.01155239429077
-0.185059880674244,1.01155214909362
-0.184883738375363,1.01092505112726
-0.184550585436529,1.00966630731979
-0.184080622950106,1.00777222684818
-0.18349425252486,1.00524023098563
-0.182812025962988,1.0020688605432
-0.182054594629155,0.998257780888728
-0.181242658625741,0.993807784531272
-0.180396915888843,0.988720791264974
-0.17953801131982,0.982999845871483
-0.178686486067028,0.976649113385599
-0.177862727072086,0.96967387193417
-0.177086916994387,0.962080503163726
-0.176378984626741,0.953876480277621
-0.17208182899342,0.946651792662365
-0.123131600865271,0.922455278814226
-0.20001723080994,0.93572181696785
-0.174613000661964,0.915140648785035
-0.172733367815236,0.939888184089071
-0.196376710560823,0.890181498036804
-0.177043895979316,0.871950716057242
-0.175428753410162,0.867504275871133
-0.176163046209373,0.854311865104714
-0.177140203442868,0.840639294694897
-0.207833280183681,0.794570495724354
-0.223220817867343,0.794337769682457
-0.171211733986149,0.801992940045485
-0.183747952123226,0.781519694970762
-0.195439310125806,0.72272207902833
-0.188837746579122,0.749583069512291
-0.191864633349006,0.733095259988501
-0.202095274429684,0.734493694566298
-0.178595029711258,0.674245043529172
-0.22224346959554,0.642017146409475
-0.181096907659691,0.66178562656894
-0.212112202161687,0.646378574257075
-0.219122735570492,0.61747748582605
-0.210592127040901,0.625081042265478
-0.217881218982545,0.571874597249963
-0.245363097220095,0.561956694903138
-0.241254909562443,0.554743867725529
-0.2538888844861,0.546457830840516
-0.284498042763913,0.501960603717342
-0.26303280944609,0.498694220410963
-0.295114209243351,0.484715607948721
-0.279281316834602,0.461299028413084
-0.287905390906423,0.442666758670215
-0.296851783038754,0.424110330794374
-0.306111073788037,0.405653553648264
-0.31567286709762,0.387319849892306
-0.32552581094996,0.369132208123935
-0.335657620221634,0.351113136024997
-0.346055101690747,0.333284614620688
-0.356704181141552,0.315668053750994
-0.367589932506361,0.298284248852876
-0.378696608980307,0.281153339148495
-0.390007676040039,0.264294767331642
-0.401505846293229,0.247727240841186
-0.413173116081612,0.231468694806795
-0.424990803756384,0.215536256748449
-0.436939589541021,0.199946213107343
-0.448999556893014,0.184713977681691
-0.461150235272669,0.169854062036669
-0.473370644223943,0.155380047953347
-0.485639338669366,0.141304561976869
-0.49793445531833,0.127639252119492
-0.510233760085579,0.114394766769241
-0.522514696414399,0.101580735850039
-0.53475443439703,0.0892057542741324
-0.546929920582961,0.0772773677224978
-0.559017928364284,0.0658020607837415
-0.570995108825907,0.0547852474767233
-0.58283804194742,0.0442312641768102
-0.594523288042578,0.0341433649603043
-0.606027439321829,0.0245237193761924
-0.617327171463008,0.0153734126489311
-0.628399295075292,0.0066924483105773
-0.639220806941718,-0.00152024674487192
-0.649768940926048,-0.00926681479745992
-0.660021218430504,-0.0165504574454846
-0.669955498291847,-0.0233754233811965
-0.679550026004541,-0.0297469938265176
-0.688783482161211,-0.0356714656625406
-0.697635030002325,-0.0411561322917145
-0.706084361969003,-0.0462092622766805
-0.714111745155071,-0.0508400758046887
-0.721698065556896,-0.0550587190313674
-0.728824871022205,-0.0588762363623603
-0.735474412801994,-0.0623045407359381
-0.741629685612696,-0.0653563819741545
-0.74727446611912,-0.068045313274423
-0.752393349752134,-0.0703856559175426
-0.756971785778811,-0.0723924622721695
-0.760996110546581,-0.0740814771795396
-0.764453578827047,-0.0754690978058538
-0.767332393189281,-0.0765723320531538
-0.769621731336856,-0.0774087556227296
-0.771311771347332,-0.0779964678281055
-0.772393714757639,-0.0783540462574324
-0.772859807443528,-0.0785005003876823
-0.772703358246202,-0.0784552242553707
-0.771918755304235,-0.0782379482906383
-0.770501480053992,-0.0778686904233772
-0.768448118866934,-0.0773677065717141
-0.765756372297458,-0.0767554406245283
-0.762425061920243,-0.0760524740308103
-0.758454134741403,-0.0752794751095322
-0.753844665173181,-0.0744571481943247
-0.7485988545673,-0.0736061827276098
-0.742720028307551,-0.0727472024189494
-0.736212630467595,-0.0719007145822161
-0.729082216045385,-0.0710870597657853
-0.721335440791019,-0.070326361789289
-0.712980048650141,-0.0696384782995496
-0.704024856850375,-0.0690429519571525
-0.694479738663449,-0.0685589623636934
-0.684355603880898,-0.0682052788380775
-0.673664377046271,-0.0680002141483437
-0.662418973491782,-0.0679615793033419
-0.650633273232226,-0.06810663950622
-0.638322092773734,-0.0684520713690732
-0.625501154899582,-0.0690139214852801
-0.612187056499774,-0.0698075664530149
-0.598397234515453,-0.070847674440173
-0.584149930073403,-0.0721481683774932
-0.569464150889909,-0.0737221908630225
-0.554359632027097,-0.0755820708572296
-0.538856795088543,-0.0777392922440741
-0.522976705944391,-0.080204464329154
-0.506741031079496,-0.0829872943417272
-0.490171992661178,-0.0860965620029099
-0.473292322425978,-0.089540096217739
-0.456125214487478,-0.0933247539440273
-0.438694277169591,-0.0974564012860697
-0.42102348397192,-0.101939896856289
-0.403137123775703,-0.106779077442817
-0.385059750400522,-0.111976746015869
-0.366816131623423,-0.117534662100514
-0.348431197773235,-0.123453534538174
-0.329929990013871,-0.129733016653805
-0.311337608430998,-0.136371703840373
-0.29267916003698,-0.143367133566788
-0.273979706809076,-0.150715787810059
-0.255264213875868,-0.158413097907008
-0.236557497966495,-0.166453451815452
-0.217884176236687,-0.174830203769383
-0.199268615584786,-0.183535686307311
-0.180734882569734,-0.192561224647625
-0.162306694041786,-0.201897153379567
-0.144007368594963,-0.21153283543326
-0.125859778948569,-0.221456683287054
-0.107886305362851,-0.231656182365563
-0.0901087901917112,-0.242117916576729
-0.0725484936727328,-0.252827595931565
-0.0552260510520552,-0.263770086185497
-0.0381614311386436,-0.274929440435735
-0.0213738963792782,-0.286288932604694
-0.00488196454222327,-0.297831092735284
0.0112966279060995,-0.309537744019799
0.0271449606508622,-0.321390041480273
0.0426469625284403,-0.333368512214467
0.057787442603382,-0.345453097118099
0.0725521192546353,-0.357623193990692
0.0869276472072632,-0.369857701929215
0.100901642450579,-0.38213506691089
0.114462704988276,-0.394433328463809
0.127600439370998,-0.406730167321556
0.140305472966775,-0.419002953955867
0.152569471929736,-0.431228797879318
0.164385154832746,-0.44338459760834
0.175746303934721,-0.455447091175342
0.186647774058766,-0.467392907077491
0.197085499062522,-0.4791986155487
0.207056495887556,-0.490840780040625
0.216558866179995,-0.502296008798018
0.225591795480023,-0.513541006413494
0.234155549983327,-0.524552625246873
0.242251470882948,-0.535307916594465
0.249881966305432,-0.545784181494264
0.257050500860525,-0.55595902105376
0.263761582829001,-0.56581038618818
0.270020749018456,-0.575316626658199
0.27583454732213,-0.584456539297763
0.281210517020943,-0.593209415324417
0.286157166873941,-0.601555086626577
0.290683951047331,-0.609473970924436
0.294801242937038,-0.616947115703698
0.298520306944507,-0.623956240824048
0.301853268269932,-0.630483779707199
0.304813080791623,-0.63651291901251
0.307413493104403,-0.642027636711531
0.309669012794102,-0.647012738476375
0.311594869029077,-0.651453892300556
0.313206973553532,-0.655337661274874
0.314521880170875,-0.658651534445003
0.315556742808791,-0.661383955681718
0.316329272260833,-0.6635243504991
0.316857691702296,-0.665063150760621
0.317160691080866,-0.665991817217702
0.317257380485044,-0.666302859830172
