-0.0173438162854991,0.827693102825075
-0.0174403451522838,0.827657759300862
-0.0175387404409933,0.827621614782506
-0.017639047035516,0.827584646979014
-0.0177413111075292,0.827546832865486
-0.0178455801593158,0.827508148655252
-0.0179519030681952,0.82746856977082
-0.0180603301326357,0.827428070813561
-0.0181709131201197,0.827386625532087
-0.0182837053168352,0.827344206789247
-0.0183987615792727,0.827300786527679
-0.0185161383878071,0.827256335733851
-0.0186358939023499,0.827210824400506
-0.0187580880201626,0.827164221487446
-0.0188827824359217,0.82711649488056
-0.0190100407041353,0.82706761134902
-0.019139928304012,0.827017536500545
-0.0192725127068902,0.826966234734638
-0.0194078634463401,0.826913669193702
-0.0195460521910554,0.826859801711908
-0.0196871528206583,0.826804592761728
-0.0198312415045471,0.826748001397986
-0.0199783967839229,0.826689985199316
-0.0201286996571356,0.826630500206894
-0.0202822336685001,0.826569500860287
-0.0204390850007383,0.826506939930289
-0.0205993425712111,0.826442768448566
-0.0207630981321122,0.82637693563396
-0.0209304463748059,0.826309388815261
-0.0211014850384968,0.826240073350264
-0.0212763150234311,0.826168932540918
-0.0214550405088399,0.826095907544345
-0.0216377690758423,0.826020937279516
-0.0218246118355398,0.82594395832934
-0.0220156835625448,0.825864904837924
-0.0222111028341969,0.825783708402737
-0.0224109921757354,0.82570029796138
-0.0226154782117085,0.825614599672697
-0.0228246918239151,0.825526536791877
-0.02303876831619,0.82543602953923
-0.0232578475863596,0.825342994962278
-0.0234820743057106,0.825247346790776
-0.0237115981063339,0.825148995284267
-0.0239465737767243,0.825047847071743
-0.0241871614660347,0.824943804982956
-0.0244335268974062,0.824836767870891
-0.0246858415908172,0.824726630424906
-0.0249442830959172,0.824613282973968
-0.025209035235335,0.824496611279424
-0.0254802883589796,0.824376496316679
-0.0257582396098748,0.824252814045124
-0.0260430932021026,0.824125435165613
-0.0263350607114553,0.823994224864744
-0.0266343613794333,0.823859042545144
-0.0269412224312559,0.82371974154091
-0.0272558794085886,0.823576168817306
-0.0275785765177302,0.823428164653742
-0.0279095669940389,0.823275562309008
-0.028249113483422,0.823118187667669
-0.0285974884417553,0.822955858866436
-0.0289549745531452,0.822788385899264
-0.0293218651679977,0.82261557019984
-0.0296984647619053,0.822437204200024
-0.0300850894164233,0.822253070862708
-0.0304820673228575,0.822062943187461
-0.030889739310252,0.821866583687208
-0.0313084593988241,0.82166374383406
-0.0317385953801623,0.821454163472289
-0.032180529425574,0.821237570196307
-0.032634658724042,0.821013678691324
-0.0331013961513258,0.820782190034236
-0.0335811709718275,0.820542790952087
-0.0340744295749243,0.820295153035256
-0.0345816362475612,0.820038931902345
-0.0351032739849901,0.819773766313476
-0.0356398453416389,0.8194992772285
-0.0361918733241978,0.81921506680635
-0.0367599023291162,0.818920717341486
-0.037344499126814,0.818615790133075
-0.0379462538950284,0.818299824282242
-0.0385657813038364,0.81797233541236
-0.0392037216550194,0.817632814306956
-0.0398607420785625,0.817280725459428
-0.0405375377892179,0.816915505528298
-0.0412348334061965,0.816536561691258
-0.0419533843391913,0.816143269890737
-0.0426939782440827,0.815734972963164
-0.0434574365518184,0.815310978643478
-0.0442446160741096,0.814870557435806
-0.0450564106897337,0.814412940340469
-0.0458937531153784,0.813937316426753
-0.0467576167651124,0.813442830240014
-0.0476490177027054,0.81292857903078
-0.0485690166911596,0.812393609792555
-0.0495187213439433,0.811836916093924
-0.0504992883825335,0.811257434689452
-0.0515119260049799,0.810654041892572
-0.0525578963702878,0.810025549692347
-0.0536385182034802,0.809370701594472
-0.0547551695262345,0.808688168165343
-0.0559092905179887,0.807976542256238
-0.0571023865123716,0.807234333882839
-0.0583360311337171,0.806459964733239
-0.0596118695782703,0.805651762275431
-0.0609316220444668,0.804807953432858
-0.0622970873163533,0.803926657794043
-0.063710146503804,0.803005880319518
-0.0651727669426491,0.802043503506242
-0.0666870062571569,0.801037278966453
-0.0682550165864649,0.799984818374315
-0.0698790489755144,0.79888358372995
-0.0715614579297774,0.797730876886293
-0.0733047061315275,0.79652382827974
-0.0751113693135643,0.79525938480081
-0.0769841412840932,0.793934296735817
-0.0789258390938395,0.792545103705047
-0.0809394083333659,0.791088119516942
-0.083027928544888,0.789559415851429
-0.0851946187285613,0.787954804678692
-0.0874428429181341,0.78626981931242
-0.0897761157949173,0.78449969398881
-0.092198108302074,0.782639341854413
-0.0947126532131331,0.78068333123724
-0.0973237505991974,0.778625860066439
-0.100035573128366,0.776460728296368
-0.102852471118174,0.774181308180973
-0.10577897724714,0.771780512234236
-0.108819810814479,0.7692507587021
-0.111979881417376,0.766583934360793
-0.11526429189256,0.763771354446202
-0.118678340342779,0.760803719508863
-0.122227521038781,0.757671068979778
-0.125917523952928,0.754362731223794
-0.129754232641042,0.750867269850253
-0.13374372014387,0.747172426045576
-0.137892242527864,0.743265056690048
-0.14220622962603,0.739131068022253
-0.146692272472521,0.73475534462031
-0.151357106848442,0.730121673480702
-0.156207592270011,0.725212662994496
-0.16125068565264,0.720009656649122
-0.166493408774593,0.714492641323785
-0.171942808540451,0.708640150100814
-0.17760590890652,0.702429159587025
-0.183489653176549,0.695834981832359
-0.189600835205731,0.688831151052174
-0.195946017863192,0.681389305510103
-0.20253143689783,0.673479065106468
-0.209362888129488,0.665067905450332
-0.216445595648085,0.656121029479723
-0.223784058449331,0.64660123804409
-0.231381872670295,0.636468801286687
-0.239241526316486,0.625681333174612
-0.247364163101407,0.614193672134349
-0.255749311760172,0.601957771475888
-0.264394576964466,0.588922604144586
-0.273295287775496,0.575034087343549
-0.282444099448668,0.560235033736848
-0.29183054437946,0.544465137290839
-0.30144052809338,0.527661003350261
-0.311255766482529,0.509756234286517
-0.321253161036594,0.490681583999375
-0.331404109678709,0.470365196692095
-0.341673752081362,0.448732947650578
-0.352020150103037,0.425708906196655
-0.362393406364009,0.40121594348429
-0.372734727093066,0.375176510260645
-0.382975439356097,0.347513611973377
-0.393035977754167,0.318152010468563
-0.402824861774509,0.287019682723332
-0.412237692290286,0.254049567251979
-0.421156204285738,0.219181627589864
-0.429447422711467,0.182365259085461
-0.436962979321407,0.143562059524031
-0.443538660130222,0.102748975204655
-0.448994265282163,0.0599218212951428
-0.453133874917073,0.0150991579083186
-0.455746625038403,-0.0316735192209384
-0.456608105082855,-0.0803193427279706
-0.455482492168576,-0.13072549535007
-0.452125533847534,-0.182738631476468
-0.446288479362513,-0.236160483671519
-0.437723036589555,-0.290743884436279
-0.426187395890273,-0.346189477526783
-0.411453311392443,-0.402143431901498
-0.39331416412436,-0.458196499465642
-0.371593850792949,-0.513884768958969
-0.34615624965038,-0.568692455902547
-0.316914916073392,-0.622057026087463
-0.283842563015179,-0.673376872569486
-0.246979795651533,-0.722021650954499
-0.206442507403594,-0.767345226108977
-0.162427318769984,-0.808701001336436
-0.115214462643018,-0.845459200008681
-0.0651675984561315,-0.87702546643457
-0.0127301757511259,-0.902859968401736
0.0415818383763059,-0.922496041394881
0.0971908159639861,-0.935557336009875
0.153471595528319,-0.941772432988254
0.20976830683979,-0.940985984005694
0.265413090436995,-0.933165619672109
0.319745737346047,-0.918404126307766
0.372133182061522,-0.896916706383477
0.421987781455627,-0.869033472628762
0.468783405027128,-0.835187647838623
0.512068537096098,-0.795900218123677
0.551475828430132,-0.75176199001328
0.586727805894217,-0.703414114794555
0.617638724235747,-0.65152816195181
0.644112796273948,-0.596786754288175
0.666139244458558,-0.539865636395041
0.683784763862727,-0.481417857782825
0.69718406874836,-0.422060536676129
0.706529214455695,-0.362364453457023
0.712058352331793,-0.302846523345812
0.714044500468774,-0.243965029966807
0.712784811489905,-0.186117372798747
0.708590704361059,-0.129639994452259
0.701779112149158,-0.0748101060657045
0.692664990960823,-0.0218488155605127
0.681555143100072,0.0290747229986186
0.668743333053359,0.0778384877212297
0.654506619121793,0.124362398444374
0.63910278546071,0.168603009850365
0.622768736865913,0.210548288220174
0.605719709144404,0.250212622240981
0.588149148413644,0.28763217361946
0.5702291203965,0.322860634886256
0.552111123245851,0.355965430189719
0.533927192588605,0.387024369938951
0.515791203713924,0.416122751338102
0.497800291959063,0.443350883397225
0.480036327555143,0.468802006053069
0.462567394979428,0.492570567725392
0.445449238956434,0.514750823165813
0.428726649572448,0.535435713114268
0.4124347675567,0.554715988456696
0.396600297757866,0.572679543780251
0.381242624373632,0.58941092805584
0.366374825761345,0.604991003340347
0.352004589860109,0.619496725659647
0.338135033571151,0.633001025449792
0.32476543104026,0.645572767991009
0.311891856810741,0.657276777100808
0.299507750394216,0.668173907922197
0.287604409046267,0.678321156936675
0.27617141552231,0.687771799350526
0.265197007397287,0.696575545758796
0.254668394217489,0.704778711502417
0.244572028358227,0.71242439342197
0.234893835021074,0.719552649800069
0.22561940634455,0.726200680196475
0.216734164140915,0.732403002638453
0.20822349532248,0.738191626254476
0.200072863652516,0.74359621795128
0.192267901054117,0.748644262149666
0.184794481338557,0.753361212928541
0.177638778874176,0.757770638192652
0.170787314407759,0.761894355688859
0.164226989971938,0.765752560858394
0.157945114562839,0.7693639466368
0.151929422050282,0.77274581540612
0.146168082586165,0.775914183371497
0.140649708603198,0.778883877681517
0.13536335634359,0.781668626642544
0.130298523723756,0.784281143395425
0.125445145224384,0.786733203430991
0.120793584393663,0.789035716321176
0.116334624463184,0.791198792037017
0.112059457499618,0.793231802215025
0.107959672449187,0.795143436720368
0.104027242374971,0.796941755840232
0.100254511138079,0.798634238424149
0.0966341797316066,0.800227826270776
0.093159292440288,0.801728965042967
0.0898232229679163,0.803143641975331
0.0866196606483466,0.804477420621174
0.0835425968335691,0.805735472868886
0.0805863115333836,0.806922608441657
0.0777453603651906,0.808043302078928
0.0750145618589025,0.809101718583369
0.0723889851506345,0.810101735903286
0.0698639380893362,0.81104696640741
0.0674349557726173,0.811940776496834
0.0650977895214646,0.812786304687509
0.0628483962981473,0.813586478286178
0.0606829285671916,0.814344028772796
0.0585977245957252,0.815061505993422
0.0565892991866167,0.815741291259174
0.0546543348355621,0.816385609439072
0.0527896733014989,0.816996540127461
0.0509923075783808,0.817576027960105
0.0492593742553549,0.818125892146992
0.047588146251686,0.818647835284325
0.0459760259123217,0.819143451503028
0.0444205384497473,0.819614234006415
0.0429193257176907,0.820061582045359
0.0414701403023011,0.820486807375307
0.0400708399165794,0.820891140235888
0.0387193820840926,0.821275734890514
0.0374138190983245,0.821641674760314
0.03615229324438,0.82198997718396
0.0349330322701775,0.822321597832365
0.0337543450946987,0.822637434804881
0.0326146177413241,0.822938332431475
0.0315123094847537,0.823225084803385
0.0304459492004878,0.823498439052948
0.0294141319063169,0.823759098401627
0.0284155154857466,0.824007724993742
0.0274488175837429,0.824244942532027
0.0265128126656466,0.824471338729836
0.0256063292305428,0.824687467593673
0.0247282471708087,0.824893851548609
0.023877495269977,0.825090983418198
0.0230530488314549,0.825279328269565
0.0222539274310262,0.825459325133542
0.0214791927864342,0.825631388608913
0.0207279467376974,0.825795910359188
0.0199993293321509,0.825953260509621
0.0192925170085276,0.82610378895164
0.0186067208747028,0.826247826561283
0.0179411850740182,0.826385686337752
0.0172951852353798,0.826517664467711
0.0166680270025885,0.826644041320562
0.0160590446386117,0.826765082379511
0.0154675997007442,0.826881039112898
0.0148930797828282,0.82699214978992
0.014334897320918,0.827098640244578
0.0137924884589738,0.827200724591398
0.0132653119713611,0.827298605896201
0.0127528482391111,0.827392476804986
0.012254598277067,0.827482520133744
0.0117700828092021,0.82756890942182
0.0112988413895473,0.827651809451273
0.010840431566307,0.827731376734473
0.0103944280868783,0.827807759972054
0.00996042214161665,0.827881100483159
0.0095380206443075,0.827951532609802
0.00912684554742126,0.828019184097016
0.00872653319033161,0.828084176450376
0.00833673367878031,0.828146625272339
0.00795711029396552,0.828206640578765
0.0075873389297199,0.828264327096885
0.00722710755633009,0.828319784545898
0.0068761157096275,0.828373107901278
0.00653407400405621,0.828424387643839
0.00620070366849416,0.828473709994487
0.0058757361036702,0.828521157135571
0.0055589124600835,0.828566807419646
0.00524998323538925,0.828610735566435
0.00494870789027264,0.828653012848705
0.0046548544818845,0.828693707267742
0.00436819931396164,0.828732883719051
0.00408852660280319,0.828770604148871
0.00381562815831693,0.82880692770206
0.00354930307939236,0.828841910861863
0.00328935746289691,0.828875607582057
0.00303560412562759,0.8289080694119
0.00278786233858754,0.828939345614344
0.00254595757298794,0.82896948327787
0.00230972125740909,0.828998527422349
0.0020789905455825,0.829026521099249
0.00185360809428455,0.829053505486546
0.00163342185085878,0.829079519978607
0.00141828484990837,0.829104602271367
0.00120805501872411,0.829128788443046
0.00100259499103568,0.82915211303067
0.000801771928694878,0.829174609102632
0.000605457350919256,0.829196308327506
0.000413526970743885,0.829217241039343
0.00022586053834632,0.82923743629962
4.23416909269142e-05,0.829256921956055
-0.000137142191157333,0.829275724698437
-0.000312700122292425,0.829293870111646
-0.00048443764381291,0.829311382726023
-0.000652456950772581,0.829328286065218
-0.000816857013526281,0.829344602691668
-0.000977733694357177,0.829360354249822
-0.0011351798593721,0.829375561507246
-0.00128928548587667,0.829390244393702
-0.00144013776543167,0.829404422038335
-0.00158782120278242,0.829418112805043
-0.00173241771084347,0.829431334326142
-0.0018740067019123,0.82944410353441
-0.00201266517527771,0.829456436693596
-0.00214846780137948,0.829468349427471
-0.00228148700267029,0.829479856747502
-0.00241179303132193,0.829490973079216
-0.00253945404391222,0.829501712287318
-0.00266453617322254,0.829512087699641
-0.00278710359726907,0.829522112129965
-0.00290721860568605,0.829531797899788
-0.00302494166357332,0.829541156859078
-0.00314033147291518,0.829550200406075
-0.00325344503167271,0.829558939506181
-0.00336433769064769,0.829567384709988
-0.0034730632082102,0.829575546170484
-0.0035796738029798,0.829583433659479
-0.00368422020454399,0.829591056583288
-0.0037867517022958,0.829598423997713
