-0.631403562957071,0.925286599846213
-0.631491125758929,0.925231650649963
-0.631580357029112,0.925175523297073
-0.631671296257862,0.925118186475965
-0.631763984048731,0.925059607883879
-0.631858462154877,0.924999754190519
-0.631954773516688,0.924938591000174
-0.63205296230081,0.924876082812266
-0.632153073940613,0.924812192980231
-0.632255155178175,0.924746883668668
-0.632359254107829,0.924680115808662
-0.632465420221358,0.924611849051213
-0.632573704454878,0.924542041718654
-0.632684159237517,0.924470650753988
-0.632796838541924,0.924397631668029
-0.632911797936723,0.924322938484245
-0.633029094640963,0.924246523681188
-0.633148787580678,0.924168338132399
-0.633270937447611,0.924088331043662
-0.633395606760237,0.924006449887469
-0.63352285992714,0.923922640334573
-0.633652763312883,0.92383684618247
-0.633785385306452,0.923749009280662
-0.633920796392397,0.923659069452542
-0.634059069224785,0.923566964413723
-0.634200278704092,0.923472629686641
-0.634344502057151,0.92337599851123
-0.634491818920303,0.923277001751478
-0.63464231142588,0.923175567797646
-0.634796064292181,0.923071622463924
-0.63495316491708,0.9229650888813
-0.63511370347544,0.922855887385367
-0.635277773020497,0.922743935398829
-0.635445469589391,0.922629147308407
-0.635616892313031,0.922511434335855
-0.635792143530492,0.922390704402775
-0.635971328908145,0.922266861988891
-0.636154557563728,0.922139807983432
-0.636341942195605,0.922009439529261
-0.636533599217414,0.921875649859331
-0.636729648898386,0.921738328125082
-0.636930215509566,0.921597359216298
-0.637135427476227,0.921452623571986
-0.63734541753675,0.921303996981755
-0.63756032290827,0.921151350377174
-0.637780285459408,0.920994549612545
-0.63800545189041,0.920833455234493
-0.638235973921038,0.920667922239736
-0.638472008486574,0.920497799820371
-0.638713717942327,0.920322931095938
-0.638961270277015,0.920143152831531
-0.639214839335465,0.919958295141115
-0.639474605051052,0.919768181175217
-0.639740753688339,0.919572626792049
-0.640013478096397,0.919371440211107
-0.64029297797331,0.919164421648201
-0.640579460142393,0.918951362930811
-0.64087313884067,0.918732047092594
-0.641174236020206,0.918506247945783
-0.641482981662876,0.91827372963015
-0.641799614109237,0.918034246137099
-0.642124380402141,0.917787540807381
-0.642457536645809,0.917533345800791
-0.642799348381083,0.917271381536139
-0.643150090977624,0.917001356099628
-0.64351005004386,0.916722964619687
-0.643879521855516,0.916435888606133
-0.644258813803597,0.916139795251421
-0.644648244862747,0.915834336691582
-0.645048146080929,0.915519149224261
-0.645458861091428,0.915193852481126
-0.645880746648206,0.914858048551677
-0.646314173185708,0.914511321055339
-0.64675952540422,0.914153234158436
-0.647217202881976,0.91378333153246
-0.647687620715222,0.913401135249755
-0.64817121018749,0.913006144612474
-0.64866841946942,0.912597834910374
-0.649179714350455,0.912175656102682
-0.649705579003841,0.911739031418924
-0.650246516786363,0.911287355873247
-0.650803051074307,0.910819994686348
-0.651375726137189,0.910336281608696
-0.651965108050818,0.909835517138284
-0.65257178565129,0.909316966625625
-0.653196371531553,0.908779858258162
-0.653839503082196,0.90822338091572
-0.654501843578137,0.907646681887932
-0.655184083312888,0.907048864443954
-0.655886940782071,0.906428985244011
-0.656611163917846,0.905786051581544
-0.657357531375884,0.905119018443862
-0.658126853876447,0.904426785378295
-0.658919975601103,0.903708193149834
-0.659737775646473,0.902962020175177
-0.660581169536287,0.902186978716948
-0.661451110792907,0.901381710820584
-0.662348592569203,0.90054478397505
-0.663274649341492,0.899674686477082
-0.664230358663918,0.898769822477073
-0.665216842984277,0.897828506683031
-0.666235271520905,0.896848958697195
-0.667286862199672,0.89582929695793
-0.668372883649577,0.894767532257377
-0.669494657254656,0.893661560803057
-0.670653559259118,0.892509156789137
-0.671851022921614,0.891307964440428
-0.673088540713371,0.89005548948929
-0.674367666553592,0.888749090042582
-0.67569001807395,0.887385966792465
-0.677057278902169,0.885963152521328
-0.67847120095259,0.884477500847335
-0.679933606709173,0.882925674152987
-0.68144639148356,0.881304130634821
-0.6830115256276,0.879609110407685
-0.684631056675956,0.877836620592159
-0.686307111390154,0.875982419308473
-0.68804189767044,0.874041998494732
-0.689837706296177,0.872010565461498
-0.691696912448951,0.86988302308863
-0.693621976965136,0.867653948563944
-0.695615447256075,0.865317570556638
-0.697679957824298,0.862867744711567
-0.699818230292975,0.860297927343522
-0.702033072853067,0.857601147203554
-0.704327379018063,0.854769975182357
-0.706704125559586,0.851796491808784
-0.709166369478213,0.848672252394938
-0.711717243842371,0.845388249673108
-0.714359952303678,0.841934873764421
-0.717097762069329,0.838301869314652
-0.71993399508062,0.83447828962968
-0.722872017111059,0.830452447641973
-0.725915224457122,0.826211863540817
-0.729067027849216,0.821743208903507
-0.732330833159036,0.817032247173171
-0.735710018421793,0.812063770342365
-0.739207906626983,0.806821531721233
-0.74282773365885,0.801288174696412
-0.746572610686735,0.795445157423576
-0.750445480215484,0.789272673444863
-0.754449064906281,0.78274956828463
-0.758585808168226,0.77585325215616
-0.762857805400124,0.768559609011395
-0.767266724630213,0.760842902289593
-0.771813715158794,0.752675677873616
-0.776499302655565,0.744028664949874
-0.781323269000741,0.734870675695898
-0.78628451498858,0.72516850499541
-0.791380903836343,0.714886831712555
-0.796609083264967,0.703988123453924
-0.801964283745293,0.692432547219164
-0.807440090343108,0.680177888899459
-0.813028185457625,0.667179485239976
-0.818718059644439,0.653390172649916
-0.824496687662582,0.638760258134955
-0.830348166907579,0.623237518653944
-0.836253315515631,0.606767236375874
-0.842189227681809,0.589292278643181
-0.848128784168581,0.570753232938017
-0.854040116639682,0.551088608797727
-0.859886025397192,0.530235120423924
-0.865623351395354,0.508128065652952
-0.871202305131923,0.48470181896402
-0.876565757264527,0.459890458231799
-0.881648498660914,0.433628546890965
-0.886376481167339,0.405852094942375
-0.890666054766015,0.376499723621066
-0.894423222077426,0.34551405933832
-0.897542937410485,0.312843382415614
-0.89990848479717,0.278443554790832
-0.90139097763085,0.242280247868708
-0.901849031531552,0.20433148651044
-0.901128671636173,0.164590517254873
-0.899063545245201,0.12306899764276
-0.895475520035609,0.0798004883864729
-0.890175756017529,0.034844210564252
-0.882966344943513,-0.0117109943560908
-0.873642612562673,-0.0597425931577486
-0.861996175268619,-0.109090303606886
-0.847818831434197,-0.159552214415911
-0.830907347087243,-0.210881285478209
-0.811069163702773,-0.262782471016896
-0.788129011306804,-0.314910744105931
-0.76193635210608,-0.36687032854138
-0.732373508969995,-0.418215457857956
-0.699364251434841,-0.468452975422645
-0.662882523662374,-0.51704705800102
-0.622960910449877,-0.563426282790236
-0.579698357724094,-0.606993161281173
-0.533266603597319,-0.647136132066265
-0.483914746647156,-0.683243842542885
-0.431971390825535,-0.714721364958376
-0.377843870318339,-0.74100779912423
-0.322014177552358,-0.76159453068825
-0.265031392074648,-0.77604326142085
-0.207500628514056,-0.784002828400998
-0.150068771896172,-0.78522380144871
-0.0934075251922061,-0.779569905682025
-0.0381945298994261,-0.767025462565572
0.0149064921619063,-0.747698271126134
0.0652655129995686,-0.721817642799635
0.112304800322619,-0.689727630902976
0.155515328595925,-0.651875825449309
0.194470139296599,-0.608798381401979
0.228834020374627,-0.56110218304365
0.258369150305752,-0.509445196964472
0.282936642425446,-0.454516120617227
0.302494200117243,-0.39701439396001
0.317090326982997,-0.337631520833059
0.326855709979414,-0.277034464884149
0.331992498403449,-0.215851666856583
0.332762237323853,-0.154662001098947
0.329473187973866,-0.0939867715792182
0.322467692448162,-0.0342846586641471
0.31211013121291,0.0240506216050238
0.298775895164566,0.080690289327538
0.282841663375812,0.135368508981232
0.264677154526751,0.187878862232657
0.244638412240064,0.238069704490019
0.223062596673461,0.285838791809471
0.2002641884016,0.331127516769286
0.176532465197931,0.373915035775853
0.152130085600127,0.414212511914861
0.12729260201427,0.452057641368971
0.102228727148299,0.48750958059476
0.077121187402419,0.520644347620029
0.052128012462908,0.551550734697682
0.0273841292135806,0.580326741087492
0.00300314820154285,0.607076513375053
-0.0209207492015241,0.631907765620981
-0.0443108961225149,0.654929641768715
-0.0671062543421455,0.676250977113569
-0.0892595989610164,0.695978913296556
-0.110735802840834,0.714217821387389
-0.131510239859922,0.73106848944288
-0.151567317820172,0.746627533882033
-0.170899145441594,0.760986997644343
-0.189504333034291,0.774234102041022
-0.207386922898386,0.786451123212735
-0.224555443035823,0.797715367992265
-0.241022076151797,0.808099227618705
-0.256801934991911,0.817670291090966
-0.271912434645284,0.82649150294807
-0.286372752411726,0.83462135291246
-0.300203366074866,0.842114087138901
-0.313425661856707,0.849019932794988
-0.326061603884822,0.855385329386391
-0.338133457629522,0.861253161660407
-0.349663560425755,0.866662990105942
-0.360674132854917,0.871651276046703
-0.371187125404784,0.876251599125513
-0.381224095438053,0.880494865627224
-0.390806110072666,0.884409506609151
-0.399953671105496,0.888021665221935
-0.408686658592949,0.891355372928366
-0.417024290137679,0.894432714578572
-0.424985093321124,0.897273982490432
-0.432586889069408,0.899897819825406
-0.43984678404803,0.902321353651708
-0.446781170451958,0.90456031815683
-0.453405731795497,0.90662916851641
-0.459735453513837,0.908541185951775
-0.465784637368758,0.910308574518631
-0.47156691880742,0.911942550167901
-0.477095286558397,0.913453422609589
-0.482382103865545,0.914850670494112
-0.487439130860312,0.916143010404625
-0.492277547658745,0.917338460130031
-0.496907977842585,0.918444396662685
-0.501340512046126,0.919467609338218
-0.505584731423388,0.920414348508126
-0.509649730814915,0.921290370109224
-0.513544141471297,0.922100976468255
-0.517276153222274,0.92285105365503
-0.5208535360069,0.923545105673695
-0.524283660702462,0.924187285759198
-0.527573519208303,0.92478142502482
-0.530729743755952,0.925331058686725
-0.53375862542949,0.925839450072953
-0.536666131890294,0.926309612607036
-0.539457924308602,0.926744329940416
-0.542139373510923,0.927146174393101
-0.544715575357587,0.927517523848358
-0.54719136536878,0.927860577234707
-0.549571332620547,0.928177368716989
-0.551859832934496,0.928469780707675
-0.554061001386595,0.928739555799943
-0.556178764161517,0.928988307715166
-0.558216849779599,0.929217531349366
-0.560178799723722,0.929428611995772
-0.562067978493393,0.929622833813874
-0.56388758311299,0.929801387609195
-0.565640652120661,0.929965377982352
-0.567330074063753,0.930115829900895
-0.568958595525891,0.930253694742676
-0.570528828710003,0.930379855855289
-0.572043258600729,0.930495133672195
-0.573504249728706,0.930600290422646
-0.574914052558291,0.930696034469269
-0.576274809519339,0.930783024304238
-0.577588560702677,0.930861872232306
-0.578857249238016,0.930933147766502
-0.580082726372071,0.930997380760099
-0.581266756263806,0.93105506429642
-0.582411020512802,0.931106657356225
-0.583517122435931,0.931152587280702
-0.584586591106694,0.9311932520466
-0.585620885170778,0.931229022368606
-0.586621396450685,0.931260243642804
-0.587589453351508,0.931287237743906
-0.588526324079306,0.931310304687861
-0.58943321968283,0.931329724170487
-0.590311296928779,0.931345756991891
-0.591161661020137,0.931358646375639
-0.591985368166627,0.931368619190868
-0.592783428015767,0.931375887084909
-0.593556805952529,0.931380647533325
-0.594306425275121,0.931383084813727
-0.595033169253993,0.931383370909226
-0.595737883080726,0.931381666346867
-0.596421375713089,0.93137812097602
-0.597084421622158,0.93137287469123
-0.597727762447071,0.93136605810375
-0.59835210856264,0.931357793165573
-0.598958140564733,0.931348193749534
-0.599546510678077,0.931337366188724
-0.600117844090818,0.931325409778244
-0.600672740219956,0.931312417242075
-0.601211773911492,0.931298475167604
-0.601735496578949,0.931283664410187
-0.602244437283656,0.931268060469923
-0.602739103760033,0.931251733842642
-0.603219983388899,0.931234750346983
-0.603687544121658,0.931217171429258
-0.604142235358047,0.931199054447707
-0.604584488779982,0.931180452937601
-0.60501471914388,0.931161416858555
-0.605433325033713,0.931141992825302
-0.605840689576891,0.931122224323098
-0.606237181124994,0.931102151908823
-0.606623153901213,0.931081813398784
-0.606998948616283,0.931061244044142
-0.607364893054575,0.931040476694815
-0.607721302631927,0.931019541952646
-0.6080684809267,0.930998468314595
-0.60840672018546,0.930977282306597
-0.608736301804618,0.930956008608767
-0.609057496789265,0.930934670172502
-0.609370566190391,0.930913288330041
-0.609675761521612,0.930891882896998
-0.609973325156428,0.930870472268323
-0.610263490707039,0.930849073508143
-0.610546483385641,0.930827702433882
-0.61082252034909,0.930806373695041
-0.611091811027777,0.930785100846995
-0.611354557439511,0.930763896420127
-0.611610954489155,0.930742771984612
-0.611861190254721,0.930721738211129
-0.612105446260608,0.930700804927772
-0.612343897738608,0.930679981173402
-0.612576713877284,0.93065927524767
-0.612804058060295,0.93063869475793
-0.613026088094195,0.930618246663238
-0.613242956426232,0.930597937315625
-0.61345481035262,0.930577772498812
-0.613661792217745,0.930557757464544
-0.613864039604739,0.930537896966676
-0.614061685517841,0.93051819529317
-0.614254858556924,0.930498656296119
-0.614443683084565,0.930479283419935
-0.614628279386009,0.930460079727809
-0.614808763822363,0.93044104792655
-0.614985248977326,0.930422190389913
-0.615157843797768,0.930403509180495
-0.615326653728439,0.9303850060703
-0.615491780841066,0.930366682560055
-0.615653323958124,0.930348539897342
-0.615811378771488,0.930330579093635
-0.615966037956234,0.930312800940293
-0.616117391279784,0.930295206023591
-0.616265525706616,0.930277794738825
-0.616410525498736,0.930260567303572
-0.616552472312103,0.930243523770139
-0.616691445289184,0.93022666403725
-0.616827521147818,0.930209987861033
-0.616960774266539,0.930193494865332
-0.617091276766526,0.930177184551393
-0.617219098590327,0.930161056306958
-0.617344307577484,0.930145109414807
-0.617466969537217,0.930129343060779
-0.617587148318268,0.9301137563413
-0.617704905876048,0.930098348270451
-0.617820302337192,0.930083117786604
-0.61793339606164,0.930068063758647
-0.618044243702335,0.930053184991828
-0.618152900262661,0.930038480233241
-0.618259419151693,0.930023948176963
-0.618363852237372,0.930009587468881
-0.618466249897671,0.929995396711218
