0.729140291928524,0.919796179558187
0.821656322849193,1.00667850713328
0.816526783975046,0.996113649317931
0.811765447817728,0.985303540184179
0.709903818885277,0.876842290239673
0.912984393755957,1.06509916589308
0.799012806414818,0.951853204576903
0.795151179879457,0.940443819661411
0.791444736202176,0.928931071031316
0.787876357771466,0.91732636033196
0.677871312576231,0.808887732129327
0.871962862200493,1.00589609740531
0.887510427930508,0.995494545478622
0.774719722431805,0.870163590660959
0.771656930590051,0.858222120421703
0.768667219565244,0.846231972739594
0.765743200982931,0.83419806884007
0.668986500821012,0.723346210087138
0.760065516620306,0.810016792977436
0.757299677639822,0.797877529301569
0.751886538926494,0.773520045697105
0.749229252034014,0.76130847798468
0.746598635663467,0.749079145654104
0.74399036470113,0.73683492956365
0.741400336600183,0.72457856232492
0.738824651745033,0.712312641381721
0.736259596373329,0.700039640385306
0.733701627635701,0.687761919145745
0.731147360455321,0.675481732384467
0.72859355591302,0.663201237470658
0.72603711093363,0.650922501290957
0.723475049088635,0.638647506375599
0.7209045123617,0.626378156383198
0.718322753748966,0.614116281029525
0.715727130586435,0.601863640531984
0.713115098513517,0.589621929630346
0.710484205995494,0.57739278123522
0.705156468143769,0.552978414090946
0.70245514114265,0.540796180476866
0.699725982386634,0.528632484951371
0.696966937739484,0.516488695727127
0.694176021649427,0.504366135334272
0.691351314170268,0.492266082604585
0.592110351169341,0.368953701410697
0.685593156967586,0.468138407840524
0.682656171592285,0.456113140822072
0.771006023949476,0.539052251832671
0.676657969638952,0.432145354317611
0.673593545983089,0.420204970992012
0.670483520350689,0.408294962088861
0.667326413443458,0.396416312934557
0.664120792751514,0.384569977690819
0.660865271097408,0.37275688032448
0.657558505271205,0.360977915516627
0.6541991947497,0.349233949515707
0.539189049908694,0.2213496450586
0.647317943815986,0.325854341524756
0.535324714579716,0.203925798182912
0.640211923895327,0.30262444696031
0.636571795776329,0.291067527069776
0.632872153651422,0.279550248082868
0.629111965824631,0.268073297188428
0.625290235423832,0.256637338379932
0.621405999653408,0.245243012953286
0.617458329088477,0.23389093997692
0.613446327008193,0.222581716735861
0.609369128765824,0.211315919151309
0.605225901193483,0.200094102177136
0.596738179437083,0.17778452726643
0.493398294477269,0.0587952624426467
0.587977105355123,0.155657026021041
0.583492297680611,0.14466272765705
0.578937093295844,0.133715318914489
0.574310865255349,0.122815217387245
0.569613014373337,0.11196282217912
0.564842968868621,0.101158514140348
0.555084141903023,0.0796955930269635
0.545030345985482,0.0584291439140462
0.539891687495218,0.047870360464189
0.534677961814079,0.0373615775349407
0.529388780689745,0.0269030537321968
0.518582625129678,0.00613773398582319
0.513064999646688,-0.00416862831027762
0.507470616280278,-0.0144238639545475
0.397048731637265,-0.118745886199951
0.490224402500415,-0.0448811348737416
0.484320592808985,-0.0549302687955312
0.472279328315635,-0.0748729110318894
0.46614161169181,-0.0847662449529396
0.459925704079262,-0.0946074976638434
0.344915252485864,-0.22299723756279
0.420985919765974,-0.152559757972583
0.414222010125275,-0.162035999200003
0.407380004583274,-0.171460222552808
0.400460022089577,-0.180832507260584
0.393462205516482,-0.190152948487264
0.386386721731866,-0.199421657379683
0.379233761684612,-0.208638761124481
0.372003540502772,-0.217804403013478
0.364696297604658,-0.226918742517678
0.357312296823124,-0.235981955370047
0.256476017812299,-0.348929800501469
0.342315199854142,-0.253955785920613
0.327014854130566,-0.27172762948556
0.319251886356306,-0.280538421184172
0.401416303996159,-0.193635499721642
0.279326423421539,-0.323852618661446
0.271122648039026,-0.332369798601791
0.262847249814997,-0.340839272223017
0.246084009345227,-0.357636715413404
0.237597449126898,-0.365965538911389
0.123949886644888,-0.476410359989299
0.220417867236092,-0.382485666705261
0.21172630012549,-0.390677939851188
0.108900117151011,-0.515539250918201
0.194143473411151,-0.406929475589402
0.18525384922691,-0.414989827496812
0.158202607169491,-0.438916195730713
0.149061168731759,-0.446808819984743
0.139859184592141,-0.454661116146305
0.130597686446615,-0.46247377140424
0.2341185492627,-0.366084775769225
0.111900453838225,-0.477983027136733
0.102466964251171,-0.485681122871175
0.09297845224289,-0.493342569442721
0.0834361364998712,-0.500968178590271
0.0738412760615495,-0.508558788930888
0.0641951714511314,-0.516115266713019
0.0544991658785504,-0.52363850661775
0.0447546465212575,-0.531129432611916
0.0349630458891332,-0.538588998857234
0.0152445663367531,-0.553418025607204
0.00532079270475549,-0.560789554472583
-0.0347658622962001,-0.590014860554261
-0.044876572470667,-0.597261875309876
0.0156070717720109,-0.508742173817322
-0.0856179259292814,-0.626051101882741
-0.0958674355372786,-0.633205665544131
-0.10613816928378,-0.640346092297475
-0.116427763475387,-0.647473956544307
-0.239883530759384,-0.745312286477224
-0.13705363422917,-0.661698590990032
-0.14738472376676,-0.6687988161461
-0.157724288186289,-0.675893396379212
-0.168069469471424,-0.682984235347981
-0.0696313860704251,-0.596826403576609
-0.188764650277791,-0.697162703969833
-0.209444878697508,-0.711351132030796
-0.219770820106882,-0.718454786236066
-0.240375773572647,-0.732693353203822
-0.250646783466625,-0.739833596021716
-0.369348899449081,-0.86470937846906
-0.27110422128798,-0.754170419750281
-0.291417023938429,-0.768603581622839
-0.301506098504037,-0.775865007357392
-0.311542592104854,-0.783161456057144
-0.321520199787065,-0.790497127306089
-0.331432115026783,-0.79787655477245
-0.241134849758269,-0.69350067891177
-0.36069627992627,-0.820328946254577
-0.281776599586479,-0.743205071807903
-0.389054067001803,-0.843385055053654
-0.398249249589047,-0.851241881572029
-0.433241486708873,-0.883860461643139
-0.441381776816079,-0.892419927657858
0.917503097043297,1.10720383586003
0.820193949060924,1.00765256050981
0.812421861670546,0.998847843176683
0.795855639625689,0.981919170567685
0.778329334172676,0.965629987323832
0.655280646319734,0.848423715626959
0.750760904022455,0.942048106123365
0.851145366797108,1.02604472195791
0.731736364780736,0.926756861773401
0.712311034304019,0.911732575200487
0.702472199881249,0.904304470291274
0.692560284641531,0.896925042824913
0.68258267695932,0.889589371575969
0.672546183358503,0.882292922876216
0.642144306142446,0.860598335269105
0.611415858427114,0.839121268722646
0.590810904961348,0.824882701754891
0.580484963551974,0.817779047549621
0.570148392659154,0.810682473397566
0.53910955432589,0.789412150866806
0.528764373040755,0.782321311898037
0.518424808621226,0.775226731664925
0.617059630091686,0.874372097252615
0.497773851431846,0.76101880671406
0.487467848329853,0.753901872063132
0.328899292239762,0.618637888621161
0.327709003978551,0.627959308024647
0.385687758063584,0.681879986604603
0.375683933038933,0.674561778121425
0.365719292149711,0.667217469991408
0.326285438333208,0.637557348130741
0.316540918975916,0.630066422136574
0.306844913403335,0.622543182231843
0.297198808792917,0.614986704449713
0.287603948354595,0.607396094109095
0.268573120603296,0.592109038389999
0.194740191327149,0.52943524518774
0.159313784728976,0.497105855370012
0.150622217618374,0.488913582224085
0.133442635727568,0.472393454430214
0.0999174368154402,0.438797714120616
0.0835820806731194,0.421715267070573
0.0755232392469645,0.413101549972152
-0.0294199372351109,0.287260422779408
-0.0566315535634846,0.249459351053842
-0.0697681565851846,0.230246288491668
-0.183672940723253,0.104164087764523
-0.0825914493500434,0.210824537209807
-0.119184317645949,0.151309050392566
-0.130759126343128,0.131055712732845
-0.168851602640752,0.0585575550546355
-0.179054266137559,0.0373902631950841
-0.188960099175785,0.0160252594285251
-0.198572929518871,-0.00553490666029575
-0.106884973227761,0.0982353561745265
-0.225698094582616,-0.0713566117476058
-0.238329043911358,-0.104888003632484
-0.242406242153727,-0.116153801217036
-0.148323616931808,-0.0378407331603661
-0.261832068796956,-0.173122332564044
-0.378419252586313,-0.297986373494042
-0.283159109895234,-0.242806033996883
-0.296286328588992,-0.289988397415733
-0.305617884784486,-0.325717438798786
-0.323135936794961,-0.397938219815448
-0.336792004484501,-0.458749854229317
-0.349864427507234,-0.519950240864373
-0.357553471058553,-0.556773321951833
-0.370360251745717,-0.618150646806096
-0.386259592785356,-0.691449613782745
-0.391837983464758,-0.715697026872528
-0.397627134710778,-0.73980405722077
