0.14986910104827,-0.0709155171496867
0.150569673068785,-0.06706042504736
0.151120256049431,-0.0631237901391003
0.151516437378638,-0.0591112958611631
0.15175401552115,-0.0550288217621271
0.0345508702974127,-0.142826979779337
0.151737658876397,-0.0466783862568054
0.15147644649898,-0.0424230935523525
0.25668734581076,0.0781430240573771
0.0441913333068023,-0.12910648021238
0.149642069349467,-0.0294163585952563
0.1486711084998,-0.0250234315263747
0.172825825617198,-0.0651008231618404
0.146176032972047,-0.0161942281686498
0.13375857935645,-0.0302574909070172
0.156945847291419,-0.0179528476955309
0.141025013223538,-0.00295253016340091
0.0971489994874001,-0.0477106479516407
0.136638834779946,0.0057858376752237
0.111523024602332,-0.0269072430646363
0.250905457569722,0.112966628493338
0.159611592921248,0.0401288600394027
0.114112763795214,-0.00924052463604603
0.0186509709820494,-0.0771734077881339
0.0961789058668543,-0.0146682220001513
-0.000584303152747934,-0.078817503832465
0.110153562797368,0.0813041421428898
0.0721780031383468,-0.00319716554847506
0.119209445239729,0.0837926233070006
-0.0367719558147987,-0.0269474278399508
0.124440316813239,0.075328486379184
0.0971263024766317,0.0807375035364453
0.0617524837225344,0.0597996659420804
0.122591677410506,0.0401569782999244
0.211550828477221,0.178861617000169
0.0638943862144262,0.0705166349491182
0.0724474815653958,0.0961198764371106
0.0231889047456706,0.0308474950720928
0.0843063448387219,0.104398445600746
0.0405732225945637,0.078850883734061
0.0178614388653529,0.0635915909814734
-0.0896720407374413,-0.0333872765939081
0.0153190681312187,0.084042421717649
0.00875339791601418,0.0848067925652023
0.00210137130991155,0.0853475653493011
-0.010355984047256,0.0720487210837737
-0.0042855645764452,0.0730277944107757
-0.0354830188638694,0.0736059507822505
0.00670569259779191,0.102796024814431
-0.070211238779896,0.101753852479173
-0.025534009757224,0.128828483686998
-0.0114621380744512,0.084002843472186
-0.0532662138109071,0.0811214073692761
-0.0603289264273096,0.0794729328672656
-0.0804783679084933,0.0290465498660873
-0.0382573117835861,0.106415475552068
-0.127838967539781,0.0865695067064141
-0.0654715780969483,0.0748385314406569
-0.0954826287059755,0.0673380937726951
-0.154747385197539,0.0318359174627369
-0.108724545528879,0.0521326344708072
-0.0867609291272096,0.0263321499149568
-0.129496349415875,0.0486515556406956
-0.142510865935531,0.0393544179459973
-0.148852409903917,0.0343216276051283
-0.155070501058506,0.029035873850361
-0.161155459923325,0.0234999952361369
-0.172887566405217,0.0116910161007035
-0.178515697893967,0.00542538797646347
-0.183972691016669,-0.0010754234191651
-0.28181198836002,-0.116388841226065
-0.107700798157756,0.081980768280914
-0.208371136331381,-0.036933179283836
-0.329072019403373,-0.154022733049818
-0.220385832083591,-0.0609208787166868
-0.106917902239247,0.0429280790970948
-0.230161359354464,-0.0865381564381652
-0.23288695999646,-0.0954031012805446
-0.237496724734108,-0.113571115231479
-0.23936780681423,-0.122856314383675
-0.240941445009239,-0.132263282255491
-0.242211830352584,-0.141782428607116
-0.243173464951002,-0.1514039182926
-0.243821171640764,-0.161117681405201
-0.353653748157632,-0.270619166768378
-0.244155751883781,-0.180780637897026
-0.131347475188276,-0.0949216451491165
-0.243180913914234,-0.200686451766111
-0.242193182069813,-0.210703072014392
-0.240867691853198,-0.220747228984388
-0.239201752011489,-0.230807522735765
-0.328282340825409,-0.375729613545544
-0.229093271355262,-0.270977391172752
-0.225698395408305,-0.280942879531129
-0.121828744963857,-0.199055099977054
-0.217863826655621,-0.300697438469226
-0.213424788906338,-0.310462245702312
-0.208639053402162,-0.320135834094668
-0.203508003300105,-0.329706001074559
-0.19803344804366,-0.339160542025846
-0.192217624821047,-0.348487265083371
-0.186063199512868,-0.357674006016802
-0.179573267125101,-0.36670864318539
-0.172751351703944,-0.375579112545954
-0.0697304085096664,-0.273775694319698
-0.158127808986981,-0.392779669935662
-0.150335366910971,-0.401086053325419
-0.142229308406398,-0.4091808897297
-0.133815283141142,-0.41705262881987
-0.125099358313301,-0.424689868023299
-0.116088014893046,-0.432081367398559
-0.106788143340672,-0.439216064418707
-0.097207038802978,-0.446083088644372
0.0285222797309399,-0.348792433653412
-0.0772323023404793,-0.458971684514136
-0.0668552336651019,-0.464972605868529
-0.0342725885670199,-0.481083196059148
-0.0229598641727634,-0.485791287442785
-0.0114380908530689,-0.490153367722676
0.0365218814644953,-0.503976413321961
-0.0485214014499373,-0.602453968691412
0.161930212801148,-0.396718647044529
0.11278291495072,-0.513043867268376
0.125835241100118,-0.513116413071991
0.25476124296754,-0.396669756440058
0.0549904133931626,-0.61198454447574
0.218156685529544,-0.501573110051683
0.231310491876855,-0.498173157362806
0.257445696550726,-0.490048746529742
0.270397403975808,-0.485324715301462
0.181644873456229,-0.579474892662491
0.295994501617585,-0.47455781731807
0.308610031508486,-0.46851838801574
0.321083654144934,-0.462044774216461
0.333400483461059,-0.455139962584044
0.345545682013426,-0.447807448335927
0.357504478297081,-0.440051235102318
0.369262184099653,-0.431875834197552
0.380804211873597,-0.423286263301182
0.392116092106568,-0.414288044546985
0.413992226124467,-0.395090258652212
0.424528286965335,-0.384904232543904
0.434777848782208,-0.374336632666894
0.444727291318161,-0.363395453995946
0.454363215404761,-0.352089172043825
0.56023251203343,-0.245948385560728
0.481259553076646,-0.3160715385906
0.598995899395364,-0.203185797827446
0.497388665722348,-0.290410682717703
0.511964741600757,-0.263532100372089
0.518642135233418,-0.249665512211499
0.530722260862834,-0.221140027690635
0.536104789910328,-0.206507222026654
0.541036164316572,-0.191645727329442
0.645795660870399,-0.0821077038072876
0.437544698978984,-0.277570690886881
0.556075179736147,-0.130197270647741
0.560672988466663,-0.098479765267781
0.562217327488049,-0.0824268447730915
0.56325074181559,-0.0662658353505425
0.563767960473636,-0.050013059553635
0.563764235815224,-0.0336850645114133
0.563235352431002,-0.0172986050928768
0.558463751169998,0.0320412575040931
0.555803004584464,0.0484904786215653
0.552604278890328,0.0649118855858693
0.544590004265112,0.0976006552805334
0.539774463453189,0.113832532549473
0.534420967638759,0.129965662976686
0.522106589870401,0.16186431510413
0.507665757579242,0.193153950121591
0.49965642301376,0.208525940784746
0.482082125429445,0.238635962433654
0.47252782616173,0.253338967111133
0.462470187270571,0.267784161145944
0.440872694470295,0.29583262437707
0.429348196884608,0.309402102650165
0.350614257335252,0.383423506867441
0.438770801306679,0.498700610663868
0.305568584143923,0.414982227150556
0.257186314663398,0.442386892116447
0.240383228401594,0.450537123467037
0.205854428044306,0.465287342391966
0.188160533222875,0.471864542523984
0.114911780550126,0.492611420970853
0.0960686639530607,0.496360946835661
0.0385568900976665,0.50403075780455
0.0191219010069762,0.505371806480878
-0.0397040583754756,0.505670199808894
-0.0988918179917576,0.500297252541544
-0.118606599272899,0.497233280812519
-0.138279812769715,0.49353047434596
-0.157890714948428,0.489188431477902
-0.177418496392947,0.484207425343838
-0.196842303791914,0.478588407608307
-0.216141262094582,0.472333011477086
-0.222884168654425,0.52339157690002
-0.345990477470123,0.411007674303001
-0.380787402369907,0.388005943169722
-0.397701019880738,0.375627216336156
-0.430460449698938,0.349159626366748
-0.446267774766914,0.335090973427671
-0.505245982375775,0.273516482075919
-0.556573257872714,0.204091220290913
-0.579036119054584,0.166729361050187
-0.589413652388125,0.147443156841474
-0.499292473412306,0.244675594484744
-0.494281631167379,0.2048037327116
-0.616961674797394,0.087374769301083
-0.632210005276256,0.0456735697244591
-0.638863139564441,0.0243844521150746
-0.658758462984157,-0.0632187244496584
-0.662007223740153,-0.085625286288209
-0.667878103085145,-0.176614746078075
-0.667536240257557,-0.199589464365225
-0.666461662634163,-0.222608944252222
-0.664651221453569,-0.245649760840362
-0.631268573535943,-0.405539086848855
-0.523408293252737,-0.341070554560806
-0.605925354697943,-0.471999581522966
-0.497536798463153,-0.377213066408711
-0.574107607622124,-0.536291245664447
-0.459217913256315,-0.692368799096606
-0.441976582021534,-0.70990536057173
-0.492363559133431,-0.867969440155916
-0.3672007248901,-0.774757895794282
0.0043271471205518,-0.929881788422855
0.030121900825601,-0.933194798356869
0.13463384101044,-0.938253726544411
0.160964757230717,-0.937442648356725
0.292506680467018,-0.920772145085119
0.318603728671252,-0.914909033901239
0.395984166025523,-0.892285373983525
0.471430220135055,-0.862193021864571
0.567766773831038,-0.810748265243969
0.679001835577072,-0.72911036381287
0.699773235735059,-0.71059530984821
0.719996578820758,-0.691385183190746
0.844327552004874,-0.538908933269288
0.963091999901969,-0.422782678674177
0.90001567402728,-0.439366737100556
0.923190762377115,-0.386784092996466
0.933554870810822,-0.359874672803663
0.987802383973615,-0.103876461671304
0.967486528511446,0.162474290398533
