0.0420959201674559,0.263955258612356
0.0399147117031958,0.262141279302474
0.0377898565965495,0.260194381230602
0.0357275643692307,0.258116378908827
0.0337339841248386,0.255909346110842
0.0318151943798436,0.253575613802467
0.0299771929670009,0.25111776768892
0.0282258870252392,0.248538645381416
0.0265670830899821,0.245841333186154
0.0250064772977473,0.243029162519286
0.023549645718744,0.240105705951938
0.0222020348310399,0.237074772889845
0.0209689521497106,0.233940404892665
0.0198555570242003,0.230706870638507
0.0188668516169292,0.227378660539681
0.0180076720759657,0.223960481016155
0.0172826799143556,0.220457248433664
0.0166963536084485,0.21687408271386
0.0162529804273043,0.213216300624346
0.0159566485049802,0.209489408756869
0.0158112391672077,0.205699096202359
0.0158204195236583,0.201851226931949
0.0159876353366752,0.197951831893471
0.0163161041770085,0.194007100833353
0.0168088088767422,0.190023373854192
0.0174684912892337,0.18600713271868
0.0182976463655102,0.181964991910879
0.0192985165561758,0.177903689466204
0.0204730865474787,0.173830077581808
0.0218230783397744,0.169751113019354
0.0233499466761966,0.165673847312473
0.025054874828908,0.161605416791497
0.0269387707498594,0.157553032438306
0.0290022635925292,0.15352396958441
0.0312457006106488,0.149525557465587
0.033669144439447,0.145565168646658
0.0362723707644664,0.141650208330157
0.0390548663825121,0.137788103562856
0.0420158276588013,0.133986292354266
0.0451541593838795,0.130252212721398
0.0484684740333598,0.126593291674197
0.0519570914330323,0.123016934156178
0.055618038831373,0.119530511954905
0.0594490513809601,0.116141352597009
0.0634475730297846,0.112856728242545
0.067610757822914,0.109683844593487
0.0719354716144431,0.106629829831229
0.0764182941891336,0.103701723597926
0.0810555217926182,0.100906466036544
0.0858431700685155,0.0982508869044158
0.0907769774002705,0.0957416947750801
0.0958524086550144,0.0933854663431009
0.101064659326206,0.0911886358464868
0.1064086600713,0.0891574846212203
0.111879081640171,0.0872981308022889
0.117470340189495,0.0856165191854682
0.123176602977797,0.0841184112639495
0.128991794435357,0.0828093754537276
0.134909602602675,0.0816947775214708
0.140923485930694,0.0807797712283827
0.147026680435502,0.0800692892033375
0.153212207199769,0.079568034058323
0.159472880212665,0.0792804697589626
0.165801314539606,0.079210813262609
0.172189934812659,0.0793630264362052
0.178630984032057,0.0797408082657961
0.185116532668794,0.0803475873692475
0.191638488057888,0.0811865148233862
0.198188604071477,0.0822604573164167
0.204758491060515,0.0835719906360971
0.21133962605347,0.085123393503773
0.21792336320003,0.0869166417639659
0.224500944447503,0.0889534029387996
0.231063510437224,0.0912350311561249
0.23760211160798,0.0937625624597616
0.244107719493128,0.0965367105098287
0.25057123819782,0.0995578626806738
0.256983516042432,0.102826076563439
0.263335357358061,0.106341076879821
0.269617534419686,0.110102252813087
0.27582079950237,0.11410865576192
0.28193589704567,0.11835899752214
0.287953575911211,0.12285164890085
0.293864601718231,0.127584638767013
0.299659769241712,0.132555653541956
0.305329914857591,0.13776203713275
0.310865929019428,0.143200791310862
0.316258768750789,0.148868576537956
0.321499470137522,0.154761713240149
0.32657916080405,0.16087618353147
0.331489072357739,0.16720763338674
0.336220552785398,0.173751375263506
0.34076507878593,0.180502391172103
0.345114268023198,0.187455336192385
0.349259891283167,0.194604542435067
0.353193884519471,0.20194402344509
0.356908360771592,0.209467479043839
0.360395621939949,0.217168300606513
0.363648170402294,0.225039576770359
0.366658720455947,0.233074099568959
0.369420209570551,0.241264370987198
0.371925809436188,0.249602609931
0.374168936791885,0.258080759605384
0.376143264019757,0.266690495293854
0.377842729490241,0.275423232531627
0.379261547644121,0.284270135664659
0.38039421879732,0.293222126785959
0.381235538654685,0.302269895040131
0.381780607519319,0.311403906286635
0.382024839184295,0.320614413111754
0.381963969493953,0.329891465178773
0.381594064562286,0.339224919905452
0.38091152863633,0.348604453457375
0.379913111592816,0.358019572045366
0.378595916056749,0.367459623514701
0.376957404131001,0.376913809213466
0.374995403726412,0.386371196126982
0.372708114482332,0.395820729264862
0.370094113268021,0.405251244286871
0.367152359255725,0.414651480353432
0.36388219855681,0.424010093186262
0.360283368412746,0.4333156683243
0.356356000933288,0.442556734559815
0.352100626374695,0.45172177753924
0.347518175951349,0.460799253513063
0.342609984174678,0.469777603218813
0.337377790713835,0.478645265880956
0.331823741773112,0.487390693311313
0.325950390981664,0.496002364093391
0.319760699791651,0.504468797833856
0.313258037381506,0.512778569464208
0.306446180061612,0.520920323575591
0.299329310180229,0.528882788769523
0.291912014528162,0.536654792007274
0.284199282241185,0.544225272940497
0.276196502199895,0.55158329820568
0.267909459927237,0.558718075664954
0.259344333984546,0.565618968575752
0.250507691867577,0.572275509671824
0.241406485404577,0.578677415138165
0.232048045659067,0.584814598462395
0.222440077340613,0.590677184145264
0.212590652727457,0.596255521252983
0.202508205105476,0.601540196794227
0.192201521728565,0.606522048904768
0.181679736306084,0.611192179822834
0.170952321023654,0.615541968638474
0.160029078104121,0.619563083800398
0.148920130916134,0.62324749536395
0.137635914638304,0.626587486964127
0.126187166487535,0.629575667497781
0.114584915520619,0.632204982499433
0.102840472018783,0.634468725195395
0.0909654164653762,0.636360547221215
0.0789715881274559,0.637874468987786
0.0668710732525149,0.639004889681796
0.0546761928921249,0.639746596886567
0.0423994903647599,0.640094775809708
0.0300537183705428,0.640045018104402
0.0176518257711455,0.639593330271569
0.0052069440485116,0.638736141630578
-0.00726762654346781,0.637470311846607
-0.0197584311197763,0.635793138003261
-0.0322518745826244,0.633702361209481
-0.0447342363019675,0.631196172730311
-0.05719168504244,0.628273219631579
-0.069610294120598,0.624932609929082
-0.0819760567760014,0.621173917233373
-0.0942749017393558,0.61699718488184
-0.106492708980599,0.612402929550276
-0.118615325619546,0.607392144336746
-0.130628581981412,0.601966301311127
-0.1425183077793,0.596127353524273
-0.154270348405474,0.589877736471386
-0.165870581313056,0.583220369004769
-0.177304932469574,0.576158653691734
-0.188559392863601,0.568696476614115
-0.199620035045608,0.560838206606408
-0.210473029683982,0.552588693930245
-0.221104662117082,0.543953268383524
-0.23150134888209,0.534937736843179
-0.241649654201376,0.525548380241222
-0.251536306407024,0.515791949974335
-0.26114821428416,0.505675663747967
-0.270472483313723,0.495207200856529
-0.279496431795324,0.484394696901959
-0.288207606830906,0.473246737953564
-0.296593800149981,0.461772354152738
-0.304643063757274,0.449981012766784
-0.312343725383784,0.437882610696739
-0.319684403722327,0.425487466444752
-0.326654023428853,0.412806311547212
-0.333241829870948,0.399850281480471
-0.339437403605188,0.386630906046637
-0.34523067456518,0.373160099247571
-0.350611935942414,0.359450148655808
-0.355571857742292,0.345513704291796
-0.360101499997983,0.331363767017399
-0.364192325625092,0.317013676456267
-0.36783621290041,0.302477098452229
-0.371025467548418,0.28776801207748
-0.373752834419535,0.272900696202872
-0.376011508744527,0.257889715643214
-0.377795146949893,0.242749906891009
-0.379097877019447,0.227496363452602
-0.379914308387809,0.212144420801223
-0.380239541351935,0.19670964096195
-0.380069175987335,0.181207796744048
-0.3793993205561,0.165654855636692
-0.378226599394392,0.150066963384465
-0.376548160267588,0.134460427259537
-0.374361681181791,0.118851699047804
-0.371665376641021,0.103257357766702
-0.368458003339936,0.0876940921327929
-0.36473886528258,0.072178682797589
-0.360507818318184,0.0567279843704446
-0.355765274085751,0.0413589072476584
-0.350512203359705,0.0260883992672555
-0.344750138789588,0.0109334272092058
-0.338481177027408,-0.00408904183889724
-0.331707980236899,-0.0189620592304269
-0.324433776979653,-0.0336687136020781
-0.316662362473741,-0.0481921497892847
-0.308398098221131,-0.0625155877938136
-0.299645911000909,-0.0766223417824936
-0.290411291226017,-0.0904958390958939
-0.280700290661912,-0.104119639245664
-0.270519519506274,-0.117477452879154
-0.259876142829603,-0.130553160689861
-0.248777876377265,-0.14333083225223
-0.23723298173426,-0.155794744759285
-0.225250260854716,-0.167929401641608
-0.212839049958839,-0.17971955104619
-0.200009212800757,-0.191150204153748
-0.186771133311436,-0.202206653313174
-0.173135707621552,-0.212874489971884
-0.159114335469934,-0.223139622380977
-0.1447189110039,-0.232988293054251
-0.129961812978519,-0.242407095960303
-0.114855894362537,-0.251382993427155
-0.0994144713594236,-0.25990333273904
-0.083651311852644,-0.267955862405279
-0.0675806232850138,-0.275528748081396
-0.0512170399826056,-0.28261058812296
-0.0345756099343938,-0.289190428752936
-0.017671781039461,-0.295257778823674
-0.000521386834240051,-0.300802624155024
0.0168593682870856,-0.305815441430471
0.034453924345286,-0.310287211633553
0.052245381527537,-0.314209433007299
0.0702165164026663,-0.317574133519837
0.0883497985846492,-0.320373882819818
0.106627407828248,-0.322601803665774
0.125031251540126,-0.324251582814054
0.143542982688225,-0.3253174813505
0.162144018091688,-0.325794344451591
0.180815557073087,-0.325677610561314
0.199538600454238,-0.32496331997066
0.218293969876425,-0.323648122787183
0.237062327425381,-0.321729286282734
0.255824195540983,-0.319204701608069
0.274559977191175,-0.316072889863719
0.29324997628927,-0.312333007517138
0.311874418333401,-0.307984851156845
0.330413471246565,-0.303028861574962
0.348847266395364,-0.297466127170241
0.367155919765258,-0.291298386664407
0.38531955326988,-0.28452803112535
0.403318316171699,-0.277158105291441
0.421132406591079,-0.269192308192003
0.438742093080626,-0.260634993059699
0.456127736241479,-0.251491166531379
0.47326981035809,-0.241766487134689
0.490148925027886,-0.231467263058511
0.506745846762131,-0.220600449206108
0.5230415205342,-0.209173643530585
0.539017091251446,-0.197195082653128
0.554653925126814,-0.184673636765212
0.569933630926351,-0.171618803816795
0.584838081068802,-0.158040702993313
0.599349432553521,-0.143950067485048
0.613450147693024,-0.129358236553283
0.627123014626606,-0.114277146898409
0.64035116759158,-0.0987193233359491
0.653118106928861,-0.0826978687872677
0.665407718799811,-0.0662264535924809
0.67720429459144,-0.0493193041538941
0.688492549987355,-0.0319911909190349
0.699257643682045,-0.0142574157131303
0.709485195716446,0.00386620156837858
0.719161305412987,0.0223633368959293
0.728272568888714,0.041217176658477
0.736806096125393,0.0604104328198448
0.744749527575951,0.0799253586652792
0.752091050286966,0.0997437651239753
0.7588194135174,0.119847037652646
0.764923943834209,0.140216153664552
0.770394559665942,0.160831700487713
0.775221785295985,0.181673893835402
0.779396764277576,0.202722596771378
0.782911272253333,0.22395733915169
0.785757729162559,0.245357337524317
0.787929210820201,0.266901515467279
0.789419459851964,0.288568524345347
0.790222895970678,0.310336764464885
0.790334625579713,0.332184406605891
0.789750450689861,0.354089413909738
0.788466877136822,0.376029564100711
0.786481122087126,0.397982472018899
0.783791120821023,0.419925612441637
0.780395532781644,0.441836343170223
0.776293746880449,0.463691928358297
0.771485886049765,0.485469562057853
0.765972811033982,0.507146391958578
0.759756123411762,0.52869954329582
0.752838167842424,0.550106142902278
0.745222033530478,0.571343343378173
0.73691155490308,0.592388347354496
0.727911311496045,0.61321843182363
0.718226627044854,0.633810972511552
0.70786356777797,0.65414346826559
0.696828939910597,0.674193565431639
0.685130286337897,0.693939082194597
0.672775882527519,0.713358032855733
0.659774731612174,0.732428652020658
0.646136558683856,0.751129418671534
0.631871804292151,0.769439080097186
0.616991617149987,0.787336675654822
0.60150784605101,0.804801560337127
0.585433031003652,0.821813428118607
0.568780393587828,0.838352335055174
0.551563826541054,0.854398722111134
0.533797882581633,0.869933437687909
0.51549776247742,0.884937759829048
0.496679302369502,0.899393418076322
0.477358960361011,0.913282614951959
0.457553802382071,0.926588047042382
0.437281487342743,0.939292925659142
0.416560251586616,0.951380997053066
0.395408892658539,0.962836562158053
0.373846752400703,0.973644495841347
0.351893699392192,0.983790265637511
0.329570110747713,0.993259949943874
0.306896853292155,1.00204025565559
0.283895264128217,1.01011853521908
0.260587130615132,1.01748280308309
0.236994669777255,1.02412175152708
0.213140507161862,1.03002476584757
0.18904765516631,1.03518193888316
0.164739490855226,1.03958408486
0.140239733289165,1.04322275254009
0.115572420386635,1.04609023765509
0.0907618853421122,1.04817959460959
0.0658327326231566,1.04948464743794
0.0408098135702944,1.05
0.0157182016238897,1.04972104540137
-0.00941683279733146,1.04864397462501
-0.0345698477409057,1.04676578436143
-0.0597152554628147,1.04408428402582
-0.084827348441171,1.04059810195103
-0.109880325635009,1.03630669074641
-0.134848318961323,1.03121033181308
-0.159705419963291,1.02531013900735
-0.184425706642144,1.0186080614446
-0.208983270425019,1.01110688543713
-0.233352243240762,1.00281023556007
-0.257506824675442,0.993722574840595
-0.281421309179216,0.983849204066422
-0.305070113295879,0.973196260210657
-0.328427802886448,0.961770713970829
-0.351469120317877,0.949580366421006
-0.374169011588054,0.936633844776728
-0.396502653358053,0.922940597273546
-0.418445479862729,0.908510887160775
-0.439973209670648,0.893355785813127
-0.461061872264452,0.877487164963773
-0.481687834412826,0.860917688063347
-0.50182782630532,0.843660800770366
-0.52145896742144,0.825730720579464
-0.540558792105586,0.807142425594787
-0.559105274819602,0.787911642456837
-0.57707685504496,0.768054833431981
-0.594452461806843,0.747589182674749
-0.611211537792673,0.726532581674007
-0.627334063038005,0.704903613894932
-0.642800578152977,0.682721538629697
-0.657592207062986,0.660006274070581
-0.67169067923759,0.636778379620147
-0.685078351382114,0.613059037454018
-0.697738228566928,0.588870033352527
-0.709653984769797,0.564233736818516
-0.720809982807327,0.539173080499204
-0.731191293631973,0.51371153893102
-0.740783714971764,0.487873106626932
-0.749573789290418,0.461682275526704
-0.757548821046211,0.435164011831172
-0.764696893228601,0.408343732242417
-0.771006883152285,0.3812472796324
-0.776468477489092,0.353900898163315
-0.781072186518828,0.326331207883604
