-0.971605623885299,-0.188425370209313
-0.935958616484731,-0.188172997284211
-0.920015337065177,-0.16603026749236
-0.922359810535335,-0.191303101789802
-0.930948294308801,-0.152391285039381
-0.89404172518898,-0.20594893276649
-0.874134752631416,-0.219794651341305
-0.888336644086962,-0.214610759381558
-0.822739253763865,-0.263289003875944
-0.805707258136878,-0.262154730374904
-0.727151130973393,-0.353154373856227
-0.717899941953895,-0.369314761059973
-0.653947057688376,-0.389041105748868
-0.618183170623253,-0.469718707027323
-0.618960248745299,-0.497176020017326
-0.487705111704854,-0.613223864716497
-0.529898582876658,-0.578950710356641
-0.437815277584669,-0.636404490714306
-0.341367364632822,-0.705905326941018
-0.321499347432311,-0.75881608302412
-0.238749477175417,-0.830008731904659
-0.202575518373942,-0.813729639843719
-0.162847605330595,-0.818476214441472
-0.140535999984593,-0.886196705154254
-0.0499536835882316,-0.868788270195296
0.00148317034690751,-0.901895499378803
0.089800054832771,-0.816336587494361
0.0999537580882586,-0.831480044608808
0.146402171640518,-0.799644914077885
0.19090877848153,-0.759526546113459
0.231281158700744,-0.685497278799499
0.273900668590703,-0.658277107937196
0.36153792963922,-0.585677423009688
0.384875255619282,-0.580459595484222
0.383377203624665,-0.472513251508197
0.416018136212094,-0.407185806641375
0.440944805613236,-0.299611321208513
0.44714389545658,-0.321320797567775
0.482199600490699,-0.266089051027265
0.494357318314515,-0.177528689485494
0.480665758712674,-0.0526548662299157
0.613701142482484,-0.0950258421318312
0.510877077688527,0.0679102969985638
0.597191764816388,-0.0187005552580783
0.521130898850487,0.154101780582771
0.731376852801697,-0.0315597834367923
0.769869601226729,0.202225304587532
0.644221888360308,0.0594784283315577
0.525865177154524,0.199080062795584
0.719608406610539,0.0782334519581523
0.565847977930972,-0.0517705916324751
0.678991011409742,0.110117307663687
0.556955063324535,-0.0522700474692501
0.764048446847479,0.165420474444183
0.538728440059254,-0.0151026471922674
0.771299523995831,0.197174246873513
0.518829850812031,0.192721616543007
0.573592808797195,0.113033386097069
0.432472524107353,0.227336533664924
0.507766525484742,0.193107990761683
0.342916102996168,0.292144580519296
0.520084286913428,0.123947977831883
0.305684700983787,0.2025893484751
0.45943369561227,0.447307735719477
0.203002451384178,0.329414786301723
0.371747032911545,0.356085697577382
0.0819337622279693,0.443787287964073
0.0715137134794829,0.439718731389483
0.224979659146235,0.699682012065361
0.169751882065946,0.575377626959768
0.0228587235112127,0.642497968051462
-0.0545961954525521,0.710693150008815
-0.109173839456924,0.733046485714055
-0.114210979403306,0.715844589538502
-0.215659061258504,0.751220330402108
-0.267016559783552,0.74616234881459
-0.316817038500479,0.731518722485102
-0.320393128522326,0.673448553343778
-0.400846357897463,0.706595983242228
-0.453626510368217,0.671182406971348
-0.522384424887288,0.616229716452693
-0.50238384575433,0.551667284148911
-0.531571683553625,0.458107521574036
-0.592599796715803,0.449621778002583
-0.612341342218779,0.388316392728504
-0.678992680894556,0.278564646565568
-0.709572955322349,0.214121031453044
-0.738375799796203,0.151893137267575
-0.768916978501471,0.0944723410073835
-0.773499022526744,0.0830083454307894
-0.814421199780005,-0.010201146825394
-0.855591050020723,-0.0571055176233121
-0.861803985916427,-0.0517576743892093
-0.891439000538251,-0.0836896943613274
-0.850526860381778,-0.134565999146695
-0.946426123200909,-0.193744486110904
-0.916794531750768,-0.174314840188348
-0.877436277997457,-0.133148291042194
-0.959517857710736,-0.163688587098892
-0.967968938593877,-0.160561472281931
