-0.0539903215869745,-0.918580778375007
-0.0539059360893867,-0.918547066556481
-0.0538199219903951,-0.91851259898213
-0.0537322402031084,-0.918477354801346
-0.0536428505215972,-0.91844131248192
-0.0535517115837764,-0.918404449784325
-0.0534587808328931,-0.918366743734899
-0.0533640144775596,-0.918328170597873
-0.053267367450273,-0.9182887058462
-0.170244628971474,-1.02044813303103
-0.0530682444692459,-0.918206999250368
-0.0529656716040844,-0.918164704115074
-0.147452696755636,-1.03095050144473
-0.0527542499775204,-0.918077090082918
-0.0526452953995853,-0.918031712255869
-0.0525341051124596,-0.917985246236731
-0.0524206221420821,-0.917937659952516
-0.0523047877851828,-0.917888920211429
-0.0521865415485969,-0.917838992657856
-0.0520658210861715,-0.917787841725324
-0.0519425621331573,-0.917735430587293
-0.051816698437977,-0.917681721105705
-0.0516881616912499,-0.917626673777137
-0.0515568814519549,-0.917570247676476
-0.0514227850706,-0.917512400397943
-0.051285797609267,-0.917453087993379
-0.0511458417583878,-0.917392264907596
-0.0510028377501065,-0.917329883910687
-0.0508567032680712,-0.9172658960271
-0.0507073533534929,-0.917200250461328
-0.0505547003073005,-0.917132894520016
-0.0503986535882131,-0.917063773530306
-0.0502391197065398,-0.916992830754216
-0.0500760021135113,-0.916920007298834
-0.0499092010859342,-0.916845242022095
-0.0497386136059496,-0.916768471433922
-0.0495641332356684,-0.916689629592441
0.0567315670030296,-0.801549965530383
-0.0492030501825068,-0.916525455463923
-0.0490162163187661,-0.916439978025971
-0.0488250269123791,-0.916352138786413
-0.0486293563479146,-0.916261857796131
-0.0484290747157293,-0.91616905191214
-0.0482240476432559,-0.916073634650873
-0.0480141361188583,-0.91597551603388
-0.0477991963078946,-0.915874602425478
0.0697758168261651,-0.809300542190637
0.0454620332335292,-0.824940846155461
-0.047122692369435,-0.915554096785211
-0.046886097699007,-0.915440987537391
-0.0466436761911066,-0.915324553955425
-0.0463952507237878,-0.915204676538405
-0.046140637811973,-0.915081230723682
-0.0458796473457713,-0.914954086640722
-0.0456120823167964,-0.914823108851493
-0.0453377385318844,-0.914688156076554
-0.157499543637975,-1.02757289221445
-0.0447678601867447,-0.914405729494203
-0.0444718785505318,-0.914257941237723
-0.0441682233350876,-0.914105548434723
-0.0438566496421085,-0.913948375925365
-0.0435369033684952,-0.913786240711606
-0.0432087208122262,-0.913618951555232
-0.0428718282595483,-0.91344630855273
-0.0425259415525328,-0.913268102685511
-0.0421707656359936,-0.913084115343926
0.0624752797364592,-0.807093981122987
-0.0414313085958618,-0.912697870790623
-0.0410463784874511,-0.912495123718662
-0.0406508601315744,-0.912285614287578
-0.0402443963911563,-0.912069067749665
-0.03982661601684,-0.911845196256135
-0.0393971330165829,-0.91161369814295
-0.0389555459944551,-0.911374257173038
-0.0385014374570566,-0.911126541731948
-0.0380343730858923,-0.910870203973799
0.0576737351476,-0.79399357453196
-0.0370595508246888,-0.910330183466003
-0.143559108699948,-1.01382977455518
-0.0360272381950796,-0.90975105233256
-0.0354882353986174,-0.909445750411892
-0.0349332720350099,-0.909129343240558
-0.0343617723874321,-0.908801340485499
-0.033773136638632,-0.908461226496314
-0.0331667397471528,-0.908108458816941
-0.0325419302677303,-0.907742466599783
-0.0318980291131103,-0.907362648915271
-0.031234328254415,-0.906968372949318
-0.0305500893570743,-0.906558972080531
-0.0298445423492263,-0.906133743828415
-0.0291168839193803,-0.90569194766311
-0.0283662759400293,-0.90523280266646
-0.0275918438137945,-0.904755485033426
-0.0267926747385915,-0.904259125401943
-0.0259678158882202,-0.903742805998428
-0.025116272504705,-0.903205557585075
-0.0242370058986553,-0.902646356193996
-0.122405789099549,-0.996968493606713
-0.0223909159324063,-0.901457703738994
-0.0214217761763046,-0.900825898379804
-0.0204202757022772,-0.900167423151295
-0.0193851226856677,-0.899480922780471
-0.132416249725544,-0.98996433747639
-0.0172083986200968,-0.898018021212706
-0.0160639424517717,-0.897238488903881
0.0784120938218616,-0.793699123510217
0.0184991953711363,-0.929092734060703
-0.0230432402303116,-0.941337495989391
-0.0267752402462393,-0.924040287706617
-0.0295338974133367,-0.872619550617458
-0.00831019495905744,-0.891773593545976
-0.00118084371793731,-0.900363028917854
-0.0053439090138924,-0.889600406621812
-0.0064598096488729,-0.914333773908125
-0.0908626293215307,-1.01175374425558
-0.000479295817875897,-0.885940230087859
0.00603728014577352,-0.855129659045791
0.00306860170305995,-0.88319656948969
0.00494186274310776,-0.881723006851574
0.0568302611607155,-0.892650374848878
0.00211662757925384,-0.896129542469138
0.0183258796494564,-0.865004241212307
-0.0303380884297044,-0.869273357277888
0.0119949376855845,-0.918656285531764
0.0177600098792715,-0.871185118481811
-0.0225398218543551,-0.892902930692124
0.0524060143720057,-0.829142634226294
0.0253365077258259,-0.864588445541505
-0.0839658949245758,-0.958621851200496
0.03089005907194,-0.859581079653496
0.0338304585095664,-0.856871060747938
0.0462857486584891,-0.826214878848869
0.149617318466338,-0.757093113936482
0.0231754085748645,-0.821439118739339
0.0467919619629428,-0.844438928678307
0.0663700069704903,-0.850154671136345
0.0558361793502402,-0.810021106492262
0.0578967628830064,-0.871827768436616
0.107547465777626,-0.818933594727698
0.0660767429024685,-0.824457430348892
0.0447635726344291,-0.796621200540227
0.0748898106056473,-0.814720622057496
0.0795545025304567,-0.809409175595451
0.0845837017471283,-0.778815981132075
0.0450522133070503,-0.821639929121426
0.0998089899979058,-0.745284200051354
0.234208334970822,-0.718783115567973
0.124457068100156,-0.822359639984614
0.26598378574275,-0.656514652702804
0.117527466514925,-0.761858388041305
0.11556818025518,-0.726859771770334
0.0907464854135902,-0.713158032326275
0.1954441829951,-0.599645943307663
0.192431136130631,-0.67413517965301
0.144268670660346,-0.747744772278565
0.150207921467484,-0.736403616589835
0.203970266079804,-0.660212993979327
0.292207245331009,-0.579680282912857
0.181267884314134,-0.661259561433324
0.18932735141088,-0.646164126159244
0.197539886379526,-0.630090877760437
0.205883298713858,-0.612979223331125
0.214330467785958,-0.594766405502359
0.334886116137473,-0.456547252669779
0.335896493077169,-0.450068240377398
0.239935161430654,-0.532868449221691
0.248403403319567,-0.509593776889897
0.25674100608537,-0.484887175804807
0.264875730264786,-0.458684210195098
0.384611120182866,-0.314422913895306
0.280194514749704,-0.401548747647988
0.287178558285083,-0.370509670072945
0.293558221704666,-0.337765062751969
0.299201417500256,-0.303284807599624
0.303962451274767,-0.267052756084869
0.402661144213994,-0.128078394545932
0.310187388748569,-0.189357506910992
0.202523553312804,-0.252590034446948
0.310804005407092,-0.104955118923682
0.30851343020941,-0.06044450820918
0.304209891971403,-0.014571314429724
0.297678688755647,0.0324828751438755
0.28870678112543,0.0804932762823715
0.277088199454963,0.129189156751309
0.26263035981926,0.178251998387846
0.145515254956253,0.12013267189181
0.224537078913004,0.275963331139252
0.200650939909479,0.323738122522974
0.173440875326188,0.370139960680262
0.142898241592948,0.414636556102387
0.109075124470631,0.456671972030015
0.0720905414091137,0.495678254495416
0.0321348532509616,0.531089117223065
-0.0105281305843516,0.562355286093217
-0.0555617945603323,0.588960930340017
-0.102560421360449,0.610440448318344
-0.15105609736717,0.626394754803348
-0.200528746645194,0.636506153543829
-0.250418989812738,0.640550888080815
-0.300143297073762,0.638408553323517
-0.349110706639302,0.630067718262129
-0.396740234612338,0.615627344448861
-0.442478028811025,0.595293864111499
-0.485813327276973,0.569374077886637
-0.526292372445313,0.53826431432235
-0.472019810255596,0.601304150299682
-0.597215586728723,0.462422221475288
-0.627121656453535,0.418795045321384
-0.653100942433506,0.372153187347255
-0.78749927880205,0.213854856471409
-0.804743547000201,0.153727788880233
-0.707174843017597,0.22014079747477
-0.717488540281412,0.16734737129544
-0.819077117386519,-0.00242139339938777
-0.727566601568,0.0616258486048323
-0.727807714618611,0.00954630840544163
-0.725207343039594,-0.0415362681156639
-0.72004931091111,-0.0913326025112791
-0.712620791774623,-0.13960589582594
-0.703205769859952,-0.186168871828554
-0.692079688827,-0.230879951772363
-0.679505260152777,-0.273638868321207
-0.665729355161651,-0.314381984885701
-0.650980872383879,-0.35307754036747
-0.635469453459663,-0.389720992557692
-0.619384913686904,-0.424330589318112
-0.602897254906589,-0.45694325721747
-0.586157136230345,-0.487610863593962
-0.457619075528782,-0.396517303608648
-0.552430583943719,-0.543373456730851
-0.535657246926567,-0.568618890058808
-0.519060187082856,-0.592215476057615
-0.502709348796521,-0.614247707709286
-0.486662464104228,-0.634800791388636
-0.470966366451336,-0.653959445081221
-0.455658243402237,-0.67180694404481
-0.440766812522629,-0.688424380462866
-0.426313410758227,-0.703890105764127
-0.412312992447141,-0.718279326928285
-0.295255389333196,-0.636044178040839
-0.38570435238819,-0.744111815020296
-0.373101824282403,-0.755687801429252
-0.25024744015491,-0.663612852084911
-0.445170283853917,-0.876329503159443
-0.338065926876452,-0.785773903270633
-0.327287084129998,-0.794434107117463
-0.316941757133658,-0.802490872941227
-0.42440192430712,-0.901198654312973
-0.297504143218962,-0.816965554111354
-0.288386284788184,-0.823461798091714
-0.279651232473934,-0.829511589375734
-0.271285298876902,-0.835147427558427
-0.263274715038818,-0.840399438417646
-0.155348773765882,-0.730461731996307
-0.24826478360086,-0.849861542459146
-0.241238426372218,-0.854121392173999
-0.234513537455493,-0.858097207454921
-0.228077294394415,-0.86180945775362
-0.221917225794822,-0.865277074964451
-0.216021238882152,-0.868517567293877
-0.21037763911044,-0.87154712577747
-0.204975143109657,-0.874380723662855
-0.104969789524739,-0.773690086296178
-0.307479397877501,-0.979352644946624
-0.097217658435333,-0.777695913682067
-0.185565212640568,-0.884017352080594
-0.181213658720993,-0.886059242231123
-0.177044278528824,-0.887974179361185
-0.173048668071543,-0.889770859808504
-0.270081086775939,-0.994293719687405
-0.165547029548797,-0.893041076223907
-0.162026045999654,-0.894528990221356
-0.158648895592425,-0.895927491580414
-0.155408950349683,-0.897242526505957
-0.152299898386998,-0.898479611636835
-0.149315730685457,-0.899643867008105
-0.146450728014158,-0.900740046399369
-0.143699448079377,-0.901772565274916
-0.0412329702086835,-0.789991063684962
-0.138517596881075,-0.903662744056009
-0.136077414344813,-0.904527764780314
-0.133731708670584,-0.905343888511388
-0.131476240935057,-0.906114186548909
-0.0349865693988956,-0.815881810259273
-0.127220088999344,-0.907528548948412
-0.125211922171835,-0.908177759968099
-0.224432970110742,-0.998882376266606
-0.0210599142678353,-0.79180317287462
-0.119625898857824,-0.909920856876138
-0.117899572712805,-0.910440436093585
-0.116236225487302,-0.910932321199085
-0.0204746922387221,-0.809534879143299
-0.113087769788745,-0.911839465916171
-0.11159763093505,-0.91225769370836
-0.11016039728316,-0.912654178372022
-0.10877384368668,-0.9130301756935
-0.107435850480543,-0.91338686144041
-0.106144398093883,-0.913725336915229
-0.104897561943145,-0.91404663409483
-0.103693507592109,-0.914351720388668
-0.102530486165916,-0.914641503045594
-0.101406830006523,-0.914916833236848
-0.100320948557481,-0.915178509840503
-0.0992713244663724,-0.915427282950584
-0.0982565098936997,-0.915663857132162
-0.0972751230174735,-0.915888894442024
-0.0963258447232412,-0.916103017232921
-0.0954074154697341,-0.916306810757914
-0.0945186323207852,-0.916500825590066
-0.0936583461346071,-0.916685579871437
-0.092825458901961,-0.916861561404273
-0.0920189212251685,-0.917029229596231
-0.0912377299303268,-0.91718901727054
-0.0904809258054828,-0.917341332351148
-0.181094303564192,-1.03020443577474
-0.207672307345577,-1.01220361677582
-0.0883478595452059,-0.917757179995252
-0.0876798185457407,-0.917883238685704
-0.0870319569037198,-0.918003542248851
-0.0864035379134978,-0.918118378679249
-0.085793855992443,-0.918228020060563
-0.0852022352081267,-0.918332723529604
-0.0846280278814453,-0.918432732176912
-0.0840706132615275,-0.918528275888379
-0.0835293962685128,-0.918619572132071
-0.0830038063005028,-0.918706826694081
-0.0824932961011978,-0.918790234366976
-0.0819973406849241,-0.918869979594125
-0.0815154363159451,-0.918946237072952
-0.0810470995391207,-0.91901917231994
-0.0805918662591491,-0.919088942199995
-0.0801492908657752,-0.919155695422603
-0.198406791029683,-1.02378328580671
-0.0793004187764795,-0.919280708718552
-0.0788933160073655,-0.919339229477974
0.0178135838397247,-0.82620897816406
-0.0781118784306234,-0.919448901882454
-0.194784178460604,-1.02021844932242
-0.191475274718661,-1.02528163935688
-0.0770163764563681,-0.919596618593139
-0.0766703388011589,-0.91964177725822
-0.0763333554746328,-0.91968504726996
-0.0760051373996524,-0.919726512833804
-0.172092171341032,-1.03066278483212
-0.0753738942359146,-0.919804347086621
-0.075070343179871,-0.919840864481906
-0.0747745045879475,-0.919875875244973
0.0293379242945496,-0.807319994322495
-0.0742050157065115,-0.919941636587444
-0.178429303298625,-1.0273159067218
-0.0736636143983489,-0.920002120178967
-0.0734029153205882,-0.920030523187116
-0.0731486157321486,-0.920057769969202
0.025378685245186,-0.826093730708424
-0.0726584527569309,-0.92010898932954
-0.0724222249188341,-0.920133053560382
-0.0721916671341225,-0.920156145095292
-0.0719666126798554,-0.920178304671308
-0.071746900594897,-0.920199571171195
-0.0715323754526049,-0.920219981715739
-0.0713228871435333,-0.920239571751039
-0.0711182906676646,-0.920258375131089
-0.0709184459357144,-0.920276424195919
-0.174278573121475,-1.01210170544535
-0.0705324747679622,-0.92031038161011
-0.0703460910374508,-0.920326347715979
-0.0701639441208977,-0.920341675148796
0.0343474057765793,-0.814018454855927
-0.0698118917048012,-0.920370516087745
-0.0696417612621745,-0.920384077881435
-0.0694754174611147,-0.92039709768139
0.0275732425527826,-0.828693047290981
-0.0691536789781467,-0.920421596832643
-0.0689980871134362,-0.920433116676211
-0.0688458872833614,-0.920444175594996
-0.0686969885822002,-0.920454791747322
-0.068551302978331,-0.920464982525079
-0.0684087452100677,-0.920474764588925
-0.068269232685731,-0.92048415390172
0.0276433432713127,-0.824586991861245
0.0273600057734354,-0.816884677812176
-0.0678681787229277,-0.92051011515186
-0.167150706323283,-1.01229038633109
-0.0676146331519298,-0.920525722929065
-0.0674917955778543,-0.920533055691592
-0.0673714922779826,-0.920540090386018
-0.0672536588729137,-0.920546838414657
-0.067138232916001,-0.920553310717876
-0.0670251538267118,-0.920559517794375
-0.0669143628265701,-0.920565469720494
-0.0668058028775731,-0.920571176168613
-0.0666994186229746,-0.920576646424671
-0.0665951563303345,-0.920581889404871
-0.0664929638367396,-0.920586913671589
-0.0663927904961024,-0.920591727448557
-0.066294587128453,-0.920596338635318
-0.0661983059711375,-0.920600754821034
-0.066103900631847,-0.920604983297638
-0.0660113260433978,-0.920609031072392
-0.0659205384201934,-0.920612904879867
