-1.00581577529634,-0.105833828543669
-1.0058069539291,-0.105947351695242
-1.0057978365584,-0.10606310504021
-1.00578841283581,-0.106181143116386
-1.00577867201536,-0.106301522054582
-1.00576860293664,-0.106424299632603
-1.00575819400711,-0.106549535331325
-1.00574743318355,-0.106677290392947
-1.00573630795265,-0.106807627881495
-1.00572480531067,-0.106940612745693
-1.00571291174218,-0.107076311884298
-1.00570061319765,-0.107214794214003
-1.00568789507013,-0.107356130740023
-1.00567474217066,-0.107500394629489
-1.00566113870257,-0.10764766128776
-1.00564706823446,-0.107798008437801
-1.00563251367196,-0.107951516202744
-1.00561745722795,-0.108108267191796
-1.00560188039143,-0.108268346589624
-1.0055857638948,-0.108431842249394
-1.00556908767947,-0.108598844789609
-1.00555183085983,-0.10876944769494
-1.00553397168528,-0.108943747421221
-1.0055154875005,-0.1091218435048
-1.00549635470349,-0.109303838676454
-1.0054765487017,-0.109489838980069
-1.0054560438657,-0.10967995389632
-1.00543481348058,-0.109874296471578
-1.00541282969478,-0.110072983452286
-1.00539006346631,-0.110276135425071
-1.00536648450606,-0.11048387696286
-1.00534206121818,-0.110696336777286
-1.00531676063738,-0.110913647877679
-1.00529054836271,-0.111135947736977
-1.00526338848804,-0.111363378464862
-1.0052352435286,-0.111596086988502
-1.00520607434369,-0.111834225241247
-1.00517584005515,-0.112077950359676
-1.00514449796142,-0.112327424889405
-1.00511200344684,-0.112582817000089
-1.00507830988603,-0.112844300710069
-1.00504336854293,-0.113112056121147
-1.00500712846426,-0.113386269663994
-1.00496953636703,-0.113667134354724
-1.00493053651969,-0.113954850063197
-1.00489007061666,-0.114249623793642
-1.00484807764562,-0.114551669978229
-1.00480449374737,-0.114861210784249
-1.00475925206756,-0.115178476435595
-1.0047122825999,-0.115503705549288
-1.00466351202032,-0.115837145487817
-1.00461286351144,-0.116179052728119
-1.00456025657676,-0.116529693248059
-1.00450560684396,-0.116889342931329
-1.00444882585651,-0.117258287991737
-1.00438982085295,-0.117636825417897
-1.00432849453285,-0.118025263439408
-1.00426474480887,-0.118423922015662
-1.00419846454365,-0.118833133348488
-1.00412954127089,-0.1192532424199
-1.0040578568992,-0.119684607556318
-1.00398328739789,-0.120127601020661
-1.00390570246329,-0.12058260963385
-1.00382496516433,-0.1210500354273
-1.00374093156599,-0.121530296328095
-1.0036534503291,-0.122023826878646
-1.00356236228483,-0.122531078992706
-1.00346749998215,-0.123052522749761
-1.00336868720642,-0.123588647229915
-1.00326573846699,-0.124139961391508
-1.00315845845171,-0.124706994993858
-1.003046641446,-0.12529029956763
-1.00293007071396,-0.125890449435509
-1.00280851783876,-0.126508042785996
-1.00268174201945,-0.127143702803318
-1.00254948932108,-0.127798078856614
-1.00241149187452,-0.128471847751755
-1.00226746702266,-0.129165715049347
-1.00211711640869,-0.129880416452671
-1.00196012500245,-0.130616719269551
-1.0017961600601,-0.131375423952352
-1.00162487001227,-0.132157365720576
-1.00144588327509,-0.132963416270777
-1.00125880697862,-0.133794485578793
-1.00106322560608,-0.134651523799577
-1.00085869953726,-0.135535523270219
-1.00064476348882,-0.136447520622079
-1.00042092484327,-0.137388599008279
-1.00018666185832,-0.138359890453153
-0.999941421747062,-0.139362578330637
-0.999684618618916,-0.140397899978969
-0.999415631270456,-0.141467149459457
-0.99913380081412,-0.142571680467525
-0.998838428131985,-0.143712909404656
-0.998528771140581,-0.144892318620331
-0.998204041851576,-0.146111459833521
-0.99786340321183,-0.147371957743776
-0.997505965704913,-0.148675513842455
-0.997130783694631,-0.150023910435147
-0.996736851489405,-0.15141901488684
-0.996323099104529,-0.152862784101928
-0.995888387697287,-0.154357269251635
-0.995431504647767,-0.155904620761975
-0.994951158255768,-0.157507093575827
-0.994445972021634,-0.159167052703212
-0.993914478475971,-0.160886979074259
-0.993355112520115,-0.162669475709768
-0.992766204235837,-0.164517274224599
-0.99214597111907,-0.16643324167938
-0.991492509688425,-0.168420387796158
-0.990803786414875,-0.170481872553702
-0.990077627914198,-0.172621014177989
-0.989311710338588,-0.174841297543141
-0.988503547898126,-0.177146382997539
-0.987650480436692,-0.179540115629018
-0.986749659980151,-0.182026534981937
-0.985798036167369,-0.184609885237343
-0.98479234046673,-0.18729462586549
-0.983729069072212,-0.190085442757361
-0.982604464363841,-0.192987259838629
-0.98141449480727,-0.19600525116546
-0.98015483315644,-0.199144853496598
-0.978820832811577,-0.202411779330147
-0.977407502172294,-0.205812030386099
-0.975909476812107,-0.209351911506841
-0.974320989286369,-0.21303804493726
-0.972635836370349,-0.216877384933417
-0.970847343508063,-0.220877232633695
-0.96894832623541,-0.225045251108475
-0.966931048323408,-0.229389480483327
-0.96478717636878,-0.233918353005826
-0.96250773054017,-0.238640707896915
-0.960083031168923,-0.243565805793493
-0.957502640854039,-0.248703342548869
-0.954755301732027,-0.254063462110986
-0.951828867544345,-0.259656768143922
-0.948710230118732,-0.265494333994966
-0.945385239866809,-0.27158771053629
-0.941838619889877,-0.277948931325514
-0.938053873279336,-0.284590514431676
-0.934013183199208,-0.291525460160584
-0.929697305347914,-0.298767243784376
-0.925085452417413,-0.306329802232205
-0.920155170203003,-0.314227513530288
-0.914882205070515,-0.322475167587635
-0.909240362563685,-0.331087926706417
-0.903201357038876,-0.340081273950664
-0.896734652353484,-0.34947094723171
-0.889807293816325,-0.359272856661367
-0.882383731842161,-0.369502982382853
-0.874425638049385,-0.380177249714034
-0.865891714912299,-0.391311378027851
-0.856737500542125,-0.402920699352494
-0.846915170740705,-0.41501994220275
-0.836373341166632,-0.427622975660343
-0.825056873296625,-0.440742508215138
-0.812906688878237,-0.454389735375548
-0.799859598778506,-0.468573929576183
-0.785848153562405,-0.483301965481976
-0.77080052481078,-0.498577773448528
-0.754640428133539,-0.514401713697306
-0.737287101070227,-0.530769863764457
-0.718655351609134,-0.547673212062259
-0.698655695898759,-0.565096751050021
-0.677194606855367,-0.583018464664406
-0.654174898746498,-0.601408206447823
-0.62949627637794,-0.620226467400098
-0.60305608111169,-0.639423036146816
-0.574750269418007,-0.658935558768184
-0.544474662767552,-0.67868801177484
-0.512126510064529,-0.698589109457705
-0.47760640507184,-0.718530676359916
-0.440820600833924,-0.738386027050294
-0.40168376029075,-0.758008408759952
-0.36012217630825,-0.777229577677752
-0.316077484336789,-0.795858596489086
-0.269510875899855,-0.813680958520771
-0.220407800166337,-0.830458161716668
-0.16878311313915,-0.845927872295377
-0.114686598924304,-0.859804831546946
-0.058208744997964,-0.871782667532886
0.000513396090305908,-0.881536773726657
0.0612904810771889,-0.888728405787372
0.123875566646668,-0.893010122487839
0.187959553130699,-0.894032654330605
0.253167767721896,-0.89145322129921
0.319058109712926,-0.884945238535237
0.38512119464146,-0.874209246524178
0.450782918522856,-0.858984784285341
0.515409809829849,-0.839062796924635
0.578317439711892,-0.814298042907556
0.638782017793648,-0.784620854774363
0.696055114385722,-0.750047525089015
0.749381228859114,-0.710688552996576
0.798017683676328,-0.666754009887644
0.841256085608998,-0.618555374965549
0.878444385773343,-0.566503355676551
0.909008415358666,-0.511101437820954
0.932471698807058,-0.452935189916038
0.948472368449353,-0.392657651445945
0.956776131486093,-0.330971434201044
0.957284466213725,-0.268608426986671
0.950037530924302,-0.2063081862614
0.935211626202633,-0.144796195920046
0.913111422538651,-0.0847631768456556
0.884157511635153,-0.0268465224754587
0.848870126794998,0.0283852553930865
0.807850079354971,0.0804444416815854
0.761758060257792,0.128932053442963
0.711293457386896,0.173541744712691
0.657173750823451,0.214059892503393
0.600115389168829,0.250362289472414
0.540816844989811,0.282408020729283
0.479944321852284,0.310231188083261
0.418120362567426,0.333931168372183
0.355915406741646,0.353662062818402
0.293842178143973,0.369621924550759
0.232352655377585,0.382042255609308
0.171837294105297,0.391178156291995
0.112626122714441,0.39729939996895
0.0549913201322518,0.400682604122298
-0.000849102595039439,0.401604579124198
-0.0547268638001612,0.400336863238063
-0.106518519357147,0.397141396412314
-0.156140372067567,0.39226724589221
-0.203543386716004,0.385948271689547
-0.248708267449983,0.378401607129191
-0.291640810910669,0.369826826452252
-0.332367611122617,0.360405675303675
-0.370932161020221,0.350302248636609
-0.413165332379259,0.37743419463111
-0.420286804670126,0.322019280530223
-0.474270510442147,0.317287151171931
-0.509473919854137,0.345162190676868
-0.571703161451707,0.313144063789039
-0.560685277550975,0.282495130404417
-0.630536091053765,0.259964189549666
-0.610016667113301,0.259371673896001
-0.608843415845818,0.277782821866748
-0.625121849429416,0.24130669178777
-0.67328817834758,0.225812814454197
-0.723972584791464,0.236706543245303
-0.744604578512102,0.178944509381561
-0.718383790693077,0.181104848872278
-0.757470011170707,0.178610703806969
-0.740470275292504,0.161295649743383
-0.687287235618557,0.0466719378863686
-0.71359859806454,0.081280699556316
-0.771810801325565,0.136061800094754
-0.916424821183631,0.24441834731402
-0.746900706518527,0.264248752585224
-0.713639542104276,0.266289217472676
-0.742887935059608,0.0159309683405171
-0.964266797414568,0.225555991357377
-0.747184483273363,-0.0187673896244737
-0.763638293679553,-0.0122015011338914
-0.938761710652058,-0.0655789132846485
-0.883422588924019,0.122258111058248
-0.823302635536891,0.14625574792394
-0.881775724811407,0.105493878152912
-0.984530354916763,-0.0525039545479138
-0.741620295649986,-0.0229650042555261
-0.883954567481123,0.055389867903981
-0.888394651929129,0.0523328470160177
-1.06753127555855,0.096572624585769
-1.02598371589127,0.150486986700689
-1.0272099323632,-0.0753242573584003
-1.04266121657386,-0.0605168448337244
-0.903455553702781,0.0403331050526422
-0.816087305117505,-0.0887256633465555
-1.02606839702434,-0.0875658659606052
-0.93671400247196,0.0144140746956127
-0.8373940151861,0.108087980733401
-1.07015881527607,0.0829872967708055
-0.800167667827399,0.118682868438509
-1.04960401280972,-0.106715230828889
-0.928473852012296,0.0240654529436057
-0.995434498545825,-0.015538603901465
-0.975642926688204,-0.0528109637991191
-0.914121395258999,-0.0214967832050973
-0.964896634506313,0.0239535595867641
-0.960213173771757,-0.0153927618855665
-0.961976584007588,-0.0178030708538355
-0.963656417840993,-0.0201263044569958
-0.965257293465259,-0.0223660552598285
-0.966783542300782,-0.024525759680706
-0.968239228433706,-0.0266087042040149
-0.969628166654465,-0.0286180314797868
-0.970953939200153,-0.0305567462889581
-0.972219911297019,-0.0324277213574233
-0.973429245592349,-0.0342337030060723
-0.974584915558319,-0.035977316627412
-0.975689717944268,-0.0376610719822406
-0.976746284348093,-0.0392873683122532
-0.977757091972159,-0.0408584992664709
-0.978724473624137,-0.0423766576410552
-0.979650627018656,-0.0438439399334476
-0.980537623431369,-0.0452623507129033
-0.981387415753135,-0.0466338068103983
-0.98220184598839,-0.0479601413316205
-0.982982652238413,-0.0492431074973286
-0.983731475207122,-0.0504843823158043
-0.984449864264144,-0.0516855700924536
-0.985139283097295,-0.0528482057818469
-0.985801114984141,-0.053973758187645
-0.986436667710098,-0.0550636330159471
-0.987047178158406,-0.0561191757876296
-0.987633816595468,-0.0571416746152372
-0.988197690673199,-0.0581323628499331
-0.988739849168479,-0.059092421603943
-0.989261285478252,-0.0600229821538159
-0.989762940887446,-0.0609251282297101
-0.990245707625619,-0.0617998981957671
-0.990710431727036,-0.0626482871264928
-0.991157915707819,-0.0634712487839023
-0.991588921072793,-0.0642696975000274
-0.99200417066372,-0.0650445099692134
-0.992404350859781,-0.0657965269544658
-0.992790113640346,-0.0665265549119409
-0.993162078519366,-0.0672353675375027
-0.99352083436004,-0.0679237072391065
-0.993866941077775,-0.0685922865386056
-0.994200931238912,-0.0692417894064198
-0.994523311562119,-0.0698728725323464
-0.994834564328896,-0.0704861665356506
-0.995135148709161,-0.0710822771174185
-0.995425502007474,-0.0716617861580215
-0.99570604083506,-0.0722252527624035
-0.995977162212438,-0.07277321425577
-0.996239244607126,-0.0733061871321365
-0.996492648910585,-0.0738246679580698
-0.996737719358273,-0.0743291342338444
-0.996974784396414,-0.0748200452141231
-0.997204157498862,-0.0752978426901686
-0.997426137937165,-0.0757629517354893
-0.997641011506787,-0.0762157814167307
-0.997849051212178,-0.0766567254715297
-0.998050517913266,-0.0770861629549631
-0.998245660935718,-0.0775044588561399
-0.99843471864721,-0.0779119646864068
-0.998617919001759,-0.0783090190405637
-0.998795480054057,-0.0786959481324122
-0.998967610445616,-0.0790730663058953
-0.99913450986441,-0.0794406765230212
-0.999296369479601,-0.0797990708297034
-0.999453372352811,-0.0801485308005914
-0.999605693827354,-0.0804893279639124
-0.999753501896685,-0.0808217242072911
-0.999896957553314,-0.0811459721654671
-1.0000362151193,-0.0814623155907814
-1.00017142255939,-0.0817709897072595
-1.00030272177782,-0.0820722215490773
-1.00043024889969,-0.0823662302841549
-1.00055413453783,-0.0826532275235872
-1.00067450404588,-0.082933417617583
-1.00079147775851,-0.0832069979385516
-1.00090517121942,-0.0834741591519434
-1.00101569539773,-0.0837350854754191
-1.00112315689356,-0.0839899549268964
-1.00122765813329,-0.0842389395619924
-1.00132929755509,-0.0844822057013565
-1.00142816978526,-0.0847199141483621
-1.0015243658059,-0.0849522203976037
-1.0016179731143,-0.0851792748346226
-1.00170907587464,-0.0854012229272652
-1.00179775506224,-0.085618205409055
-1.0018840886009,-0.0858303584549444
-1.00196815149364,-0.0860378138497923
-1.00205001594713,-0.0862406991498955
-1.0021297514903,-0.0864391378378889
-1.00220742508722,-0.0866332494713131
-1.00228310124479,-0.0868231498251304
-1.00235684211529,-0.0870089510284624
-1.00242870759414,-0.0871907616958047
-1.00249875541324,-0.087368687052963
-1.00256704122987,-0.0875428290579447
-1.00263361871157,-0.0877132865170276
-1.00269853961714,-0.0878801551962163
-1.00276185387392,-0.0880435279282883
-1.00282360965164,-0.0882034947156221
-1.00288385343285,-0.0883601428289882
-1.00294263008027,-0.0885135569024803
-1.00299998290109,-0.0886638190247495
-1.00305595370845,-0.0888110088267019
-1.00311058288015,-0.08895520356581
-1.00316390941485,-0.0890964782071822
-1.00321597098574,-0.0892349055015264
-1.00326680399191,-0.089370556060141
-1.00331644360748,-0.0895034984270567
-1.00336492382863,-0.0896337991484482
-1.00341227751857,-0.089761522839431
-1.00345853645064,-0.0898867322483512
-1.0035037313495,-0.0900094883186724
-1.00354789193065,-0.0901298502485578
-1.00359104693827,-0.0902478755482441
-1.0036332241814,-0.0903636200952964
-1.00367445056873,-0.0904771381878301
-1.00371475214181,-0.0905884825957833
-1.00375415410699,-0.0906977046103193
-1.00379268086601,-0.0908048540914319
