0.877364753107677,-0.137408145637203
0.997298603016858,-0.0162359058833742
0.968090363268287,-0.207460009307103
0.977485137553343,-0.183692028107811
0.969789574929942,0.0427309791971436
0.954975875718149,-0.165046328959554
0.828772508562003,-0.0385288152450391
0.697899125738147,-0.12387443434199
0.666236564683399,-0.121618258590105
0.862216628265645,-0.0878252259590138
0.841695066657744,-0.0718845987962558
0.796763564042679,0.143514529534943
0.770207677988952,-0.0513977902180908
0.517260268579907,0.168481398169333
0.602316810199523,0.075172412987174
0.467824755436392,0.189601774863768
0.534796353168043,0.0941611357296958
0.383353670023337,0.194072920608928
0.583730023950233,0.209722079481967
0.335430457761604,0.214311213962932
0.508094856646022,0.0014861283530721
0.383479851211693,0.125238423377268
0.474456923685931,0.030940460006982
0.21939062859118,0.0290779582823393
0.418955889091093,0.0229032107368563
0.304120668240199,0.140678475449997
0.292243673100643,0.14457997248173
0.283838885593521,0.148868734075486
0.278965413122143,0.153729918849887
0.277632654255243,0.159342536194252
0.279800446149344,0.165875722985092
0.285379917026208,0.173485153567087
0.294235028349865,0.182309647664727
0.30618478115604,0.192468037892828
0.321006051209767,0.204056354488222
0.338437008453061,0.217145379854766
0.358181067692853,0.231778619579015
0.379911309798366,0.247970729829227
0.403275305941715,0.265706433604067
0.427900271726218,0.284939950269215
0.453398473487486,0.305594954339981
0.479372805689282,0.327565070673316
0.505422456216874,0.350714904266415
0.531148575523623,0.374881593867582
0.556159866020274,0.399876869735429
0.580078009799605,0.425489587280311
0.602542855730896,0.451488700129077
0.623217291088907,0.477626628506307
0.641791728132681,0.503642971849584
0.657988142334783,0.529268508389848
0.671563606180509,0.554229419135139
0.68231327049362,0.578251669387509
0.690072753972548,0.601065477673633
0.696175956680256,0.642036755072265
0.694405940778906,0.659715920865256
0.689418566717242,0.675238425237184
0.681265368705815,0.68842076719008
0.670039264308829,0.699108299985098
0.655872511916242,0.707178316630348
0.638934110702335,0.712542682738642
0.619426689000568,0.715149968614111
0.597582934506142,0.714987039946273
0.57366162631621,0.712080074714622
0.547943334434362,0.706494982708918
0.52072585691812,0.698337213313195
0.492319468269853,0.687750946740598
0.46304205491527,0.674917673591735
0.433214214650366,0.66005417728847
0.403154396757871,0.643409943454811
0.373174158107288,0.625264029525313
0.343573607987178,0.605921436612147
0.314637110721583,0.5857090338143
0.28662931035925,0.564971092574592
0.259791535976215,0.544064495261904
0.234338639496057,0.523353687769389
0.188298904578067,0.483983565398046
0.149610390856953,0.449726905035711
0.133219459731177,0.435356858679014
0.118833373868079,0.423232517003683
0.106436652595969,0.413624666783333
0.0959811540415655,0.406771401677377
0.087387765909287,0.402874273317165
0.0805485782250227,0.40209493824189
0.075329495724303,0.404552355077156
0.0715732407489038,0.410320578365131
0.0691026915477378,0.419427186718002
0.0677244958499733,0.431852373608037
0.067232895567831,0.447528719270138
0.0674136955538389,0.466341652026241
0.068048307525281,0.488130597000913
0.0698068823851656,0.539775802853841
0.0705077641363138,0.569100541027374
0.0708238103266854,0.600345016026996
0.0705729466375429,0.63315849730575
0.0695907492525668,0.667164191436682
0.0677331719815234,0.701964313486467
0.0648788662534576,0.737145487993226
0.0609310572229892,0.772284401918909
0.0558189470206435,0.806953627914909
0.0494986244177268,0.840727533431365
0.0419534687308209,0.873188189661426
0.0331940445184098,0.903931194067558
0.0122064297893567,0.958747919612356
-0.0128712104013214,1.00242075892784
-0.0266614184888891,1.01936201971519
-0.0410985603015705,1.03273760857578
-0.0560242755659219,1.04237653399693
-0.0866596408002381,1.05
-0.102014852015415,1.04788664586169
-0.117157070734948,1.04184220591598
-0.159605133531073,1.00113823855002
-0.172247068298071,0.980623343529019
-0.183915560245089,0.957033725352489
-0.194507378968496,0.930667958532776
-0.20394179611007,0.901858520336567
-0.212162507790563,0.870967101917941
-0.219139112657762,0.83837951897976
-0.229373442814442,0.769747010229734
-0.232706435851663,0.734544458824596
-0.234945353954593,0.699318767254485
-0.236259259230455,0.597660972105941
-0.235397121564826,0.566426794962274
-0.234183763293567,0.537118788106111
-0.232821382334419,0.510053463898902
-0.231522721492265,0.485512211687395
-0.230507345245964,0.463737688350659
-0.230215240552836,0.42924824652449
-0.233687031077975,0.407652466514751
-0.237341886154871,0.401819466797021
-0.242517216716487,0.399271198124065
-0.258029177291971,0.403677192416095
-0.268602870540672,0.410346652942707
-0.295761455030683,0.431607372853646
-0.312401064089314,0.445688717457039
-0.331060884444259,0.461681549739437
-0.351682458452732,0.479263885810969
-0.374172469347781,0.498095532422879
-0.398403331979059,0.517823238811121
-0.424214355644001,0.538085976621927
-0.451413467951687,0.558520267280118
-0.479779479448599,0.578765476089979
-0.50906485978102,0.598468993533565
-0.538998987618037,0.617291226627828
-0.569291828551649,0.63491032677663
-0.599637987857691,0.651026585244767
-0.687805430893839,0.687774107176688
-0.715161344386744,0.695454880629259
-0.740973332013867,0.700589574852806
-0.764941798005924,0.703077961953598
-0.806243930306239,0.699911177714919
-0.82308597691043,0.694251555323863
-0.837109504555396,0.685935142972472
-0.860783896741779,0.646122863340126
-0.862244618134072,0.628415459452453
-0.860445724212947,0.608816953852598
-0.855426187855765,0.587557122928471
-0.847269114471805,0.564882432496527
-0.822091498452149,0.516331947711786
-0.805449635552388,0.490993432459151
-0.765295125699111,0.439533181954988
-0.692572694335761,0.364185720467046
-0.666428082278912,0.340472404350121
-0.562810627071384,0.257262408736594
-0.479476324947727,0.197059779070581
-0.464454760569385,0.185732302248803
-0.443321262473354,0.167115978040992
-0.437609634504584,0.159605236733084
-0.436562425707863,0.147475884236624
-0.441350182229703,0.142530255982527
-0.449678719982596,0.138095237612037
-0.476659619695003,0.130019142052035
-0.495041104730673,0.126009137637571
-0.51642496981206,0.121779342176248
-0.56716664224871,0.112001686452051
-0.595912108873369,0.106159627507985
-0.626443546545423,0.0995152000026268
-0.658378502917532,0.0919689394894223
-0.691313043819461,0.0834443890256894
-0.758491270557454,0.063278339301687
-0.85605387207822,0.0252345387479266
-0.914044774637552,-0.0047253888865402
-0.939755743216282,-0.0207858387783088
-0.982924923442593,-0.0543638643285835
-1.02916605693502,-0.122513805757711
-1.03140755041024,-0.13866303945495
-1.02978137664495,-0.154077459199518
-1.02430415276649,-0.168577417674003
-0.985664017255817,-0.204990435119068
-0.91750448257188,-0.228208027430206
-0.793987207101198,-0.236145407023615
-0.759682584594749,-0.234191936693789
-0.555494385769238,-0.199271399907009
-0.496931962017656,-0.18377603765912
-0.426208759617032,-0.163862964235338
-0.392649039514256,-0.155903560409937
-0.36432212872552,-0.15674804844535
-0.359804600573926,-0.168053347098939
-0.361529921939877,-0.177330048842132
-0.365679297069397,-0.189122732110505
-0.372038091991306,-0.203459928883101
-0.390389247304507,-0.239687162707892
-0.414381683528103,-0.285454868322066
-0.455589116207974,-0.369257386001855
-0.469458704662792,-0.400321617219181
-0.482884292448567,-0.432481416357302
-0.507266541719373,-0.498788953808416
-0.533948838016914,-0.597934192272275
-0.542869720560985,-0.659548425278162
-0.543532906692371,-0.714235005948576
-0.535551408702182,-0.759403146278791
-0.528347443895195,-0.777718176503901
-0.519082012113644,-0.792878573376297
-0.50785358111414,-0.80469992606103
-0.494788199715152,-0.813039265727669
-0.463771430592816,-0.818921686160754
-0.42747610861105,-0.810290646502009
-0.34584451280353,-0.752318191314275
-0.304034560479474,-0.706189851425121
-0.263748336670991,-0.651818086425156
-0.226333554386356,-0.592190973444368
-0.16374105208797,-0.470404725672941
-0.150965809717193,-0.441889636937951
-0.139342740144374,-0.414957578756653
-0.110816212408205,-0.347248354375496
-0.103115351615015,-0.330082811256664
-0.096114981663266,-0.316047701542318
-0.0896684232566859,-0.305336652231247
-0.0777931943356725,-0.294427360564492
-0.0720247302784541,-0.294376941598351
-0.0661377231974642,-0.297944153250121
-0.0533278280331238,-0.315673722606371
-0.0292013662750454,-0.366519146444661
-0.00837777245271325,-0.413812886130286
0.0314492601427482,-0.498280169454525
0.0470887071295633,-0.528492081723961
0.0816977136392081,-0.589498641842917
0.203989367013161,-0.747512396306297
0.323062467984912,-0.812044404565897
0.366889293521628,-0.797054280540623
0.393791121553552,-0.751280275250742
0.400981880794596,-0.705979522579349
0.399362898467258,-0.651312889086052
0.371974881063842,-0.524466723511294
0.32143192699601,-0.393408877955552
0.264355499943744,-0.279522400557175
0.229204295795005,-0.215003452194123
0.212053854270156,-0.151710263537076
0.255754374314674,-0.153379802749024
0.50369941499393,-0.210484782245287
0.643041119856603,-0.223585134160258
0.676366874753325,-0.223452326820484
0.791884440128573,-0.206916737205325
0.834144070490698,-0.189084495262317
0.863115413229685,-0.165579037529036
