0.169307107309158,-0.155780861076773
0.114376004823733,-0.181163465928223
0.15638695951441,-0.167136682422195
0.15299037245006,-0.159901549123898
0.157135545309324,-0.166558110121095
0.161899608343834,-0.173043958611021
0.137041104969801,-0.199670618568464
0.160649219528207,-0.158506938997192
0.217012205395094,-0.15463598088696
0.180525310009235,-0.233244866940667
0.202891152844343,-0.168320892650924
0.192830736970215,-0.243980784647702
0.211567242892685,-0.20935731400975
0.253273014969647,-0.240964095654386
0.204023846453087,-0.169786900629786
0.240270900338952,-0.2173942329478
0.250567156051,-0.218754537920978
0.261150982894249,-0.219396536337934
0.230024683886342,-0.175860397262015
0.282976764467191,-0.218407010910292
0.294109963572072,-0.216725302719873
0.298006581961197,-0.175525305913984
0.338427817842929,-0.209238327654954
0.32769287137989,-0.206714613747635
0.338744483215974,-0.201686784935079
0.335412161002996,-0.233765030320915
0.329268799859625,-0.231584147790547
0.393607218895171,-0.193863444039575
0.415767309957429,-0.150982905872381
0.401414412397056,-0.199545348578269
0.441529504104982,-0.120497843313813
0.40758007587724,-0.143127070707419
0.415434936444689,-0.131629936200094
0.406464776066502,-0.157285010670869
0.455668581796134,-0.147148570236452
0.469093412007003,-0.055611567241585
0.394748127050894,-0.0789538873383689
0.443449543755687,-0.0645856572241375
0.464581393446726,-0.0315841100315798
0.448461546948396,-0.0342420234183112
0.425864970216936,-0.0179889123356842
0.449432976772819,-0.00259935832001067
0.473447272328396,-0.0190124663725308
0.414229721733705,0.0234477026891063
0.451524135280576,-0.0025442599795378
0.438353733535399,0.0623474462994355
0.432770470227129,0.0784923175142052
0.426048203933472,0.094443712874568
0.421938966546376,0.13013961715342
0.409203249882677,0.125445238196245
0.399102949505454,0.140334373350044
0.387908508313412,0.154708832443526
0.375645362159153,0.16848932614878
0.319438399106943,0.158647626008402
0.305394331287099,0.173730544479603
0.361941866876144,0.22760743711177
0.322961874473353,0.186110869293199
0.316389231420869,0.185896507654292
0.281754433107432,0.234461273008674
0.263189216367813,0.242015519526519
0.243955140490895,0.248418206072851
0.184631951471193,0.242096774128937
0.245399283328521,0.245489057950171
0.200020376746853,0.285393204327918
0.16551887947473,0.309791338750859
0.138952587668374,0.235764888777857
0.0868906724884297,0.299896856791325
0.0619424270041376,0.294084953111998
0.075476752478247,0.252696943713503
0.0253213490230262,0.257417310481191
0.0399308857701191,0.199693309809866
-0.0249222923098303,0.216151280861024
0.0279931988329727,0.180462441878911
-0.0254655952960527,0.218834096049317
-0.0300117250716513,0.153864257491106
-0.0986480204890138,0.135115359888766
-0.0744003642797284,0.190597069669781
-0.112579068936449,0.141347556556514
-0.0693629644496364,0.159013271888649
-0.134414246384759,0.111575683408926
-0.148414833940524,0.0910376615607291
-0.157187626812179,0.118030140201611
-0.177411573634404,0.0523025736088068
-0.200851422447992,-0.00907985486940467
-0.227180093167285,-0.017493463535883
-0.19843862760277,-0.0259146585529741
-0.175531078511869,-0.031801732352961
-0.194864879159777,-0.119041317646175
-0.210124438642757,-0.104337308994158
-0.161055775392813,-0.124046429560896
-0.20043876702546,-0.110562736267369
-0.247027073840721,-0.20407352643651
-0.201755072002505,-0.212820663085613
-0.195227042403162,-0.239891883443253
-0.176737275465406,-0.225950772771567
-0.224948693874993,-0.249052291768844
-0.192069488866725,-0.311039919480765
-0.15133357050248,-0.3444538976855
-0.0992987900462711,-0.342980048591413
-0.101863937246821,-0.419338644453566
-0.0852650894144239,-0.371403177264983
-0.0716718560611533,-0.390385017058346
-0.0493476227974235,-0.472900074293414
-0.0436629635047145,-0.469235263588052
-0.0033190655953693,-0.487057353078583
0.0151350342020367,-0.511595417063803
0.0421686018189139,-0.52644612009977
0.0591537484263458,-0.562076743884648
0.0806653705960986,-0.539849873595929
0.149203161359178,-0.572295752675986
0.173395623573796,-0.535777785825688
0.230893195860739,-0.566011987066575
0.259710811861337,-0.562795422763172
0.223358618262729,-0.56379688952333
0.267814145934146,-0.576279524578347
0.276903217226447,-0.538531875370685
0.313938604142262,-0.531068093458461
0.394422619098514,-0.604244771486886
0.459114377268875,-0.584228725731574
0.415592787761873,-0.533187232546613
0.483242831676913,-0.53357649827288
0.528540057108777,-0.56821334928451
0.495673755004966,-0.461278113373536
0.55806110628399,-0.511620497829653
0.601062765273089,-0.461220395812421
0.655510100692577,-0.483608146923479
0.653175692547623,-0.413504134366892
0.723434214259683,-0.436489542477275
0.683777100471046,-0.349045834001495
0.749027716626965,-0.298154592685842
0.783662006157603,-0.34161589231136
0.779207729016522,-0.232780630282291
0.762707893236983,-0.210879892853762
0.804739966950937,-0.224318452945937
0.756530696125963,-0.163313138962668
0.791286860363645,-0.0869343560293356
0.808453625882506,-0.0873410435804863
0.835566834705967,-0.0823668780536211
0.79486624916812,0.0014802572376172
0.812344134537052,0.0271497896761555
0.808753525128897,0.0656826038956526
0.802686691485923,0.10413805571695
0.751525106432587,0.139351724294035
0.765134793266877,0.181968455268143
0.721865633537427,0.193955271462811
0.757890699437071,0.234975220012921
0.73542345977077,0.289646939095952
0.737173173209254,0.289792953310696
0.6991000908306,0.405619817789455
0.666681735575466,0.389817027524642
0.664339205509127,0.44996418201316
0.587743739391595,0.445734374051065
0.57273963181799,0.464120677998203
0.545586348928489,0.501931225727557
0.510705494699716,0.525217188107068
0.44416300212465,0.576054109113245
0.445038008980593,0.547514092802779
0.440524210358166,0.581305611344005
0.35435478923697,0.563092242198664
0.276952700756601,0.604323556154403
0.233625279599989,0.650012762123267
0.22944921158121,0.622627017916128
0.187249582144572,0.649028224704424
0.141785028114698,0.626942741691175
0.0975769808190437,0.624913406138314
0.0174392569898858,0.658834585982912
-0.0291464597569125,0.609789072810372
-0.0434870362958507,0.567277027571971
-0.077567257439745,0.588527906096773
-0.156104361763037,0.616809342909737
-0.14372734986303,0.562970368210815
-0.202062470545994,0.531948295590378
-0.238508070877541,0.51660918002796
-0.292289384114918,0.524401427433615
-0.315315842403581,0.451650572389369
-0.303885843160473,0.447625641607583
-0.410984399523502,0.428473236019216
-0.439156246011143,0.361296497463968
-0.441056754905089,0.311719492657388
-0.465107079649657,0.259604166627053
-0.476370354498234,0.212746877727095
-0.484487778906813,0.226639726769856
-0.483037270340053,0.159938251508522
-0.544726023793623,0.095269296829562
-0.518480924954803,0.011782637252349
-0.59235265022856,0.0226836801953991
-0.543319427273176,-0.00802237643819254
-0.62423584111616,-0.0880895589401008
-0.57656954844376,-0.148424946192164
-0.591174208226211,-0.187258435759371
-0.613791912859734,-0.269426300443841
-0.551550689633443,-0.34032109296956
-0.575304854433585,-0.376708865833286
-0.484672884717837,-0.438599554620333
-0.511068028796013,-0.443215606164104
-0.489186277690708,-0.489765860384084
-0.434092024916683,-0.568940446163612
-0.419907904120636,-0.577671505718683
-0.405772156618448,-0.620991416216025
-0.372333851742657,-0.661288519248912
