0.773224492726129,0.749957955318658
0.770400914041609,0.7394449184676
0.767554511794235,0.729043915730882
0.764685821830096,0.718753851406209
0.761795375848791,0.708573649686849
0.758883701497874,0.698502254111282
0.755951322463983,0.688538627028937
0.752998758560768,0.678681749081463
0.750026525813719,0.668930618699021
0.747035136542005,0.659284251611099
0.744025099437424,0.649741680371363
0.740996919640559,0.640301953896092
0.737951098814226,0.630964137015741
0.734888135214319,0.621727310039212
0.731808523758127,0.612590568330416
0.728712756090205,0.603553021896734
0.725601320645891,0.594613794988992
0.722474702712529,0.585772025712581
0.719333384488485,0.57702686564937
0.71617784514003,0.568377479490072
0.713008560856141,0.55982304467673
0.709826004901309,0.55136275105501
0.706630647666403,0.54299580053599
0.703422956717661,0.534721406767159
0.700203396843857,0.526538794812334
0.696972430101715,0.518447200840222
0.693730515859619,0.510445871821369
0.690478110839668,0.502534065233237
0.687215669158138,0.494711048773156
0.683943642364395,0.486976100078926
0.680662479478309,0.479328506456839
0.677372627026212,0.47176756461688
0.674074529075455,0.464292580414927
0.670768627267597,0.456902868601711
0.667455360850275,0.449597752578357
0.664135166707793,0.44237656415831
0.660808479390469,0.435238643335453
0.657475731142782,0.428183338058244
0.654137351930353,0.421210004009696
0.650793769465794,0.41431800439304
0.647445409233465,0.407506709722886
0.644092694513168,0.400775497621758
0.640736046402809,0.394123752621825
0.637375883840072,0.387550865971689
0.63401262362311,0.381056235448096
0.630646680430313,0.374639265172422
0.627278466839162,0.368299365431809
0.623908393344195,0.362035952504812
0.620536868374128,0.355848448491451
0.61716429830814,0.349736281147526
0.613791087491359,0.343698883723095
0.610417638249566,0.337735694804994
0.607044350903142,0.33184615816329
0.60367162378029,0.326029722601565
0.600299853229534,0.320285841810926
0.596929433631544,0.314613974227644
0.59356075741028,0.309013582894316
0.590194215043497,0.303484135324474
0.58683019507262,0.298025103370537
0.583469084112006,0.292635963095016
0.580111266857628,0.287316194644908
0.576757126095172,0.282065282129167
0.573407042707591,0.276882713499197
0.570061395682118,0.271767980432273
0.566720562116755,0.266720578217829
0.563384917226267,0.261740005646524
0.560054834347675,0.256825764902032
0.556730684945284,0.251977361455472
0.553412838615252,0.247194303962425
0.550101663089707,0.242476104162459
0.546797524240443,0.23782227678112
0.543500786082193,0.233232339434298
0.540211810775501,0.228705812534943
0.536930958629202,0.224242219202043
0.533658588102523,0.219841085171832
0.530395055806824,0.215501938711154
0.527140716506975,0.211224310532948
0.523895923122399,0.207007733713792
0.520661026727779,0.202851743613453
0.517436376553449,0.198755877796412
0.514222319985469,0.194719675955292
0.511019202565406,0.19074267983617
0.507827367989825,0.186824433165704
0.504647158109502,0.182964481580052
0.50147891292836,0.179162372555522
0.498322970602157,0.175417655340935
0.495179667436915,0.171729880891637
0.492049337887106,0.168098601805141
0.488932314553609,0.164523372258344
0.485828928181444,0.1610037479463
0.482739507657279,0.157539286022504
0.479664380006742,0.154129545040643
0.476603870391524,0.150774084897805
0.47355830210629,0.147472466779088
0.470527996575406,0.144224253103586
0.467513273349491,0.141029007471733
0.464514450101791,0.137886294613953
0.461531842624395,0.134795680340598
0.458565764824296,0.131756731493149
0.455616528719291,0.128769015896647
0.452684444433751,0.125832102313315
0.449769820194242,0.122945560397372
0.446872962325025,0.120108960650987
0.44399417524342,0.117321874381357
0.441133761455062,0.114583873658885
0.438292021549035,0.111894531276439
0.435469254192904,0.109253420709652
0.432665756127644,0.106660116078262
0.429881822162466,0.104114192108447
0.427117745169565,0.101615224096153
0.424373816078769,0.0991627878713791
0.421650323872112,0.096756459763406
0.418947555578336,0.0943958165669472
0.416265796267314,0.0920804355091997
0.413605329044412,0.0898098942177769
0.410966435044786,0.0875837706895057
0.408349393427625,0.0854016432600661
0.405754481370343,0.0832630905744588
0.403181974062714,0.0811676915582793
0.400632144700979,0.0791150253897843
0.398105264481895,0.0771046714727323
0.395601602596763,0.0751362094099802
0.393121426225422,0.073209218977823
0.390665000530205,0.0713232801010577
0.38823258864989,0.069477972828757
0.385824451693615,0.0676728773107385
0.383440848734784,0.0659075737747126
0.381082036804964,0.0641816425040963
0.378748270887767,0.062494663816478
0.37643980391273,0.0608462180427183
0.374156886749194,0.0592358855066753
0.371899768200186,0.0576632465055392
0.369668694996301,0.0561278812907636
0.3674639117896,0.054629370049581
0.365285661147511,0.0531672928870891
0.363134183546754,0.0517412298088969
0.361009717367277,0.0503507607043162
0.358912498886217,0.04899546533009
0.356842762271883,0.0476749232946419
0.354800739577765,0.0463887140428391
0.352786660736579,0.0451364168412549
0.350800753554334,0.0439176107639214
0.348843243704446,0.0427318746785603
0.34691435472188,0.0415787872332823
0.345014307997343,0.040457926843744
0.34314332277151,0.0393688716807517
0.341301616129305,0.0383111996583033
0.339489402994224,0.0372844884220568
0.337706896122714,0.0362883153382171
0.335954306098606,0.0353222574828303
0.334231841327597,0.0343858916314768
0.332539708031799,0.033478794249354
0.330878110244343,0.0326005414817386
0.329247249804053,0.0317507091448211
0.327647326350175,0.0309288727169012
0.326078537317182,0.0301346073299386
0.324541077929648,0.0293674877614475
0.323035141197189,0.0286270884267284
0.321560917909486,0.0279129833714279
0.320118596631376,0.0272247462644187
0.318708363698026,0.0265619503909916
0.317330403210189,0.0259241686463514
0.315984897029535,0.0253109735294084
0.314672024774077,0.0247219371368592
0.313391963813675,0.024156631157547
0.312144889265629,0.0236146268670955
0.310930973990368,0.0230954951228083
0.309750388587222,0.0225988063588259
0.308603301390299,0.022124130581534
0.307489878464445,0.0216710373652151
0.306410283601312,0.021239095847936
0.30536467831552,0.0208278747276653
0.304353221840918,0.0204369422586128
0.303376071126957,0.0200658662477836
0.302433380835155,0.0197142140517416
0.301525303335674,0.0193815525735742
0.300651988704009,0.0190674482600512
0.299813584717778,0.018771467098973
0.299010236853626,0.0184931746166994
0.298242088284244,0.0182321358758535
0.2975092798755,0.0179879154731944
0.296811950183684,0.0177600775376516
0.296150235452872,0.0175481857285146
0.295524269612411,0.0173518032337717
0.294934184274514,0.0171704927685922
0.294380108731993,0.0170038165739441
0.293862169956099,0.0168513364153424
0.293380492594494,0.0167126135817212
0.292935198969351,0.016587208884424
0.292526409075577,0.0164746826563048
0.292154240579163,0.0163745947509348
0.291818808815672,0.0162865045419089
0.291520226788847,0.0162099709222446
0.291258605169364,0.0161445523038684
0.291034052293709,0.0160898066171834
0.290846674163199,0.0160452913107113
0.290696574443128,0.0160105633508035
0.290583854462064,0.0159851792214161
0.290508613211278,0.0159686949239398
0.290470947344315,0.0159606659770831
0.290470951176705,0.0159606474167982
0.290508716685823,0.0159681937962475
0.290584333510884,0.0159828591858019
0.290697888953093,0.0160041971730669
0.290849467975936,0.0160317608629289
0.291039153205621,0.016065102877617
0.291267024931666,0.0161037753567731
0.291533161107645,0.0161473299575259
0.291837637352071,0.0161953178545606
0.29218052694945,0.0162472897401805
0.292561900851473,0.0163027958243525
0.292981827678373,0.0163613858347322
0.293440373720435,0.0164226090166607
0.293937602939666,0.0164860141331285
0.294473576971614,0.0165511494646996
0.295048355127366,0.01661756280939
0.295661994395685,0.0166848014824934
0.296314549445326,0.0167524123163497
0.297006072627506,0.0168199416600485
0.297736613978542,0.0168869353790614
0.298506221222655,0.0169529388547979
0.29931493977494,0.0170174969840775
0.300162812744502,0.0170801541785117
0.301049880937764,0.0171404543637895
0.301976182861945,0.0171979409788605
0.302941754728706,0.0172521569750083
0.303946630457974,0.0173026448148072
0.304990841681935,0.0173489464709576
0.306074417749202,0.0173906034249899
0.307197385729163,0.0174271566658341
0.308359770416503,0.0174581466882449
0.309561594335905,0.0174831134910775
0.310802877746931,0.0175015965754061
0.312083638649079,0.017513134942478
0.313403892787033,0.0175172670914975
0.314763653656083,0.0175135310172301
0.31616293250774,0.0175014642074219
0.317601738355526,0.0174806036400256
0.319080077980965,0.0174504857802258
0.320597955939743,0.0174106465772569
0.322155374568077,0.0173606214610044
0.323752333989257,0.017299945338383
0.325388832120395,0.0172281525894843
0.327064864679352,0.0171447770634836
0.328780425191872,0.0170493520743014
0.330535504998905,0.0169414103960075
0.332330093264124,0.0168204842579632
0.334164176981651,0.0166861053396904
0.33603774098397,0.0165378047654602
0.337950767950046,0.016375113098593
0.339903238413652,0.0161975603354596
0.341895130771887,0.0160046758991765
0.343926421293914,0.0157959886329849
0.345997084129888,0.0155710267933045
0.348107091320107,0.0153293180424533
0.350256412804363,0.0150703894410232
0.352445016431509,0.0147937674399032
0.354672867969233,0.0144989778719376
0.356939931114051,0.014185545943213
0.359246167501515,0.0138529962239608
0.361591536716634,0.0135008526390666
0.363975996304519,0.0131286384581754
0.366399501781246,0.0127358762853827
0.368862006644939,0.0123220880484991
0.371363462387084,0.011886794987879
0.373903818504059,0.011429517644802
0.376483022508899,0.0109497758493934
0.379101019943286,0.0104470887080758
0.381757754389775,0.00992097459053603
0.384453167484246,0.00937095111619854
0.387187198928599,0.00879653514019047
0.389959786503679,0.00819724273878749
0.392770866082442,0.00757258919432631
0.39562037164337,0.00692208897957157
0.398508235284113,0.0062452557415238
0.401434387235394,0.00554160228465356
0.404398755875149,0.00481064055354981
0.407401267742924,0.00405188161496605
0.410441847554523,0.00326483563925205
0.413520418216904,0.00244901188115427
0.416636900843347,0.00160391865997107
0.419791214768862,0.000729063339046702
0.422983277565881,-0.000176047695410998
0.426213005060193,-0.00111190905620701
0.429480311347166,-0.00207901637774395
0.432785108808225,-0.00307786633933367
0.436127308127609,-0.00410895668925282
0.43950681830941,-0.00517278626955926
0.442923546694875,-0.00626985504168835
0.44637739898001,-0.00740066411284582
0.449868279233451,-0.00856571576321914
0.453396089914639,-0.0097655134740235
0.456960731892274,-0.0110005619564041
0.460562104463073,-0.0122713671812141
0.464200105370824,-0.0135784364096902
0.467874630825741,-0.0149222782250451
0.471585575524126,-0.0163034025650006
0.475332832668341,-0.0177223207552814
0.479116293987094,-0.019179545544096
0.482935849756043,-0.0206755911376227
0.48679138881872,-0.0222109732365298
0.490682798607783,-0.0237862090735516
0.494609965166596,-0.0254018174521466
0.49857277317115,-0.027058318786262
0.502571105952313,-0.0287562351412338
0.506604845518436,-0.0304960902758462
0.5106738725783,-0.0322784096855811
0.514778066564418,-0.0341037206470836
0.518917305656702,-0.0359725522638758
0.523091466806487,-0.037885435513345
0.527300425760931,-0.0398429032950408
0.531544057087786,-0.04184549048031
0.535822234200556,-0.0438937339633036
0.540134829384036,-0.0459881727133881
0.544481713820252,-0.048129347828995
0.548862757614793,-0.0503178025929453
0.553277829823555,-0.0525540825292822
0.557726798479895,-0.0548387354616526
0.562209530622212,-0.0571723115732726
0.566725892321943,-0.0595553634685162
0.571275748712005,-0.0619884462361698
0.575858964015671,-0.0644721175143909
0.580475401575902,-0.0670069375574152
0.585124923885136,-0.0695934693040544
0.589807392615537,-0.0722322784480314
0.594522668649728,-0.0749239335101967
0.599270612111997,-0.0776690059126754
0.604051082400011,-0.0804680700549917
0.608863938217014,-0.0833217033922233
0.613709037604549,-0.0862304865152341
0.618586237975699,-0.0891950032330432
0.623495396148859,-0.0922158406573784
0.628436368382046,-0.0952935892894761
0.633409010407775,-0.0984288431091833
0.638413177468483,-0.101622199666419
0.643448724352545,-0.104874260175063
0.64851550543087,-0.108185629609324
0.653613374694096,-0.111556916802667
0.658742185790405,-0.114988734549354
0.663901792063962,-0.118481699708671
0.669092046593994,-0.122036433311917
0.674312802234522,-0.125653560672226
0.679563911654764,-0.129333711497289
0.684845227380228,-0.133077520005071
0.690156601834489,-0.136885625042586
0.6954978873817,-0.140758670207822
0.700868936369822,-0.144697303974906
0.706269601174607,-0.14870217982258
0.711699734244353,-0.1527739563661
0.71715918814544,-0.156913297492636
0.722647815608665,-0.161120872500274
0.728165469576411,-0.165397356240726
0.733712003250654,-0.169743429265841
0.739287270141834,-0.174159777978031
0.744891124118617,-0.178647094784715
0.750523419458555,-0.183206078256907
0.756184010899695,-0.187837433292043
0.761872753693125,-0.192541871281194
0.767589503656511,-0.197320110280766
0.773334117228637,-0.202172875188838
0.779106451524976,-0.207100897926245
0.784906364394324,-0.212104917622577
0.790733714476513,-0.2171856808072
0.796588361261248,-0.22234394160548
0.802470165148092,-0.227580461940333
0.808378987507626,-0.232896011739278
0.814314690743815,-0.238291369147152
0.82027713835763,-0.243767320744646
0.82626619501194,-0.249324661772845
0.832281726597722,-0.25496419636395
0.838323600301623,-0.260686737778368
0.844391684674916,-0.266493108648363
0.850485849703884,-0.272384141228463
0.856605966881676,-0.27836067765284
0.862751909281683,-0.28442357019987
0.86892355163247,-0.290573681564091
0.875120770394319,-0.296811885135797
0.881343443837423,-0.303139065288504
0.887591452121784,-0.309556117674525
0.893864677378872,-0.316063949528929
0.900163003795087,-0.322663479982122
0.90648631769709,-0.329355640381353
0.912834507639055,-0.336141374621406
0.919207464491902,-0.343021639484786
0.925605081534579,-0.349997404991702
0.932027254547444,-0.357069654760165
0.938473881907833,-0.364239386376527
0.944944864687864,-0.371507611776804
0.95144010675456,-0.37887535763915
0.95795951487237,-0.386343665787821
0.96450299880815,-0.393913593609048
0.971070471438698,-0.401586214479185
0.977661848860931,-0.409362618205568
0.984277050504768,-0.41724391148049
0.990915999248841,-0.425231218348766
0.997578621539102,-0.433325680689321
1.00426484751044,-0.441528458711304
1.0109746111114,-0.449840731465217
1.01770785023213,-0.458263697369584
1.02446450683563,-0.466798574753694
