0.916587261704715,-0.287970236773306
0.921725305466248,-0.274032794159288
0.925843340400302,-0.259723815782386
0.928931309779374,-0.245086339397414
0.930983691600281,-0.230164618606732
0.931999548857355,-0.215003825256821
0.931982553487118,-0.199649747310883
0.930940983784593,-0.184148484150808
0.928887695251726,-0.168546141275154
0.925840064999138,-0.152888526360764
0.92181990998251,-0.137220848644192
0.916853379513424,-0.121587423555396
0.910970822640392,-0.106031384500333
0.904206631148224,-0.0905944036412934
0.896599059071794,-0.075316423464467
0.888190019762828,-0.0602354008536423
0.879024861684614,-0.045387065307547
0.869152124238749,-0.0308046928467072
0.858623275049325,-0.0165188970543523
0.847492430242658,-0.00255743858550099
0.83581605936398,0.0110549456403973
0.823652676665914,0.0242966924742673
0.811062520586379,0.0371495408438622
0.798107223305367,0.0495986375152588
0.784849472330345,0.0616326196370919
0.771352666108447,0.0732436735437453
0.757680565699914,0.0844275694455136
0.743896944571147,0.0951836717878812
0.730065238577055,0.105514925217558
0.716248198201193,0.115427816248796
0.70250754510832,0.124932310878808
0.688903635037676,0.134041768554861
0.675495129026595,0.142772833046809
0.662338674903274,0.151145300926621
0.649488600924934,0.159181968499767
0.636996623363619,0.166908458171426
0.624911569756901,0.174353025362346
0.613279119445425,0.181546347214145
0.602141562913961,0.188521294440923
0.591537581338223,0.195312687792764
0.58150204761683,0.201957040696101
0.572065850037075,0.208492289725582
0.563255739585664,0.214957514641327
0.555094201771865,0.221392649793838
0.547599353681661,0.227838188755906
0.540784866828363,0.234334884086249
0.534659916208619,0.240923444163058
0.529229155813893,0.247644229046881
0.524492720687206,0.254536947341241
0.520446255454211,0.261640356015936
0.517080969097556,0.268991965142203
0.514383715584893,0.27662774946085
0.512337099804819,0.284581868664326
0.51091960811247,0.292886398221652
0.510105762638305,0.301571072511633
0.509866298370796,0.310663041955025
0.51016836188708,0.320186645750954
0.510975730476038,0.33016320172736
0.512249050276497,0.340610814710054
0.513946091940042,0.351544204700986
0.516022022223997,0.362974556034005
0.51842968982609,0.374909388546674
0.521119923688786,0.387352451670321
0.524041841928619,0.400303642198261
0.527143169484769,0.413758946345034
0.530370562531668,0.42771040655829
0.533669937663169,0.44214611339074
0.536986803830795,0.457050222583204
0.540266595006013,0.472402997352274
0.543455001536473,0.488180875718401
0.54649829817858,0.504356562553331
0.549343666813677,0.520899145870694
0.551939511892238,0.53777423673119
0.554235766699617,0.55494413198515
0.556184188597749,0.572367998931199
0.557738641469377,0.590002080831219
0.558855363674376,0.607799922089675
0.559493219921113,0.625712611780429
0.559613935558898,0.643689044087232
0.559182311909769,0.661676194115856
0.558166421378465,0.67961940743702
0.556537781207716,0.697462701630456
0.554271504881041,0.715149078022254
0.551346430316366,0.732620841740472
0.54774522413998,0.749819928158341
0.543454461480775,0.766688233750625
0.538464680878423,0.783167949356991
0.532770414055124,0.799201893826942
0.526370190457967,0.81473384601401
0.519266516636609,0.829708873092532
0.511465830678136,0.844073653188523
0.502978432076442,0.857776790346674
0.493818387566449,0.870769119898285
0.484003413602933,0.883004002349637
0.47355473630873,0.894437603976681
0.462496929856794,0.905029162389469
0.450857734384054,0.914741235418115
0.438667854661478,0.923539931770623
0.425960740863409,0.931395122021098
0.412772352889338,0.938280628603997
0.399140909792162,0.944174393615501
0.385106625958023,0.949058623355915
0.370711435763459,0.952919908686582
0.355998708505294,0.955749320420135
0.341012955457141,0.9575424791132
0.325799530953051,0.958299598784921
0.310404329433591,0.958025504242036
0.294873480412198,0.956729621850639
0.279253043329836,0.954425943755297
0.263588704263892,0.951132965706867
0.247925476442695,0.946873598820114
0.232307406490292,0.94167505574023
0.216777288287269,0.935568711852448
0.201376386282696,0.928589942320333
0.186144170030085,0.920777935885002
0.171118061646883,0.912175486498565
0.15633319781307,0.902828763999706
0.141822207830264,0.892787065166604
0.127615009159101,0.882102546601607
0.113738621740079,0.870829941012496
0.100217002282335,0.859026258556062
0.0870708995766688,0.846750475000537
0.0743177317543226,0.834063208543528
0.0619714862725117,0.821026387191064
0.0500426432622261,0.807702908660739
0.0385381227244126,0.794156294817339
0.0274612559081671,0.780450342682561
0.0168117810500106,0.766648774081177
0.00658586349763514,0.752814885994247
-0.00322385991432196,0.73901120368555
-0.0126282125239179,0.725299138650471
-0.0216413859776008,0.711738653407114
-0.0302808254330437,0.698387935107686
-0.038567092566936,0.685303079894419
-0.0465237072676616,0.67253778985881
-0.0541769690293958,0.660143084386208
-0.0615557591943871,0.648167027580117
-0.0686913253132259,0.63665447336275
-0.0756170490079923,0.625646829740721
-0.0823681988295797,0.615181843608187
-0.0889816696975361,0.605293407334831
-0.095495710597866,0.5960113882536
-0.101949642290811,0.587361482023951
-0.108383566846222,0.579365090701299
-0.114838070878318,0.57203922619334
-0.121353924394055,0.565396439629846
-0.127971777199751,0.559444777015342
-0.134731854828788,0.55418776137476
-0.141673655959092,0.549624401441687
-0.14883565328255,0.545749226778152
-0.15625499976968,0.542552349055074
-0.163967242241733,0.54001954906444
-0.172006044119304,0.538132388879
-0.180402919161563,0.536868348423684
-0.189186977943854,0.536200985576065
-0.198384688743996,0.536100118771781
-0.208019654419615,0.536532030955897
-0.218112406760863,0.537459693593465
-0.228680219695435,0.538843009332832
-0.239736942606623,0.540639071804324
-0.251292854900946,0.542802440935387
-0.26335454283041,0.545285432071829
-0.275924799436523,0.548038417113919
-0.289002548339666,0.551010135806336
-0.302582791949191,0.554148015262714
-0.31665658451758,0.557398495759124
-0.331211030307157,0.560707360796607
-0.346229306981058,0.564020069410957
-0.361690714172542,0.56728208869854
-0.377570747029121,0.570439224529996
-0.393841194371422,0.573437948439303
-0.410470260952237,0.576225718703571
-0.427422713149632,0.578751293669184
-0.444660047280411,0.580965035431923
-0.462140679577489,0.582819202042508
-0.479820156737698,0.584268226483845
-0.497651385816154,0.585268980751966
-0.515584882120297,0.585781023468496
-0.533569033641872,0.585766829557893
-0.551550380459247,0.585192000637133
-0.56947390744601,0.584025454888051
-0.587283348535661,0.582239595312639
-0.604921500716679,0.579810455408229
-0.622330545867947,0.576717821441994
-0.639452378491795,0.572945330651524
-0.656228937361156,0.568480544849585
-0.672602539068691,0.563314999065526
-0.688516211449566,0.557444225012237
-0.703914024845787,0.550867749325116
-0.718741419188821,0.543589066677133
-0.732945524898465,0.535615588030921
-0.746475475629572,0.526958564443742
-0.759282710943991,0.517632986993386
-0.771321267042754,0.507657463541457
-0.782548053762727,0.497054073194306
-0.792923116122272,0.485848199460032
-0.802409878791386,0.474068343231833
-0.810975371962832,0.461745916852525
-0.818590437211258,0.448915020631642
-0.82522991204656,0.435612203294416
-0.83087279199511,0.421876207940367
-0.835502369177062,0.407747705177775
-0.83910634648904,0.393269015178207
-0.841676926648189,0.378483820462243
-0.843210875504911,0.363436871283022
-0.843709559186761,0.348173685517973
-0.843178954793924,0.33274024501081
-0.84162963452647,0.317182690325324
-0.839076723284261,0.301547015879655
-0.835539829940896,0.28587876742449
-0.831042952652534,0.270222743811013
-0.825614358719739,0.254622704964692
-0.819286439674801,0.239121087939077
-0.81209554241725,0.22375873287021
-0.804081777365629,0.208574620587247
-0.795288804733134,0.193605623558772
-0.785763600167543,0.178886271767783
-0.775556201121265,0.164448535011697
-0.764719435434342,0.150321623017821
-0.753308633721409,0.136531804650019
-0.741381327251993,0.123102247359678
-0.728996933101744,0.110052877904178
-0.716216428429555,0.0974002652197468
-0.703102015801624,0.0851575261937534
-0.689716781537922,0.0733342549349444
-0.676124349098918,0.0619364759898588
-0.662388529560527,0.0509666218005734
-0.648572971242876,0.0404235345439959
-0.634740810563562,0.0303024923371106
-0.620954326178523,0.02059525963687
-0.607274598453548,0.011290161508781
-0.593761176276913,0.00237218128564172
-0.580471753178862,-0.00617691901172597
-0.567461854666905,-0.0143784562655577
-0.554784538617572,-0.0222566627786766
-0.542490110485733,-0.0298385027681942
-0.530625855002335,-0.0371534700136055
-0.519235785931056,-0.0442333679586343
-0.508360415344456,-0.0511120736791614
-0.498036543761435,-0.0578252872336915
-0.488297072360959,-0.0644102680074387
-0.479170838352769,-0.0709055597456175
-0.470682474445088,-0.0773507060454049
-0.462852293202925,-0.0837859581388191
-0.455696196939497,-0.0902519768500265
-0.4492256136283,-0.0967895306500439
-0.443447459165599,-0.103439191759176
-0.438364126153354,-0.110241032262642
-0.433973499212027,-0.117234322207614
-0.430268996672146,-0.124457231640266
-0.427239638334016,-0.131946538519518
-0.424870138827539,-0.139737344409986
-0.423141025949643,-0.147862799810574
-0.422028783206337,-0.156353840917287
-0.42150601564081,-0.165238939549671
-0.421541637889113,-0.174543867890185
-0.422101083271775,-0.184291479595271
-0.423146532603887,-0.194501508736448
-0.424637161288648,-0.205190387920118
-0.426529403150678,-0.216371086816478
-0.428777229366378,-0.228052972201875
-0.431332440759734,-0.240241690485719
-0.434144971653822,-0.252939073553725
-0.437163203401353,-0.266143068614399
-0.440334285662283,-0.279847692586479
-0.44360446345311,-0.294043011412154
-0.446919407961349,-0.308715144525518
-0.450224549099843,-0.323846294548601
-0.453465407769293,-0.339414802129599
-0.4565879258036,-0.355395225680523
-0.459538791591299,-0.371758445615329
-0.462265759397402,-0.38847179253577
-0.464717960453142,-0.40549919866154
-0.466846203936149,-0.422801371654845
-0.468603266030152,-0.440335989848108
-0.469944165330963,-0.458057917748092
-0.47082642295372,-0.475919440561087
-0.471210305794739,-0.493870516362765
-0.471059051508993,-0.511859044423646
-0.470339073880789,-0.529831148097532
-0.469020147389723,-0.547731470586345
-0.467075569905756,-0.565503481811283
-0.46448230258548,-0.583089794547421
-0.461221086185399,-0.600432487917474
-0.457276533156501,-0.617473436290651
-0.452637195036543,-0.634154641594784
-0.447295604811498,-0.650418567024386
-0.441248294074374,-0.666208470114193
-0.434495784967291,-0.681468733147132
-0.427042557050258,-0.696145188877598
-0.418896989396488,-0.710185439575237
-0.410071278368481,-0.723539167431173
-0.400581331680392,-0.736158434417342
-0.390446639499585,-0.747997969750198
-0.379690123482713,-0.75901544318207
-0.368337964778351,-0.769171722426455
-0.356419412158295,-0.778431113117083
-0.343966571562295,-0.786761579803994
-0.331014178455431,-0.794134946602666
-0.317599354502942,-0.800527076233551
-0.303761350163356,-0.805918026318646
-0.289541274886644,-0.810292181938008
-0.274981816679391,-0.813638363591695
-0.260126952863069,-0.815949909860545
-0.245021653904082,-0.817224734211594
-0.229711582235028,-0.817465355549864
-0.21424278801526,-0.81667890227674
-0.198661403795221,-0.81487708977528
-0.183013340053106,-0.812076171403495
-0.167343983564028,-0.808296863236999
-0.151697900541237,-0.803564242961422
-0.136118546456085,-0.797907623471638
-0.120647984398655,-0.791360401888234
-0.105326613784422,-0.783959884850777
-0.0901929111445417,-0.775747091091404
-0.0752831846586105,-0.766766532430215
-0.0606313439995998,-0.757065974464967
-0.0462686869617106,-0.746696178350959
-0.0322237042337012,-0.735710625181859
-0.0185219035634858,-0.724165224587988
-0.00518565443527226,-0.712118009264495
0.007765945751067,-0.69962881722738
0.0203171831464751,-0.686758963669923
0.0324558158562293,-0.673570904355285
0.0441731387192436,-0.660127892532475
0.0554640240529627,-0.646493631402237
0.0663269381072965,-0.632731924186382
0.0767639331262864,-0.618906323868639
0.0867806150720683,-0.605079784676964
0.0963860872212503,-0.591314317366598
0.10559286999802,-0.577670650339916
0.114416797560258,-0.564207898603508
0.122876891803618,-0.550983242515113
0.130995214593098,-0.538051618213401
0.13879669917106,-0.52546542155235
0.146308961824207,-0.513274227279787
0.153562095018744,-0.501524525106753
0.160588443332114,-0.490259474211596
0.167422363620528,-0.479518677610475
0.174099970963322,-0.46933797770511
0.180658872017312,-0.459749274189824
0.187137887496212,-0.450780365364009
0.193576765561363,-0.442454813753904
0.200015887969885,-0.434791836799947
0.206495970874778,-0.427806223213767
0.213057762207918,-0.421508275453162
0.219741737601204,-0.415903778605021
0.226587796813188,-0.410993995806119
0.233634962628136,-0.406775690171037
0.240921084181824,-0.403241173036071
0.248482546643309,-0.400378378168943
0.256353989144819,-0.398170961437336
0.264568032802795,-0.396598425275723
0.273155020612418,-0.395636267140622
0.282142770926027,-0.395256151000139
0.29155634614304,-0.395426100765406
0.301417838145939,-0.396110714440054
0.311746171914087,-0.397271397640108
0.322556928635252,-0.398866615021227
0.333862189514439,-0.400852158043932
0.345670401351689,-0.403181427410915
0.35798626482566,-0.405805728424227
0.370810646279055,-0.408674577434851
0.384140513655839,-0.411736017493037
0.397968897090088,-0.414936941255445
0.412284874492626,-0.418223419164805
0.427073582325733,-0.421541030889678
0.442316251598911,-0.424835197996261
0.457990268960841,-0.428051515820982
0.474069262605624,-0.431136082521995
0.490523212555595,-0.434035823309452
0.507318584730004,-0.43669880788855
0.524418488059053,-0.439074559195483
0.541782853757589,-0.441114351564428
0.559368635732684,-0.442771496533042
0.577130030965584,-0.444001614574297
0.595018718581642,-0.44476289113334
0.61298411620289,-0.445016315448729
0.630973652067391,-0.444725900747473
0.648933051298331,-0.443858884521796
0.666806634614424,-0.442385907722028
0.684537627692277,-0.44028117183345
0.702068479321475,-0.437522572944597
0.719341186434474,-0.434091812059584
0.736297624046733,-0.429974481056414
0.752879878107659,-0.425160123846267
0.769030579240634,-0.419642272444238
0.78469323534033,-0.413418457819126
0.79981256099805,-0.406490195547612
0.814334801740921,-0.398862946455476
0.828208051098155,-0.390546052584563
0.841382558547396,-0.381552648977822
0.853811026445826,-0.371899551925251
0.865448894114311,-0.361607124459684
0.876254607317539,-0.350699120032562
0.886189871468902,-0.339202505434859
0.895219886984879,-0.327147264156681
0.903313565319529,-0.314566181499695
0.910443724324669,-0.301494612868878
0.916587261704715,-0.287970236773307
