0.664575759180252,-0.648011077884883
0.674510112399588,-0.635905647713144
0.681803236999971,-0.621294154701172
0.686387276563157,-0.604338467987121
0.688230604311616,-0.585228412830786
0.687339003082724,-0.564178377678556
0.683756288896389,-0.541423601079036
0.677564361597799,-0.517216200385213
0.668882674875355,-0.491821007631084
0.657867126955891,-0.465511280364411
0.64470838232401,-0.438564356520804
0.629629643757776,-0.411257322622913
0.612883902677787,-0.383862763685246
0.476805040584334,-0.435872747722676
0.55555043565333,-0.303727661917997
0.535140246033437,-0.278480104371055
0.514647294135027,-0.254305466786153
0.494421850157104,-0.231372552424541
0.474814064687294,-0.20982327743754
0.456168916047587,-0.189771095498182
0.546105237611682,-0.0601143551035676
0.310560268298901,-0.253983078824987
0.409276554398247,-0.13928563618444
0.397654689309851,-0.125760079802654
0.490824034205375,-0.0210324817818432
0.381941297919616,-0.103499213438305
0.378242274348485,-0.0946138936974316
0.377514022778308,-0.0870850137582148
0.379854962232566,-0.0807808597323524
0.385320592183524,-0.0755519714444087
0.393922311970942,-0.071234321739292
0.405626868463225,-0.0676526964935904
0.420356443906176,-0.0646242151512879
0.437989386365785,-0.0619619297071887
0.458361575560828,-0.0594784392039799
0.598097113161919,0.0342545946977865
0.506467370788588,-0.054317269311702
0.533681182845884,-0.0512940257495589
0.562601437177424,-0.047764805879031
0.592892715846071,-0.0435904098940362
0.624197105575853,-0.0386498265764759
0.656139054051611,-0.0328423374479296
0.574136245539131,-0.11693306987704
0.720376178638047,-0.0183350396662798
0.751879098841828,-0.00954845842662717
0.879361540314108,0.0925182382096658
0.811692766373186,0.0111248804413016
0.839249840645125,0.0229526833856796
0.864767259611586,0.0356965200961385
0.887919557613926,0.0492707087119214
0.908410272521826,0.0635699679439756
1.03277037411929,0.190579274957691
0.951466281032919,0.109519752549101
0.959059691837512,0.125357960876264
0.963070600288316,0.141188248551315
0.963444770094867,0.156843688835294
0.960174331598101,0.172158291199321
0.953297795167503,0.186970402500357
0.942899407406557,0.201126046697458
0.816742138300021,0.119091997316417
0.892070189763484,0.238295835612084
0.869283478267813,0.248547859374999
0.844015773934916,0.257593887072905
0.81657791907301,0.265385431553287
0.902357376287204,0.379040615531307
0.756554684058035,0.277135267565638
0.724695956644301,0.281123148116098
0.69211012287657,0.283916251928798
0.659182360895373,0.285594222505159
0.626296979236934,0.286261457320126
0.593832098809304,0.286045723164511
0.562154459549534,0.285096328199449
0.531614427058582,0.28358187758198
0.502541271171923,0.281687646792048
0.475238784008558,0.279612613534435
0.427010171023815,0.275764744160368
0.406530753236782,0.274427857933977
0.388709933078412,0.273774564391381
0.271504651057869,0.172905408846682
0.361508547643324,0.275368763464865
0.352255421464679,0.278016656627252
0.439556870405045,0.384280979762095
0.342445814462036,0.287902262392414
0.341765469515369,0.295435622482185
0.343752879611542,0.304852728374495
0.348250323844268,0.316236825943262
0.355066301861177,0.329641098979994
0.363978803085992,0.345086996347496
0.37473898422882,0.36256304622874
0.387075195594209,0.382024183501916
0.400697291855483,0.403391608220458
0.415301159146855,0.426553184774352
0.446196016720206,0.477649751322448
0.362079246168478,0.397799163006054
0.49201752036611,0.563177824736654
0.505935212131195,0.59306680180643
0.518707335770598,0.62317512040755
0.530083342373356,0.653199580060995
0.539837480313492,0.682828944719965
0.553718004128443,0.739644421189521
0.557540497813719,0.76620898482968
0.559136638547997,0.791144713148273
0.558438147824186,0.81416921769764
0.555411292309603,0.835019567295555
0.550056632546495,0.853456478210558
0.542408236848419,0.869268207208602
0.520525755055439,0.892327629729842
0.506513231735423,0.899319196345087
0.471740367816854,0.895150384333317
0.440951728210965,0.897942913714212
0.412342579442174,0.887309318633652
0.390119942269868,0.875885982469012
0.381472990609546,0.865962107703932
0.240534386647166,0.750343337806838
0.236658704595268,0.746629105755576
0.274502710773302,0.783153266414402
0.357675912633402,0.878042647071513
0.219819508086794,0.707634735033792
0.213775439908262,0.723578885111981
0.170053387681185,0.658550444041144
0.119177246059313,0.609115614798069
0.129739577366058,0.581988316221056
0.106001861475938,0.566154974983459
0.0729228336236163,0.494802156557705
0.0611981474161632,0.504284349583358
0.175209247965502,0.62311209623219
-0.0690890862299246,0.364488201202712
0.0245595141761927,0.492689837786804
0.0125432583591765,0.532593437756435
-0.084429442889478,0.419216874840464
0.00328558365374129,0.509199573405032
0.00123757754922401,0.504371098854202
-0.00660036403654725,0.55164299773565
-0.016773630547861,0.583764222359962
-0.108047384168146,0.490024336950367
-0.0428973626846285,0.638042603104555
-0.0639931455358788,0.693839968706725
-0.0773420771935436,0.747214527750321
-0.0910891473178775,0.777096154080161
-0.154820902480904,0.889084557347953
-0.172484183615259,0.913318784475901
-0.208972391974608,0.954911938451293
-0.146084947577733,1.09900889084961
-0.281851342738798,1.00345873933554
-0.298982146980052,1.00733743456845
-0.315308047386814,1.00772521077209
-0.235462292857532,1.09001467017229
-0.357767693428684,0.988009942624229
-0.379206890215822,0.958304562163065
-0.387536853226412,0.938952284547661
-0.394181866835716,0.916896457808061
-0.399106330634724,0.892399766841432
-0.403793659467996,0.837268933768597
-0.305904633018412,0.906809026497686
-0.398691138525711,0.74418867258291
-0.394163183230593,0.711798309631993
-0.497093549322373,0.559573315599433
-0.381804787237105,0.647113381615283
-0.36639581694891,0.584838314434478
-0.358123540217375,0.555400981285939
-0.3498074159472,0.527478256121326
-0.341709033162725,0.50132203765225
-0.231738490236946,0.558227854067968
-0.321365295032362,0.435490377320347
-0.31676287537733,0.418261733819226
-0.218688943915708,0.510278757528587
-0.312264226859722,0.391387601241798
-0.47295507275499,0.276567774205537
-0.400216416014552,0.384883769923081
-0.530564507472047,0.278255114449169
-0.445797587571535,0.401106038834827
-0.499215641151242,0.419558131890583
-0.528318342739177,0.42894002431721
-0.558666262077639,0.438071178225561
-0.715445538067465,0.363428604327722
-0.65413486835436,0.461498723506489
-0.6863303734283,0.467250892165404
-0.71813345680656,0.471660607727979
-0.749190451317182,0.474577035168644
-0.779150408693727,0.475877119364324
-0.807670152294368,0.475466912384366
-0.834419271726979,0.47328239666093
-0.881376787343389,0.463485384900964
-0.91781397160303,0.446571773808445
-0.942009547443013,0.423074370245604
-0.94913930375797,0.409131652131163
-0.952837497424796,0.39391468209334
-0.949841966602216,0.36032032751531
-0.933274632420723,0.323724397754217
-0.904091859666761,0.285653996040014
-0.885251369021186,0.266540560671144
-0.863911340441233,0.247615782600594
-0.814930337125007,0.210986440508278
-0.787956892078631,0.193570500509602
-0.672188455503783,0.13235571368827
-0.643235961684746,0.119466676426689
-0.483467164190052,0.195481114812222
-0.679510025481699,-0.00868273447087366
-0.538904234508758,0.0775809817793964
-0.405480852846287,0.173703219985565
-0.482055513811738,0.0544124734727376
-0.45823960942581,0.0411739109165359
-0.451051708594158,0.0347734606267764
-0.447128918022034,0.0283061507056533
-0.455034918239365,0.0069058807944727
-0.464026350297794,-0.00139946878398227
-0.475983230400666,-0.0105189594592215
-0.414444787866294,0.0845475537963487
-0.527550415729008,-0.0438263493202707
-0.622306813929571,-0.104330445972214
-0.864629434966531,-0.316716750856025
-0.774054898849179,-0.226098029912286
-0.795698772992379,-0.24856100320441
-0.832856004190185,-0.293727445144781
-0.84782588419859,-0.316002772121056
-0.869443804077993,-0.358823973089477
-0.875653108162618,-0.431424429324678
-0.792532041450019,-0.486538892426894
-0.717881902348562,-0.484646332462728
-0.808188474862824,-0.582864997152757
-0.569598793800452,-0.442452571853174
-0.480129410774787,-0.401729922586255
-0.425142248027972,-0.372514838362683
-0.399770115620306,-0.358193825808282
-0.376071747858414,-0.34447818022566
-0.334288796968702,-0.320085758777596
-0.3164175323045,-0.309995579543301
-0.286992038561202,-0.295371704900312
-0.258457860267022,-0.29064513216085
-0.246655766026147,-0.310169142077804
-0.131878523248625,-0.220182018665827
-0.246093536337557,-0.337411402227274
-0.249533713127619,-0.375608708753264
-0.252204384508133,-0.398495069084131
-0.36723904146373,-0.544163776560344
-0.261309316408465,-0.479841588032742
-0.266169374626108,-0.672877600869385
-0.259324152688201,-0.735791865548558
-0.372781618150379,-0.863009493356973
-0.16620648174845,-0.912316163263386
-0.087192797856422,-0.895514366287042
-0.0557345069770125,-0.864704352233367
0.0122861762229333,-0.741229089860328
0.0232633060607882,-0.711056514162679
0.0908628904327062,-0.381859147971634
0.0984699972989414,-0.355694500727695
0.122426986448949,-0.340911718998469
0.141263644468289,-0.351862687711719
0.196762228898376,-0.404353203114086
0.214562726085424,-0.42238846428624
0.350022106011706,-0.546974882140605
0.482461283945964,-0.634391248536626
0.557337979713273,-0.663138588817625
0.664575759180252,-0.648011077884884
