0.521619008145467,-0.910940618338515
0.521497772876927,-0.91072949322351
0.521138575825355,-0.91009370669841
0.520548309151443,-0.909029881006564
0.519734030269511,-0.907534960512475
0.518702953242873,-0.905606215751842
0.517462440040066,-0.903241247183229
0.516019991661041,-0.900437988637408
0.514383239142481,-0.897194710460659
0.512559934451573,-0.89351002234866
0.510557941277633,-0.889382875867876
0.508385225731103,-0.884812566661643
0.506049846959512,-0.879798736338507
0.503559947690074,-0.87434137404061
0.500923744708681,-0.868440817690294
0.49814951928507,-0.862097754913371
0.495245607554031,-0.855313223637829
0.492220390862542,-0.848088612367065
0.489082286092739,-0.840425660127056
0.48583973597067,-0.832326456087177
0.482501199370769,-0.823793438854731
0.479075141625997,-0.814829395443528
0.475570024853588,-0.805437459917213
0.471994298306299,-0.795621111708317
0.468356388759063,-0.785384173614373
0.464664690940871,-0.774730809472698
0.460927558021679,-0.7636655215158
0.45715329216407,-0.752193147409654
0.453350135149331,-0.740318856977431
0.449526259087521,-0.728048148611522
0.445689757221026,-0.715386845377065
0.441848634830992,-0.70234109081043
0.438010800255909,-0.688917344416449
0.434184056031536,-0.67512237686847
0.430376090161177,-0.660963264915577
0.426594467525239,-0.646447386001646
0.422846621438814,-0.631582412601152
0.419139845365897,-0.616376306276946
0.41548128479869,-0.60083731146548
0.411877929310253,-0.584973948995214
0.408336604788613,-0.568795009344238
0.404863965860233,-0.552309545643347
0.401466488510546,-0.535526866431101
0.398150462909089,-0.518456528167613
0.394921986446519,-0.501108327514066
0.391786956990604,-0.483492293385174
0.388751066368057,-0.465618678782034
0.385819794078828,-0.447497952413028
0.38299840124927,-0.429140790110641
0.380291924830298,-0.410558066052265
0.377705172046476,-0.391760843793238
0.375242715101642,-0.372760367120576
0.372908886146473,-0.353568050736
0.370707772513101,-0.33419547077706
0.368643212221613,-0.314654355185288
0.366718789763016,-0.294956573930476
0.364937832162944,-0.275114129100327
0.363303405330094,-0.255139144864829
0.361818310693126,-0.235043857324851
0.360485082129419,-0.214840604254571
0.359305983188812,-0.194541814747428
0.358283004615148,-0.174159998775418
0.357417862168138,-0.153707736671605
0.356711994747749,-0.133197668545829
0.356166562823033,-0.112642483643618
0.355782447166975,-0.0920549096584037
0.355560247898654,-0.0714477020071658
0.355500283833687,-0.050833633079669
0.355602592143607,-0.0302254814714875
0.355866928324524,-0.00963602121102013
0.356292766475104,0.0109219890092831
0.35687929988357,0.0314358165872825
0.35762544192313,0.0518927657408945
0.35852982725493,0.0722801882030576
0.359590813337294,0.0925854938717756
0.360806482239724,0.112796161405148
0.362174642759815,0.13289974875135
0.363692832840925,0.152883903603582
0.365358322288151,0.172736373770086
0.367168115779842,0.192445017449422
0.369118956171593,0.211997813401257
0.371207328089352,0.231382871003071
0.373429461807995,0.250588440183236
0.375781337411422,0.269602921221107
0.378258689229935,0.288414874404846
0.380857010550406,0.307013029537863
0.383571558594417,0.32538629528491
0.386397359759335,0.343523768348993
0.38932921511697,0.361414742470476
0.392361706164233,0.379048717239881
0.395489200819942,0.396415406716106
0.39870585966167,0.413504747841946
0.40200564239629,0.43030690864903
0.405382314557634,0.446812296244451
0.408829454424437,0.463011564571638
0.412340460151538,0.478895621938172
0.415908557107065,0.494455638303545
0.419526805408132,0.509683052320035
0.423188107647382,0.524569578120161
0.426885216802479,0.53910721184439
0.430610744320523,0.55328823790306
0.434357168369114,0.567105234966702
0.438116842245678,0.580551081679256
0.44188200293646,0.593618962088898
0.445644779816466,0.606302370791521
0.449397203481469,0.618595117782149
0.453131214703075,0.630491333009879
0.456838673497693,0.641985470632227
0.460511368300154,0.653072312965046
0.464141025232615,0.663746974124473
0.467719317459262,0.674004903357697
0.471237874617255,0.683841888059587
0.47468829231428,0.693254056472591
0.478062141682968,0.702237880067578
0.481350978982434,0.710790175603616
0.484546355237072,0.718908106865028
0.487639825902763,0.726589186074322
0.490622960550562,0.733831274979963
0.493487352557959,0.740632585618247
0.496224628797754,0.746991680748849
0.498826459314618,0.752907473963953
0.50128456697938,0.758379229471183
0.503590737111145,0.76340656155086
0.50573682705733,0.76798943368846
0.507714775721766,0.772128157383419
0.509516613031067,0.775823390635786
0.51113446932949,0.779076136112524
0.512560584692618,0.781887738995565
0.513787318150248,0.784259884514034
0.514807156808953,0.786194595163393
0.515612724864895,0.787694227614513
0.516196792497558,0.788761469316022
0.516552284635184,0.789399334793566
0.516672289582841,0.789611161649893
0.51655006750414,0.78940060627
0.516179058747805,0.788771639235825
0.515552892010424,0.787728540455286
0.514665392326871,0.786275894010724
0.513510588880066,0.78441858273208
0.512082722621899,0.782161782500413
0.510376253697355,0.779510956287619
0.50838586866403,0.776471847938464
0.506106487499471,0.773050475701299
0.503533270388942,0.769253125514071
0.500661624286459,0.765086344052463
0.497487209242155,0.760556931547238
0.494005944489239,0.755671934378092
0.490214014284101,0.750438637451515
0.486107873493292,0.744864556370382
0.481684252921421,0.738957429403183
0.476940164374217,0.73272520926102
0.471872905451283,0.726176054690629
0.466480064063349,0.719318321891933
0.460759522669071,0.712160555768731
0.454709462226729,0.704711481021325
0.448328365856439,0.69697999309003
0.441615022208786,0.688975148958643
0.43456852853608,0.680706157827096
0.427188293462719,0.672182371662608
0.419474039451451,0.66341327563882
0.411425804962615,0.654408478472421
0.403043946303764,0.645177702666964
0.394329139167363,0.635730774673559
0.385282379854552,0.62607761497828
0.375904986183326,0.616228228126147
0.36619859807972,0.606192692691613
0.356165177850975,0.595981151205531
0.345807010139921,0.58560380004861
0.335126701560167,0.575070879321396
0.324127180011971,0.56439266270083
0.31281169367902,0.553579447293441
0.30118380970662,0.542641543495222
0.289247412562148,0.531589264868237
0.277006702078927,0.520432918043965
0.26446619118498,0.509182792663371
0.251630703318453,0.497849151363636
0.238505369531807,0.486442219821431
0.225095625287171,0.474972176862552
0.211407206945574,0.463449144647671
0.197446147953075,0.451883178943864
0.183218774727104,0.44028425949148
0.168731702246622,0.428662280475833
0.153991829350038,0.417027041113072
0.13900633374505,0.405388236359459
0.123782666734928,0.393755447753176
0.108328547666001,0.382138134397625
0.0926519581014001,0.370545624095038
0.0767611357263807,0.358987104639078
0.0606645679908228,0.347471615274915
0.0443709854947592,0.336008038335115
0.0278893551230486,0.32460509105949
0.011228872935559,0.313271317606864
-0.00560104318053592,0.302015081266502
-0.0225907610894909,0.29084455687679
-0.0397304422096795,0.279767723458465
-0.0570100495329335,0.268792357069555
-0.0744193558530108,0.257926023888906
-0.0919479521954538,0.247176073534962
-0.109585256440912,0.236549632626217
-0.127320522133785,0.22605359858953
-0.145142847467877,0.215694633722206
-0.163041184440563,0.205479159513523
-0.181004348166797,0.195413351231103
-0.19902102634413,0.185503132777255
-0.217079788859764,0.175754171820155
-0.235169097530498,0.16617187520444
-0.253277315966317,0.156761384645507
-0.271392719548217,0.147527572711537
-0.289503505510774,0.138475039096946
-0.30759780311983,0.129608107190698
-0.32566368393558,0.120930820942597
-0.343689172151258,0.112446942030377
-0.361662254997543,0.104159947330118
-0.379570893202722,0.0960730266921851
-0.397403031498597,0.0881890810246077
-0.415146609162081,0.0805107206854767
-0.432789570582368,0.0730402641856493
-0.450319875843546,0.0657797372027244
-0.467725511312499,0.0587308719069376
-0.48499450022193,0.0518951065993213
-0.502114913238341,0.0452735856621426
-0.519074879004812,0.0388671598213342
-0.535862594648442,0.03267638672031
-0.552466336242343,0.0267015318042418
-0.568874469212123,0.0209425695135659
-0.585075458676839,0.015399184785175
-0.601057879714454,0.0100707748594396
-0.61681042754192,0.00495645139089546
-0.632321927600058,5.50428601301389e-05
-0.647581345533536,-0.00463490271590405
-0.662577797056294,-0.00911511477822424
-0.67730055769292,-0.0133875969281642
-0.691739072386564,-0.0174546233414007
-0.705882964964124,-0.0213187348976118
-0.719722047449548,-0.0249827350300039
-0.733246329216293,-0.0284496852992312
-0.746446025970051,-0.0317229006965045
-0.759311568553106,-0.0348059446809589
-0.771833611561786,-0.0377026239566179
-0.784003041768691,-0.0404169829945557
-0.795810986341548,-0.0429532983061071
-0.807248820850752,-0.0453160724732378
-0.818308177057838,-0.0475100279424178
-0.828980950477356,-0.0495401005885894
-0.839259307704828,-0.0514114330560443
-0.8491356935037,-0.0531293678832564
-0.85860283764442,-0.0546994404189234
-0.867653761489035,-0.0561273715366916
-0.876281784314913,-0.0574190601562308
-0.884480529371486,-0.0585805755785272
-0.892243929664137,-0.0596181496434444
-0.899566233459619,-0.060538168717784
-0.9064420095077,-0.0613471655222462
-0.912866151973948,-0.0620518108058527
-0.918833885078887,-0.0626589048765461
-0.92434076743903,-0.0631753689968274
-0.92938269610558,-0.0636082366534255
-0.933955910296877,-0.0639646447101212
-0.938056994820986,-0.0642518244529635
-0.941682883185098,-0.0644770925372263
-0.944830860388729,-0.0646478418455504
-0.947498565398012,-0.0647715322668052
-0.949683993298682,-0.0648556814052845
-0.951385497125662,-0.0649078552299208
-0.952601789367478,-0.0649356586732616
-0.953331943144041,-0.0649467261900036
-0.953575393056653,-0.0649487122849165
-0.953331935709412,-0.0649492820200286
-0.952601729901506,-0.0649561015109534
-0.951385296490212,-0.0649768284222607
-0.949683517924728,-0.0650191024717872
-0.947497637451284,-0.0650905359537767
-0.94482925799031,-0.0651987042907225
-0.941680340686741,-0.0653511366237495
-0.938053203134856,-0.0655553064513428
-0.933950517279389,-0.065818622326176
-0.92937530699492,-0.0661484186197336
-0.924330945345908,-0.0665519463643579
-0.918821151530012,-0.0670363641822685
-0.912849987507659,-0.0676087293110197
-0.906421854321127,-0.068275988734759
-0.899541488106707,-0.0690449704305484
-0.892213955803798,-0.0699223747388926
-0.884444650565104,-0.0709147658674922
-0.876239286872368,-0.0720285635371106
-0.867603895362365,-0.073270034778294
-0.858544817368185,-0.0746452858875382
-0.849068699181072,-0.0761602545513346
-0.839182486038372,-0.0778207021463551
-0.828893415843429,-0.0796322062238645
-0.818209012623488,-0.0816001531862602
-0.807137079731936,-0.0837297311634477
-0.795685692801475,-0.0860259230965577
-0.78386319245503,-0.0884935000363047
-0.77167817678144,-0.0911370146630712
-0.759139493583228,-0.0939607950355748
-0.746256232403923,-0.0969689385747526
-0.733037716342662,-0.100165306289255
-0.719493493663974,-0.103553517248702
-0.705633329210856,-0.107136943310599
-0.691467195629444,-0.11091870410657
-0.677005264413752,-0.114901662293288
-0.662257896779131,-0.119088419073216
-0.647235634373264,-0.123481309990033
-0.631949189833656,-0.12808240100328
-0.616409437200745,-0.132893484846561
-0.600627402195885,-0.137916077673264
-0.584614252373557,-0.143151415993561
-0.568381287157344,-0.148600453906073
-0.551939927769242,-0.154263860627356
-0.535301707062035,-0.160142018322023
-0.518478259264523,-0.166235020236035
-0.501481309649478,-0.172542669135368
-0.484322664134278,-0.17906447605199
-0.467014198824237,-0.18579965933873
-0.449567849508681,-0.192747144034345
-0.43199560111987,-0.199905561539759
-0.414309477164914,-0.207273249606138
-0.396521529140819,-0.214848252635163
-0.378643825942846,-0.222628322291515
-0.360688443276338,-0.230610918427328
-0.342667453082185,-0.238793210317977
-0.324592912986049,-0.247172078208325
-0.306476855781488,-0.255744115168199
-0.288331278957031,-0.26450562925555
-0.27016813427723,-0.273452645985469
-0.251999317427668,-0.282580911102899
-0.233836657733814,-0.291885893656585
-0.215691907963549,-0.301362789371487
-0.197576734223083,-0.311006524316615
-0.179502705955924,-0.320811758864881
-0.161481286054408,-0.330772891941351
-0.143523821093214,-0.340884065555902
-0.125641531694155,-0.351139169616075
-0.107845503031389,-0.361531847015574
-0.0901466754860725,-0.372055498993621
-0.0725558354593201,-0.382703290760076
-0.055083606352152,-0.393468157380975
-0.0377404397209764,-0.404342809918872
-0.0205366066169588,-0.415319741822102
-0.00348218911742212,-0.42639123555685
0.0134129279427039,-0.437549369475631
0.0301390650316699,-0.448786024915587
0.0466867557663103,-0.460092893519718
0.0630467545347617,-0.471461484774001
0.0792100438893568,-0.482883133753077
0.0951678417027836,-0.49434900906698
0.1109116080809,-0.505850121001217
0.12643305202574,-0.51737732984225
0.141724137842601,-0.528921354380294
0.156777091285266,-0.540472780581108
0.171584405433747,-0.552022070418339
0.186138846299167,-0.563559570857769
0.20043345815066,-0.575075522984673
0.214461568559497,-0.586560071265349
0.228216793155864,-0.598003272933729
0.241693040094056,-0.609395107493885
0.254884514222108,-0.62072548632905
0.267785720952203,-0.631984262407743
0.280391469828475,-0.643161240077428
0.292696877789138,-0.654246184936072
0.304697372120175,-0.66522883377184
0.316388693098127,-0.676098904561179
0.327766896319817,-0.686846106515349
0.338828354717192,-0.697460150165534
0.349569760255741,-0.707930757476528
0.359988125315255,-0.718247671978986
0.370080783752089,-0.728400668910237
0.379845391642269,-0.738379565353562
0.389279927705246,-0.748174230365931
0.398382693408295,-0.7577745950841
0.407152312751972,-0.767170662799069
0.41558773173727,-0.776352518988861
0.42368821751551,-0.785310341299658
0.431453357222253,-0.794034409465346
0.438883056496878,-0.802515115155593
0.445977537689749,-0.810742971742646
0.452737337759227,-0.81870862397708
0.459163305861075,-0.826402857562873
0.465256600633107,-0.833816608622192
0.471018687178256,-0.840940973040463
0.476451333749495,-0.847767215682335
0.481556608140378,-0.854286779469332
0.486336873785229,-0.860491294310056
0.490794785573315,-0.866372585874001
0.4949332853816,-0.871922684200141
0.498755597330984,-0.877133832131639
0.502265222771161,-0.881998493568175
0.505465934999539,-0.88650936152757
0.508361773719905,-0.890659366008573
0.510957039246765,-0.894441681646835
0.513256286461574,-0.89784973515636
0.515264318527263,-0.900877212548836
0.516986180367766,-0.903518066123552
0.518427151919419,-0.905766521220767
0.519592741161383,-0.907617082731647
0.520488676932421,-0.90906454135813
0.521120901541575,-0.910103979616298
0.521495563180512,-0.9107307775771
0.521619008145467,-0.910940618338515
