0.625846328517937,1.02450260177533
0.626343906376772,1.01573389400892
0.627489372462718,1.00694256148708
0.629039107848406,0.99813711157021
0.630902464555972,0.98932070975545
0.633025237764488,0.980495248916858
0.635369683165327,0.971662047114736
0.637907257483799,0.962822101102199
0.640615215296202,0.953976205166944
0.643474762268595,0.945125015621577
0.646469950711356,0.936269089371689
0.649586971251263,0.92740890865122
0.652813673856163,0.918544897748642
0.656139230196927,0.90967743479754
0.659553887511895,0.900806860371857
0.663048784133479,0.891933483927843
0.666615807973335,0.883057588745866
0.670247485787731,0.874179435797347
0.673936895033331,0.865299266822827
0.681463556768051,0.847533766073959
0.68528913841631,0.838648841854354
0.68914902113129,0.829762719815105
0.693038186827445,0.820875575191621
0.696951886732928,0.811987573814668
0.700885616443902,0.803098872981494
0.704835094365492,0.794209622208688
0.708796242960961,0.785319963886969
0.712765172348002,0.776430033854021
0.71673816587115,0.767539961898313
0.720711667349193,0.758649872204429
0.724682269751254,0.74975988374851
0.728646705098534,0.740870110650888
0.732601835423254,0.731980662491815
0.736544644644118,0.72309164459517
0.740472231240103,0.714203158284298
0.744381801622713,0.705315301113462
0.748270664121902,0.696428167077848
0.752136223513268,0.687541846804692
0.755975976024471,0.678656427727649
0.759787504767396,0.669771994246312
0.763568475549859,0.660888627872469
0.767316633026693,0.652006407364508
0.771029797155251,0.643125408851196
0.774705859924735,0.634245705945891
0.778342782332501,0.625367369852136
0.781938591583721,0.616490469461444
0.785491378493533,0.607615071444019
0.788999295073211,0.598741240333051
0.79246055228394,0.589869038603149
0.795873417943615,0.580998526743447
0.799236214773596,0.572129763325806
0.802547318573794,0.563262805068542
0.809008205543294,0.54553452199458
0.812154990875411,0.536673301864664
0.815244084598519,0.527814096370127
0.821243712058547,0.510101920833171
0.824151612811934,0.501249042736563
0.829777322904067,0.48354992468182
0.835141697760688,0.465859932654597
0.837723076162196,0.457018456969773
0.84023582660184,0.448179377826186
0.842678928614727,0.439342730859256
0.845051397643461,0.430508550450483
0.847352284346516,0.421676869751605
0.84958067394466,0.412847720707416
0.851735685603284,0.40402113407734
0.855822218016445,0.386375765291531
0.857752141730322,0.377557038905689
0.859605492409959,0.368740986509124
0.86138155080614,0.359927633218573
0.86307962856216,0.351117003071982
0.864699067800153,0.342309119042952
0.866239240731213,0.333504003054355
0.869079424780869,0.315902157712455
0.87037832757062,0.307105467062848
0.871595746767053,0.298311621883021
0.872731199942574,0.289520639019716
0.873784232866148,0.280732534335031
0.874754419254951,0.27194732271509
0.87564136054343,0.263165018078108
0.8764446856692,0.25438563338187
0.878349661952454,0.228065114250114
0.878815355277318,0.219297519916168
0.879195983302522,0.210532896127944
0.879825511156333,0.184256916636791
0.879864045396721,0.175504239026771
0.879816729601755,0.166754559366046
0.879683485516499,0.15800788038734
0.879464260992967,0.149264203911699
0.879159029963757,0.140523530849418
0.878767792428867,0.131785861200497
0.878290574455702,0.123051194054641
0.877727428192246,0.114319527590803
0.877078431893437,0.105590859076261
0.875523332995414,0.0881425003970281
0.874617517864362,0.0794228001937278
0.873626427780737,0.0707060778573897
0.872550272397451,0.0619923260667729
0.87014373720347,0.0445737001981679
0.868813909938934,0.0358688068248428
0.867400122754742,0.0271668453965184
0.865902719407843,0.0184678039089377
0.864322070960617,0.00977166940431681
0.862658575978622,0.00107842796443994
0.86091266074468,-0.00761193529681745
0.859084779489826,-0.0162994362415522
0.857175414641653,-0.0249840917165074
0.853114306475155,-0.0423449386237319
0.850963671485674,-0.0510211687596974
0.84873377018926,-0.0596946308552297
0.844038709920216,-0.0770333396672123
0.841574897182157,-0.0856986333952097
0.83903451140986,-0.094361253133929
0.836418303183674,-0.103021225094214
0.83096158116281,-0.120333336091731
0.828122729506246,-0.128985533172104
0.822228449657614,-0.146282364313578
0.819174885586306,-0.15492706347121
0.81605167308824,-0.163569330452185
0.812859832628311,-0.172209200891923
0.809600421310914,-0.180846711705323
0.802883302413862,-0.198114808674059
0.799427899445872,-0.206745475308206
0.795909536634063,-0.215373943336161
0.792329466863512,-0.224000256509633
0.788688985057193,-0.232624460048329
0.781232181885125,-0.249866726673
0.773550370798783,-0.267101135848162
0.769628804940163,-0.275715523715461
0.761632218333665,-0.292938940687242
0.753442120426415,-0.310155600095496
0.749278871458182,-0.318761548202633
0.74507260014854,-0.327365993936504
0.740825215682353,-0.335969003967311
0.736538690854448,-0.344570647186569
0.732215064667468,-0.353170994797819
0.727856445132214,-0.36177012041442
0.723465012291329,-0.370368100165139
0.719043021489983,-0.378965012808364
0.714592806920359,-0.387560939855883
0.705617460912961,-0.404750177796238
0.692006108538238,-0.430528854791571
0.687440516155097,-0.43912075275706
0.682865618749396,-0.447712325784001
0.678284554288913,-0.456303683452644
0.673700590752449,-0.464894939883322
0.66911713517088,-0.473486214052177
0.664537743725418,-0.482077630143791
0.659966133071527,-0.490669317946634
0.655406193091515,-0.49926141329839
0.646337839358216,-0.516447403337388
0.641838211603639,-0.525041604838465
0.637367866830239,-0.533636828923779
0.632931823123558,-0.542233250828736
0.628535396948174,-0.550831056208372
0.624184237271996,-0.559430442328992
0.619884365967975,-0.568031619479034
0.615642226095157,-0.576634812655078
0.61146474019688,-0.585240263597663
0.595561079080978,-0.619690223372535
0.591833596482651,-0.628311388776628
0.581439517079829,-0.654202415419805
0.578291480702936,-0.66284381553183
0.566213393622275,-0.706178699260455
0.625846328517937,1.02450260177533
0.624738288600681,1.01578996341717
0.622982360456313,1.00709994981445
0.620822163012204,0.998424053606761
0.615615108979279,0.981103224010988
0.612660201520019,0.972455079688549
0.609512165143126,0.963813679576524
0.602723736241488,0.946548072808021
0.599118085740305,0.937922652933347
0.587617420079471,0.912070269133809
0.583592300706081,0.90345949743493
0.575309456127799,0.886246076811797
0.562416285274782,0.860442320365091
0.549113470619316,0.834652868995184
0.54461384286474,0.826058667494106
0.53554548913144,0.808872677455109
0.526413938497538,0.79168889430051
0.517251091470507,0.774506204040041
0.512667127934043,0.765914947609363
0.503511166067859,0.748732016913779
0.498945573684718,0.74014011894829
0.494392302405433,0.731547790720373
0.489854253751026,0.722954930906683
0.485334221309994,0.714361441952957
0.480834896752384,0.705767229864008
0.476358875302597,0.697172204012602
0.471908660732973,0.688576276965083
0.467486669931626,0.679979364321858
0.458736617555487,0.662782258954538
0.454412991368508,0.654181911343288
0.441672810764774,0.628372812359352
0.433391183158442,0.611159349238622
0.429319463889291,0.602550204843961
0.425296136171195,0.593939370579101
0.395042145588893,0.524985207492879
0.391523782777084,0.516356739464925
0.388068379809093,0.507726072830777
0.384677148568109,0.499093165270543
0.381351260912041,0.490457975862042
0.378091849594644,0.481820465048642
0.37177679663665,0.464538327627928
0.368723232565342,0.455893628470297
0.365740301478186,0.447246462754507
0.36282895271671,0.438596797328823
0.359990101060145,0.429944600248449
0.354533379039281,0.412632489250933
0.351917170813096,0.403972517290648
0.346912972302739,0.386644603823931
0.342217912033696,0.369305895011948
0.339988010737281,0.360632432916416
0.337837375747801,0.351956202780451
0.333776267581302,0.334595355873226
0.330039021478276,0.317223199453536
0.326629611262338,0.299839594752402
0.323551559468213,0.2824444187602
0.318401409825504,0.247618938089946
0.317325254442219,0.238905186299329
0.314607992262158,0.212746079291486
0.313224254030709,0.195291736565915
0.312661107767254,0.186560070102078
0.311487421229988,0.16034706024502
0.312136326945638,0.0903137442405504
0.312602020270502,0.0815461499066052
0.313152542694526,0.0727755932752419
0.313787631347641,0.0640020835260857
0.315310321679526,0.0464462460786109
0.316197262968004,0.0376639414416293
0.339215996619672,-0.094409869920621
0.341371008278296,-0.103236456550698
0.361174359318889,-0.173938660525102
0.369707970164409,-0.200490656676452
0.372677577876538,-0.209345689627542
0.378796691347545,-0.227062037707945
0.381943476679662,-0.235923257837862
0.395078264279341,-0.271387262586729
0.409013090639235,-0.306879205304725
0.416245822298221,-0.324634441789172
0.419921885067705,-0.333514144694477
0.446569880600242,-0.395704036956743
0.450479450982853,-0.40459189412758
0.454407037578838,-0.413480380438451
0.458349846799702,-0.422369398335096
0.470240014873763,-0.44903860804771
0.474213516351806,-0.457928697741594
0.478186509874953,-0.466818769697302
0.486116587857463,-0.484598358051969
0.501802661091666,-0.520151455658387
0.513274089571868,-0.546806042662166
0.517014787189624,-0.555688002666108
0.547476919954361,-0.635513751464858
0.550336466926754,-0.644364941010226
0.555581999057628,-0.662050782958017
0.563462309760237,-0.697331297330362
0.564607775846184,-0.706122629852204
