0.534957387121404,-0.641118774578902
0.452713276809004,-0.554272138355699
0.489664299351292,-0.591457994086477
0.458147495547191,-0.576349892708497
0.465818671114574,-0.561251660830483
0.481823193636011,-0.586839461155182
0.449867093745599,-0.548728047821031
0.486370705883684,-0.55040903493221
0.468257029565245,-0.577080166756555
0.454687313496572,-0.534121992257126
0.483199929555924,-0.534581926409419
0.450173485524986,-0.561318602268356
0.422469739390816,-0.599561929922559
0.436290162047904,-0.547191615220962
0.410791792883607,-0.551785749836122
0.42145744014695,-0.530068675191715
0.41642741404331,-0.511831819428807
0.406127271442245,-0.509943525398928
0.389970547219475,-0.503323516572059
0.404527495114664,-0.44269538023309
0.367758328312999,-0.438259400736458
0.336161892975827,-0.41216395524819
0.416644110308888,-0.478468392765594
0.354584829683031,-0.478000393522483
0.323656449698724,-0.404442390736385
0.383726173134683,-0.439902609384013
0.324129604187564,-0.376784694184956
0.332590349619517,-0.406130564520272
0.299481737476935,-0.39342719371124
0.306151119207117,-0.299616275077764
0.373172274849342,-0.326783486568071
0.292774724072209,-0.284574342603943
0.316865964355863,-0.280767021204373
0.31444233622744,-0.262489649248081
0.312594315977062,-0.244134792776946
0.311327212694519,-0.225761651419392
0.300716102317091,-0.195327528361813
0.358548005696327,-0.123233488369235
0.291863834938653,-0.113541863388975
0.315661406714582,-0.118436773449276
0.317585793081918,-0.148897389239096
0.324756838852855,-0.0691773910534605
0.328630299937922,-0.0537521670635085
0.365915991397861,-0.0289160016295422
0.362614924626375,0.0157200584496505
0.315741813979329,0.0575972565272621
0.390825592691503,-0.0209495436543969
0.373325688762563,0.0826677465962938
0.360427658234255,0.096548235251494
0.384935645086694,0.0395934045436171
0.409670021185856,0.100579018045462
0.387131788338529,0.131529181407289
0.386506267147508,0.0790208355629799
0.433247250689992,0.10529464954672
0.401661319929096,0.101184059881926
0.413187831224895,0.104970949538793
0.424967692958361,0.0812958320637664
0.423740384417297,0.155969301380412
0.402388635145531,0.108633124762126
0.413019272934133,0.105201252078713
0.375663119513207,0.0957223294885434
0.424684041633836,0.0572489344136377
0.382992254795037,0.0645530840806996
0.427816993314904,0.0965706604577666
0.395799691865998,0.0478169759808984
0.388738168559773,0.0987680011236867
0.307101302176978,0.064388513047446
0.34354423291693,0.0804812204047191
0.365353797756003,0.0933838301960005
0.327109281382274,0.075941822658559
0.294799269419431,0.0735403965662147
0.287116314822711,0.0931317233380542
0.251596698983804,0.0721346597438708
0.25343896889566,0.0921064557628852
0.207601013242705,0.0958323044822563
0.229414700310684,0.085460813087858
0.119265638410443,0.116509021247782
0.0947655838944218,0.0636056228587883
0.101581036786318,0.0962970220047352
0.0408955415334524,0.0811018533482491
0.0669684220414828,0.108107717359655
0.0498383606234507,0.114870769177269
0.0329013728216891,0.122182019352497
0.0162122821608258,0.130018507842057
-0.000175969472911847,0.138353228057687
0.0111857756788778,0.123296711698858
-0.0184622659570275,0.181518751028646
-0.0783984264752471,0.149190541847599
-0.0759219304290673,0.186294223451701
-0.0936787801236818,0.162583741335741
-0.117511829692973,0.175539865842321
-0.124624714688952,0.238417099964566
-0.137794952270485,0.240661266929001
-0.17719670983874,0.279860093004844
-0.137927058363764,0.298700371444135
-0.129761444088357,0.307992694753972
-0.197345545414612,0.327750570176901
-0.183646189052152,0.286402623538022
-0.245853488471655,0.305858561487933
-0.194565479275185,0.305759904867778
-0.2355645272009,0.316748616364198
-0.210901456385736,0.341913374700981
-0.220457600986612,0.363916137721538
-0.255676507833098,0.327922904789324
-0.197341386864824,0.377036561728371
-0.225658277419307,0.379798127502306
-0.227689821600226,0.388668675034259
-0.277204568882462,0.408985490781269
-0.226970458499337,0.339163396093406
-0.225634667161266,0.415803636713195
-0.239428936991357,0.398587835734619
-0.227914409232065,0.379553018232498
-0.181558671061146,0.387300031548405
-0.241051111896671,0.396715893293007
-0.230730368153738,0.355805772779326
-0.262475319143213,0.350584937741723
-0.264197763029254,0.386348209736433
-0.236589376552169,0.330152399157835
-0.246150362322331,0.275593712458251
-0.275649356631575,0.311719954602207
-0.246896475324706,0.298889349210649
-0.271144528579386,0.305152688125203
-0.262479172675818,0.263287681291869
-0.241010978241347,0.282172881081393
-0.244177601417307,0.215941767295404
-0.347691305838241,0.244904803284185
-0.31116736530097,0.18495037435143
-0.353248395125164,0.124012779786993
-0.344238880906178,0.14531186922946
-0.410715588047961,0.106424936113824
-0.423191884142827,0.0903448751519631
-0.396286263231208,0.095319259777337
-0.434118233977123,0.131734895436602
-0.433212128650769,0.10217104942544
-0.513731690163511,0.0573853999438359
-0.483321090784479,-0.00416224300477919
-0.502520363578591,0.0237568383612655
-0.477111833602443,0.0150903283231586
-0.534500476469373,0.00827476484760725
-0.550482142525574,0.00145134576737088
-0.518332538183568,-0.0111172471091222
-0.589253370121145,-0.0576432443566306
-0.559098530671716,-0.00385207417893829
-0.568142369884708,0.0175973658658458
-0.620017626871078,-0.0505752200728039
-0.656755563919184,-0.0292325599322076
-0.670461141577126,-0.0313268249214702
-0.683639866881373,-0.0329178740655487
-0.651247991352788,-0.0223919140205764
-0.730190610865544,-0.0349544225519422
-0.70402057064449,-0.014694861651412
-0.731867131267015,0.0152909429805856
-0.765128080847214,-0.0321176162549298
-0.72399432102254,-0.0523624277767661
-0.790248481102665,-0.0266119707892605
-0.792722118290036,-0.0257921545604674
-0.80023912997194,-0.00418413478712699
-0.792837286994781,-0.0260532815922455
-0.790563893206975,-0.0273271184221811
-0.776235422123696,-0.0439641263908419
-0.769559280057564,-0.0421646676615715
-0.78261419387216,-0.0654478005709001
-0.719952513190233,-0.0843044509646834
-0.727880674079922,-0.0977729599482248
-0.772303820351831,-0.108563070591432
-0.764692009534462,-0.0875866296522424
-0.742746061587042,-0.147048729150939
-0.690988749618468,-0.1363817435974
-0.68348949104106,-0.149316035210082
-0.629951375403585,-0.159494888968153
-0.706700608816275,-0.180959120710985
-0.643871922711425,-0.239707889654981
-0.66535987178302,-0.226139755971261
-0.633740030876251,-0.273763241490337
-0.58004002607794,-0.289738560623585
-0.655289201477187,-0.344217611808435
-0.588293961374054,-0.313109933487594
-0.586916779190365,-0.36634653273175
-0.61764479688445,-0.424826741338936
-0.65768612526979,-0.470902586774371
-0.635133828579105,-0.441581215323009
-0.674048212668516,-0.492824966482778
-0.662883172615386,-0.558000750843373
-0.612658573927316,-0.580923644106039
-0.684525026329762,-0.617040070768424
-0.710583005534655,-0.738328077810381
-0.718907360431173,-0.689962988407943
-0.742251365954177,-0.75951889211936
-0.756218631460223,-0.723293101924069
-0.678243923993289,-0.724020824266297
-0.719333925449973,-0.723744209414802
-0.718976970403167,-0.723494290850635
-0.717886364678344,-0.722775345843713
-0.717471971760942,-0.722750221624232
-0.674114695967888,-0.711879534738153
-0.66534040496079,-0.684727922651459
-0.71508945645899,-0.659509540442848
-0.715219618558216,-0.662777467805853
-0.652863487395568,-0.698685176466658
-0.642112241417894,-0.696433270891491
-0.577298197818454,-0.726619926692361
-0.630025479481881,-0.703052754396346
-0.508116423759146,-0.691826471983042
-0.504071386331446,-0.696112739178309
-0.483078652357495,-0.695447078981586
-0.46038745738534,-0.739165600425156
-0.431658258926101,-0.706039860412736
-0.414303555264191,-0.710764729032844
-0.320535788524818,-0.721400046156874
-0.273331999699933,-0.783436977033831
-0.279954228665529,-0.768774540674495
-0.222467347070412,-0.826659168780639
-0.199704911330591,-0.812794710780949
-0.1952025183215,-0.830114355352363
-0.189345680012154,-0.79233863227095
-0.200342682714309,-0.911066163864838
-0.12964575853101,-0.891145883554552
-0.0770498104180179,-1.00220711270877
-0.0761006025622314,-1.00733638906945
-0.0592766023369794,-1.00475770440241
-0.0393624756026371,-0.982074629455604
-0.0425366899790004,-0.994997649381048
-0.0650357086240446,-0.965308394867912
-0.0629099019128274,-0.932201263554484
-0.0208525203476107,-0.942168932441134
-0.0213260352471905,-0.8526632843548
0.0385820840966857,-0.740459783357413
0.0822061966965425,-0.792728649635312
0.160854207763341,-0.707730642721726
0.159068828077571,-0.663466840317436
0.3013351953706,-0.599497779289194
0.293708195048982,-0.578778475970217
0.281960234868704,-0.615295220452612
0.334738055736423,-0.602131196233461
0.470485827437338,-0.552340879242009
0.445504444551886,-0.548312369862251
