0.803851128754714,-0.393051547822563
0.917713322848178,-0.196895610858187
0.865194974440022,-0.172399408937373
0.714689480903762,-0.132093478282147
0.641339662404067,-0.0686200225013052
0.559487418125765,-0.0380418564318624
0.519572658805211,-0.0155092847473031
0.552760094864914,0.0243210673016613
0.538793719562005,0.0481433540446458
0.642826657624389,0.151335560103679
0.716437603070401,0.236329051312071
0.751175676967468,0.341496827837538
0.77102886491134,0.384800482649209
0.737382990126338,0.449784328965094
0.703722552867516,0.474504112586454
0.567136122854627,0.440678690483106
0.436112658062446,0.441684730110331
0.370939061482329,0.358731562475837
0.314543761772213,0.332128315809018
0.174385557643904,0.244403370319577
0.255985865711165,0.357080137730945
0.27107438036495,0.47659471829984
0.255391618108629,0.595366779557668
0.350869402087775,0.798844507462464
0.198960598228182,0.777098049701556
0.14577053115684,0.790102523871567
0.0952759221529054,0.815427085919364
0.126356001475086,0.823181322456128
-0.0121061843569997,0.650250977443746
-0.0662640175614819,0.541836058547185
-0.0920948717605155,0.452840829957727
-0.120550699377499,0.420083237096385
-0.165375964976834,0.467334407473359
-0.208484224878213,0.492516250476012
-0.391141833761823,0.452914655362186
-0.387906503138572,0.607304989606983
-0.437922402325297,0.680229651270596
-0.506148789220243,0.629635275831899
-0.579643267390243,0.635250398690119
-0.603668984828711,0.547217504038188
-0.551475844695553,0.470409911058111
-0.524702179378147,0.337886296047439
-0.509250983239836,0.216850340251067
-0.430686348573182,0.231119887812523
-0.477981501413381,0.171515124914022
-0.530073142209469,0.158628452704217
-0.621400667141649,0.125036151466457
-0.735521026521062,0.194000087634297
-0.81219685382055,0.115093470613882
-0.876384404711843,0.11187857265293
-1.02019441257616,-0.0470117307041828
-0.967386270189545,-0.0131449216878417
-0.854119367614729,-0.0763983677447712
-0.767192804730436,-0.104298862361581
-0.655218526051326,-0.166707993482581
-0.578352966447427,-0.209366858720204
-0.541010985440398,-0.225613488723585
-0.547192232748565,-0.261305466360677
-0.640759425702247,-0.274790907275014
-0.673409695748874,-0.364772175756116
-0.75017648305066,-0.478483515044095
-0.796839687741889,-0.564850784405981
-0.706575959883358,-0.539492345187476
-0.649177180658329,-0.584804131701353
-0.681715704200206,-0.689727754998488
-0.579514338468113,-0.667627357504181
-0.505695039297668,-0.63989912091065
-0.419099416470377,-0.579859106111033
-0.327234776928122,-0.545061245657703
-0.415303705692075,-0.671735665014346
-0.264560957568675,-0.637304927924572
-0.171346884231134,-0.61208858993525
-0.146196424096157,-0.702715426415402
-0.295602789251335,-0.943531468856864
-0.210482016491945,-1.02821260631734
-0.17184900080905,-1.05
-0.126237962944241,-1.00966759064686
-0.0183100321886023,-0.995037140676929
0.117038169226859,-0.708605737827601
0.0403794405289386,-0.752142900554521
0.0698751226268695,-0.676520481068769
0.209596180000792,-0.547962060006335
0.132479008627637,-0.666251274461974
0.194710208116893,-0.711048241638499
0.260910059200541,-0.789653867713017
0.35209111857968,-0.851318825565941
0.411918115551214,-0.911724318853212
0.487698310023657,-0.915143940638135
0.546407365333004,-0.856300950018044
0.577581281424328,-0.802775153452916
0.537048772450293,-0.675538998480785
0.495318637527887,-0.57169221700484
0.534168479897027,-0.333172149841971
0.436135829275481,-0.426368190368206
0.45412251409222,-0.3970742134162
0.502041596149183,-0.365494097480098
0.608814660761518,-0.390600946816225
0.859405960863473,-0.290662412743451
0.867698076900508,-0.363464008675566
0.8974050419089,-0.326363807319776
