1.02314748796582,-0.1855097692129
1.02529873262781,-0.171203549343524
1.02351620456413,-0.155912600430524
1.01784390325437,-0.139837901821545
1.00839045917609,-0.123189584978219
0.995327634060355,-0.106181682634511
0.978887671389751,-0.0890268825831963
0.959359540477503,-0.0719314034720324
0.937084138370778,-0.0550901063930956
0.912448533571851,-0.0386819500349651
0.885879353785699,-0.0228658888741639
0.857835436228254,-0.00777730349282604
0.82879987314907,0.00647496014942256
0.799271596860339,0.0198108795247975
0.769756657493741,0.032180824633142
0.740759352752009,0.043566375740811
0.712773371963652,0.0539803749075596
0.68627311672505,0.0634662135139211
0.661705357321381,0.0720963749855128
0.63948137801325,0.0799702684502892
0.619969755274087,0.0872114048088227
0.603489901335298,0.0939639813120009
0.590306491165161,0.100388953914719
0.580624874545394,0.106659688128071
0.574587556531168,0.112957288582184
0.57227180963779,0.119465714834319
0.573688459972347,0.126366795954644
0.578781867625849,0.133835258986324
0.587431099380077,0.142033886449368
0.599452269589444,0.151108915633317
0.614602003395898,0.161185787548906
0.632581955638483,0.172365346181503
0.65304429932496,0.184720579256813
0.675598079711397,0.198293980286156
0.699816314224587,0.213095598441158
0.725243704959786,0.22910182809008
0.751404819545744,0.246254973916775
0.777812587993372,0.264463610770395
0.803976957882784,0.283603740110749
0.94219965072751,0.195546438034249
0.944636574269291,0.416555534330773
0.976603018586085,0.447376338935527
0.896773886672972,0.365988181682205
0.914858556150637,0.386961744594504
1.0317356693533,0.302249736205478
0.942395424981285,0.427632133476768
0.835392677692418,0.544409903665481
0.860613654285846,0.566890085989609
0.860709697301951,0.367804398708709
1.06592770948531,0.591791752069159
1.06528940952703,0.398697780352674
1.04651423772316,0.633471160171751
0.81686970589925,0.433231567377654
0.812414931937344,0.442452663150588
0.776287663608378,0.637827712598796
0.971667313000271,0.434092321360687
0.849598591102682,0.545316527091082
0.823460199920914,0.543324529664995
0.906080299004526,0.632516970924624
0.882370910988091,0.637961328101712
0.638463233235735,0.6173799872164
0.705848456598827,0.516025018747055
0.57253881162397,0.409323926699429
0.64501058808846,0.493878247209872
0.716186277004253,0.37666050634021
0.702720889308546,0.352934275913304
0.451616961229155,0.572414506861149
0.640020007623773,0.562731331309827
0.62979654057242,0.550290588422333
0.490733555802332,0.423742130668634
0.472121908575454,0.415272936364663
0.456011454920594,0.408641285767024
0.442469183626564,0.404144334570536
0.431511407804575,0.402045308746832
0.423104699717295,0.402567788096959
0.417167771781532,0.405890653258717
0.413574251791141,0.4121438040041
0.412156283276639,0.421404742720976
0.412708866336123,0.43369610105172
0.414994840539195,0.448984170061705
0.418750399883592,0.467178475369475
0.423691020490833,0.488132418753396
0.429517674932182,0.511644987243536
0.435923202897793,0.537463510012877
0.442598706424847,0.565287422905119
0.449239839094884,0.594772980581418
0.455552862451987,0.625538837429247
0.461260349284151,0.657172400929071
0.466106422200948,0.689236845468715
0.469861426934488,0.721278660948938
0.472325952746905,0.752835599215135
0.473334126966603,0.783444872613337
0.472756126685049,0.81265145298795
0.470499867687234,0.840016316345378
0.46651184840406,0.865124478276674
0.460777144693806,0.887592668081359
0.453318569208171,0.907076495322508
0.444195026605004,0.923276971171945
0.433499112574593,0.935946258219598
0.421354020207247,0.944892536215507
0.407909831329984,0.94998388723051
0.393339282794189,0.951151121661672
0.37783310805612,0.948389486032368
0.361595062552348,0.941759214273805
0.344836747173467,0.931384905729351
0.327772347471738,0.917453735082977
0.310613407043741,0.900212521357004
0.293563751802149,0.879963704630239
0.276814677638611,0.857060299780721
0.260540507381452,0.831899915958864
0.244894614115597,0.804917948271114
0.23000599705247,0.776580063956566
0.215976483451304,0.747374118862211
0.202878615874164,0.717801651002838
0.190754268610451,0.688369106214456
0.179614020763059,0.659578956213566
0.169437296596449,0.63192087165317
0.160173266666121,0.605863111973045
0.151742486342561,0.581844289988447
0.144039231969653,0.560265662319527
0.136934479405388,0.541484087062252
0.130279455410432,0.52580577772489
0.12390967958101,0.513480967638052
0.117649403538398,0.504699582074208
0.111316345122104,0.499587996508963
0.104726608579645,0.498206939181484
0.0976996773481616,0.500550574753414
0.0900633640783183,0.506546783833487
0.0816586031039756,0.516058630850608
0.0723439736045068,0.528886990647629
0.0619998471808488,0.544774282653958
0.0505320613606717,0.563409240988032
0.0378750305029994,0.584432629731046
0.0239942174830972,0.60744379526424
0.008887903158041,0.632007932301864
-0.00741179434079081,0.657663927368193
-0.0248386822833891,0.683932633200693
-0.0432930528460874,0.710325420102448
-0.0626430369525567,0.736352845750687
-0.0827267325473407,0.761533283472426
-0.103355070299554,0.785401350542343
-0.124315363308755,0.807515982602403
-0.145375471981883,0.827468007749746
-0.166288501198902,0.844887084035495
-0.186797934488007,0.859447876855846
-0.206643099458407,0.870875367743053
-0.225564850420569,0.87894920307894
-0.243311348147572,0.883507009921134
-0.259643813236268,0.884446626084972
-0.274342128602349,0.881727212471208
-0.28721016832511,0.875369236964333
-0.298080734328505,0.865453340633846
-0.306819989173965,0.852118118036721
-0.313331282424381,0.835556863737475
-0.31755827944466,0.816013356342941
-0.319487314912742,0.793776769026312
-0.319148908464081,0.769175811354333
-0.316618396483458,0.74257222093558
-0.312015651760315,0.71435373472238
-0.305503881183077,0.684926678518272
-0.297287510491735,0.654708319212751
-0.28760918395426,0.624119127386415
-0.276745925296682,0.593575098159505
-0.265004523919939,0.563480275509856
-0.252716227013174,0.534219619833374
-0.240230833277942,0.506152350387316
-0.22791029729359,0.479605883622212
-0.216121964797716,0.454870475498925
-0.205231568084492,0.432194660973545
-0.195596117139942,0.411781567223487
-0.187556825888986,0.393786159223709
-0.18143221392859,0.378313457328179
-0.177511522324051,0.365417746951718
-0.176048577466305,0.355102780674206
-0.177256229698311,0.347322953497902
-0.181301483543481,0.341985412968392
-0.188301424086881,0.338953047795813
-0.198320029597499,0.338048281839881
-0.21136594410906,0.339057585175794
-0.227391265708951,0.341736600730035
-0.246291387064496,0.345815773916642
-0.267905904614623,0.351006364021745
-0.292020592263858,0.357006709934322
-0.318370414737231,0.363508619309046
-0.3466435353957,0.370203749424133
-0.376486253674361,0.376789849859496
-0.407508788780148,0.382976741610543
-0.439291809241907,0.388491914259501
-0.471393592686533,0.393085632188045
-0.503357687128379,0.39653545232358
-0.534720934373509,0.398650069316116
-0.565021708077314,0.399272419054674
-0.593808213725057,0.398281987732347
-0.620646695447289,0.395596290913045
-0.645129395196804,0.391171504879035
-0.666882113403567,0.385002250574757
-0.685571226733685,0.377120548334776
-0.700910027895423,0.367593978923074
-0.712664264391688,0.356523102860874
-0.720656767494492,0.344038205244423
-0.724771079244789,0.330295446943119
-0.724954003650251,0.315472514945587
-0.721217028116445,0.29976387444889
-0.713636582126071,0.283375732869616
-0.702353121875993,0.266520831147844
-0.687569051577345,0.249413180419052
-0.669545513997874,0.232262862299756
-0.648598104156702,0.215271008677922
-0.625091580458623,0.198625072079356
-0.599433666583875,0.182494490507624
-0.57206805476166,0.167026841288042
-0.543466736315439,0.152344567091151
-0.514121798278377,0.138542344214611
-0.484536835186477,0.12568514864671
-0.455218132662911,0.113807059732094
-0.42666578396195,0.102910824746419
-0.3993649021536,0.0929681907134901
-0.373777089068189,0.0839209927272933
-0.350332317510731,0.0756829712348844
-0.329421375683788,0.0681422745512752
-0.311389012367859,0.0611645876578279
-0.296527908397731,0.0545968144043699
-0.285073584589906,0.0482712278882963
-0.277200338814267,0.0420099932841002
-0.273018285696762,0.035629958968097
-0.272571551856835,0.028947605606272
-0.275837658017786,0.0217840390816974
-0.282728097193192,0.0139699118154542
-0.29309009587156,0.00535015821334997
-0.306709523120711,-0.00421156637055389
-0.32331489123321,-0.0148288476960446
-0.342582371340706,-0.0265889719156567
-0.36414172872282,-0.0395499677968027
-0.387583065679998,-0.0537383052511669
-0.412464245148481,-0.0691473095314433
-0.4383188559855,-0.0857363351010095
-0.464664571272591,-0.103430726797193
-0.491011744251197,-0.122122578835955
-0.516872082738474,-0.141672284803035
-0.541767242135911,-0.161910854409867
-0.565237179443531,-0.182642955828477
-0.586848115973883,-0.203650626217444
-0.606199964610834,-0.22469757795596
-0.622933088311303,-0.245534014438182
-0.636734269884354,-0.26590185734043
-0.647341788635132,-0.285540277319621
-0.6545495169221,-0.304191412352935
-0.658209968700391,-0.32160615256162
-0.658236252337871,-0.337549867503225
-0.654602900998097,-0.351807951642159
-0.647345575276335,-0.364191066041244
-0.636559654135522,-0.374539959225912
-0.622397751105619,-0.382729757573885
-0.605066212779343,-0.388673625340759
-0.58482067547533,-0.392325706360798
-0.56196077318774,-0.393683273332035
-0.536824105273094,-0.39278802613363
-0.509779585453833,-0.389726497524224
-0.481220304401244,-0.384629542495645
-0.451556046204677,-0.377670906147134
-0.421205604298878,-0.36906488382575
-0.39058904482146,-0.35906310606537
-0.360120064879692,-0.347950499165842
-0.330198589848436,-0.336040489709055
-0.301203747684277,-0.323669537548701
-0.273487349463996,-0.311191096496559
-0.247367994129304,-0.298969114750926
-0.22312590198231,-0.287371197798895
-0.200998566108287,-0.27676156484152
-0.181177293921087,-0.267493935553994
-0.163804692779696,-0.259904487066447
-0.148973134482677,-0.254305021352978
-0.13672421379683,-0.250976480720089
-0.127049196411855,-0.250162943820145
-0.119890432228212,-0.25206622666539
-0.115143691067245,-0.256841202622563
-0.112661360111744,-0.26459194251772
-0.112256425989295,-0.275368761014246
-0.113707149718116,-0.289166238626344
-0.116762330027521,-0.305922270415777
-0.121147040083158,-0.325518172943399
-0.126568714584899,-0.347779860786076
-0.132723458707086,-0.372480083278643
-0.139302447508372,-0.399341691503948
-0.145998284289237,-0.42804188533809
-0.152511188902117,-0.458217370962659
-0.158554892150633,-0.489470341066876
-0.163862120026868,-0.521375173344004
-0.168189561455433,-0.55348572817294
-0.171322225220771,-0.585343113866222
-0.173077105588917,-0.616483777816799
-0.17330609150002,-0.646447774497393
-0.171898070777133,-0.67478705671626
-0.168780198220657,-0.701073634915273
-0.163918314371565,-0.724907450656656
-0.15731651975691,-0.745923814771905
-0.149015927204496,-0.76380026787067
-0.139092631963306,-0.77826273090195
-0.127654955540473,-0.7890908260439
-0.114840034033779,-0.796122263139438
-0.100809834999238,-0.799256203913715
-0.0857466982787672,-0.798455534985977
-0.0698485054959971,-0.793748000866755
-0.053323589925859,-0.785226169327713
-0.0363855030209159,-0.773046223341033
-0.0192477559502597,-0.757425595790066
-0.00211865404338568,-0.73863948493031
0.0148036609472659,-0.717016309710351
0.0313358512720947,-0.692932184138351
0.0473136045442922,-0.666804508512764
0.0625953441648068,-0.639084792165236
0.0770653487582067,-0.610250837062188
0.0906362140543926,-0.580798423893423
0.103250605523846,-0.551232651901268
0.114882266011745,-0.522059090483733
0.125536259278504,-0.493774904405727
0.135248447385953,-0.466860115197183
0.144084216907298,-0.441769158988325
0.152136485623073,-0.418922895672164
0.159523037340359,-0.398701215992941
0.166383247399458,-0.38143638209375
0.172874274993941,-0.367407223427641
0.179166810338377,-0.356834294004279
0.185440474719498,-0.349876079013427
0.191878979347356,-0.34662631928033
0.198665154514228,-0.347112501141573
0.205975963749008,-0.351295537582807
0.213977618353148,-0.359070644268222
0.222820905901741,-0.370269391840948
0.232636842023878,-0.384662894008963
0.243532748125194,-0.401966069870275
0.255588848818035,-0.421842899075458
0.268855471863623,-0.443912570152931
0.283350920632354,-0.467756405979054
0.299060074718238,-0.49292543627006
0.315933758700397,-0.518948475370715
0.333888902454783,-0.545340554731663
0.35280949922996,-0.571611553466344
0.372548350272573,-0.597274867366266
0.392929567487803,-0.6218559567788
0.413751788813301,-0.644900616804562
0.434792045028045,-0.665982819282838
0.455810201950853,-0.684711984877784
0.476553888723236,-0.700739555074355
0.496763811405198,-0.713764747810301
0.516179341690802,-0.72353939653093
0.534544263382628,-0.729871790338784
0.551612554514429,-0.732629452268159
0.567154080793502,-0.731740813164304
0.580960076411827,-0.727195759789694
0.592848291256669,-0.71904505720284
0.602667689093427,-0.7073986667433
0.610302589298461,-0.692423001698518
0.615676155039214,-0.674337182524946
0.618753143236403,-0.65340837196891
0.61954184595702,-0.629946287230744
0.618095168796355,-0.604297001121956
0.614510808996776,-0.576836156703407
0.608930514177458,-0.547961729932024
0.601538421248075,-0.518086482204055
0.592558493972644,-0.487630249237376
0.582251096352886,-0.45701221441279
0.570908757130942,-0.426643313480258
0.558851197895828,-0.396918913473826
0.54641971316021,-0.368211901866913
0.533971005022063,-0.340866312590655
0.521870587338503,-0.315191603734942
0.510485884452929,-0.29145768780372
0.500179157210976,-0.269890799594045
0.49130039410199,-0.250670269436948
0.484180307749033,-0.233926251032275
0.479123576573021,-0.219738433803904
0.476402468263079,-0.208135749985852
0.476250975738318,-0.199097066918322
0.478859587684775,-0.192552835679092
0.48437080464717,-0.188387648582804
0.492875498251517,-0.18644364061453
0.504410195681438,-0.186524653865466
0.518955354320498,-0.188401069817313
0.536434672833827,-0.191815202149934
0.556715465253736,-0.196487132853501
0.579610104238039,-0.202120866993594
0.604878518984371,-0.208410676636953
0.632231712714279,-0.215047502275087
0.66133624459314,-0.221725280606523
0.691819601822633,-0.228147070725284
0.723276369813294,-0.234030856528576
0.75527509217216,-0.239114911364078
0.787365698051576,-0.243162621401288
0.819087362488525,-0.24596667670181
0.84997665596467,-0.247352553209867
0.879575832733343,-0.247181224582106
0.907441103635067,-0.245351059592053
0.933150738247932,-0.241798878425634
0.956312843324513,-0.23650015916218
0.976572669527344,-0.229468403736374
0.993619306405797,-0.220753690327939
1.00719163621819,-0.210440456064041
1.01708343039981,-0.198644569796945
1.02314748796582,-0.1855097692129
