0.818758373994883,0.667648408637813
0.813569364744337,0.657479174237451
0.808381371121169,0.647429848153785
0.803194703907617,0.6374991895041
0.798009673970493,0.627685978719947
0.792826592238065,0.617989016961959
0.787645769677044,0.608407125551902
0.782467517269678,0.598939145421357
0.777292145990933,0.589583936576488
0.772119966785789,0.580340377578358
0.766951290546613,0.571207365038282
0.761786428090646,0.562183813127716
0.756625690137563,0.553268653102202
0.751469387287144,0.544460832838929
0.746317829997016,0.535759316387447
0.7411713285605,0.527163083533115
0.736030193084537,0.518671129372886
0.730894733467698,0.510282463903018
0.72576525937829,0.501996111618342
0.720642080232534,0.493811111122713
0.715525505172837,0.485726514750302
0.710415843046144,0.477741388197385
0.705313402382364,0.469854810164289
0.700218491372895,0.462065872007201
0.695131417849212,0.454373677399524
0.690052489261547,0.446777342002481
0.684982012657646,0.439275993144696
0.679920294661602,0.431868769510468
0.674867641452777,0.424554820836484
0.669824358744792,0.417333307616709
0.664790751764602,0.410203400815209
0.65976712523165,0.403164281586671
0.654753783337098,0.396215141004396
0.649751029723136,0.389355179795531
0.644759167462369,0.382583608083337
0.639778499037289,0.375899645136291
0.634809326319812,0.369302519123805
0.629851950550909,0.362791466878382
0.624906672320303,0.356365733664032
0.619973791546253,0.350024572950741
0.615053607455411,0.343767246194847
0.610146418562765,0.337593022625137
0.605252522651653,0.331501179034509
0.600372216753862,0.325490999577045
0.595505797129807,0.319561775570331
0.590653559248786,0.313712805302893
0.585815797769321,0.307943393846593
0.580992806519574,0.302252852873851
0.576184878477848,0.296640500479566
0.571392305753172,0.291105661007598
0.566615379565958,0.285647664881691
0.561854390228751,0.280265848440711
0.557109627127058,0.27495955377809
0.55238137870026,0.269728128585357
0.547669932422607,0.264570925999643
0.542975574784297,0.259487304455057
0.538298591272644,0.254476627537837
0.533639266353328,0.249538263845157
0.528997883451728,0.244671586847516
0.524374724934352,0.239875974754593
0.519770072090337,0.235150810384493
0.515184205113055,0.230495481036293
0.510617403081795,0.225909378365788
0.50606994394354,0.221391898264374
0.501542104494826,0.216942440740976
0.497034160363702,0.212560409806943
0.492546385991772,0.208245213363834
0.48807905461633,0.203996263094029
0.483632438252592,0.199812974354083
0.479206807676014,0.195694766070757
0.474802432404705,0.191641060639662
0.470419580681939,0.187651283826447
0.466058519458756,0.183724864670468
0.46171951437666,0.179861235390879
0.457402829750413,0.176059831295075
0.453108728550926,0.17232009068945
0.448837472388251,0.168641454792384
0.444589321494662,0.16502336764943
0.440364534707844,0.161465276050633
0.43616336945418,0.157966629449938
0.43198608173213,0.15452687988662
0.427832926095724,0.151145481908712
0.423704155638147,0.147821892498363
0.41960002197543,0.144555570999082
0.415520775230243,0.141345979044837
0.411466664015795,0.138192580490945
0.407437935419833,0.135094841346727
0.403434834988751,0.132052229709875
0.399457606711806,0.129064215702496
0.395506493005433,0.126130271408796
0.391581734697678,0.123249870814355
0.387683571012731,0.120422489746971
0.383812239555574,0.117647605819018
0.379967976296732,0.114924698371306
0.376151015557142,0.112253248418381
0.372361589993125,0.109632738595257
0.368599930581479,0.10706265310553
0.364866266604677,0.104542477670846
0.36116082563618,0.102071699481704
0.357483833525869,0.0996498071495372
0.353835514385583,0.0972762906600764
0.350216090574782,0.0949506413279359
0.346625782686316,0.0926723517524143
0.343064809532321,0.0904409157744737
0.339533388130227,0.0882558284348726
0.33603173368888,0.0861165859334271
0.332560059594796,0.0840226855893733
0.32911857739852,0.081973625802808
0.325707496801115,0.0799689060171811
0.32232702564077,0.0780080266828196
0.318977369879524,0.0760904892214551
0.315658733590123,0.0742157959917377
0.312371318942991,0.0723834502557093
0.309115326193325,0.0705929561462197
0.305890953668325,0.0688438186352583
0.302698397754533,0.0671355435031883
0.299537852885312,0.0654676373088564
0.296409511528442,0.0638396073605633
0.293313564173847,0.0622509616878732
0.29025019932145,0.0607012090142439
0.287219603469157,0.0591898587304609
0.284221961100962,0.057716420868855
0.281257454675194,0.0562804060782876
0.278326264612888,0.0548813255998863
0.27542856928628,0.0535186912435134
0.272564545007449,0.0521920153649513
0.269734366017074,0.0509008108437893
0.266938204473339,0.0496445910619942
0.26417623044096,0.0484228698831523
0.261448611880346,0.0472351616323637
0.258755514636908,0.0460809810767784
0.256097102430483,0.0449598434067566
0.25347353684491,0.0438712642176401
0.250884977317729,0.0428147594921213
0.248331581130032,0.0417898455831952
0.245813503396433,0.0407960391976817
0.243330897055191,0.0398328573803052
0.240883912858463,0.0388998174983183
0.238472699362695,0.0379964372266562
0.236097402919162,0.0371222345336116
0.233758167664634,0.0362767276670158
0.231455135512192,0.0354594351409148
0.229188446142181,0.0346698757227289
0.226958236993307,0.0339075684208848
0.224764643253872,0.033172032472907
0.222607797853152,0.0324627873339598
0.220487831452923,0.0317793526658269
0.21840487243912,0.0311212483263197
0.21635904691365,0.0304879943591023
0.214350478686343,0.0298791109839232
0.212379289267048,0.0292941185872446
0.210445597857878,0.0287325377132571
0.208549521345591,0.0281938890552724
0.20669117429413,0.0276776934474822
0.204870668937297,0.027183471857075
0.20308811517158,0.0267107453767006
0.201343620549129,0.0262590352172739
0.199637290270867,0.0258278627011079
0.197969227179767,0.0254167492553671
0.196339531754261,0.0250252164058336
0.194748302101809,0.0246527857709746
0.193195633952604,0.0242989790563057
0.191681620653444,0.0239633180490388
0.190206353161732,0.0236453246130084
0.188769920039646,0.0233445206838654
0.187372407448443,0.0230604282645337
0.186013899142925,0.0227925694209177
0.184694476466048,0.0225404662778552
0.183414218343686,0.0223036410153079
0.182173201279544,0.0220816158647789
0.180971499350222,0.0218739131059534
0.179809184200437,0.0216800550635518
0.178686325038385,0.0214995641043888
0.17760298863127,0.0213319626346318
0.17655923930097,0.0211767730972489
0.17555513891987,0.0210335179696424
0.174590746906837,0.0209017197614572
0.173666120223354,0.020780901012559
0.172781313369806,0.0206705842911746
0.171936378381917,0.0205702921921869
0.171131364827347,0.0204795473355781
0.170366319802435,0.0203978723650134
0.169641287929101,0.0203247899465592
0.168956311351899,0.0202598227675276
0.16831142973523,0.0202024935354422
0.167706680260704,0.0201523249771166
0.167142097624653,0.0201088398378396
0.166617714035814,0.0200715608806609
0.166133559213146,0.0200400108857698
0.165689660383819,0.0200137126499606
0.165286042281349,0.0199921889861779
0.16492272714389,0.0199749627231357
0.164599734712683,0.0199615567050035
0.164317082230657,0.019951493791152
0.164074784441188,0.0199442968559538
0.16387285358701,0.0199394887886306
0.163711299409288,0.0199365924931417
0.163590129146834,0.019935130888107
0.163509347535493,0.019934626906758
0.163468956807674,0.0199346034969099
0.163468956692039,0.0199345836209497
0.163509344413349,0.0199340902558322
0.163590114692465,0.0199326463930789
0.163711259746498,0.0199297750387723
0.163872769289129,0.0199249992135403
0.164074630531062,0.0199178419525229
0.164316828180656,0.019907826305316
0.164599344444694,0.0198944753358854
0.164922159029314,0.0198773121224444
0.165285249141097,0.0198558597572884
0.165688589488303,0.019829641346581
0.166132152282268,0.0197981800100837
0.166615907238953,0.019760998880824
0.167139821580645,0.0197176211046943
0.167703860037816,0.0196675698399758
0.168307984851132,0.0196103682567807
0.168952155773623,0.0195455395364051
0.169636330072997,0.0194726068705881
0.170360462534112,0.0193910934606679
0.171124505461608,0.0193005225166302
0.171928408682676,0.0192004172560407
0.172772119549999,0.0190903009028564
0.17365558294483,0.0189696966861072
0.17457874128023,0.0188381278384418
0.175541534504458,0.0186951175945321
0.176543900104511,0.0185401891893258
0.177585773109818,0.0183728658561444
0.17866708609608,0.0181926708246163
0.179787769189269,0.0179991273184386
0.180947750069771,0.0177917585529622
0.182146953976683,0.0175700877325893
0.183385303712263,0.0173336380479806
0.184662719646518,0.01708193267306
0.185979119721961,0.0168144947618127
0.187334419458497,0.0165308474448684
0.188728531958472,0.0162305138258602
0.190161367911863,0.0159130169775543
0.191632835601622,0.0155778799377401
0.193142840909161,0.0152246257048743
0.194691287319991,0.0148527772334708
0.196278075929503,0.0144618574292276
0.197903105448898,0.0140513891438832
0.199566272211262,0.0136208951697938
0.201267470177789,0.0131698982342235
0.203006590944147,0.012697920993338
0.20478352374699,0.0122044860258933
0.206598155470612,0.0116891158266125
0.20845037065375,0.0111513327992385
0.210340051496523,0.0105906592492565
0.212267077867524,0.0100066173762758
0.214231327311045,0.0093987292660619
0.216232675054447,0.00876651688220902
0.218270994015674,0.00810950205744462
0.220346154810908,0.0074272064845549
0.222458025762359,0.0067191517069223
0.224606472906198,0.00598485910866444
0.226791360000633,0.00522384990436469
0.229012548534118,0.00443564512838375
0.231269897733704,0.00361976562374178
0.233563264573524,0.00277573203056049
0.235892503783418,0.00190306477405386
0.238257467857695,0.0010012840520571
0.240658007064027,6.99098220817811e-05
0.243093969452481,-0.00089153821211372
0.245565200864683,-0.00188354061445078
0.248071544943123,-0.00290657823096516
0.250612843140581,-0.00396113220476299
0.253188934729698,-0.00504768399150935
0.255799656812669,-0.006166715375463
0.258444844331074,-0.00731870848606931
0.261124330075836,-0.00850414581512522
0.263837944697312,-0.00972351023452894
0.266585516715505,-0.0109772850146287
0.269366872530417,-0.012265953843184
0.272181836432518,-0.0135900008449529
0.275030230613349,-0.0149499106019223
0.277911875176249,-0.016346168174192
0.280826588147206,-0.0177792591215322
0.283774185485832,-0.0192496695256256
0.286754481096469,-0.0207578860130128
0.289767286839409,-0.0223043957787561
0.292812412542239,-0.0238896866108375
0.295889666011312,-0.0255142469153086
0.29899885304333,-0.0271785657422092
0.302139777437057,-0.0288831328122719
0.305312241005142,-0.0306284385444309
0.308516043586066,-0.0324149740841536
0.311750983056203,-0.0342432313326125
0.315016855341997,-0.036113702976719
0.318313454432259,-0.0380268825200347
0.321640572390572,-0.0399832643145858
0.324997999367816,-0.0419833435935954
0.328385523614803,-0.0440276165051589
0.331802931495019,-0.0461165801468813
0.335250007497489,-0.0482507326015014
0.338726534249739,-0.0504305729735212
0.342232292530874,-0.0526566014268684
0.345767061284765,-0.0549293192236115
0.349330617633339,-0.0572492287637549
0.352922736889977,-0.0596168336261362
0.356543192573018,-0.0620326386104532
0.360191756419366,-0.0644971497804461
0.3638681983982,-0.0670108745082608
0.367572286724786,-0.0695743215200213
0.371303787874391,-0.0721880009426404
0.3750624665963,-0.0748524243518949
0.378848085927921,-0.0775681048217983
0.382660407209002,-0.080335556975297
0.386499190095935,-0.0831552970363264
0.390364192576159,-0.0860278428832543
0.394255170982659,-0.0889537141037458
0.398171880008554,-0.0919334320510852
0.402114072721784,-0.0949675199019861
0.406081500579881,-0.0980565027159283
0.410073913444835,-0.101200907496055
0.41409105959805,-0.104401263251673
0.41813268575538,-0.107658101062381
0.42219853708226,-0.110971954143889
0.426288357208918,-0.114343357915543
0.430401888245675,-0.117772850069616
0.434538870798321,-0.121260970642394
0.438699043983579,-0.124808262087119
0.442882145444648,-0.128415269348812
0.447087911366821,-0.132082539941036
0.451316076493192,-0.135810624024654
0.455566374140421,-0.139600074488606
0.459838536214596,-0.143451447032785
0.46413229322715,-0.147365300253039
0.468447374310866,-0.151342195728375
0.472783507235939,-0.155382698110396
0.477140418426122,-0.159487375215049
0.481517832974931,-0.163656798116732
0.485915474661917,-0.167891541244821
0.490333065969014,-0.172192182482677
0.494770328096938,-0.176559303269198
0.499226980981657,-0.180993488702994
0.503702743310923,-0.185495327649222
0.508197332540859,-0.190065412849184
0.512710464912609,-0.194704341032741
0.517241855469041,-0.199412713033615
0.521791218071512,-0.204191133907668
0.526358265416678,-0.209040213054228
0.530942709053366,-0.213960564340534
0.535544259399489,-0.218952806229408
0.540162625759015,-0.224017561910213
0.54479751633898,-0.229155459433197
0.549448638266554,-0.234367131847322
0.554115697606139,-0.239653217341662
0.558798399376526,-0.245014359390457
0.563496447568075,-0.250451206901955
0.568209545159952,-0.255964414371111
0.572937394137389,-0.26155464203627
0.577679695508989,-0.267222556039937
0.582436149324059,-0.27296882859375
0.587206454689981,-0.278794138147768
0.591990309789607,-0.28469916956421
0.596787411898689,-0.290684614295742
0.60159745740333,-0.296751170568474
0.606420141817461,-0.302899543569778
0.611255159800344,-0.309130445641073
0.616102205174092,-0.315444596475717
0.620960970941207,-0.321842723322153
0.62583114930214,-0.32832556119247
0.630712431672859,-0.334893853076517
0.635604508702434,-0.341548350161756
0.64050707029063,-0.348289812059001
0.645419805605511,-0.355119007034236
0.650342403101042,-0.36203671224667
0.655274550534707,-0.369043713993243
0.660215934985119,-0.376140807959747
0.665166242869629,-0.383328799478777
0.67012515996194,-0.390608503794725
0.675092371409704,-0.39798074633601
0.680067561752117,-0.405446362994779
0.685050414937506,-0.413006200414312
0.690040614340895,-0.420661116284351
0.69503784278156,-0.428411979644619
0.700041782540564,-0.436259671196764
0.70505211537827,-0.444205083625009
0.710068522551834,-0.452249121925769
0.71509068483266,-0.460392703746525
0.720118282523842,-0.46863675973424
0.725150995477553,-0.47698223389364
0.730188503112418,-0.485430083955651
0.73523048443083,-0.493981281756334
0.740276618036239,-0.502636813626665
0.745326582150382,-0.511397680793491
0.750380054630475,-0.520264899792044
0.755436712986344,-0.529239502890395
0.76049623439751,-0.538322538526222
0.765558295730201,-0.547515071756332
0.770622573554316,-0.556818184719325
0.77568874416031,-0.566232977111881
0.780756483576012,-0.575760566679097
0.785825467583376,-0.585402089719365
0.790895371735135,-0.595158701604281
0.795965871371393,-0.605031577314113
0.801036641636116,-0.615021911989343
0.806107357493531,-0.625130921498847
0.811177693744437,-0.635359843025308
