0.912495345186458,-0.17938552354017
0.911543313235452,-0.163568343573997
0.904376123554567,-0.147168316768851
0.891109528701643,-0.130484532511926
0.871961481382093,-0.113814994505516
0.847248573185998,-0.0974488453404292
0.817380694274673,-0.0816588695770073
0.782854008818939,-0.0666944468456244
0.744242372508253,-0.0527751159742535
0.702187347610255,-0.0400848971784974
0.657386997304729,-0.0287675022104792
0.610583663840913,-0.018922542424357
0.562550954034926,-0.0106028224036722
0.514080170371609,-0.00381278258465301
0.465966436220391,0.00149187128491237
0.418994769223132,0.00540334044527058
0.373926357659049,0.00805972248758511
0.331485290526383,0.00964185950462707
0.292345983283842,0.0103691123198876
0.257121527839868,0.0104941522529777
0.226353177724892,0.0102968841310306
0.20050115777438,0.0100776341150888
0.179936962507758,0.0101497529493198
0.164937279197333,0.0108317990898012
0.155679640927111,0.0124394765250365
0.15223988233669,0.0152775087312054
0.154591436858546,0.019631632957679
0.162606479740197,0.025760897839475
0.176058886658749,0.0338904421923952
0.194628943945029,0.0442049238552322
0.217909713983726,0.0568427547739805
0.245414928862899,0.0718912824250463
0.276588257389644,0.0893830384699851
0.310813765696601,0.109293153611182
0.347427370303299,0.131538013422072
0.385729065064204,0.155975203951998
0.424995690251359,0.182404768688704
0.464494003319658,0.210571770562922
0.50349380683521,0.240170124678458
0.541280889669503,0.270847639931345
0.577169542839994,0.30221218121953
0.610514421187238,0.333838839097919
0.640721536207075,0.365277971029348
0.667258183508509,0.396063958305953
0.689661630170563,0.425724505701501
0.707546412282343,0.453790297337142
0.720610120666215,0.479804812405531
0.72863758265076,0.503334098531585
0.731503379184342,0.52397629880198
0.729172668940706,0.541370730936548
0.721700323728349,0.555206323684306
0.709228411836308,0.565229226201188
0.691982097301007,0.571249420718527
0.670264052854781,0.573146186973738
0.644447511943741,0.570872288305528
0.614968110153159,0.564456773604776
0.582314688180602,0.5540063159884
0.547019246743516,0.539705037605109
0.509646258164207,0.521812799826403
0.470781549585431,0.500661968631251
0.431020978662142,0.47665269564847
0.390959124063717,0.450246785461318
0.351178210209008,0.421960248795149
0.312237478433804,0.392354668511322
0.274663205432337,0.362027530359753
0.238939554578215,0.331601692681928
0.205500426948607,0.301714188241818
0.174722456950409,0.273004566692462
0.146919272841074,0.246102997529984
0.122337115663118,0.221618360491243
0.101151881724188,0.200126553045603
0.0834676243369899,0.18215924283199
0.0693165206859264,0.168193286604325
0.0586602800155597,0.158641026565928
0.0513929404385257,0.153841660077999
0.0473449741167298,0.154053859884937
0.0462885949281866,0.159449799555197
0.0479441394996897,0.170110713208789
0.0519873721177898,0.186024090274306
0.0580575469217116,0.207082575528027
0.0657660472577207,0.233084612598597
0.074705412386088,0.263736836090496
0.0844585560505851,0.29865818412664
0.0946079798349766,0.33738567008323
0.104744786745591,0.379381720232741
0.11447730699407,0.424042953551742
0.123439158348056,0.470710251688542
0.131296577429753,0.518679941580122
0.137754875659408,0.567215890965457
0.142563893783014,0.615562298508396
0.145522351652167,0.662956945792061
0.146481014651252,0.708644668374497
0.145344624365845,0.751890797613772
0.142072568201061,0.791994324203034
0.136678290117516,0.828300538334105
0.129227471878559,0.860212910071531
0.119835040625586,0.887203986716288
0.108661083667046,0.908825101429588
0.0959057745600959,0.924714708848647
0.0818034354009589,0.93460518845634
0.066615878290868,0.93832798459393
0.0506251838381953,0.935816982697838
0.0341260859899672,0.927110054014807
0.0174181402264584,0.912348735082146
0.000797856047607765,0.891776043001432
-0.0154490253430823,0.865732462320615
-0.0310549311832531,0.834650173504948
-0.045777365900289,0.799045625866719
-0.0594051706347326,0.759510588806682
-0.0717639905042357,0.716701843701933
-0.0827208244495421,0.671329704209334
-0.0921875530781163,0.624145574652482
-0.100123362754509,0.575928774104007
-0.106536008793127,0.527472867420013
-0.111481886465258,0.479571753569347
-0.115064905088309,0.433005765954602
-0.117434187156423,0.388528038963156
-0.118780640730254,0.346851389727098
-0.119332478570203,0.308635954114978
-0.11934978123291,0.274477801521071
-0.119118223047469,0.244898734341089
-0.118942099079972,0.220337455489962
-0.119136807468542,0.20114226136444
-0.12002095451228,0.187565388783313
-0.121908259340532,0.179759113209078
-0.125099440661456,0.177773662569527
-0.129874269857198,0.181556976891625
-0.136483972504512,0.19095630938915
-0.145144154284319,0.205721630273389
-0.156028417313609,0.225510761041129
-0.169262819380153,0.24989613497617
-0.184921311653068,0.278373049689208
-0.203022270519369,0.310369250283222
-0.223526216661455,0.345255657681014
-0.246334789802135,0.382358036238704
-0.271291021208047,0.420969378372118
-0.298180918601281,0.460362771841273
-0.326736350150225,0.499804507786035
-0.356639186275204,0.538567184709059
-0.387526630695617,0.575942565395056
-0.418997646035716,0.611253950181378
-0.450620354947197,0.64386784090739
-0.48194027561582,0.673204685035259
-0.512489231170303,0.698748508537368
-0.541794756324279,0.720055268794317
-0.569389811913393,0.736759784483918
-0.594822609126307,0.748581127748721
-0.617666340381002,0.755326394242672
-0.637528613095434,0.756892798374765
-0.654060386089947,0.753268073563123
-0.666964215997541,0.744529189948155
-0.676001632722685,0.730839434150443
-0.68099947847193,0.712443926672804
-0.681855063894024,0.689663681836852
-0.678540017053531,0.662888342149712
-0.671102725893919,0.632567743201835
-0.659669302039311,0.599202486145468
-0.644443022705488,0.56333371210562
-0.625702237569264,0.525532286215895
-0.603796758083195,0.486387608115162
-0.57914277730705,0.446496270536993
-0.552216398243502,0.406450788008785
-0.523545877307602,0.366828613675892
-0.493702716344641,0.328181653989886
-0.463291760989273,0.291026478645344
-0.432940484626012,0.255835406992945
-0.403287655317968,0.223028632549029
-0.374971597432611,0.192967524580938
-0.348618269997984,0.16594922054955
-0.324829389837359,0.142202595960154
-0.304170829105621,0.121885669472499
-0.287161513925142,0.105084471539081
-0.274263043420024,0.0918133749805314
-0.265870236691373,0.0820168563731983
-0.262302799366001,0.0755726285116533
-0.263798281572796,0.0722960570906444
-0.270506475919198,0.0719457496662045
-0.282485377689868,0.0742301823991182
-0.299698800568419,0.0788152104965477
-0.322015710241884,0.0853322920272172
-0.349211305879287,0.0933872421998893
-0.380969846304298,0.102569326495416
-0.416889184349627,0.112460496380337
-0.456486940036158,0.122644570772455
-0.499208211504059,0.132716169959241
-0.544434692658542,0.142289216187917
-0.591495038869713,0.151004826469829
-0.639676297330927,0.158538438012225
-0.688236197325737,0.164606024777058
-0.736416078108058,0.168969284573413
-0.783454218719187,0.171439699365973
-0.828599325124279,0.171881396627704
-0.871123925739843,0.170212766045629
-0.91033742684313,0.166406813143436
-0.945598584512956,0.160490258839396
-0.976327159566045,0.152541421036274
-1.0020145362496,0.142686940475129
-1.02223310396809,0.131097437732372
-1.03664422371636,0.117982210886908
-1.04500462674233,0.103583103562925
-1.04717112178288,0.0881676903476726
-1.04310351846032,0.0720219406377799
-1.03286570749935,0.0554425324959182
-1.01662487269608,0.0387289948900029
-0.994648844385864,0.0221758596062757
-0.967301638850435,0.00606500312325015
-0.935037262011903,-0.00934164616431906
-0.898391888232002,-0.0238088686621804
-0.857974555446662,-0.0371342277962487
-0.814456545635092,-0.0491533188949223
-0.768559644216262,-0.0597440724823542
-0.721043492912331,-0.068830012913108
-0.672692267516677,-0.0763823966025995
-0.62430092453051,-0.0824211790769994
-0.576661268547679,-0.0870147861497515
-0.530548095422212,-0.0902786911750075
-0.486705664589642,-0.0923728269644587
-0.445834747466169,-0.093497887016452
-0.408580487746716,-0.0938905956395702
-0.375521293881136,-0.0938180498247612
-0.34715896432984,-0.0935712568324422
-0.323910222768266,-0.093458009960103
-0.306099813678004,-0.0937952604420468
-0.293955279248409,-0.0949011555686081
-0.287603506786498,-0.0970869216294739
-0.287069102506782,-0.100648774991648
-0.292274613288361,-0.105860045403441
-0.303042583403163,-0.112963692439649
-0.319099399000114,-0.122165388920368
-0.340080839930176,-0.133627334279035
-0.365539226950198,-0.147462946435732
-0.394952023049273,-0.163732563036022
-0.427731721154572,-0.182440262299552
-0.463236827292993,-0.203531890604063
-0.500783728843618,-0.226894358781325
-0.539659222173092,-0.252356242437357
-0.579133462979983,-0.279689693979914
-0.618473096277616,-0.308613646013491
-0.656954321220733,-0.338798257928825
-0.69387564894133,-0.369870530451757
-0.728570119123887,-0.401420987193895
-0.760416753051003,-0.433011298408523
-0.78885103703262,-0.464182700707283
-0.813374250160622,-0.494465047897549
-0.833561473796656,-0.523386312761752
-0.849068146630712,-0.550482347858577
-0.859635058011185,-0.575306705550038
-0.865091702968768,-0.597440313638357
-0.86535795432786,-0.616500803341061
-0.860444039889609,-0.632151290865687
-0.850448845240957,-0.64410842250566
-0.835556594658029,-0.652149505820583
-0.816031993210253,-0.656118565859565
-0.792213941942134,-0.655931185230072
-0.764507964361077,-0.651578009729876
-0.733377505891089,-0.643126826804469
-0.699334288022961,-0.630723151769193
-0.662927915229938,-0.614589286000815
-0.624734945027943,-0.59502184157848
-0.585347639626907,-0.572387757536178
-0.545362621315444,-0.547118863363769
-0.505369653003736,-0.519705075047195
-0.465940760265419,-0.490686337169976
-0.427619901901785,-0.460643450831328
-0.390913382717461,-0.430187950832064
-0.356281185141786,-0.399951216246327
-0.32412937592248,-0.370573015701073
-0.294803720791428,-0.342689702059095
-0.268584614245572,-0.316922280452168
-0.245683403934145,-0.29386457852621
-0.226240160166867,-0.274071748212764
-0.210322911349556,-0.258049324291231
-0.197928336318443,-0.246243056503654
-0.188983875185975,-0.239029719166837
-0.183351192019492,-0.236709085319302
-0.180830896015286,-0.239497231749511
-0.181168403333389,-0.247521317159441
-0.184060799905193,-0.260815948675603
-0.189164546742535,-0.279321222439949
-0.196103853924235,-0.302882492658099
-0.204479537803304,-0.331251890853849
-0.213878168276984,-0.364091583806585
-0.223881309322591,-0.400978725377156
-0.234074656471448,-0.441412024805659
-0.244056879433169,-0.484819822729377
-0.253447986572132,-0.53056953673607
-0.261897040175602,-0.577978311317235
-0.26908906716116,-0.626324683152396
-0.274751028702124,-0.67486105221581
-0.278656733793211,-0.722826732662422
-0.280630605570331,-0.769461345156238
-0.280550234729293,-0.814018304506467
-0.278347681115701,-0.855778153342375
-0.274009511917324,-0.894061494164808
-0.267575592304638,-0.928241278446316
-0.259136671260181,-0.957754222406666
-0.248830831150608,-0.982111134470175
-0.236838893789303,-1.00090595893306
-0.223378897809741,-1.01382336366958
-0.208699781664023,-1.02064472634733
-0.193074423075606,-1.02125240310162
-0.176792198971971,-1.01563219537695
-0.160151239533647,-1.00387396407638
-0.143450555827949,-0.986170374629058
-0.126982222435717,-0.962813791433581
-0.111023794495655,-0.934191374693907
-0.0958311327338895,-0.900778466272663
-0.0816318004477239,-0.863130383199708
-0.0686191832818913,-0.821872767277842
-0.0569474662563015,-0.777690666250502
-0.0467275832278174,-0.731316545719859
-0.038024232206726,-0.68351745097294
-0.0308540261651978,-0.635081553705717
-0.0251848236762914,-0.586804330027677
-0.0209362574460206,-0.539474622865399
-0.0179814521062512,-0.493860843835752
-0.0161498960905788,-0.450697566793053
-0.0152314065838453,-0.410672757627999
-0.0149811019692621,-0.374415872659738
-0.0151252734199494,-0.342487041354968
-0.0153680267820951,-0.315367528452729
-0.0153985481159082,-0.293451646271546
-0.014898831582998,-0.277040260497634
-0.0135516971154334,-0.266336002630605
-0.0110489177222419,-0.26144027007826
-0.00709927255696195,-0.26235206126534
-0.00143634207851225,-0.268968658699794
0.00617413420155145,-0.281088138385677
0.0159275088505222,-0.298413649946754
0.0279742462195259,-0.320559378979936
0.0424148551484673,-0.347058072119202
0.0592958606356737,-0.377369976648306
0.078606919153826,-0.410893020796023
0.100279158621461,-0.446974038564023
0.124184798461555,-0.484920824490139
0.150138078220663,-0.524014789478229
0.177897495440107,-0.563523978987632
0.207169325440556,-0.602716209640597
0.237612367986628,-0.640872079755437
0.268843839018415,-0.677297613435367
0.300446300335551,-0.711336306536112
0.331975496832168,-0.742380355908519
0.362968950105229,-0.769880870490791
0.421318939101913,-0.80478016064242
0.443152202435163,-0.818814215947739
0.485684464222457,-0.843559016931834
0.473709803289179,-0.827996580888844
0.493621375327915,-0.840160454519086
0.491518167766179,-0.819293547190656
0.527760820442012,-0.763062366498173
0.547265305729554,-0.838485842460111
0.565027264326211,-0.819579013227333
0.560313686881172,-0.781637014904267
0.536115175272251,-0.75212985953229
0.54095887732842,-0.731541605000626
0.526394722336322,-0.676456651441425
0.523887234590906,-0.687806573964277
0.501119987202132,-0.628038663958365
0.499851196038202,-0.609738666314559
0.45741317782352,-0.549898632481489
0.403873859149403,-0.56822990667713
0.403692623296488,-0.469952194931088
0.375607233682964,-0.405916821151613
0.364224537460424,-0.409994943940973
0.291926557975618,-0.355254329144959
0.28767803438068,-0.317913851942298
0.254551262420445,-0.29103535870553
0.225259577320454,-0.265944598288345
0.232506136239662,-0.233401070676307
0.179703445358418,-0.215008972207817
0.150059090614443,-0.220605180675182
0.145800362857463,-0.181410141907325
0.135109885477919,-0.169887536443027
0.129094786129604,-0.161786463661239
0.128034486130517,-0.156952834552508
0.132123261999796,-0.155172868863391
0.141465411021068,-0.15617922105939
0.156072029433292,-0.15965806927546
0.175859481295664,-0.165257004610354
0.200649604342067,-0.1725935436742
0.230171666291293,-0.181264076632202
0.264066051746398,-0.19085305629273
0.301889626647224,-0.200942231175
0.343122694880518,-0.211119726985291
0.38717743073604,-0.220988786472632
0.433407642031598,-0.230175987083377
0.481119692485852,-0.238338768968276
0.52958438881512,-0.245172122419692
0.578049618531373,-0.250414303366524
0.625753508915941,-0.253851467705459
0.671937866452979,-0.255321139522788
0.715861649362761,-0.254714454143054
0.756814223921851,-0.251977143879758
0.794128158051164,-0.247109261790395
0.82719131315539,-0.240163666076203
0.855458007280307,-0.231243314443513
0.878459039099383,-0.220497443201182
0.895810382744631,-0.208116729577656
0.907220387676289,-0.194327557209786
0.912495345186458,-0.17938552354017
