-1.05793348148248,0.368741897888731
-1.00754332140252,0.391734828946393
-1.0057136372546,0.412202804463093
-1.00123851400257,0.395461844830989
-0.996659648548047,0.399017480673208
-0.949727367686388,0.4276261464637
-0.962455553540208,0.392892692442708
-0.962168344797847,0.370059315627783
-0.937219829328321,0.390915685825546
-0.922689345739321,0.360282816944792
-0.912469801305166,0.388735550285242
-0.937899727873303,0.389034561986122
-0.900351171221154,0.412718460884944
-0.891333028179836,0.395140591621318
-0.871142931696966,0.395174894669404
-0.852666587629021,0.382441617977058
-0.841053390316544,0.381044923089536
-0.818601281303094,0.38672977935612
-0.818167043955119,0.37812017751099
-0.806892115983238,0.376593731865654
-0.792304157272308,0.368929454595499
-0.769782187102993,0.391079427220132
-0.762893962856501,0.370079198994758
-0.73813107206022,0.379422370852737
-0.753172269770049,0.350487997869248
-0.741270321146127,0.360677376463552
-0.718281330574197,0.366998911333372
-0.708118230080826,0.334733423633777
-0.701653900731425,0.355241957828126
-0.680016545342521,0.355247134071783
-0.686910164764149,0.344244858418289
-0.641040032175262,0.347024208882863
-0.660065374100735,0.301850528081666
-0.622147402739091,0.342731024576244
-0.634038366839796,0.348206776188595
-0.639100882953519,0.326584422731611
-0.612623967519299,0.331115977381833
-0.585526638325356,0.333808878168748
-0.600592842590817,0.329728355507757
-0.543844597357133,0.335737571672585
-0.559059778688804,0.326844772625472
-0.532090599924494,0.316722376405576
-0.515620516516701,0.375176934124136
-0.533430386412757,0.319666998419253
-0.549538002506515,0.333946494568286
-0.535392006617682,0.305591384487378
-0.50499793922992,0.277192505582826
-0.500463143691975,0.322639018654891
-0.518376669037646,0.273069912728258
-0.528381079626941,0.27943915940135
-0.443944074498936,0.338288177077617
-0.460629371853059,0.286259444835478
-0.499877707365302,0.296823125377105
-0.456715777453106,0.266533082492742
-0.441779378371866,0.25638914451369
-0.438972733922206,0.289165322763778
-0.437044206810891,0.261989236383541
-0.390627897683963,0.253410784177273
-0.417298612144981,0.281176116830966
-0.431093866206977,0.280722596718813
-0.403265388596857,0.2757862377986
-0.407094678909042,0.267840307571947
-0.376179544681887,0.264874599416644
-0.369609469833879,0.26212258777701
-0.370800504348391,0.262092749561126
-0.35603859642769,0.256914827435381
-0.289452639157764,0.252440557725596
-0.339381802202441,0.246762162412067
-0.295025214147083,0.265606005112239
-0.314001725008448,0.237039529145433
-0.317106697296694,0.246086554856177
-0.311689573481857,0.224836811412035
-0.28728820351563,0.222642264285116
-0.291265147958036,0.225776622067447
-0.299580414162282,0.250508548561689
-0.274093630277115,0.225507956085413
-0.264493579978071,0.211671415263819
-0.235023996088811,0.179593232414957
-0.250885170026047,0.18566467848959
-0.26032642645381,0.242676846722005
-0.249983924824089,0.203573005382474
-0.240373525514546,0.214582866715962
-0.171644382311549,0.168564062178179
-0.217124642677552,0.18292815335881
-0.21623316152775,0.183619712338974
-0.207396052442733,0.178069229613501
-0.179489216235096,0.176407477292665
-0.196313921172285,0.151815598492327
-0.207061213274987,0.18427181676366
-0.186448139871679,0.164329174335556
-0.206841338611899,0.158406408513647
-0.205015739378623,0.13388902905769
-0.17464695321062,0.156197704052808
-0.170838534299042,0.153508813380833
-0.162470911951621,0.127637980877775
-0.188833955910377,0.156491913811825
-0.149776321945096,0.144020433748951
-0.137257230815821,0.121830482962927
-0.0906383021065261,0.106281784997887
-0.104384778277754,0.120213693756512
-0.139297348950751,0.129884865103518
-0.160648349480387,0.0670785865444124
-0.129843498626473,0.122275901464507
-0.156943514039405,0.140063739739308
-0.123825172413629,0.117287391541192
-0.0817117603600151,0.108440694997721
-0.0968244375392823,0.0953648625473617
-0.121458330925384,0.0868805815689239
-0.1097486969659,0.105135722134978
-0.0994556001134888,0.0957709972057304
-0.0970131136650545,0.0934828025570836
-0.0644321483628865,0.0875254587511702
-0.0877530510482344,0.0845541553374667
-0.0855632865944928,0.0823800260069668
-0.0988458488216425,0.0666810060605316
-0.0792874675375837,0.0760032246164614
-0.0432868996303639,0.0828041536711312
-0.075343675651077,0.0718772259876098
-0.055027828254894,0.0951955250249192
-0.107630632059397,0.08610581343742
-0.068016120520833,0.0639394558350634
-0.0662982699629986,0.062022667044741
-0.0349053553807694,0.0850378268002231
-0.0614111484601333,0.0564405743441359
-0.0455451591090049,0.0714487049085745
-0.0620792371508324,0.048442374576486
-0.0554996085457017,0.0494039146740363
-0.0541266329267796,0.047719643971704
-0.0405475656384822,0.0318666882636194
-0.0404719847299467,0.0609260308609901
-0.029871423316352,0.0312775317567428
-0.046734417339799,0.0382698218599492
-0.011215298829247,0.0622184851668875
-0.0683789440017947,0.0437768588379608
-0.00760131657816452,0.0133647809411073
-0.0416303041385955,0.0312907497339506
-0.0407190486770835,0.0299965906902297
-0.0493676099388993,0.0339271928797827
-0.051150573627782,0.0209116274069706
-0.0374234372378019,0.0251693849264074
-0.0305946221313592,0.0102414770580205
-0.037889109515683,0.0141660611145062
-0.0619602734961085,0.0137705207765991
-0.0329275496437943,0.0181142354315248
-0.0345690169461986,-0.0200231732237151
-0.0626659960781591,0.0585357925724136
-0.0365064765007832,-0.0123444033221212
-0.059106918284674,0.00624695547515324
-0.0177244916548797,-0.00118566853939063
-0.0299073522344118,0.0129176315827107
-0.0190940416366338,0.0153597684410799
-0.0561638536569821,-0.0132048002689837
-0.0504268848299123,0.0331227100549345
-0.0285601836306676,0.0103965356263018
-0.015904840437784,0.00476387364467898
-0.023382873213666,-0.00813696110604083
-0.0466259768955492,0.0152637580570044
-0.0155035449599456,-0.00595316826191826
-0.0170146323329335,0.010501366722464
0.000618521464442624,0.0127195459641036
-0.00659969571084482,0.0270486114236144
-0.0677619473432941,-0.00385967801527413
0.00185481961326447,0.0259017896753306
-0.0361899438169604,0.0149687706253015
-0.0287626865753658,0.0113991288822327
-0.064615387881951,-0.000534585383311663
-0.0419567354821285,-0.0101460290771968
-0.0306522284206291,0.0170006330044732
-0.027371217999645,0.0487115937088596
-0.0312264632738949,0.0188716078795914
-0.00723646027401355,-0.00674550463955662
-0.04326100191506,-0.00125928682346075
-0.0327932872844669,0.0243879608100231
-0.0315648768556979,-0.00719614722143248
-0.0351952423034729,0.0341558238546814
-0.0359031357755051,0.037391174263741
-0.0458854701201737,0.0638781520313222
-0.0812946871918603,0.0458169907735321
-0.0271241464825429,0.0433727945411827
-0.0383632282932486,0.0502937764159926
-0.00635534821570838,0.0663829367215399
-0.0586286900534982,0.0873487701144529
-0.0345945780220132,0.0404963176278505
-0.0723420316566156,0.055005119296585
-0.0409502579887522,0.0680883650282233
-0.0300964815075925,0.0821754574658772
-0.041802401985927,0.0756105552754076
-0.0423222963548349,0.0808847886520535
-0.0688745711441949,0.101492154823552
-0.0437650704132822,0.100989790845569
-0.0439155249584466,0.104071879445602
-0.0258203230702736,0.159014043552182
-0.043363062485581,0.168616384450699
-0.0431129400464525,0.172708923027157
-0.0368737433309383,0.204556935601994
-0.0247364112208277,0.242109268693722
-0.0364721859688272,0.235641139129667
-0.003393002574975,0.282033882354461
-0.024160806982026,0.251144163268387
-0.0316040368248542,0.286640912639324
-0.060164373665766,0.294191906356487
-0.0206819651315788,0.298917587372886
-0.0463280464161777,0.316897245251595
0.00764992424252651,0.303018694229416
-0.0124497089329215,0.307999807699103
-0.0428473367598428,0.287951586223547
0.0152828883117996,0.333949869914901
-0.0378163822525261,0.321503951228771
-0.0168209165581097,0.382400131630554
-0.0107815753266795,0.353361226132223
0.00602524915703099,0.412497331243769
0.00808181424847135,0.401680502155485
0.0290994110637039,0.457102411273281
-0.010544088273824,0.488359474174432
0.0218548430093156,0.441393969584793
0.0326459628395771,0.483397637580141
0.0376692789210893,0.469494388921784
0.0672668175759223,0.554299042480773
0.0248784761726916,0.502528709424233
0.0650216545828549,0.544854729697086
0.0684579907388924,0.569225821394824
0.0181606682917464,0.592628905857669
0.12166924769473,0.611860967716979
0.135414959473631,0.666694032403417
0.146093773675387,0.716641170888856
0.156442505731494,0.734089261902356
0.221003790418439,0.809691893963036
0.259381340256291,0.860749377910802
0.231600165322254,0.897959742623996
0.253380805422174,0.88145900657406
0.306904054511472,0.9858969315693
0.350039579591878,0.995743452166286
