1.00166250102125,-0.24228886591021
1.00163492463041,-0.242195429924029
1.00160670380431,-0.242100180189646
1.00157782018117,-0.242003072906318
1.00154825478311,-0.241904063010874
1.00151798799246,-0.241803104135527
1.00148699952697,-0.241700148564098
1.00145526841388,-0.241595147186562
1.00142277296299,-0.241488049451864
1.00138949073838,-0.241378803318923
1.00135539852903,-0.241267355205744
1.00132047231801,-0.241153649936564
1.00128468725034,-0.24103763068694
1.00124801759944,-0.240919238926695
1.00121043673197,-0.240798414360629
1.00117191707117,-0.240675094866889
1.00113243005845,-0.240549216432911
1.00109194611328,-0.240420713088813
1.0010504345912,-0.240289516838126
1.00100786373985,-0.240155557585766
1.00096420065302,-0.240018763063092
1.00091941122254,-0.239879058749947
1.00087346008782,-0.23973636779353
1.00082631058312,-0.239590610923967
1.00077792468229,-0.239441706366421
1.00072826294076,-0.239289569749596
1.00067728443494,-0.239134114010457
1.00062494669851,-0.238975249295004
1.00057120565573,-0.238812882854914
1.00051601555152,-0.238646918939855
1.00045932887798,-0.238477258685286
1.00040109629746,-0.238303799995512
1.00034126656172,-0.238126437421795
1.00027978642708,-0.23794506203527
1.00021660056536,-0.23775956129443
1.00015165147033,-0.237569818906926
1.00008487935941,-0.237375714685403
1.00001622207042,-0.237177124397099
0.999945614952995,-0.236973919606898
0.99987299075451,-0.236765967513526
0.99979827950004,-0.236553130778567
0.999721408366133,-0.236335267347934
0.999642301547983,-0.236112230265454
0.999560880119643,-0.23588386747815
0.999477061886862,-0.235650021632848
0.999390761232119,-0.235410529863649
0.999301888951397,-0.235165223569848
0.999210352082209,-0.234913928183795
0.999116053722347,-0.234656462928227
0.999018892838816,-0.234392640562525
0.998918764066349,-0.23412226711735
0.998815557494885,-0.233845141617078
0.998709158445331,-0.23356105578941
0.9985994472329,-0.233269793761513
0.998486298917259,-0.232971131742013
0.998369583038677,-0.232664837688106
0.998249163339295,-0.232350670957044
0.998124897468614,-0.232028381941182
0.997996636672174,-0.231697711685747
0.997864225462402,-0.231358391488432
0.997727501270481,-0.231010142479889
0.997586294078022,-0.230652675184106
0.997440426027269,-0.230285689057651
0.997289711008426,-0.229908872006652
0.997133954222654,-0.229521899880373
0.996972951719122,-0.229124435940139
0.996806489904437,-0.228716130302334
0.996634345022619,-0.228296619354083
0.996456282603684,-0.227865525140202
0.996272056878723,-0.227422454719877
0.996081410159259,-0.226966999491478
0.99588407217846,-0.226498734483812
0.995679759391629,-0.226017217612041
0.995468174233199,-0.225521988896369
0.99524900432726,-0.225012569641536
0.995021921648415,-0.224488461575009
0.99478658162952,-0.223949145941684
0.994542622212633,-0.223394082552774
0.99428966283917,-0.222822708786434
0.994027303375015,-0.222234438537564
0.993755122965964,-0.221628661114063
0.993472678818564,-0.221004740076708
0.993179504900992,-0.220362012019641
0.992875110558245,-0.219699785288329
0.992558979035429,-0.219017338631686
0.992230565902476,-0.218313919784883
0.991889297373092,-0.21758874397921
0.991534568510146,-0.216840992375169
0.991165741309139,-0.2160698104148
0.990782142650689,-0.215274306089077
0.990383062112259,-0.214453548115986
0.989967749628575,-0.213606564024752
0.989535412989334,-0.212732338141457
0.989085215161859,-0.21182980947113
0.988616271425398,-0.210897869471182
0.988127646302636,-0.209935359710885
0.987618350272852,-0.208941069411434
0.987087336249839,-0.207913732860943
0.986533495806351,-0.206852026698592
0.98595565512532,-0.205754567062018
0.985352570656449,-0.204619906591922
0.984722924455029,-0.2034465312878
0.984065319177888,-0.202232857208673
0.983378272709309,-0.200977227012698
0.98266021238747,-0.199677906329609
0.981909468799511,-0.198333079960086
0.981124269110667,-0.196940847896363
0.980302729890006,-0.195499221158717
0.979442849392192,-0.194006117442915
0.978542499251268,-0.192459356574296
0.977599415538819,-0.190856655764883
0.976611189134851,-0.189195624670927
0.97557525535545,-0.187473760249394
0.974488882776621,-0.185688441413428
0.973349161188689,-0.183836923488545
0.972152988610248,-0.18191633247349
0.970897057284788,-0.179923659112257
0.969577838576909,-0.177855752786848
0.968191566678287,-0.175709315244053
0.966734221026364,-0.17348089417386
0.965201507331082,-0.171166876662272
0.963588837096759,-0.168763482547394
0.961891305517556,-0.166266757714757
0.960103667615788,-0.163672567376253
0.958220312482679,-0.160976589386796
0.95623523547104,-0.158174307664291
0.954142008178847,-0.155261005791768
0.951933746051866,-0.152231760896017
0.949603073422378,-0.149081437915036
0.947142085789942,-0.145804684387408
0.944542309139055,-0.142395925920807
0.941794656077861,-0.138849362524673
0.938889378571973,-0.135158966024161
0.935816017038432,-0.131318478809443
0.932563345557321,-0.127321414216892
0.929119312953124,-0.123161058887408
0.92547097949551,-0.118830477502997
0.921604448970507,-0.114322520366449
0.917504795879447,-0.10962983436179
0.913155987535805,-0.104744877915955
0.908540800850953,-0.0996599406761308
0.903640733630963,-0.0943671687235826
0.898435910250365,-0.0888585962648351
0.89290498162831,-0.083126184875973
0.887025019511368,-0.0771618715269461
0.880771405169562,-0.0709576267811351
0.874117712743172,-0.0645055247521143
0.867035587643336,-0.0577978266051889
0.859494620616372,-0.0508270796161714
0.851462218338183,-0.0435862340436254
0.842903471720265,-0.0360687803322018
0.833781023493431,-0.0282689094413229
0.824054937101257,-0.0201816993812924
0.813682569495907,-0.0118033313318665
0.802618451099147,-0.00313133900761486
0.790814176986817,0.00583510479213406
0.7782183142927,0.0150948602698398
0.764776331924445,0.0246444469868603
0.750430559956657,0.0344776200206052
0.735120187529101,0.0445848914651893
0.718781309742364,0.0549529929969184
0.701347035914882,0.0655642756238627
0.682747673640228,0.0763960434249683
0.66291100534552,0.0874198191403005
0.641762676466041,0.0986005409958685
0.619226716858391,0.10989569224389
0.595226219583342,0.121254367695117
0.569684203567627,0.132616285146336
0.542524688717473,0.143910754199977
0.513674013560808,0.155055620665306
0.483062426122364,0.165956211634725
0.450625978088444,0.17650431451892
0.416308749911984,0.186577232812112
0.380065429774576,0.196036972057677
0.341864261617557,0.204729621171829
0.301690366087603,0.212485006551974
0.259549422518653,0.219116708604711
0.215471679363104,0.22442254155017
0.169516234328707,0.228185606342887
0.121775493709205,0.230176031697516
0.0723796833126261,0.230153517591543
0.021501241934412,0.227870787043948
-0.0306411157242868,0.223078033120821
-0.0837789236360925,0.21552841678241
-0.137591373193203,0.204984625578755
-0.191703933365339,0.191226442395349
-0.245688524975447,0.174059197865236
-0.299065585638672,0.153322891973453
-0.351308327767987,0.128901674346648
-0.401849424642094,0.100733275843856
-0.4500902558008,0.0688178959006582
-0.495412703373017,0.0332259821184453
-0.537193320285086,-0.00589569679888424
-0.574819499800518,-0.0483202748080466
-0.607707078888213,-0.0937398369465027
-0.635318625188123,-0.141767700795317
-0.657181510885786,-0.191944164646992
-0.672904788183085,-0.243745736148755
-0.682193867952309,-0.296597607710143
-0.684862076044601,-0.349888893619207
-0.680838321198604,-0.402989915680539
-0.670170344080852,-0.455270645901917
-0.653023307720101,-0.506119308367546
-0.629673806516021,-0.554960121756973
-0.600499681186206,-0.601269232166565
-0.565966298395187,-0.644588034873487
-0.526610159839684,-0.684533295432137
-0.483020828842017,-0.720803730049865
-0.43582219668138,-0.753182964645954
-0.385654060650025,-0.781539034679658
-0.333154865074728,-0.805820791859652
-0.278946285430332,-0.826051734506677
-0.223620137012796,-0.842321869012774
-0.167727885577916,-0.85477824154347
-0.111772846708265,-0.863614759022809
-0.0562049972946537,-0.869061857740235
-0.00141819469380153,-0.871376489688961
0.0522504901371225,-0.870832793957764
0.104519671268535,-0.867713714570047
0.155161143209981,-0.862303726082718
0.203996330941879,-0.854882740244564
0.250892025731329,-0.845721194621386
0.295755698505157,-0.835076268591273
0.338530636408959,-0.823189133012944
0.37919110011634,-0.810283115497904
0.417737653068462,-0.79656265122167
0.454192771548825,-0.782212886980914
0.488596807744636,-0.767399811182347
0.521004347316255,-0.752270792325511
0.551480978492021,-0.736955421363988
0.580100470924287,-0.721566567543655
0.606942348838061,-0.706201571754934
0.632089833615507,-0.690943515277533
0.655628125104088,-0.675862514511206
0.677642987868462,-0.66101700357619
0.698219607657137,-0.646454976408737
0.717441683949033,-0.63221516817145
0.735390726105566,-0.618328162528792
0.752145522998563,-0.604817416739039
0.767781758716597,-0.591700200744378
0.782371749849679,-0.578988449667569
0.795984282753728,-0.566689531509406
0.808684531990894,-0.55480693353686
0.820534043757812,-0.543340871992455
0.831590770509097,-0.532288830458722
0.841909145138169,-0.521646032577188
0.851540184987556,-0.511405854932785
0.860531617633093,-0.501560185839578
0.868928021834639,-0.492099735557094
0.8767709782881,-0.483014303171414
0.884099225869573,-0.474293005025051
0.89094881995305,-0.465924469199967
0.897353290128285,-0.457897000167877
0.903343795264351,-0.450198717335013
0.908949274374488,-0.442817670834433
0.91419659215509,-0.43574193756421
0.919110678410156,-0.428959700138418
0.923714660844726,-0.422459311111937
0.928029990927572,-0.416229344560455
0.932076562694117,-0.410258636843585
0.935872824493101,-0.404536318150733
0.939435883781874,-0.399051836225143
0.942781605151001,-0.393794973479595
0.945924701813985,-0.388755858556032
0.948878820836447,-0.383924973239025
0.951656622404274,-0.379293155507711
0.954269853444995,-0.374851599401021
0.956729415923124,-0.370591852274907
0.959045430130349,-0.366505809946548
0.961227293286781,-0.362585710147551
0.963283733761197,-0.35882412464496
0.965222861207355,-0.355213950334019
0.967052212900794,-0.351748399559315
0.968778796546691,-0.348420989880057
0.970409129814846,-0.34522553346008
0.971949276843068,-0.342156126232962
0.97340488193543,-0.339207136966767
0.97478120066733,-0.336373196330753
0.976083128595102,-0.333649186047516
0.977315227754314,-0.331030228197918
0.978481751117801,-0.328511674732518
0.979586665172127,-0.326089097231629
0.980633670759423,-0.323758276946365
0.981626222320541,-0.321515195144823
0.982567545665117,-0.319356023780666
0.983460654384484,-0.317277116495597
0.984308365014375,-0.315274999962492
0.985113311045979,-0.313346365571973
0.985877955876149,-0.311488061462001
0.986604604780374,-0.309697084887454
0.987295415985467,-0.307970574924524
0.987952410912764,-0.306305805503114
0.988577483656978,-0.304700178759097
0.989172409760612,-0.303151218697316
0.98973885433902,-0.30165656515545
0.990278379606762,-0.300213968058373
0.990792451851856,-0.298821281952272
0.991282447900736,-0.297476460807617
0.991749661113311,-0.296177553079999
0.992195306944349,-0.294922697017909
0.992620528104489,-0.293710116206597
0.993026399351536,-0.292538115337407
0.993413931940212,-0.29140507619213
0.993784077756329,-0.29030945383227
0.994137733159231,-0.289249772983366
0.994475742554503,-0.288224624604853
0.994798901717175,-0.287232662636302
0.99510796088406,-0.286272600911209
0.995403627632392,-0.285343210229857
0.995686569560588,-0.284443315583148
0.995957416785727,-0.28357179351964
0.996216764271176,-0.282727569648383
0.996465173996772,-0.281909616270476
0.996703176983018,-0.281116950132627
0.996931275179824,-0.280348630296299
0.997149943229563,-0.27960375611635
0.997359630113448,-0.27888146532338
0.997560760689527,-0.278180932204301
0.99775373713001,-0.277501365875894
0.997938940265008,-0.276842008646433
0.998116730839275,-0.276202134460679
0.99828745068803,-0.2755810474238
0.99845142383747,-0.274978080400036
0.998608957535202,-0.274392593682103
0.998760343215412,-0.273823973727591
0.998905857403233,-0.27327163195878
0.99904576256246,-0.272735003622512
0.999180307890453,-0.27221354670693
0.999309730063791,-0.271706740912062
0.99943425393797,-0.271214086671413
0.999554093204225,-0.270735104221858
0.999669451006319,-0.270269332719294
0.999780520519943,-0.269816329397648
0.999887485497178,-0.269375668768952
0.999990520778322,-0.268946941862341
1.00008979277318,-0.268529755499949
1.00018545991381,-0.268123731607753
1.00027767308058,-0.267728506559579
1.00036657600316,-0.267343730552534
1.00045230563822,-0.266969067012235
1.00053499252507,-0.266604192026315
1.00061476112089,-0.266248793804739
1.00069173011662,-0.265902572165569
1.00076601273483,-0.265565238044861
1.00083771701067,-0.265236513029489
1.00090694605694,-0.264916128911711
1.00097379831424,-0.264603827264393
1.00103836778715,-0.264299359035844
1.00110074426723,-0.264002484163278
1.00116101354372,-0.263712971203973
1.00121925760262,-0.26343059698324
1.00127555481485,-0.263155146258374
1.00132998011417,-0.262886411397794
1.00138260516548,-0.262624192074617
1.00143349852397,-0.262368294973968
1.00148272578581,-0.262118533513341
1.00153034973074,-0.261874727575389
1.00157643045711,-0.261636703252525
1.00162102550979,-0.261404292602779
1.00166419000131,-0.261177333416344
1.00170597672672,-0.260955668992332
1.00174643627243,-0.260739147925219
1.00178561711944,-0.260527623900533
1.00182356574121,-0.260320955499353
1.00186032669657,-0.260119006011186
1.00189594271781,-0.259921643254841
1.00193045479437,-0.259728739406917
1.00196390225229,-0.259540170837554
1.00199632282958,-0.259355817953111
1.00202775274794,-0.259175565045441
1.00205822678084,-0.258999300147471
1.00208777831822,-0.258826914894785
1.00211643942802,-0.258658304392944
1.0021442409147,-0.258493367090282
1.00217121237487,-0.258332004655919
1.00219738225023,-0.258174121862767
1.00222277787797,-0.258019626475297
1.00224742553869,-0.257868429141859
1.00227135050207,-0.257720443291343
1.00229457707034,-0.257575585033998
1.00231712861971,-0.257433773066219
1.00233902763979,-0.257294928579121
1.00236029577119,-0.257158975170754
1.00238095384138,-0.257025838761772
1.00240102189883,-0.256895447514427
1.00242051924559,-0.256767731754735
1.00243946446838,-0.256642623897673
1.0024578754682,-0.256520058375292
1.00247576948866,-0.256399971567595
1.00249316314294,-0.256282301736089
1.00251007243957,-0.25616698895988
1.00252651280704,-0.256053975074209
1.00254249911733,-0.255943203611324
1.00255804570831,-0.255834619743594
1.0025731664052,-0.255728170228764
1.0025878745411,-0.255623803357269
1.00260218297654,-0.255521468901519
1.00261610411822,-0.255421118067065
1.00262964993694,-0.255322703445587
1.00264283198468,-0.25522617896961
