0.863906744209774,-0.222751524643331
0.863795795607993,-0.222731687633947
0.863465032539764,-0.222658150620782
0.862917613683296,-0.222509927669645
0.862156737695848,-0.222266145208315
0.861185635585994,-0.221906093861742
0.860007563123788,-0.221409279933028
0.858625793305856,-0.22075547641399
0.857043608892307,-0.219924773410188
0.855264295032139,-0.218897627866568
0.853291131993623,-0.217654912481469
0.851127388015861,-0.216177963698518
0.848776312297435,-0.214448628668011
0.846241128137709,-0.212449311071677
0.843525026246011,-0.210163015707245
0.840631158233479,-0.207573391732016
0.837562630301961,-0.204664774467628
0.83432249714386,-0.201422225671403
0.830913756066328,-0.197831572183106
0.827339341352704,-0.193879442859558
0.823602118873495,-0.189553303713374
0.819704880958657,-0.184841491176092
0.815650341542288,-0.179733243410181
0.811441131590242,-0.174218729598714
0.807079794820483,-0.168289077146076
0.802568783725345,-0.161936396727676
0.797910455904149,-0.155153805131491
0.793107070713911,-0.147935445839149
0.788160786245148,-0.140276507299359
0.783073656629015,-0.132173238851599
0.777847629681277,-0.123622964263255
0.772484544887796,-0.114624092848724
0.766986131735474,-0.105176128144383
0.761354008391752,-0.095279674118814
0.755589680735002,-0.0849364389031406
0.749694541737293,-0.0741492360319102
0.743669871200264,-0.0629219831904924
0.737516835843957,-0.0512596984705428
0.731236489747693,-0.0391684941406509
0.724829775141262,-0.0266555679448375
0.718297523543865,-0.0137291919470969
0.711640457247471,-0.000398698945656306
0.704859191140456,0.0133255335139384
0.697954234866596,0.0274321014924376
0.690925995313717,0.0419085953374422
0.683774779425565,0.0567416226459285
0.67650079732968,0.0719168334586839
0.669104165773367,0.0874189476315914
0.661584911859114,0.103231784323845
0.65394297707014,0.119338293538433
0.646178221576075,0.13572058964565
0.638290428808125,0.152359986815947
0.630279310292464,0.16923703628417
0.622144510729985,0.186331565363131
0.613885613309964,0.20362271812055
0.605502145244685,0.221088997629674
0.596993583511506,0.238708309700351
0.588359360788414,0.256458007994044
0.579598871568622,0.27431494042314
0.570711478439377,0.292255496732052
0.561696518509743,0.310255657154946
0.55255330997177,0.328291042042532
0.543281158779145,0.346336962348145
0.533879365427164,0.364368470861451
0.524347231817572,0.382360414076405
0.514684068191652,0.400287484578662
0.504889200114768,0.418124273836481
0.494961975495401,0.435845325278227
0.484901771621676,0.453425187538934
0.474708002198275,0.470838467758011
0.464380124366646,0.48805988481
0.453917645691416,0.505064322350497
0.443320131095999,0.521826881559662
0.432587209730465,0.538322933466483
0.421718581754883,0.554528170737819
0.410714025021536,0.570418658817445
0.399573401639592,0.58597088630177
0.388296664406088,0.601161814440562
0.376883863087357,0.615968925652959
0.365335150535337,0.630370270951229
0.353650788623599,0.644344516167159
0.341831153988255,0.657870986878595
0.329876743559399,0.670929711936566
0.31778817986914,0.683501465496495
0.305566216122801,0.695567807460353
0.293211741020351,0.707111122240101
0.280725783315725,0.718114655756546
0.26810951610221,0.72856255059159
0.255364260812719,0.738439879216016
0.242491490924378,0.747732675219185
0.229492835357517,0.75642796247148
0.216370081559808,0.764513782154914
0.203125178267024,0.771979217602082
0.189760237932563,0.778814416888459
0.176277538818651,0.785010613128096
0.16267952674286,0.790560142427841
0.148968816474356,0.795456459460401
0.135148192775061,0.799694150621903
0.121220611081697,0.803268944744932
0.107189197825486,0.806177721343488
0.0930572503870701,0.808418516371784
0.0788282366850471,0.809990525484332
0.0645057943972988,0.810894104790315
0.050093729815139,0.811130769100837
0.0355960163311017,0.810703187673174
0.021016792562018,0.809615177461767
0.00636036010982731,0.807871693891186
-0.00836881903660212,0.805478819171856
-0.0231661254545944,0.802443748184754
-0.0380267855908672,0.798774771966712
-0.0529458754091829,0.794481258833305
-0.0679183243760476,0.789573633181515
-0.0829389197772983,0.784063352019567
-0.0980023113576842,0.777962879276343
-0.11310301627482,0.771285657947741
-0.128235424358194,0.764046080142136
-0.143393803663215,0.756259455091778
-0.158572306309652,0.74794197520147
-0.173764974593138,0.739110680210231
-0.18896574735784,0.729783419545852
-0.204168466617779,0.719978812956239
-0.219366884413753,0.709716209505288
-0.234554669892246,0.699015645024638
-0.249725416592251,0.687897798116111
-0.264872649925438,0.676383944802813
-0.279989834834648,0.664495911929911
-0.295070383615338,0.652256029418842
-0.310107663884174,0.639687081481248
-0.325095006678675,0.626812256901253
-0.340025714671492,0.613655098496743
-0.354893070482645,0.600239451872103
-0.36969034507281,0.586589413576472
-0.384410806200578,0.572729278782836
-0.399047726926422,0.55868348860435
-0.413594394146029,0.54447657716509
-0.428044117135546,0.530133118542903
-0.442390236091283,0.515677673702365
-0.456626130646397,0.501134737535802
-0.470745228347112,0.486528686130093
-0.484741013071153,0.471883724376443
-0.498607033371126,0.457223834039542
-0.512336910725782,0.442572722401462
-0.525924347682277,0.427953771594355
-0.539363135872757,0.413389988734466
-0.552647163888893,0.398903956968143
-0.565770424998264,0.384517787538499
-0.578727024686842,0.370253072979083
-0.591511188012209,0.356130841538345
-0.604117266752525,0.342171512935982
-0.616539746336726,0.328394855549204
-0.628773252541889,0.314819945123773
-0.640812557944215,0.301465125101255
-0.652652588110608,0.288347968650292
-0.66428842751839,0.275485242485869
-0.675715325191277,0.262892872556582
-0.686928700040381,0.25058591167568
-0.697924145899603,0.238578509167334
-0.708697436245476,0.226883882595064
-0.719244528592198,0.215514291634584
-0.729561568553291,0.204481014148531
-0.739644893562059,0.193794324515626
-0.749491036243736,0.183463474261728
-0.759096727433018,0.173496675035158
-0.76845889883139,0.163901083963349
-0.777574685299485,0.154682791422601
-0.786441426780478,0.145846811247311
-0.795056669851341,0.137397073399558
-0.803418168899578,0.129336419114473
-0.811523886923884,0.121666598531238
-0.819371995957983,0.114388270814013
-0.826960877117721,0.107501006761542
-0.834289120272314,0.101003293898578
-0.841355523341451,0.0948925440367604
-0.848159091220788,0.0891651032870266
-0.854699034339154,0.083816264500169
-0.860974766851597,0.0788402821067103
-0.86698590447319,0.0742303893219133
-0.872732261959291,0.0699788176764423
-0.878213850238719,0.0660768188280015
-0.883430873207045,0.0625146886041646
-0.888383724187968,0.0592817932216303
-0.8930729820714,0.0563665976222617
-0.897499407137657,0.0537566958615428
-0.901663936577757,0.0514388434804861
-0.905567679720528,0.0493989917875976
-0.909211912977842,0.0476223239732283
-0.912598074519877,0.0460932929745455
-0.91572775869293,0.0447956610054421
-0.918602710192796,0.043712540661976
-0.921224818007301,0.0428264375104103
-0.923596109142029,0.042119294061607
-0.925718742143755,0.0415725350324249
-0.927595000436528,0.041167113791895
-0.929227285485724,0.0408835598872941
-0.930618109805753,0.0407020275428209
-0.931770089827442,0.0406023450214031
-0.932685938641364,0.0405640647382289
-0.933368458633685,0.0405665140129174
-0.933820534031258,0.0405888463458066
-0.934045123372925,0.0406100931026659
-0.934045251924073,0.040609215491224
-0.933824004051626,0.0405651567122434
-0.933384515576708,0.0404568941674835
-0.932729966122221,0.0402634916067604
-0.93186357147258,0.0399641510964436
-0.930788575962793,0.0395382646921252
-0.929508244913968,0.0389654656988563
-0.928025857132217,0.0382256794032572
-0.926344697487738,0.0372991731629911
-0.924468049590673,0.0361666057405166
-0.922399188580065,0.0348090757697214
-0.920141374041993,0.0332081692459747
-0.917697843072627,0.0313460059323095
-0.915071803501591,0.0292052845768669
-0.912266427290653,0.0267693268393858
-0.90928484412233,0.0240221198274008
-0.906130135192553,0.0209483571459139
-0.902805327221042,0.0175334783676251
-0.89931338669255,0.0137637068343266
-0.895657214341563,0.00962608570379889
-0.891839639892506,0.00510851216045297
-0.887863417066874,0.000199769712071196
-0.883731218868119,-0.00511044150073325
-0.879445633154442,-0.0108314764512797
-0.875009158509003,-0.0169717190941581
-0.870424200416342,-0.0235385584127567
-0.865693067753129,-0.0305383667017266
-0.860817969600582,-0.0379764801341431
-0.855801012385213,-0.0458571816580162
-0.850644197353743,-0.0541836862616034
-0.845349418387288,-0.0629581286416914
-0.839918460159143,-0.0721815533036361
-0.834352996639657,-0.0818539071165327
-0.828654589950939,-0.0919740343413899
-0.822824689573301,-0.102539674144668
-0.816864631904541,-0.113547460603986
-0.810775640172362,-0.124992925207231
-0.80455882469939,-0.136870501840741
-0.798215183519479,-0.149173534256659
-0.791745603343143,-0.161894286004035
-0.785150860869173,-0.175023952802721
-0.778431624438703,-0.188552677333677
-0.771588456027189,-0.202469566413877
-0.76462181356899,-0.216762710518688
-0.757532053608479,-0.231419205609359
-0.750319434270866,-0.246425177218065
-0.742984118545152,-0.261765806737961
-0.735526177870944,-0.277425359860722
-0.727945596020154,-0.293387217099266
-0.720242273263895,-0.309633906328681
-0.712416030814279,-0.326147137273899
-0.704466615530142,-0.342907837868233
-0.69639370487513,-0.359896192402795
-0.688196912115998,-0.377091681382736
-0.679875791748412,-0.394473123002459
-0.671429845137008,-0.41201871614833
-0.662858526355982,-0.429706084833989
-0.654161248215991,-0.447512323970152
-0.645337388462744,-0.465414046367797
-0.636386296132218,-0.483387430870883
-0.627307298047104,-0.501408271512199
-0.618099705438724,-0.519452027583641
-0.608762820678382,-0.537493874510181
-0.599295944101836,-0.555508755414962
-0.589698380910352,-0.573471433261416
-0.579969448131632,-0.591356543456976
-0.570108481623726,-0.609138646801938
-0.560114843104945,-0.626792282666218
-0.549987927192722,-0.644292022276244
-0.539727168434308,-0.661612521993936
-0.529332048312218,-0.678728576469776
-0.518802102207359,-0.695615171552176
-0.50813692630288,-0.712247536835924
-0.497336184411866,-0.728601197733265
-0.486399614712182,-0.744652026952201
-0.475327036371948,-0.760376295267955
-0.464118356049375,-0.77575072147502
-0.452773574250927,-0.790752521409122
-0.441292791532118,-0.805359455930394
-0.429676214525551,-0.819549877761437
-0.417924161781214,-0.833302777076415
-0.406037069404422,-0.846597825740146
-0.394015496477267,-0.859415420099128
-0.381860130249876,-0.871736722229651
-0.369571791088318,-0.883543699551568
-0.357151437166479,-0.894819162719944
-0.344600168889862,-0.905546801710605
-0.331919233039774,-0.915711220019628
-0.319110026627035,-0.925297966901008
-0.306174100444968,-0.934293567571092
-0.293113162312078,-0.942685551312885
-0.279929079995518,-0.950462477418007
-0.266623883807172,-0.957613958908881
-0.253199768864853,-0.964130683988661
-0.239659097011915,-0.970004435171472
-0.226004398389286,-0.975228106050684
-0.212238372654725,-0.979795715668186
-0.198363889844877,-0.983702420452971
-0.184383990876503,-0.986944523702738
-0.170301887684042,-0.989519482587684
-0.156120962991488,-0.991425912661169
-0.141844769717373,-0.99266358986747
-0.127477030012452,-0.993233450042425
-0.113021633930518,-0.993137585908316
-0.0984826377335791,-0.992379241569924
-0.0838642618334396,-0.990962804524262
-0.0691708883725663,-0.988893795201982
-0.0544070584478734,-0.986178854063961
-0.0395774689819095,-0.982825726282022
-0.024686969246678,-0.978843244038072
-0.00974055704611403,-0.974241306481277
0.00525662543600082,-0.969030857388076
0.0202992961151517,-0.963223860574936
0.0353820378039847,-0.956833273118773
0.0504993033199925,-0.949873016444787
0.0656454208933369,-0.942357945346262
0.0808145998644621,-0.934303815005403
0.096000936660522,-0.925727246088775
0.111198421038992,-0.916645687995179
0.126400942586264,-0.907077380337862
0.141602297458434,-0.897041312746929
0.156796195350948,-0.886557183081522
0.171976266683261,-0.875645354144858
0.187136069984182,-0.86432680899856
0.202269099463104,-0.85262310497579
0.217368792751925,-0.840556326495611
0.232428538802061,-0.828149036783619
0.247441685920596,-0.81542422860634
0.262401549929315,-0.802405274129061
0.277301422430058,-0.789115874008669
0.292134579159611,-0.775580005834808
0.306894288417126,-0.761821872034065
0.321573819546898,-0.747865847353073
0.336166451459184,-0.733736426037361
0.350665481171681,-0.719458168823418
0.365064232354187,-0.705055649861845
0.37935606385897,-0.690553403689609
0.393534378219399,-0.675975872369264
0.407592630099434,-0.661347352912636
0.421524334676674,-0.646691945105799
0.435323075941812,-0.632033499851248
0.448982514897483,-0.617395568142049
0.462496397639767,-0.602801350781215
0.475858563305763,-0.588273648958023
0.489062951871052,-0.573834815790899
0.502103611781074,-0.559506708944439
0.514974707400872,-0.545310644425678
0.527670526268036,-0.531267351662036
0.540185486134065,-0.517396929960573
0.552514141779885,-0.503718806444979
0.564651191591674,-0.490251695563527
0.576591483883745,-0.477013560257584
0.588330022955707,-0.464021574876631
0.599861974871763,-0.451292089921792
0.611182672950562,-0.438840598695778
0.622287622954681,-0.426681705932896
0.63317250796945,-0.414829098478315
0.643833192961497,-0.403295518081219
0.654265729008129,-0.392092736361713
0.664466357189308,-0.381231532006517
0.674431512134813,-0.37072167024345
0.684157825219806,-0.360571884639665
0.693642127402922,-0.350789861263318
0.70288145170165,-0.341382225243143
0.711873035300662,-0.33235452975499
0.720614321289489,-0.323711247458955
0.729102960026752,-0.315455764405291
0.737336810129014,-0.307590376421689
0.745313939083061,-0.300116287989072
0.753032623481314,-0.293033613607349
0.760491348880829,-0.286341381647145
0.767688809287217,-0.280037540677841
0.774623906265569,-0.274118968256803
0.781295747681342,-0.268581482159131
0.787703646074921,-0.263419854021813
0.79384711667438,-0.258627825370775
0.799725875051755,-0.254198125993981
0.805339834428907,-0.250122494618484
0.810689102639811,-0.246391701844201
0.815773978756845,-0.242995575282108
0.820594949389401,-0.239923026839643
0.825152684663805,-0.237162082091288
0.829448033894268,-0.234699911667651
0.833482020955215,-0.232522864591854
0.837255839366002,-0.230616503487654
0.840770847099635,-0.228965641579578
0.844028561127714,-0.227554381401308
0.847030651714364,-0.226366155124759
0.849778936472466,-0.225383766418647
0.852275374195996,-0.224589433741934
0.854522058482769,-0.223964834974329
0.856521211162303,-0.223491153283023
0.858275175543945,-0.223149124122083
0.859786409500776,-0.222919083258375
0.861057478405128,-0.222781015715623
0.862091047931895,-0.22271460552611
0.86288987674603,-0.222699286177762
0.863456809090919,-0.22271429164277
0.863794767294444,-0.22273870787262
0.863906744209774,-0.222751524643331
