0.367773395648198,-0.319683310175561
0.367381775439591,-0.319492234781105
0.366224295178816,-0.318886807480838
0.364329966611749,-0.317820436162054
0.361731571736555,-0.316249047179828
0.358465454459509,-0.314131371016318
0.354571290378869,-0.311429210645584
0.350091836124508,-0.308107690937931
0.345072659807659,-0.304135487555241
0.339561854252123,-0.299485033915831
0.333609734784929,-0.294132704943232
0.327268523460058,-0.288058976457131
0.320592021672862,-0.281248559215618
0.313635273194671,-0.273690506774946
0.306454219716429,-0.265378296495211
0.299105351036519,-0.256309883186759
0.291645352061109,-0.246487725061639
0.284130748805022,-0.235918781825987
0.276617555587295,-0.22461448492188
0.269160925608122,-0.212590680099721
0.261814807072884,-0.199867542673667
0.254631606994529,-0.186469465981878
0.247661864757962,-0.172424923739361
0.240953937469533,-0.157766307132968
0.234553699041654,-0.142529737664596
0.228504254877424,-0.126754856898897
0.222845673923394,-0.110484594414911
0.217614739750976,-0.0937649153960929
0.212844722209002,-0.0766445494193565
0.208565171062451,-0.0591747021202513
0.204801732896059,-0.0414087515175049
0.201575992417319,-0.0234019308752002
0.198905339142161,-0.00521100006428728
0.196802860289241,0.0131060925436169
0.195277260546333,0.0314905555585173
0.194332809205776,0.0498831052930865
0.193969314996254,0.0682243195526748
0.194182128766547,0.0864549923054676
0.19496217400426,0.104516487038517
0.196296004999981,0.122351086613509
0.198165892296021,0.139902337457809
0.200549934889718,0.157115385961428
0.203422198495496,0.173937304998811
0.206752879008334,0.190317408555582
0.210508490155094,0.206207552514
0.214652074170242,0.221562419736713
0.219143434189754,0.236339787685602
0.223939386922412,0.250500776920781
0.228994034031967,0.264010078943213
0.234259050547675,0.276836161972434
0.239683988515144,0.288951453387533
0.24521659400495,0.300332497704175
0.250803135513649,0.310960089111959
0.256388741721196,0.320819377754073
0.261917746510727,0.32989994909386
0.26733403911164,0.33819587587964
0.272581417195089,0.345705742388943
0.277603940732692,0.352432640805002
0.282346284424443,0.358384139751042
0.286754086510675,0.363572225180384
0.290774291805226,0.368013213991659
0.294355486822783,0.371727640907387
0.297448224922261,0.37474011931984
0.300005339449923,0.377079176969374
0.30198224294025,0.378777067476347
0.303337210518915,0.379869558897309
0.304031645750048,0.380395700618506
0.304030327278722,0.380397570033938
0.303301634738557,0.379920000580424
0.301817752522731,0.379010292817642
0.299554850153866,0.377717910346109
0.296493238133159,0.376094162450012
0.292617498301052,0.374191875434004
0.287916587899631,0.372065054693115
0.282383916689825,0.369768539612304
0.276017396643419,0.36735765343659
0.268819463899785,0.364887850283801
0.260797072849033,0.362414361489697
0.251961662375979,0.359991843479262
0.242329094471775,0.35767402934853
0.231919565591213,0.355513386318236
0.220757491302589,0.353560781184178
0.208871364942413,0.351865155839608
0.196293591148333,0.350473214882477
0.183060295299227,0.349429127245489
0.169211110040702,0.348774243699956
0.154788940216165,0.348546831986056
0.139839707657396,0.348781831212859
0.124412077413364,0.349510627051993
0.108557167110926,0.350760849120011
0.092328241245621,0.352556191806906
0.0757803922940561,0.354916259662989
0.0589702106210328,0.357856438304044
0.0419554452239651,0.361387791636581
0.0247946574138748,0.365516986041852
0.00754686957599177,0.370246241990183
-0.00972878881654876,0.375573313387216
-0.0269734357454346,0.381491494781725
-0.0441287895524227,0.387989656392022
-0.0611375180233756,0.395052306735532
-0.0779435814910592,0.402659682475036
-0.0944925678337594,0.410787864926398
-0.11073201729701,0.419408922507348
-0.126611735128818,0.428491078246074
-0.142084090094285,0.437998901313111
-0.157104297023067,0.447893521391041
-0.171630681642039,0.458132864555025
-0.185624926055352,0.468671909203802
-0.19905229335397,0.479462960456536
-0.211881829966134,0.490455941316399
-0.224086544498133,0.501598698797859
-0.235643561960446,0.512837323121853
-0.246534252426867,0.524116478002012
-0.256744333332642,0.535379739976336
-0.266263944781013,0.546569944682599
-0.275087697394826,0.557629537932711
-0.283214692419982,0.568500929411458
-0.290648513959456,0.57912684680875
-0.297397193389325,0.589450688191727
-0.303473146180587,0.599416870433981
-0.308893081521591,0.608971171543494
-0.313677885304398,0.618061064768654
-0.317852477203462,0.626636042412601
-0.321445642735576,0.634647927349891
-0.324489841345012,0.642051170315577
-0.327020991706397,0.648803131124949
-0.329078235578985,0.654864342081661
-0.330703681678928,0.660198751942313
-0.331942131159951,0.664773948925948
-0.332840786406791,0.668561361386751
-0.333448944949163,0.671536434906554
-0.333817680396234,0.673678784709832
-0.33399951237196,0.674972322456709
-0.334048067499859,0.675405356628237
-0.334017733541193,0.67497066588172
-0.333963308832981,0.673665544921376
-0.333939649201382,0.67149182259979
-0.33400131454162,0.668455852137695
-0.334202217257685,0.664568473522279
-0.33459527474352,0.659844948316573
-0.335232068062338,0.65430486728338
-0.336162508942321,0.647972031395571
-0.337434517155404,0.640874306969455
-0.339093710281489,0.633043455818205
-0.341183107783707,0.624514941477051
-0.34374285123163,0.615327712700171
-0.346809942409292,0.605523965569982
-0.35041800093402,0.595148885692022
-0.3545970428912,0.584250372071919
-0.359373281859837,0.572878744384447
-0.364768953565024,0.561086435447489
-0.370802165247039,0.548927670805343
-0.377486770683588,0.53645813740568
-0.384832271642772,0.523734643421924
-0.392843746380536,0.510814771327708
-0.401521805628797,0.497756526371754
-0.410862576350055,0.484617982630038
-0.420857713362251,0.471456928827032
-0.431494438764903,0.458330516119183
-0.442755608925261,0.445294910021629
-0.454619808612469,0.432404948633382
-0.467061471699423,0.419713809277167
-0.480051027687407,0.407272685617907
-0.493555073148569,0.395130477258866
-0.507536567026825,0.383333493737109
-0.521955048589982,0.371925174750666
-0.536766876685439,0.360945828349165
-0.551925488819824,0.35043238870835
-0.567381678460051,0.340418194987505
-0.583083888840347,0.330932792638135
-0.598978521457493,0.322001758393089
-0.615010257345489,0.313646550018524
-0.631122389141615,0.305884381757678
-0.647257161888993,0.298728126236112
-0.663356120466548,0.292186243434149
-0.679360461496217,0.286262737164426
-0.695211387549419,0.280957139322048
-0.710850461460582,0.276264522002669
-0.726219958554761,0.272175537411146
-0.741263214609326,0.268676485311141
-0.755924967396037,0.265749407595383
-0.770151689689638,0.263372209388206
-0.783891911681845,0.261518805927544
-0.797096530805307,0.260159294313777
-0.809719107050018,0.259260149058745
-0.82171614194455,0.258784440220683
-0.833047339475638,0.258692072770898
-0.843675847331536,0.258940045706385
-0.853568476976414,0.259482729300215
-0.862695901194225,0.260272158769091
-0.871032827880011,0.261258342535731
-0.878558149003753,0.262389583173245
-0.885255063825683,0.263612809040105
-0.891111175601445,0.264873914547977
-0.896118561179745,0.266118106951224
-0.90027381306302,0.267290257506398
-0.903578053672264,0.268335254822972
-0.90603692172931,0.269198358212938
-0.907660530842613,0.269825548846886
-0.908463400554727,0.270163876537731
-0.908464360280318,0.270161800000353
-0.907686426731421,0.269769518475778
-0.906156655590919,0.26893929266204
-0.903905968354733,0.267625752960086
-0.900968955417018,0.265786193121671
-0.897383656619812,0.263380847476611
-0.893191320628196,0.26037315001851
-0.888436144623137,0.256729973740436
-0.883164995926133,0.252421848734403
-0.877427117281654,0.247423157700078
-0.871273817624607,0.241712307648086
-0.864758150249918,0.235271876730777
-0.857934580379352,0.228088735287423
-0.850858644186326,0.220154140350576
-0.843586601392361,0.211463803024726
-0.836175083588574,0.202017928316508
-0.828680740462091,0.191821227166345
-0.821159886120129,0.180882900603718
-0.813668147703914,0.169216596120886
-0.80626011847029,0.156840336532092
-0.798989017491187,0.143776421755716
-0.791906358080033,0.130051304124624
-0.785061627000089,0.11569543799398
-0.778501976442787,0.100743104575044
-0.772271930685028,0.0852322130769601
-0.766413109243334,0.0692040793853632
-0.760963968240516,0.0527031836458016
-0.7559595615876,0.0357769082506739
-0.751431323460912,0.018475257849817
-0.747406873422245,0.000850563116258793
-0.743909845389651,-0.0170428299007047
-0.740959741518572,-0.0351488829136151
-0.738571811898622,-0.0534101990272867
-0.736756960811323,-0.0717683647976662
-0.735521680129448,-0.0901642986030075
-0.734868010270413,-0.108538603172131
-0.734793528945373,-0.126831920088768
-0.735291367773381,-0.144985284078751
-0.736350256657273,-0.16294047488814
-0.737954595645864,-0.180640364575306
-0.740084553836667,-0.198029258068392
-0.742716194705765,-0.215053224881307
-0.745821627087641,-0.231660419936154
-0.749369180868795,-0.247801391507532
-0.753323606305807,-0.263429374383873
-0.757646295732033,-0.278500566432627
-0.76229552627839,-0.292974386858885
-0.767226722103376,-0.306813714560462
-0.772392734506589,-0.319985105105789
-0.777744138189092,-0.332458984993377
-0.783229541823925,-0.344209821992409
-0.78879591101129,-0.355216270512161
-0.794388901616196,-0.365461291102715
-0.799953201421938,-0.374932243349651
-0.805432877981211,-0.383620951590265
-0.810771730508221,-0.391523743047261
-0.815913643630055,-0.398641458146719
-0.82080294080401,-0.4049794329595
-0.82538473520959,-0.410547453877943
-0.829605275939505,-0.41535968481174
-0.833412287343056,-0.419434567357098
-0.836755299417691,-0.422794694560786
-0.839585967199936,-0.425466659064195
-0.841858377175026,-0.42748087657132
-0.843529338804922,-0.428871385737397
-0.844558659366609,-0.429675625721035
-0.844909400395909,-0.429934192781044
-0.844548114145968,-0.429690577428984
-0.843445058593404,-0.428990883768906
-0.841574389657937,-0.427883532766104
-0.838914329442506,-0.426418951286235
-0.835447309449394,-0.424649248834329
-0.831160087882919,-0.422627883999357
-0.82604384030974,-0.420409322673817
-0.820094223112908,-0.418048690168697
-0.813311409344289,-0.415601419381991
-0.80570009675101,-0.413122897203341
-0.797269487923921,-0.410668111348288
-0.788033242688802,-0.408291299812921
-0.77800940303295,-0.406045605123404
-0.767220291029979,-0.403982735525179
-0.755692380392889,-0.402152635213527
-0.743456142448842,-0.400603165651176
-0.730545867487567,-0.39937979994987
-0.716999462587826,-0.398525332211831
-0.702858227172104,-0.398079603634327
-0.688166607677682,-0.398079247076625
-0.672971932861563,-0.398557451674198
-0.657324131376736,-0.399543748960761
-0.641275433367048,-0.401063821825438
-0.624880057926973,-0.403139337490804
-0.608193888360091,-0.405787805548655
-0.591274137245704,-0.409022461935087
-0.574179003386077,-0.412852179565657
-0.556967322757148,-0.417281406186179
-0.539698215622613,-0.422310129826024
-0.522430731995059,-0.427933872069729
-0.505223497638063,-0.434143709190277
-0.488134362799749,-0.440926321014747
-0.471220055851372,-0.44826406722115
-0.454535843974079,-0.456135090595235
-0.438135202993295,-0.464513446608959
-0.422069498403477,-0.473369258519178
-0.406387679556625,-0.482668897026924
-0.391135988906341,-0.492375183385409
-0.376357688105935,-0.502447614699555
-0.362092802654598,-0.51284261002229
-0.348377886670739,-0.523513775723944
-0.335245809246849,-0.534412188491605
-0.322725563706485,-0.545486694205998
-0.310842100942083,-0.556684220845038
-0.29961618786305,-0.567950103476227
-0.289064291827998,-0.579228419325111
-0.279198491773945,-0.590462330844531
-0.270026416589899,-0.601594434659788
-0.261551211113399,-0.612567114228346
-0.253771529957406,-0.623322894029679
-0.246681559202501,-0.633804793091289
-0.240271065816669,-0.64395667566101
-0.234525474493128,-0.653723596853339
-0.229425971426761,-0.663052141128612
-0.224949634382796,-0.671890751508223
-0.221069588248434,-0.680190047486403
-0.217755185100251,-0.687903129669101
-0.21497220766826,-0.694985869252655
-0.212683094932562,-0.701397180548857
-0.21084718845135,-0.707099274868004
-0.209420997890608,-0.71205789418698
-0.208358484106811,-0.716242523154605
-0.207611358025229,-0.719626578120714
-0.207129393458509,-0.722187572017654
-0.206860751923873,-0.723907254072563
-0.206752317442891,-0.724771723484606
-0.206750039245974,-0.724771516362659
-0.206799280254705,-0.723901665384571
-0.206845169179382,-0.722161731808051
-0.206832954046703,-0.719555809634564
-0.206708354963711,-0.71609250190005
-0.20641791392881,-0.711784869238982
-0.205909339519005,-0.706650351039993
-0.205131844314258,-0.700710659681109
-0.204036472964856,-0.693991648499362
-0.202576418865701,-0.686523154312248
-0.200707327471995,-0.678338815466151
-0.198387584373631,-0.669475866538407
-0.195578586339992,-0.659974910964321
-0.192244993652457,-0.64987967299718
-0.188354962157798,-0.639236730537273
-0.183880353601409,-0.628095230484485
-0.178796922933812,-0.616506588377191
-0.173084481426668,-0.604524174177576
-0.166727034584358,-0.59220298614921
-0.159712893993444,-0.579599314846518
-0.15203476241378,-0.566770399296944
-0.1436897915809,-0.553774077504986
-0.134679612358406,-0.540668433442359
-0.125010337050404,-0.527511442710319
-0.114692533856598,-0.514360619068318
-0.103741173625269,-0.501272664017774
-0.0921755492310196,-0.488303121610751
-0.0800191680738447,-0.475506040620893
-0.0672996183626507,-0.462933646168369
-0.0540484100087758,-0.450636022831843
-0.0403007911124831,-0.438660811209388
-0.0260955411765755,-0.427052919806776
-0.011474742325572,-0.415854254036613
0.00351647005481243,-0.405103464005738
0.0188301757156381,-0.394835712651759
0.0344159553198532,-0.385082465663585
0.0502211918266214,-0.375871304485674
0.0661913856200954,-0.367225763562728
0.0822704814327697,-0.359165192831268
0.0984012050403323,-0.351704646308087
0.114525407644449,-0.344854797463778
0.130584415812166,-0.338621881903597
0.146519384806205,-0.333007667708612
0.162271653119357,-0.328009453618694
0.177783096018682,-0.323620095066347
0.192996475911331,-0.319828057897753
0.207855787363462,-0.31661749944582
0.22230659463682,-0.313968376450505
0.236296359653845,-0.311856579155289
0.249774758361505,-0.310254090746449
0.262693983535811,-0.30912917114471
0.275009032153045,-0.308446564007935
0.286677975549213,-0.308167725659634
0.297662210695959,-0.308251074522211
0.307926691038039,-0.308652259506757
0.317440135464113,-0.309324445693708
0.326175214118061,-0.31021861553154
0.334108709901451,-0.311283883684446
0.341221654668417,-0.312467823575374
0.34749943927092,-0.313716803598289
0.352931896774414,-0.314976330913582
0.357513358330072,-0.31619140069353
0.361242681359157,-0.317306848650925
0.36412324987662,-0.318267704663603
0.366162946953585,-0.319019545300803
0.367374099490999,-0.319508843064043
0.367773395648198,-0.319683310175561
