0.888842975206611,0.0359651467994758
0.888038887261528,0.0359904780832375
0.885635187783641,0.0361674204844545
0.881657466181968,0.0366457070952322
0.876148027186205,0.0375713377630008
0.869165378807358,0.0390847692064051
0.860783524205058,0.0413191724452835
0.851091066056836,0.0443987787065043
0.840190134300432,0.0484373338934409
0.828195150264077,0.0535366803890382
0.815231442185593,0.0597854834167534
0.801433728924929,0.0672581174289021
0.786944490274552,0.0760137260494024
0.771912243648532,0.0860954669911793
0.756489748067454,0.0975299511231204
0.74083215723864,0.110326882504743
0.725095144148984,0.12447890376722
0.70943301993331,0.139961648726772
0.693996869850551,0.156734001600851
0.678932728992185,0.174738559689672
0.664379819864992,0.193902293915769
0.650468873238916,0.214137399212526
0.637320552640003,0.235342324448066
0.6250440016101,0.257402969391505
0.61373553136466,0.280194034200907
0.603477464775594,0.303580505060774
0.594337150708431,0.32741925794422
0.586366160674994,0.351560761041027
0.579599677549648,0.375850855195082
0.574056083765609,0.400132590747677
0.569736753986277,0.42424809849844
0.566626054764355,0.448040472081435
0.564691551188845,0.471355638915354
0.563884418007308,0.494044197025357
0.564140050228632,0.515963195448303
0.565378865789932,0.5369778366179
0.567507290539754,0.556963080073248
0.570418913576499,0.575805128032014
0.573995798912998,0.593402774803383
0.578109937540454,0.60966860366866
0.582624822260583,0.62453001670885
0.587397126164423,0.637930085086277
0.592278464378029,0.649828209466638
0.5971172176844,0.660200582572463
0.601760395879791,0.669040448260711
0.606055518240083,0.676358153987069
0.609852488265132,0.682180996027436
0.6130054399383,0.686552859342626
0.615374533084078,0.689533656464986
0.616827676024442,0.691198572225132
0.617242154616989,0.691637123493741
0.616506147894178,0.69095204535871
0.61452011189941,0.689258017264731
0.61119801491549,0.686680244584865
0.606468409084788,0.683352912848451
0.600275325406321,0.679417533395375
0.592578981238825,0.675021200544532
0.58335629171472,0.670314781438309
0.572601178850021,0.665451060542054
0.560324674590857,0.660582861327763
0.546554816538504,0.655861167948097
0.531336337611323,0.651433269706831
0.514730153403263,0.647440950854989
0.496812653454163,0.644018747691634
0.477674805027265,0.641292294131149
0.45742108026517,0.639376775824885
0.436168219739317,0.638375511607205
0.414043847393973,0.638378679490308
0.391184953689491,0.639462202677442
0.367736265349408,0.641686809121601
0.343848521492353,0.645097276050053
0.319676677066029,0.649721868629706
0.295378055382909,0.655571979591548
0.271110472175065,0.662641974192932
0.247030353931186,0.670909242403797
0.223290873348196,0.68033445768738
0.200040124522073,0.690862039238054
0.177419360020019,0.702420812069109
0.155561311224926,0.714924856941517
0.134588612332213,0.728274539820181
0.114612347120852,0.742357708364808
0.0957307361300458,0.757051040934835
0.0780279801686208,0.772221531736375
0.0615732741865044,0.787728094086461
0.0464200034696263,0.803423262335892
0.0326051319063945,0.819154971794316
0.020148789742364,0.834768395054159
0.00905406581815615,0.850107812425298
-0.000692993196491187,0.865018493778135
-0.00912317657235387,0.879348568954145
-0.0162836988065298,0.892950864041566
-0.0222375894191062,0.90568468122814
-0.0270628906769245,0.917417500627532
-0.0308516729922092,0.92802658342308
-0.0337088799570311,0.937400456870211
-0.0357510170425852,0.945440263132857
-0.0371046998899782,0.952060955581839
-0.0379050798236054,0.957192328034741
-0.0382941657085633,0.960779864444432
-0.0384190625317948,0.962785398722819
-0.0384301480975361,0.963187576690921
-0.0384792099788489,0.961982114548166
-0.0387175653494624,0.959181850723614
-0.0392941865279619,0.954816590479749
-0.0403538549970182,0.948932745155011
-0.0420353663147042,0.941592770423953
-0.0444698077171741,0.932874410393334
-0.0477789293296043,0.922869756709284
-0.0520736287660008,0.911684134095989
-0.0574525675220859,0.899434825853099
-0.0640009359656662,0.886249654781623
-0.0717893819251006,0.872265436762781
-0.0808731158906053,0.857626325760018
-0.0912912036992719,0.84248207033216
-0.103066055298853,0.826986202819728
-0.116203115805209,0.811294183183498
-0.130690762612727,0.795561520024741
-0.146500409815756,0.7799418915934
-0.163586818682628,0.764585289590473
-0.181888610422593,0.749636208294027
-0.20132897503037,0.735231900987972
-0.221816567612896,0.721500724855605
-0.243246581327022,0.708560594425957
-0.265501983913022,0.696517562343148
-0.288454902822939,0.685464544683304
-0.311968142138969,0.675480206288797
-0.335896812877318,0.666628019647089
-0.360090056896525,0.658955508734695
-0.384392843492993,0.652493687001423
-0.408647816884083,0.647256696313315
-0.432697172161336,0.643241651233216
-0.456384536950771,0.640428690525247
-0.479556835947842,0.638781235253885
-0.502066115702479,0.638246450340471
-0.523771307512032,0.638755903970123
-0.544539907031217,0.640226416840268
-0.564249550218978,0.642561090937459
-0.582789466500469,0.645650505349789
-0.600061791512712,0.649374064594494
-0.61598272350688,0.653601483088887
-0.630483509377865,0.65819438774006
-0.64351124835981,0.663008019194831
-0.655029503639485,0.667893011093741
-0.665018714470918,0.67269722572587
-0.673476403796255,0.67726762379653
-0.680417178860003,0.681452145605678
-0.68587252481651,0.685101580796268
-0.689890393843208,0.688071403970382
-0.692534594754359,0.690223553885205
-0.693883990531575,0.691428134625655
-0.69403151351893,0.691565018097445
-0.693083010243689,0.690525328382123
-0.69115592989168,0.688212789929531
-0.688377872364067,0.684544923215866
-0.684885013546658,0.679454073346967
-0.68082042691325,0.672888259114191
-0.676332321842781,0.664811832189594
-0.671572220040921,0.655205938451668
-0.666693092207941,0.64406877583469
-0.661847477577174,0.63141564556454
-0.657185609156168,0.617278796151782
-0.652853567433291,0.601707062028347
-0.648991484966938,0.58476530120681
-0.645731823656663,0.566533638780785
-0.643197745613241,0.547106525441656
-0.641501597408343,0.526591622432287
-0.64074352610812,0.50510852646504
-0.641010243895185,0.482787350073992
-0.642373956279716,0.459767174626008
-0.644891466914497,0.436194394760969
-0.648603469884869,0.412220974349301
-0.65353403806876,0.38800263512895
-0.65969031378177,0.363697000001028
-0.667062405466721,0.339461713513706
-0.675623491685846,0.315452562340733
-0.685330131157269,0.291821618560978
-0.696122775076217,0.268715428268579
-0.707926475505784,0.24627326749291
-0.720651781241939,0.224625486590543
-0.734195810281635,0.203891963197338
-0.748443485879011,0.184180682511009
-0.763268921188819,0.165586462128806
-0.778536935692415,0.148189836910237
-0.79410468500184,0.132056117392197
-0.809823384261145,0.117234633177142
-0.825540104227802,0.10375817046958
-0.841099618234689,0.0916426105794196
-0.856346277615348,0.0808867737712058
-0.871125892829594,0.0714724703456172
-0.885287597457191,0.0633647583240532
-0.89868567243514,0.0565124045992209
-0.911181308396563,0.0508485439448013
-0.922644284720389,0.0462915278755096
-0.932954544911916,0.0427459530443101
-0.942003649192579,0.0401038566841924
-0.949696086667639,0.0382460645741922
-0.955950431144863,0.0370436751578943
-0.96070032657502,0.036359661789927
-0.963895290153008,0.0360505736520331
-0.965501323331636,0.0359683146825786
-0.965501323331637,0.035961978916372
-0.963895290153008,0.0358797199469177
-0.96070032657502,0.0355706318090238
-0.955950431144863,0.0348866184410564
-0.949696086667639,0.0336842290247587
-0.94200364919258,0.0318264369147585
-0.932954544911917,0.0291843405546408
-0.92264428472039,0.0256387657234414
-0.911181308396564,0.0210817496541497
-0.898685672435141,0.0154178889997304
-0.885287597457192,0.00856553527489828
-0.871125892829594,0.000457823253334121
-0.856346277615348,-0.0089564801722545
-0.84109961823469,-0.019712316980468
-0.825540104227803,-0.0318278768706277
-0.809823384261146,-0.0453043395781896
-0.794104685001841,-0.0601258237932447
-0.778536935692416,-0.0762595433112845
-0.76326892118882,-0.0936561685298541
-0.748443485879011,-0.112250388912058
-0.734195810281636,-0.131961669598386
-0.72065178124194,-0.15269519299159
-0.707926475505784,-0.174342973893958
-0.696122775076218,-0.196785134669627
-0.68533013115727,-0.219891324962025
-0.675623491685846,-0.243522268741779
-0.667062405466721,-0.267531419914753
-0.65969031378177,-0.291766706402074
-0.65353403806876,-0.316072341529997
-0.648603469884869,-0.340290680750348
-0.644891466914496,-0.364264101162017
-0.642373956279716,-0.387836881027056
-0.641010243895185,-0.410857056475039
-0.64074352610812,-0.433178232866088
-0.641501597408343,-0.454661328833335
-0.64319774561324,-0.475176231842703
-0.645731823656662,-0.494603345181832
-0.648991484966938,-0.512835007607858
-0.652853567433291,-0.529776768429394
-0.657185609156167,-0.545348502552831
-0.661847477577174,-0.559485351965588
-0.66669309220794,-0.572138482235739
-0.671572220040921,-0.583275644852717
-0.676332321842781,-0.592881538590642
-0.680820426913249,-0.60095796551524
-0.684885013546657,-0.607523779748015
-0.688377872364066,-0.612614629616915
-0.691155929891679,-0.61628249633058
-0.693083010243688,-0.618595034783172
-0.694031513518929,-0.619634724498494
-0.693883990531575,-0.619497841026705
-0.692534594754359,-0.618293260286255
-0.689890393843207,-0.616141110371431
-0.68587252481651,-0.613171287197318
-0.680417178860003,-0.609521852006727
-0.673476403796255,-0.605337330197579
-0.665018714470918,-0.600766932126919
-0.655029503639485,-0.595962717494791
-0.64351124835981,-0.59107772559588
-0.630483509377865,-0.586264094141109
-0.615982723506881,-0.581671189489937
-0.600061791512713,-0.577443770995543
-0.582789466500469,-0.573720211750838
-0.564249550218979,-0.570630797338508
-0.544539907031218,-0.568296123241317
-0.523771307512033,-0.566825610371172
-0.50206611570248,-0.56631615674152
-0.479556835947844,-0.566850941654934
-0.456384536950771,-0.568498396926296
-0.432697172161337,-0.571311357634264
-0.408647816884084,-0.575326402714363
-0.384392843492994,-0.580563393402472
-0.360090056896526,-0.587025215135744
-0.335896812877319,-0.594697726048137
-0.31196814213897,-0.603549912689845
-0.288454902822939,-0.613534251084352
-0.265501983913023,-0.624587268744196
-0.243246581327023,-0.636630300827005
-0.221816567612897,-0.649570431256653
-0.201328975030371,-0.66330160738902
-0.181888610422594,-0.677705914695074
-0.163586818682629,-0.69265499599152
-0.146500409815757,-0.708011597994447
-0.130690762612728,-0.723631226425789
-0.116203115805209,-0.739363889584546
-0.103066055298853,-0.755055909220776
-0.0912912036992722,-0.770551776733208
-0.0808731158906054,-0.785696032161065
-0.0717893819251006,-0.800335143163829
-0.0640009359656659,-0.814319361182671
-0.0574525675220857,-0.827504532254148
-0.0520736287660004,-0.839753840497036
-0.0477789293296038,-0.850939463110332
-0.0444698077171735,-0.860944116794382
-0.0420353663147035,-0.869662476825002
-0.0403538549970175,-0.87700245155606
-0.0392941865279612,-0.882886296880797
-0.0387175653494617,-0.887251557124663
-0.0384792099788481,-0.890051820949214
-0.0384301480975353,-0.891257283091969
-0.038419062531794,-0.890855105123867
-0.0382941657085625,-0.888849570845481
-0.0379050798236046,-0.88526203443579
-0.0371046998899775,-0.880130661982888
-0.0357510170425847,-0.873509969533906
-0.0337088799570306,-0.86547016327126
-0.0308516729922088,-0.856096289824129
-0.0270628906769242,-0.845487207028582
-0.022237589419106,-0.833754387629189
-0.0162836988065297,-0.821020570442616
-0.00912317657235397,-0.807418275355195
-0.000692993196491021,-0.793088200179185
0.0090540658181561,-0.778177518826347
0.0201487897423639,-0.762838101455208
0.0326051319063942,-0.747224678195365
0.0464200034696266,-0.731492968736941
0.0615732741865047,-0.71579780048751
0.0780279801686208,-0.700291238137424
0.0957307361300456,-0.685120747335884
0.114612347120852,-0.670427414765857
0.134588612332212,-0.65634424622123
0.155561311224926,-0.642994563342566
0.177419360020018,-0.630490518470158
0.200040124522072,-0.618931745639103
0.223290873348195,-0.608404164088429
0.247030353931184,-0.598978948804846
0.271110472175063,-0.590711680593981
0.295378055382908,-0.583641685992596
0.319676677066028,-0.577791575030754
0.343848521492352,-0.573166982451102
0.367736265349407,-0.569756515522649
0.39118495368949,-0.567531909078491
0.414043847393972,-0.566448385891356
0.436168219739316,-0.566445218008253
0.457421080265169,-0.567446482225933
0.477674805027264,-0.569362000532197
0.496812653454162,-0.572088454092682
0.514730153403262,-0.575510657256037
0.531336337611323,-0.579502976107879
0.546554816538503,-0.583930874349145
0.560324674590856,-0.588652567728811
0.57260117885002,-0.593520766943102
0.58335629171472,-0.598384487839357
0.592578981238826,-0.60309090694558
0.600275325406321,-0.607487239796423
0.606468409084788,-0.611422619249499
0.61119801491549,-0.614749950985912
0.61452011189941,-0.617327723665779
0.616506147894178,-0.619021751759758
0.61724215461699,-0.619706829894789
0.616827676024443,-0.61926827862618
0.615374533084078,-0.617603362866034
0.6130054399383,-0.614622565743674
0.609852488265133,-0.610250702428485
0.606055518240084,-0.604427860388118
0.601760395879791,-0.59711015466176
0.597117217684401,-0.588270288973512
0.592278464378029,-0.577897915867687
0.587397126164424,-0.565999791487325
0.582624822260584,-0.552599723109899
0.578109937540454,-0.537738310069709
0.573995798912999,-0.521472481204433
0.5704189135765,-0.503874834433063
0.567507290539754,-0.485032786474296
0.565378865789932,-0.46504754301895
0.564140050228632,-0.444032901849352
0.563884418007309,-0.422113903426407
0.564691551188845,-0.399425345316403
0.566626054764355,-0.376110178482485
0.569736753986277,-0.352317804899489
0.574056083765609,-0.328202297148728
0.579599677549648,-0.303920561596132
0.586366160674994,-0.279630467442077
0.594337150708431,-0.255488964345269
0.603477464775594,-0.231650211461822
0.613735531364659,-0.208263740601955
0.6250440016101,-0.185472675792553
0.637320552640002,-0.163412030849115
0.650468873238915,-0.142207105613575
0.664379819864991,-0.121972000316818
0.678932728992185,-0.10280826609072
0.69399686985055,-0.0848037080019005
0.709433019933309,-0.0680313551278204
0.725095144148982,-0.0525486101682695
0.740832157238639,-0.0383965889057913
0.756489748067454,-0.0255996575241683
0.771912243648531,-0.0141651733922278
0.786944490274551,-0.00408343245045046
0.801433728924928,0.0046721761700495
0.815231442185592,0.0121448101821986
0.828195150264075,0.0183936132099136
0.840190134300431,0.0234929597055112
0.851091066056836,0.0275315148924479
0.860783524205057,0.0306111211536687
0.869165378807357,0.0328455243925471
0.876148027186205,0.0343589558359515
0.881657466181967,0.0352845865037201
0.885635187783641,0.0357628731144978
0.888038887261528,0.0359398155157149
0.888842975206611,0.0359651467994766
