-0.119864125151357,0.0818702704080188
-0.12777519681116,0.108432431261617
-0.151061892802328,0.130745585770083
-0.187128648555343,0.14194547312889
-0.230691296517774,0.136585159164017
-0.27446768215935,0.111598324987339
-0.310188839287211,0.0669544345096847
-0.329802250488227,0.00590655191802965
-0.326710475931712,-0.0652166530512061
-0.296879380420783,-0.137665270881851
-0.239661763428251,-0.201301389269185
-0.158213384521251,-0.245892590718571
-0.0594257951269179,-0.262509326658901
0.0466413479169876,-0.244850261017053
0.266234478972483,-0.0919113267020709
0.231025935015879,-0.100716580903656
0.284197808720858,0.017606249691086
0.412643781359522,0.270943855748988
0.265019747636628,0.295007257529052
0.185566793721018,0.424649134455558
0.0634203313217916,0.527243583930892
-0.0918452056777586,0.588706346671372
-0.361846732163173,0.496252486561717
-0.441651745108437,0.550821602977694
-0.599598238695192,0.446219854737378
-0.721289453236302,0.291378328363843
-0.790752919607743,0.0991035409278814
-0.796599379826767,-0.112756768349958
-0.733591373590373,-0.322964416255144
-0.603617120968029,-0.509019079537502
-0.41592877684304,-0.649550916437216
-0.186579907724505,-0.726724507830826
0.0629166710900962,-0.728387952722483
0.196602301586263,-0.768282403056676
0.421110484153004,-0.6056301027657
0.6806824721517,-0.273462176217759
0.765275225744887,-0.00697610901170699
0.762459463182135,0.280126504325788
0.667853130371935,0.559168884024018
0.601682783191431,0.894494587775455
