0.772233504792063,-0.499117229411187
0.771800042435948,-0.498699864971743
0.770545549045508,-0.497404383744147
0.768543425376816,-0.495170926495566
0.765872609212214,-0.491947030542484
0.762616856043479,-0.487688115698433
0.758863977062741,-0.482357900141506
0.754705041262389,-0.475928742487364
0.750233548765327,-0.468381907011673
0.745544582763489,-0.459707749651413
0.740733947633289,-0.449905823121144
0.735897300919922,-0.438984900201779
0.731129286937023,-0.426962914989358
0.726522679713751,-0.413866822623053
0.72216754293786,-0.399732378738842
0.718150414391647,-0.384603840611314
0.714553522159108,-0.3685335926446
0.711454039599107,-0.351581699548255
0.708923385733509,-0.333815391178931
0.707026577293973,-0.315308483638245
0.705821638210232,-0.296140741785811
0.705359071810179,-0.276397188848996
0.705681400442566,-0.256167369282835
0.7068227766316,-0.235544571450536
0.708808669234515,-0.214625017053404
0.711655627404073,-0.193507024535573
0.715371124463765,-0.172290153921078
0.719953483090541,-0.151074340706386
0.725391882474521,-0.129959026529109
0.731666447393732,-0.10904229436236
0.738748418411138,-0.0884200159437809
0.746600401677455,-0.0681850190391456
0.755176696113043,-0.0484262819634393
0.764423695051808,-0.0292281625391609
0.774280358765703,-0.0106696683643617
0.784678753656055,0.00717622510559584
0.795544653303121,0.0242432025851198
0.806798196013402,0.0404721774976383
0.818354593000133,0.0558117959610213
0.830124880880628,0.0702188717290619
0.842016711778717,0.0836587482148265
0.853935173984967,0.0961055843721745
0.865783635854694,0.107542561890987
0.877464605416393,0.117962011863587
0.888880598022976,0.127365459798204
0.899935004306347,0.135763588583741
0.91053295069309,0.143176119742024
0.920582144805269,0.149631614032656
0.929993698205108,0.155167193195012
0.938682919144321,0.159828185315415
0.946570068246364,0.163667696988868
0.953581070380412,0.166746116097705
0.959648176376611,0.169130549648519
0.964710568679494,0.170894201687987
0.968714905536428,0.172115696852772
0.971615798866241,0.172878355593639
0.973376221544622,0.173269427545016
0.973967840472503,0.17337928988458
0.973371272455555,0.173300617839757
0.971576260611436,0.173127534746468
0.96858176973026,0.172954749247868
0.96439599973667,0.172876687335498
0.959036317132365,0.172986626981286
0.952529105029519,0.173375843085705
0.944909533111655,0.174132770375326
0.936221249572747,0.175342191722903
0.926515997781206,0.177084459136283
0.91585316108686,0.179434754371018
0.904299239829916,0.182462395768042
0.891927265215622,0.186230197505404
0.878816155281457,0.190793886985477
0.865050018700136,0.19620158556038
0.850717412626997,0.202493357233375
0.835910561210179,0.209700829367518
0.820724541732824,0.21784688879052
0.805256445645217,0.226945456012117
0.789604521968654,0.237001339573437
0.773867310710027,0.248010171832965
0.758142774015135,0.259958426767234
0.742527432808803,0.272823519632679
0.727115516620886,0.286573987604838
0.71199813417951,0.301169749788638
0.697262472167583,0.316562444285465
0.682991029287274,0.332695839315243
0.669260892462121,0.349506314731116
0.656143061630468,0.366923409636321
0.643701829150381,0.384870431223129
0.631994219348927,0.403265119407538
0.621069493212154,0.42202036133564
0.610968722630885,0.44104494939261
0.601724437996922,0.460244375957188
0.593360352289829,0.479521657816653
0.58589116411208,0.498778182892641
0.579322441425981,0.517914571729091
0.573650587025832,0.536831546061864
0.568862886049569,0.555430796726312
0.564937635102243,0.573615843164974
0.561844351835577,0.591292876872402
0.559544063110077,0.608371581257367
0.557989669165077,0.624765920613008
0.557126380544039,0.640394891160989
0.556892223873306,0.655183227473981
0.557218611978237,0.669062057978791
0.558030973246696,0.681969503696605
0.55924943462123,0.693851214883105
0.560789552122854,0.704660840785138
0.562563082385285,0.714360428327152
0.564478788312539,0.722920746174563
0.566443271668407,0.730321531286819
0.568361825165954,0.736551655764261
0.570139296451234,0.741609212503894
0.571680956269229,0.745501518903316
0.572893363062658,0.748245038583074
0.573685216286093,0.749865221828959
0.573968190818404,0.750396266180728
0.573657745025155,0.749880799306005
0.572673895257547,0.74836948699133
0.570941949873894,0.745920569750177
0.568393196230637,0.742599332184542
0.564965534509405,0.73847750983643
0.56060405272083,0.733632638823151
0.555261537750549,0.728147354060664
0.548898917883278,0.722108642337701
0.541485632852122,0.715607056906148
0.532999928106701,0.708735900596308
0.523429070669702,0.701590384746402
0.512769484650867,0.694266771451323
0.501026805204137,0.686861506784368
0.488215850441132,0.679470352726115
0.474360511546023,0.672187525546059
0.459493562066515,0.665104848324983
0.443656388076598,0.658310925179791
0.426898641612608,0.651890344558851
0.409277820468527,0.645922918716489
0.390858778093368,0.640482966152433
0.371713167956984,0.635638643418668
0.351918827335212,0.631451332255649
0.331559106005641,0.627975087526202
0.310722145836734,0.625256150872979
0.28950011769103,0.623332534438946
0.267988422443974,0.622233678365301
0.246284863239981,0.621980185122996
0.224488796363915,0.622583633048522
0.202700268296927,0.624046470747999
0.181019146648825,0.626361993312121
0.159544252713752,0.629514400554615
0.138372503381493,0.633478936755077
0.117598070053217,0.638222110659899
0.0973115620588321,0.643701993778966
0.0775992418544997,0.649868594317239
0.0585422789953926,0.656664303405575
0.0402160495328709,0.664024409650071
0.022689487080042,0.671877677409683
0.00602449132875812,0.680146983643309
-0.0097246007113832,0.688750007644933
-0.0245114760409934,0.697599967513556
-0.0382982354562775,0.706606396787651
-0.0510557083205319,0.715675954315484
-0.0627636895195942,0.724713260136083
-0.0734110964932197,0.733621749913496
-0.082996044947344,0.742304540301417
-0.091525842577562,0.750665297517612
-0.0990169008655462,0.758609101378908
-0.105494565740934,0.766043297087867
-0.11099286862497,0.772878327171476
-0.115554200082407,0.779028536149117
-0.119228908998525,0.784412940750294
-0.12207483086247,0.788955958809792
-0.124156749370494,0.792588090336505
-0.125545796157492,0.795246544678694
-0.126318794017113,0.796875808189221
-0.12655754947483,0.797428147324981
-0.126348101030123,0.796864042690634
-0.125779929779333,0.795152550152676
-0.124945139466325,0.792271585800366
-0.123937613280777,0.788208132209289
-0.122852154931292,0.782958364165257
-0.121783621660783,0.776527692724639
-0.120826056943416,0.768930727215614
-0.120071830605203,0.760191155516773
-0.119610794044057,0.75034154367842
-0.119529458090419,0.739423056671359
-0.119910200847501,0.727485102751462
-0.120830512582767,0.714584904609623
-0.122362284411666,0.700787001129728
-0.124571147123959,0.686162684196249
-0.127515866055614,0.670789375572325
-0.13124779740924,0.654749949403786
-0.135810410877837,0.638132006389506
-0.141238882835094,0.621027106089573
-0.147559763725953,0.603529964216131
-0.154790722629157,0.585737622064035
-0.162940371275062,0.567748595486937
-0.172008169093117,0.549662011006787
-0.181984410140544,0.531576736759478
-0.192850292033269,0.51359051602531
-0.204578066268555,0.495799111069867
-0.21713126860271,0.478295464928833
-0.230465027433011,0.461168888610125
-0.244526447437075,0.444504280959956
-0.259255065051546,0.428381388147945
-0.274583371730993,0.412874109372944
-0.290437400323251,0.398049854978844
-0.306737369334329,0.383968962702049
-0.323398379339514,0.370684177253669
-0.34033115533207,0.358240197874436
-0.357442828391071,0.346673297893948
-0.374637749699081,0.33601101968345
-0.391818329651743,0.326271947718757
-0.408885894577438,0.317465561773078
-0.425741553428,0.309592171544641
-0.442287066712461,0.30264293329753
-0.458425709925697,0.296599948362456
-0.474063123772916,0.291436442613935
-0.489108143608583,0.287117025317904
-0.503473600693787,0.283598025035755
-0.517077088127308,0.280827899583305
-0.529841684620744,0.278747716382583
-0.541696629663997,0.277291698916312
-0.552577944060997,0.276387834405247
-0.562428990302752,0.27595853728235
-0.571200967781461,0.275921362539993
-0.578853338430548,0.276189762581456
-0.585354178996093,0.276673880819845
-0.590680456799485,0.277281374939726
-0.594818226533588,0.277918262472134
-0.597762746339013,0.2784897811345
-0.599518512127112,0.278901256255323
-0.600099209845473,0.279058967540182
-0.599527586113645,0.278871007441511
-0.597835238384882,0.278248123469438
-0.595062326507527,0.277104536924223
-0.591257208260681,0.275358730741133
-0.586476002116956,0.27293419941409
-0.580782081134164,0.269760154302709
-0.574245502492086,0.265772178025297
-0.566942377764476,0.260912822094579
-0.558954189545003,0.255132142459171
-0.550367060524347,0.248388168167752
-0.541270981539692,0.240647298969429
-0.531759005483795,0.231884628297719
-0.521926414265252,0.222084188751183
-0.511869866251888,0.211239117875088
-0.501686531803234,0.199351742759457
-0.491473224604171,0.186433582693032
-0.481325536549241,0.172505269843678
-0.471336983895303,0.157596388666981
-0.46159817229965,0.14174523546981
-0.452195988192107,0.12499850026784
-0.44321282369463,0.107410873769232
-0.434725842002606,0.0890445829845917
-0.426806289780947,0.0699688596000069
-0.41951886270867,0.0502593458497614
-0.41292112983137,0.0299974431828805
-0.407063021856344,0.00926960952796712
-0.401986387954623,-0.0118333885806667
-0.39772462502293,-0.0332172623499072
-0.394302382712142,-0.0547850185388844
-0.391735346852836,-0.0764378014445942
-0.390030103209063,-0.0980757515568503
-0.389184082774844,-0.119598873228617
-0.389185589100367,-0.140907903627332
-0.390013907403016,-0.161905175221385
-0.39163949448874,-0.182495464113566
-0.394024247788248,-0.202586816659554
-0.397121851106733,-0.222091347003158
-0.400878194001369,-0.240925998419497
-0.405231861043956,-0.259013261680092
-0.410114686602573,-0.276281844037237
-0.415452370191543,-0.292667282865469
-0.421165146898629,-0.308112498491647
-0.427168506906976,-0.322568281287575
-0.433373957691242,-0.335993708685489
-0.439689822086645,-0.348356488401847
-0.446022065109518,-0.359633224813064
-0.452275142151428,-0.369809606112355
-0.45835286097814,-0.378880510583473
-0.464159249841499,-0.38685003104862
-0.469599423957681,-0.393731417277721
-0.474580442619742,-0.39954693687802
-0.479012149295877,-0.40432765591014
-0.482807987216496,-0.408113141192768
-0.485885783171778,-0.410951086956705
-0.488168492524887,-0.41289686918378
-0.48958489879193,-0.414013031611204
-0.490070261544935,-0.414368707991468
-0.48956690685505,-0.414038985766477
-0.488024755005677,-0.413104216837177
-0.485401780764717,-0.411649281581835
-0.481664402106715,-0.409762812693116
-0.476787793913806,-0.40753638576248
-0.470756123853593,-0.405063683837034
-0.463562708326194,-0.40243964340605
-0.455210087085674,-0.399759589440018
-0.445710015866481,-0.397118367202644
-0.43508337707687,-0.394609478584977
-0.42336000935212,-0.392324230670435
-0.410578457484102,-0.39035090413031
-0.396785644953988,-0.388773948872412
-0.382036471985225,-0.387673214122294
-0.366393342698265,-0.3871232198093
-0.349925625580907,-0.38719247576115
-0.332709052082925,-0.387942854784211
-0.314825058695549,-0.389429025225867
-0.296360078380465,-0.391697948084697
-0.277404787664756,-0.394788443158316
-0.258053316113659,-0.398730828102783
-0.238402425228527,-0.403546633627023
-0.218550664090115,-0.409248397366447
-0.198597509274683,-0.415839538278024
-0.178642496710628,-0.423314312680691
-0.158784353215239,-0.431657852336581
-0.139120135453953,-0.440846284236629
-0.119744383998188,-0.450846931025172
-0.100748300023185,-0.461618590278767
-0.0822189519851715,-0.473111890150909
-0.0642385193497602,-0.485269718213048
-0.0468835801128838,-0.498027719669276
-0.0302244484649019,-0.511314860503089
-0.0143245685011356,-0.525054050535354
0.000760030617901447,-0.539162820838066
0.014981213201527,-0.553554049463513
0.0282991449956308,-0.568136729017383
0.0406826269471451,-0.582816769231006
0.0521093517942238,-0.5974978273756
0.0625660811985784,-0.612082159112963
0.072048741845273,-0.626471482194655
0.0805624396581625,-0.640567845306997
0.0881213920096478,-0.654274494313258
0.0947487785349996,-0.667496728167498
0.100476511887609,-0.680142736866597
0.105344930485739,-0.692124413967161
0.109402415997257,-0.703358136420759
0.112704938980217,-0.713765504772447
0.115315536738112,-0.723274037120997
0.117303728053269,-0.731817810651631
0.11874487002503,-0.739338045019687
0.119719462755776,-0.745783622382232
0.120312408093139,-0.751111539439723
0.120612229046602,-0.755287287456218
0.120710256847485,-0.758285156869022
0.120699792910003,-0.760088463771279
0.120675253174963,-0.760689696247852
0.120731302474856,-0.760090579259724
0.120961986648098,-0.758302057498624
0.121459870150296,-0.755344196365269
0.122315186861348,-0.751246001954898
0.123615011669502,-0.746045161656186
0.125442460228147,-0.7397877076777
0.127875924029801,-0.732527606503521
0.130988347626697,-0.724326277940299
0.134846554451421,-0.715252048046
0.139510627257482,-0.705379540820352
0.14503334871247,-0.694789014083157
0.151459707139849,-0.683565645464437
0.158826471824256,-0.671798774875327
0.167161841674641,-0.659581110216732
0.176485170385142,-0.647007903410637
0.186806770551214,-0.634176104103605
0.198127798494169,-0.621183498591065
0.210440220827308,-0.608127841642761
0.22372686306761,-0.59510598897296
0.237961539865089,-0.582213038093182
0.253109265693751,-0.569541485210326
0.269126544130363,-0.557180405689884
0.285961733146175,-0.545214665393577
0.303555483158559,-0.533724169925296
0.321841243940562,-0.522783158480929
0.340745835871977,-0.51245954859972
0.360190080441641,-0.502814337660592
0.380089484381984,-0.493901066460648
0.40035497133853,-0.485765349659097
0.420893654552808,-0.478444477273356
0.441609643671409,-0.471967090780091
0.462404878489333,-0.466352936708439
0.483179982195533,-0.46161269992121
0.503835126514555,-0.457747918068991
0.524270901031972,-0.454750977977827
0.544389178954003,-0.452605194000206
0.564093971583435,-0.451284967627826
0.583292263894614,-0.450756026939627
0.6018948237588,-0.45097574374633
0.61981697760624,-0.451893525599527
0.636979345610611,-0.453451279165466
0.653308529842585,-0.455583940826973
0.668737749258707,-0.458220069777167
0.683207415866038,-0.461282498311072
0.696665646927677,-0.464689033510926
0.709068708644777,-0.46835320406244
0.720381387361929,-0.472185045536608
0.7305772849892,-0.47609191712842
0.739639036010165,-0.479979342563202
0.747558444144636,-0.483751867665584
0.754336537451544,-0.487313926937425
0.759983541384851,-0.490570711410582
0.764518770047281,-0.493429030028944
0.767970436616298,-0.49579815687184
0.770375384637705,-0.49759065665714
0.771778742588134,-0.498723181156072
0.772233504792063,-0.499117229411187
