0.276708159750739,0.0908657575396699
0.300082935987409,0.081608493000781
0.329400558259316,0.0836857515903317
0.359522776406428,0.0995107050624866
0.384532245944779,0.12931709939296
0.398605248724904,0.170960119995488
0.396915471278237,0.220049929716188
0.376447382858271,0.270412362622585
0.336605888931971,0.314828615398207
0.279531494535553,0.345968153637898
0.210064728638144,0.357401145081465
0.135346114269605,0.344562166304404
0.0640835455155087,0.305537799725795
0.00556211149005814,0.241567344306879
-0.0314930876693094,0.157176642992892
-0.0400672499568195,0.0599067032803286
-0.0158774213411165,-0.0403532943821286
0.0418678163567346,-0.132370348799066
0.130078538692644,-0.204807448530139
0.241832587843762,-0.247563617142707
0.366883838382254,-0.253060255204651
0.49259660815885,-0.217318445332286
0.605221527153346,-0.140688604033525
0.691384120740716,-0.028127428435872
0.739626290301145,0.111035742061467
0.741826838594893,0.263845149581489
0.694332439378409,0.41492089318921
0.598655127565132,0.548006089298306
0.461634434877276,0.647703354464938
0.295017638380793,0.701216286082191
0.114474517891145,0.699902315365602
-0.0618732169147556,0.640455248274993
-0.21527014084557,0.525568469668493
-0.328310610780992,0.363980321985984
-0.386878801838558,0.169866665106557
-0.381832025940168,-0.0383844348943022
-0.310232748216175,-0.23991199669943
-0.175975382217068,-0.413471141901812
0.0102870290618443,-0.539662711173114
0.231939509058723,-0.603070401996154
