0.241909691104435,0.27603572071426
0.217071444399288,0.287949791544489
0.19010079610227,0.296714220949218
0.161408738107039,0.301980948905673
0.13145995507511,0.303456939112727
0.100765302029727,0.300912144971175
0.0698731340856391,0.294186431111159
0.039359634823687,0.283195288849536
0.0098183121408576,0.267934204629078
-0.0181511501938849,0.248481564192634
-0.0439544809761023,0.225000001565849
-0.0670146332968257,0.19773613039531
-0.0867835944320798,0.167018625302988
-0.10275396448656,0.1332546521246
-0.114470074423655,0.0969246776240229
-0.121538418512736,0.0585757209275185
-0.123637184961734,0.0188131399038399
-0.120524681473822,-0.0217089245611957
-0.0898228112366384,-0.0786060108180632
-0.0981410416605323,-0.102236522074549
-0.0585450906299931,-0.144260301204386
-0.0707425761567296,-0.169920994752122
0.0015433380002075,-0.226651545866899
-0.00633534737450468,-0.258937929855835
0.0606078735913249,-0.230652689483673
0.160904647190424,-0.292858104887084
0.126004243444442,-0.301043394023303
0.186285450455776,-0.303152497671492
0.233169390077311,-0.317629808894938
0.242354232554561,-0.333597481747976
0.340987298211845,-0.328183251437092
0.384010019310798,-0.290282932542963
0.406113278782416,-0.294583531523249
0.509741741409844,-0.228003374687362
0.523845263682946,-0.21153523588602
0.557879288941563,-0.163973313668085
0.590872411611273,-0.118290291958722
0.618175248700197,-0.0680490967593162
0.639160369599026,-0.0139678678993716
0.707849287723599,0.0569807882182738
0.654502567967502,0.0822678704655805
0.659381631544634,0.162918456075892
0.648114026384708,0.223755175782275
0.635718208408857,0.307699801370237
0.610173067022863,0.341740536907186
0.574085840147244,0.393214872532655
0.539245344389218,0.448543116251984
0.530381446783769,0.469929468288367
0.392758963588384,0.545770280175126
0.383634902586268,0.570749506845207
0.321360519263232,0.59799235808781
0.255336681156299,0.617351561301645
0.186570451407816,0.628314215760156
0.116138562342757,0.630497186734872
0.0451705586687315,0.623656496651072
-0.0251693150065502,0.607694510615697
-0.0937011919418351,0.582664749831335
-0.159249314032628,0.54877420484144
-0.220662086529597,0.506383061833474
-0.276832116348433,0.456001798677604
-0.326715888064519,0.398285652271684
-0.369352732066968,0.334026504335971
-0.403882745737826,0.264142278269263
-0.429563340898819,0.189663984249004
-0.445784109000543,0.111720592643829
-0.452079719384689,0.031521956239247
-0.448140595095034,-0.0496599609802198
-0.43382114471791,-0.130511257386819
-0.409145367077864,-0.209697349647526
-0.374309687697853,-0.285884967312904
-0.329682931081461,-0.357764524106355
-0.275803380351465,-0.424072491692334
-0.213372924799289,-0.483613395673745
-0.143248345641103,-0.535281053973578
-0.066429839893445,-0.578078684675778
0.015953069079702,-0.611137523806474
0.10265803898347,-0.633733613287952
0.192348594447859,-0.645302445142452
0.283614711084689,-0.645451179601359
0.374994980983407,-0.633968191625161
0.465000011229231,-0.61082974190207
0.55213668084935,-0.576203614021977
0.634932861411436,-0.530449608493518
0.71196219273785,-0.474116835795157
0.78186849817822,-0.407937803882716
0.8433894238113,-0.332819349632454
0.895378892917044,-0.249830517672302
0.936827981045587,-0.160187543026061
0.966883837865635,-0.0652361450540852
0.984866309436306,0.0335686115719695
0.990281948233797,0.134684588527353
0.982835137687334,0.236506637658241
0.962436102544087,0.337392081567917
0.929205625402394,0.435687206479901
0.883476342455128,0.529754340232096
0.825790547027104,0.617999072480298
0.756894486970919,0.698897165651583
0.677729200459547,0.771020704123299
0.589417993208721,0.833063035622872
0.49325071769291,0.883862072932238
