0.992424242424242,-0.159808654460336
0.982711120406528,-0.164597028600747
0.97327007069386,-0.170082034333567
0.963998788659686,-0.176001724251491
0.954859207854805,-0.182258630546763
0.945828565663758,-0.188794470341043
0.936891011850931,-0.195568659662091
0.928034560036247,-0.202550507804214
0.919249658572373,-0.209715558109505
0.910528415021165,-0.21704360226697
0.901864132356046,-0.224517492775003
0.893251011508833,-0.232122381322958
0.884683950230225,-0.239845203780496
0.876158401303059,-0.24767431715759
0.867670269180859,-0.255599234951169
0.859215832520612,-0.263610428792995
0.850791684755441,-0.271699176288087
0.842394687593024,-0.279857441949053
0.834021934000569,-0.288077782420408
0.825670718298526,-0.296353269904585
0.817338511679015,-0.30467742947772
0.809022941930817,-0.31304418717621
0.800721776473201,-0.321447826555413
0.792432908025862,-0.329882951998034
0.784154342403309,-0.338344457462082
0.775884188039243,-0.346827499658409
0.767620646933119,-0.355327474869693
0.759362006775971,-0.363839998788898
0.751106634061893,-0.372360888881459
0.742852968029358,-0.380886148872237
0.734599515305929,-0.389411955033499
0.726344845152932,-0.397934644009061
0.718087585224818,-0.406450701956286
0.709826417772487,-0.414956754824838
0.7015600762315,-0.423449559620898
0.693287342145523,-0.431925996529773
0.685007042383099,-0.440383061789517
0.676718046612105,-0.448817861224385
0.668419265001524,-0.457227604360294
0.660109646124455,-0.465609599055545
0.651788175039905,-0.473961246589331
0.64345387153397,-0.482280037158341
0.635105788503536,-0.490563545738272
0.626743010467808,-0.498809428272671
0.618364652194839,-0.507015418156193
0.609969857431768,-0.515179322983419
0.601557797728849,-0.523299021537841
0.593127671348522,-0.531372460998566
0.584678702251755,-0.539397654344875
0.576210139154773,-0.547372677941016
0.56772125465004,-0.555295669285512
0.559211344386024,-0.563164824910976
0.550679726300844,-0.570978398421891
0.542125739905413,-0.578734698659118
0.533548745612121,-0.586432087981019
0.524948124105515,-0.594068980652104
0.516323275751765,-0.601643841330987
0.507673620044012,-0.609155183650223
0.498998595080983,-0.616601568881313
0.490297657076477,-0.623981604678761
0.481570279897563,-0.631293943897662
0.472815954629526,-0.638537283479741
0.464034189165752,-0.645710363403271
0.45522450782091,-0.652811965692655
0.446386450965947,-0.659840913483826
0.437519574683507,-0.666796070141966
0.428623450442519,-0.673676338428299
0.419697664790801,-0.680480659713023
0.410741819064624,-0.687208013231643
0.401755529114248,-0.693857415382224
0.392738425044539,-0.700427919061254
0.383690150969843,-0.706918613036002
0.374610364782351,-0.713328621351422
0.365498737933244,-0.71965710276979
0.356354955225984,-0.72590325024143
0.347178714621138,-0.732066290404968
0.337969727052188,-0.738145483115723
0.328727716251807,-0.744140121000899
0.31945241858814,-0.750049529040381
0.310143582910643,-0.755873064172008
0.300800970405073,-0.761610114920291
0.291424354457267,-0.767260101047618
0.282013520525356,-0.772822473227055
0.272568266020094,-0.778296712735945
0.263088400193014,-0.783682331169536
0.253573744032144,-0.788978870173948
0.24402413016502,-0.794185901197858
0.234439402768778,-0.799303025262294
0.224819417487123,-0.804329872748023
0.215164041353966,-0.809266103200039
0.205473152723567,-0.814111405148694
0.195746641207032,-0.818865495947097
0.185984407615006,-0.823528121624386
0.176186363906454,-0.828099056754575
0.166352433143399,-0.832578104340674
0.156482549451534,-0.836965095713835
0.146576657986619,-0.841259890447302
0.136634714906581,-0.845462376284984
0.126656687349267,-0.849572469084494
0.116642553415804,-0.853590112774537
0.106592302159523,-0.857515279326546
0.0965059335804227,-0.861347968740522
0.0863834586251737,-0.865088209045029
0.0762248991926495,-0.868736056311365
0.0660302881450015,-0.872291594681916
0.0557996693243032,-0.875754936412774
0.0455330975747959,-0.879126221930693
0.0352306387707853,-0.882405619904522
0.0248923698502479,-0.885593327331252
0.0145183788542201,-0.888689569636867
0.00410876497205609,-0.89169460079223
-0.00633636140734892,-0.894608703444232
-0.0168168786382572,-0.897432189062521
-0.0273326537545782,-0.900165398102103
-0.0378835424000164,-0.902808700182211
-0.0484693887517096,-0.905362494281817
-0.0590900254371928,-0.907827208952245
-0.069745273444493,-0.910203302547373
-0.0804349420251449,-0.912491263471954
-0.0911588285899023,-0.914691610448646
-0.101916718596895,-0.91680489280438
-0.11270838543196,-0.918831690776771
-0.123533590280857,-0.920772615841308
-0.134392081993038,-0.92262831106015
-0.145283596936651,-0.924399451453413
-0.156207858844368,-0.926086744393893
-0.167164578649671,-0.927690930026272
-0.178153454313127,-0.929212781711922
-0.189174170638197,-0.93065310650052
-0.200226399076064,-0.93201274562979
-0.211309797518918,-0.933292575054778
-0.222424010081104,-0.934493506008216
-0.23356866686749,-0.935616485593614
-0.244743383728336,-0.936662497412908
-0.25594776199991,-0.937632562230593
-0.267181388230033,-0.938527738676471
-0.278443833887633,-0.939349123989318
-0.289734655055354,-0.940097854803953
-0.301053392104142,-0.94077510798444
-0.312399569348669,-0.94138210150638
-0.323772694682317,-0.941920095391497
-0.335172259190373,-0.942390392698067
-0.346597736739907,-0.942794340570996
-0.358048583544718,-0.943133331355778
-0.36952423770353,-0.943408803780913
-0.381024118709487,-0.943622244213845
-0.392547626928758,-0.943775187995963
-0.404094143045889,-0.943869220862754
-0.415663027473273,-0.943905980455857
-0.427253619721819,-0.943887157934412
-0.438865237729649,-0.943814499693933
-0.45049717714523,-0.943689809201811
-0.462148710561026,-0.94351494895952
-0.473819086693262,-0.943291842602814
-0.485507529502906,-0.943022477152409
-0.497213237252397,-0.942708905429201
-0.508935381491991,-0.942353248649698
-0.520673105968826,-0.941957699219317
-0.532425525450954,-0.941524523743404
-0.544191724457582,-0.941056066278412
-0.555970755885595,-0.940554751848644
-0.567761639521089,-0.940023090257412
-0.579563360423071,-0.939463680225521
-0.59137486716464,-0.93887921389467
-0.603195069914778,-0.938272481738945
-0.615022838341365,-0.937646377934089
-0.62685699931294,-0.937003906242046
-0.638696334373173,-0.936348186477513
-0.65053957695762,-0.935682461634306
-0.662385409317186,-0.935010105762762
-0.674232459106321,-0.934334632705518
-0.686079295586348,-0.933659705818759
-0.697924425384833,-0.932989148830216
-0.709766287740248,-0.932326958015028
-0.721603249146687,-0.931677315907763
-0.733433597295184,-0.931044606815453
-0.745255534185193,-0.930433434455424
-0.757067168250417,-0.929848642116821
-0.768866505305364,-0.929295335841636
-0.780651438069729,-0.928778911247164
-0.792419733962781,-0.928305084778047
-0.8041690207733,-0.927879930397889
-0.815896769693408,-0.927509923030552
-0.827600275043554,-0.927201990473604
-0.839276629790945,-0.92696357608253
-0.850922695643261,-0.926802715344722
-0.862535066033624,-0.926728130655162
-0.874110019619021,-0.926749350382085
-0.885643460852976,-0.926876861028566
-0.897130842518326,-0.92712230558463
-0.90856706236577,-0.927498748180615
-0.919946321327124,-0.928021037127168
-0.931261922375813,-0.928706319925895
-0.942505973073692,-0.92957480488779
-0.953668921773428,-0.93065094867076
-0.964738782094944,-0.931965441980498
-0.975699703802626,-0.933558868789244
-0.986528924281014,-0.935489511975338
-0.99718837708091,-0.937854839346537
-1.00757575757576,-0.940916798310144
0.992424242424242,-0.159808654460336
0.982036861929394,-0.162870613423944
0.971377409129499,-0.165235940795142
0.96054818865111,-0.167166583981236
0.949587266943429,-0.168760010789982
0.938517406621913,-0.17007450409972
0.927354457922176,-0.171150647882691
0.916110407224298,-0.172019132844585
0.904794806175609,-0.172704415643313
0.893415547214255,-0.173226704589866
0.881979327366811,-0.173603147185851
0.870491945701461,-0.173848591741914
0.858958504467506,-0.173976102388395
0.847383550882109,-0.173997322115319
0.835771180491746,-0.173922737425758
0.82412511463943,-0.17376187668795
0.812448759892039,-0.173523462296876
0.800745254541893,-0.173215529739928
0.789017505621785,-0.172845522372592
0.777268218811266,-0.172420367992433
0.765499922918214,-0.171946541523316
0.753714990153849,-0.171430116928844
0.741915653098902,-0.17087681065366
0.730104019033678,-0.170292018315056
0.718282082143669,-0.169680845955027
0.706451733995171,-0.169048136862718
0.694614772588733,-0.168398494755452
0.682772910233318,-0.167736303940265
0.670927780434833,-0.167065746951722
0.659080943954806,-0.166390820064963
0.647233894165671,-0.165715347007718
0.635388061806105,-0.165042991136175
0.623544819221657,-0.164377266292968
0.611705484161425,-0.163721546528434
0.599871323189849,-0.163079074836392
0.588043554763263,-0.162452971031535
0.576223352013125,-0.16184623887581
0.564411845271556,-0.16126177254496
0.552610124369573,-0.160702362513069
0.54081924073408,-0.160170700921836
0.529040209306067,-0.159669386492068
0.517274010299439,-0.159200929027077
0.505521590817311,-0.158767753551164
0.493783866340476,-0.158372204120782
0.482061722100882,-0.15801654734128
0.47035601435139,-0.157702975618072
0.458667571541747,-0.157433610167667
0.446997195409511,-0.15721050381096
0.435345661993714,-0.15703564356867
0.423713722578134,-0.156910953076547
0.412102104570304,-0.156838294836069
0.400511512321757,-0.156819472314623
0.388942627894374,-0.156856231907726
0.377396111777242,-0.156950264774518
0.365872603557972,-0.157103208556635
0.354372722552015,-0.157316648989568
0.342897068393203,-0.157592121414703
0.331446221588392,-0.157931112199485
0.320020744038858,-0.158335060072414
0.308621179530802,-0.158805357378983
0.297248054197153,-0.159343351264101
0.285901876952627,-0.15995034478604
0.274583139903839,-0.160627597966528
0.263292318736118,-0.161376328781162
0.252029873078517,-0.162197714094009
0.240796246848394,-0.163092890539888
0.22959186857682,-0.164062955357572
0.218417151715975,-0.165108967176867
0.207272494929589,-0.166231946762265
0.196158282367403,-0.167432877715702
0.185074883924549,-0.16871270714069
0.174022655486682,-0.17007234626996
0.163001939161612,-0.171512671058559
0.152013063498156,-0.173034522744209
0.141056343692853,-0.174638708376587
0.130132081785136,-0.176326001317067
0.119240566841523,-0.178097141710331
0.108382075129341,-0.179952836929173
0.0975568702804454,-0.181893761993709
0.0867652034453798,-0.1839205599661
0.0760073134383871,-0.186033842321835
0.0652834268736297,-0.188234189298527
0.0545937582929779,-0.190522150223108
0.0439385102856778,-0.192898243818236
0.0333178736001943,-0.195362958488663
0.0227320272485012,-0.197916752588269
0.012181138603063,-0.200560054668377
0.0016653634867419,-0.20329326370796
-0.00881515374416614,-0.206116749326248
-0.0192602801235713,-0.209030851978251
-0.0296698940057352,-0.212035883133613
-0.0400438850017629,-0.215132125439229
-0.0503821539223005,-0.218319832865958
-0.0606846127263111,-0.221599230839788
-0.0709511844758184,-0.224970516357707
-0.0811818032965167,-0.228433858088564
-0.0913764143441647,-0.231989396459115
-0.101534973776689,-0.235637243725451
-0.111657448731938,-0.239377484029959
-0.121743817311038,-0.243210173443934
-0.13179406856732,-0.247135339995943
-0.141808202500782,-0.251152983685986
-0.151786230058096,-0.255263076485497
-0.161728173138134,-0.259465562323179
-0.171634064603049,-0.263760357056646
-0.181503948294914,-0.268147348429807
-0.191337879057969,-0.272626396015906
-0.201135922766522,-0.277197331146095
-0.210898156358547,-0.281859956823383
-0.220624667875082,-0.286614047621786
-0.230315556505481,-0.291459349570442
-0.239970932638638,-0.296395580022457
-0.249590917920293,-0.301422427508187
-0.259175645316535,-0.306539551572623
-0.26872525918366,-0.311746582596533
-0.278239915344529,-0.317043121600945
-0.287719781171609,-0.322428740034535
-0.297165035676871,-0.327902979543426
-0.306575869608782,-0.333465351722863
-0.315952485556588,-0.339115337850189
-0.325295098062158,-0.344852388598473
-0.334603933739655,-0.3506759237301
-0.343879231403322,-0.356585331769582
-0.353121242203703,-0.362579969654757
-0.362330229772653,-0.368659162365512
-0.371506470377499,-0.374822202529051
-0.380650253084759,-0.38106835000069
-0.389761879933866,-0.387396831419058
-0.398841666121358,-0.393806839734478
-0.407889940196054,-0.400297533709226
-0.416907044265763,-0.406868037388256
-0.42589333421614,-0.413517439538837
-0.434849179942316,-0.420244793057457
-0.443774965594034,-0.427049114342181
-0.452671089835022,-0.433929382628514
-0.461537966117462,-0.440884539286654
-0.470376022972425,-0.447913487077826
-0.479185704317267,-0.455015089367209
-0.487967469781041,-0.46218816929074
-0.496721795049078,-0.469431508872818
-0.505449172227992,-0.476743848091719
-0.514150110232499,-0.484123883889168
-0.522825135195527,-0.491570269120257
-0.53147479090328,-0.499081611439493
-0.54009963925703,-0.506656472118376
-0.548700260763636,-0.514293364789462
-0.557277255056929,-0.521990754111363
-0.56583124145236,-0.529747054348589
-0.574362859537539,-0.537560627859504
-0.582872769801555,-0.545429783484968
-0.591361654306289,-0.553352774829464
-0.59983021740327,-0.561327798425606
-0.608279186500037,-0.569352991771914
-0.616709312880364,-0.577426431232639
-0.625121372583283,-0.585546129787062
-0.633516167346355,-0.593710034614288
-0.641894525619323,-0.601916024497809
-0.650257303655051,-0.610161907032208
-0.658605386685486,-0.61844541561214
-0.666939690191421,-0.626764206181149
-0.67526116127597,-0.635115853714936
-0.68357078015304,-0.643497848410186
-0.69186956176362,-0.651907591546096
-0.700158557534614,-0.660342390980964
-0.708438857297039,-0.668799456240707
-0.716711591383015,-0.677275893149582
-0.724977932924002,-0.685768697945642
-0.733239100376333,-0.694274750814194
-0.741496360304447,-0.702790808761419
-0.749751030457444,-0.711313497736981
-0.758004483180873,-0.719839303898244
-0.766258149213408,-0.728364563889021
-0.774513521927486,-0.736885453981582
-0.782772162084634,-0.745397977900788
-0.791035703190758,-0.753897953112072
-0.799305857554824,-0.762380995308399
-0.807584423177377,-0.770842500772446
-0.815873291624716,-0.779277626215068
-0.824174457082332,-0.787681265594271
-0.83249002683053,-0.796048023292761
-0.840822233450041,-0.804372182865896
-0.849173449152084,-0.812647670350073
-0.85754620274454,-0.820868010821427
-0.865943199906956,-0.829026276482393
-0.874367347672128,-0.837115023977485
-0.882821784332375,-0.845126217819312
-0.891309916454574,-0.85305113561289
-0.89983546538174,-0.860880248989985
-0.908402526660348,-0.868603071447522
-0.917015647507561,-0.876207959995477
-0.92567993017268,-0.88368185050351
-0.934401173723888,-0.891009894660975
-0.943186075187762,-0.898174944966266
-0.952042527002447,-0.905156793108389
-0.960980080815273,-0.911930982429437
-0.97001072300632,-0.918466822223717
-0.979150303811201,-0.92472372851899
-0.988421585845375,-0.930643418436914
-0.997862635558043,-0.936128424169733
-1.00757575757576,-0.940916798310144
