-0.354119174171243,0.821441689623508
-0.346798595372676,0.813488813015705
-0.33883779986336,0.806024239720854
-0.330477521927125,0.798864357930074
-0.321807336197059,0.79194084766771
-0.312880805665523,0.785212855600534
-0.303735227718254,0.77865193442826
-0.294398807654669,0.772236571527245
-0.284894021574407,0.765949624024252
-0.275239441271418,0.759776926921148
-0.265450825601883,0.753706460691493
-0.255541820424972,0.747727817424765
-0.245524431906706,0.741831839830088
-0.235409360160111,0.736010366763662
-0.225206242466326,0.730256047720214
-0.214923835563686,0.724562203798261
-0.2045701554869,0.718922721042575
-0.194152586990499,0.713331966985208
-0.183677970649354,0.707784724212562
-0.173152673231524,0.702276136690919
-0.162582645306151,0.696801665827989
-0.151973468952834,0.691357054084229
-0.141330397684945,0.685938294522707
-0.130658390169869,0.680541605090142
-0.119962138950185,0.675163406710807
-0.109246095093976,0.669800304485361
-0.0985144894985978,0.664449071442122
-0.0877713514194819,0.659106634404861
-0.0770205246796087,0.653770061629587
-0.0662656819262604,0.648436551930693
-0.0555103372326102,0.643103425069529
-0.044757857287556,0.63776811321974
-0.0340114713744075,0.632428153356367
-0.0232742803048875,0.62708118044174
-0.0125492644474692,0.621724921302144
-0.00183929096683944,0.616357189106164
0.0088528796268354,0.610975878369458
0.0195245875350407,0.605578960422039
0.0301732682629145,0.600164479283508
0.0407964476847882,0.594730547899467
0.0513917375304432,0.58927534469881
0.0619568312464021,0.583797110437076
0.0724895001925937,0.578294145295573
0.0829875901398261,0.572764806209956
0.0934490180378393,0.567207504405165
0.103871769027417,0.561620703116517
0.114253893673204,0.556002915479132
0.124593505396619,0.550352702569979
0.134888778090604,0.5446686715886
0.145137943900001,0.538949474164177
0.155339291153129,0.53319380477791
0.165491162431673,0.527400399290889
0.175591952767376,0.521568033568688
0.185640107955184,0.515695522194766
0.195634122973571,0.509781717265634
0.205572540503675,0.50382550726137
0.215453949539703,0.497825815985755
0.225276984083778,0.491781601570812
0.235040321919052,0.485691855541042
0.244742683455478,0.479555601933074
0.254382830643145,0.473371896466849
0.263959565948533,0.467139825764795
0.273471731389471,0.460858506615771
0.282918207624916,0.454527085280835
0.292297913096053,0.448144736838135
0.30160980321545,0.441710664564477
0.310852869601337,0.43522409935129
0.320026139354266,0.428684299152927
0.329128674373678,0.422090548465399
0.338159570712059,0.415442157833777
0.34711795796459,0.408738463386673
0.356002998692333,0.401978826396293
0.364813887877161,0.395162632862702
0.373549852406781,0.388289293121046
0.382210150588317,0.38135824147055
0.390794071689038,0.374368935824228
0.399300935502936,0.367320857378305
0.407730091941946,0.36021351030043
0.416080920650686,0.353046421435837
0.424352830643697,0.34581914003066
0.432545259964227,0.338531237471683
0.440657675363684,0.331182307041852
0.448689572000937,0.323771963690928
0.456640473160721,0.316299843820714
0.46450992999046,0.308765605084319
0.472297521254862,0.301168926198987
0.480002853107708,0.29350950677204
0.487625558880291,0.28578706713951
0.495165298886022,0.278001348217116
0.50262176024075,0.270152111363215
0.50999465669838,0.262239138253428
0.517283728501436,0.254262230766658
0.524488742246222,0.246221210882251
0.531609490762283,0.238115920588056
0.538645793005914,0.229946221799204
0.54559749396747,0.22171199628741
0.552464464592288,0.213413145620662
0.559246601715042,0.20504959111315
0.565943828007397,0.19662127378534
0.572556091938841,0.188128154334105
0.57908336775063,0.179570213112847
0.585525655442763,0.170947450121566
0.591882980773986,0.162259885006861
0.59815539527481,0.153507557071857
0.604342976273569,0.14469052529609
0.61044582693559,0.135808868365368
0.616464076315537,0.126862684711705
0.622397879423054,0.117852092563384
0.628247417301846,0.108777230005276
0.634012897122367,0.0996382550495294
0.639694552288314,0.0904353457168011
0.645292642557164,0.0811687001281866
0.65080745417501,0.0718385366080644
0.656239300026005,0.0624450937980789
0.661588519796736,0.0529886307825111
0.666855480155912,0.0434694272253267
0.67204057494975,0.0338877835192067
0.677144225413544,0.0242440209469053
0.682166880399869,0.014538481855313
0.687109016623989,0.00477152984262831
0.691971138927036,-0.00505645004091056
0.696753780557603,-0.0149450510782489
0.701457503472441,-0.0248938446561715
0.706082898657009,-0.0349023800208123
0.710630586466688,-0.0449701840174045
0.715101216989545,-0.0550967608135981
0.719495470431586,-0.0652815916056176
0.723814057525543,-0.0755241343064768
0.728057719964293,-0.085823823215402
0.732227230860128,-0.0961800686675372
0.736323395231174,-0.106592256662949
0.740347050516371,-0.117059748473843
0.744299067120536,-0.12758188022883
0.748180348991185,-0.138157962472983
0.751991834228876,-0.148787279702311
0.755734495733056,-0.159469089871169
0.759409341885497,-0.170202623870985
0.763017417273628,-0.180987084978564
0.766559803456269,-0.191821648272056
0.770037619774458,-0.202705460012518
0.773452024210369,-0.213637636988808
0.77680421429752,-0.224617265823356
0.780095428085823,-0.235643402236101
0.783326945165326,-0.246715070263674
0.786500087752876,-0.257831261430574
0.789616221846349,-0.268990933868826
0.79267675845154,-0.280193011382209
0.795683154887309,-0.291436382450804
0.798636916175184,-0.302719899171118
0.801539596520217,-0.314042376126613
0.804392800890667,-0.325402589182861
0.807198186704848,-0.336799274200954
0.80995746563444,-0.348231125662091
0.812672405534603,-0.359696795195453
0.815344832512393,-0.371194890000584
0.817976633146393,-0.382723971154451
0.820569756871957,-0.394282551792176
0.823126218548303,-0.405869095149074
0.825648101225688,-0.417482012450087
0.828137559133307,-0.429119660630868
0.83059682091123,-0.440780339872728
0.833028193112934,-0.452462290931202
0.835434064008637,-0.464163692235186
0.837816907724009,-0.475882656730283
0.840179288753912,-0.487617228436093
0.84252386689686,-0.499365378682628
0.844853402663019,-0.511125001985548
0.847170763217077,-0.522893911513436
0.849478928927506,-0.534669834092579
0.851781000606029,-0.546450404685306
0.854080207535956,-0.558233160266657
0.856379916406186,-0.570015533010279
0.85868364128989,-0.58179484267752
0.860995054834352,-0.593568288082776
0.863318000862551,-0.605332937482052
0.865656508629919,-0.617085717699121
0.868014809033813,-0.628823401762302
0.870397353142314,-0.640542594772252
0.872808833498003,-0.652239717653246
0.875254208768264,-0.663910988352002
0.877738732466469,-0.675552399931587
0.880267986672215,-0.68715969485246
0.882847921954648,-0.69872833452233
0.885484905081825,-0.710253462907479
0.888185776628617,-0.721729862594308
0.890957921349554,-0.73315190111487
0.893809355279346,-0.744513464513938
0.89674883515633,-0.755807873890028
0.899785998261641,-0.767027778737866
0.902931544708307,-0.778165017913654
0.90619748066235,-0.789210434126515
0.909597451982939,-0.800153619465926
0.913147217526254,-0.810982554405449
0.916865349086247,-0.82168307394695
0.920774322762555,-0.832238035217191
0.924902343854597,-0.842625925592531
0.929286709748108,-0.852818297772682
0.933980983435451,-0.862774298424418
0.939074739549712,-0.872425607572082
0.944808712374723,-0.881588613406795
-0.354119174171243,0.821441689623508
-0.348385201346232,0.812278683788795
-0.343291445231971,0.80262737464113
-0.338597171544628,0.792671373989395
-0.334212805651117,0.782479001809243
-0.330084784559075,0.772091111433904
-0.326175810882767,0.761536150163662
-0.322457679322774,0.750835630622162
-0.318907913779459,0.740006695682639
-0.31550794245887,0.729063510343227
-0.312242006504827,0.718018094130367
-0.309096460058161,0.706880854954579
-0.30605929695285,0.69566095010674
-0.303119817075866,0.684366540730651
-0.300268383146074,0.673004977331583
-0.297496238425137,0.66158293881102
-0.294795366878345,0.650106539124191
-0.292158383751168,0.638581410739043
-0.289578448468735,0.627012771069173
-0.287049194262989,0.6154054761483
-0.284564670564784,0.603764064568715
-0.282119295294523,0.592092793869959
-0.279707814938834,0.580395670988965
-0.277325270830333,0.568676477979015
-0.274966970426439,0.556938793915834
-0.272628462659071,0.545186013698764
-0.270305516630872,0.533421364299488
-0.26799410308641,0.521647918894233
-0.265690378202706,0.509868609226991
-0.263390669332477,0.49808623648337
-0.261091462402549,0.486303480902018
-0.258789390724026,0.474522910309291
-0.256481225013597,0.462746987730149
-0.254163864459539,0.45097807820226
-0.25183432869338,0.439218454899341
-0.249489750550432,0.427470304652805
-0.247127369520529,0.415735732946996
-0.244744525805157,0.404016768451899
-0.242338654909454,0.392315367147914
-0.23990728270775,0.38063341608944
-0.237448020929827,0.368972736847581
-0.234958563022208,0.3573350886668
-0.232436680344823,0.345722171365787
-0.229880218668477,0.334135628008888
-0.227287094942913,0.322577047371164
-0.224655294308913,0.311047966217296
-0.221982867331123,0.299549871412165
-0.21926792743096,0.288084201878803
-0.216508648501368,0.276652350417667
-0.213703262687187,0.265255665399573
-0.210850058316737,0.253895452343325
-0.207947377971704,0.24257297538783
-0.204993616683829,0.231289458667516
-0.20198722024806,0.220046087598922
-0.198926683642869,0.208844010085538
-0.195810549549396,0.197684337647287
-0.192637406961846,0.186568146480387
-0.189405889882344,0.175496478452814
-0.18611467609404,0.164470342040068
-0.182762486006889,0.153490713205521
-0.179348081570978,0.14255853622923
-0.175870265252789,0.131674724488769
-0.172327879070149,0.120840161195277
-0.168719803682017,0.110055700087697
-0.165044957529576,0.0993221660878817
-0.161302296025396,0.088640355919024
-0.157490810787705,0.0780110386896956
-0.153609528917056,0.0674349564455427
-0.149657512312891,0.0569128246905558
-0.145633857027694,0.046445332879662
-0.141537692656648,0.0360331448842497
-0.137368181760813,0.0256768994321144
-0.133124519322063,0.0153772105231896
-0.128805932228106,0.00513466782233014
-0.124411678786065,-0.00505016296968928
-0.119941048263208,-0.0151767397658828
-0.115393360453529,-0.0252445437624752
-0.110767965268961,-0.0352530791271159
-0.106064242354123,-0.0452018727050385
-0.101281600723556,-0.055090473742377
-0.0964194784205092,-0.0649184536259156
-0.0914773421963891,-0.0746854056386004
-0.0864546872100641,-0.0843909447301927
-0.0813510367462703,-0.094034707302494
-0.0761659419524317,-0.103616351008614
-0.0708989815932565,-0.113135554565799
-0.0655497618225246,-0.122592017581366
-0.0601179159715301,-0.131985460391352
-0.054603104353684,-0.141315623911474
-0.0490050140848341,-0.150582269500089
-0.0433233589188867,-0.159785178832817
-0.0375578790983658,-0.168924153788563
-0.031708341219574,-0.177999016346672
-0.0257745381120574,-0.187009608494992
-0.0197562887321105,-0.195955792148656
-0.0136534380700891,-0.204837449079378
-0.00746585707132974,-0.213654480855145
-0.00119344257050641,-0.222406808790148
0.00516388276071694,-0.231094373904854
0.0116061704528499,-0.239717136896135
0.0181334462646388,-0.248275078117393
0.0247457101960832,-0.256768197568627
0.0314429364884375,-0.265196514896437
0.0382250736111918,-0.27356006940395
0.0450920442360098,-0.281858920070698
0.052043745197566,-0.290093145582491
0.0590800474411967,-0.298262844371344
0.0662007959572577,-0.306368134665539
0.0734058097020433,-0.314409154549946
0.0806948815051,-0.322386062036715
0.0880677779627302,-0.330299035146502
0.0955242393174577,-0.338148272000403
0.103063979323189,-0.345933990922797
0.110686685095772,-0.353656430555327
0.118392016948618,-0.361315849982275
0.12617960821302,-0.368912528867606
0.134049065042759,-0.376446767604002
0.141999966202543,-0.383918887474216
0.150031862839796,-0.391329230825139
0.158144278239253,-0.39867816125497
0.166336707559783,-0.405966063813947
0.174608617552794,-0.413193345219124
0.182959446261533,-0.420360434083717
0.191388602700544,-0.427467781161592
0.199895466514442,-0.434515859607515
0.208479387615163,-0.441505165253837
0.217139685796699,-0.448436216904334
0.225875650326319,-0.45530955664599
0.234686539511147,-0.462125750179581
0.24357158023889,-0.468885387169961
0.252529967491421,-0.475589081617064
0.261560863829802,-0.482237472248686
0.270663398849214,-0.488831222936215
0.279836668602143,-0.495371023134577
0.289079734988029,-0.501857588347765
0.298391625107427,-0.508291660621422
0.307771330578564,-0.514674009064122
0.317217806814009,-0.521005430399059
0.326729972254946,-0.527286749548082
0.336306707560335,-0.533518820250136
0.345946854748002,-0.539702525716361
0.355649216284428,-0.545838779324329
0.365412554119702,-0.5519285253541
0.375235588663777,-0.557972739769042
0.385116997699805,-0.563972431044658
0.395055415229909,-0.569928641048922
0.405049430248296,-0.575842445978054
0.415097585436104,-0.581714957351975
0.425198375771807,-0.587547323074177
0.435350247050351,-0.593340728561197
0.445551594303479,-0.599096397947465
0.455800760112876,-0.604815595371887
0.466096032806861,-0.610499626353266
0.476435644530276,-0.61614983926242
0.486817769176063,-0.621767626899804
0.497240520165641,-0.627354428188453
0.507701948063654,-0.632911729993244
0.518200038010886,-0.638441069078861
0.528732706957078,-0.643944034220363
0.539297800673037,-0.649422268482098
0.549893090518692,-0.654877471682754
0.560516269940565,-0.660311403066796
0.571164950668439,-0.665725884205326
0.581836658576644,-0.671122802152745
0.592528829170319,-0.676504112889451
0.603238802650949,-0.681871845085432
0.613963818508368,-0.687228104225028
0.624701009577887,-0.692575077139655
0.635447395491036,-0.697915037003028
0.64619987543609,-0.703250348852817
0.65695522012974,-0.70858347571398
0.667710062883089,-0.713916985412875
0.678460889622962,-0.719253558188149
0.689204027702078,-0.724595995225409
0.699935633297456,-0.729947228268649
0.710651677153665,-0.735310330494095
0.721347928373349,-0.740688528873429
0.732019935888425,-0.746085218305995
0.742663007156314,-0.751503977867517
0.753272183509631,-0.756948589611276
0.763842211435003,-0.762423060474207
0.774367508852834,-0.76793164799585
0.784842125193979,-0.773478890768495
0.79525969369038,-0.779069644825862
0.805613373767166,-0.784709127581549
0.815895780669806,-0.790402971503502
0.826098898363591,-0.796157290546949
0.836213970110186,-0.801978763613376
0.846231358628452,-0.807874741208053
0.856140363805363,-0.81385338447478
0.865928979474898,-0.819923850704435
0.875583559777886,-0.826096547807539
0.885088345858148,-0.832383495310532
0.894424765921734,-0.838798858211548
0.903570343869003,-0.845359779383821
0.912496874400539,-0.852087771450997
0.921167060130605,-0.859011281713361
0.92952733806684,-0.866171163504142
0.937488133576156,-0.873635736798993
0.944808712374723,-0.881588613406795
