0.392117917294192,0.669504932691828
0.391596735501956,0.658454603030174
0.391028574870372,0.647510547196779
0.390414205237057,0.636671793688562
0.3897543880042,0.625937389854793
0.389049876351789,0.615306401371211
0.388301415444063,0.60477791172938
0.387509742629404,0.594351021740779
0.386675587633898,0.584024849055132
0.385799672748777,0.573798527692506
0.384882713011937,0.563671207588721
0.383925416383739,0.553642054153634
0.382928483917279,0.54371024784187
0.381892609923299,0.53387498373561
0.380818482129934,0.524135471139024
0.379706781837443,0.514490933183997
0.378558184068099,0.504940606446762
0.377373357711392,0.495483740575115
0.37615296566469,0.486119597925853
0.374897664969512,0.476847453212136
0.37360810694355,0.467666593160435
0.372284937308566,0.458576316176797
0.370928796314312,0.449575932022103
0.369540318858579,0.440664761496069
0.368120134603513,0.431842136129705
0.366668868088305,0.423107397885976
0.365187138838365,0.414459898868418
0.3636755614711,0.405899001037466
0.362134745798394,0.397424075934253
0.360565296925886,0.389034504411674
0.35896781534916,0.380729676372475
0.357342897046921,0.372508990514177
0.355691133571266,0.364371854080625
0.354013112135126,0.356317682619957
0.352309415696975,0.348345899748829
0.350580623042875,0.340455936922682
0.348827308865949,0.33264723321191
0.347050043843353,0.324919235083725
0.345249394710825,0.31727139618958
0.343425924334873,0.309703177157982
0.341580191782684,0.302214045392531
0.33971275238982,0.294803474875062
0.337824157825754,0.287470945973719
0.335914956157323,0.280215945255845
0.333985691910152,0.273037965305529
0.33203690612811,0.26593650454571
0.330069136430853,0.25891106706469
0.328082917069512,0.251961162446937
0.32607877898058,0.245086305608073
0.324057249838045,0.238286016633919
0.322018854103829,0.231559820623493
0.319964113076566,0.224907247535857
0.317893544938786,0.218327832040703
0.315807664802531,0.211821113372583
0.313706984753467,0.205386635188682
0.311592013893516,0.199023945430046
0.309463258382064,0.192732596186168
0.307321221475777,0.186512143562843
0.30516640356707,0.18036214755322
0.30299930222126,0.174282171911945
0.300820412212451,0.168271784032333
0.298630225558175,0.162330554826492
0.296429231552829,0.156458058608306
0.294217916799944,0.15065387297922
0.291996765243316,0.144917578716756
0.28976625819703,0.139248759665676
0.287526874374407,0.133647002631742
0.285279089915915,0.128111897277999
0.28302337841605,0.122643036023524
0.280760210949246,0.117240013944571
0.278490056094812,0.111902428678057
0.276213379960941,0.106629880327345
0.273930646207813,0.101421971370238
0.271642316069814,0.0962783065691592
0.269348848376899,0.0911984928834516
0.267050699575122,0.0861821393837446
0.264748323746353,0.0812288571683456
0.26244217262721,0.0763382592816009
0.260132695627225,0.0715099606341833
0.257820339846268,0.0667435779252601
0.25550555009124,0.0620387295664946
0.253188768892073,0.057395035607842
0.25087043651704,0.0528121176650946
0.248550990987402,0.0482895988491371
0.246230868091411,0.0438271036968709
0.243910501397685,0.0394242581037717
0.24159032226797,0.0350806892580399
0.239270759869319,0.0307960255763076
0.236952241185684,0.0265698966408701
0.234635191028955,0.0224019331384023
0.232320032049458,0.0182917668001306
0.230007184745921,0.0142390303434254
0.227697067474928,0.0102433574147824
0.225390096459879,0.00630438253416293
0.223086685799462,0.00242174104066148
0.220787247475662,-0.00140493096052668
0.218492191361306,-0.00517599664987026
0.216201925227177,-0.00889181854402221
0.213916854748688,-0.0125527585451269
0.21163738351215,-0.0161591779889375
0.209363913020627,-0.0197114376917726
0.207096842699406,-0.0232098979963334
0.204836569901085,-0.0266549188164097
0.202583489910292,-0.0300468596804961
0.20033799594805,-0.0333860797743436
0.198100479175793,-0.0366729379824668
0.195871328699047,-0.0399077929286323
0.193650931570791,-0.0430910030153466
0.191439672794495,-0.0462229264623679
0.189237935326868,-0.0493039213442586
0.187046100080295,-0.0523343456270026
0.184864545925001,-0.0553145572037043
0.182693649690934,-0.0582449139293898
0.180533786169388,-0.0611257736549273
0.178385328114361,-0.0639574942600888
0.176248646243667,-0.0667404336857658
0.174124109239817,-0.069474949965361
0.17201208375065,-0.0721614012553703
0.169912934389764,-0.0748001458651727
0.167827023736708,-0.0773915422860448
0.16575471233699,-0.0799359492194148
0.163696358701866,-0.0824337256043728
0.161652319307948,-0.084885230644451
0.159622948596627,-0.087290823833691
0.157608598973312,-0.0896508649820102
0.155609620806507,-0.0919657142398839
0.153626362426717,-0.0942357321223547
0.151659170125207,-0.0964612795323857
0.149708388152599,-0.0986427177835677
0.147774358717338,-0.100780408622197
0.145857421984012,-0.102874714248731
0.143957916071549,-0.104925997338645
0.14207617705128,-0.106934621062686
0.140212538944896,-0.108900949106554
0.138367333722279,-0.110825345690005
0.136540891299241,-0.112708175585405
0.134733539535148,-0.114549804135729
0.132945604230461,-0.11635059727203
0.131177409124176,-0.118110921530379
0.129429275891191,-0.119831144068296
0.127701524139584,-0.121511632680672
0.125994471407825,-0.123152755815204
0.12430843316191,-0.124754882587339
0.122643722792446,-0.126318382794754
0.12100065161166,-0.127843626931368
0.119379528850367,-0.129330986200897
0.117780661654882,-0.130780832529974
0.116204355083893,-0.132193538580824
0.114650912105289,-0.133569477763524
0.113120633592952,-0.134909024247833
0.111613818323527,-0.136212552974628
0.110130762973156,-0.137480439666931
0.108671762114193,-0.138713060840548
0.107237108211903,-0.139910793814329
0.105827091621143,-0.141074016720049
0.104442000583041,-0.142203108511926
0.103082121221659,-0.143298448975781
0.101747737540667,-0.144360418737848
0.100439131420005,-0.145389399273242
0.0991565826125616,-0.146385772914092
0.0979003687408631,-0.147349922857349
0.0966707652937685,-0.148282233172272
0.0954680456231884,-0.149183088807605
0.0942924809408234,-0.150052875598448
0.0931443403149271,-0.150891980272833
0.0920238906670971,-0.151700790458004
0.0909313967690986,-0.152479694686419
0.0898671212397228,-0.153229082401478
0.0888313245416842,-0.153949343962975
0.0878242649785598,-0.154640870652289
0.0868461986917741,-0.155304054677326
0.0858973796576321,-0.155939289177203
0.0849780596844054,-0.156546968226696
0.0840884884094718,-0.157127486840445
0.0832289132965151,-0.157681240976939
0.0823995796327849,-0.15820862754227
0.0816007305264213,-0.158710044393673
0.0808326069038481,-0.159185890342854
0.0800954475072353,-0.159636565159118
0.0793894888920363,-0.160062469572293
0.078714965424601,-0.16046400527547
0.0780721092798693,-0.160841574927544
0.0774611504391459,-0.161195582155591
0.0768823166879618,-0.16152643155706
0.0763358336140229,-0.161834528701803
0.07582192460525,-0.162120280133939
0.0753408108479132,-0.162384093373563
0.074892711324862,-0.162626376918311
0.0744778428138553,-0.162847540244772
0.0740964198859936,-0.163047993809767
0.0737486549042558,-0.163228149051491
0.189576869852767,-0.0661111822747042
-0.0251649852199982,-0.265641357147617
-0.0352813394088609,-0.265709859940402
0.0726983443410619,-0.163754049951499
0.184001492945085,-0.065017881990142
0.172874568727081,-0.271000039585429
-0.0541754504508365,-0.283912838966446
0.10724612361513,-0.131399477380771
0.15021156331995,-0.230745955381893
-0.0329601702089288,-0.292396630759918
0.213258014739784,-0.0541043916922115
0.204882943022835,-0.281305174493749
0.167559382841732,-0.0563126655161767
0.172369217528709,-0.0618577488310003
0.0830464581890807,-0.131842374993176
-0.0497473995601792,-0.268503788851096
0.170674501984179,-0.264621333870278
0.16563080052754,-0.0693803442782899
0.182309165535215,-0.2770287704983
0.0741689681525204,-0.163210939884269
-0.0583159703523849,-0.0598935196343115
-0.0423265147964486,-0.0580007888727266
0.195153132201284,-0.253959241001407
-0.0623881533371963,-0.259132455122867
-0.0135010896122335,-0.096415572313135
0.0925513731456996,-0.170446081782171
0.209019350420232,-0.0183976504719081
0.23139407207157,-0.251716521280583
0.0806399904385119,-0.174404420582656
0.0511651472219509,-0.165157244008188
0.0497646294849662,-0.189940046498104
0.087390461869485,-0.165601116570514
0.103090363209511,-0.154577589784119
0.0493885263578302,-0.138447843838258
0.0842680736032026,-0.160015233239741
0.0852547611408688,-0.159746978283564
0.0862814099113656,-0.159474340765725
0.0873481485836699,-0.159197769535522
0.0884551036708588,-0.158917714426068
0.0896023995349405,-0.15863462625487
0.0907901583918967,-0.15834895682452
0.0920185003169361,-0.158061158923507
0.0932875432499628,-0.157771686327145
0.0945974030012632,-0.157480993798637
0.0959481932574131,-0.157189537090276
0.0973400255874073,-0.156897772944791
0.0987730094490163,-0.156606159096837
0.100247252195371,-0.156315154274658
0.101762859081781,-0.1560252182019
0.103319933272783,-0.155736811599606
0.104918575849432,-0.155450396188395
0.106558885816831,-0.155166434690816
0.108240960111902,-0.154885390833912
0.109964893611407,-0.154607729351977
0.111730779140217,-0.154333915989529
0.113538707479831,-0.154064417504504
0.115388767377155,-0.153799701671667
0.117281045553538,-0.153540237286275
0.119215626714072,-0.153286494167965
0.121192593557152,-0.153038943164909
0.12321202678431,-0.152798056158218
0.125274005110323,-0.152564306066626
0.127378605273586,-0.152338166851443
0.129525902046779,-0.152120113521795
0.131715968247802,-0.15191062214017
0.133948874751006,-0.151710169828255
0.136224690498711,-0.151519234773099
0.138543482513015,-0.151338296233594
0.140905315907902,-0.151167834547288
0.143310253901654,-0.15100833113755
0.145758357829559,-0.150860268521081
0.148249687156943,-0.150724130315789
0.150784299492496,-0.150600401249042
0.153362250601932,-0.150489567166305
0.155983594421959,-0.150392115040171
0.158648383074584,-0.150308532979799
0.161356666881734,-0.15023931024077
0.164108494380228,-0.150184937235373
0.166903912337075,-0.15014590554333
0.169742965765124,-0.150122707922976
0.172625697939054,-0.1501158383229
0.175552150411723,-0.15012579189407
0.178522363030877,-0.150153065002438
0.181536373956211,-0.150198155242056
0.184594219676812,-0.150261561448702
0.187695935028967,-0.15034378371404
0.190841553214348,-0.150445323400315
0.194031105818587,-0.150566683155613
0.19726462283024,-0.150708366929684
0.20054213266014,-0.150870879990355
0.203863662161161,-0.151054728940543
0.20722923664838,-0.151260421735879
0.210638879919659,-0.151488467702966
0.214092614276642,-0.151739377558283
0.217590460546184,-0.152013663427749
0.221132438102205,-0.152311838866971
0.224718564887988,-0.15263441888218
0.228348857438928,-0.152981919951891
0.232023330905718,-0.153354860049281
0.235741999078019,-0.153753758665328
0.239504874408574,-0.15417913683271
0.243311968037818,-0.154631517150489
0.247163289818955,-0.155111423809611
0.251058848343538,-0.155619382619218
0.254998650967542,-0.156155921033813
0.258982703837944,-0.156721568181294
0.26301101191983,-0.15731685489187
0.267083579024008,-0.157942313727887
0.271200407835178,-0.158598479014591
0.275361499940623,-0.159285886871842
0.279566855859475,-0.160005075246806
0.283816475072522,-0.160756583947648
0.28811035605261,-0.161540954678259
0.292448496295608,-0.162358731074025
0.296830892351979,-0.16321045873868
0.301257539858957,-0.164096685282262
0.305728433573327,-0.165017960360204
0.310243567404847,-0.165974835713574
0.314802934450303,-0.166967865210519
0.319406527028208,-0.167997604888912
0.324054336714182,-0.169064613000255
0.328746354376988,-0.170169450054859
0.333482570215275,-0.171312678868331
0.338262973795012,-0.172494864609409
0.343087554087648,-0.17371657484917
0.347956299508994,-0.174978379611653
0.35286919795886,-0.176280851425916
0.357826236861447,-0.177624565379597
0.36282740320652,-0.179010099173971
0.367872683591367,-0.180438033180582
0.372962064263578,-0.18190895049946
0.378095531164638,-0.183423437018991
0.38327306997437,-0.184982081477446
0.388494666156243,-0.186585475526248
0.393760305003552,-0.188234213795
0.399069971686499,-0.189928893958318
0.404423651300199,-0.191670116804533
0.409821328913618,-0.193458486306284
0.415262989619469,-0.195294609693078
0.420748618585099,-0.197179097525847
0.426278201104367,-0.199112563773564
0.431851722650559,-0.201095625891969
0.43746916893034,-0.203128904904461
0.443130525938792,-0.205213025485213
0.448835780015539,-0.207348616044562
0.454584917902006,-0.209536308816749
0.460377926799819,-0.21177673995005
0.466214794430389,-0.214070549599386
0.4720955090957,-0.216418382021452
0.478020059740329,-0.218820885672458
0.483988436014735,-0.221278713308528
0.490000628339839,-0.223792522088849
0.496056627972936,-0.226362973681632
0.502156427074964,-0.228990734372962
0.508300018779162,-0.231676475178624
0.514487397261171,-0.234420871958975
0.520718557810586,-0.237224605536957
0.526993496904016,-0.240088361819326
0.533312212279686,-0.243012831921195
0.539674703013616,-0.245998712293982
0.546080969597426,-0.249046704856848
0.552531014017799,-0.252157517131735
0.559024839837659,-0.255331862382104
0.565562452279095,-0.258570459755468
0.572143858308086,-0.26187403442983
0.57876906672108,-0.265243317764154
0.585438088233462,-0.268679047452952
0.592150935569977,-0.27218196768514
0.598907623557155,-0.27575282930726
0.605708169217791,-0.279392389991203
0.612552591867541,-0.283101414406573
0.619440913213698,-0.286880674397808
0.626373157456187,-0.290730949166217
0.633349351390877,-0.294653025457064
0.640369524515244,-0.298647697751854
0.647433709136465,-0.302715768465977
0.654541940482014,-0.306858048151865
0.661694256812839,-0.311075355707827
0.668890699539169,-0.315368518592742
0.676131313339061,-0.319738373046778
0.683416146279748,-0.324185764318318
0.690745249941875,-0.32871154689729
0.698118679546704,-0.3333165847551
0.705536494086395,-0.338001751591354
0.712998756457431,-0.342767931087601
0.720505533597303,-0.347616017168297
0.728056896624542,-0.352546914269229
0.735652920982206,-0.357561537613624
0.743293686584925,-0.362660813496189
0.750979277969625,-0.367845679575332
0.758709784450029,-0.37311708517383
0.766485300275066,-0.378475991588201
0.774305924791308,-0.383923372407074
0.782171762609565,-0.389460213838842
0.790082923775768,-0.395087515048894
0.798039523946274,-0.400806288506747
0.806041684567748,-0.406617560343396
0.81408953306176,-0.412522370719225
0.822183203014255,-0.418521774202819
0.830322834370054,-0.424616840161051
0.838508573632558,-0.430808653160809
0.846740574068823,-0.437098313382766
0.855018995920185,-0.44348693704759
0.863344006618627,-0.449975656855023
0.871715781009075,-0.456565622436258
0.880134501577833,-0.46325800082009
0.888600358687358,-0.47005397691329
0.897113550817602,-0.476954753995712
0.905674284814142,-0.483961554230647
