0.14718577330909,0.872188789874008
0.0557099893231572,0.778999520344059
0.0583841527386257,0.797661518458614
-0.0608785858799507,0.686060406511194
0.0623316887821197,0.769279175106635
0.0456638843661093,0.801721773240836
0.0462303225942109,0.773026774438028
0.0424330536139458,0.774451038520465
0.0542662221276343,0.731678102864301
0.0479868426843446,0.749213413655034
0.046499499317009,0.779058406803484
0.00879633293464931,0.758211454875265
-0.0601440437498687,0.669273625824637
0.0703905911428016,0.833480903099819
-0.103021332289409,0.680123239191671
-0.136576827733053,0.637535934620261
-0.217251814798354,0.537442400126183
-0.239519391243636,0.419907241703619
-0.371004562783111,-0.048911949637786
-0.265529222162615,-0.58602886883505
0.199094760793066,-0.724031124554898
0.545406458941285,-0.434781350096455
0.575091194277406,0.0105038390602083
0.487836472548243,0.389804532027971
0.352782929041636,0.615911525792151
0.267705305581963,0.666068723520813
0.204601314140801,0.715222566196389
0.198683450187349,0.71663839195427
0.138685344972375,0.761207320091186
0.115530843933702,0.757491911694554
0.0870530017137708,0.781831246302203
0.094536929835638,0.773124105619241
0.0723963041360236,0.786215122188753
0.0827974056478964,0.776709995976552
0.0377099944738443,0.72970825564432
0.0853466722361001,0.750625636674431
0.0597633729026006,0.785943949151827
0.190423792522257,0.903942149255685
0.0706123024124605,0.779538448228996
0.0694503208546771,0.779743200858216
