1.01359209967248,0.625328424654339
1.00455439519576,0.61431280784326
0.995549894731798,0.60344311952591
0.986578646404386,0.592717763895658
0.97764070412249,0.582135171110926
0.968736127396059,0.571693796587866
0.959864981156561,0.561392120314014
0.951027335582078,0.551228646182203
0.942223265926806,0.541201901344052
0.933452852354822,0.531310435582397
0.92471617977798,0.521552820702024
0.916013337697791,0.511927649938096
0.907344420051166,0.502433537381707
0.898709525059901,0.493069117422001
0.890108755083778,0.483833044204301
0.881542216477166,0.474723991103757
0.873010019449022,0.465740650213998
0.864512277926175,0.456881731850302
0.856049109419791,0.448145964066845
0.847620634894932,0.439532092187553
0.839226978643095,0.431038878350153
0.830868268157662,0.422665101062997
0.822544634012151,0.414409554774254
0.814256209741196,0.406271049453106
0.806003131724176,0.39824841018255
0.797785539071402,0.390340476763473
0.789603573512797,0.382546103329633
0.781457379288993,0.374864157973237
0.77334710304477,0.367293522380766
0.765272893724777,0.359833091478764
0.757234902471458,0.352481773089274
0.749233282525127,0.345238487594636
0.741268189126139,0.338102167611376
0.733339779419075,0.331071757672901
0.725448212358904,0.324146213920757
0.717593648619064,0.317324503804184
0.709776250501399,0.310605605787735
0.701996181847912,0.303988509066714
0.694253607954274,0.297472213290219
0.686548695485056,0.291055728291562
0.678881612390619,0.284738073825851
0.671252527825635,0.278518279314541
0.663661612069179,0.272395383596739
0.656109036446373,0.266368434687091
0.648594973251511,0.260436489540042
0.641119595672661,0.254598613820317
0.633683077717672,0.248853881679419
0.62628559414158,0.243201375538
0.618927320375356,0.237640185873937
0.611608432455975,0.232169411015937
0.604329106957764,0.226788156942551
0.597089520925004,0.221495537086417
0.589889851805757,0.216290672143611
0.582730277386874,0.211172689887959
0.575610975730178,0.206140724990171
0.568532125109773,0.201193918841681
0.561493903950461,0.196331419383047
0.55449649076725,0.191552380936813
0.547540064105902,0.186855964044688
0.540624802484533,0.182241335308948
0.533750884336205,0.177707667237946
0.526918487952513,0.173254138095605
0.520127791428131,0.168879931754816
0.513378972606302,0.164584237554619
0.506672209025252,0.160366250161075
0.500007677865498,0.156225169431736
0.493385555898048,0.152160200283616
0.486806019433451,0.148170552564576
0.480269244271703,0.144255440928033
0.473775405652976,0.140414084710909
0.467324678209154,0.136645707814743
0.460917235916164,0.132949538589869
0.454553252047087,0.129324809722611
0.448232899126024,0.125770758125385
0.441956348882716,0.122286624829666
0.435723772207885,0.11887165488173
0.429535339109305,0.115525097241103
0.423391218668564,0.112246204681658
0.417291578998525,0.109034233695295
0.411236587201459,0.105888444398119
0.405226409327844,0.102808100439091
0.399261210335819,0.0997924689110567
0.39334115405127,0.0968408202641147
0.387466403128556,0.0939524282212631
0.381637119011841,0.0911265696962646
0.375853461897043,0.0883625247136823
0.370115590694374,0.0856595763310303
0.364423662991465,0.0830170105629877
0.358777835017067,0.0804341163076298
0.353178261605327,0.0779101852746247
0.347625096160608,0.0754445119153497
0.342118490622864,0.0730363933548826
0.336658595433558,0.0706851293258211
0.331245559502099,0.0683900221038888
0.325879530172816,0.066150376445285
0.320560653192433,0.0639654995257373
0.315289072678058,0.0618347008812147
0.310064931085669,0.0597572923502661
0.304888369179092,0.0577325880179422
0.299759525999457,0.0557599041612664
0.294678538835144,0.0538385591962159
0.289645543192183,0.0519678736261804
0.284660672765133,0.050147169991862
0.279724059408407,0.0483757728225825
0.274835833108053,0.0466530085889671
0.26999612195398,0.0449782056569713
0.265205052112619,0.0433506942432192
0.260462747800021,0.0417698063716241
0.255769331255385,0.0402348758312605
0.251124922714996,0.0387452381354595
0.246529640386595,0.037300230482098
0.241983600424151,0.035899191715055
0.23748691690304,0.0345414622868082
0.233039701795628,0.0332263842221436
0.228642064947252,0.031953301082951
0.22429411405259,0.0307215579340852
0.219995954632415,0.0295305013102617
0.215747690010745,0.028379479183968
0.211549421292354,0.0272678409343634
0.207401247340674,0.0261949373171473
0.203303264756056,0.025160120435371
0.199255567854401,0.0241627437111719
0.195258248646159,0.0232021618584097
0.191311396815675,0.0222777308561806
0.187415099700901,0.0213888079231931
0.183569442273454,0.02053475149298
0.179774507119021,0.0197149211899324
0.176030374418112,0.0189286778061317
0.17233712192715,0.0181753832789633
0.168694824959904,0.0174544006694925
0.165103556369245,0.0167650941415848
0.16156338652925,0.0161068289417522
0.158074383317619,0.0154789713797091
0.154636612098426,0.0148808888096191
0.151250135705187,0.0143119496120174
0.14791501442425,0.0137715231763922
0.144631305978503,0.0132589798844071
0.141399065511388,0.0127736910937522
0.138218345571238,0.0123150291226042
0.135089196095909,0.0118823672346839
0.132011664397728,0.0114750796248937
0.128985795148739,0.0110925414055222
0.126011630366247,0.0107341285929992
0.123089209398669,0.0103992180951904
0.120218568911671,0.0100871876992135
0.117399742874604,0.00979741605976633
0.114632762547227,0.00952928268795069
0.111917656466722,0.00928216794057968
0.109254450434997,0.00905545300995583
0.106643167506262,0.00884851991410658
0.104083827974902,0.00866075148746517
0.101576449363622,0.00849153137198428
0.0991210464118647,0.00834024400867023
0.0967176310645164,0.00820627462952606
0.0943662124608743,0.0080890092498911
0.0920667969238922,0.00798783466116644
0.0898193879496933,0.0079021384239138
0.0876239861973505,0.00783130886131711
0.0854805894789329,0.00777473505299598
0.0833891927498153,0.00773180682915907
0.0813497880992493,0.00770191476508791
0.079362364741195,0.00768445017593956
0.0774269090054097,0.00767880511185793
0.0755434043287929,0.00768437235338356
0.0737118312469862,0.0077005454071513
0.071932167386225,0.00772671850186624
0.0702043874554408,0.0077622865845473
0.0685284632386132,0.00780664531702943
0.0669043635873679,0.00785919107271394
0.065332054413821,0.00791932093355774
0.0638114986836667,0.00798643268729203
0.0623426564095064,0.00805992482486077
0.0609254846444188,0.00813919653806975
0.0595599374757681,0.00822364771743719
0.0582459660192489,0.00831267895023653
0.0569835184131664,0.00840569151872255
0.0557725398129503,0.00850208739853179
0.0546129723858996,0.00860126925724833
0.0535047553061587,0.00870264045312656
0.0524478247499211,0.00880560503396156
0.05144211389086,0.00890956773609914
0.0504875528957843,0.00901393398357656
0.0495840689205179,0.00911810988738553
0.0487315861060006,0.00922150224484906
0.0479300255746101,0.00932351853910389
0.047179305426701,0.00942356693868014
0.0464793407373622,0.00952105629716958
0.0458300435533886,0.00961539615297492
0.0452313228904664,0.00970599672913145
0.0446830847305712,0.00979226893319309
0.0441852320195751,0.00987362435717482
0.0437376646650634,0.0099494752775432
0.0433402795343579,0.0100192346552474
0.042992970452745,0.0100823161357824
0.0426956282019084,0.0101381340492761
0.042448140518563,0.0101861034105938
0.0422503920932887,0.0102256399194499
0.0421022645695639,0.0102561599605215
0.0420036365429946,0.0102770806035537
0.0419543835607393,0.0102878196034502
0.0419543781211272,0.0102877954003417
0.0420034896734676,0.0102764271196217
0.0421015846180499,0.0102531345719459
0.0422485263063312,0.0102173382531838
0.0424441750413102,0.0101684593443162
0.0426883880780866,0.0101059197112714
0.0429810196246021,0.0100291419046909
0.043321920842563,0.00993754915961784
0.0437109398485422,0.0098305653950994
0.0441479217152579,0.0097076152136966
0.0446327084730283,0.00956812390089235
0.0451651391113997,0.0094115174243905
0.0457450495809465,0.00923722243329806
0.0463722727952404,0.00904466625718233
0.0470466386329885,0.0088332769049952
0.0477679739403366,0.00860248306385663
0.0485361025333364,0.00835171409768914
0.0493508452005755,0.00808040004569558
0.0502120197059666,0.00778797162067157
0.0511194407916952,0.00747386020714502
0.0520729201813227,0.0071374978593343
0.053072266583044,0.00677831729891675
0.0541172856930965,0.0063957519125994
0.0552077801993188,0.0059892357494835
0.0563435497848568,0.00555820351821473
0.0575243911320155,0.0051020905839099
0.0587500979262536,0.00462033296485277
0.0600204608603192,0.00411236732894937
0.0613352676385241,0.00357763098993464
0.0626943029811547,0.0030155619033218
0.0640973486290166,0.00242559866208527
0.0655441833481114,0.00180718049206869
0.0670345829344424,0.00115974724710854
0.0685683202189483,0.000482739403864901
0.0701451650725597,-0.000224401943650187
0.0717648844113794,-0.000962235089855887
0.0734272422019817,-0.00173131772370665
0.0751319994668283,-0.00253220693512633
0.0768789142897991,-0.00336545922178258
0.0786677418218351,-0.00423163049621039
0.08049823428669,-0.00513127609329505
0.0823701409867888,-0.00606495077812427
0.0842832083091899,-0.0070332087542196
0.0862371797316484,-0.00803660367215711
0.0882317958287778,-0.00907568863858748
0.0902667942783066,-0.0101510162256667
0.092341909867428,-0.0112631384809069
0.0944568744992389,-0.0124126069374583
0.0966114171992652,-0.0135999726248347
0.0988052641220714,-0.0148257860800898
0.10103813855795,-0.0160905973594605
0.103309760939687,-0.017394956050484
0.105619848849408,-0.0187394112846035
0.107968117025482,-0.0201245117502718
0.11035427736951,-0.0215508057065666
0.112778038953362,-0.0230188409973282
0.115239108026285,-0.0245291650658331
0.117737188022067,-0.0260823249700147
0.120271979566249,-0.0276788673982447
0.122843180483396,-0.0293193386856876
0.125450485804408,-0.0310042848312424
0.128093587773876,-0.0327342515150834
0.130772175857482,-0.0345097841168146
0.133485936749425,-0.0363314277342517
0.136234554379887,-0.0381997272028456
0.139017709922522,-0.0401152271157609
0.141835081801973,-0.0420784718446259
0.1446863457014,-0.0440900055609672
0.147571174570037,-0.0461503722583453
0.150489238630743,-0.0482601157752058
0.153440205387576,-0.0504197798184625
0.156423739633357,-0.052629907987829
0.159439503457239,-0.0548910438009138
0.162487156252268,-0.0572037307190976
0.165566354722928,-0.0595685121742073
0.168676752892676,-0.0619859315960076
0.171818002111452,-0.0644565324405242
0.174989751063164,-0.0669808582192205
0.178191645773143,-0.0695594525290431
0.181423329615559,-0.0721928590833574
0.184684443320798,-0.0748816217437916
0.187974624982794,-0.0776262845530093
0.1912935100663,-0.0804273917684301
0.194640731414113,-0.0832854878969211
0.198015919254229,-0.0862011177304773
0.201418701206925,-0.0891748263829146
0.204848702291775,-0.092207159327598
0.208305544934578,-0.0952986624362252
0.2117888489742,-0.0984498820186918
0.215298231669321,-0.101661364864058
0.218833307705087,-0.104933658282646
0.22239368919965,-0.108267310149288
0.225978985710592,-0.111662868947753
0.229588804241242,-0.115120883816376
0.233222749246844,-0.118641904594921
0.236880422640614,-0.122226481872703
0.240561423799638,-0.125875167037986
0.244265349570628,-0.129588512328709
0.247991794275518,-0.133367070884547
0.251740349716901,-0.137211396800345
0.255510605183285,-0.141122045180965
0.259302147454175,-0.145099572197559
0.263114560804961,-0.149144535145314
0.26694742701161,-0.153257492502704
0.270800325355153,-0.157439003992268
0.274672832625955,-0.161689630642964
0.278564523127757,-0.16600993485413
0.282474968681489,-0.170400480461082
0.286403738628837,-0.1748618328024
0.290350399835557,-0.179394558788928
0.294314516694522,-0.183999226974534
0.298295651128503,-0.188676407628667
0.302293362592655,-0.193426672810764
0.306307208076714,-0.198250596446528
0.31033674210689,-0.203148754406144
0.314381516747431,-0.20812172458447
0.318441081601874,-0.213170086983235
0.322514983813937,-0.218294423795321
0.326602768068069,-0.223495319491149
0.330703976589632,-0.228773360907242
0.334818149144699,-0.234129137337
0.33894482303946,-0.239563240623749
0.34308353311923,-0.245076265256123
0.347233811767029,-0.250668808465821
0.351395188901727,-0.25634147032781
0.355567191975746,-0.262094853863028
0.359749345972296,-0.267929565143652
0.363941173402127,-0.273846213400989
0.368142194299792,-0.279845411136053
0.372351926219392,-0.285927774232909
0.376569884229802,-0.292093922074833
0.380795580909338,-0.298344477663376
0.385028526339875,-0.304680067740387
0.389268228100372,-0.311101322913097
0.393514191259802,-0.317608877782302
0.397765918369465,-0.324203371073768
0.402022909454653,-0.330885445772903
0.406284662005667,-0.337655749262807
0.410550670968148,-0.344514933465764
0.414820428732701,-0.351463654988289
0.419093425123806,-0.358502575269806
0.423369147387972,-0.36563236073505
0.427647080181129,-0.372853682950307
0.431926705555224,-0.380167218783581
0.436207502943989,-0.387573650568788
0.440488949147879,-0.395073666274102
0.444770518318132,-0.40266795967454
0.449051681939925,-0.410357230528927
0.453331908814616,-0.418142184761334
0.457610665041024,-0.426023534647124
0.461887413995726,-0.434001999003734
0.466161616312342,-0.442078303386311
0.470432729859767,-0.450253180288343
0.474700209719333,-0.45852736934743
0.478963508160851,-0.46690161755632
0.483222074617515,-0.47537667947937
0.487475355659611,-0.483953317474581
0.491722794967023,-0.492632301921368
0.495963833300463,-0.501414411454218
0.500197908471427,-0.510300433202404
0.504424455310791,-0.519291163035948
0.508642905636051,-0.528387405817977
0.512852688217122,-0.537589975663695
0.517053228740689,-0.546899696206128
0.521243949773028,-0.55631740086887
0.525424270721289,-0.565843933146004
0.52959360779315,-0.575480146889443
0.533751373954824,-0.585226906603877
0.537896978887358,-0.595085087749577
0.542029828941152,-0.605055577053278
0.546149327088673,-0.615139272827381
0.55025487287528,-0.625337085297743
0.554345862368112,-0.635649936940287
0.558421688102975,-0.646078762826725
0.562481739029166,-0.656624510979657
0.566525400452161,-0.66728814273735
0.570552053974109,-0.678070633128474
0.574561077432048,-0.688972971257123
0.578551844833781,-0.69999616069844
0.582523726291327,-0.711141219905164
0.586476087951875,-0.722409182625462
0.590408291926157,-0.733801098332388
0.59431969621415,-0.745318032665352
0.598209654628024,-0.756961067883974
0.60207751671225,-0.768731303334724
0.60592262766076,-0.780629855930765
0.609744328231073,-0.79265786064542
0.613541954655284,-0.804816471019721
0.617314838547799,-0.817106859684484
0.621062306809727,-0.829530218897407
0.624783681529795,-0.842087761095683
0.62847827988168,-0.854780719464631
0.632145414017637,-0.867610348522916
0.635784390958285,-0.880577924724875
0.639394512478429,-0.893684747080563
0.642975074988782,-0.906932137794102
0.646525369413435,-0.920321442920966
0.650044681062933,-0.933854033044855
0.653532289502809,-0.94753130397483
0.656987468417402,-0.961354677463423
