0.745980002040608,-0.207036419142319
0.745872672909422,-0.207021073105732
0.745552216926837,-0.206961480849135
0.74502096622724,-0.206837360986123
0.744281295152069,-0.206628538810053
0.743335614656908,-0.206314996383171
0.742186366743136,-0.205876922283923
0.740836018926576,-0.205294760900174
0.739287058755538,-0.204549261157098
0.737541988390461,-0.203621524569728
0.735603319257223,-0.202493052511689
0.733473566785996,-0.201145792593377
0.73115524524729,-0.199562184044819
0.72865086269661,-0.197725202000696
0.725962916038854,-0.195618400587434
0.72309388622332,-0.193225954714972
0.720046233579836,-0.190532700478666
0.716822393306211,-0.18752417407994
0.713424771116839,-0.184186649177555
0.709855739061889,-0.180507172584908
0.706117631526117,-0.176473598232436
0.702212741415915,-0.172074619318096
0.698143316542749,-0.167299798572928
0.693911556210691,-0.162139596572912
0.689519608015259,-0.15658539803271
0.680263462199021,-0.14426531404469
0.670390917978955,-0.130289973564551
0.665228238492892,-0.122670482155934
0.659917019781197,-0.114625913464083
0.654458976876402,-0.106154676489202
0.648855755795985,-0.0972562358815602
0.643108932481371,-0.0879311179561719
0.637220011991005,-0.0781809143116039
0.631190427948625,-0.0680082830436467
0.625021542247277,-0.0574169475499635
0.61871464500901,-0.0464116929272056
0.612270954799592,-0.0349983599674711
0.60569161909701,-0.0231838367663395
0.598977715011911,-0.0109760479600619
0.592130250257566,0.00161605838522426
0.585150164366358,0.0145825262041299
0.578038330149212,0.0279124091491958
0.570795555393841,0.0415937905561992
0.563422584797104,0.0556138056141425
0.55592010212624,0.0699586656915505
0.548288732603218,0.0846136847658809
0.540529045505891,0.0995633078981479
0.524626733049027,0.130279986658365
0.516484992831224,0.146011871450397
0.50821671192715,0.161968088833527
0.499822225997517,0.178129233371209
0.491301834505196,0.194475240707377
0.48265580461763,0.210985428370921
0.473884375258972,0.227638538010404
0.464987761301779,0.24441277896576
0.455966157887713,0.261285873080683
0.446819744866444,0.278235100656683
0.437548691341613,0.295237347447183
0.42815316031251,0.312269152587719
0.418633313399851,0.329306757356195
0.408989315643841,0.34632615465528
0.39922134036256,0.363303139107409
0.389329574058511,0.380213357651468
0.379314221361079,0.397032360529107
0.36917550999255,0.413735652547745
0.358913695745256,0.430298744506693
0.348529067457372,0.446697204672454
0.338021951974912,0.462906710189104
0.327392719087432,0.478903098309836
0.316641786425048,0.494662417336076
0.305769624304396,0.510160977151261
0.294776760511316,0.525375399237243
0.283663785008121,0.540282666062397
0.272431354553497,0.554860169731952
0.261080197223251,0.56908575979262
0.249611116820336,0.58293779008554
0.238024997162814,0.596395164543611
0.226322806238685,0.609437381831648
0.214505600216784,0.622044578730354
0.202574527303277,0.634197572167887
0.190530831433598,0.6458778998058
0.166111046135642,0.667750544675535
0.153737953955185,0.677909884155957
0.141258239395017,0.687530671995127
0.128673673993249,0.696598601609134
0.115986143192814,0.705100295513444
0.103197648630135,0.713023333473043
0.0903103101926662,0.720356278592522
0.0642481831766985,0.733211201089801
0.051078240790127,0.738715426221534
0.024473642272184,0.7478409904639
0.0110445785972054,0.75145101383496
-0.00246505703387,0.754420154063535
-0.0160521541888041,0.7567455161541
-0.0434456642338867,0.759458916616026
-0.0572452309361157,0.75984676261306
-0.0711085686030321,0.759590444699002
-0.0850319469282421,0.758692662424413
-0.0990115152933351,0.757157224253619
-0.113043304610812,0.754989038618908
-0.127123229429647,0.752194102600331
-0.155410576396715,0.744753326636736
-0.169609268387711,0.740124789510933
-0.183838641558721,0.734904068856869
-0.1980940691729,0.729102354151822
-0.212370826069177,0.722731807518507
-0.226664092489762,0.715805536780974
-0.255280426405909,0.700342806986234
-0.283902780154561,0.682836791792211
-0.298203282298141,0.673359481156665
-0.312489630324103,0.663423196940003
-0.326756467188963,0.653046750596312
-0.34099837921288,0.642249616603647
-0.383519696961602,0.607537876431896
-0.411641331345038,0.582676183791088
-0.467140014130033,0.529629129971437
-0.494426598446949,0.501815499103092
-0.534651195920783,0.459015710198661
-0.547848988347063,0.44455657460434
-0.573895908090569,0.415491523274668
-0.612013704955553,0.371875779391378
-0.636729082262557,0.343050889578142
-0.648862480152088,0.328779818801078
-0.684306512065616,0.286781809413582
-0.695786658919472,0.273120234609625
-0.72916017496847,0.233407797799113
-0.739914748405098,0.220651262267437
-0.750477526954475,0.20816165492433
-0.780976798137501,0.172436254247799
-0.800282936608606,0.150198256841071
-0.809618015950166,0.139585828413509
-0.818737020452257,0.129323457586637
-0.844769703130242,0.100711618431004
-0.852997321912615,0.0919192580808879
-0.860996123423303,0.0835066645716994
-0.876299184597018,0.0678309496438018
-0.890664348009566,0.0536942602462563
-0.897491393794646,0.0472015010006107
-0.904079704278786,0.0410895486232748
-0.922402240496959,0.0249986561557141
-0.928026432298846,0.0203650169130822
-0.933408100747595,0.0160847476843583
-0.938546962651072,0.01214943766883
-0.943442888241404,0.00854975067673629
-0.948095898653258,0.00527545045459145
-0.95667399619137,-0.000342268801539744
-0.960599854089598,-0.0027104044685637
-0.964284331695788,-0.00480252224174821
-0.967728158690809,-0.00663290947671714
-0.976624973313241,-0.0107069430036682
-0.981372011700803,-0.0124062878572597
-0.9833943013284,-0.0130031889909348
-0.985184477559904,-0.0134559402919707
-0.986744195442191,-0.0137833407803278
-0.988075204181533,-0.0140045540301609
-0.990058530559731,-0.014206608987141
-0.990714770150599,-0.0142271678367985
-0.991366761457729,-0.014207988955995
-0.991366855580415,-0.0142088369850287
-0.986949908549117,-0.0156367801084812
-0.985499942572287,-0.0162982252068342
-0.983852613830716,-0.0171325049546573
-0.98201042978083,-0.0181583237630324
-0.979975904502493,-0.0193939628774439
-0.977751553485015,-0.0208572344842986
-0.975339888516097,-0.0225654368643155
-0.967005968206895,-0.0293239940235115
-0.963869919091296,-0.0321731216008469
-0.960558889153587,-0.0353444789642018
-0.95707526778763,-0.0388514102330804
-0.953421408699468,-0.0427064691693805
-0.949599625999207,-0.0469213861115694
-0.937149206766652,-0.0618295949576435
-0.932677953007137,-0.0675837270271475
-0.913241988782886,-0.0947086214473345
-0.897089146751221,-0.119482994825852
-0.873537048784356,-0.158477164426148
-0.860923558941941,-0.18048621334248
-0.854411906968974,-0.192101067498546
-0.847765156799276,-0.20411327838077
-0.840984350708078,-0.216514407853398
-0.83407046215087,-0.229295001778089
-0.819846995633304,-0.255951788155664
-0.812539033731541,-0.269804152823357
-0.805101225344371,-0.283988370700609
-0.78983862857385,-0.313294519638496
-0.78201497944912,-0.328385348436547
-0.774063767976768,-0.343745886816992
-0.757780381385647,-0.375204979003974
-0.749448958363209,-0.391266127765389
-0.740991484331104,-0.407522251352576
-0.732408242107093,-0.423952971159848
-0.714865437040385,-0.457253742073411
-0.705906305023144,-0.474080223064213
-0.687613521183967,-0.507972898905452
-0.659240556088712,-0.559062084226611
-0.639704652074526,-0.593009964068709
-0.609473706801643,-0.643278095975513
-0.588704531860233,-0.67606893479234
-0.523476191161264,-0.768855877477743
-0.50077407738449,-0.797301645343581
-0.477602080003755,-0.824211268247864
-0.441980408947673,-0.861339787383177
-0.429880898957898,-0.872777094695148
-0.417670819052231,-0.883715479056197
-0.380392681199248,-0.913376445796164
-0.367756390206651,-0.922162870548715
-0.342179931024704,-0.938006086869391
-0.30308825486992,-0.957282922029034
-0.289873404072329,-0.96247521042569
-0.167350742745026,-0.980463367982276
-0.139392598319619,-0.977393718925689
-0.0829079312741892,-0.963755585176636
-0.0544503416726093,-0.95331694162628
-0.0258980328828023,-0.940579125768509
-0.0115983475691636,-0.933380196076156
0.00271044918225312,-0.925646913285587
0.0170233193106362,-0.917394618431989
0.116888813073375,-0.84655108640095
0.201046513010071,-0.771218180354778
0.228580029226475,-0.743984931035756
0.242224026330874,-0.730075143478006
0.28259738186124,-0.687458450765506
0.347690952166469,-0.614898087053023
0.409457196022628,-0.54293072252396
0.421354550613727,-0.528850879458426
0.44465443463142,-0.501168969479724
0.530606391682776,-0.399441109923667
0.540468098464148,-0.387995119157483
0.559563567035279,-0.366090668691636
0.568790977137703,-0.355652205279606
0.627147090939891,-0.292847531969744
0.641747947984306,-0.278326091481971
0.648693905698048,-0.271641945980844
0.709206625084716,-0.222191411560742
0.727030863550282,-0.212321112656294
0.729877106035426,-0.21107799612662
0.736998537018855,-0.20851792694352
0.738904569152816,-0.20799542597804
0.745980002040608,-0.207036419142319
