0.893928091071982,0.00318868955388906
0.892483827034761,0.0172319010262445
0.886555741482833,0.0313305560241153
0.876243144047875,0.0452786734441776
0.861717720670934,0.0588769535231082
0.843220559983372,0.0719380823347993
0.821057935008155,0.0842917359958779
0.795595917288394,0.0957891685156662
0.767253922277971,0.106307276494209
0.736497304686412,0.115752045460796
0.703829140077694,0.124061296309819
0.669781344045007,0.131206665741439
0.634905292434936,0.137194771524416
0.599762115145284,0.142067531409662
0.564912841800867,0.145901623254234
0.530908580014459,0.148807092969596
0.49828090592434,0.150925135880801
0.46753264229044,0.152425095571291
0.439129191718016,0.153500741897496
0.413490581715233,0.154365906211827
0.390984364493462,0.155249566581005
0.371919497957335,0.156390488610699
0.356541315527706,0.158031538108151
0.345027671660902,0.160413789998143
0.337486327576045,0.163770563470765
0.333953618212151,0.16832151615247
0.334394417262272,0.174266930082219
0.338703392739773,0.181782319428137
0.346707521390849,0.191013484241925
0.358169806840887,0.202072126221433
0.372794124097712,0.21503213159591
0.390231092356063,0.229926613076038
0.410084859346144,0.246745787583634
0.431920664096682,0.265435749499307
0.455273031244573,0.285898180783431
0.479654439171901,0.307991019910259
0.504564296482259,0.331530091503971
0.529498056776786,0.356291678290835
0.553956300427549,0.38201599690241
0.577453614078857,0.408411519597787
0.599527103878345,0.435160065524856
0.61974438682884,0.461922568099619
0.637710915978089,0.488345409809653
0.653076509188955,0.514067202570325
0.66554096766818,0.538725880966071
0.6748586889422,0.561965967533316
0.680842199179331,0.583445863873284
0.683364551263147,0.602845018953013
0.682360557392816,0.619870826533371
0.677826847778368,0.634265107264781
0.669820769762512,0.645810037564917
0.658458163988418,0.654333396827095
0.643910075609805,0.659713016634603
0.626398478590835,0.661880330250151
0.60619110948241,0.660822937435615
0.583595523338478,0.656586118313788
0.558952498343565,0.649273250150075
0.532628927002639,0.639045102214703
0.505010340191996,0.626118005866827
0.47649321583817,0.610760919246558
0.447477226394207,0.593291428026971
0.418357578594178,0.57407074512446
0.389517595224485,0.553497792660793
0.361321681952472,0.532002468401179
0.334108812755641,0.510038215973495
0.308186655410586,0.488074033053114
0.283826444092143,0.466586064066189
0.261258689708463,0.446048933560233
0.240669800503452,0.426926983006746
0.222199666072929,0.409665577286587
0.205940237667448,0.394682647376054
0.191935116910928,0.382360632774629
0.180180144275592,0.373038981032465
0.170624958243697,0.367007352448628
0.16317547646902,0.364499665783191
0.157697231821145,0.365689105879569
0.154019479322265,0.370684196704332
0.151939975004406,0.379526023805871
0.151230314919451,0.392186668939185
0.151641712173399,0.408568897006247
0.152911082127107,0.428507111952174
0.154767300950557,0.451769574288829
0.156937500620921,0.478061848952117
0.159153264241725,0.507031428701614
0.161156589196977,0.538273455698059
0.162705492047444,0.571337442686362
0.163579138077053,0.605734875784308
0.163582389803066,0.640947563612349
0.162549682322854,0.676436582738824
0.160348148787602,0.711651657451169
0.156879936236798,0.746040802937206
0.152083670133853,0.779060055252969
0.14593504482698,0.810183109084432
0.13844653641979,0.838910685335059
0.129666253765668,0.864779454978739
0.119675962093553,0.887370353332322
0.108588331734966,0.906316129783238
0.0965434811762072,0.921307991853705
0.0837048988548989,0.932101219034168
0.0702548414390442,0.938519640762506
0.0563893174919854,0.940458893903133
0.0423127742061163,0.937888397692599
0.0282326111001872,0.930852007934811
0.0143536480918627,0.919467336795038
0.000872676107773552,0.903923749388137
-0.0120267836354413,0.884479073007862
-0.0241793903084456,0.861455078829269
-0.0354424501285984,0.835231818776305
-0.0456998348934421,0.806240921544628
-0.0548652604128227,0.774957971098484
-0.0628848470038627,0.741894107951373
-0.0697389000604389,0.707587007869463
-0.0754428659286237,0.672591404032309
-0.0800474365472453,0.637469326932009
-0.0836377951622639,0.602780241235203
-0.0863320144954705,0.569071260381802
-0.0882786376372098,0.536867617825303
-0.0896534902376473,0.506663568573158
-0.0906557899012192,0.478913886168405
-0.0915036346735613,0.454026108635049
-0.0924289668058983,0.432353672418547
-0.0936721202795395,0.414190056273491
-0.0954760706046111,0.399764037716674
-0.0980805129508501,0.389236143451943
-0.101715899553817,0.382696352495365
-0.106597569451769,0.38016308702485
-0.112920102888614,0.38158350170558
-0.120852029167489,0.3868350578692
-0.130531010417271,0.395728344919524
-0.142059614758146,0.408011088160193
-0.155501780895383,0.423373260333132
-0.17088006245803,0.441453193936895
-0.188173724704466,0.461844573243549
-0.207317748855086,0.484104169192176
-0.228202780635202,0.507760167298946
-0.250676039998943,0.532320928627016
-0.274543188858909,0.557284016884811
-0.299571133381261,0.582145320987686
-0.325491717440915,0.606408101981025
-0.352006244581754,0.629591796073225
-0.378790747695091,0.651240411591451
-0.405501908997978,0.670930366815699
-0.431783518114744,0.688277627672023
-0.457273343457843,0.702944018922814
-0.481610281942511,0.71464259947934
-0.50444164458041,0.723142011433674
-0.525430430853711,0.728269732980771
-0.544262443089383,0.72991418716429
-0.560653093390542,0.728025680897995
-0.574353760033733,0.72261617154194
-0.585157557542372,0.713757880998806
-0.592904394772225,0.701580799396127
-0.597485208111211,0.686269141503413
-0.598845272065556,0.668056838691309
-0.596986506789706,0.647222167094765
-0.591968721186581,0.624081628353788
-0.583909750688114,0.598983212578297
-0.572984470323113,0.572299183772334
-0.559422685767494,0.544418535667151
-0.543505927313465,0.515739270620226
-0.525563193646503,0.486660655866797
-0.505965713542289,0.457575609952718
-0.485120813662566,0.428863367684638
-0.463464999132256,0.400882564518748
-0.441456370142043,0.373964871143471
-0.419566512099483,0.348409296319645
-0.39827200854942,0.324477261098581
-0.378045734952826,0.30238853066235
-0.359348097258237,0.2823180715771
-0.342618381887168,0.264393882604577
-0.328266383210927,0.248695826786348
-0.316664470811748,0.235255471720312
-0.308140251850209,0.224056924215573
-0.302969973820983,0.215038625261675
-0.301372800048316,0.208096051891424
-0.303506074687398,0.203085254442369
-0.309461676047116,0.199827141291613
-0.3192635370707,0.198112408677483
-0.332866390181564,0.197707001013359
-0.350155770834559,0.198357977379541
-0.370949290445826,0.199799652832254
-0.394999165363025,0.201759878922629
-0.421995964645933,0.203966326442687
-0.451573516118514,0.206152634920237
-0.483314887881335,0.208064297721335
-0.51675934167262,0.209464158680263
-0.551410135545115,0.210137405799993
-0.586743036656823,0.209895959535515
-0.622215390886437,0.208582167225394
-0.657275584759551,0.206071731068445
-0.691372727035285,0.202275814311686
-0.723966372421274,0.197142288653474
-0.754536108361649,0.190656104881569
-0.782590827716526,0.182838788056818
-0.807677515395616,0.173747077711464
-0.829389385530456,0.163470752153282
-0.847373217413513,0.152129693661381
-0.861335752981179,0.139870267755573
-0.871049035798227,0.126861104475682
-0.876354590988971,0.113288382412091
-0.877166366985442,0.0993507268174012
-0.873472382917852,0.0852538412817253
-0.865335049519858,0.071204998002057
-0.852890156101625,0.0574075145058855
-0.836344540985779,0.0440553447438927
-0.815972487330094,0.0313279097478
-0.792110910006905,0.0193852876168999
-0.76515342171878,0.00836387456706278
-0.735543387372389,-0.00162738167991373
-0.703766094509784,-0.0105100875489267
-0.67034018395021,-0.0182387742846667
-0.63580849841475,-0.0248024758469364
-0.600728517532325,-0.0302254737368536
-0.565662555058322,-0.0345671868826236
-0.531167898237895,-0.0379212036564783
-0.497787069940571,-0.0404134721585224
-0.466038391472986,-0.0421996836836823
-0.436407017899996,-0.0434619023850643
-0.409336608393483,-0.0444045111746051
-0.385221781767648,-0.0452495594952829
-0.364401492192751,-0.0462316124228254
-0.347153442403218,-0.0475922123093759
-0.333689631875915,-0.0495740736099645
-0.324153115836156,-0.0524151384256678
-0.318616027972485,-0.05634262449808
-0.317078895851303,-0.061567198796837
-0.319471253680375,-0.068277408411975
-0.325653532745203,-0.0766344962113198
-0.33542018600139,-0.0867677217241356
-0.348503980405911,-0.0987702980975473
-0.364581369047454,-0.112696043928341
-0.383278835399256,-0.128556834537352
-0.40418008443972,-0.14632092111109
-0.426833940295711,-0.165912168410454
-0.450762797740465,-0.187210242798869
-0.475471465547305,-0.210051762558088
-0.50045623352716,-0.234232402244974
-0.525213992165903,-0.259509922613185
-0.549251234165705,-0.285608077798935
-0.572092770857927,-0.312221332462675
-0.593290003304152,-0.339020303787011
-0.612428597785875,-0.36565782703111
-0.629135428092178,-0.391775529078082
-0.643084662284468,-0.417010782392047
-0.65400288913476,-0.441003902288805
-0.661673198843577,-0.463405443632033
-0.665938153554075,-0.48388344915513
-0.666701605172025,-0.502130500678778
-0.663929340638943,-0.517870426588031
-0.657648557639865,-0.530864524030433
-0.647946196308328,-0.540917162318294
-0.634966174376807,-0.547880644823359
-0.618905593985159,-0.551659220043747
-0.600010007600915,-0.552212148250409
-0.578567847854598,-0.549555747884431
-0.554904141220993,-0.54376436533522
-0.529373638100078,-0.534970232504915
-0.502353501737165,-0.523362198249603
-0.474235705394312,-0.509183341955612
-0.445419291127474,-0.492727499719989
-0.416302644379961,-0.474334755415103
-0.387275936378939,-0.454385969891008
-0.358713881085515,-0.433296441282243
-0.330968945328222,-0.411508807437946
-0.304365139929155,-0.38948531751562
-0.279192506349894,-0.367699613438665
-0.255702397926468,-0.346628172929303
-0.234103637457608,-0.326741573957018
-0.214559614121871,-0.308495745508469
-0.197186362818443,-0.292323371468631
-0.182051648464949,-0.278625613047259
-0.1691750569661,-0.26776431059606
-0.158529073915128,-0.26005481791032
-0.150041112025441,-0.255759611327116
-0.143596429218308,-0.255082802313654
-0.139041861596552,-0.258165666033563
-0.136190279567184,-0.265083279887961
-0.134825661453167,-0.275842345599588
-0.13470866732833,-0.29038024642989
-0.135582586743081,-0.308565368009921
-0.13717952765216,-0.330198687469642
-0.139226710322806,-0.355016611525067
-0.141452729347412,-0.382695020393395
-0.14359364910448,-0.412854451314631
-0.145398803041868,-0.445066333513984
-0.14663617487542,-0.478860166071655
-0.147097250027816,-0.513731511775092
-0.146601238149175,-0.549150663976091
-0.14499858208867,-0.584571830079202
-0.142173684910575,-0.619442664816355
-0.138046804120107,-0.653213979126629
-0.132575080808959,-0.685349446410821
-0.125752690553129,-0.715335127255332
-0.117610122191624,-0.742688636441466
-0.10821260967644,-0.766967782130961
-0.0976577606105389,-0.787778516437958
-0.0860724424943248,-0.80478204899028
-0.073609003717749,-0.817700990317254
-0.0604409206295799,-0.826324409691037
-0.0467579742894689,-0.830511712056636
-0.0327610705067387,-0.830195260532881
-0.0186568242849531,-0.82538169423669
-0.00465203466820667,-0.816151915432148
0.00905182187594632,-0.802659744771354
0.0222639520431108,-0.785129268202172
0.03480933615946,-0.76385092349472
0.0465334305361195,-0.739176397817188
0.0573063723711033,-0.711512429923551
0.0670265888890431,-0.681313630877813
0.0756237255799995,-0.649074455442649
0.0830608234320103,-0.615320471957778
0.0893356916295714,-0.580599091426379
0.0944814399610836,-0.545469926372144
0.0985661537662181,-0.510494956639791
0.10169171326529,-0.476228682565558
0.103991778143861,-0.443208445783286
0.105628976912479,-0.411945094364813
0.10679135842671,-0.382914162094197
0.107688179654788,-0.356547721582366
0.108545118961365,-0.333227057841605
0.109599017508705,-0.313276293115378
0.111092262571983,-0.296957075507822
0.113266935377551,-0.284464423634955
0.116358852305548,-0.275923797521381
0.120591631807883,-0.271389442718848
0.126170920092214,-0.270844030576352
0.133278906483419,-0.274199593209607
0.142069254426438,-0.281299727470177
0.152662566426852,-0.291923018566705
0.165142490984063,-0.305787611394797
0.179552566955898,-0.3225568365189
0.195893886052991,-0.341845778519032
0.214123637591196,-0.363228657430013
0.234154581564958,-0.386246879578144
0.25585547691081,-0.410417602526591
0.279052471899734,-0.435242650286174
0.303531443339328,-0.460217609583246
0.329041251099292,-0.484840935888165
0.355297854815045,-0.508622899119793
0.381989220884339,-0.531094203411965
0.408780930443952,-0.551814122952273
0.435322383266446,-0.570378006515396
0.461253478787201,-0.586424016689201
0.486211644055846,-0.599638985654423
0.509839069555846,-0.609763287404253
0.531790007751188,-0.616594646112683
0.55173798604551,-0.619990821581882
0.569382785663524,-0.619871134894583
0.584457040813321,-0.616216820126522
0.596732318326934,-0.609070210786882
0.606024546709272,-0.598532792102905
0.612198674998051,-0.584762171909302
0.615172455838342,-0.567968043323128
0.614919263441738,-0.548407231186296
0.611469875321493,-0.526377931080992
0.604913166519502,-0.502213264249453
0.595395686082893,-0.47627428370773
0.583120107394513,-0.44894257601483
0.568342566181577,-0.420612609382226
0.551368922179013,-0.391683981982389
0.532550002066221,-0.362553724398064
0.512275901993415,-0.333608807168475
0.490969447347981,-0.30521899841688
0.469078924989165,-0.277730207728918
0.447070218639757,-0.251458440990808
0.425418491146113,-0.226684477041859
0.404599567628618,-0.203649361043889
0.385081180921899,-0.182550791758746
0.367314244983448,-0.163540460826006
0.351724323025937,-0.146722382042643
0.338703454961673,-0.132152227980735
0.328602503358976,-0.119837670461723
0.321724168586429,-0.109739700861894
0.318316812309559,-0.101774886370085
0.318569214213708,-0.0958184995561335
0.322606370019547,-0.0917084413132073
0.330486419848051,-0.0892498617531803
0.342198775138031,-0.0882203702669347
0.357663490017874,-0.0883757149713168
0.376731899710003,-0.0894558033618195
0.399188524649695,-0.091190930331147
0.42475421499009,-0.0933080768977471
0.453090486507429,-0.0955371430553607
0.483804976074116,-0.0976169810852497
0.516457923278131,-0.0993011013887474
0.550569564857252,-0.100362931263653
0.585628310777618,-0.100600517874219
0.621099555369538,-0.0998405797113017
0.656434964245682,-0.0979418258220283
0.69108206802174,-0.0947974786832823
0.724493987333406,-0.0903369544444814
0.756139110432315,-0.0845266729916957
0.78551054481791,-0.0773699894894185
0.812135167928862,-0.0689062583318107
0.835582108816105,-0.0592090593754059
0.855470502825823,-0.0483836345314877
0.871476374447697,-0.0365635998865069
0.883338519385905,-0.0239070141350373
0.890863275288005,-0.010591897925489
0.893928091071982,0.00318868955388885
