0.337917708659637,0.122430725308877
0.324335114986387,0.160776878063286
0.340911555225027,0.135021151533026
0.342104370167207,0.141459008067512
0.34473638327864,0.186592559303995
0.389268275288406,0.189527170430815
0.332783668228855,0.1647871114292
0.344746660463934,0.168004669980375
0.371747092434369,0.214333292197282
0.379840700271324,0.14516319047872
0.368310832712512,0.185354350353939
0.33585915728547,0.198891238070777
0.358761542997642,0.23126900812031
0.351361032616763,0.197369243121389
0.366009399945388,0.239380912312048
0.368376312332299,0.19228253439376
0.323356506102523,0.268382185387747
0.335276608371878,0.237328514442041
0.345475548611188,0.289863361086107
0.336267931402995,0.247047306890112
0.278277925222599,0.275016900409831
0.324704151012958,0.264888262117438
0.363417343526505,0.290806509369519
0.363668674555897,0.31308223209266
0.352851288190851,0.317153624757806
0.310202783906489,0.291530055818342
0.32653856975812,0.319533212365369
0.301498093356434,0.30433152676864
0.333901213139453,0.278172842551855
0.311233015235471,0.330484633531705
0.286668049132315,0.322687889689221
0.258712573607208,0.329518518262782
0.275632446698491,0.334260939151932
0.265810475680508,0.313058355851074
0.280824197931055,0.368940922410964
0.257427950528532,0.350454778334012
0.215866365131748,0.325219447886563
0.292049478916077,0.381931526604966
0.271770662394345,0.318592625569153
0.230263473233512,0.369528614389078
0.269068399632489,0.323821392019825
0.21553811630751,0.377846449997638
0.241977799219144,0.360375850758973
0.169545282138412,0.343092644448192
0.156371778813324,0.418454022422135
0.199499761091339,0.402400119751976
0.191976983908227,0.418276228796321
0.16740462987425,0.397237953558199
0.180959886377511,0.398113244067749
0.150236534848682,0.401676314011785
0.142140255106884,0.442395933633666
0.0842341235690553,0.402060909065266
0.12653167351725,0.392038179878461
0.0927226925908092,0.41860132345525
0.105482466972996,0.407922027020276
0.129801773197179,0.393622163456244
0.0610835821543395,0.374316551933586
0.0364243912687307,0.420259378646911
0.0288740387526619,0.439938581494903
0.0590246365935781,0.40680913348928
0.0496355326919146,0.405667091200769
-0.00923158546384388,0.401582806672661
0.0308412299053563,0.402445449021159
0.0652016985701233,0.392412895100763
0.0120951598687586,0.397964319130682
-0.0462548150107086,0.400301507607305
0.0234880875712255,0.390513314807009
0.00859274102987645,0.393993931814322
-0.00365423556757626,0.395623020066885
-0.0432288785994948,0.420462562471998
-0.0848447109313151,0.415451521535854
-0.027136290303082,0.416709497242797
-0.0143631643683344,0.361636293035836
-0.0893691429792871,0.334528008551976
-0.0320407071526999,0.31677677387872
-0.0879700043198963,0.356423333890278
-0.094574566731678,0.344676533353865
-0.0644556745348706,0.346786157649081
-0.152858641175453,0.363083789367782
-0.161697408103442,0.349046779607233
-0.0793080291600305,0.341828280630997
-0.155934378559787,0.27655615327659
-0.131087804781358,0.259874285519631
-0.0977417942719494,0.2447991976399
-0.119169888430387,0.256465446122228
-0.133615498931524,0.23120438966844
-0.169766122345607,0.277565630084964
-0.132369938440617,0.239204918713886
-0.178056328353948,0.249470896681277
-0.189872938823756,0.220587667031016
-0.152098333082603,0.265539528657975
-0.151764879652388,0.265235211567563
-0.180787957469797,0.232949013309931
-0.20194963433572,0.199682514804511
-0.229786591793729,0.200428629633798
-0.209338054755778,0.178460325415044
-0.171243822459056,0.157287408400906
-0.215401762298693,0.15660779322695
-0.217920971775841,0.145471065254776
-0.193014362031821,0.0916657950553011
-0.201526054490662,0.0784114212282968
-0.223359720397375,0.111349211834982
-0.206598436939365,0.119256102252627
-0.225169844549838,0.0881211258943762
-0.24852026652602,0.124556389037136
-0.225487545173329,0.0646179239574178
-0.210898049851105,0.0762414472714329
-0.194514427497017,0.0254670666676264
-0.254799352099477,0.0165558264132561
-0.173109887693804,-0.0268088383964136
-0.225987024496402,0.017469171082463
-0.208889544236703,-0.0277106333569527
-0.214509055009391,-0.0183954086102665
-0.211382559148677,-0.0301817617353169
-0.198176234805239,-0.0170410370390296
-0.181692612661302,-0.00494567055317671
-0.180221005308871,-0.034055327645712
-0.228084296784768,-0.0608432036119692
-0.189897819569243,-0.088002069515384
-0.184439951338484,-0.0992526989306989
-0.222255095558054,-0.148690483722607
-0.183107861802986,-0.110676474664785
-0.203000242890851,-0.132384688813541
-0.158824097566226,-0.142778182544027
-0.121928161193075,-0.198612217514495
-0.14379971806604,-0.163475551615237
-0.165401227058075,-0.171064333513134
-0.0845026168753128,-0.231731535771117
-0.0995024662703944,-0.216520515706772
-0.13802878663818,-0.201144329301249
-0.100105553918281,-0.211311130043308
-0.0468560697485927,-0.176426070487179
-0.0803119929515857,-0.2286303387497
-0.0699492404736072,-0.236854915281087
-0.0571127559311012,-0.249972220084863
-0.0403150731241403,-0.203435832627204
-0.0285712132578059,-0.214335590767019
-0.0255962026103481,-0.26660009480276
-0.00973297987053433,-0.266770441924903
0.00364173976926433,-0.240793340733072
0.011007039607376,-0.335132858476588
0.0229301317016622,-0.290815722490925
0.0461354452075056,-0.3264835631461
0.0485431108888667,-0.300664813709561
0.0719692519442483,-0.276174950194711
0.0999729589285608,-0.309500693905517
0.0627632579835993,-0.351773570255888
0.0568069027502713,-0.296962929253556
0.155957528417625,-0.282492053628427
0.136154813934496,-0.310885859914987
0.188275262529363,-0.295362522236618
0.138208639794418,-0.344838812309002
0.202896679473862,-0.313129857987681
0.183720441345366,-0.328669554765502
0.178849519829202,-0.321837498362541
0.261536124903817,-0.301319233584388
0.211976340839113,-0.325119392538189
0.243651977668446,-0.322158127907196
0.233868357943668,-0.279468576440206
0.272453228114986,-0.317989135035617
0.286815986664695,-0.31520340593326
0.301133211742716,-0.311949523575355
0.315389616099031,-0.308227609754009
0.289231715831081,-0.261810869805737
0.343658645380472,-0.299382677200845
0.317138724805377,-0.322717451160151
0.41485266753204,-0.327313564007545
0.385222608367682,-0.282636950685764
0.389759377964887,-0.237075393456719
0.412193730829403,-0.269185056236137
0.423268456344358,-0.231515845154334
0.438432707963942,-0.253937977064777
0.441581232120541,-0.265471478815725
0.462975430088301,-0.210486154449274
0.47615712076411,-0.227789567306143
0.460360190684945,-0.223179741862673
0.466269978768182,-0.234268101694424
0.55607890106854,-0.177704512186188
0.476214079869722,-0.231146877718831
0.533707611875603,-0.175903199031305
0.536989560479707,-0.173258613537948
0.529361874508404,-0.168243770202428
0.548099027721593,-0.176378910971737
0.54050437769315,-0.0865364891432858
0.582814175665119,-0.150392820403815
0.591879511559459,-0.101235534415955
0.600242274841247,-0.0876176016222592
0.608193145553692,-0.0736952795757862
0.648961439880678,-0.0278980528355642
0.585771720496736,-0.0706008261276937
0.629467345354749,-0.0302287039118407
0.594355315349613,0.00208940089567224
0.641401277431857,3.20964317244848e-05
0.607348225477928,0.0413324906877901
0.651450361560711,0.031188432562939
0.680235276862839,0.00278936790131783
0.643709476332891,0.054805200776063
0.699974318282645,0.0431828738566084
0.682230458336758,0.0666379883752283
0.658133249992232,0.0983652909130326
0.719032984061848,0.140569356167204
0.673599691992667,0.18731930882606
0.680821920377365,0.155915140887874
0.671766205852219,0.179203207375946
0.657892129906572,0.216193152961815
0.695565159319726,0.184058207479014
0.669029127679859,0.230017339568996
0.628684370992128,0.241628484393406
0.664486291405837,0.263906499280834
0.661395746028273,0.280802470505998
0.66397416542482,0.346466450275276
0.614427756598199,0.298988333602015
0.648848138391764,0.331083956799829
0.64357710574797,0.347649899637905
0.637765013465316,0.364089020986894
0.63141464248671,0.380383629139013
0.624529352788249,0.396516082452724
0.617113082961209,0.412468808318315
0.606561514041674,0.420846014914598
0.648066035060916,0.436183035681027
0.544820910781844,0.503811700809247
0.607796047259411,0.426150294007836
0.528268347575654,0.453441943467709
0.559939722420962,0.465632694057878
0.550783332878956,0.517652685080917
0.518912812168574,0.501681316349589
0.548588622706465,0.571405648992143
0.515022722435077,0.558332391442853
0.544743430610642,0.522598234909742
0.469434048434416,0.586862894913609
0.475213368572168,0.595746274047028
0.461094620884138,0.607421300747343
0.457961002342578,0.666969153664946
0.412276176824925,0.580298061047291
0.435606787417452,0.642634402546738
0.400701763063217,0.649761557089114
0.377744163437365,0.635251075026909
0.368342938981518,0.668130281978447
0.336557023405865,0.675357296618946
0.313264208636353,0.662768333429448
0.285920554846899,0.668983289837055
0.279272998527163,0.742287980404771
0.293856436024092,0.698634201046707
0.264044896659226,0.710892527175767
0.245778584219504,0.716110927128922
0.270542122694898,0.689612062686547
0.160287626080497,0.758848144089943
0.187169218656781,0.69484860475654
0.121207929883209,0.774262511277248
0.151704555439287,0.733511755102369
0.13246969546146,0.735206608150318
0.114484695434148,0.725743791189525
0.100701067467569,0.779248653289081
0.0279227712290032,0.782437685931672
0.0547633206249166,0.73586459411452
-0.0091764959575265,0.745898644590343
0.0157237900478356,0.73247472277083
-0.0236022133457864,0.779311701897585
0.00315076212056895,0.725178240279631
-0.0506784755018645,0.729609319815531
-0.0333651751790892,0.766609022333224
-0.0637778552458028,0.693954601096133
-0.0661112974801532,0.675186490334551
-0.111140909656775,0.737743669220657
-0.181682265542763,0.676130036238847
-0.156547976956414,0.686353647893557
-0.190489961639486,0.704210858547991
-0.183927727279295,0.666766435930034
-0.260773743161717,0.679490251782502
-0.255972472851042,0.668616545936402
-0.232733015545642,0.610582347757115
-0.305155545442165,0.624752442836615
-0.279956619105669,0.616505692912252
-0.292027924564525,0.571236042562695
-0.327621109702579,0.610640111793052
-0.328158172143345,0.578060012640154
-0.343464153725496,0.564178815470534
-0.358359973175501,0.549783328203886
-0.399290195446873,0.504670351310885
-0.424897419705785,0.561692298693568
-0.391013555940152,0.502713910964459
-0.365521236721801,0.536400733665591
-0.463787181779296,0.433491188452835
-0.483955241461344,0.463222841771361
-0.448754402841166,0.414480960073029
-0.436195802035815,0.431324214350443
-0.44951213339184,0.438625827903324
-0.481157341204218,0.380481744400697
-0.490491089210642,0.361349061913009
-0.546001724514702,0.324633878989984
-0.517052240463854,0.282386306111085
-0.496245738499617,0.259142187354124
-0.521816529361694,0.281666308740946
-0.52985970963155,0.27295507791792
-0.533722795202947,0.240198202253811
-0.5387032852709,0.219126188398238
-0.543024216776649,0.197855948607109
-0.583855171522938,0.196845250355929
-0.581431655073126,0.11214419142939
-0.552908572757712,0.0924062967871166
-0.553571161173439,0.111210589412727
-0.602667665540005,0.0462877777778502
-0.544932555931955,0.0727317190756389
-0.554252019439916,0.0451844424698978
-0.547034978077273,0.0615786911543326
-0.540144483192912,-0.00795195618832838
-0.52525022793064,-0.00933252700365807
-0.578152714807428,-0.00552971481944217
-0.586699168015524,-0.0701430304270804
-0.491143578472836,-0.0491239496300693
-0.555281621794474,-0.141348223067062
-0.553173789309093,-0.174208560007567
-0.518362363106686,-0.151871290134104
-0.491854017995484,-0.144461450251509
-0.549395971978806,-0.221297167211428
-0.50375817356743,-0.252630687235727
-0.51607559024754,-0.236577552967331
-0.486789259749057,-0.240117889286211
-0.463183816569561,-0.276310700490777
-0.451645755993565,-0.296095008583182
-0.431811358131449,-0.279407393900732
-0.426634657268433,-0.334649433449959
-0.421495643926529,-0.36659341575499
-0.395698518389413,-0.404320743542538
-0.384432437264966,-0.389631159248235
-0.36916083893246,-0.407116665344789
-0.338906533052709,-0.466646471322263
-0.301297395454984,-0.398065068284067
-0.280345113823989,-0.408324853255234
-0.255122375564749,-0.463012759663298
-0.284363004487911,-0.487354933984484
-0.238077294540927,-0.475036687743002
-0.207792693788576,-0.563192881186461
-0.227273968999298,-0.529090015104393
-0.207308474083636,-0.541831308040398
-0.186905001016071,-0.553961073616518
-0.210764317760619,-0.600828430774068
-0.182580460409537,-0.595676939897395
-0.171460161955481,-0.62429529045001
-0.076659185157566,-0.550915419210494
-0.0447069157377409,-0.654813644133695
-0.0971189273610741,-0.662517263588292
-0.0334547661551927,-0.620563962885382
0.0300621269689259,-0.583970923520143
0.0146233403007645,-0.60558487223273
0.0368545229469277,-0.638629812002678
0.0607350074721062,-0.643179646121321
0.0794413269253785,-0.6791794811159
0.150797907126249,-0.630130053497544
0.133382702241743,-0.652303968764236
0.157854575859113,-0.653816013972467
0.149040075901163,-0.656157999139314
0.178154546281794,-0.687913639884272
0.231698207753675,-0.653696960345106
0.256373285321728,-0.652094738753517
0.246731699032828,-0.645511993624817
0.27167568075711,-0.624472440035889
0.364243003027328,-0.659762238353205
0.352791151364194,-0.588699315834601
0.40121360999811,-0.657794524488498
0.437207768920479,-0.611645502403452
0.427383751631466,-0.618914018543267
0.49192407757005,-0.65577441116081
0.428146394006027,-0.553730252531883
0.483166852951289,-0.569566415739592
0.521551746968883,-0.58288259791052
0.535152442450403,-0.546894634096519
0.567021246188743,-0.560339650332671
0.617084670994648,-0.503597715451106
0.644015155637678,-0.519698727431309
0.663127633599133,-0.547564262617965
0.653764331338651,-0.506532400564158
0.684389246650221,-0.506221930078266
0.645748381154037,-0.470170265044551
0.704316257212033,-0.48474607982434
0.694548038460317,-0.466039575209567
0.752414586003024,-0.423847315857113
0.795817961312135,-0.414491764586648
0.788267291479369,-0.38632449004239
0.811167194959317,-0.329751056645202
0.805957329498873,-0.343709667859872
0.837668420340015,-0.32567708970347
0.826713246750877,-0.267242332596301
0.86746217515848,-0.282548294300586
0.914507190280777,-0.260542267300822
0.889875048728385,-0.24599405261454
0.907090656861317,-0.214202961671816
0.946606917441107,-0.239738334958291
0.95984497956891,-0.117693689518203
0.929314571690378,-0.132273694276447
0.959867633696596,-0.109205107592672
0.944017293904972,-0.11058527148156
0.979111177779807,-0.0554597592043485
1.00670290154184,0.000766638717122195
1.00537257343333,-0.00783888620827453
0.97411737326618,0.0315017618245812
1.03086554413331,0.0748928698835337
1.00367035202135,0.0165226438817669
0.997557172618289,0.0915997583998896
0.952567656396071,0.106486381518702
