-0.114909162614658,0.345878667772841
-0.116561859912893,0.346805102914319
-0.118283594271443,0.347639693205778
-0.1200701802478,0.348379048657533
-0.121917288623521,0.349019953031167
-0.123820453234416,0.349559369492144
-0.125775078012867,0.349994446003387
-0.127776444232676,0.35032252045212
-0.129819717946603,0.350541125502607
-0.131899957606495,0.350647993167779
-0.134012121855618,0.35064105909311
-0.136151077482619,0.350518466546472
-0.138311607526297,0.35027857010809
-0.140488419520133,0.349919939055094
-0.142676153865395,0.349441360435595
-0.144869392321376,0.34884184182756
-0.147062666601224,0.348120613778242
-0.149250467061625,0.347277131920277
-0.151427251474497,0.346311078761022
-0.153587453868696,0.345222365142111
-0.155725493429663,0.34401113136665
-0.157835783444826,0.342677747991905
-0.159912740282507,0.34122281628577
-0.161950792392007,0.339647168345739
-0.163944389312531,0.33795186687957
-0.165888010678532,0.336138204647237
-0.167776175209106,0.334207703564256
-0.169603449669007,0.332162113466864
-0.171364457788911,0.330003410540031
-0.173053889132585,0.327733795409678
-0.174666507898647,0.325355690900959
-0.17619716164469,0.322871739464882
-0.177640789921611,0.320284800275984
-0.178992432806094,0.317597946004233
-0.180247239319283,0.314814459264735
-0.181400475719845,0.311937828749265
-0.182447533659725,0.308971745044083
-0.183383938191089,0.305920096138877
-0.18420535561309,0.302786962632125
-0.184907601147303,0.299576612638563
-0.185486646430866,0.296293496404838
-0.185938626816577,0.292942240639834
-0.186259848469429,0.289527642566538
-0.186446795249306,0.286054663702698
-0.186496135369835,0.282528423377883
-0.186404727823615,0.278954191994927
-0.186169628564389,0.275337384044099
-0.185788096436958,0.271683550878647
-0.185257598845986,0.267998373260752
-0.184575817155142,0.264287653687188
-0.183740651808362,0.260557308504342
-0.182750227165351,0.256813359822524
-0.1816028960438,0.253061927239773
-0.18029724396115,0.249309219385676
-0.17883209306912,0.245561525295929
-0.177206505774564,0.241825205628657
-0.175419788040661,0.238106683733733
-0.173471492362784,0.23441243658654
-0.171361420413851,0.230748985597854
-0.169089625354336,0.227122887311701
-0.166656413802558,0.223540724003229
-0.164062347461286,0.22000909418879
-0.161308244397136,0.216534603060583
-0.158395179969664,0.213123852858352
-0.155324487407507,0.20978343319072
-0.152097758029374,0.206519911318882
-0.148716841108145,0.203339822415442
-0.145183843376762,0.200249659811251
-0.141501128175091,0.197255865243177
-0.137671314237368,0.194364819115746
-0.133697274120312,0.19158283078966
-0.129582132272439,0.188916128910151
-0.125329262745593,0.186370851788173
-0.120942286550154,0.183953037847374
-0.116425068655844,0.18166861614976
-0.111781714640533,0.179523397012906
-0.107016566989875,0.177523062731498
-0.102134201051086,0.175673158415887
-0.0971394206446144,0.173979082960244
-0.0920372533379109,0.172446080152781
-0.0868329453859394,0.171079229940345
-0.0815319563435306,0.169883439859582
-0.0761399533550972,0.168863436646641
-0.070662805127669,0.168023758037258
-0.0651065755936297,0.16736874476882
-0.0594775172699512,0.166902532795821
-0.0537820643211351,0.166629045729876
-0.0480268253334697,0.16655198751522
-0.0422185758086078,0.16667483535037
-0.0363642503848542,0.167000832866332
-0.0304709347949263,0.167532983571486
-0.0245458575693225,0.168274044572933
-0.0185963814947814,0.169226520583837
-0.0126299948376685,0.170392658225909
-0.00665430234245479,0.171774440635885
-0.000677016015776896,0.173373582384486
0.00529405429311962,0.175191524715985
0.0112510105044564,0.177229431116138
0.0171858761011329,0.179488183215855
0.0230906060914144,0.181968377037592
0.0289570971291822,0.184670319591037
0.0347771977795848,0.187594025824265
0.0405427189176972,0.190739215936106
0.0462454442475807,0.194105313055032
0.0518771409289323,0.197691441289465
0.0574295702983263,0.20149642415391
0.0628944986718809,0.205518783374931
0.0682637082160238,0.209756738080469
0.0735290078728939,0.214208204375572
0.0786822443267912,0.218870795307144
0.0837153129979763,0.22374182121981
0.0886201690500368,0.228818290504554
0.0933888383969534,0.234096910741295
0.0980134286959489,0.239574090236057
0.102486140312157,0.245245939952948
0.106799277241124,0.251108275840628
0.110945257975152,0.257156621552492
0.114916626299494,0.263386211559274
0.118706062004452,0.269791994652317
0.122306391499451,0.276368637835232
0.125710598315254,0.283110530601208
0.128911833480514,0.290011789592726
0.131903425759015,0.297066263639954
0.134678891734006,0.304267539173628
0.137231945726201,0.311608946007708
0.139556509532137,0.319083563486674
0.141646721969775,0.326684226991815
0.143496948218365,0.334403534800411
0.145101788939833,0.342233855291261
0.146456089169124,0.350167334489535
0.147554946961193,0.358195903943491
0.148393721782544,0.366311288925168
0.148968042635512,0.374505016946714
0.149273815903721,0.382768426583604
0.149307232907467,0.39109267659557
0.149064777158058,0.399468755335685
0.148543231300471,0.407887490437617
0.147739683734014,0.416339558770721
0.146651534901023,0.424815496652226
0.145276503233986,0.433305710305441
0.143612630751845,0.441800486552548
0.141658288296639,0.450290003730195
0.139412180402001,0.458764342815802
0.136873349785479,0.467213498752174
0.134041181457025,0.475627391957702
0.13091540643645,0.483995880009173
0.127496105073085,0.49230876948392
0.123783709961313,0.500555827947813
0.119779008446117,0.50872679607532
0.115483144713247,0.516811399887684
0.110897621459091,0.524799363095
0.106024301135798,0.53268041952786
0.100865406767721,0.540444325643968
0.0954235223357145,0.548080873095055
0.0897015927263511,0.555579901339212
0.0837029232435992,0.562931310283689
0.0774311786810501,0.570125072943059
0.0708903819532737,0.577151248097578
0.0640849122854134,0.5839999929365
0.0570195029606581,0.590661575671041
0.0496992386257462,0.597126388101657
0.0421295521551955,0.603384958124276
0.0343162210754733,0.609427962160138
0.0262653635508577,0.615246237493892
0.0179834339332682,0.620830794504655
0.00947721787887691,0.626172828774781
0.000753827034832399,0.631263733061168
-0.00817930670003091,0.63609510911401
-0.0173144373361175,0.640658779328022
-0.0266435113707132,0.644946798211292
-0.0361581747769196,0.648951463657036
-0.0458497803979417,0.652665328003739
-0.0557093957402737,0.656081208869297
-0.065727811158836,0.659192199745005
-0.0758955484266094,0.661991680335442
-0.0862028696808309,0.664473326630538
-0.096639786737325,0.666631120696343
-0.107196070764078,0.668459360171317
-0.117861262304687,0.669952667455207
-0.128624681641867,0.671105998577904
-0.139475439490744,0.671914651735972
-0.150402448011232,0.672374275484876
-0.161394432128358,0.67248087657529
-0.172439941148987,0.672230827422212
-0.183527360663001,0.671620873196005
-0.194644924716575,0.670648138524872
-0.205780728244842,0.669310133798648
-0.216922739750854,0.667604761064262
-0.228058814217396,0.665530319503608
-0.239176706237876,0.66308551048502
-0.250264083352207,0.660269442180012
-0.261308539573242,0.6570816337374
-0.272297609089098,0.653522019007399
-0.283218780126363,0.649590949808788
-0.294059508958964,0.64528919873272
-0.304807234047216,0.64061796147727
-0.315449390291335,0.635578858707343
-0.325973423383507,0.63017393743505
-0.336366804242399,0.624405671916247
-0.346617043513832,0.618276964059428
-0.356711706121174,0.611791143343732
-0.36663842584888,0.604951966243373
-0.376384919942474,0.597763615156358
-0.38593900370819,0.59023069683592
-0.395288605095382,0.58235824032367
-0.404421779244773,0.574151694384031
-0.413326722985546,0.565616924440096
-0.42199178926429,0.556760209011627
-0.430405501488767,0.547588235656503
-0.438556567769527,0.538108096417468
-0.446433895042391,0.528327282776653
-0.45402660305491,0.518253680120898
-0.461324038199958,0.507895561721483
-0.468315787179731,0.497261582232441
-0.474991690483514,0.48636077071224
-0.481341855662742,0.475202523174131
-0.487356670386999,0.463796594671077
-0.493026815264799,0.452153090921721
-0.498343276413167,0.440282459484392
-0.50329735776026,0.428195480486737
-0.50788069306548,0.415903256919067
-0.512085257641806,0.403417204500094
-0.515903379765305,0.390749041124216
-0.519327751757094,0.377910775900062
-0.522351440723314,0.364914697790521
-0.524967898939003,0.351773363864962
-0.527170973862082,0.33849958717487
-0.528954917764043,0.325106424264589
-0.530314396964275,0.311607162329347
-0.531244500655373,0.298015306033194
-0.531740749307169,0.284344563999921
-0.531799102637638,0.270608834990486
-0.531415967139288,0.256822193780867
-0.530588203150064,0.2429988767547
-0.529313131458283,0.229153267225415
-0.527588539431585,0.215299880503001
-0.525412686660383,0.201453348720856
-0.522784310106777,0.187628405438554
-0.519702628750451,0.173839870036675
-0.516167347723573,0.16010263192015
-0.512178661927249,0.146431634546896
-0.507737259122676,0.132841859298758
-0.50284432249064,0.119348309212059
-0.497501532653631,0.105965992585302
-0.491711069155379,0.0927099064817626
-0.485475611393244,0.0795950201449583
-0.478798338999437,0.0666362583451124
-0.471682931667719,0.0538484846749449
-0.464133568422755,0.041246484813231
-0.456154926329979,0.0288449497747087
-0.44775217864441,0.0166584591650168
-0.43893099239748,0.00470146445942821
-0.429697525421594,-0.00701172767579511
-0.420058422812729,-0.0184669720005584
-0.410020812832037,-0.0296503012377089
-0.399592302248055,-0.0405479425105436
-0.388780971121735,-0.0511463336621847
-0.377595367037162,-0.061432139437996
-0.366044498781457,-0.0713922675122829
-0.354137829477995,-0.0810138843406045
-0.341885269177687,-0.0902844308191281
-0.329297166913727,-0.0991916377325903
-0.316384302225805,-0.107723540972576
-0.303157876160426,-0.115868496507992
-0.28962950175458,-0.123615195089823
-0.275811194010612,-0.130952676672429
-0.26171535937078,-0.137870344533933
-0.247354784700533,-0.144357979078448
-0.232742625790167,-0.150405751303196
-0.217892395385103,-0.156004235913862
-0.202817950755562,-0.16114442407183
-0.18753348081703,-0.165817735757292
-0.172053492813408,-0.170016031732555
-0.156392798575316,-0.173731625090283
-0.140566500366544,-0.176957292371732
-0.124589976332132,-0.179686284240533
-0.108478865562118,-0.181912335697907
-0.0922490527854334,-0.183629675825733
-0.0759166527089343,-0.184833037044266
-0.0594979940170019,-0.185517663871848
-0.0430096030476031,-0.185679321174402
-0.0264681871611274,-0.185314301893023
-0.00989061781873488,-0.184419434238507
0.00670608661265623,-0.1829920883422
0.0233047783112229,-0.181030182353076
0.0398881976890716,-0.178532187971558
0.0564389913008153,-0.175497135411129
0.0729397299533584,-0.171924617779424
0.0893729269980369,-0.167814794871034
0.10572105678597,-0.163168396364927
0.121966573267213,-0.157986724419962
0.138091928714076,-0.152271655662652
0.154079592548698,-0.146025642561934
0.169912070254817,-0.139251714186383
0.185571922353459,-0.13195347633995
0.201041783422102,-0.124135111072982
0.216304381136769,-0.115801375565934
0.231342555316333,-0.106957600383891
0.246139276948265,-0.0976096871006665
0.260677667174957,-0.0877641052919563
0.274941016219716,-0.0774278888977003
0.288912802231483,-0.0666086319545114
0.302576710027337,-0.0553144836997105
0.315916649711867,-0.0435541430492119
0.328916775152502,-0.0313368524521971
0.341561502290012,-0.0186723911262074
0.353835527263418,-0.00557106767698867
0.365723844328704,0.00795628789190461
0.377211763550834,0.0218983327740211
0.388284928248742,0.0362432205530559
0.398929332173149,0.050978610986942
0.409131336397235,0.0660916803752407
0.418877685900462,0.0815691325013937
0.428155525826059,0.0973972101407661
0.436952417392945,0.113561707124708
0.445256353443206,0.130047980950259
0.453055773606474,0.146840965924433
0.460339579062993,0.163925186831451
0.467097146887409,0.181284773110584
0.473318343955784,0.198903473531745
0.478993540398678,0.216764671355312
0.484113622583595,0.234851399962095
0.488670005610498,0.253146358938806
0.492654645304581,0.271631930603788
0.49606004969096,0.290290196957272
0.498879289936415,0.309102957039833
0.501106010743864,0.328051744682279
0.502734440185769,0.347117846629627
0.503759398963199,0.366282321021415
0.504176309077884,0.385526016210075
0.503981201905142,0.404829589898689
0.503170725656168,0.424173528578987
0.501742152218786,0.443538167250078
0.499693383366398,0.462903709397971
0.497022956325493,0.482250247215624
0.493730048692727,0.501557782042863
0.489814482693283,0.520806245005217
0.485276728772844,0.539975517830412
0.480117908516251,0.559045453820953
0.47433979688658,0.577995898961002
0.467944823779102,0.596806713135497
0.460936074885293,0.615457791439227
0.453317291862784,0.633929085553443
0.445092871807898,0.652200625167339
0.436267866028112,0.67025253942166
0.426847978112573,0.688065078351544
0.416839561299529,0.705618634305575
0.406249615140262,0.722893763318057
0.395085781459923,0.739871206411308
0.383356339616366,0.756531910804952
0.371070201058899,0.772857051008979
0.358236903189564,0.788828049777558
0.344866602530392,0.8044265989005
0.330970067200783,0.819634679809438
0.31655866870995,0.834434583975839
0.301644373070116,0.84880893307811
0.286239731236894,0.862740698915238
0.270357868884065,0.876213223044523
0.254012475520665,0.889210236121228
0.237217792959082,0.901715876918149
0.219988603143536,0.913714711003409
0.20234021534913,0.925191749054989
0.184288452762257,0.936132464790894
0.165849638453992,0.946522812494093
0.147040580758667,0.956349244111782
0.127878558070608,0.965598725908873
0.108381303072665,0.974258754655969
0.0885669864107819,0.982317373332578
0.0684541998296065,0.989763186326683
0.0480619387846481,0.996585374112296
0.0274095845472606,1.00277370738709
0.00651688581918725,1.00831856065268
-0.0145960601258553,1.01321092522077
-0.0359088267556398,1.01744242162866
-0.0574006780293467,1.02100531144856
-0.0790505885648749,1.02389250847536
-0.100837264203949,1.02609758927835
-0.122739162954886,1.02761480310293
-0.144734516292451,1.02843908110896
-0.166801350793725,1.02856604493311
-0.188917510088487,1.0279920145632
-0.211060677102182,1.0267140155132
-0.233208396569167,1.02472978528829
-0.255338097793476,1.02203777913012
-0.277427117634131,1.01863717503302
-0.29945272369151,1.01452787802279
-0.321392137671152,1.0097105236904
-0.343222558900981,1.00418648097358
-0.364921187977681,0.997957854180359
-0.386465250517825,0.991027484248917
-0.407832020988961,0.983398949239464
-0.428998846595901,0.975076564054159
-0.449943171197088,0.966065379382233
-0.470642559225956,0.956371179868092
-0.491074719591978,0.946000481501109
-0.511217529536069,0.934960528226572
-0.531049058414971,0.923259287778099
-0.550547591389172,0.910905446732682
-0.569691652988971,0.897908404790293
-0.588460030533285,0.884278268280897
