-0.173858402921777,-0.282180833650819
-0.160728243628059,-0.290323664055574
-0.14693505458019,-0.297678647047005
-0.132526643438333,-0.304194390104304
-0.117554670436191,-0.309822439093372
-0.102074465247953,-0.314517560133408
-0.0861448236126002,-0.31823800988333
-0.0698277844584542,-0.320945792815556
-0.053188388370999,-0.322606904092962
-0.0362944183439894,-0.323191556720095
-0.019216123847172,-0.322674391701682
-0.00202592933315118,-0.321034670009922
0.0152018716094316,-0.31825644523668
0.0323914351695936,-0.314328715887259
0.0494656979335148,-0.309245556358523
0.0663467177803152,-0.30300622573542
0.0829560235622397,-0.29561525363609
0.0992149720215214,-0.287082502436233
0.115045110347113,-0.27742320530786
0.130368542732446,-0.266657979615538
0.145108299260633,-0.254812815324199
0.159188705416319,-0.241919038186134
0.172535750503838,-0.228013247590316
0.185077453239622,-0.213137229074275
0.196744222783078,-0.197337841616741
0.207469213474374,-0.18066687994779
0.217188671559909,-0.163180912231539
0.225842272206615,-0.144941093594188
0.233373445134622,-0.126012956086709
0.23972968723417,-0.106466175786244
0.244862860576834,-0.0863743178528037
0.248729474283004,-0.0658145604674895
0.251290948766947,-0.0448673986848572
0.252513860947491,-0.0236163293344952
0.252370169086046,-0.00214751820506028
0.250837415994245,0.019450549162664
0.247898909440327,0.0410874316590905
0.243543878676484,0.0626711102686232
0.237767606108066,0.0841083776388497
0.23057153322961,0.105305237913439
0.221963340061552,0.126167315123314
0.211956997434787,0.146600268375197
0.200572791587513,0.16651021202868
0.187837320659447,0.185804139012839
0.173783462792073,0.204390345401359
0.158450315669553,0.222178854341321
0.141883107462653,0.239081837415434
0.124133079267063,0.255014031510677
0.105257339257173,0.269893149268177
0.0853186889061225,0.283640281199692
0.0643854217522705,0.296180287575385
0.0425310953203975,0.307442178215538
0.019834276932551,0.317359478355546
-0.00362173573227073,0.325870578798701
-0.0277492183488929,0.332919068624887
-0.0524563468283836,0.338454048785133
-0.0776475461591292,0.342430424981841
-0.103223859883888,0.34480917831209
-0.129083338785447,0.345557612236504
-0.155121447254336,0.344649574528405
-0.181231485718859,0.342065652956969
-0.20730502743098,0.337793343563525
-0.233232367821767,0.33182719050149
-0.258902984567556,0.324168896527355
-0.284206006443119,0.314827403352068
-0.30903068898131,0.303818941188604
-0.333266894910144,0.291167046962029
-0.356805577298351,0.276902550782252
-0.379539263309457,0.26106353041651
-0.401362536442406,0.243695233637714
-0.422172515124039,0.224849968465608
-0.441869325515278,0.204586961459599
-0.460356566398931,0.182972184364465
-0.477541764032506,0.160078149552363
-0.493336814874394,0.135983674845975
-0.507658414126216,0.11077361844762
-0.520428468077857,0.0845385848370976
-0.531574488294735,0.05737460263631
-0.541029965748902,0.0293827755706861
-0.548734723066484,0.000668907785500744
-0.554635243143516,-0.0286568951012062
-0.55868497247005,-0.0584806477088909
-0.560844597598307,-0.0886849277548174
-0.561082293294094,-0.119149338344552
-0.559373941021467,-0.149750987872711
-0.555703316528122,-0.180364985621129
-0.550062245422917,-0.210864951056331
-0.542450725766581,-0.241123534750987
-0.532877016831759,-0.271012948785242
-0.521357693328311,-0.300405504423851
-0.507917664533776,-0.329174154814261
-0.492590157916494,-0.357193040409337
-0.475416666989437,-0.384338034786791
-0.456446863285658,-0.410487288515461
-0.435738472500892,-0.435521768706905
-0.413357115004361,-0.459325791889104
-0.389376111074867,-0.481787547847779
-0.363876251374814,-0.502799612099778
-0.33694553332947,-0.522259444692207
-0.30867886423169,-0.540069873060497
-0.279177732042911,-0.556139556728178
-0.248549845008788,-0.57038343169076
-0.216908741351692,-0.582723132395503
-0.184373370441796,-0.593087389307888
-0.151067646983022,-0.601412400143824
-0.117119979879059,-0.607642172943943
-0.0826627775673866,-0.611728839272221
-0.0478319317252432,-0.613632935935252
-0.012766281360077,-0.613323653740465
0.022392940602128,-0.610779051940788
0.0575026760248167,-0.605986237149321
0.0924186232755979,-0.59894150564991
0.126995829583755,-0.589650448177563
0.161089291611691,-0.578128016395779
0.194554561756531,-0.564398550455488
0.227248357653465,-0.548495767181784
0.259029172318264,-0.530462708599221
0.289757882342996,-0.510351650673601
0.319298351546492,-0.488223972317027
0.347518027479657,-0.464149984872974
0.374288528195425,-0.438208722468409
0.399486216713983,-0.410487693789896
0.422992760645915,-0.38108259600943
0.444695674478976,-0.350096991752642
0.464488842088313,-0.317641950166396
0.482273017094812,-0.283835653303848
0.497956298771816,-0.248802969202054
0.511454581286302,-0.212674993179545
0.522691974156615,-0.175588559028212
0.531601191914539,-0.137685721914673
0.538123911074531,-0.099113214940459
0.54221109263693,-0.0600218814371627
0.520366311683803,-0.0665984258453348
0.542930790170866,0.0190968990936707
0.56066221971236,0.0633617939743451
0.533563594452422,0.0984045546354236
0.54367224967976,0.120252968368514
0.49906097285406,0.223494975993471
0.528942436702174,0.203058877987861
0.527031413791005,0.257498612245758
0.424527164694225,0.241629866635857
0.45112920416787,0.342744204800277
0.373216845399432,0.391475654508329
0.364249590660274,0.36527167679714
0.416230275463431,0.463471116667139
0.321808126403833,0.449569525772988
0.343836939895439,0.516631224925969
0.262612547913532,0.469389621759424
0.230556108780773,0.518589303723951
0.187401074236928,0.579671123228371
0.16539863438666,0.571816478306644
0.125949412551582,0.588904681468911
0.0853250202986716,0.603526389110895
0.0617314830831408,0.590458096112066
-0.0438787052517863,0.667386427850067
-0.042024890498737,0.63183791728032
-0.0857508217124807,0.63588918779767
-0.159556218146604,0.628391313645879
-0.174085936662634,0.635661189415812
-0.247093522776866,0.659836071430471
-0.21691105617619,0.611275130889664
-0.306133018216148,0.614236458355658
-0.393473106827892,0.639774106907365
-0.394811087804561,0.575832208609547
-0.419863574588761,0.534582307612585
-0.450409102341684,0.531999689168555
-0.513053399736567,0.523263461973535
-0.550881077117901,0.497192086396442
-0.587130280556411,0.468667959350283
-0.63688665861861,0.413631806943095
-0.685920797323977,0.423893126393897
-0.646373348205226,0.385670447710157
-0.687442514285344,0.310735610754082
-0.707752074964121,0.332915041447165
-0.76262217653635,0.228450114357055
-0.784114272291789,0.209626332042926
-0.771086715093163,0.174568699849321
-0.826113356636813,0.0945406451320222
-0.831159317020624,0.0744086127186476
-0.841128683917726,0.0272966252968584
-0.89498593945276,-0.0355614817347684
-0.845778997852536,-0.0976472699331455
-0.853026429913762,-0.117594403319406
-0.85085899602693,-0.16643948267719
-0.845590390133659,-0.21523348943758
-0.837218567357192,-0.263779014003004
-0.825754080715766,-0.311878195883721
-0.811220129113353,-0.359333529550748
-0.79365255366795,-0.405948674494813
-0.773099782041601,-0.45152926617251
-0.749622720649923,-0.495883724495486
-0.723294594844326,-0.538824056506879
-0.694200737376554,-0.580166649891565
-0.662438325671607,-0.619733053982992
-0.628116068650751,-0.657350744959723
-0.591353844060144,-0.692853871968953
-0.55228228747185,-0.726083980972397
-0.511042334331681,-0.756890713181608
-0.467784716631474,-0.785132475035086
-0.422669415981421,-0.810677076767836
