-0.700570750096259,0.503072796791315
-0.700621849011239,0.50298389739674
-0.700673860531306,0.502893189226856
-0.700726804660986,0.502800626469818
-0.700780701918275,0.502706161927276
-0.700835573349493,0.50260974696563
-0.700891440544604,0.502511331465348
-0.700948325653017,0.502410863768227
-0.701006251399883,0.502308290622547
-0.701065241102908,0.502203557125984
-0.70112531868969,0.502096606666211
-0.701186508715604,0.501987380859059
-0.701248836382254,0.501875819484142
-0.701312327556499,0.501761860417816
-0.701377008790084,0.501645439563367
-0.701442907339889,0.501526490778276
-0.70151005118881,0.501404945798443
-0.701578469067306,0.501280734159225
-0.701648190475613,0.501153783113127
-0.701719245706671,0.501024017544002
-0.701791665869754,0.500891359877582
-0.701865482914855,0.500755729988177
-0.701940729657826,0.500617045101343
-0.702017439806308,0.500475219692348
-0.702095647986469,0.500330165380199
-0.702175389770572,0.500181790817053
-0.702256701705405,0.500030001572755
-0.702339621341587,0.499874700014277
-0.702424187263775,0.499715785179813
-0.702510439121807,0.499553152647247
-0.702598417662798,0.499386694396735
-0.702688164764206,0.499216298667089
-0.702779723467912,0.499041849805663
-0.702873138015323,0.498863228111405
-0.702968453883528,0.498680309670733
-0.703065717822534,0.498492966185871
-0.703164977893599,0.498301064795249
-0.703266283508696,0.498104467885574
-0.703369685471118,0.497903032895119
-0.703475236017262,0.497696612107799
-0.703582988859596,0.497485052437535
-0.703692999230838,0.497268195202399
-0.70380532392937,0.497045875888003
-0.703920021365893,0.496817923899569
-0.704037151611342,0.496584162302062
-0.704156776446076,0.496344407547756
-0.704278959410345,0.496098469190559
-0.704403765856051,0.495846149586375
-0.704531262999791,0.495587243578749
-0.704661519977193,0.495321538168985
-0.704794607898531,0.495048812169899
-0.704930599905609,0.494768835842286
-0.705069571229894,0.494481370513155
-0.705211599251872,0.494186168174717
-0.705356763561598,0.493882971063046
-0.705505146020395,0.493571511215263
-0.705656830823641,0.493251510004049
-0.705811904564598,0.492922677648171
-0.705970456299192,0.492584712697685
-0.706132577611657,0.492237301492327
-0.706298362680939,0.491880117591586
-0.706467908347738,0.491512821174783
-0.706641314182032,0.491135058409434
-0.706818682550936,0.490746460786034
-0.707000118686692,0.490346644417285
-0.707185730754568,0.489935209299674
-0.707375629920438,0.489511738535169
-0.707569930417738,0.489075797510641
-0.707768749613492,0.4886269330325
-0.707972208073038,0.488164672413831
-0.70818042962305,0.487688522511165
-0.708393541412393,0.487197968707825
-0.708611673970293,0.486692473840581
-0.708834961261232,0.486171477066144
-0.709063540735924,0.48563439266378
-0.709297553377633,0.485080608770103
-0.709537143743009,0.484509486041821
-0.709782459996525,0.483920356241937
-0.710033653937482,0.483312520744601
-0.710290881018445,0.482685248953499
-0.710554300353806,0.482037776628286
-0.710824074717067,0.481369304113238
-0.711100370525222,0.480678994461878
-0.711383357808471,0.479965971450903
-0.711673210163286,0.47922931747631
-0.711970104686597,0.478468071324085
-0.712274221888667,0.477681225807354
-0.712585745581877,0.476867725261283
-0.71290486274241,0.476026462886464
-0.713231763341404,0.475156277930827
-0.713566640141812,0.474255952699498
-0.713909688456767,0.473324209381236
-0.714261105864759,0.472359706679321
-0.71462109187644,0.471361036233937
-0.714989847547253,0.470326718822166
-0.71536757502946,0.469255200320781
-0.715754477056399,0.468144847415998
-0.716150756351013,0.466993943043237
-0.716556614949794,0.465800681538804
-0.716972253432276,0.464563163484152
-0.717397870045138,0.463279390222058
-0.717833659708708,0.461947258022669
-0.718279812892308,0.460564551875836
-0.718736514343358,0.45912893888464
-0.719203941653436,0.457637961233264
-0.719682263642629,0.456089028700665
-0.720171638541358,0.454479410689569
-0.720672211946567,0.452806227738402
-0.721184114526507,0.451066442481653
-0.721707459445439,0.449256850022059
-0.722242339476371,0.447374067675678
-0.722788823766279,0.445414524048665
-0.72334695421426,0.443374447402059
-0.723916741418597,0.441249853258462
-0.724498160143671,0.439036531201954
-0.725091144252141,0.436730030819992
-0.725695581041579,0.434325646733524
-0.72631130491787,0.431818402659003
-0.726938090329989,0.429203034443543
-0.727575643882235,0.426473972012166
-0.728223595530493,0.423625320163962
-0.728881488758514,0.420650838152202
-0.729548769618481,0.417543917981985
-0.730224774507069,0.414297561358115
-0.730908716533744,0.410904355215658
-0.731599670322002,0.407356445766214
-0.732296555066473,0.403645510994628
-0.732998115649171,0.39976273154385
-0.733702901596436,0.39569875993027
-0.734409243634176,0.391443688038523
-0.73511522757264,0.386987012853815
-0.735818665222967,0.382317600401891
-0.736517062016025,0.37742364788243
-0.737207580959329,0.372292644001584
-0.737887002530023,0.366911327534548
-0.738551680060924,0.361265644180347
-0.739197490132287,0.355340701809701
-0.739819777434395,0.349120724254238
-0.740413293515295,0.34258900384305
-0.740972128774202,0.33572785296247
-0.741489637004764,0.328518554999188
-0.741958351733951,0.320941315127794
-0.74236989354279,0.312975211524418
-0.742714867495687,0.304598147731509
-0.742982749747303,0.295786807068589
-0.74316176234214,0.286516610184146
-0.743238735175019,0.276761677079149
-0.743198954044329,0.266494795208166
-0.74302599370906,0.255687395584967
-0.74270153486141,0.244309539191955
-0.742205163956769,0.232329916422639
-0.741514154911751,0.219715862780232
-0.740603231800405,0.206433394619374
-0.739444311863119,0.192447269357706
-0.738006228409496,0.17772107530452
-0.73625443356638,0.162217357058114
-0.73415068132002,0.145897783312571
-0.731652691956059,0.128723364885667
-0.728713799846103,0.1106547318244
-0.725282587603365,0.0916524795482389
-0.721302510974929,0.0716775951281649
-0.716711520501225,0.0506919759353429
-0.711441688003767,0.0286590539744172
-0.705418848410189,0.0055445401710964
-0.698562270338776,-0.0186826963841803
-0.690784372283763,-0.0440495988500154
-0.681990505194534,-0.0705777274404
-0.672078826731175,-0.0982818841837031
-0.660940297476206,-0.127168544961689
-0.648458834809475,-0.157234089147764
-0.634511665865712,-0.188462821703465
-0.618969926759476,-0.220824789037299
-0.601699560737198,-0.254273398656956
-0.58256257262154,-0.288742864025586
-0.561418700212698,-0.32414551039261
-0.538127564391821,-0.360368994940077
-0.512551357539993,-0.397273515429403
-0.484558123380164,-0.434689105455791
-0.454025669180314,-0.472413140861169
-0.420846132088511,-0.510208209785399
-0.384931193950921,-0.547800526622656
-0.346217902308304,-0.584879095483457
-0.304675008905631,-0.62109584860141
-0.260309681328128,-0.656066995731484
-0.213174379782729,-0.68937581768803
-0.163373622526355,-0.720577116261757
-0.111070294658799,-0.749203489595022
-0.0564910924049291,-0.774773533386001
6.93532937519545e-05,-0.796801972506513
0.0582461548299213,-0.814811605891692
0.117604120316079,-0.82834680451017
0.177640403244675,-0.836988146500457
0.237790175283671,-0.840367617906267
0.297435502162243,-0.838183668074965
0.355917412193673,-0.830215303950882
0.412550923148464,-0.816334355267871
0.466642553724639,-0.796515058114739
0.517509614035895,-0.770840196674727
0.564500371591735,-0.739503212820248
0.607014050844169,-0.702805931397591
0.644519566578713,-0.661151836247684
0.676571926893926,-0.615035140945264
0.702825371796912,-0.565026196910286
0.723042528014272,-0.51175403786679
0.737099137964103,-0.455887046228149
0.744984231488284,-0.398112825337499
0.74679591989541,-0.339118364471636
0.742733271461311,-0.279571496014779
0.733084949916327,-0.220104481673293
0.718215445706792,-0.161300349983095
0.698549797407595,-0.103682367154209
0.674557691016076,-0.0477067835257606
0.646737749519323,0.0062412192439138
0.615602700965697,0.0578486335339633
0.581665959414999,0.106873167485421
0.54542998819393,0.153139687190939
0.507376654813024,0.19653505665025
0.467959643771978,0.237001866053049
0.427598875009953,0.274531501590994
0.386676785545531,0.309156951948171
0.345536270061382,0.340945677187132
0.304480040455144,0.369992792829369
0.263771150745548,0.39641475160127
0.223634437487563,0.42034364176768
0.184258642224424,0.441922166667912
0.14579900708032,0.461299326035824
0.108380163623911,0.478626785878938
0.0720991656338691,0.494055899326722
0.0370285461771155,0.507735324714919
0.00321930698114269,0.519809177834448
-0.029296227446728,0.530415651303577
-0.0605017375478278,0.539686034080786
-0.0903944475216942,0.547744067046997
-0.118982890513802,0.554705575368153
-0.146284904653101,0.560678324218431
-0.172325856304189,0.565762050801468
-0.197137081091758,0.570048632014446
-0.220754529337177,0.57362235325551
-0.243217600138895,0.576560249585284
-0.26456814709311,0.578932495607864
-0.284849638299982,0.580802824987708
-0.304106453592814,0.582228964461715
-0.322383302667582,0.58326307056595
-0.339724748822829,0.583952160117126
-0.356174824225257,0.584338527823756
-0.371776723903839,0.584460146308197
-0.386572566978632,0.584351045356031
-0.400603214902819,0.58404166842797
-0.413908137706308,0.583559205421945
-0.426525320356611,0.582927901404296
-0.438491202386822,0.582169341578583
-0.449840644876766,0.581302713162675
-0.460606919712084,0.580345045128598
-0.470821716790395,0.579311426949567
-0.480515165499233,0.578215207615176
-0.489715867363743,0.577068176235545
-0.498450937260467,0.575880725572109
-0.506746051024249,0.574661999817654
-0.51462549764573,0.573420027910012
-0.522112234573936,0.572161843609586
-0.529227944908584,0.570893593505918
-0.535993095495913,0.569620634047238
-0.542426995135402,0.568347618612454
-0.548547852267609,0.567078575569866
-0.55437283164969,0.565816978192693
-0.559918109638885,0.564565807229742
-0.565198927798562,0.563327606860845
-0.570229644619282,0.562104534701878
-0.57502378521125,0.560898406463362
-0.5795940888766,0.559710735810123
-0.583952554512158,0.558542769917202
-0.588110483827119,0.557395521169113
-0.59207852238698,0.556269795405479
-0.595866698516066,0.555166217075861
-0.599484460107277,0.554085251629977
-0.602940709399858,0.553027225436303
-0.606243835795017,0.551992343491991
-0.609401746785464,0.550980705159802
-0.612421897079047,0.549992318143316
-0.615311315999001,0.549027110889529
-0.618076633244257,0.548084943588119
-0.620724103093022,0.547165617918827
-0.623259627131819,0.546268885682337
-0.625688775590377,0.545394456435717
-0.628016807360502,0.544542004240592
-0.630248688774438,0.54371117362066
-0.63238911121529,0.542901584814914
-0.634442507629009,0.542112838403602
-0.636413068004258,0.541344519375795
-0.638304753883228,0.540596200699969
-0.64012131196325,0.539867446452477
-0.641866286845876,0.539157814552827
-0.643543032986927,0.538466859149479
-0.645154725898021,0.537794132695107
-0.646704372647109,0.53713918774613
-0.64819482170275,0.536501578517505
-0.649628772164136,0.535880862220473
-0.651008782416305,0.535276600207941
-0.652337278247527,0.534688358949484
-0.653616560463504,0.534115710855616
-0.65484881203086,0.533558234968821
-0.656036104780277,0.533015517536917
-0.657180405697702,0.532487152482671
-0.658283582830197,0.531972741782044
-0.659347410831278,0.531471895762069
-0.660373576168948,0.530984233328219
-0.661363682018124,0.530509382129971
-0.662319252857716,0.530046978672361
-0.663241738791289,0.52959666838045
-0.664132519608976,0.529158105622841
-0.664992908607154,0.528730953699712
-0.665824156181301,0.528314884800233
-0.666627453206416,0.52790957993365
-0.667403934218454,0.527514728837878
-0.66815468040933,0.527130029868969
-0.668880722447209,0.52675518987446
-0.669583043133028,0.526389924053249
-0.670262579903501,0.526033955804335
-0.670920227190129,0.525687016566491
-0.671556838643176,0.525348845650684
-0.672173229228925,0.525019190066841
-0.672770177208039,0.524697804346367
-0.673348426002291,0.524384450361645
-0.673908685956496,0.524078897143587
-0.674451636002008,0.523780920698177
-0.674977925227749,0.523490303822815
-0.675488174364336,0.523206835923178
-0.675982977186541,0.522930312831183
-0.676462901838946,0.522660536624596
-0.676928492089379,0.52239731544872
-0.677380268514416,0.522140463340534
-0.677818729620934,0.52188980005562
-0.678244352907497,0.521645150898108
-0.678657595869085,0.521406346553892
-0.67905889694845,0.52117322292727
-0.679448676437218,0.520945620981144
-0.679827337329614,0.52072338658091
-0.68019526613154,0.520506370342085
-0.680552833627553,0.520294427481754
-0.68090039560815,0.520087417673846
-0.681238293559585,0.519885204908271
-0.681566855318355,0.5196876573539
-0.681886395692316,0.519494647225385
-0.682197217050306,0.519306050653774
-0.682499609882018,0.519121747560899
-0.682793853329772,0.518941621537479
-0.683080215693725,0.51876555972488
-0.683358954911987,0.518593452700477
-0.683630319017001,0.518425194366551
-0.683894546569481,0.51826068184264
-0.684151867071111,0.518099815361282
-0.684402501357161,0.517942498167067
-0.684646661970082,0.517788636418913
-0.684884553515098,0.517638139095498
-0.685116372998749,0.517490917903755
-0.685342310151281,0.517346887190354
-0.685562547733739,0.517205963856086
-0.685777261830549,0.517068067273071
-0.685986622128354,0.516933119204702
-0.686190792181817,0.516801043728247
-0.68638992966705,0.516671767160036
-0.686584186623312,0.516545217983143
-0.686773709683583,0.516421326777489
-0.68695864029455,0.5163000261523
-0.687139114926582,0.51618125068083
-0.687315265274157,0.516064936837283
-0.687487218447243,0.51595102293587
-0.687655097154083,0.515839449071917
-0.687819019875796,0.515730157064966
-0.687979101033213,0.515623090403803
-0.688135451146321,0.515518194193341
-0.688288176986684,0.515415415103304
-0.688437381723166,0.515314701318649
-0.688583165061312,0.51521600249166
-0.688725623376655,0.515119269695666
-0.688864849842268,0.515024455380326
-0.689000934550831,0.514931513328421
-0.689133964631459,0.514840398614104
-0.689264024361563,0.514751067562565
-0.689391195273956,0.514663477711048
-0.689515556259442,0.514577587771184
-0.689637183665092,0.514493357592591
-0.689756151388409,0.514410748127694
-0.689872530967571,0.514329721397729
-0.689986391667942,0.514250240459878
-0.690097800565,0.51417226937551
-0.690206822623878,0.514095773179482
-0.69031352077564,0.514020717850454
-0.690417955990459,0.513947070282204
-0.690520187347834,0.513874798255883
-0.690620272103975,0.513803870413202
-0.690718265756479,0.513734256230494
-0.690814222106432,0.51366592599364
-0.69090819331803,0.513598850773815
-0.691000229975853,0.513533002404038
-0.691090381139867,0.513468353456484
-0.691178694398284,0.513404877220545
-0.691265215918339,0.513342547681598
-0.691349990495112,0.513281339500476
-0.691433061598444,0.513221227993598
