0.411966650847407,-0.999954086317723
0.411918172230107,-0.999829076851342
0.411788276984448,-0.999447487958018
0.411600243508475,-0.998799546840458
0.411377260758293,-0.997875590835004
0.411142370858235,-0.996666091727426
0.410918412094429,-0.99516167988808
0.410727962420328,-0.99335316817188
0.410593283601668,-0.991231575529012
0.410536266126813,-0.98878815027292
0.410578375006783,-0.98601439295286
0.41074059658722,-0.98290207877914
0.41104338649229,-0.979443279550168
0.411506618817977,-0.975630385031466
0.412149536689417,-0.971456123738065
0.41299070429386,-0.966913583072931
0.414047960497545,-0.961996228775539
0.415338374151208,-0.956697923636188
0.416878201185179,-0.951012945433279
0.418682843590989,-0.944936004052472
0.420766810382192,-0.938462257748451
0.423143680622682,-0.931587328511904
0.425826068606136,-0.924307316506286
0.428825591265398,-0.916618813541013
0.432152837885638,-0.908518915549823
0.435817342189941,-0.900005234045257
0.439827556860688,-0.891075906522472
0.444190830554611,-0.881729605787903
0.448913387463839,-0.871965548190687
0.454000309469551,-0.861783500737163
0.459455520929031,-0.851183787071249
0.465281776131027,-0.840167292305999
0.471480649448366,-0.828735466694175
0.478052528210687,-0.816890328128252
0.484996608314123,-0.804634463462842
0.492310892578574,-0.791971028655161
0.499992191857109,-0.778903747721741
0.508036128895847,-0.765436910512236
0.516437144936499,-0.751575369303782
0.525188509047649,-0.737324534221979
0.53428233016468,-0.72269036749716
0.543709571812252,-0.707679376567199
0.553460069477172,-0.692298606040664
0.563522550593594,-0.67655562853662
0.573884657096615,-0.660458534419929
0.584532970494599,-0.644015920453269
0.595453039404884,-0.627236877389566
0.606629409492045,-0.610130976530818
0.618045655742471,-0.592708255281624
0.629684417003786,-0.574979201727931
0.641527432712572,-0.556954738273681
0.653555581728936,-0.53864620437013
0.665748923191744,-0.520065338374611
0.678086739303794,-0.50122425857745
0.690547579951902,-0.48213544343757
0.703109309062719,-0.462811711069096
0.715749152591222,-0.443266198022911
0.728443748035142,-0.423512337408666
0.741169195365179,-0.403563836404244
0.753901109257632,-0.38343465320098
0.766614672513192,-0.363138973434235
0.779284690542928,-0.342691186150029
0.791885646800113,-0.322105859359464
0.804391759034399,-0.301397715233603
0.81677703624298,-0.280581604992228
0.829015336191803,-0.259672483540597
0.841080423378606,-0.238685383908869
0.852946027308527,-0.217635391549297
0.864585900952302,-0.196537618546586
0.875973879256686,-0.175407177797034
0.887083937576504,-0.154259157212082
0.897890249897977,-0.133108594001901
0.908367246723339,-0.111970449094405
0.918489672487531,-0.0908595817448055
0.928232642378759,-0.0697907243903759
0.937571698436014,-0.0487784578045549
0.946482864798237,-0.0278371866038291
0.954942701981673,-0.00698111516006313
0.962928360064118,0.0137757760299734
0.97041763065716,0.0344197534671577
0.977388997550196,0.0549373532150454
0.983821685912953,0.075315402859036
0.989695709946426,0.095541042812678
0.994991918875589,0.115601746925575
0.999692041180893,0.135485342348914
1.00377872696949,0.155180028616299
1.00723558839127,0.1746743958993
1.01004723800898,0.193957442399011
1.01219932503658,0.213018590836782
1.01367856936431,0.23184770400935
1.01447279329408,0.25043509937564
1.01457095091392,0.268771562644683
1.0139631550454,0.286848360336323
1.01264070170319,0.304657251288664
1.01059609201173,0.322190497088561
1.00782305152946,0.339440871403851
1.0043165469367,0.356401668198475
1.00007280004956,0.373066708814112
0.995089299127638,0.389430347904484
0.989364807449698,0.405487478211033
0.982899369137475,0.42123353417126
0.975694312213778,0.4366644943536
0.96775224888733,0.451776882715319
0.959077073062895,0.466567768682549
0.949673955081409,0.48103476605418
0.939549333701023,0.495176030733948
0.928710905336057,0.508990257297661
0.917167610576996,0.522476674405104
0.904929618020687,0.535635039068704
0.892008305445882,0.548465629793612
0.878416238375169,0.560969238606325
0.86416714607016,0.573147161991474
0.849275895012481,0.585001190758798
0.833758459928734,0.596533598864723
0.817631892423039,0.607747131215257
0.800914287286086,0.618644990479194
0.783624746554795,0.629230822942798
0.765783341401685,0.639508703439266
0.747411071937867,0.649483119388326
0.728529825018219,0.659158953983269
0.709162330141746,0.668541468564641
0.689332113544343,0.677636284221576
0.669063450585211,0.686449362663481
0.648381316531964,0.694986986406395
0.627311335853005,0.703255738319844
0.605879730129085,0.71126248058142
0.584113264699008,0.719014333087637
0.562039194157256,0.726518651370774
0.539685206823857,0.733783004072535
0.517079368309103,0.7408151500263
0.494250064297696,0.747623015000598
0.471225942678689,0.75421466815717
0.448035855148963,0.760598298277618
0.424708798419188,0.766782189813099
0.401273855152082,0.772774698811925
0.377760134763348,0.778584228780175
0.354196714215973,0.784219206530531
0.330612578938587,0.789688058074578
0.307036563998264,0.794999184613675
0.283497295657586,0.800160938683262
0.260023133444917,0.805181600505099
0.236642112865679,0.81006935460145
0.213381888880966,0.814832266724607
0.190269680278139,0.819478261154439
0.167332215056003,0.824015098415769
0.144595676944936,0.82845035346646
0.122085653179769,0.832791394405987
0.0998270836404025,0.837045361753097
0.0778442114721391,0.841219148339847
0.0561605352943174,0.845319379867937
0.0347987631023599,0.849352396171723
0.0137807679645073,0.853324233230685
-0.0068724543894736,0.857240605972476
-0.027140825994564,0.861106891905806
-0.0470052250031262,0.864928115620614
-0.06644752187993,0.868708934190965
-0.0854506133603957,0.872453623514085
-0.103998454097899,0.876166065616831
-0.122076085931142,0.879849736958698
-0.139669664707886,0.883507697758226
-0.156766484606842,0.887142582367328
-0.173354999905052,0.890756590715731
-0.189424844143838,0.894351480845277
-0.204966846652181,0.897928562551371
-0.219973046392305,0.901488692146379
-0.234436703098202,0.905032268357222
-0.248352305683895,0.908559229366885
-0.26171557790432,0.912069051006925
-0.274523481257838,0.915560746105523
-0.286774215125548,0.919032864992967
-0.29846721414874,0.922483497163867
-0.309603142851978,0.925910274092786
-0.320183887525476,0.92931037319735
-0.330212545386495,0.932680522940336
-0.339693411045623,0.936017009059648
-0.348631960309757,0.939315681912532
-0.35703483135958,0.942571964917888
-0.364909803345164,0.945780864078049
-0.3722657724491,0.94893697855893
-0.379112725472198,0.952034512305101
-0.385461711002324,0.955067286663961
-0.391324808232335,0.958028753990926
-0.396715093498296,0.960912012205312
-0.401646604614285,0.963709820264454
-0.406134303084951,0.966414614521508
-0.410194034281764,0.969018525930391
-0.413842485673407,0.971513398059379
-0.417097143205107,0.973890805873064
-0.41997624592583,0.976142075240611
-0.422498738966141,0.978258303126606
-0.424684224973248,0.980230378419243
-0.426552914113136,0.982049003349125
-0.428125572752913,0.983704715450623
-0.429423470939432,0.985187910016485
-0.4304683287929,0.986488862995256
-0.431282261936628,0.987597754280055
-0.431887726086193,0.988504691336352
-0.432307460923172,0.98919973311558
-0.432564433380163,0.989672914200792
-0.432681780465144,0.989914269129971
-0.432682751754212,0.989913856842223
-0.432590651682477,0.989661785191736
-0.432428781763343,0.989148235474246
-0.432220382866526,0.98836348691066
-0.431988577685038,0.987297941032563
-0.431756313520918,0.98594214591455
-0.43154630551877,0.984286820198577
-0.431380980475169,0.982322876856031
-0.431282421350655,0.980041446633717
-0.431272312609511,0.977433901130668
-0.431371886510611,0.974491875453466
-0.431601870470505,0.971207290398688
-0.431982435617507,0.967572374112085
-0.43253314665286,0.96357968317529
-0.43327291313214,0.959222123072054
-0.434219942276855,0.954492967987396
-0.435391693422772,0.949385879894495
-0.436804834207857,0.943894926885731
-0.438475198598757,0.938014600705928
-0.440417746850711,0.931739833447609
-0.442646527491362,0.925066013369919
-0.445174641414483,0.917988999804799
-0.448014208164847,0.910505137116005
-0.451176334490586,0.902611267678659
-0.454671085234314,0.894304743849153
-0.458507456629029,0.885583438897513
-0.462693352059441,0.876445756876538
-0.467235560343836,0.866890641404462
-0.472139736585962,0.856917583340218
-0.477410385640648,0.846526627332876
-0.483050848231019,0.835718377229282
-0.489063289749243,0.82449400032649
-0.495448691766726,0.812855230458082
-0.502206846273596,0.800804369906098
-0.509336352661235,0.788344290132869
-0.516834617455438,0.775478431329661
-0.524697856801643,0.762210800781668
-0.532921101697501,0.748545970051499
-0.541498205961919,0.734489070985928
-0.550421856923545,0.720045790553272
-0.55968358880562,0.705222364521366
-0.569273798778037,0.690025569988657
-0.579181765641502,0.674462716783489
-0.589395671102792,0.658541637749143
-0.599902623594272,0.642270677934694
-0.610688684585179,0.625658682714128
-0.621738897326555,0.608714984858574
-0.63303731796627,0.591449390588804
-0.644567048965283,0.573872164637419
-0.656310274741087,0.55599401435233
-0.668248299459341,0.537826072875265
-0.680361586889829,0.519379881431093
-0.692629802238274,0.50066737076571
-0.705031855861121,0.48170084177211
-0.717545948766125,0.462492945346107
-0.730149619797621,0.443056661514818
-0.742819794401557,0.423405277882659
-0.755532834861775,0.403552367441127
-0.768264591895804,0.38351176579002
-0.780990457495273,0.363297547819062
-0.793685418893327,0.342924003900101
-0.806324113538846,0.32240561564111
-0.818880884955001,0.301757031254205
-0.831329839357698,0.280993040590741
-0.843644902907724,0.260128549897262
-0.855799879468968,0.239178556346733
-0.867768508743951,0.218158122399941
-0.879524524657013,0.197082350052325
-0.891041713854935,0.175966355021771
-0.902293974194494,0.154825240933007
-0.913255373086427,0.133674073554221
-0.923900205565612,0.112527855141457
-0.934203051957817,0.0914014989460323
-0.944138835014279,0.0703098039398965
-0.953682876386512,0.04926742981334
-0.962810952315204,0.0282888722988472
-0.971499348408782,0.00738843887417987
-0.979724913389231,-0.013419775103105
-0.987465111685035,-0.0341219097784388
-0.99469807475366,-0.0547043636501583
-1.00140265101878,-0.0751538158375639
-1.00755845431058,-0.0954572477194419
-1.01314591070066,-0.115601963896767
-1.01814630362679,-0.135575612434816
-1.02254181720638,-0.155366204341528
-1.02631557764176,-0.174962132240663
-1.02945169262424,-0.194352188200068
-1.03193528864887,-0.213525580677309
-1.033752546156,-0.232471950546816
-1.03489073242071,-0.25118138617481
-1.03533823211637,-0.269644437510342
-1.03508457548349,-0.287852129163007
-1.03412046404045,-0.30579597244013
-1.03243779377816,-0.323467976318549
-1.03002967578632,-0.34086065732849
-1.02689045426466,-0.357967048329438
-1.0230157218781,-0.374780706160413
-1.01840233242125,-0.391295718149505
-1.01304841076292,-0.407506707470124
-1.006953360048,-0.423408837333926
-1.00011786613973,-0.438997814013031
-0.992543899291705,-0.454269888686675
-0.984234713045228,-0.469221858110136
-0.975194840353399,-0.483851064106308
-0.965430086939981,-0.498155391882988
-0.954947521906889,-0.512133267181509
-0.943755465610391,-0.525783652264942
-0.931863474832191,-0.53910604075672
-0.919282325277523,-0.552100451343021
-0.906023991438405,-0.564767420354816
-0.892101623865974,-0.57710799324798
-0.877529523901653,-0.589123715002264
-0.862323115922517,-0.600816619462372
-0.846498917161755,-0.612189217646721
-0.830074505170522,-0.623244485051724
-0.81306848299272,-0.633985847981708
-0.79550044212932,-0.644417168936686
-0.777390923373754,-0.654542731092355
-0.758761375604651,-0.664367221908619
-0.739634112626708,-0.67389571590494
-0.720032268154846,-0.683133656642613
-0.699979749040898,-0.692086837955839
-0.679501186846011,-0.700761384475105
-0.658621887865611,-0.709163731487978
-0.637367781717173,-0.717300604183829
-0.615765368604308,-0.725178996330407
-0.593841665373537,-0.732806148431407
-0.571624150482854,-0.7401895254153
-0.549140708003557,-0.747336793906762
-0.52641957077899,-0.754255799132911
-0.503489262865704,-0.760954541517358
-0.480378541384108,-0.767441153015787
-0.457116337907013,-0.773723873247283
-0.433731699515478,-0.779811025476112
-0.410253729652072,-0.785710992498924
-0.386711528902162,-0.791432192492573
-0.363134135833908,-0.796983054877782
-0.339550468027581,-0.802371996253858
-0.315989263424308,-0.807607396459438
-0.292479022123699,-0.81269757481398
-0.269047948758716,-0.817650766594258
-0.245723895574946,-0.822475099799581
-0.222534306339723,-0.827178572258804
-0.199506161204843,-0.83176902913136
-0.176665922644319,-0.836254140853703
-0.154039482586315,-0.84064138158149
-0.13165211085573,-0.84493800817669
-0.109528405040855,-0.849151039787617
-0.0876922418945164,-0.853287238068464
-0.0661667303764954,-0.857353088083523
-0.0449741664405184,-0.861354779939684
-0.0241359896650655,-0.86529819118917
-0.00367274182323536,-0.869188870042698
0.016395972517503,-0.873032019431459
0.0360515232793401,-0.876832481954344
0.0552762899603427,-0.880594725744861
0.0740536944461875,-0.884322831290116
0.0923682314757898,-0.888020479232049
0.110205496694481,-0.89169093917893
0.127552212233749,-0.895337059552802
0.144396249762106,-0.89896125849625
0.160726650957253,-0.90256551585945
0.176533645355528,-0.90615136628604
0.191808665540412,-0.909719893413849
0.206544359637862,-0.913271725204026
0.220734601092238,-0.916807030409533
0.23437449570262,-0.920325516191431
0.247460385905504,-0.923826426888758
0.259989852295923,-0.92730854394522
0.271961712385287,-0.930770186993293
0.283376016600323,-0.934209216093722
0.294234041533721,-0.937623035125796
0.304538280463162,-0.941008596321173
0.314292431161558,-0.944362405931459
0.323501381027329,-0.947680531017162
0.332171189569538,-0.950958607343133
0.340309068288614,-0.954191848363097
0.347923357999195,-0.957375055273397
0.355023503647304,-0.960502628113693
0.361620026679716,-0.963568577889949
0.367724495028761,-0.966566539692769
0.373349490781181,-0.969489786781857
0.378508575604799,-0.972331245605212
0.383216254011744,-0.975083511719527
0.387487934541834,-0.977738866576258
0.391339888954307,-0.980289295135813
0.394789209520577,-0.98272650427048
0.397853764514878,-0.985041941914903
0.400552152003706,-0.987226816921189
0.40290365203874,-0.989272119574179
0.404928177361482,-0.991168642720872
0.406646222731171,-0.992907003466585
0.408078812990585,-0.994477665389182
0.409247449987162,-0.995870961221455
0.410174058469389,-0.997077115950715
0.410880931080732,-0.998086270283666
0.411390672575335,-0.998888504423785
0.411726143381461,-0.999473862107727
0.411910402640116,-0.999832374846625
0.411966650847407,-0.999954086317723
