0.519910363580793,-0.847224810643857
0.529498676175448,-0.837148610595821
0.538014633437563,-0.826028772050101
0.545419369925953,-0.813916436325125
0.551679442946013,-0.800867185848265
0.556767084819745,-0.78694066887602
0.560660421975871,-0.7722002017656
0.563343659379754,-0.75671235134385
0.564807229033808,-0.740546500036684
0.565047901498086,-0.72377439652289
0.564068859606632,-0.706469694759449
0.561879733786452,-0.688707484291078
0.558496598621188,-0.670563814804083
0.5539419305394,-0.652115217913497
0.548244526746189,-0.633438229182791
0.541439385755352,-0.614608913367056
0.52467591215909,-0.576792403148227
0.514816983823749,-0.55795081547293
0.504048631833389,-0.539247233897507
0.492433779721385,-0.520748565031641
0.480040078399668,-0.502518625627033
0.466939547165214,-0.484617769589277
0.438925569965914,-0.450025345984511
0.424174402444887,-0.433434173240777
0.409040072536211,-0.417372318553356
0.393610176528071,-0.401878161303956
0.377974031890207,-0.386984966477682
0.362222178120136,-0.372720722603779
0.346445868626471,-0.359108015233614
0.330736556670147,-0.346163936659125
0.315185378424932,-0.333900032344435
0.299882636240509,-0.322322284309994
0.284917285194471,-0.311431131474021
0.270376426003772,-0.301221526721605
0.256344807331573,-0.291683030239074
0.242904340472313,-0.282799938421557
0.23013362932637,-0.274551447436564
0.218107518486503,-0.266911850307198
0.206896662151695,-0.259850766166764
0.196567116460905,-0.253333400133271
0.187179957700172,-0.247320832059004
0.165201656118721,-0.231867636479987
0.160083484012992,-0.227414108816138
0.156127105990577,-0.223220770273054
0.153357417950096,-0.219231366774076
0.151792558246533,-0.215388167186688
0.151443800034331,-0.2116324012097
0.152315483174195,-0.207904703900755
0.154404986120306,-0.204145563936168
0.15770273796394,-0.200295772671905
0.162192270567776,-0.196296871069788
0.167850310483728,-0.19209159156682
0.174646910107686,-0.187624291997777
0.182545617288331,-0.182841378731704
0.19150368237582,-0.177691716251378
0.201472301470935,-0.17212702049068
0.212396894417688,-0.166102233347721
0.250280819877254,-0.144872382326621
0.26437950994848,-0.136633019813994
0.279086564891019,-0.127768156640487
0.294320296595612,-0.118258608953758
0.309995996062003,-0.108090325242095
0.342322256778994,-0.0857478601874473
0.375345849264108,-0.0607357497101414
0.391889366551073,-0.047251043819336
0.4083308797311,-0.0331368859623687
0.424578555359174,-0.0184172980471577
0.440541600848676,-0.00312161072388215
0.456130770010583,0.0127156782672156
0.471258857957018,0.0290550807661127
0.485841182441261,0.0458523288452761
0.499796048792818,0.0630586181905844
0.513045195709892,0.0806208827479662
0.525514219291985,0.0984820989722143
0.53713297283167,0.116581617824035
0.547835940035864,0.134855522482437
0.557562579512405,0.153237009573133
0.566257638536221,0.17165679156082
0.573871434299856,0.190043517814927
0.580360101054394,0.208324211735588
0.585685801757629,0.22642472121997
0.589816903065357,0.244270179659352
0.592728112727621,0.261785474585037
0.59440057868311,0.278895721026856
0.594821949380417,0.295526736611864
0.593986395092887,0.311605515413307
0.591894590232999,0.327060697560935
0.588553656911049,0.341823031643459
0.578184525961613,0.369005392831239
0.571201771759594,0.381301461914876
0.563060402725205,0.392657595243295
0.553797623060074,0.403021565958786
0.543455975184356,0.412345719528261
0.532083038176374,0.420587308019634
0.519731097494564,0.427708796274919
0.506456788125272,0.433678137972209
0.49232071345913,0.438469019750696
0.477387042343437,0.442061071766418
0.44539886370955,0.445597941853749
0.428486641415535,0.445533135785726
0.393195745280543,0.441761031734329
0.374968660795175,0.43808265758702
0.318878015849187,0.420185608492792
0.299963782248742,0.412054202396989
0.281064233796937,0.402915604893775
0.243592209056164,0.381837626137625
0.207001685188293,0.357444219496684
0.189192090949493,0.344178709291051
0.171781624735458,0.330301945123295
0.122435570958435,0.28582275693489
0.107088739334839,0.270332868911132
0.0923503674902231,0.254659272285111
0.0782471036654177,0.238892732952174
0.0648001671330093,0.223124602642104
0.0178065532051684,0.161854832243031
0.00776591234272553,0.147433440642999
-0.00160705847553963,0.133542052032104
-0.0103293545759263,0.120261794261122
-0.0184230253349095,0.107670373002376
-0.0505590358157637,0.0574715396762261
-0.0646650488929315,0.0396002970019569
-0.0688020647537371,0.0359385192427638
-0.0727494568439416,0.0334686044501303
-0.0765652574489116,0.0322069832356532
-0.0803084274003166,0.0321632002576206
-0.0916963113484478,0.039330097786731
-0.0957414947412172,0.0441142023538582
-0.100007135691867,0.0500599470590378
-0.109418314831763,0.0653035361398587
-0.114667328770076,0.074519045741273
-0.120342957128466,0.0847319942358418
-0.140352841246819,0.120769141848258
-0.148138653209924,0.134360030078672
-0.156532318268236,0.148618286794025
-0.17522987007838,0.178817067930024
-0.220583796412688,0.243542739268253
-0.233583903196025,0.260102157062764
-0.247227929491099,0.276628820390083
-0.261495906375702,0.293030451631121
-0.29179699355046,0.325093301554854
-0.44393268445019,0.468708755805539
-0.35842657242177,0.383793384637062
-0.376069068353082,0.39685431642545
-0.302534739978482,0.317140213024784
-0.526879374690348,0.539102703239535
-0.558835209472476,0.535840394838595
-0.587200572084941,0.556003383023739
-0.40607730786126,0.567744186218182
-0.439390613353293,0.372065630845043
-0.45296800844731,0.367361903244709
-0.472507042949469,0.3809955101889
-0.590609621182831,0.475346894467583
-0.71474948801861,0.378353704996469
-0.533881122523624,0.563053067345313
-0.765479078159515,0.354537287807305
-0.77745861820478,0.344625420625905
-0.696460441819871,0.431927492491
-0.798538147504366,0.5386152766292
-0.624983847810965,0.285434742249752
-0.819867431039331,0.480225712912939
-0.730488683950705,0.369275403794916
-0.636569187841695,0.263884825286485
-0.636674945801329,0.235736881136008
-0.642443708365188,0.216176247680343
-0.834054419894556,0.173429173553107
-0.727988564188377,0.250980157286734
-0.709258519464716,0.194767972784741
-0.691488375676705,0.156965964209268
-0.799029549358976,0.250836712034542
-0.540326899614471,0.200851484505007
-0.749184744344999,-0.0336492368160053
-0.631772337148659,0.0654158892691655
-0.617755195711271,0.0481133962787709
-0.588274215025614,0.0149418786675253
-0.572981033383869,-0.000840609282717342
-0.557436760181837,-0.016038117051005
-0.541731386927749,-0.0306199998246735
-0.525955874032001,-0.0445609569993954
-0.479121866464478,-0.0823674540970964
-0.449212947333928,-0.104151023007473
-0.434916280945719,-0.114023436228871
-0.339811333392646,-0.176183644944224
-0.334123672909736,-0.180787783414142
-0.329582868786634,-0.185104293938393
-0.32621714313139,-0.189188530718406
-0.324048028977838,-0.193097540567068
-0.323351597958216,-0.200623920766424
-0.324832953782609,-0.204359908891037
-0.350085538075412,-0.22511714067687
-0.358519652422231,-0.230077205815528
-0.367989462928695,-0.235428542510635
-0.378443240709346,-0.241217867386103
-0.389823632134402,-0.247488491678915
-0.415108709420257,-0.261627831053169
-0.458267336109056,-0.287297717254078
-0.473732810515831,-0.297135203484699
-0.522165883395577,-0.330649305107654
-0.588109163029232,-0.384541625497479
-0.635382317325271,-0.431217958774282
-0.67813809353092,-0.482191414576281
-0.691006222263231,-0.499910517596506
-0.714227344882846,-0.536093570133607
-0.741827085818165,-0.591251500834702
-0.765344624326213,-0.680788573328948
-0.76618590856598,-0.714032345673809
-0.764721739935304,-0.729808125086377
-0.762004080855101,-0.744925390044005
-0.730191162935386,-0.808359376579975
-0.720383309156891,-0.818209096392029
-0.684830050461124,-0.84123195306047
-0.608636171195486,-0.856110914445314
-0.573802693729173,-0.853548289859988
-0.537367676558954,-0.846197559416236
-0.518740628260799,-0.840782798279259
-0.462132172922157,-0.81800024849741
-0.40596638773783,-0.786421828452844
-0.387663466371775,-0.774216251863365
-0.334866788570795,-0.733552029450565
-0.318149864192306,-0.718910091154356
-0.286312483180503,-0.688499098522322
-0.217517732356607,-0.610061988907682
-0.184326425060932,-0.564975763650449
-0.174621420639451,-0.550809036669706
-0.165576231902087,-0.537213275674291
-0.149382162135362,-0.512048898944029
-0.142179544064536,-0.500627849876083
-0.123733021263771,-0.471800371127488
-0.118498930952314,-0.464193128982804
-0.100828647184135,-0.444946077657336
-0.0857074564649507,-0.444777443231658
-0.0737812465293134,-0.457336376564022
-0.0693845635140872,-0.463851502820795
-0.054175538876012,-0.489896894666611
-0.0482698088612499,-0.500587915533926
-0.0349451082982332,-0.524640338035186
-0.0193665538830413,-0.551803283826699
0.0427054479146817,-0.645672322603093
0.160996775307133,-0.773259888102041
0.304837990109713,-0.863080452687252
