-0.0416800095681016,0.128409249974484
-0.0440109096467257,0.133919534441361
-0.0465479917653741,0.139392999926356
-0.0492912154195981,0.144822087592747
-0.0522402673443537,0.150199205712175
-0.0553945594368202,0.155516739383325
-0.0587532270219278,0.160767060347694
-0.0623151274646083,0.165942536890466
-0.0660788391323759,0.171035543814373
-0.0700426607114182,0.176038472474245
-0.074204610878953,0.180943740859858
-0.0785624283341746,0.185743803714558
-0.0831135721896774,0.190431162677054
-0.0878552227248046,0.194998376433674
-0.092784282501927,0.199438070868332
-0.0978973778462116,0.203742949197387
-0.103190860688992,0.207905802076547
-0.108660810774404,0.21191951766694
-0.114303038228492,0.215777091647489
-0.120113086489555,0.219471637160714
-0.126086235598037,0.222996394679126
-0.132217505843816,0.226344741779423
-0.138501661768307,0.229510202811738
-0.144933216518334,0.232486458451276
-0.151506436548286,0.235267355119776
-0.158215346666627,0.237846914264299
-0.165053735422392,0.24021934148102
-0.172015160826854,0.242379035471784
-0.179092956405136,0.244320596821368
-0.186280237572089,0.246038836583545
-0.193569908326346,0.247528784664243
-0.200954668256063,0.248785697990249
-0.208427019849404,0.249805068452163
-0.215979276102471,0.250582630610514
-0.223603568416958,0.251114369154162
-0.231291854779417,0.251396526100422
-0.239035928213661,0.251425607726544
-0.246827425497443,0.251198391222521
-0.254657836134194,0.250711931055449
-0.262518511570258,0.249963565035997
-0.270400674647695,0.248950920077835
-0.278295429282431,0.247671917641237
-0.286193770357167,0.246124778852367
-0.294086593818199,0.244308029290165
-0.301964706964954,0.242220503433067
-0.309818838920813,0.239861348758199
-0.317639651273466,0.237230029486064
-0.32541774887284,0.234326329964111
-0.333143690774339,0.231150357683033
-0.340808001314955,0.227702545919998
-0.348401181309554,0.22398365600347
-0.355913719354446,0.219994779194709
-0.363336103225174,0.21573733818146
-0.370658831355248,0.211213088179799
-0.37787242438244,0.206424117640548
-0.384967436749059,0.201372848557132
-0.391934468342525,0.196062036372217
-0.398764176162458,0.190494769480924
-0.405447286000362,0.184674468328897
-0.41197460411795,0.178604884103984
-0.418337028910044,0.172290097020743
-0.424525562537982,0.165734514197508
-0.430531322519392,0.158942867126191
-0.436345553260198,0.151920208735527
-0.441959637514732,0.144671910048905
-0.447365107759806,0.137203656438469
-0.452553657468693,0.129521443477627
-0.457517152270953,0.121631572394593
-0.462247640984154,0.113540645130095
-0.466737366503607,0.105255559002859
-0.470978776536319,0.0967835009869299
-0.474964534165532,0.088131941605428
-0.478687528232287,0.0793086284457646
-0.482140883520665,0.0703215793018346
-0.485317970733479,0.0611790749491727
-0.488212416245399,0.0518896515595125
-0.490818111620684,0.0424620927616516
-0.49312922288291,0.032905421355975
-0.495140199524317,0.0232288906904302
-0.496845783242636,0.0134419757061843
-0.498241016393535,0.00355436366162502
-0.499321250147082,-0.00642405545621601
-0.500082152336931,-0.0164831988233272
-0.500519714991217,-0.0266128009635737
-0.500630261534508,-0.0368024242164653
-0.500410453650447,-0.0470414694771667
-0.499857297795102,-0.0573191871977142
-0.498968151351381,-0.0676246886380439
-0.497740728415251,-0.0779469573550867
-0.496173105204886,-0.0882748609178505
-0.494263725084254,-0.0985971628360902
-0.492011403193078,-0.108902534689852
-0.489415330675517,-0.119179568446889
-0.486475078500338,-0.129416788954647
-0.483190600865809,-0.139602666593284
-0.479562238182966,-0.149725630075889
-0.475590719631397,-0.159774079381867
-0.471277165282119,-0.169736398809213
-0.466623087782643,-0.17960097013119
-0.461630393599763,-0.189356185842752
-0.456301383816122,-0.198990462481844
-0.450638754477105,-0.2084922540106
-0.444645596485102,-0.217850065241264
-0.438325395038693,-0.227052465291576
-0.431682028614843,-0.236088101054234
-0.424719767492679,-0.244945710664963
-0.417443271817975,-0.253614136953632
-0.409857589207979,-0.262082340862828
-0.401968151896744,-0.270339414818243
-0.393780773421673,-0.278374596035198
-0.385301644852495,-0.286177279745657
-0.376537330564436,-0.293737032330065
-0.367494763557883,-0.301043604338406
-0.358181240327367,-0.308086943384904
-0.348604415283217,-0.314857206900879
-0.338772294729783,-0.321344774730348
-0.328693230404634,-0.32754026155306
-0.318375912583673,-0.333434529119804
-0.307829362757637,-0.339018698284927
-0.297062925885953,-0.344284160821205
-0.286086262234439,-0.349222591002356
-0.27490933880386,-0.353825956938681
-0.263542420356831,-0.358086531651549
-0.251996060051051,-0.361996903872655
-0.24028108968738,-0.365549988554225
-0.228408609581688,-0.368739037076614
-0.216389978069937,-0.371557647140026
-0.204236800656382,-0.373999772327351
-0.191960918815247,-0.376059731325478
-0.179574398456671,-0.377732216792713
-0.167089518068158,-0.379012303860316
-0.154518756543189,-0.379895458256511
-0.141874780709044,-0.380377544041691
-0.129170432566323,-0.380454830943951
-0.116418716252992,-0.380124001284447
-0.103632784746209,-0.379382156482525
-0.0908259263154862,-0.37822682313098
-0.0780115507411411,-0.376655958632237
-0.0652031753123034,-0.374667956386713
-0.0524144106190457,-0.372261650525082
-0.0396589461535407,-0.369436320176619
-0.0269505357354091,-0.366191693266328
-0.0143029827767048,-0.362527949834004
-0.00173012540223913,-0.358445724868939
0.0107541785588249,-0.353946110654449
0.0231360666939415,-0.349030658616958
0.035401687224356,-0.343701380674902
0.0475372143019385,-0.337960750083234
0.0595288633689489,-0.331811701769895
0.0713629065638799,-0.325257632161133
0.0830256881563657,-0.318302398493143
0.0945036399940508,-0.310950317608045
0.105783296944208,-0.303206164232797
0.116851312312822,-0.295075168740205
0.127694473223803,-0.286563014391783
0.138299715940941,-0.277675834062782
0.148654141115224,-0.268420206450291
0.158745028940101,-0.258803151765905
0.168559854197346,-0.248832126915029
0.178086301176156,-0.238515020165474
0.187312278448246,-0.227860145308584
0.196225933481712,-0.216876235316727
0.204815667076603,-0.205572435501534
0.213070147605189,-0.193958296177888
0.220978325040126,-0.182043764839195
0.228529444753805,-0.169839177850094
0.235713061072404,-0.157355251663263
0.242519050568324,-0.144603073567611
0.248937625074925,-0.131594091975641
0.254959344407695,-0.118340106258354
0.260575128776257,-0.104853256136598
0.265776270871868,-0.0911460106382924
0.270554447615376,-0.0772311566314934
0.274901731550887,-0.0631217869437845
0.278810601870732,-0.0488312880789731
0.282273955057667,-0.0343733275425855
0.285285115130585,-0.019761840788132
0.287837843480416,-0.00501101779658624
0.289926348283252,0.00986471069799767
0.291545293478187,0.0248506873233783
0.29268980729774,0.0399320425107144
0.293355490339198,0.0550937092486308
0.293538423165654,0.070320438135112
0.293235173426006,0.0855968127121957
0.292442802483624,0.100907265068044
0.291158871543938,0.116236091690609
0.289381447271659,0.131567469556768
0.287109106888916,0.146885472440437
0.284340942746066,0.162174087422913
0.281076566357546,0.177417231588331
0.277316111895613,0.192598768886886
0.273060239135468,0.20770252714818
0.268310135845751,0.222712315226835
0.263067519619042,0.237611940262253
0.257334639137553,0.252385225034217
0.251114274869822,0.267016025395842
0.244409739194806,0.28148824776521
0.237224875950398,0.295785866656848
0.229564059403997,0.309892942234151
0.221432192643407,0.323793637863642
0.212834705386932,0.337472237651975
0.203777551212208,0.350913163946443
0.194267204203918,0.364100994779747
0.184310655021181,0.377020481239744
0.173915406386054,0.389656564744891
0.163089467995213,0.401994394206115
0.151841350857532,0.414019343055878
0.14018006106091,0.425717026125269
0.128115092972334,0.437073316350039
0.115656421875812,0.44807436128657
0.102814496053445,0.458706599418944
0.0896002283155166,0.468956776238363
0.0760249869861457,0.478811960076381
0.0621005863516282,0.488259557673576
0.0478392765792455,0.497287329465495
0.0332537331149078,0.505883404567949
0.0183570455686172,0.514036295443955
0.00316270609732575,0.521734912234929
-0.0123154027046425,0.52896857673899
-0.0280630203968547,0.535727036019552
-0.0440655217544012,0.542000475627735
-0.0603079302880145,0.547779532422422
-0.0767749322102386,0.55305530697221
-0.0934508908346809,0.557819375523857
-0.110319861394851,0.562063801522232
-0.127365606268567,0.565781146667216
-0.144571610593417,0.568964481493415
-0.161921098258272,0.57160739545902
-0.179397048255387,0.573704006530628
-0.196982211377125,0.575248970251301
-0.214659127240974,0.576237488279669
-0.232410141626002,0.576665316388402
-0.250217424103583,0.576528771910888
-0.268062985944754,0.575824740625543
-0.285928698286239,0.5745506830677
-0.303796310536795,0.572704640259629
-0.321647469005204,0.570285238849821
-0.339463735730907,0.567291695653259
-0.357226607497994,0.563723821585039
-0.374917535012954,0.559582024980287
-0.392517942226359,0.554867314293984
-0.410009245778397,0.549581300174942
-0.427372874547951,0.543726196908827
-0.44459028928473,0.537304823225767
-0.461643002303779,0.530320602468787
-0.478512597221529,0.522777562119946
-0.495180748712444,0.514680332681759
-0.511629242265161,0.506034145912153
-0.527839993916995,0.496844832411913
-0.543795069945551,0.487118818564243
-0.559476706496192,0.476863122826793
-0.574867329124054,0.466085351377176
-0.589949572229337,0.454793693113705
-0.604706298364587,0.442996914013798
-0.61912061739277,0.430704350853173
-0.63317590547498,0.417925904289676
-0.646855823866744,0.404672031316271
-0.660144337501978,0.390953737088434
-0.673025733343818,0.376782566131858
-0.685484638481681,0.362170592937101
-0.697506037954132,0.347130411948475
-0.709075292277313,0.331675126955137
-0.720178154658938,0.315818339893069
-0.730800787878109,0.299574139067241
-0.740929780811492,0.282957086803959
-0.75055216458666,0.265982206544017
-0.759655428343778,0.248664969387947
-0.768227534587114,0.23102128010526
-0.77625693410822,0.213067462620228
-0.783732580463034,0.194820244987345
-0.790643943985552,0.176296743870199
-0.79698102532112,0.157514448538119
-0.80273436846287,0.138491204395477
-0.80789507327528,0.119245196059117
-0.812454807489312,0.0997949299999441
-0.816405818154085,0.0801592167651829
-0.819740942530579,0.060357152798403
-0.822453618413365,0.0404081018748435
-0.824537893866953,0.0203316761700882
-0.825988436363887,0.000147716980592162
-0.826800541312324,-0.0201237248849866
-0.826970139961414,-0.0404624090242736
-0.826493806673447,-0.0608479256496961
-0.82536876555232,-0.0812597160668558
-0.823592896418571,-0.101677093402208
-0.821164740121833,-0.122079263559168
-0.81808350318228,-0.14244534638141
-0.814349061753269,-0.162754397001834
-0.809961964898122,-0.182985427355409
-0.80492343717465,-0.203117427833806
-0.799235380521759,-0.223129389059505
-0.792900375443204,-0.243000323756887
-0.785921681484245,-0.262709288697546
-0.778303236997741,-0.282235406696974
-0.770049658196944,-0.301557888639561
-0.761166237492971,-0.320656055508773
-0.751658941115742,-0.339509360399259
-0.741534406017875,-0.358097410487544
-0.730799936061821,-0.376399988937974
-0.71946349749127,-0.394397076720478
-0.707533713688627,-0.412068874316795
-0.695019859221122,-0.429395823291775
-0.681931853178876,-0.446358627706451
-0.668280251809024,-0.462938275349646
-0.654076240450739,-0.479116058764981
-0.639331624776774,-0.494873596050271
-0.624058821347901,-0.510192851406461
-0.608270847487351,-0.525056155413414
-0.591981310483147,-0.539446225010087
-0.57520439612693,-0.553346183156821
-0.55795485659863,-0.566739578157765
-0.540247997707067,-0.579610402621698
-0.522099665497268,-0.591943112039814
-0.503526232236018,-0.603722642959386
-0.484544581787854,-0.614934430732522
-0.465172094394411,-0.625564426819649
-0.445426630870691,-0.635599115627714
-0.425326516232518,-0.645025530863522
-0.404890522770084,-0.653831271383076
-0.38413785258313,-0.662004516518221
-0.363088119593948,-0.669534040862402
-0.34176133105499,-0.676409228497824
-0.320177868568465,-0.682620086646843
-0.298358468635909,-0.68815725873094
-0.276324202756248,-0.693012036821221
-0.254096457091436,-0.697176373464931
-0.231696911719281,-0.700642892873102
-0.209147519493571,-0.703404901455056
-0.186470484532109,-0.705456397686112
-0.163688240353734,-0.706792081295522
-0.14082342768585,-0.70740736176231
-0.117898871964426,-0.707298366107365
-0.094937560548821,-0.70646194597086
-0.0719626196741742,-0.70489568396476
-0.0489972911644707,-0.702597899290923
-0.02606490892973,-0.699567652616012
-0.00318887527106676,-0.695804750195219
0.0196073629823222,-0.69130974723754
0.0423003384799328,-0.686083950506099
0.0648665874759259,-0.680129420147849
0.0872826740495514,-0.673448970747702
0.10952521439501,-0.666046171602999
0.131570901155691,-0.657925346214975
0.153396527777453,-0.649091570994755
0.174979012855613,-0.639550673182161
0.196295424450169,-0.629309227976477
0.21732300434369,-0.618374554879143
0.238039192216384,-0.60675471324914
0.258421649712696,-0.594458497072709
0.278448284373969,-0.581495428949824
0.298097273411588,-0.567875753300727
0.317347087295259,-0.553610428796599
0.336176513131044,-0.538711120019335
0.354564677803977,-0.52319018835617
0.372491070860231,-0.507060682135745
0.38993556710396,-0.490336326013027
0.406878448884183,-0.473031509611291
0.42330042804729,-0.455161275430207
0.439182667531026,-0.43674130602985
0.454506802576081,-0.417787910501277
0.469254961531764,-0.398318010235044
0.483409786232518,-0.378349123999906
0.49695445192248,-0.35789935234459
0.509872686705604,-0.336987361336404
0.522148790499323,-0.315632365651099
0.533767653470189,-0.293854111029165
0.544714773930304,-0.271672856114496
0.55497627567398,-0.249109353691971
0.564538924734437,-0.226184831341299
0.573390145541001,-0.202920971525022
0.581518036457726,-0.179339891129376
0.588911384685036,-0.155464120477169
0.59555968050648,-0.131316581832644
0.601453130863427,-0.106920567418723
0.606582672241061,-0.0822997169677427
0.610939982849781,-0.0574779948272821
0.614517494086751,-0.0324796666432272
0.61730840126304,-0.0073292756427786
0.619306673582529,0.0179483814594434
0.620507063359485,0.0433282789085361
0.620905114462442,0.0687851866855974
0.620497169972803,0.0942936955886146
0.61928037904737,0.119828242593057
0.617252702974758,0.145363136466802
0.614412920416509,0.17087258361381
0.610760631824505,0.196330714120478
0.606296263027114,0.221711607978433
0.601021067977362,0.246989321457182
0.594937130657241,0.272137913599775
0.588047366133163,0.297131472814505
0.580355520758403,0.321944143535333
0.571866171519263,0.346550152923734
0.562584724522573,0.370923837584344
0.552517412623023,0.395039670266838
0.541671292189721,0.418872286526267
0.530054239012245,0.442396511314115
0.517674943347387,0.465587385472255
0.504542904108654,0.488420192102026
0.490668422201507,0.510870482780688
0.476062593008216,0.53291410359754
