0.195058539661321,-0.307798317826241
0.20108972056339,-0.302830229946212
0.20699100111411,-0.297635910111321
0.212754086096123,-0.29221865025728
0.218370760000924,-0.286582041262833
0.223832897656347,-0.280729971155785
0.229132474818881,-0.274666622945368
0.234261578717799,-0.268396472081412
0.239212418538076,-0.261924283541265
0.243977335829097,-0.25525510854581
0.248548814826147,-0.248394280906436
0.252919492671775,-0.241347413005221
0.257082169524116,-0.234120391411051
0.261029818539393,-0.226719372134872
0.264755595715858,-0.219150775527676
0.268252849586566,-0.211421280825284
0.271515130748488,-0.203537820344456
0.274536201215606,-0.195507573335238
0.277310043583769,-0.187337959494949
0.279830869995285,-0.179036632149592
0.282093130891366,-0.170611471108929
0.284091523540777,-0.162070575201852
0.285821000333213,-0.153422254499123
0.287276776826184,-0.144675022230925
0.288454339534397,-0.135837586407092
0.289349453450903,-0.126918841148264
0.289958169289523,-0.117927857736598
0.290276830438351,-0.108873875395038
0.290302079614431,-0.0997662918045025
0.290030865209999,-0.0906146533687296
0.289460447321011,-0.0814286452368255
0.288588403448988,-0.0722180810939326
0.287412633867582,-0.062992892730734
0.285931366645577,-0.0537631194028328
0.284143162318446,-0.0445388969913437
0.282046918200937,-0.0353304469763224
0.279641872333533,-0.0261480652349353
0.276927607056067,-0.0170021106765332
0.273904052202136,-0.00790299372704867
0.27057148790839,0.00113883532463627
0.266930547033201,0.0101128981054686
0.262982217179626,0.0190087000490715
0.258727842318043,0.0278157423853755
0.254169124004255,0.0365235342155767
0.249308122189331,0.0451216046587964
0.244147255617913,0.0535995150566675
0.238689301812148,0.0619468712219385
0.232937396638923,0.0701533357170677
0.226895033458513,0.0782086401486731
0.220566061853256,0.0861025974636241
0.213954685935327,0.0938251142324805
0.207065462233203,0.101366202905936
0.199903297156846,0.108715994029881
0.19247344404218,0.115864748404685
0.184781499775878,0.122802869174278
0.176833401001991,0.129520913830638
0.168635419912444,0.136009606119312
0.160194159623905,0.14225984783164
0.15151654914402,0.148262730469417
0.142609837930522,0.154009546767802
0.13348159004717,0.15949180206239
0.124139677920997,0.164701225486447
0.114592275705794,0.169629780984468
0.104847852257262,0.17426967812834
0.09491516372572,0.178613382722561
0.0848032457727346,0.182653627185145
0.0745214054184921,0.186383420691019
0.0640792125272025,0.189796059064967
0.0534864909382667,0.192885134411338
0.0427533092513844,0.195644544468047
0.0318899712742223,0.198068501672588
0.020907006141681,0.200151541928099
0.00981515811622902,0.201888533057773
-0.00137462392082457,0.203274682936217
-0.0126511972768392,0.204305547286686
-0.0240032365434693,0.20497703713344
-0.0354192449693579,0.205285425898801
-0.0468875660984781,0.205227356134863
-0.0583963956623466,0.204799845880171
-0.069933793713987,0.204000294632054
-0.0814876969911832,0.202826488925699
-0.0930459314962452,0.20127660751147
-0.1045962252792,0.199349226122356
-0.116126221411028,0.197043321823909
-0.127623491133276,0.19435827693942
-0.139075547170129,0.191293882543575
-0.15046985718875,0.18785034151825
-0.161793857393481,0.184028271164598
-0.173034966239254,0.179828705366052
-0.184180598249387,0.175253096297328
-0.19521817792271,0.170303315675046
-0.206135153714841,0.164981655546034
-0.216919012078219,0.159290828609931
-0.227557291545417,0.153233968073177
-0.23803759684009,0.146814627032034
-0.248347612999838,0.140036777382745
-0.258475119495152,0.132904808257535
-0.268408004328562,0.125423523985624
-0.278134278098028,0.117598141578989
-0.287642088008599,0.109434287743131
-0.296919731816343,0.100937995413653
-0.305955671688541,0.0921156998199733
-0.314738547964167,0.0829742340780596
-0.323257192798704,0.0735208243145806
-0.331500643677411,0.063763084325441
-0.339458156781215,0.0537090097721786
-0.347119220189502,0.0433669719202437
-0.354473566904181,0.0327457109237249
-0.36151118767954,0.0218543286615982
-0.368222343642524,0.0107022811311187
-0.374597578688264,-0.00070062959551459
-0.380627731635838,-0.0123442638445651
-0.386303948129467,-0.024218153237071
-0.391617692270525,-0.0363115100003922
-0.396560757966032,-0.0486132366868167
-0.401125279979486,-0.0611119362905619
-0.405303744670205,-0.0737959227540181
-0.409089000407603,-0.0866532318536073
-0.412474267647137,-0.0996716324551542
-0.415453148654976,-0.112838638128218
-0.418019636868754,-0.126141519108375
-0.420168125882163,-0.139567314596005
-0.42189341804144,-0.153102845379711
-0.42319073264223,-0.166734726772079
-0.424055713715675,-0.180449381845083
-0.424484437392982,-0.194233054952049
-0.424473418838152,-0.208071825522706
-0.42401961873897,-0.221951622117501
-0.423120449346825,-0.23585823672698
-0.421773780056342,-0.249777339301725
-0.419977942516331,-0.263694492497989
-0.417731735263993,-0.277595166623894
-0.415034427874836,-0.291464754770715
-0.41188576462126,-0.30528858811357
-0.408285967633249,-0.319051951365492
-0.404235739555183,-0.332740098368686
-0.399736265693253,-0.346338267806511
-0.394789215648546,-0.359831699019516
-0.389396744431386,-0.373205647908696
-0.383561493053086,-0.386445402908925
-0.377286588591801,-0.399536301015393
-0.370575643729774,-0.412463743845726
-0.363432755759807,-0.425213213720357
-0.355862505059363,-0.437770289743593
-0.34786995303132,-0.45012066386779
-0.339460639510931,-0.462250156922922
-0.330640579639176,-0.474144734593853
-0.321416260203235,-0.485790523327544
-0.311794635445452,-0.497173826152458
-0.301783122342695,-0.508281138392431
-0.291389595358657,-0.519099163257305
-0.280622380672195,-0.529614827292686
-0.269490249885422,-0.539815295671264
-0.258002413215832,-0.549687987308212
-0.246168512177347,-0.559220589783316
-0.233998611755724,-0.56840107405261
-0.221503192084379,-0.577217708932446
-0.208693139627229,-0.585659075339088
-0.195579737875729,-0.593714080267149
-0.182174657567866,-0.601371970490348
-0.168489946437381,-0.608622345968346
-0.154538018502111,-0.615455172943628
-0.140331642900814,-0.621860796712683
-0.125883932288429,-0.627829954056038
-0.111208330800225,-0.633353785311956
-0.0963186015958051,-0.638423846078986
-0.081228813994466,-0.643032118532854
-0.0659533302138783,-0.64717102234356
-0.050506791724559,-0.6508334251789
-0.0349041052330761,-0.654012652781053
-0.0191604283073875,-0.656702498603245
-0.00329115465815816,-0.658897232993948
0.012688100909649,-0.660591611916497
0.0287615178602088,-0.661780885192471
0.044913085590176,-0.662460804257635
0.0611266193764296,-0.662627629419737
0.0773857765923302,-0.662278136607945
0.0936740731762519,-0.661409623604209
0.109974900335786,-0.660019915747355
0.12627154147071,-0.658107371101269
0.142547189297478,-0.65567088507904
0.15878496315772,-0.652709894515518
0.174967926492941,-0.64922438118129
0.191079104467361,-0.645214874731659
0.207101501720614,-0.640682455084789
0.223018120231766,-0.635628754223783
0.238811977275955,-0.630055957418059
0.254466123454744,-0.623966803859988
0.269963660781127,-0.617364586713389
0.285287760799999,-0.61025315257108
0.300421682724743,-0.602636900319338
0.315348791570547,-0.594520779407722
0.330052576264913,-0.585910287523364
0.344516667715825,-0.576811467669485
0.358724856817961,-0.567230904648511
0.372661112377339,-0.557175720950826
0.38630959893479,-0.546653572050834
0.399654694468658,-0.535672641112667
0.412681007957216,-0.524241633108494
0.425373396781289,-0.512369768353059
0.437716983947747,-0.50006677545871
0.449697175114563,-0.487342883715818
0.461299675398314,-0.474208814904129
0.47251050594515,-0.460675774541244
0.483316020246401,-0.446755442575019
0.493702920180231,-0.432459963527343
0.50365827176092,-0.41780193609734
0.513169520577638,-0.40279440223269
0.522224506904788,-0.387450835678334
0.530811480466309,-0.371785130012466
0.538919114836607,-0.355811586180277
0.546536521461106,-0.339544899536519
0.55365326327975,-0.323000146408529
0.560259367937151,-0.306192770191894
0.566345340563426,-0.289138566991532
0.571902176110204,-0.27185367082145
0.576921371226655,-0.254354538377034
0.581394935660851,-0.23665793339417
0.585315403172203,-0.218780910610065
0.588675841941192,-0.200740799341066
0.591469864463079,-0.182555186693302
0.593691636912807,-0.164241900422382
0.595335887968778,-0.145818991458862
0.596397917083759,-0.127304716116611
0.596873602191686,-0.108717518001599
0.59675940683971,-0.0900760096390349
0.596052386735376,-0.0713989538371771
0.594750195699456,-0.0527052448064443
0.592851091015489,-0.0340138890528461
0.590353938167753,-0.0153439860650392
0.58725821495997,0.00328529118538423
0.583564015007688,0.0218547159104679
0.579272050597942,0.0403450273191896
0.574383654910411,0.0587369505570841
0.568900783594971,0.0770112167515885
0.56282601570121,0.0951485831423139
0.556162553956126,0.113129853275257
0.548914224386928,0.130935897239833
0.541085475286537,0.148547671927455
0.532681375520066,0.165946241290321
0.52370761217128,0.183112796578916
0.514170487528697,0.200028676536748
0.504076915411738,0.216675387530745
0.493434416837988,0.233034623595731
0.482251115033382,0.249088286371436
0.470535729787808,0.264818504910473
0.458297571159326,0.280207655335811
0.44554653253093,0.295238380326329
0.432293083024447,0.309893608409128
0.418548259276907,0.324156573037406
0.40432365658539,0.338010831432859
0.389631419427052,0.351440283171709
0.374484231361746,0.364429188493676
0.3588953043253,0.376962186313408
0.342878367322236,0.389024311914128
0.326447654527337,0.400601014303505
0.309617892806183,0.411678173212053
0.292404288665391,0.422242115714642
0.274822514643975,0.432279632456042
0.256888695157835,0.441777993461773
0.238619391810075,0.450724963515881
0.220031588180387,0.459108817087666
0.201142674107415,0.466918352789782
0.181970429478552,0.474142907350575
0.162533007542216,0.480772369083946
0.142848917758237,0.486797190840524
0.122937008202491,0.492208402424395
0.102816447542499,0.496997622460152
0.0825067066011844,0.501157069695557
0.0620275395265187,0.504679573725619
0.0413989645852419,0.507558585124498
0.0206412445993357,0.509788184972165
-0.000225132955645274,0.51136309376338
-0.0211794761708356,0.512278679687126
-0.0422009092229521,0.512530966265283
-0.0632683931714895,0.512116639339929
-0.084360747013475,0.511033053399336
-0.105456668974731,0.509278237233361
-0.126534758016242,0.506850898909617
-0.147573535533917,0.503750430062503
-0.168551467229761,0.499976909487839
-0.189446985132195,0.49553110603659
-0.210238509743028,0.490414480801849
-0.230904472288367,0.484629188593992
-0.251423337050554,0.478178078699641
-0.271773623758057,0.4710646949208
-0.291933930010069,0.463293274891304
-0.311882953712477,0.454868748668422
-0.331599515501749,0.44579673659827
-0.351062581133207,0.436083546454394
-0.370251283810106,0.425736169849684
-0.389144946429943,0.414762277922525
-0.407723103724355,0.403170216298865
-0.425965524269064,0.390968999332657
-0.443852232340316,0.378168303627867
-0.461363529594374,0.364778460846066
-0.478480016546717,0.350810449804308
-0.495182613827688,0.336275887868855
-0.511452583191541,0.321187021650982
-0.527271548255969,0.30555671701191
-0.542621514949397,0.28939844838464
-0.557484891643577,0.272726287421218
-0.571844508949229,0.255554890974687
-0.585683639152779,0.237899488425733
-0.598986015272531,0.219775868364739
-0.611735849712906,0.201200364640689
-0.623917852495774,0.182189841789061
-0.635517249048231,0.162761679851549
-0.646519797526572,0.142933758601131
-0.656911805656644,0.122724441186688
-0.666680147071165,0.102152557212026
-0.675812277125096,0.0812373852647846
-0.684296248170576,0.0599986349114038
-0.692120724273487,0.0384564281748506
-0.699274995354194,0.016631280512504
-0.705748990735565,-0.00545591868789164
-0.711533292081933,-0.0277839260756801
-0.716619145713241,-0.0503311647491153
-0.720998474279209,-0.0730757450919322
-0.724663887778964,-0.0959954860145814
-0.727608693912245,-0.119067936579515
-0.729826907748893,-0.142270397989452
-0.731313260704046,-0.165579945917085
-0.732063208807114,-0.188973453154268
-0.732072940253318,-0.212427612558312
-0.731339382227281,-0.235918960272612
-0.729860206988889,-0.259423899198476
-0.727633837212367,-0.28291872269468
-0.72465945057027,-0.306379638480949
-0.720936983554856,-0.329782792721267
-0.716467134530054,-0.353104294262651
-0.711251366008053,-0.376320239004763
-0.70529190614529,-0.399406734375547
-0.698591749453454,-0.422339923887809
-0.69115465672188,-0.445096011751593
-0.682985154148554,-0.467651287516943
-0.674088531677755,-0.489982150721604
-0.664470840543172,-0.512065135518093
-0.654138890016169,-0.533876935254503
-0.643100243359698,-0.555394426983348
-0.631363212989176,-0.576594695872802
-0.618936854842511,-0.597455059494583
-0.605830961962229,-0.61795309196294
-0.592056057293568,-0.638066647899072
-0.577623385703153,-0.657773886195582
-0.562544905223751,-0.677053293555581
-0.546833277531425,-0.695883707781207
-0.530501857662174,-0.714244340786585
-0.51356468297605,-0.732114801310334
-0.496036461377459,-0.74947511730307
-0.477932558801251,-0.766305757965511
-0.45926898597491,-0.782587655413147
-0.440062384468014,-0.798302225943698
-0.420330012040887,-0.813431390883931
-0.400089727305117,-0.827957596992765
-0.379359973709423,-0.841863836397979
-0.358159762865024,-0.855133666044242
-0.336508657225498,-0.86775122663061
-0.314426752136736,-0.879701261016115
-0.291934657273393,-0.890969132072519
-0.269053477478856,-0.901540839963847
-0.245804793026504,-0.911403038832797
-0.222210639320598,-0.920543052874732
-0.198293486055907,-0.92894889178046
-0.174076215855662,-0.936609265529671
-0.14958210240816,-0.943513598517458
-0.12483478812287,-0.949652042997016
-0.0998582613274297,-0.955015491822264
-0.0746768330275767,-0.959595590474776
-0.0493151132524373,-0.963384748360156
-0.0237979870082637,-0.966376149359638
0.00184941013597692,-0.968563761623463
0.0276017168071228,-0.969942346593311
0.0534333709061453,-0.970507467241816
0.0793186349814225,-0.97025549551798
0.1052316218718,-0.96918361898808
0.1311463205939,-0.967289846662461
0.157036622447764,-0.964573013999432
0.18287634731466,-0.96103278707828
0.208639270120553,-0.956669665934294
0.234299147438515,-0.951484987049485
0.259829744203073,-0.945480924993594
0.285204860509378,-0.938660493210804
0.310398358469754,-0.931027543948456
0.335384189100225,-0.92258676732495
0.360136419209315,-0.913343689534898
0.384629258261459,-0.903304670190457
0.408837085187241,-0.89247689879869
0.43273447511261,-0.8808683903757
0.456296225979324,-0.868487980199129
0.479497385028749,-0.855345317701597
0.502313275121349,-0.841450859508438
0.524719520864127,-0.826815861624132
0.546692074518538,-0.811452370772558
0.568207241661398,-0.795373214897253
0.589241706571588,-0.778591992828607
0.60977255731548,-0.76112306312592
0.629777310504255,-0.742981532103046
0.649233935696578,-0.72418324104726
0.668120879420286,-0.70474475264185
