-0.754315886134068,0.437617473397423
-0.74525031471015,0.437427892428015
-0.736094589351318,0.437972556336397
-0.726882609739651,0.438975374367916
-0.717626989581579,0.440333616127663
-0.708335271502038,0.441985851865177
-0.699012707638359,0.443889306354552
-0.689663269799909,0.446011631804368
-0.68029012302251,0.448327051066424
-0.670895882546087,0.450814264720774
-0.661482767498743,0.453455199419382
-0.652052699460904,0.456234205145577
-0.642607369114946,0.459137512396384
-0.633148283227682,0.462152849540883
-0.623676798900236,0.4652691638774
-0.614194149237592,0.468476412571751
-0.60470146304045,0.471765402279982
-0.595199780214001,0.475127663653987
-0.585690064033226,0.47855535144859
-0.576173211052659,0.482041163813098
-0.566650059218596,0.485578276222562
-0.557121394587437,0.489160286761376
-0.54758795694759,0.492781170336445
-0.53805044456789,0.496435240004478
-0.528509518242052,0.500117114032546
-0.518965804759873,0.503821687627406
-0.509419899907183,0.507544108502855
-0.499872371075033,0.511279755629619
-0.490323759542276,0.515024220645206
-0.480774582483173,0.518773291503274
-0.47122533474192,0.522522938021254
-0.461676490408379,0.526269299047076
-0.452128504223253,0.530008671014917
-0.442581812836154,0.53373749769907
-0.433036835936136,0.537452361006493
-0.42349397727114,0.541149972674085
-0.413953625570246,0.544827166757543
-0.404416155380539,0.548480892815659
-0.394881927828648,0.55210820970806
-0.385351291315608,0.555706279936021
-0.375824582152475,0.559272364465798
-0.366302125143129,0.562803817982067
-0.356784234119853,0.566298084525995
-0.347271212436551,0.569752693478299
-0.337763353423864,0.573165255852631
-0.328260940809914,0.576533460868851
-0.318764249109981,0.579855072779439
-0.309273543987987,0.583127927925376
-0.299789082592384,0.586349932000577
-0.290311113868719,0.589519057506269
-0.280839878850904,0.592633341378785
-0.271375610933005,0.595690882775978
-0.261918536123189,0.598689841009058
-0.252468873281254,0.601628433607994
-0.243026834341083,0.604504934509834
-0.233592624519171,0.607317672360344
-0.224166442510308,0.610065028920327
-0.214748480671365,0.612745437568782
-0.205338925194065,0.615357381895825
-0.195937956267514,0.617899394378941
-0.186545748231228,0.62037005513672
-0.177162469719292,0.622767990754758
-0.167788283796255,0.625091873178875
-0.158423348085306,0.627340418671218
-0.149067814889222,0.629512386825206
-0.139721831304549,0.631606579635604
-0.130385539329432,0.633621840620337
-0.12105907596547,0.635557053990918
-0.111742573313958,0.637411143868634
-0.102436158666834,0.63918307354385
-0.093139954592625,0.64087184477602
-0.0838540790176739,0.642476497132151
-0.0745786453028953,0.643996107361685
-0.0653137623162929,0.645429788805883
-0.0560595345014565,0.64677669083997
-0.0468160619422346,0.648035998346411
-0.0375834404237685,0.649206931217834
-0.0283617614900559,0.650288743888205
-0.0191511124982024,0.651280724890995
-0.00995157666950455,0.652182196443137
-0.000763233137498293,0.652992514053697
0.00841384300690073,0.653711066156244
0.0175795806730542,0.654337273763995
0.0267339127309481,0.654870590146857
0.0358767759741316,0.6553105005296
0.0450081110851606,0.655656521810409
0.0541278626034606,0.655908202299153
0.0632359788955362,0.656065121474756
0.0723324121274552,0.656126889761107
0.0814171182395471,0.656093148320982
0.0904900569232548,0.655963568867531
0.0995511916000915,0.655737853492883
0.108600489402652,0.65541573451351
0.117637921157641,0.65499697433198
0.126663461370875,0.654481365314831
0.13567708821423,0.653868729686263
0.144678783514506,0.653158919437448
0.153668532744186,0.652351816251243
0.162646325014061,0.651447331442153
0.171612153067714,0.650445405911422
0.180566013277856,0.649346010117133
0.189507905644486,0.648149144059288
0.198437833794895,0.646854837279801
0.207355804985498,0.645463148877431
0.216261830105504,0.643974167537669
0.225155923682433,0.642388011577661
0.234038103889482,0.640704829006233
0.242908392554777,0.638924797599186
0.251766815172499,0.637048124989984
0.260613400915945,0.635075048776055
0.269448182652521,0.63300583664093
0.278271196960712,0.630840786492478
0.287082484149076,0.628580226617551
0.295882088277284,0.626224515853371
0.304670057179268,0.62377404377605
0.313446442488522,0.621229230906665
0.322211299665621,0.618590528935345
0.330964688028011,0.615858420963907
0.339706670782141,0.61303342176758
0.348437315058025,0.610116078076456
0.357156691946302,0.60710696887732
0.365864876537887,0.604006705736602
0.374561947966317,0.600815933145235
0.383247989452888,0.597535328886287
0.391923088354705,0.594165604426288
0.400587336215766,0.59070750533127
0.409240828821213,0.587161811708607
0.417883666254894,0.583529338675832
0.426515952960398,0.579810936857722
0.43513779780573,0.576007492913015
0.443749314151804,0.572119930092268
0.452350619924963,0.568149208828475
0.460941837693735,0.564096327362183
0.469523094750056,0.559962322403026
0.478094523195222,0.555748269829716
0.486656260030833,0.551455285430741
0.495208447255032,0.547084525688177
0.503751231964366,0.542637188607258
0.512284766461612,0.538114514594565
0.52080920836996,0.53351778738795
0.529324720753957,0.528848335041594
0.537831472247689,0.524107530969902
0.546329637190672,0.519296795054283
0.554819395772012,0.514417594817251
0.563300934183433,0.509471446668692
0.571774444781804,0.504459917229605
0.580240126261917,0.499384624739189
0.588698183840265,0.494247240551676
0.597148829450732,0.48904949073002
0.605592281953116,0.483793157744251
0.614028767355584,0.478480082283158
0.622458519052203,0.473112165188889
0.630881778076883,0.467691369525112
0.639298793375172,0.462219722790599
0.647709822095522,0.456699319291434
0.656115129901856,0.451132322686638
0.664514991309451,0.44552096872373
0.672909690046433,0.439867568182849
0.68129951944344,0.434174510050345
0.689684782854378,0.428444264945499
0.698065794111528,0.422679388827145
0.706442878018771,0.416882527010607
0.714816370887163,0.411056418529631
0.72318662111774,0.405203900882938
0.731553989837129,0.399327915210904
0.739918851592416,0.393431511954735
0.748281595112681,0.387517857058736
0.756642624145866,0.381590238786006
0.765002358381023,0.375652075229589
0.773361234467765,0.36970692261519
0.781719707146795,0.363758484508634
0.790078250507975,0.35781062206199
0.798437359395501,0.351867365457826
0.806797550983635,0.345932926742486
0.815159366551228,0.34001171427846
0.823523373489332,0.334108349095024
0.831890167583778,0.328227683478379
0.840260375624361,0.32237482222177
0.848634658404797,0.316555147058125
0.857013714193921,0.310774344930734
0.865398282780142,0.305038440932693
0.873789150219857,0.299353836979609
0.882187154459366,0.293727357596429
0.8905931920532,0.288166304633848
0.899008226276342,0.282678523337041
0.907433297033981,0.277272483054114
0.915869533126818,0.271957377129019
0.924318167659837,0.266743248395944
0.932780557734162,0.261641149556561
0.941258210116606,0.256663352241789
0.949752815489546,0.251823625954604
0.958266295433406,0.247137620711678
0.96680086907629,0.242623409861046
0.975359151658123,0.238302292822654
0.983944308214728,0.234200046744702
0.99256031055547,0.230349019418611
1.00121241081768,0.226791986070288
1.0099081516263,0.223590376450193
1.01866014668775,0.220846920953234
1.02750229568411,0.218837710334065
-0.754315886134068,0.437617473397423
-0.745473737137702,0.435608262778254
-0.736721742076251,0.432864807281295
-0.728026001267635,0.429663197661199
-0.719373901005424,0.426106164312877
-0.710757898664682,0.422255136986786
-0.702172742108077,0.418152890908834
-0.693614459526244,0.413831773870442
-0.68507988588336,0.40931756301981
-0.6765664059395,0.404631557776883
-0.66807180056656,0.399791831489698
-0.659594148184116,0.394814034174927
-0.651131758109791,0.389711935335544
-0.642683123576771,0.384497806602469
-0.634246887483935,0.379182700677374
-0.625821816726296,0.373776660394447
-0.617406782503154,0.368288879097639
-0.60900074490932,0.362727826135059
-0.600602740669811,0.357101346751878
-0.592211873230096,0.351416742798794
-0.583827304643875,0.345680838800754
-0.575448248854751,0.339900036673363
-0.567073966074315,0.334080361509718
-0.558703758033732,0.328227500253109
-0.550336963939286,0.322346834636464
-0.541972957001182,0.316443469453028
-0.533611141433589,0.310522256989002
-0.525250949845455,0.304587818273662
-0.516891840957929,0.298644561669498
-0.508533297596749,0.292696699222854
-0.500174824917719,0.286748261116297
-0.491815948830977,0.280803108501899
-0.48345621459582,0.274864944945482
-0.475095185562635,0.268937326672752
-0.46673244204237,0.263023671776753
-0.458367580287083,0.257127268520584
-0.450000211567694,0.25125128284855
-0.441629961337117,0.245398765201857
-0.433256468468725,0.23957265672088
-0.424879384561482,0.233775794904342
-0.416498373304332,0.228010918785989
-0.408113109893394,0.222280673681143
-0.399723280496387,0.216587615548639
-0.391328581759405,0.210934215007758
-0.38292872035181,0.20532286104485
-0.374523412545476,0.199755864440054
-0.366112383825126,0.194235460940889
-0.357695368526837,0.188763814206375
-0.349272109502157,0.183343018542598
-0.340842357805538,0.17797510144833
-0.33240587240307,0.172662025987237
-0.323962419900686,0.167405693001468
-0.315511774290219,0.162207943179812
-0.30705371671187,0.157070558992299
-0.298588035231758,0.151995266501883
-0.290114524633387,0.146983737062796
-0.281632986221966,0.142037588914237
-0.273143227640626,0.137158388677205
-0.264645062697643,0.132347652761586
-0.256138311203911,0.127606848689893
-0.247622798819914,0.122937396343538
-0.239098356911566,0.118340669136923
-0.23056482241432,0.11381799512423
-0.222022037704986,0.109370658043311
-0.213469850480787,0.104999898300746
-0.204908113645176,0.100706913901772
-0.19633668520001,0.096492861328462
-0.187755428143689,0.0923588563693045
-0.179164210374917,0.0883059749030125
-0.170562904601758,0.0843352536392194
-0.161951388255684,0.0804476908184731
-0.153329543410352,0.0766442468737658
-0.144697256704848,0.0729258450556557
-0.136054419271167,0.0692933720228808
-0.12740092666572,0.0657476784002172
-0.118736678804659,0.0622895793051996
-0.110061579902842,0.0589198548452008
-0.101375538416271,0.055639250586253
-0.0926784669878409,0.0524484779948862
-0.0839702823962558,0.049348214854168
-0.0752509055079788,0.046339105655032
-0.0665202612320945,0.043421761963908
-0.0577782784779647,0.0405967627675811
-0.0490248901155753,0.0378646547961425
-0.0402600329384757,0.0352259528248229
-0.0314836476292214,0.0326811399554375
-0.0226956787272382,0.0302306678781173
-0.0138960745990305,0.0278749571139371
-0.00508478741066642,0.0256143972390098
0.00373822689752498,0.0234493470905581
0.0125730086341005,0.0213801349554332
0.0214195943775471,0.0194070587415043
0.0302780169952694,0.0175303861323017
0.0391483056605636,0.0157503547252547
0.0480304858676132,0.0140671721538272
0.0569245794445419,0.0124810161938185
0.0658306045645485,0.0109920348540571
0.0747485757551515,0.0096003464516865
0.0836785039055603,0.00830603967219934
0.09262039627219,0.00710917361435448
0.101574256482332,0.00600977782006629
0.110540084535985,0.00500785228933465
0.11951787680586,0.00410336748024531
0.12850762603554,0.00329626429403956
0.137509321335816,0.0025864540452244
0.146522948179171,0.00197381841665673
0.155548488392405,0.00145820939950775
0.164585920147394,0.00103944921797822
0.173635217949955,0.00071733023860443
0.182696352626791,0.000491614863956824
0.191769291310499,0.000362035410505335
0.200853997422591,0.000328293970380478
0.20995043065451,0.000390062256731327
0.219058546946585,0.00054698143233517
0.228178298464886,0.000798661921078969
0.237309633575914,0.00114468320188787
0.246452496819098,0.00158459358463098
0.255606828876992,0.00211790996749306
0.264772566543145,0.00274411757524357
0.273949642687544,0.00346266967779113
0.283137986219551,0.00427298728835068
0.292337522048248,0.00517445884049245
0.301548171040102,0.00616643984328269
0.310769849973815,0.00724825251365413
0.320002471492281,0.00841918538507658
0.329245944051503,0.00967849289151773
0.338500171866339,0.0110253949256048
0.347765054852941,0.0124590763698031
0.35704048856772,0.0139786865993369
0.366326364142671,0.0155833389554677
0.37562256821688,0.0172721101876375
0.384928982864004,0.0190440398628542
0.394245485515516,0.0208981297405696
0.403571948879478,0.0228333431111507
0.412908240854595,0.024848604095884
0.422254224439268,0.0269427969062823
0.431609757635352,0.0291147650602699
0.440974693346301,0.0313633105526127
0.450348879269338,0.0336871929767294
0.459732157781274,0.0360851285947676
0.46912436581756,0.0385557893525468
0.478525334744111,0.0410978018356631
0.487934890221412,0.043709746162706
0.497352852060354,0.0463901548111607
0.506779034069217,0.0491375113711437
0.516213243891129,0.0519502492216539
0.5256552828313,0.0548267501234938
0.535104945673235,0.0577653427224301
0.544562020483051,0.0607643009555099
0.55402628840095,0.0638218423527026
0.563497523418765,0.0669361262252186
0.57297549214243,0.0701052517309112
0.582459953538033,0.0733272558061115
0.591950658660027,0.0766001109520489
0.60144735035996,0.0799217228626368
0.61094976297391,0.0832899278788568
0.620457621986598,0.0867024902531884
0.629970643669899,0.0901570992054931
0.639488534693175,0.0936513657494207
0.649010991702521,0.0971828192656896
0.658537700865654,0.100748903795467
0.668068337378694,0.104346974023428
0.677602564930585,0.107974290915829
0.687140035120292,0.111628016973945
0.696680386821185,0.115305211057402
0.706223245486182,0.119002822724995
0.7157682223862,0.122717686032418
0.725314913773299,0.126446512716571
0.734862899958425,0.130185884684412
0.744411744291966,0.133932245710234
0.753960992033219,0.137681892228214
0.763510169092322,0.141430963086282
0.773058780625079,0.145175428101869
0.782606309457229,0.148911075228633
0.792152214309919,0.152633496104082
0.801695927792098,0.156338069698942
0.811236854117936,0.16001994372701
0.820774366497636,0.163674013395043
0.830307804137483,0.167294896970112
0.839836468768642,0.170876907508926
0.849359620602705,0.17441401991839
0.858876473583272,0.177899832282897
0.868386189764047,0.181327520077501
0.877887872590496,0.184689781451505
0.887380558787638,0.187978771159736
0.896863208450282,0.191186019854087
0.906334692777728,0.194302334190605
0.915793778664991,0.197317671335104
0.92523910901095,0.20022097858591
0.934669177048789,0.202999984312106
0.944082292096133,0.205640919010714
0.953476532572556,0.208128132665064
0.962849679349955,0.21044355192712
0.972199117188406,0.212565877376935
0.981521681052084,0.214469331866311
0.990813399131624,0.216121567603825
1.0000690192897,0.217479809363571
1.00928099890136,0.218482627395091
1.0184367242602,0.219027291303473
1.02750229568411,0.218837710334065
