0.951077637421964,-0.0627580988142015
0.799154640505328,-0.152263484108145
0.69107180103805,-0.00856792871071896
0.567355479022376,0.230874614212406
0.572702700540722,0.46686834274913
0.62880332529626,0.589348759063639
0.635641106797059,0.589944478028763
0.533982564211164,0.608646025766012
0.239898853045819,0.50775245269559
0.094466966939433,0.711265754763509
-0.176756365203474,0.778200281883112
-0.065510328981719,0.979602640165938
-0.131024593465351,0.986314160816554
-0.208733766120915,0.861389587805446
-0.365756869252399,0.689370392610361
-0.588307954410837,0.584603836446806
-0.787177908845866,0.587334906196949
-0.855242622054716,0.607115579993485
-0.830037713980008,0.573400814842656
-0.794970503431354,0.392290395248611
-0.784768180894455,0.17459111999723
-0.884268549088974,-0.0817926789074759
-1.00074922798366,-0.187883697964195
-1.13494020363083,-0.304241810512844
-0.942136994116262,-0.214937660730307
-0.754632896391681,-0.304056296171351
-0.580507137515189,-0.49273396570654
-0.499020166341561,-0.707684865130146
-0.610434506992041,-0.949828502322984
-0.496235007244051,-0.844622991694059
-0.394164435283576,-0.756311797585732
-0.177444060678943,-0.679654802697492
0.0790659420107302,-0.690684825620785
0.268221480333284,-0.776242409552822
0.437550077331889,-0.74144191644366
0.326736381781789,-0.803506253169397
0.338461366214718,-0.634679048612938
0.44492570646579,-0.413038859227538
0.62941873822155,-0.244707644324883
0.797571488698468,-0.181404306099832
