0.233539326631359,0.734879093970003
0.223557919022693,0.716756712929082
0.215144693447325,0.697508861616664
0.207665375949432,0.677590752798938
0.20087560877918,0.657177759855529
0.1946255679694,0.636377410112619
0.188808748014547,0.615266141622484
0.183343200592108,0.593902767965965
0.17816267074568,0.572334839734886
0.173211750700453,0.550602122595499
0.168442960453041,0.528738692523148
0.163814862100987,0.506774289131179
0.159290775898492,0.484735237146307
0.154837869075793,0.462645100354822
0.150426487248186,0.440525161444382
0.14602965015133,0.418394783910287
0.141622662451218,0.396271691373699
0.13718280743241,0.374172187418864
0.132689101827916,0.352111331549522
0.128122096704028,0.330103082092091
0.123463713674353,0.308160413743389
0.118697108655365,0.28629541535207
0.113806557402856,0.264519372068085
0.10877735849695,0.242842834969478
0.103595750468808,0.221275680539808
0.0982488405109614,0.199827161832109
0.0927245427684614,0.178505952756784
0.0870115246254384,0.157320186631259
0.0810991597195487,0.136277489901099
0.0749774866616481,0.115385011766528
0.0686371726287129,0.0946494503114664
0.0620694811480094,0.0740770756245471
0.0552662435095589,0.053673750316131
0.0482198333392949,0.0334449477669287
0.0409231439422671,0.0133957683885794
0.033369568087887,-0.00646904586839957
0.0255529799605412,-0.0261450985607284
0.017467719041285,-0.0456283271844004
0.0091085757215692,-0.0649149928497818
0.000470778479449485,-0.0840016710780914
-0.00845001752640434,-0.102885243615423
-0.0176577405684766,-0.121562891175618
-0.0271559112734822,-0.140032087036255
-0.036947650446734,-0.15829059142317
-0.0470356858742821,-0.176336446628623
-0.0574223581674699,-0.194167972816707
-0.068109625704089,-0.211783764477134
-0.0790990687109501,-0.229182687495202
-0.0903918925242206,-0.246363876811884
-0.101988930056116,-0.263326734653507
-0.113890643489308,-0.280070929315683
-0.126097125213601,-0.296596394491073
-0.138608098012872,-0.312903329135221
-0.151422914503856,-0.328992197869324
-0.164540555822012,-0.344863731923388
-0.177959629543206,-0.360518930627803
-0.191678366823311,-0.375959063466239
-0.205694618730795,-0.391185672707706
-0.209406795908651,-0.408289837127751
-0.234609142344016,-0.421005873440963
-0.2495011707396,-0.435603945700816
-0.291427851425738,-0.463876976316446
-0.258584067932875,-0.446936787839248
-0.330621994636113,-0.439740924132569
-0.299626051118025,-0.49632467962768
-0.341267064047001,-0.512374366498283
-0.358575351705603,-0.5168357719319
-0.361464048055,-0.532250824706922
-0.378495967025722,-0.545313116569197
-0.39576731165636,-0.558203574768832
-0.36413687307919,-0.548014472687009
-0.469178418724086,-0.551615017907357
-0.472564797343869,-0.610394399030865
-0.504289498731844,-0.614852621394802
-0.43710098299034,-0.583736119845941
-0.476317766236208,-0.630876170709962
-0.506169883703215,-0.686995578211954
-0.541485994596347,-0.655910161209429
-0.561804940963751,-0.664331884397974
-0.567181178444045,-0.641771451603941
-0.577003282616773,-0.676324448160651
-0.659384592591542,-0.673000762276536
-0.644058338277338,-0.670381366149889
-0.700134707668619,-0.755789842228398
-0.676658034486566,-0.735900031048468
-0.696214901524546,-0.747150190182253
-0.715769836322524,-0.75840173606747
-0.750102050104103,-0.720121613004541
-0.768633860581912,-0.734210119196195
-0.754913176646899,-0.761356316023263
-0.836444381508504,-0.849130586907948
-0.812516043553177,-0.815397586922164
-0.802223703225106,-0.846947256933588
-0.889431021019351,-0.877893810099667
-0.868376576909461,-0.851164824913155
-0.889902957324835,-0.888452113374118
-0.890690501185859,-0.913363384011255
-0.912249581614959,-0.866704736394085
-0.936656059349282,-0.903305042149068
-0.951562637942504,-0.91789267186173
0.210861418052342,0.69462764820276
0.249225034940375,0.705323238919099
0.204022314696991,0.705491293736164
0.225637146023821,0.670427406193493
0.156787043793844,0.683451613955573
0.152673972497312,0.666485696359441
0.137805770410202,0.658198381079545
0.118629948072645,0.685929968625621
0.0972694020434267,0.630391217856406
0.0782644995294521,0.618744918702205
0.0590774672176627,0.607229332480967
0.039749743010515,0.595814719579346
0.0203180066538087,0.584474755270629
0.000815090917306027,0.573185875768525
-0.0187293498142888,0.561926798385376
-0.0382883352766344,0.550678159625882
-0.0578371701357234,0.53942223586888
-0.0773531376761175,0.528142723530126
-0.0968152546308251,0.516824563105879
-0.116204072066138,0.505453796269721
-0.135501511595665,0.494017448324834
-0.154690729135878,0.482503430422563
-0.173756000442571,0.470900457412959
-0.192682624095867,0.459197978217978
-0.211456838626926,0.447386116354059
-0.230065751228281,0.435455618768168
-0.248497276044983,0.423397811549904
-0.266740080461161,0.411204561381839
-0.284783538114473,0.398868241818411
-0.302617687615774,0.386381703659393
-0.32023319614204,0.373738248820865
-0.337621327220538,0.360931607214195
-0.354773912141289,0.347955916229022
-0.371683324530227,0.334805702484635
-0.3883424576924,0.321475865569395
-0.404744704397222,0.307961663532785
-0.420883938829078,0.294258699931525
-0.436754500469023,0.280362912261608
-0.452351179708509,0.2662705616334
-0.46766920502559,0.25197822356812
-0.482704231578938,0.237482779811862
-0.497452331096067,0.222781411078468
-0.511909982950263,0.207871590645516
-0.526074066336213,0.192751078738842
-0.539941853467867,0.177417917650705
-0.55351100373388,0.161870427545201
-0.566779558756463,0.146107202912039
-0.579745938308803,0.130127109636517
-0.592408937054734,0.113929282659611
-0.604767722082041,0.0975131242076437
-0.61682183120805,0.080878302576231
-0.628571172042958,0.0640247514580322
-0.640016021802888,0.0469526698085905
-0.651157027871106,0.0296625222491055
-0.661995209112152,0.0121550400095797
-0.67253195795016,-0.0055687775795942
-0.682769043229256,-0.0235076610347479
-0.692708613880973,-0.0416600680868695
-0.702353203431057,-0.0600241804471078
-0.711705735386155,-0.0785978999407913
-0.720769529549773,-0.0973788439745276
-0.729548309326736,-0.116364340293851
-0.738046210086554,-0.135551420980915
-0.746267788668675,-0.154936815632652
-0.754218034127113,-0.174516943649454
-0.761902379828648,-0.194287905552398
-0.671427482850267,-0.11933890877289
-0.885660711425964,-0.344619082389879
-0.689148548949901,-0.347802729365646
-0.698853732591227,-0.17144150126197
-0.796558738479629,-0.295845087460698
-0.698758215651265,-0.225160724758171
-0.69495668452963,-0.453698879300861
-0.814615822995635,-0.358743523824287
-0.820233109532146,-0.379997995670757
-0.916036360691672,-0.303403782943547
-0.716534277604574,-0.3075268024138
-0.945351057704608,-0.333658316095589
-0.951075597191181,-0.585332982347354
-0.845818465769482,-0.488065355181179
-0.750263278758508,-0.410648036845332
-0.959454725910195,-0.441517319585585
-0.76211141566218,-0.451928718950231
-0.864131711967764,-0.576065894927056
-0.753262287898648,-0.696691973479677
-0.872951362744866,-0.620308006832819
-0.991731245600975,-0.75258844887394
-0.982775550258014,-0.767581394204986
-0.778794077765404,-0.791952443497425
-0.986325483827197,-0.605315585052526
-0.782385115851066,-0.61390858157809
-0.900385156071443,-0.752334707854443
-1.02204983868083,-0.683519560571298
-0.910760023658601,-0.795460654513901
-0.825783202224413,-0.92739690077919
-1.01482610969546,-0.72197028650802
-1.04658738209035,-0.740975180946999
-0.936030358023356,-0.878468154076123
-0.943935898189749,-0.898080366682664
-0.952985142155729,-0.91687175326359
