1.03085313246652,-0.201510567105754
1.03078103772111,-0.201451199321761
1.03057195165044,-0.201263809305566
1.03023667494533,-0.200934519412594
1.02978599156511,-0.200449549395414
1.0292306421858,-0.199795250752203
1.02858129781943,-0.1989581408347
1.02784853366398,-0.197924936638643
1.02704280324296,-0.196682588200368
1.02617441289271,-0.195218311524129
1.02525349665512,-0.193519620965697
1.02428999163212,-0.191574360999046
1.02329361385758,-0.189370737294258
1.02227383474081,-0.18689734703633
1.02123985813486,-0.184143208416223
1.02020059808101,-0.18109778922736
1.01916465727984,-0.177751034502741
1.01814030633696,-0.174093393129972
1.01713546383043,-0.170115843383802
1.01615767724448,-0.165809917318131
1.0152141048126,-0.161167723962014
1.01431149831066,-0.156181971266831
1.01345618683894,-0.150845986754576
1.01265406162937,-0.145153736820106
1.01191056191235,-0.139099844643181
1.01123066187468,-0.132679606669229
1.0106188587382,-0.125889007620943
1.0100791619857,-0.118724734006099
1.0096150837585,-0.111184186090317
1.0092296304472,-0.103265488306934
1.00892529549452,-0.0949674980795836
1.00870405342642,-0.0862898130366843
1.00856735512496,-0.0772327766005502
1.00851612435341,-0.067797481937508
1.00855075554158,-0.0579857742590265
1.00867111283621,-0.0478002514675558
1.00887653041865,-0.0372442631444466
1.00916581408904,-0.0263219078810274
1.00953724411357,-0.0150380289576004
1.00998857932819,-0.00339820837880178
1.01051706248977,0.00859124072256362
1.01111942686261,0.0209232832974701
1.01179190402539,0.0335901731890533
1.01253023288121,0.0465834655145219
1.01332966985025,0.0598940305941871
1.01418500022234,0.0735120693977447
1.01509055064376,0.0874271304745678
1.01604020271026,0.101628128331453
1.01702740763579,0.116103363218038
1.0180452019638,0.130840542276975
1.01908622428602,0.145826802012886
1.02014273293082,0.161048732031195
1.02120662458166,0.176492399995109
1.02226945378356,0.192143377746269
1.02332245329378,0.207986768532044
1.02435655523091,0.22400723527992
1.02536241297482,0.240189029857137
1.02633042376813,0.256516023251521
1.02725075196838,0.272971736607381
1.02811335289853,0.289539373048454
1.02890799724216,0.306201850218116
1.02962429592836,0.322941833465477
1.03025172545033,0.339741769604516
1.03077965356063,0.356583921172175
1.03119736528525,0.373450401110152
1.03149408919776,0.390323207794251
1.03165902389454,0.407184260334309
1.03168136461118,0.424015434067162
1.03155032992014,0.440798596164633
1.03125518844953,0.457515641278312
1.03078528556255,0.474148527142751
1.03013006993754,0.490679310058852
1.02927911998856,0.507090180179435
1.02822217006686,0.523363496519436
1.02694913638398,0.539481821613783
1.02545014259803,0.555427955746784
1.02371554500508,0.571184970677812
1.02173595727888,0.586736242789179
1.01950227470279,0.60206548558338
1.01700569783901,0.617156781458344
1.01423775558159,0.631994612690907
1.01119032754077,0.646563891560502
1.00785566570798,0.660849989546969
1.00422641535217,0.674838765538431
1.00029563510007,0.688516592987401
0.996056816154478,0.701870385955613
0.991503900606998,0.714887623990541
0.986631298803209,0.727556375779169
0.981433905720715,0.739865321527291
0.97590711632249,0.751803774015468
0.970046839850288,0.763361698285681
0.96384951302524,0.7745297299158
0.95731211212516,0.785299191842105
0.950432163910591,0.795662109693333
0.943207755374179,0.80561122560303
0.935637542290566,0.815140010470381
0.927720756546661,0.824242674643134
0.919457212234866,0.832914176999733
0.910847310494569,0.841150232411361
0.901892043089999,0.848947317568176
0.892592994715362,0.856302675157655
0.882952344020983,0.863214316386655
0.872972863357038,0.869681021842448
0.862657917234307,0.875702340691701
0.852011459504222,0.881278588220065
0.841038029263358,0.886410841718718
0.829742745490309,0.891100934727886
0.818131300425757,0.895351449651026
0.806209951709297,0.899165708756954
0.793985513289383,0.902547763590817
0.781465345125447,0.905502382818305
0.768657341703974,0.908035038531019
0.75556991939292,0.910151891044292
0.742212002661466,0.911859772222144
0.728593009194608,0.913166167367288
0.714722833934563,0.914079195717329
0.700611832083334,0.91460758959135
0.686270801103117,0.914760672234112
0.671710961753432,0.914548334407957
0.65694393820603,0.913981009785302
0.641981737280664,0.913069649197257
0.626836726846781,0.911825693796434
0.611521613438033,0.910261047194446
0.596049419128271,0.908388046636827
0.580433457719319,0.906219433280262
0.564687310292368,0.903768321639001
0.548824800176241,0.901048168269143
0.532859967387062,0.898072739761197
0.516807042595075,0.894856080112818
0.500680420675375,0.891412477554998
0.484494633900262,0.887756430906197
0.468264324831707,0.883902615529922
0.452004218973123,0.879865848972139
0.435729097240113,0.875661056355588
0.419453768310326,0.871303235608616
0.403193040912794,0.866807422606462
0.386961696117245,0.862188656303143
0.370774459683921,0.85746194393205
0.354645974534274,0.852642226353233
0.338590773402633,0.847744343624974
0.322623251728564,0.842783000876747
0.306757640849084,0.837772734559971
0.291007981549224,0.832727879152082
0.275388098028656,0.827662534388456
0.259911572341151,0.822590533095468
0.2445917193626,0.817525409696662
0.229441562342141,0.812480369462453
0.21447380908964,0.80746825857211
0.199700828851374,0.802501535054947
0.185134629924198,0.797592240675657
0.170786838056868,0.792751973826605
0.156668675685422,0.787991863487626
0.142790942047675,0.78332254431147
0.129163994219907,0.778754132890513
0.115797729116803,0.774296205257698
0.102701566493534,0.769957775671868
0.0898844329866434,0.765747276734827
0.0773547472281064,0.76167254088441
0.0651204060645166,0.757740783304789
0.0531887719109239,0.75395858629206
0.041566661266294,0.750331885109874
0.0302603344150035,0.746865955366541
0.019275486336122,0.743565401941622
0.0086172388395635,0.740434149486541
-0.00170986605455148,0.737475434520226
-0.0117018714797368,0.7346917991372
-0.0213554098194076,0.732085086341931
-0.0306677055275948,0.729656437019617
-0.0396365766689883,0.72740628854987
-0.0482604351760186,0.725334375066127
-0.0565382858235498,0.723439729359898
-0.0644697239246055,0.721720686425265
-0.0720549317533896,0.7201748886354
-0.0792946737046952,0.718799292539167
-0.0861902902016036,0.717590177262277
-0.0927436903661526,0.716543154493843
-0.0989573434704072,0.715653180035637
-0.104834269188073,0.714914566887838
-0.110378026669449,0.714320999841622
-0.11559270246515,0.713865551545563
-0.12048289732655,0.71354070000949
-0.125053711913435,0.71333834750626
-0.12931073144174,0.713249840828715
-0.133260009306612,0.71326599285611
-0.136908049718323,0.713377105381299
-0.140261789390727,0.713572993147191
-0.143328578324064,0.713843009038229
-0.146116159725923,0.714176070370081
-0.148632649116078,0.714560686218247
-0.150886512662713,0.714984985723952
-0.152886544799277,0.715436747313516
-0.154641845172749,0.715903428765311
-0.156161794975638,0.716372198056527
-0.157456032715331,0.716829964920205
-0.158534429475695,0.717263413041399
-0.159407063726932,0.717659032819873
-0.160084195740672,0.718003154625489
-0.160576241668172,0.718281982471293
-0.160893747340203,0.71848162802838
-0.161047361847842,0.718588144905842
-0.161047810963798,0.718587563118481
-0.160905870464327,0.718465923664557
-0.160632339411899,0.718209313135556
-0.16023801345893,0.717803898279909
-0.15973365823278,0.717235960442653
-0.159129982862027,0.716491929803297
-0.158437613703713,0.715558419334612
-0.157667068330755,0.714422258405632
-0.156828729838163,0.713070525952989
-0.15593282152592,0.711490583145602
-0.154989382015575,0.709670105468889
-0.15400824085657,0.707597114155954
-0.152998994677233,0.705260006894634
-0.151970983934135,0.702647587740891
-0.15093327031213,0.699749096170823
-0.149894614825966,0.696554235205438
-0.148863456672728,0.693053198544427
-0.147847892882713,0.689236696647354
-0.146855658814499,0.685095981703022
-0.145894109538118,0.680622871430254
-0.144970202148183,0.675809771655911
-0.144090479046765,0.670649697618702
-0.143261052233616,0.665136293950159
-0.142487588639069,0.659263853287116
-0.141775296532594,0.653027333473043
-0.14112891303758,0.646422373308765
-0.140552692780408,0.639445306816286
-0.140050397699341,0.632093175982779
-0.139625288036149,0.624363741955163
-0.139280114530714,0.616255494659161
-0.139017111836162,0.607767660820211
-0.138837993169345,0.598900210367201
-0.138743946208674,0.589653861203557
-0.138735630248543,0.580030082333887
-0.138813174616735,0.570031095338022
-0.138976178358377,0.559659874187995
-0.139223711187141,0.548920143407168
-0.139554315701572,0.537816374574453
-0.139966010861551,0.526353781180194
-0.14045629671708,0.514538311844031
-0.141022160378772,0.502376641908646
-0.141660083216609,0.489876163426953
-0.142366049270806,0.477044973563876
-0.143135554855857,0.463891861437352
-0.143963619336184,0.450426293426729
-0.144844797049157,0.436658396980123
-0.145773190348693,0.422598942955615
-0.146742463740087,0.408259326534505
-0.147745859074308,0.393651546747955
-0.14877621176759,0.378788184661496
-0.149825968009843,0.363682380264836
-0.150887202923177,0.348347808117322
-0.151951639629708,0.332798651802141
-0.153010669185743,0.317049577245067
-0.15405537133751,0.301115704956026
-0.155076536051727,0.285012581254211
-0.156064685772573,0.268756148539705
-0.157010098354964,0.252362714676735
-0.157902830622524,0.235848921555631
-0.15873274249722,0.21923171290242
-0.159489521646343,0.202528301406661
-0.160162708591323,0.185756135239634
-0.160741722221843,0.168932864036398
-0.161215885657774,0.152076304416375
-0.161574452400671,0.135204405118206
-0.161806632715889,0.118335211825448
-0.161901620185863,0.101486831760409
-0.161848618374684,0.0846773981238903
-0.161636867543836,0.0679250344590202
-0.161255671358838,0.0512478190174742
-0.160694423526521,0.0346637492064063
-0.159942634302816,0.0181907061942524
-0.15898995681121,0.00184641975318428
-0.157826213112399,-0.0143515665845014
-0.156441419966256,-0.0303859299794784
-0.154825814227845,-0.0462396022722689
-0.152969877820058,-0.0618958034292039
-0.150864362226351,-0.0773380743740015
-0.148500312448123,-0.0925503091328383
-0.145869090372456,-0.107516786222326
-0.142962397497234,-0.122222199211481
-0.139772296962074,-0.136651686390608
-0.136291234835041,-0.150790859482016
-0.132512060606766,-0.164625831329598
-0.128428046845318,-0.178143242506587
-0.124032907967077,-0.1913302867832
-0.119320818080773,-0.204174735398417
-0.114286427863935,-0.216664960082814
-0.10892488043313,-0.228789954782114
-0.103231826171604,-0.240539356034048
-0.0972034364802465,-0.251903461954084
-0.0908364164201931,-0.262873249788696
-0.0841280162178435,-0.273440391998002
-0.0770760416055851,-0.283597270832911
-0.0696788629741102,-0.293336991375227
-0.0619354233148501,-0.302653393012605
-0.0538452449337292,-0.311541059323719
-0.0454084349201863,-0.31999532635254
-0.0366256893581627,-0.328012289254211
-0.0274982962685579,-0.335588807298622
-0.0180281372754734,-0.342722507221428
-0.00821768799139938,-0.349411784915962
0.00192998288064988,-0.355655805463137
0.0124112157271977,-0.361454501500172
0.0232217634828557,-0.366808569932631
0.0343567963608142,-0.371719466997972
0.0458109078458894,-0.376189401692465
0.0575781219379503,-0.380221327576957
0.069651901630748,-0.383818932980596
0.0820251586084361,-0.386986629625145
0.0946902641393589,-0.389729539696074
0.10763906114402,-0.392053481390028
0.120862877411525,-0.393964952971675
0.134352539936258,-0.395471115376243
0.14809839034403,-0.396579773397291
0.162090301374529,-0.397299355502378
0.176317694384564,-0.397638892322378
0.190769557834294,-0.397607993863088
0.205434466716467,-0.397216825490651
0.220300602886595,-0.396476082745006
0.235355776249969,-0.395396965038188
0.250587446759536,-0.393991148296781
0.265982747176834,-0.392270756610144
0.281528506546491,-0.390248332948249
0.297211274333213,-0.387936809015023
0.313017345168698,-0.385349474305008
0.328932784154557,-0.382499944432879
0.344943452666113,-0.379402128807016
0.361035034600774,-0.376070197719732
0.377193063013766,-0.372518548928052
0.393402947083075,-0.368761773800073
0.40964999934476,-0.36481462310286
0.425919463139191,-0.360691972508644
0.442196540208272,-0.356408787896665
0.458466418383409,-0.351980090528476
0.474714299303751,-0.347420922174755
0.490925426104184,-0.342746310271786
0.507085111012601,-0.337971233185676
0.523178762796224,-0.333110585662107
0.539191913997006,-0.328179144539006
0.555110247896722,-0.323191534798902
0.570919625152826,-0.318162196036957
0.586606110047031,-0.313105349419718
0.602155996289289,-0.308034965208527
0.61755583232095,-0.302964730920235
0.632792446061934,-0.297908020196431
0.647852969047986,-0.292877862450806
0.662724859905493,-0.287886913362489
0.677395927112733,-0.282947426281329
0.691854350998121,-0.278071224608992
0.706088704927589,-0.273269675217582
0.720087975635176,-0.268553662965157
0.733841582652686,-0.26393356636501
0.747339396796377,-0.259419234463051
0.760571757670674,-0.255019964974847
0.773529490151124,-0.250744483731093
0.786203919811078,-0.246600925477326
0.798586887258901,-0.242596816070658
0.810670761355001,-0.238739056113174
0.822448451280388,-0.2350339060584
0.833913417431087,-0.231486972823949
0.845059681115297,-0.228103197940093
0.855881833032898,-0.224886847260507
0.866375040519554,-0.221841502258002
0.876535053540486,-0.218970052924429
0.886358209421695,-0.21627469229041
0.895841436309267,-0.213756912576857
0.904982255350226,-0.21141750298663
0.913778781591189,-0.20925654914096
0.922229723594019,-0.207273434161623
0.930334381770415,-0.205466841396116
0.938092645440339,-0.203834758779423
0.945504988621903,-0.202374484822296
0.952572464563275,-0.2010826362123
0.959296699029846,-0.199955157010286
0.965679882362752,-0.198987329421353
0.971724760327535,-0.198173786115845
0.977434623774405,-0.19750852407244
0.982813297134243,-0.196984919911982
0.987865125777032,-0.196595746687355
0.992594962261938,-0.196333192091446
0.997008151510749,-0.196188878042035
1.00111051493873,-0.196153881599395
1.00490833357926,-0.196218757169363
1.00840833024097,-0.196373559941772
1.01161765073795,-0.196607870511365
1.01454384423612,-0.196910820625635
1.01719484276021,-0.19727112000154
1.01957893990831,-0.197677084150592
1.02170476882213,-0.198116663149601
1.0235812794631,-0.198577471292196
1.02521771524591,-0.199046817554271
1.02662358908237,-0.199511736804682
1.02780865888997,-0.19995902169083
1.02878290262053,-0.200375255127248
1.02955649286549,-0.200746843313953
1.03013977109531,-0.20106004921011
1.0305432215911,-0.201301026387559
1.03077744512755,-0.201455853187847
1.03085313246652,-0.201510567105754
