0.119282932365556,-0.941306859625781
0.0794479978466047,-0.917392546402795
0.105164028851637,-0.85559269594582
0.0743377416982077,-0.776873753994308
0.0218003500623348,-0.797155895909275
0.0345551621322072,-0.751838920536148
0.00535606234466052,-0.715701481520931
-0.00561000458715062,-0.680269490712974
-0.0232340922167028,-0.686484959255722
-0.0110549065309353,-0.618874945636038
-0.00823047087400713,-0.584994739419631
-0.0277085023048,-0.558216066945396
-0.0346718121195988,-0.529296938258395
-0.0458283204518524,-0.527130720996814
-0.0107606939778415,-0.495041985389216
0.0496709127834613,-0.351888330252712
-0.0738636739362351,-0.41985083783054
-0.0576592519396793,-0.39839232945244
-0.0625776140090055,-0.394525826575886
-0.0621202798717646,-0.352253964509163
0.0343888043018672,-0.255975320885119
-0.0408158570974493,-0.318683946551383
-0.0440678703747537,-0.288796877619528
-0.0401661727855409,-0.259602323125326
-0.0697513755247413,-0.241654932027532
-0.0816901491502977,-0.252071883064966
0.0189256453757284,-0.126428438867897
-0.169830794541433,-0.291866914038661
-0.0424564025107626,-0.216670492652956
-0.0496790678058489,-0.159278139329815
-0.0748366254397853,-0.143651228624783
-0.0679639929178531,-0.137012329742749
-0.0640168479719283,-0.162802531591794
-0.0470016242299719,-0.122740942117976
-0.0552986710441572,-0.0932364561531375
-0.0646336921696204,-0.0902778315409627
-0.0584318763559239,-0.0951984900122446
-0.0425186786566147,-0.051533775096019
-0.032353014324799,-0.0725689628214132
-0.038834760841207,-0.106312703769361
0.023482872012241,0.00247570906529257
0.0488632017344876,-0.000783806571445181
-0.0218781856016722,-0.0312945420662791
-0.00845215535453715,-0.0386274721282988
0.0094496159225819,-0.037364227374892
-0.0172914707276384,-0.0431699070408478
-0.01487156401812,-0.0489837684760726
-0.035890703963719,-0.0425603089772438
-0.132689973927685,-0.145934517140425
-0.0422767472952197,-0.0200842215428932
-0.0160355931519547,-0.0256602800454343
-0.107153280950727,-0.131833815554914
-0.00511397093053191,-0.0509477877595687
-0.0100213531105387,-0.0515436407960982
-0.0322488208838491,-0.047954013431535
-0.0104611472977446,-0.0291373529135834
-0.147832801938989,-0.141106099954263
-0.0176103934862537,-0.0162726237031497
-0.027962251802968,-0.0519886246939682
-0.0321292067685485,-0.0556967153473637
-0.0267726945381483,-0.0384812834838631
-0.0523486216442757,-0.0407030730770247
-0.04824640172736,-0.0686973660052713
-0.0548922015514367,-0.0735782316245138
-0.0638135027429098,-0.053392577565598
-0.0702127411566833,-0.0840150930949558
-0.0894039951017179,-0.0975299754933421
-0.0469083026695241,-0.060884506529129
-0.0985525923635236,-0.100976995229967
-0.132052367469459,-0.0971686866025238
-0.152529823091827,-0.118617061464012
-0.161934786509683,-0.0968767007784353
-0.2616325586431,-0.195449163127345
-0.161302555993799,-0.130946215749663
-0.176340403271668,-0.136941590785281
-0.186533645585965,-0.146188724923324
-0.2321513717068,-0.143179740299128
-0.231516440878469,-0.208181216705358
-0.152071084230372,-0.0516386335203794
-0.272827167106709,-0.171680319948388
-0.388711540223221,-0.286937584214884
-0.306937811313737,-0.175251161112995
-0.224695777008457,-0.0735248944319015
-0.359281617275291,-0.200979435533445
-0.373086104056317,-0.175306039305063
-0.412075712406511,-0.213967806117651
-0.460993762701335,-0.199349571147201
-0.457416286426363,-0.196966280025748
-0.486268269253554,-0.199002878375088
-0.513771873901442,-0.208081503673265
-0.57177661125609,-0.220242089566625
-0.579733131423273,-0.20160911270625
-0.606878704568174,-0.202606074052356
-0.648056223123843,-0.199997308468451
-0.565133336777034,-0.0832660477997895
-0.717064962996125,-0.197884342521346
-0.76014772374329,-0.191630376027122
-0.917101773488894,-0.286666268929923
-0.857164332903879,-0.194551307903015
-0.884620213754342,-0.174893278437802
