0.993259868641706,-0.245757530375549
0.996953469544189,-0.230522302434687
0.999213945502888,-0.214931723597846
1.00003772532815,-0.199048699964119
0.999430604059276,-0.182937535507639
0.997407737458692,-0.166663273291446
0.993993560317289,-0.150291033729226
0.989221629064634,-0.13388535621897
0.983134389826466,-0.117509550426691
0.975782873711439,-0.101225063394908
0.967226321733892,-0.0850908684904529
0.957531742383975,-0.0691628819909014
0.946773405435548,-0.0534934128405358
0.935032276130652,-0.0381306507876683
0.922395394392396,-0.0231181977483851
0.908955204191171,-0.00849464683063035
0.894808838618117,0.00570678699916215
0.88005736660092,0.0194585811128521
0.864805007527013,0.032739161306899
0.849158320315128,0.0455330973516825
0.833225373695552,0.0578312361469433
0.817114904620386,0.0696307712131037
0.800935471826259,0.0809352478465584
0.784794611612312,0.0917545038715895
0.768798002875656,0.102104546526824
0.753048648364903,0.112007366624619
0.737646078970717,0.121490691711916
0.722685587671666,0.130587680535615
0.708257499495952,0.139336561669082
0.69444648354693,0.147780219684001
0.681330912775646,0.155965732748573
0.66898227676994,0.163943865994521
0.657464652370825,0.171768525417224
0.646834236426681,0.179496177451711
0.637138944458933,0.187185239698788
0.628418078443779,0.194895448557022
0.620702066318432,0.202687209745272
0.614012275202321,0.210620937874632
0.608360899689246,0.218756391346475
0.603750925921156,0.227152008913632
0.600176171503705,0.23586425424395
0.597621400673675,0.244946974769519
0.596062513484504,0.254450780991113
0.595466807144117,0.26442245223687
0.595793307024544,0.274904374648385
0.596993164270823,0.285934016888196
0.599010116372567,0.297543448732527
0.601781006530255,0.309758907335122
0.60523635715436,0.322600415525287
0.609300992383215,0.336081456039739
0.613894704098885,0.350208705087572
0.618932955562783,0.364981828115151
0.624327616487428,0.380393340077694
0.629987723110187,0.396428531941826
0.635820256641163,0.413065464543626
0.64173093332223,0.430275030315058
0.647624999258673,0.448021082773698
0.653408023169462,0.466260633051844
0.658986680247002,0.484944112127086
0.66426952042166,0.504015696812669
0.669167714489519,0.523413696978025
0.673595771782029,0.543071000902979
0.677472223331503,0.56291557512848
0.68072026481422,0.582871014657188
0.683268353930167,0.602857138883502
0.685050757301827,0.622790628198965
0.68600804243998,0.6425856958294
0.686087510828095,0.662154789118181
0.68524356871392,0.681409314178923
0.68343803276254,0.700260377603247
0.6806403683144,0.718619538727424
0.676827858599212,0.736399565837312
0.671985703876953,0.753515189625352
0.666107050104639,0.76988384720716
0.659192947356742,0.785426410058638
0.651252238852287,0.800067889347112
0.642301382057312,0.813738112301062
0.63236420393201,0.826372363490893
0.621471592972136,0.837911985176242
0.609661131249022,0.848304931210957
0.596976670176914,0.857506269382286
0.583467854225597,0.865478627492673
0.569189597246258,0.872192578967123
0.554201516485109,0.877626964282219
0.538567329719,0.881769145060115
0.522354221256995,0.884615188247393
0.505632182808807,0.88616997839948
0.488473335423092,0.886447256711166
0.470951238843993,0.885469586067177
0.453140194721936,0.883268242028078
0.435114550143697,0.879883030310576
0.416948007917164,0.875362031961609
0.398712949958266,0.869761278057054
0.380479779982178,0.863144356372693
0.362316291499552,0.855581953071886
0.344287066863053,0.84715133302591
0.326452912802333,0.837935762924058
0.30887033752954,0.828023881836525
0.291591074095948,0.817509024359413
0.274661654236878,0.806488501893644
0.258123036460936,0.795062847984436
0.242010291625109,0.783335033971938
0.226352348694089,0.771409661473718
0.211171802815427,0.759392138433606
0.196484787256772,0.747387845627026
0.182300910153002,0.735501300608908
0.168623256404871,0.723835326125749
0.155448454462449,0.712490229987902
0.142766807121575,0.70156300331203
0.130562484865421,0.691146543897438
0.118813779701312,0.681328911294992
0.107493416880634,0.672192619865325
0.0965689213519256,0.663813975806182
0.0860030352891194,0.656262463759918
0.0757541825628659,0.649600188194433
0.065776975587336,0.643881374287915
0.0560227595817279,0.639151932543608
0.0464401889385296,0.635449090819942
0.0369758300925286,0.632801096888302
0.027574785038315,0.631226994030667
0.018181329451864,0.630736471567343
0.00873955923540885,0.631329791566711
-0.000805960774499674,0.632997792339647
-0.0105095522173921,0.635721968666926
-0.0204237889829593,0.639474628054045
-0.030598879499948,0.644219121660344
-0.0410820715401318,0.649910147913594
-0.0519170853312853,0.656494126203011
-0.063143580513182,0.663909637448285
-0.0747966621594923,0.672087927774871
-0.086906430728891,0.680953470991455
-0.0994975804039518,0.690424585068829
-0.112589049830156,0.700414097364642
-0.126193728783637,0.710830052929698
-0.140318223779456,0.721576459872087
-0.154962685087013,0.732554065448627
-0.170120697050498,0.743661156301504
-0.185779233025279,0.754794376063721
-0.20191867564116,0.765849553421758
-0.218512902495892,0.776722533648716
-0.235529436772765,0.787310006606844
-0.252929661670078,0.797510324264786
-0.270669096933265,0.807224300881598
-0.288697735197893,0.816355989175662
-0.306960435288997,0.824813426020454
-0.325397369084309,0.832509341488723
-0.343944518040936,0.839361825399471
-0.362534215011453,0.845294945905163
-0.381095726540621,0.850239315086481
-0.399555870442068,0.854132596994742
-0.417839663108714,0.85691995409366
-0.435870990714965,0.85855442859789
-0.453573298225207,0.858997255780844
-0.470870289934441,0.858218106923602
-0.487686635134612,0.85619526019489
-0.50394867242581,0.8529156983838
-0.519585106175576,0.848375133046319
-0.53452768867255,0.842577955268455
-0.548711881622192,0.835537113886883
-0.56207749079151,0.827273922637102
-0.574569267825487,0.817817798313545
-0.586137473528057,0.807205932620393
-0.596738397223129,0.795482900960994
-0.606334827183091,0.78270021195257
-0.61489646753054,0.768915801956804
-0.6224002974798,0.754193479381359
-0.628830869284188,0.73860232392846
-0.634180541788466,0.722216046340745
-0.638449647048921,0.705112314518252
-0.641646588070869,0.687372052151161
-0.643787866320076,0.669078716228194
-0.644898038285109,0.650317559938729
-0.645009600996526,0.631174887586424
-0.644162807040475,0.611737308172609
-0.642405410233092,0.592090994288736
-0.639792343742392,0.572320952879044
-0.636385333050693,0.552510314298092
-0.632252446737502,0.532739645894326
-0.627467588624975,0.513086296102175
-0.622109935360537,0.493623774723651
-0.616263324009183,0.474421174728968
-0.610015594686888,0.455542640507326
-0.603457893682357,0.437046887057674
-0.596683942883148,0.418986774128763
-0.589789281640799,0.401408938802654
-0.582870487474941,0.384353489470743
-0.576024382226104,0.367853763581197
-0.569347230419101,0.351936150946692
-0.562933936691913,0.336619983796863
-0.55687724917819,0.321917494146307
-0.551266975704239,0.307833838431981
-0.546189219573926,0.294367188758879
-0.541725641567937,0.28150888948556
-0.537952754578536,0.269243677286877
-0.534941257038972,0.257549962255466
-0.532755410990355,0.246400167051401
-0.531452470260739,0.235761120585826
-0.531082163814574,0.22559450223402
-0.531686238869133,0.21585733212071
-0.533298067872029,0.206502502609433
-0.535942322894889,0.197479345762172
-0.539634720427235,0.188734231218454
-0.54438183895677,0.180211188677575
-0.550181011102603,0.171852548955806
-0.557020291432076,0.163599597434294
-0.56487850044515,0.155393233614204
-0.573725344558575,0.147174630454334
-0.583521611270909,0.138885887183226
-0.594219438044627,0.130470669352575
-0.605762652808689,0.121874830030686
-0.61808718336957,0.113047006222629
-0.631121532426314,0.103939184845891
-0.644787314320813,0.0945072328843586
-0.658999849123225,0.0847113866868055
-0.673668809158846,0.0745166957654645
-0.68869891263123,0.0638934168821679
-0.703990658590836,0.0528173546800388
-0.719441097142486,0.041270145623439
-0.73494462848171,0.0292394825432575
-0.750393824102103,0.0167192776437661
-0.765680263325457,0.00370976240605321
-0.78069537817526,-0.00978247658377455
-0.79533129954329,-0.0237445262513028
-0.809481697589187,-0.0381572398595057
-0.823042609364028,-0.0529953932039562
-0.835913246760717,-0.0682279027420693
-0.847996778065322,-0.0838181036379167
-0.859201076612968,-0.0997240851394642
-0.869439430337388,-0.115899080163883
-0.878631206342264,-0.132291905453804
-0.88670246501216,-0.148847448187726
-0.893586518617535,-0.165507194485594
-0.899224429848413,-0.182209794850009
-0.903565446230339,-0.198891661228101
-0.906567366929904,-0.215487590072289
-0.90819683904031,-0.231931405522613
-0.908429581045233,-0.248156616631549
-0.907250531786141,-0.264097082406023
-0.904653923898831,-0.279687678352156
-0.900643281333579,-0.294864958176956
-0.895231341224317,-0.309567804328055
-0.888439901019916,-0.323738061137566
-0.880299592429297,-0.337321144478347
-0.87084958435619,-0.35026662203946
-0.860137217603322,-0.362528758580324
-0.848217574704554,-0.37406702082812
-0.835152988791781,-0.384846537037438
-0.821012495916612,-0.394838506631983
-0.805871235720449,-0.404020555791797
-0.789809805776464,-0.412377035331852
-0.772913575309488,-0.419899257734883
-0.755271964331618,-0.426585670748213
-0.736977694509569,-0.432441965526201
-0.718126018302208,-0.437481117891774
-0.698813933071249,-0.441723361896848
-0.679139386973588,-0.445196095476966
-0.659200483489251,-0.447933718614571
-0.639094691424245,-0.449977405042452
-0.618918067152849,-0.451374809128482
-0.598764495729936,-0.452179710179262
-0.57872495731201,-0.452451596978403
-0.558886825077595,-0.452255195929535
-0.539333200535747,-0.451659946699839
-0.52014229175851,-0.450739429752088
-0.501386839672356,-0.449570750607421
-0.483133597098692,-0.448233886093127
-0.465442864748379,-0.446810998195956
-0.448368087854324,-0.445385721458353
-0.431955516574207,-0.444042430119679
-0.416243932717359,-0.442865491414545
-0.401264444750773,-0.441938511593604
-0.387040352424729,-0.441343581327371
-0.373587081733905,-0.441160527189583
-0.360912190300837,-0.441466175893071
-0.349015442640717,-0.442333637868007
-0.337888954145405,-0.44383161663048
-0.327517402015747,-0.446023750189651
-0.317878300780156,-0.448967990486011
-0.308942339469299,-0.452716026543594
-0.300673776976567,-0.457312756658118
-0.293030891626625,-0.46279581453391
-0.285966480504222,-0.469195153828825
-0.279428403666697,-0.476532695071946
-0.273360167980042,-0.484822038388133
-0.267701544983309,-0.494068244900952
-0.262389216902526,-0.504267689096205
-0.257357444705501,-0.515407983817267
-0.252538751914974,-0.527467978936155
-0.247864617781,-0.540417834106164
-0.243266173355005,-0.554219165358643
-0.238674894008352,-0.568825264663753
-0.234023281997019,-0.584181390938434
-0.229245532790889,-0.600225130360011
-0.224278179059632,-0.616886823236415
-0.219060706435914,-0.634090054099141
-0.213536135458289,-0.651752201128192
-0.207651564428071,-0.669785040494098
-0.201358668293772,-0.688095400715478
-0.194614149099569,-0.706585861685703
-0.187380133997127,-0.725155492623173
-0.179624517318466,-0.743700622849876
-0.171321243737019,-0.76211563900558
-0.162450530099602,-0.780293802062786
-0.15299902408877,-0.798128077322634
-0.142959898467578,-0.815511970446028
-0.132332880261792,-0.832340362508459
-0.121124214842535,-0.848510337061986
-0.109346565479766,-0.863921992243748
-0.0970188495382434,-0.878479231086635
-0.0841660130773569,-0.892090523363619
-0.0708187461889679,-0.904669632530942
-0.0570131419580806,-0.916136301625167
-0.042790302454674,-0.926416892312268
-0.0281958956566601,-0.935444971680689
-0.0132796676592618,-0.94316184181108
0.00190508505909662,-0.949517007639517
0.0173020781736864,-0.954468579154057
0.0328526313894865,-0.957983604522135
0.048496283920154,-0.960038331333423
0.0641714276143731,-0.960618393754557
0.0798159516095237,-0.959718924022914
0.0953678922846568,-0.957344587351178
0.110766082234274,-0.953509539966899
0.125950791991852,-0.948237310666136
0.140864358297396,-0.941560606911661
0.155451792825898,-0.933521047148578
0.169661365472425,-0.924168821637842
0.183445156522891,-0.913562284715624
0.196759572325471,-0.901767481968481
0.20956581941331,-0.888857616365696
0.221830332411788,-0.874912457906287
0.233525151489554,-0.860017701814363
0.244628245578077,-0.844264280748821
0.255123778085266,-0.827747636877856
0.265002312360345,-0.810566960002212
0.274260954724736,-0.792824398190644
0.282903433462222,-0.774624247614219
0.29094011275581,-0.756072128430973
0.298387941163189,-0.737274153677796
0.305270334831872,-0.718336098171145
0.311616996263663,-0.699362574402171
0.317463670040245,-0.680456222335192
0.322851837512187,-0.661716919881842
0.327828353026961,-0.643241020628138
0.33244502482253,-0.625120625139632
0.336758144236626,-0.607442891863299
0.340827967373173,-0.590289393286508
0.344718153822071,-0.573735522606411
0.348495167442249,-0.557849955711382
0.352227644587161,-0.542694172783265
0.355985735472805,-0.528322043300081
0.359840424658408,-0.514779477657695
0.363862836826178,-0.502104148041225
0.368123534207257,-0.490325280567459
0.372691812104478,-0.479463520094006
0.377634999007714,-0.469530868454623
0.383017767784134,-0.460530696238907
0.388901464353324,-0.452457827593926
0.395343460126775,-0.445298696891038
0.402396534303555,-0.439031575478747
0.410108291870793,-0.433626866137359
0.418520622860823,-0.429047462268884
0.427669208069258,-0.425249168301018
0.437583076042624,-0.422181177262167
0.448284215704203,-0.419786600999738
0.459787248506083,-0.418003048070685
0.472099163478385,-0.416763243935309
0.485219117997842,-0.41599568773604
0.49913830652204,-0.415625339645456
0.513839898938004,-0.415574332524464
0.529299049559454,-0.41576270144472
0.545482977181748,-0.416109124500255
0.562351115972445,-0.416531668263122
0.579855336344592,-0.41694853122715
0.597940234334499,-0.417278778632513
0.616543487391788,-0.417443062171257
0.635596273892245,-0.417364318239159
0.655023753108782,-0.416968438620622
0.674745601827909,-0.416184907768725
0.694676603283333,-0.41494740116943
0.714727283599322,-0.413194339654297
0.734804590498645,-0.410869394946382
0.754812608637186,-0.407921942185473
0.774653305583129,-0.404307455677177
0.794227302166498,-0.399987844641126
0.813434660686799,-0.394931726291846
0.83217568428556,-0.389114634166567
0.850351720667682,-0.38251916021217
0.867865963292338,-0.375135029753221
0.884624243151265,-0.36695910907897
0.900535804309548,-0.357995346003921
0.91551405650147,-0.348254644368362
0.929477298250225,-0.337754674046738
0.942349404214273,-0.326519618617373
0.954060470752536,-0.314579863411676
0.964547414043224,-0.301971627199459
0.973754515483864,-0.288736541274516
0.981633909539611,-0.274921180176654
0.988146009689513,-0.260576548718675
0.993259868641706,-0.245757530375549
