-0.275599428629731,-0.705846616372277
-0.275535017498548,-0.705811600877008
-0.275337141621179,-0.705714524429787
-0.274998876388038,-0.705567329199108
-0.274513363159161,-0.705381916534247
-0.273873826456439,-0.705170117538926
-0.273073591031147,-0.704943663840294
-0.272106098768186,-0.704714158619139
-0.270964925388837,-0.704493047966678
-0.26964379691422,-0.704291592632519
-0.268136605852217,-0.704120840227507
-0.266437427071184,-0.703991597944138
-0.264540533324477,-0.703914405856076
-0.262440410390585,-0.703899510856984
-0.260131771794491,-0.703956841297449
-0.257609573076823,-0.70409598237723
-0.254869025578332,-0.704326152348331
-0.251905609708326,-0.704656179582604
-0.248715087666789,-0.705094480555642
-0.245293515591173,-0.705649038796658
-0.241637255100058,-0.706327384851879
-0.237742984207278,-0.707136577306731
-0.233607707581428,-0.708083184909689
-0.229228766127188,-0.709173269838206
-0.22460384586634,-0.710412372144584
-0.219730986097942,-0.711805495416999
-0.214608586818708,-0.713357093688151
-0.209235415386276,-0.715071059621245
-0.20361061240973,-0.716950714000122
-0.197733696853459,-0.718998796547446
-0.191604570342164,-0.72121745809187
-0.18522352065661,-0.723608254102097
-0.178591224411523,-0.726172139602656
-0.171708748908803,-0.72890946548317
-0.16457755316112,-0.731819976209701
-0.157199488082734,-0.734902808943684
-0.149576795846277,-0.738156494070759
-0.141712108406065,-0.741578957138668
-0.133608445190348,-0.745167522200234
-0.125269209966784,-0.74891891655427
-0.116698186887221,-0.752829276874155
-0.107899535719714,-0.756894156710687
-0.0988777862775142,-0.761108535352749
-0.0896378320565245,-0.765466828026275
-0.0801849230945074,-0.769962897409023
-0.0705246580670292,-0.774590066435676
-0.0606629756368381,-0.779341132364929
-0.0506061450750268,-0.78420838207738
-0.0403607561739451,-0.789183608570277
-0.0299337084734033,-0.794258128612496
-0.0193321998232347,-0.799422801520512
-0.00856371430675376,-0.804668049013627
0.00236399044892913,-0.809983876104271
0.0134428965484132,-0.815359892976887
0.0246647396607156,-0.82078533780669
0.0360210233793175,-0.826249100467462
0.0475030340785199,-0.831739747075567
0.0591018562339759,-0.837245545315478
0.0708083881742353,-0.842754490490344
0.0826133582291803,-0.848254332239508
0.0945073412403521,-0.853732601863381
0.106480775397362,-0.859176640194682
0.11852397936386,-0.864573625953863
0.130627169655889,-0.869910604525411
0.142780478234893,-0.875174517090762
0.154973970277182,-0.88035223005279
0.167197662081237,-0.885430564686124
0.179441539073981,-0.890396326947044
0.191695573876871,-0.895236337376354
0.203949744392574,-0.899937461028383
0.216194051872931,-0.904486637359193
0.228418538928948,-0.908870910007183
0.240613307443709,-0.913077456399448
0.252768536349291,-0.917093617117686
0.264874499229096,-0.920906924957912
0.27692158170738,-0.924505133618961
0.288900298588262,-0.927876245955528
0.300801310707018,-0.931008541732481
0.312615441457148,-0.933890604818274
0.32433369295739,-0.936511349756516
0.335947261823689,-0.938860047656137
0.347447554511989,-0.940926351342097
0.35882620219867,-0.942700319710203
0.370075075166514,-0.944172441231393
0.381186296665134,-0.945333656552702
0.392152256216026,-0.946175380144132
0.402965622333589,-0.946689520942782
0.413619354634815,-0.946868501947795
0.424106715311641,-0.946705278722011
0.434421279941459,-0.946193356758666
0.44455694761267,-0.945326807673951
0.454507950343758,-0.944100284188896
0.464268861775895,-0.942509033866708
0.473834605120721,-0.940548911574459
0.483200460346583,-0.938216390640859
0.492362070588254,-0.935508572684747
0.501315447766816,-0.932423196091876
0.510056977408213,-0.928958643120582
0.518583422650714,-0.925113945619975
0.526891927433364,-0.920888789347361
0.5349800188593,-0.916283516874734
0.542845608729656,-0.911299129077302
0.550486994245621,-0.905937285200168
0.55790285787807,-0.900200301502443
0.56509226640602,-0.894091148481241
0.572054669127044,-0.887613446681158
0.578789895244576,-0.880771461097965
0.585298150438906,-0.873570094188413
0.591580012630453,-0.8660148775011
0.5976364269457,-0.858111961946442
0.603468699897975,-0.849868106726827
0.609078492796953,-0.841290666950965
0.614467814402524,-0.832387579959434
0.619639012840301,-0.823167350391237
0.624594766797716,-0.813639034024005
0.629338076021216,-0.803812220423212
0.633872251136659,-0.793697014438412
0.638200902816472,-0.78330401658706
0.642327930318601,-0.772644302368964
0.64625750942368,-0.761729400556803
0.649994079798157,-0.750571270510384
0.65354233181241,-0.739182278564527
0.656907192844068,-0.727575173542495
0.66009381309791,-0.715763061448831
0.663107550974766,-0.703759379397306
0.665953958022854,-0.691577868831363
0.668638763505887,-0.67923254809601
0.671167858623155,-0.666737684421581
0.673547280417522,-0.654107765381048
0.675783195407985,-0.641357469883779
0.677881882984033,-0.628501638769627
0.679849718599564,-0.615555245068146
0.681693156804551,-0.602533363988453
0.683418714153012,-0.58945114270586
0.685032952026076,-0.576323770011847
0.686542459409131,-0.56316644589424
0.68795383566213,-0.549994351114614
0.68927367332213,-0.536822616849931
0.690508540977033,-0.523666294465301
0.691664966249366,-0.510540325484416
0.692749418928645,-0.497459511823799
0.693768294290528,-0.48443848635639
0.69472789664054,-0.471491683869273
0.695634423119636,-0.458633312479442
0.696493947808254,-0.445877325570499
0.697312406164859,-0.433237394311993
0.698095579834175,-0.420726880821829
0.69884908185951,-0.408358812030697
0.699578342332628,-0.396145854305956
0.70028859451364,-0.384100288890657
0.700984861452327,-0.372233988211612
0.701671943141167,-0.360558393108436
0.702354404229149,-0.349084491033465
0.703036562324155,-0.337822795270263
0.703722476910424,-0.326783325216164
0.70441593890615,-0.315975587771915
0.705120460884881,-0.305408559879031
0.705839267982862,-0.295090672242876
0.706575289512915,-0.285029794276882
0.707331151303872,-0.275233220300556
0.708109168782927,-0.265707657021143
0.708911340816615,-0.256459212325948
0.709739344324391,-0.247493385409397
0.710594529677081,-0.238815058255927
0.711477916890656,-0.230428488496793
0.712390192624053,-0.222337303655784
0.713331707987892,-0.214544496795772
0.714302477169163,-0.207052423574881
0.715302176875083,-0.199862800717909
0.716330146597507,-0.192976705905494
0.71738538969741,-0.186394579080356
0.718466575307117,-0.180116225166769
0.719572041046111,-0.174140818196281
0.72069979654444,-0.168466906829567
0.72184752776588,-0.163092421261172
0.723012602121264,-0.158014681490832
0.724192074360555,-0.153230406942009
0.725382693230534,-0.148735727405282
0.726580908883206,-0.144526195281264
0.727782881018368,-0.140596799094844
0.728984487742109,-0.136941978249699
0.730181335121404,-0.133555638989275
0.731368767413399,-0.130431171527735
0.732541877946443,-0.127561468311773
0.73369552062848,-0.124938943371676
0.734824322056975,-0.122555552717588
0.735922694203197,-0.120402815734601
0.736984847642384,-0.118471837528077
0.738004805300075,-0.116753332168502
0.738976416683746,-0.115237646783145
0.739893372567745,-0.113914786439939
0.740749220098553,-0.112774439767228
0.741537378286375,-0.111806005251384
0.742251153848255,-0.110998618152809
0.742883757367055,-0.110341177979439
0.743428319729939,-0.109822376455658
0.743877908809377,-0.109430725923411
0.74422554634909,-0.109154588111359
0.744464225016924,-0.108982203207106
0.744586925586219,-0.108901719166853
0.744586634206966,-0.108901221196316
0.744456359727802,-0.108968761336376
0.744189151029784,-0.109092388086702
0.743778114332825,-0.109260176000499
0.743216430435747,-0.109460255183631
0.742497371850996,-0.109680840631573
0.741614319795333,-0.109910261338021
0.740560780998081,-0.110136989109516
0.739330404288923,-0.110349667021088
0.73791699692772,-0.110537137448759
0.736314540639366,-0.110688469615676
0.734517207317361,-0.11079298658976
0.732519374360488,-0.110840291671974
0.730315639607804,-0.110820294115693
0.727900835838013,-0.110723234119172
0.725270044800277,-0.11053970703471
0.722418610744519,-0.110260686739909
0.719342153420413,-0.109877548118265
0.716036580515387,-0.109382088598368
0.712498099503243,-0.108766548703064
0.708723228876265,-0.108023631562176
0.70470880873508,-0.107146521344697
0.700452010711929,-0.106128900568795
0.695950347204506,-0.104964966250478
0.69120167989902,-0.103649444854384
0.686204227562744,-0.102177606012827
0.680956573087895,-0.100545274982016
0.67545766977038,-0.0987488438071724
0.669706846808615,-0.096785281171173
0.663703814009375,-0.0946521409043018
0.65744866568936,-0.0923475691356844
0.650941883762983,-0.0898703100700314
0.644184340008661,-0.0872197103763893
0.637177297507727,-0.0843957221787173
0.629922411251911,-0.0813989046412337
0.62242172791719,-0.0782304241446284
0.614677684803643,-0.074892053052396
0.606693107942817,-0.0713861670697012
0.59847120937594,-0.0677157412003464
0.590015583608171,-0.063884344310549
0.581330203245897,-0.0598961323113624
0.57241941382591,-0.0557558399746665
0.563287927847077,-0.0514687714007236
0.553940818016905,-0.0470407891583099
0.544383509727136,-0.0424783021214153
0.534621772774219,-0.0377882520294259
0.52466171234218,-0.0329780988005619
0.51450975926707,-0.0280558046311478
0.504172659603727,-0.0230298169160054
0.493657463517191,-0.0179090500279162
0.482971513522548,-0.0127028659966495
0.472122432098492,-0.00742105413053074
0.461118108701227,-0.00207380962589321
0.449966686206706,0.00332828878796748
0.438676546810445,0.0087743021185509
0.427256297415375,0.0142529552427808
0.415714754539312,0.0197526618487264
0.404060928774713,0.0252615501308124
0.392304008834367,0.030767489181223
0.380453345217579,0.0362581160186337
0.368518433532286,0.0417208631939709
0.356508897509257,0.0471429869115934
0.344434471745245,0.0525115956031271
0.332304984212561,0.0578136788901616
0.320130338573036,0.0630361368711314
0.307920496334788,0.0681658096669657
0.295685458890555,0.0731895071595061
0.283435249476617,0.0780940388562351
0.271179895091496,0.0828662438145751
0.258929408413732,0.0874930205588559
0.246693769757997,0.0919613569230662
0.234482909108767,0.0962583597526391
0.222306688270566,0.100371284398837
0.210174883173537,0.104287563939736
0.198097166372763,0.10799483806242
0.186083089779312,0.111480981541725
0.174142067660485,0.114734132251755
0.162283359946103,0.117742718647447
0.150516055877045,0.120495486654595
0.138849058031429,0.122981525908073
0.12729106676303,0.125190295279427
0.115850565085576,0.127111647636587
0.1045358040356,0.128735853780134
0.0933547885454317,0.130053625502399
0.0823152638568045,0.131056137717597
0.0714247025043134,0.131735049613277
0.0606902918967333,0.132082524775514
0.0501189225228373,0.132091250242581
0.0397171768069871,0.131754454444175
0.0294913186383131,0.13106592398578
0.0194472835958022,0.130020019240295
0.0095906698900606,0.128611688711703
-7.32699590683117e-05,0.126836482138297
-0.0095396366914994,0.124690562305768
-0.0188038911066529,0.12217071554332
-0.0278618600798033,0.119274360878925
-0.036709741782631,0.115999557832789
-0.0453441100973326,0.112345012831135
-0.0537619182154585,0.108310084225473
-0.0619605014144446,0.103894785905639
-0.0699375790066431,0.0990997894979784
-0.0776912554574935,0.093926425143242
-0.0852200206713228,0.088376680851874
-0.0925227494451174,0.0824532004375644
-0.0995987000924526,0.0761592800330856
-0.106447512241618,0.0694988631955916
-0.113069203813808,0.06247653461169
-0.119464167189065,0.0550975124157102
-0.125633164569475,0.0473676391376807
-0.131577322550898,0.0392933713005702
-0.137298125916261,0.0308817676893494
-0.142797410665184,0.022140476317389
-0.148077356296407,0.0130777201186048
-0.153140477361121,0.00370228139658346
-0.157989614306951,-0.00597651493529089
-0.162627923633898,-0.0159488192860276
-0.167058867385075,-0.0262042764522268
-0.171286201996546,-0.0367320457744762
-0.175313966531999,-0.0475208223406863
-0.179146470329342,-0.0585588591898055
-0.18278828008762,-0.0698339904671114
-0.186244206423883,-0.0813336554801698
-0.189519289930806,-0.093044923602552
-0.192618786766976,-0.10495451997051
-0.195548153812766,-0.117048851916059
-0.198313033425712,-0.129314036078269
-0.200919237830163,-0.141735926133078
-0.203372733176778,-0.154300141080537
-0.205679623308183,-0.166992094027209
-0.207846133267746,-0.179797021400285
-0.209878592588959,-0.192700012529086
-0.211783418403439,-0.205686039528753
-0.213567098405904,-0.218739987420295
-0.215236173714828,-0.231846684420629
-0.216797221667669,-0.24499093233588
-0.218256838589711,-0.258157536990968
-0.219621622575605,-0.271331338628461
-0.220898156322641,-0.284497242209716
-0.222092990054674,-0.297640247551581
-0.223212624575398,-0.310745479232284
-0.224263494489349,-0.323798216200669
-0.225251951628655,-0.336783921023579
-0.226184248723056,-0.349688268707045
-0.227066523350173,-0.362497175027839
-0.227904782202348,-0.375196824313092
-0.228704885705686,-0.387773696606893
-0.22947253302609,-0.400214594164136
-0.230213247496235,-0.412506667213446
-0.230932362496455,-0.424637438932568
-0.231635007821495,-0.436594829581447
-0.232326096563975,-0.448367179740035
-0.23301031254425,-0.459943272599916
-0.233692098315122,-0.471312355260917
-0.234375643768531,-0.48246415898612
-0.235064875370043,-0.493388918371
-0.235763446045483,-0.504077389384843
-0.236474725742636,-0.514520866245117
-0.237201792689381,-0.52471119708808
-0.237947425368069,-0.534640798401577
-0.238714095224355,-0.544302668188754
-0.239503960127,-0.55369039783427
-0.240318858593514,-0.562798182647422
-0.241160304794748,-0.571620831059622
-0.242029484349808,-0.580153772456615
-0.242927250920881,-0.588393063628903
-0.243854123615753,-0.596335393826907
-0.244810285204,-0.603978088410506
-0.245795581150967,-0.611319111085758
-0.246809519471853,-0.618357064724708
-0.247851271406329,-0.625091190767413
-0.248919672912295,-0.6315213672084
-0.250013226975544,-0.637648105173006
-0.251130106730227,-0.643472544092126
-0.252268159383228,-0.648996445487074
-0.253424910933726,-0.654222185379315
-0.25459757167743,-0.659152745342929
-0.255783042483214,-0.663791702220667
-0.256977921828127,-0.66814321652745
-0.258178513575055,-0.672212019568086
-0.259380835475641,-0.676003399298833
-0.260580628379404,-0.679523184965262
-0.261773366128454,-0.682777730551562
-0.262954266115612,-0.685773897079115
-0.264118300482257,-0.688519033794697
-0.265260207930804,-0.691020958291166
-0.266374506125285,-0.693287935605845
-0.267455504652211,-0.695328656344104
-0.268497318512611,-0.69715221387781
-0.269493882114946,-0.698768080670357
-0.270438963737454,-0.700186083781962
-0.271326180427441,-0.701416379610699
-0.272149013304003,-0.702469427926473
-0.272900823229791,-0.703355965256682
-0.273574866816555,-0.704086977683777
-0.274164312728467,-0.704673673116218
-0.274662258246523,-0.705127453095497
-0.275061746056747,-0.705459884202929
-0.275355781224377,-0.705682669130793
-0.275537348315811,-0.705807617483154
-0.275599428629731,-0.705846616372277
