-0.98116008570554,0.0353591051535437
-0.972872667953087,0.0331422583621064
-0.964287426692728,0.031675078231809
-0.955516349518166,0.0306756751091135
-0.946601105806341,0.0300391608913182
-0.937566612617386,0.0297028155822551
-0.928430220386035,0.0296229655224213
-0.91920504998382,0.0297665835004265
-0.909901557106017,0.0301073509552452
-0.900528381197254,0.0306235211025025
-0.891092853146821,0.0312966409888484
-0.881601320895311,0.0321107318909714
-0.872059369611653,0.033051735096807
-0.862471976899748,0.0341071212270498
-0.852843625942909,0.0352656054335366
-0.843178390303238,0.0365169339464415
-0.833479998973647,0.0378517203285226
-0.82375188728074,0.0392613173449
-0.813997237403254,0.0407377149720338
-0.804219011108925,0.0422734579941006
-0.794419976553201,0.0438615785465833
-0.784602730473249,0.0454955402506206
-0.774769716759949,0.0471691914644919
-0.764923242144273,0.0488767257986419
-0.755065489558138,0.0506126484843947
-0.745198529601528,0.052371747509487
-0.735324330452828,0.0541490686722538
-0.72544476648827,0.0559398938851847
-0.715561625822451,0.0577397221943202
-0.705676616940446,0.0595442530851945
-0.695791374559972,0.06134937172691
-0.685907464836803,0.0631511358693146
-0.676026390006771,0.0649457641583827
-0.666149592541791,0.0667296256748766
-0.656278458884576,0.0684992305335053
-0.646414322816376,0.0702512214058174
-0.636558468503642,0.0719823658512899
-0.626712133262599,0.0736895493584796
-0.616876510075004,0.0753697690124855
-0.607052749883612,0.0770201277169054
-0.597241963691936,0.0786378289084339
-0.587445224489538,0.0802201717106101
-0.577663569021309,0.0817645464802727
-0.567897999416814,0.0832684307062487
-0.558149484693771,0.0847293852248818
-0.548418962147989,0.0861450507213395
-0.538707338640639,0.0875131444893616
-0.529015491792441,0.0888314574253083
-0.519344271093264,0.0900978512351325
-0.509694498934677,0.0913102558352967
-0.50006697157216,0.0924666669307344
-0.490462460022976,0.0935651437547768
-0.480881710905057,0.0946038069575493
-0.471325447221714,0.0955808366307396
-0.461794369096487,0.0964944704578641
-0.452289154462033,0.0973430019802395
-0.442810459706552,0.0981247789698246
-0.433358920280937,0.0988382019009425
-0.423935151269507,0.0994817225136481
-0.414539747926946,0.100053842462175
-0.405173286183813,0.100553112042497
-0.395836323122776,0.100978128993566
-0.386529397427545,0.101327537367289
-0.377253029806295,0.1016000264627
-0.368007723391224,0.101794329820219
-0.358793964115748,0.101909224272193
-0.349612221070709,0.101943529046262
-0.340462946840867,0.101896104918369
-0.331346577822828,0.101765853412476
-0.322263534525483,0.10155171604432
-0.313214221853941,0.101252673606711
-0.304199029377855,0.100867745494108
-0.295218331584985,0.100395989064373
-0.286272488120764,0.0998364990357432
-0.277361844014571,0.0991884069172634
-0.26848672989338,0.0984508804709991
-0.259647462183391,0.0976231232045165
-0.250844343300182,0.0967043738922153
-0.242077661827938,0.0956939061242091
-0.233347692688194,0.0945910278815483
-0.224654697298575,0.0933950811366715
-0.215998923721906,0.0921054414780542
-0.207380606806098,0.0907215177581064
-0.19879996831514,0.0892427517634383
-0.190257217051532,0.0876686179066882
-0.18175254897044,0.0859986229391647
-0.17328614728586,0.0842323056836199
-0.164858182569038,0.0823692367865237
-0.156468812839358,0.0804090184892634
-0.148118183647934,0.0783512844177442
-0.139806428154079,0.0761956993899103
-0.131533667194815,0.0739419592407556
-0.12330000934761,0.0715897906644328
-0.115105550986441,0.0691389510731122
-0.10695037633134,0.0665892284722803
-0.0988345574915079,0.0639404413522066
-0.0907581545021054,0.0611924385953445
-0.0827212153547868,0.0583450993994656
-0.0747237760220533,0.0553983332163623
-0.0667658604754708,0.0523520797059896
-0.0588474806977946,0.0492063087059466
-0.0509686366890245,0.0459610202162332
-0.0431293164664056,0.0426162443992504
-0.0353294960583717,0.0391720415950433
-0.0275691394924217,0.0356285023518194
-0.0198481987769011,0.031985747471807
-0.0121666138766499,0.028243928072553
-0.00452431268246639,0.0244032256637874
0.00307878902568101,0.0204638522400242
0.0106427876217702,0.0164260503890928
0.0181677916832669,0.0122900934168407
0.0256539220471962,0.00805628548827386
0.0331013118728685,0.00372496178544807
0.0405101067113985,-0.000703511317541761
0.0478804645821719,-0.00522873606208296
0.0552125560564321,-0.00985028309464564
0.0625065643481763,-0.0145676912379815
0.0697626854125715,-0.0193804672433995
0.0769811280521158,-0.0242880855235378
0.0841621140307993,-0.0292899878650065
0.0913058781965325,-0.0343855831202157
0.0984126686121415,-0.039574246877641
0.105482746695249,-0.0448553211097209
0.112516387367393,-0.0502281137975056
0.119513879212756,-0.0556918985311093
0.126475524646919,-0.0612459140849311
0.133401640096078,-0.0668893639665374
0.140292556187209,-0.0726214159379937
0.147148617949692,-0.0784412015083441
0.153970185028959,-0.0843478153958281
0.160757631912769,-0.0903403149583048
0.167511348170776,-0.0964177195902347
0.17423173870809,-0.102579010084428
0.1809192240336,-0.108823127956621
0.187574240543914,-0.115148974730776
0.194197240823791,-0.121555411182836
0.200788693964072,-0.128041256540441
0.207349085898175,-0.134605287635938
0.213878919758296,-0.141246238009747
0.220378716252611,-0.147962796960903
0.226849014064831,-0.15475360854131
0.233290370277623,-0.161617270489923
0.239703360821545,-0.168552333102715
0.246088580951282,-0.175557298033919
0.252446645751154,-0.18263061702359
0.258778190672052,-0.189770690546051
0.265083872102178,-0.196975866373262
0.271364367974187,-0.204244438046538
0.277620378411621,-0.211574643249397
0.28385262641779,-0.218964662073525
0.290061858610625,-0.226412615169049
0.29624884600739,-0.233916561769299
0.302414384863567,-0.241474497579209
0.308559297570721,-0.249084352515242
0.314684433618723,-0.25674398828335
0.320790670628294,-0.264451195779894
0.326878915460604,-0.272203692298613
0.332950105411461,-0.279999118524676
0.339005209498584,-0.287835035294424
0.345045229851539,-0.295708920096686
0.351071203215216,-0.303618163288301
0.357084202579177,-0.311560063992807
0.363085338946934,-0.319531825646899
0.369075763261244,-0.327530551154175
0.375056668503862,-0.335553237599733
0.381029291991014,-0.343596770472131
0.386994917889152,-0.351657917330846
0.392954879979524,-0.359733320847426
0.398910564704844,-0.36781949113658
0.404863414537028,-0.375912797279071
0.410814931711907,-0.384009457920872
0.416766682385255,-0.392105530811833
0.422720301274787,-0.400196901121054
0.428677496865583,-0.408279268334071
0.434640057272234,-0.416348131496924
0.440609856870977,-0.424398772522102
0.446588863840195,-0.432426237207941
0.452579148779872,-0.440425313542177
0.458582894621924,-0.448390506756135
0.464602408097325,-0.456316010460258
0.470640133096953,-0.464195673012827
0.476698666357976,-0.47202295803498
0.482780776035843,-0.4797908976622
0.488889423898288,-0.487492036678663
0.49502779212405,-0.49511836506083
0.501199316039731,-0.502661235573821
0.507407724638245,-0.510111261780394
0.513657091481693,-0.517458189910723
0.519951899753387,-0.524690735116644
0.52629712705723,-0.531796368018853
0.532698358562149,-0.538761029905285
0.539161942208739,-0.545568742052629
0.545695208886288,-0.552201051507534
0.552306798039426,-0.558636211485625
0.559007165363427,-0.564847903425877
0.565809431729825,-0.5708031001169
0.572730947573353,-0.576458127899191
0.579796629954142,-0.581750266776581
0.587048148249136,-0.58657462864637
0.594597490052035,-0.590649323855019
-0.98116008570554,0.0353591051535437
-0.973610743902641,0.031284409944895
-0.966359225607647,0.0264600480751063
-0.959293543226857,0.0211679091977158
-0.95237202738333,0.0155128814154251
-0.945569761016932,0.00955768472440199
-0.93886939369293,0.00334599278414982
-0.932257804539793,-0.00308916719394148
-0.925724537862243,-0.00972147664884632
-0.919260954215654,-0.0165291887961896
-0.912859722710734,-0.0234938506826216
-0.906514495406892,-0.0305994835848306
-0.900219687135198,-0.0378320287907523
-0.89397032029175,-0.0451789569210812
-0.887761911693236,-0.0526289831276539
-0.881590387777554,-0.060171853640645
-0.875452019551793,-0.067798182022812
-0.869343371689348,-0.0754993210392755
-0.863261262011481,-0.0832672606664953
-0.857202728750458,-0.0910945456886483
-0.851165003750829,-0.0989742082412169
-0.845145490275429,-0.10689971194534
-0.839141744433377,-0.114864905159298
-0.8331514594937,-0.122863981493534
-0.827172452524482,-0.130891446179373
-0.821202652925739,-0.138942087204551
-0.815240092519087,-0.147010950367404
-0.809282896928292,-0.155093317580421
-0.803329278038759,-0.163184687889642
-0.797377527365412,-0.171280760780603
-0.791426010190533,-0.179377421422404
-0.785473160358349,-0.187470727564895
-0.779517475633029,-0.195556897854049
-0.773557513542656,-0.203632301370629
-0.767591887644519,-0.211693448229344
-0.761619264157367,-0.219736981101742
-0.755638358914749,-0.2277596675473
-0.749647934600439,-0.235758393054576
-0.743646798232681,-0.243730154708668
-0.73763379886872,-0.251672055413174
-0.731607825505043,-0.259581298604789
-0.725567805152089,-0.267455183407051
-0.719512701064966,-0.2752911001768
-0.713441511114108,-0.283086526402862
-0.707353266281799,-0.290839022921581
-0.701247029272228,-0.298546230418125
-0.695121893224226,-0.306205866186233
-0.688976980517071,-0.313815721122266
-0.682811441660895,-0.321373656932176
-0.67662445426413,-0.328877603532426
-0.670415222071294,-0.33632555662795
-0.664182974065126,-0.343715575452078
-0.657926963627692,-0.351045780654937
-0.651646467755683,-0.358314352328213
-0.645340786325557,-0.365519528155424
-0.639009241404659,-0.372659601677885
-0.632651176604787,-0.379732920667556
-0.62626595647505,-0.38673788559876
-0.619852965931127,-0.393672948211552
-0.613411609718336,-0.400536610160165
-0.606941311906116,-0.407327421740572
-0.600441515411801,-0.414043980691728
-0.593911681551679,-0.420684931065537
-0.587351289617577,-0.427248962161034
-0.580759836477295,-0.433734807518639
-0.574136836197419,-0.440141243970699
-0.567481819687105,-0.446467090744854
-0.560794334361595,-0.452711208617047
-0.554073943824281,-0.45887249911124
-0.547320227566274,-0.46494990374317
-0.540532780682463,-0.470942403305647
-0.533711213603197,-0.476849017193131
-0.526855151840714,-0.482668802763481
-0.519964235749582,-0.488400854734938
-0.513038120300424,-0.494044304616544
-0.506076474866261,-0.499598320170366
-0.499078983020898,-0.505062104903969
-0.492045342348754,-0.510434897591754
-0.484975264265646,-0.515715971823834
-0.477868473850037,-0.520904635581259
-0.470724709684304,-0.526000230836469
-0.463543723705621,-0.531002133177937
-0.456325281066076,-0.535909751458076
-0.449069160001681,-0.540722527463493
-0.441775151709937,-0.545439935606829
-0.434443060235677,-0.550061482639392
-0.427072702364903,-0.554586707383933
-0.419663907526373,-0.559015180486923
-0.412216517700701,-0.563346504189749
-0.404730387336772,-0.567580312118316
-0.397205383275275,-0.571716269090568
-0.389641384679186,-0.575754070941499
-0.382038282971038,-0.579693444365262
-0.374395981776855,-0.583534146774028
-0.366714396876604,-0.587275966173282
-0.358993456161083,-0.590918721053294
-0.351233099595133,-0.594462260296518
-0.343433279187099,-0.597906463100725
-0.33559395896448,-0.601251238917708
-0.32771511495571,-0.604496527407422
-0.319796735178034,-0.607642298407465
-0.311838819631452,-0.610688551917837
-0.303841380298718,-0.613635318100941
-0.295804441151399,-0.616482657296819
-0.287728038161997,-0.619230660053682
-0.279612219322165,-0.621879447173755
-0.271457044667064,-0.624429169774587
-0.263262586305895,-0.626880009365908
-0.255028928458689,-0.629232177942231
-0.246756167499426,-0.631485918091385
-0.23844441200557,-0.633641503119219
-0.230093782814147,-0.635699237190738
-0.221704413084467,-0.637659455487999
-0.213276448367644,-0.639522524385095
-0.204810046683065,-0.64128884164064
-0.196305378601973,-0.642958836608163
-0.187762627338365,-0.644532970464913
-0.179181988847407,-0.646011736459581
-0.170563671931599,-0.647395660179529
-0.16190789835493,-0.648685299838146
-0.153214902965311,-0.649881246583023
-0.144484933825567,-0.650984124825684
-0.135718252353323,-0.65199459259369
-0.126915133470114,-0.652913341905992
-0.118075865760124,-0.653741099172474
-0.109200751638934,-0.654478625618738
-0.100290107532741,-0.655126717737218
-0.0913442640685193,-0.655686207765848
-0.08236356627565,-0.656157964195583
-0.073348373799564,-0.656542892308186
-0.0642990611280216,-0.656841934745795
-0.0552160178306768,-0.657056072113951
-0.0460996488126378,-0.657186323619844
-0.036950374582796,-0.657233747747737
-0.0277686315377572,-0.657199442973668
-0.018554872262281,-0.657084548521694
-0.00930956584721007,-0.656890245164175
-3.3198225959985e-05,-0.656617756068764
0.0092737274692711,-0.656268347695041
0.0186106905303081,-0.655843330743971
0.0279771522734411,-0.65534406116365
0.037372555616002,-0.654771941215123
0.0467963246274324,-0.654128420602418
0.0562478640530475,-0.6534149976713
0.0657265588085278,-0.652633220681714
0.0752317734429821,-0.651784689159339
0.0847628515682094,-0.650871055332215
0.0943191152515526,-0.649894025659024
0.103899864369471,-0.648855362456252
0.113504375918655,-0.647756885632209
0.123131903281172,-0.646600474536772
0.132781675439759,-0.645388069936607
0.142452896138936,-0.644121676126783
0.152144742987134,-0.642803363190837
0.161856366494484,-0.641435269422814
0.171586889040266,-0.640019603926357
0.181335403763309,-0.638558649407724
0.191100973367804,-0.637054765181748
0.200882628836034,-0.635510390412085
0.210679368038432,-0.633928047609909
0.220490154230107,-0.63231034641838
0.230313914421499,-0.63065998771396
0.240149537609094,-0.628979768059954
0.249995872850137,-0.627272584552765
0.259851727162871,-0.625541440107292
0.269715863231071,-0.62378944923498
0.279586996888286,-0.622019844376352
0.289463794353266,-0.620235982859858
0.299344869183299,-0.61844135457079
0.309228778906467,-0.616639590428385
0.319114021286941,-0.61483447178667
0.328999030168946,-0.613029940895795
0.338882170834766,-0.61123011258666
0.348761734799323,-0.609439287373729
0.358635933948023,-0.607661966210962
0.368502893904633,-0.60590286718587
0.378360646490768,-0.604166944500117
0.388207121106444,-0.602459410165967
0.398040134819744,-0.600785758952096
0.407857380899696,-0.599151797248058
0.41765641545542,-0.597563676695576
0.42743464174975,-0.596027933673509
0.437189291627235,-0.594551536046375
0.446917403320142,-0.593141939029998
0.456615794649733,-0.591807152647917
0.466281030289405,-0.590555824135012
0.475909381246243,-0.589397339928525
0.485496773958148,-0.588341953798282
0.495038725241806,-0.587400950592446
0.504530257493316,-0.586586859690323
0.513965785543749,-0.585913739803978
0.523338961452512,-0.58539756965672
0.532642454330315,-0.585056802201902
0.541867624732531,-0.584913184223896
0.551004016963881,-0.58499303428373
0.560038510152836,-0.585329379592793
0.568953753864661,-0.585965893810589
0.577724831039224,-0.586965296933284
0.586310072299582,-0.588432477063581
0.594597490052035,-0.590649323855019
