0.465016491356748,-0.409779077634437
0.464579974126655,-0.409453295097767
0.463299259969447,-0.40844044302286
0.461220819706029,-0.406690048605153
0.458395168693537,-0.404155609278447
0.454876544486168,-0.400794895077751
0.450722561657406,-0.396570224673178
0.4459938459247,-0.391448713360959
0.440753649845872,-0.385402491471353
0.435067452470627,-0.378408891836522
0.429002545429933,-0.370450605153092
0.422627608029983,-0.36151580227304
0.416012273985552,-0.351598222661443
0.409226692479282,-0.340697228469205
0.402341086268544,-0.328817823881937
0.395425309579755,-0.315970639621272
0.388548408531284,-0.302171882690818
0.381778186810348,-0.287443251674238
0.375180779296693,-0.271811818106429
0.368820236276544,-0.25530987464889
0.362758120824629,-0.237974751006118
0.357053121850433,-0.219848598719661
0.351760685207699,-0.200978146169323
0.346932665154225,-0.181414425295576
0.342616998322834,-0.161212471732457
0.338857402224859,-0.140431000204938
0.335693100155377,-0.119132057198025
0.33315857420583,-0.0973806530456654
0.331283347915376,-0.0752443757150075
0.330091799908658,-0.0527929886750149
0.329603009675575,-0.0300980153369937
0.329830636449435,-0.00723231263781324
0.330782831934711,0.0157303635961504
0.332462187425806,0.0387157988153962
0.334865715645102,0.0616497627207999
0.337984867413324,0.0844584523036387
0.341805583049405,0.107068932211144
0.346308378181738,0.129409569713163
0.351468463439445,0.151410461578966
0.357255897282267,0.173003850223375
0.363635771022305,0.19412452654787
0.370568424891292,0.214710216984793
0.378009693814638,0.234701952350628
0.385911181369369,0.254044416227075
0.39422056022837,0.272686270715472
0.402881897229156,0.290580457550315
0.411836001052755,0.307684472710326
0.421020790358132,0.323960612829707
0.430371680090738,0.339376191886955
0.439821983571127,0.353903726832781
0.449303327871718,0.367521091011125
0.458746079907379,0.380211634426814
0.46807978059907,0.391964270118829
0.477233584419672,0.402773526108144
0.486136701597746,0.412639562602432
0.494718840238395,0.421568154355147
0.502910645620873,0.429570638292436
0.510644133950023,0.436663826736509
0.517853117872889,0.442869886767251
0.524473621122852,0.448216186473674
0.530444279720912,0.452735109051926
0.535706727246989,0.456463835905827
0.540205961792747,0.459444100097895
0.543890692320893,0.461721911682574
0.546713662283439,0.463347256627548
0.548631948492277,0.46437377119267
0.549607233388664,0.464858393788072
0.549606049023028,0.464860996472576
0.548599991231677,0.464443998379584
0.546565902681659,0.463671963469682
0.543486023647814,0.462611185106179
0.539348109585965,0.461329260031499
0.53414551477186,0.459894654387946
0.527877241485701,0.458376264475651
0.520547954435508,0.456842974973078
0.512167960327897,0.455363217361152
0.502753152710769,0.454004531290793
0.492324922427512,0.452833131615364
0.48091003423535,0.451913483774387
0.468540470350073,0.451307890163124
0.455253241884257,0.451076090054502
0.441090169344971,0.451274875555844
0.426097633548625,0.451957725983491
0.410326298493862,0.453174462924213
0.393830807907113,0.454970928124114
0.376669457338477,0.457388686204241
0.358903843837084,0.460464754048215
0.340598495373919,0.464231358541923
0.321820482305567,0.468715724169579
0.302639013283532,0.473939891785393
0.283125018110143,0.47992056968693
0.263350720122881,0.486669017915983
0.243389200753783,0.494190966506891
0.223313958959053,0.502486568191827
0.20319846824571,0.511550385859032
0.183115734036976,0.521371414844574
0.163137854115944,0.531933139922344
0.143335584867963,0.543213626641934
0.12377791600619,0.55518564645117
0.104531656412161,0.567816834830684
0.0856610336543234,0.581069881463314
0.0672273096626571,0.594902751262553
0.0492884149374027,0.609268934893018
0.031898603554991,0.624117727233125
0.015108131105397,0.639394532056939
-0.0010370424469989,0.655041191049672
-0.0164955231414319,0.670996335120474
-0.0312307249658859,0.687195755837921
-0.0452110818738004,0.703572794688883
-0.0584102285622723,0.720058747750967
-0.070807148895282,0.736583283273122
-0.0823862910559787,0.753074869579024
-0.0931376487182503,0.769461210643759
-0.103056807738382,0.785669686646787
-0.112144958081289,0.801627796773217
-0.120408870911247,0.817263601521481
-0.127860840992928,0.832506161778466
-0.134518594763522,0.847285971943124
-0.140405164649443,0.861535384416429
-0.145548730410341,0.875189022828954
-0.149982428497413,0.888184181447073
-0.153744130611287,0.900461208284378
-0.15687619283557,0.911963869545799
-0.15942517690451,0.922639693147514
-0.161441545335922,0.932440289185345
-0.162979332322457,0.941321645367066
-0.164095792424535,0.949244395579169
-0.164851029245824,0.956174059924987
-0.165307606396196,0.962081254747801
-0.165530143156847,0.966941871338482
-0.165584897357094,0.970737222221168
-0.165539338051582,0.973454154111337
-0.165461710649882,0.975085126847045
-0.165420597197204,0.975628257804896
-0.165484474535023,0.97508733152611
-0.165721273083565,0.973471774493528
-0.166197938984233,0.970796595216307
-0.166980002319264,0.967082289993906
-0.168131154088241,0.962354714943606
-0.169712834566836,0.956644925084727
-0.171783835602635,0.949988981476819
-0.174399919316537,0.94242772760694
-0.177613455576576,0.93400653641163
-0.181473080494679,0.924775029501082
-0.186023378066635,0.914786770325164
-0.191304586932117,0.904098933182368
-0.197352334075966,0.89277195012237
-0.204197397125005,0.88086913792978
-0.211865496717446,0.868456307500057
-0.220377120235631,0.855601358027542
-0.229747377998488,0.842373858519669
-0.239985892808953,0.82884461922982
-0.251096723544921,0.815085255663738
-0.263078323271348,0.801167747860319
-0.275923532137187,0.787163997676873
-0.289619605105322,0.773145386821177
-0.304148274347798,0.759182338368013
-0.319485845923837,0.7453438844762
-0.335603330145704,0.731697242983625
-0.352466604828706,0.71830740550275
-0.370036610417859,0.705236739567711
-0.388269575786199,0.692544607297005
-0.40711727330967,0.680287002933362
-0.426527301642065,0.66851621150538
-0.446443394441869,0.657280490724534
-0.466805753141996,0.646623778087169
-0.487551401704452,0.63658542499482
-0.508614561165655,0.627199959538741
-0.529927041655538,0.618496879416861
-0.551418649465236,0.610500476264591
-0.57301760664489,0.603229692486219
-0.594650980535443,0.596698011472185
-0.616245120576702,0.590913381880586
-0.637726099688842,0.585878176450149
-0.659020157496153,0.581589185597875
-0.680054142650375,0.578037645838967
-0.700755951516527,0.575209302850827
-0.721054960506633,0.573084508788193
-0.740882449386064,0.571638353244189
-0.760172012933148,0.570840827043544
-0.778859958404776,0.570657017850718
-0.796885686348703,0.571047336378518
-0.814192052406349,0.571967771793095
-0.830725707867674,0.573370174730261
-0.846437416871321,0.575202566166936
-0.861282348287874,0.577409470231253
-0.875220340480932,0.579932268886496
-0.888216137308687,0.582709576288434
-0.900239593906882,0.585677630493678
-0.91126585098119,0.588770700089118
-0.921275476532163,0.591921503219996
-0.93025457413763,0.5950616364173
-0.938194857124619,0.598122010564394
-0.94509368817415,0.601033291298512
-0.950954084116441,0.603726341115227
-0.95578468588964,0.606132660433404
-0.959599693851079,0.608184824884539
-0.962418768844613,0.609816916113737
-0.964266899639781,0.610964943419759
-0.965174237566842,0.611567253618257
-0.965175899374921,0.611564926585277
-0.964311739537385,0.610902154026787
-0.962626093417793,0.609526599123875
-0.960167492890292,0.607389734821734
-0.956988356178946,0.604447158662836
-0.953144653840164,0.60065888221
-0.948695552960188,0.595989593262471
-0.943703041774507,0.590408889236662
-0.938231537037329,0.58389148026187
-0.932347476576066,0.576417360728873
-0.926118899557532,0.567971948224773
-0.919615017068629,0.55854618898949
-0.912905775674267,0.548136629236737
-0.906061416658692,0.536745451893764
-0.899152033683116,0.52438047852843
-0.89224713160227,0.511055136447823
-0.885415189175277,0.496788391168442
-0.878723228382032,0.481604644672479
-0.872236393015309,0.465533600076726
-0.866017539161257,0.448610093548716
-0.860126840107236,0.430873894507635
-0.854621408126467,0.412369475344019
-0.849554935484372,0.393145752081125
-0.844977356892262,0.373255797580875
-0.840934535501115,0.352756529067376
-0.837467974382252,0.331708371900148
-0.834614555283719,0.310174901676329
-0.832406306282117,0.288222466875382
-0.830870199770532,0.265919794380396
-0.830027982035153,0.243337580316142
-0.82989603547738,0.220548068735016
-0.830485274335902,0.197624620757299
-0.831801074555534,0.174641276831283
-0.833843238238013,0.151672314821447
-0.836605992895562,0.128791806658694
-0.84007802551235,0.106073176295577
-0.844242551203197,0.0835887617013351
-0.849077416044479,0.0614093836065377
-0.85455523344034,0.0396039236652877
-0.860643553179479,0.0182389146445959
-0.867305062135153,-0.00262185482399538
-0.874497815364894,-0.0229177184857044
-0.88217549617802,-0.0425914913572399
-0.89028770355944,-0.0615898070553954
-0.898780265168706,-0.0798634314735416
-0.907595573974708,-0.0973675508666091
-0.916672946439894,-0.114062032563735
-0.925949000034318,-0.129911656697319
-0.93535804773995,-0.144886317516854
-0.944832507100373,-0.158961193044324
-0.954303321280782,-0.172116882024129
-0.963700389528706,-0.184339507323143
-0.972953004367591,-0.195620785144379
-0.981990292813554,-0.205958059629552
-0.990741658880667,-0.21535430264029
-0.999137224632043,-0.223818078723463
-1.00710826704298,-0.231363475481864
-1.01458764796826,-0.238009999785772
-1.02151023454842,-0.24378244047258
-1.02781330744891,-0.248710698389343
-1.03343695440144,-0.252829584835362
-1.03832444660791,-0.256178589657779
-1.04242259567317,-0.258801620441119
-1.04568208885373,-0.260746714410839
-1.04805780054373,-0.262065724839972
-1.04950907806658,-0.262813983905924
-1.05,-0.263049944090393
-1.04949960543209,-0.262834800348278
-1.04798209272634,-0.262232095390603
-1.04542698656225,-0.261307310531088
-1.04181927221473,-0.260127444635393
-1.03714949623838,-0.258760583785789
-1.03141383293103,-0.257275464331483
-1.02461411616252,-0.255741032035795
-1.01675783636979,-0.254226000055521
-1.00785810273451,-0.252798408495042
-0.997933570775709,-0.251525188267924
-0.987008335803803,-0.250471731972058
-0.975111792893891,-0.249701474440859
-0.962278464243771,-0.249275485573098
-0.948547794983994,-0.249252077967778
-0.933963918702765,-0.249686431798719
-0.918575394136109,-0.250630239256659
-0.902434914652316,-0.252131370765365
-0.885598992328196,-0.254233565043326
-0.868127618572078,-0.256976144934782
-0.850083903393737,-0.260393760774135
-0.831533695553702,-0.264516162877146
-0.812545185942833,-0.269368004571788
-0.793188496646882,-0.274968676992372
-0.773535258239453,-0.281332176663677
-0.753658177919611,-0.288467006698621
-0.733630601167127,-0.296376112224659
-0.713526069628427,-0.30505685044198
-0.693417877969632,-0.314500995501932
-0.673378632439443,-0.324694778178281
-0.653479813873965,-0.33561896008832
-0.633791347848022,-0.347248942006655
-0.614381184633171,-0.359554905603254
-0.59531489156181,-0.37250198773015
-0.576655260319903,-0.386050486179475
-0.558461931598243,-0.400156095640434
-0.540791039424626,-0.414770172395669
-0.523694877377305,-0.429840026119316
-0.507221588744458,-0.445309236971085
-0.49141488254602,-0.461117996023895
-0.476313777173918,-0.477203466917953
-0.461952373235594,-0.493500166502602
-0.448359657004718,-0.509940362109528
-0.435559335693297,-0.526454482997836
-0.423569705562194,-0.542971543423598
-0.412403553683547,-0.559419574714438
-0.402068093960063,-0.575726063673804
-0.392564937793812,-0.591818394600359
-0.383890099582491,-0.607624292185407
-0.376034037005234,-0.62307226254581
-0.368981725844499,-0.63809202966132
-0.362712768876513,-0.652614964513685
-0.35720153815165,-0.666574504270016
-0.352417349779195,-0.679906558914574
-0.348324670129515,-0.6925499028108
-0.344883352171968,-0.704446548768759
-0.342048900480138,-0.715542102301488
-0.339772763258316,-0.725786093876439
-0.338002649575714,-0.735132287104486
-0.336682869838689,-0.743538960958002
-0.335754697387217,-0.750969164270372
-0.335156748971004,-0.757390940940988
-0.334825381743563,-0.762777524451234
-0.33469510431027,-0.767107500487047
-0.334698999279282,-0.77036493666122
-0.334769154692952,-0.772539478532363
-0.334837101662279,-0.773626411326264
-0.334834255488563,-0.773626686977787
-0.334692357534747,-0.772546916326305
-0.334343915104322,-0.770399326513492
-0.333722636597978,-0.767201683847848
-0.332763859247474,-0.762977182614269
-0.331404966772151,-0.75775430051788
-0.329585794365969,-0.751566621658057
-0.327249018501457,-0.744452628129675
-0.324340529131024,-0.736455461542956
-0.320809781975158,-0.727622655939601
-0.316610128710435,-0.718005843760071
-0.311699123007176,-0.707660436683812
-0.306038800516261,-0.696645283319796
-0.29959593106602,-0.685022305868201
-0.29234224150231,-0.672856118004208
-0.28425460778681,-0.660213626351249
-0.275315215159041,-0.647163618012589
-0.265511685365537,-0.633776336716528
-0.254837170163624,-0.620123050200902
-0.243290410516282,-0.606275611516866
-0.23087576110714,-0.592306016969494
-0.217603180019556,-0.578285963433532
-0.203488183639615,-0.564286407786452
-0.188551767058338,-0.55037713118774
-0.172820290462222,-0.536626310903294
-0.156325332211986,-0.523100102326973
-0.13910350951579,-0.50986223378809
-0.121196267804049,-0.496973616654347
-0.102649640106901,-0.484491973144905
-0.083513977921247,-0.47247148415842
-0.0638436552310376,-0.460962459296884
-0.0436967475107436,-0.450011031128403
-0.0231346876970825,-0.439658875581901
-0.00222190125676708,-0.429942960204696
0.0189745773924501,-0.420895321841181
0.0403855047344912,-0.412542875108529
0.0619398418077508,-0.404907252854394
0.0835651790986254,-0.39800467958341
0.105188170046883,-0.391845878634893
0.126734970480455,-0.386436013685004
0.148131681260583,-0.381774664933859
0.16930479139824,-0.377855840123113
0.190181618899837,-0.374668020313661
0.210690746614267,-0.37219424013766
0.230762450384229,-0.370412202025416
0.250329116852502,-0.369294423697085
0.269325648337821,-0.368808418002986
0.287689852275153,-0.368916903995832
0.305362812810741,-0.369578047924561
0.322289242252846,-0.370745732654076
0.338417810203847,-0.372369853838929
0.353701448337694,-0.374396641013221
0.368097628937477,-0.37676900160451
0.381568615470511,-0.379426885737455
0.394081683651499,-0.382307669564023
0.405609311627157,-0.38534655474227
0.416129338107035,-0.388476981585585
0.42562508746373,-0.391631053319508
0.434085461030426,-0.39473996881442
0.441504994032985,-0.39773446110976
0.447883877806807,-0.400545239009559
0.453227947163654,-0.403103429009957
0.457548632989565,-0.405341014817297
0.460862880370371,-0.407191271730263
0.463193032754853,-0.408589193191299
0.464566682876006,-0.409471906861055
0.465016491356748,-0.409779077634437
