1.02946127946128,0.224624062053912
1.01997355448335,0.222327575095591
1.01059570779396,0.219177295314991
1.0012864229597,0.215494265884152
0.992030326580873,0.211397943508129
0.982818225817267,0.206959759778211
0.973643719441226,0.202229454477343
0.964501966669974,0.197244642184761
0.955389110004446,0.19203529702051
0.946301962028727,0.186626186323689
0.937237818102156,0.181038326100393
0.928194336230803,0.175289914464505
0.919169455835879,0.169396962835596
0.910161340492175,0.163373740881337
0.901168336184825,0.157233100877096
0.892188940023627,0.150986720806612
0.883221776242906,0.14464529085148
0.874265577421529,0.13821865931823
0.865319169534129,0.131715948795551
0.856381459873242,0.125145650003504
0.847451427162256,0.118515698619397
0.838528113367207,0.111833538902986
0.829610616844874,0.105106176938198
0.820698086555482,0.0983402256024413
0.811789717133379,0.0915419428691561
0.80288474465639,0.0847172646814639
0.793982442989515,0.0778718333628674
0.785082120604896,0.0710110223272588
0.776183117799837,0.0641399576958639
0.767284804249963,0.0572635373100477
0.758386576846453,0.0503864475367885
0.749487857775562,0.0435131781914374
0.740588092806017,0.0366480358452919
0.7316867497557,0.0297951557399788
0.722783317113771,0.0229585124940409
0.713877302798185,0.0161419297574843
0.704968233031661,0.00934908894587712
0.696055651321726,0.00258353716575746
0.687139117532562,-0.00415130557326074
0.678218207038118,-0.0108521397778936
0.669292509947429,-0.0175157804516607
0.660361630394309,-0.0241391515755048
0.651425185884591,-0.0307192810356646
0.642482806695004,-0.0372532959527059
0.633534135318483,-0.0437384183713982
0.624578825951366,-0.0501719612760667
0.615616544018475,-0.0565513249002803
0.606646965732533,-0.0628739933033824
0.597669777684791,-0.0691375311895226
0.588684676464081,-0.0753395809475682
0.579691368301823,-0.0814778598926541
0.570689568740763,-0.0875501576921918
0.561679002325476,-0.0935543339609718
0.552659402312861,-0.0994883160115789
0.543630510401023,-0.105350096747736
0.534592076475118,-0.111137732689427
0.525543858368862,-0.116849342119729
0.516485621640533,-0.122483103344265
0.507417139362401,-0.128037253055023
0.498338191922635,-0.133510084791085
0.4892485668388,-0.138899947489442
0.480148058582157,-0.144205244119735
0.471036468412033,-0.149424430397271
0.461913604219607,-0.154556013569158
0.452779280380497,-0.159598551268868
0.443633317615597,-0.1645506504349
0.434475542859659,-0.169410966289614
0.425305789137153,-0.174178201374586
0.416123895444962,-0.178851104639178
0.40692970664155,-0.183428470579244
0.397723073342199,-0.187909138423167
0.388503851820018,-0.192291991362618
0.379271903912394,-0.196575955825653
0.370027096932607,-0.200760000789942
0.360769303586348,-0.204843137134074
0.351498401892894,-0.208824417025083
0.342214275110727,-0.212702933340434
0.33291681166737,-0.216477819122868
0.323605905093268,-0.220148247066623
0.31428145395953,-0.223713429033662
0.304943361819369,-0.227172615598622
0.295591537153082,-0.230525095621333
0.286225893316444,-0.233770195845805
0.276846348492385,-0.236907280524699
0.267452825645811,-0.239935751068348
0.258045252481496,-0.242855045717487
0.248623561404907,-0.24566463923891
0.239187689485901,-0.248364042643335
0.229737578425185,-0.250952802924825
0.220273174523483,-0.253430502821164
0.210794428653317,-0.255796760594642
0.201301296233366,-0.258051229832766
0.191793737205322,-0.260193599268429
0.182271716013201,-0.262223592619175
0.172735201585067,-0.26414096844517
0.163184167317125,-0.265945520025596
0.153618591060147,-0.26763707525319
0.144038455108207,-0.269215496546705
0.134443746189698,-0.270680680781093
0.124834455460608,-0.27203255923528
0.115210578500048,-0.273271097557411
0.105572115308017,-0.274396295747486
0.0959190703054053,-0.275408188157361
0.0862514523362239,-0.276306843508109
0.0765692746720814,-0.277092364924777
0.0668725550189028,-0.277764889988614
0.0571613155259161,-0.278324590806882
0.0474355827969165,-0.278771674100398
0.0376953879038398,-0.279106381308997
0.0279407664026697,-0.279328988715136
0.0181717583517148,-0.27943980758592
0.00838840833229705,-0.279439184333844
-0.00140923452810844,-0.279327500696616
-0.0112211165302231,-0.279105173936453
-0.0210471793747552,-0.278772657059293
-0.0308873601315605,-0.278330439054416
-0.0407415912061075,-0.27777904515503
-0.0506098003031687,-0.277119037120399
-0.0604919103876524,-0.276351013540189
-0.0703878396424854,-0.275475610161741
-0.0802975014234449,-0.274493500241043
-0.0902208042108285,-0.273405394918267
-0.100157651557847,-0.272212043618774
-0.110107942035611,-0.270914234480603
-0.120071569174564,-0.269512794809514
-0.130048421402232,-0.268008591562767
-0.140038381977093,-0.266402531862898
-0.150041328918426,-0.264695563542872
-0.160057134931923,-0.262888675724099
-0.170085667330863,-0.260982899428911
-0.180126787952633,-0.25897930822925
-0.190180353070341,-0.256879018933447
-0.200246213299272,-0.254683192313117
-0.210324213497886,-0.252393033872408
-0.220414192663069,-0.250009794661956
-0.23051598381929,-0.247534772140186
-0.2406294139013,-0.244969311084739
-0.250754303629995,-0.242314804557115
-0.260890467380992,-0.239572694923841
-0.27103771304547,-0.23674447493781
-0.281195841882755,-0.233831688883716
-0.29136464836411,-0.230835933791917
-0.301543920007099,-0.227758860725421
-0.31173343719989,-0.224602176145148
-0.321932973014756,-0.221367643359108
-0.332142293009972,-0.21805708406168
-0.342361155019254,-0.214672379969785
-0.352589308927759,-0.21121547456344
-0.362826496433593,-0.207688374938923
-0.373072450793654,-0.204093153783647
-0.383326896552517,-0.200431951482824
-0.393589549252928,-0.196706978369041
-0.403860115126306,-0.192920517127163
-0.414138290761485,-0.189074925368324
-0.424423762749715,-0.185172638388373
-0.434716207303719,-0.181216172127967
-0.445015289848318,-0.177208126353537
-0.455320664579852,-0.173151188080758
-0.465631973991255,-0.169048135264861
-0.475948848359256,-0.164901840785279
-0.486270905189688,-0.160715276755774
-0.496597748616364,-0.156491519195404
-0.506928968748321,-0.152233753100648
-0.517264140959507,-0.147945277964791
-0.527602825114103,-0.143629513797446
-0.537944564719638,-0.139290007705152
-0.54828888599883,-0.134930441103477
-0.558635296869634,-0.130554637642426
-0.568983285821209,-0.126166571940543
-0.57933232067144,-0.121770379239455
-0.58968184718905,-0.117370366110458
-0.600031287560296,-0.112971022368904
-0.610380038676358,-0.108577034381772
-0.62072747021286,-0.104193299990426
-0.631072922467106,-0.0998249453160918
-0.641415703911238,-0.095477343772662
-0.651755088410256,-0.0911561376836394
-0.662090312041984,-0.0868672629921448
-0.672420569440772,-0.08261697767162
-0.682745009566844,-0.0784118945994713
-0.693062730776979,-0.0742590198596271
-0.703372775037213,-0.0701657977118426
-0.713674121070933,-0.0661401638334259
-0.723965676170677,-0.0621906089444376
-0.734246266311077,-0.0583262556335685
-0.744514624071,-0.0545569522073467
-0.75476937368477,-0.0508933888473684
-0.765009012262187,-0.0473472435373725
-0.775231885788384,-0.0439313685527258
-0.785436157838151,-0.0406600335610998
-0.795619767832701,-0.0375492499820668
-0.805780373778103,-0.0346172159295084
-0.815915271033696,-0.0318849474095199
-0.826021272183564,-0.0293772117611996
-0.836094519728644,-0.0271239831045946
-0.846130172886159,-0.0251628760189391
-0.856121830428457,-0.0235436302871785
-0.866060299515314,-0.022337677500602
-0.875930206747045,-0.0216644743642642
-0.885690235690235,-0.0218450640502063
1.02946127946128,0.224624062053912
1.01970125051809,0.22444347236797
1.00983134328636,0.225116675504307
0.999892874199501,0.226322628290884
0.989901216657203,0.227941874022644
0.979865563499689,0.2299029811083
0.969792315954608,0.232156209764905
0.95968631480474,0.234663945413225
0.949551417549147,0.237396213933214
0.939390811603745,0.240328247985772
0.929207201609195,0.243439031564805
0.919002929559428,0.246710366556431
0.908780056033231,0.250126241541078
0.898540417455814,0.253672386851074
0.888285667842044,0.257335950211052
0.878017310082121,0.261105253637274
0.867736719941721,0.264969606948143
0.857445164841977,0.268919161837131
0.847143818808257,0.272944795715548
0.836833774548023,0.277038017863332
0.826516053337888,0.281190892603177
0.816191613211816,0.285395975675325
0.805861355813028,0.28964626099585
0.7955261321813,0.293935135687345
0.785186747682282,0.298256341776367
0.77484396623815,0.302603943319797
0.764498513983904,0.306972297994131
0.754151082447402,0.311356032385477
0.74380233133134,0.31575002037261
0.733452890960094,0.320149364114163
0.723103364442484,0.32454937724316
0.712754329592254,0.328945569944249
0.702406340640678,0.333333635646132
0.692059929769874,0.337709439107182
0.681715608490682,0.342069005708858
0.671373868885147,0.346408511801152
0.661035184730551,0.350724275968496
0.650700012519365,0.355012751104354
0.640368792387408,0.359270517199109
0.630041948960732,0.36349427475948
0.6197198921303,0.367680838788984
0.609403017762299,0.371827133268566
0.599091708350896,0.375930186084463
0.588786333619362,0.379987124357242
0.578487251074763,0.383995170131672
0.568194806520759,0.387951636392078
0.557909334532529,0.391853923372029
0.54763115889735,0.395699515130869
0.537360593023972,0.399485976372746
0.527097940323561,0.403210949486529
0.516843494564698,0.406872151787353
0.506597540204638,0.410467372942628
0.496360352698804,0.413994472567145
0.486132198790298,0.41745137797349
0.475913336781015,0.420836082065385
0.4657040167858,0.424146641362814
0.455504480970934,0.427381174148853
0.445314963778143,0.430537858729126
0.435135692135154,0.433614931795622
0.424966885653799,0.436610686887421
0.414808756816514,0.439523472941516
0.404661511152036,0.442351692927547
0.394525347401039,0.44509380256082
0.384400457672344,0.447748309088445
0.374287027590334,0.450313770143891
0.364185236434113,0.452788792665661
0.35409525726893,0.455172031876113
0.344017257070316,0.457462190316823
0.333951396841385,0.459658016937152
0.323897831723677,0.461758306232956
0.313856711101907,0.463761897432616
0.303828178702967,0.465667673727804
0.29381237268947,0.467474561546577
0.283809425748137,0.469181529866603
0.273819465173276,0.470787589566473
0.263842612945608,0.47229179281322
0.253878985806655,0.473693232484308
0.243928695328891,0.474991041622479
0.233991847981873,0.476184392921972
0.224068545194489,0.477272498244748
0.214158883413529,0.478254608165446
0.204262954158696,0.479130011543895
0.194380844074213,0.479898035124104
0.184512634977152,0.480558043158735
0.174658403902605,0.481109437058122
0.164818223145799,0.481551655062998
0.154992160301267,0.481884171940159
0.145180278299152,0.482106498700321
0.135382635438747,0.482218182337549
0.125599285419329,0.482218805589625
0.115830277368375,0.482107986718841
0.106075655867204,0.481885379312702
0.0963354609741276,0.481550672104104
0.0866097282451279,0.481103588810587
0.0768984887521412,0.480543887992319
0.0672017690989627,0.479871362928482
0.0575195914348201,0.479085841511814
0.0478519734656388,0.478187186161066
0.0381989284630269,0.477175293751192
0.0285604652709965,0.476050095561117
0.0189365883104361,0.474811557238985
0.009327297581346,0.473459678784798
-0.000267411337162946,0.47199449455041
-0.00984754728910249,0.470416073256896
-0.0194131235460805,0.468724518029301
-0.028964157814023,0.466919966448875
-0.0385006722421569,0.465002590622881
-0.048022693434278,0.462972597272135
-0.0575302524623219,0.460830227836471
-0.0670233848822723,0.458575758598348
-0.0765021307524386,0.456209500824869
-0.0859665346541414,0.45373180092853
-0.095416645714857,0.45114304064704
-0.104852517633863,0.448443637242615
-0.114274208710451,0.445634043721192
-0.123681781874767,0.442714749072053
-0.13307530472134,0.439686278528404
-0.1424548495454,0.436549193849511
-0.151820493382038,0.433304093625038
-0.161172318048325,0.429951613602328
-0.170510410188486,0.426492427037367
-0.179834861322223,0.422927245070329
-0.189145767896325,0.419256817126573
-0.198443231339683,0.41548193134414
-0.20772735812185,0.411603415028789
-0.216998259815304,0.407622135137779
-0.226256053161563,0.403538998793647
-0.23550086014135,0.399354953829359
-0.244732808048974,0.395070989366323
-0.253952029571155,0.390688136426873
-0.263158662870506,0.38620746858295
-0.272352851673918,0.381630102642883
-0.281534745366109,0.376957199378292
-0.290704499088615,0.372189964293319
-0.299862273844552,0.367329648438605
-0.309008236609453,0.362377549272573
-0.318142560448563,0.357335011572864
-0.327265424640989,0.352203428400977
-0.336377014811113,0.346984242123441
-0.345477523067756,0.341678945493147
-0.354567148151591,0.33628908279479
-0.363646095591357,0.330816251058729
-0.372714577869489,0.32526210134797
-0.381772814597818,0.319628340123435
-0.390821032704074,0.313916730693133
-0.399859466629979,0.308129094751442
-0.408888358541817,0.302267314015284
-0.417907958554432,0.296333331964677
-0.426918524969719,0.290329155695897
-0.435920324530779,0.284256857896359
-0.444913632693037,0.278118578951273
-0.453898733913747,0.271916529193228
-0.462875921961489,0.265652991307088
-0.471845500247431,0.259330322903986
-0.480807782180322,0.252950959279772
-0.489763091547439,0.246517416375104
-0.49871176292396,0.240032293956411
-0.507654142113547,0.23349827903937
-0.516590586623265,0.22691814957921
-0.525521466176385,0.220294778455366
-0.534447163267074,0.213631137781599
-0.543368073761518,0.206930303576966
-0.552284607550682,0.200195460837948
-0.561197189260617,0.193429909057828
-0.570106259027141,0.186637068246221
-0.579012273342727,0.179820485509664
-0.587915705984656,0.172983842263726
-0.596817049034973,0.166130962158413
-0.605716814004518,0.159265819812268
-0.614615533075409,0.152392550466917
-0.623513760478919,0.145515460693658
-0.632412074028794,0.138639040307841
-0.641311076833852,0.131767975676446
-0.650211399218471,0.124907164640838
-0.659113700885346,0.118061733322241
-0.668018673362335,0.111237055134549
-0.676927042784438,0.104438772401264
-0.68583957307383,0.097672821065507
-0.694757069596163,0.0909454591007196
-0.703680383391212,0.0842632993843084
-0.712610416102198,0.0776333480002018
-0.721548125763085,0.0710630492081548
-0.730494533650485,0.0645603386854756
-0.739450732471862,0.0581337071522248
-0.748417896252582,0.0517922771970933
-0.757397292413781,0.0455458971266089
-0.766390296721131,0.0394052571223681
-0.775398412064835,0.0333820351681098
-0.784423292459759,0.0274890835392005
-0.793466774331112,0.0217406719033121
-0.802530918257683,0.0161528116800166
-0.811618066233402,0.0107437009831956
-0.82073092289893,0.00553435581894471
-0.829872675670182,0.000549543526361898
-0.839047182046222,-0.00418076177450563
-0.848259282809829,-0.00861894550442366
-0.857515379188652,-0.0127152678804467
-0.866824664022915,-0.0163982973112857
-0.876202510712305,-0.019548577091886
-0.885690235690235,-0.0218450640502063
