0.095630061502175,1.00975336857121
0.0971143811621814,0.998165930633436
0.0985303571549763,0.986680398279838
0.0998789682254956,0.975295902356031
0.101161180889187,0.964011591766439
0.102377949750194,0.952826632966495
0.103530217809695,0.941740209469459
0.104618916764717,0.930751521367345
0.105644967297757,0.919859784865496
0.106609279357513,0.909064231830362
0.107512752431012,0.898364109350029
0.108356275807441,0.88775867930709
0.109140728833927,0.877247217963446
0.109866981163554,0.866829015556668
0.110535892995851,0.856503375907515
0.111148315310012,0.846269616038276
0.111705090091074,0.836127065801577
0.112207050549275,0.82607506751932
0.112655021332826,0.816112975631435
0.11304981873429,0.806240156354135
0.113392250890782,0.796455987347367
0.113683117978182,0.786759857391196
0.113923212399549,0.777151166070808
0.114113318967914,0.767629323469904
0.114254215083639,0.758193749872191
0.1143466709065,0.748843875470756
0.114391449522653,0.739579140085053
0.114389307106661,0.730398992885292
0.114340993078711,0.721302892123998
0.114247250257179,0.712290304874533
0.114108815006685,0.703360706776356
0.113926417381773,0.694513581786845
0.113700781266343,0.685748421939465
0.113432624508971,0.677064727108109
0.113122659054235,0.668462004777427
0.112771591070167,0.659939769818968
0.112380121071948,0.65149754427297
0.111948944041951,0.643134857135623
0.111478749546251,0.634851244151676
0.110970221847692,0.626646247612198
0.110424040015624,0.618519416157378
0.109840878032395,0.610470304584207
0.10922140489671,0.602498473658902
0.108566284723922,0.594603489933955
0.107876176843372,0.586784925569658
0.107151735892839,0.579042358159995
0.106393611910195,0.571375370562777
0.105602450422349,0.563783550733898
0.104778892531538,0.556266491565609
0.103923574999067,0.548823790728691
0.103037130326541,0.541455050518431
0.10212018683469,0.534159877704293
0.101173368739825,0.526937883383185
0.100197296228017,0.519788682836229
0.0991925855270422,0.512711895388944
0.098159848976172,0.50570714427474
0.0970996950938544,0.498774056501657
0.096012728643355,0.491912262722236
0.0948995506964067,0.485121397106472
0.0937607586949297,0.478401097217745
0.0925969465108688,0.471751003891664
0.0914087045042028,0.465170761117751
0.090196619579176,0.458660015923877
0.0889612752387994,0.452218418263412
0.0877032516376682,0.445845620904979
0.0864231256331437,0.439541279324787
0.085121470834941,0.433305051601448
0.0837988576531675,0.427136598313235
0.0824558533448541,0.421035582437715
0.0810930220590184,0.415001669253692
0.0797109248803003,0.409034526245418
0.0783101198712094,0.403133823009002
0.076891162113019,0.397299231160972
0.0754546037453445,0.391530424248942
0.074000994004442,0.385827077664317
0.0725308792602603,0.380188868557011
0.0710448030522792,0.374615475752108
0.0695433061241674,0.369106579668433
0.0680269264572916,0.363661862238989
0.0664961993031066,0.358281006833206
0.0649516572144564,0.352963698180971
0.0633938300758161,0.347709622298388
0.0618232451325006,0.34251846641524
0.0602404270188716,0.337389918904101
0.0586458977855641,0.332323669211069
0.0570401769257642,0.327319407788081
0.055423781400558,0.322376826026772
0.0537972256633812,0.317495616193847
0.0521610216835898,0.31267547136793
0.0505156789691769,0.307916085377858
0.0488617045886584,0.303217152742381
0.047199603192149,0.298578368611255
0.0455298770316509,0.293999428707678
0.0438530259805762,0.289480029272043
0.0421695475525227,0.285019867006996
0.0404799369193241,0.280618639023749
0.0387846869283941,0.27627604278963
0.0370842881193825,0.271991776076852
0.0353792287401629,0.267765536912455
0.0336699947621695,0.263597023529419
0.0319570698951012,0.259485934318903
0.0302409356010094,0.255431967783601
0.0285220711077874,0.251434822492183
0.0268009534220766,0.247494197034799
0.0250780573416074,0.24360978997963
0.0233538554669873,0.239781299830458
0.0216288182129557,0.236008424985234
0.0199034138191163,0.232290863695631
0.0181781083601641,0.228628314027548
0.0164533657556208,0.225020473822561
0.014729647779092,0.221467040660292
0.0130074140670599,0.217967711821676
0.0112871221272255,0.21452218425312
0.00956922734641173,0.21113015453152
0.00785418299804287,0.20779131883013
0.00614244024920946,0.204505372885263
0.00443444816733299,0.201272011963804
0.00273065372644182,0.198090930831524
0.00103150181306974,0.19496182372218
-0.000662564768211818,0.191884384307373
-0.00235110528961599,0.18885830566717
-0.00403368109530698,0.185883280261451
-0.00570985559689947,0.182958999901992
-0.00737919426928145,0.180085155725249
-0.0090412646467494,0.177261438165836
-0.0106956363194459,0.17448753693069
-0.0123418809300912,0.1717631409739
-0.0139795721709967,0.169087938472195
-0.0156082857813537,0.16646161680107
-0.0172275995447854,0.163883862511547
-0.0188370932871561,0.16135436130755
-0.0204363488746264,0.158872798023892
-0.0220249502119468,0.156438856604847
-0.0236024832409805,0.154052220083317
-0.0251685359394484,0.151712570560559
-0.0267226983198869,0.149419589186481
-0.0282645624288101,0.147172956140489
-0.0297937223460709,0.144972350612863
-0.0313097741844098,0.142817450786677
-0.0328123160891868,0.140707933820225
-0.0343009482382877,0.138643475829964
-0.0357752728421973,0.136623751873953
-0.0372348941442325,0.134648435935784
-0.038679418420929,0.132717200908991
-0.0401084539825731,0.130829718581929
-0.0415216111738737,0.128985659623117
-0.0429185023747663,0.127184693567038
-0.0442987420013426,0.125426488800371
-0.0456619465069008,0.123710712548671
-0.0470077343831072,0.12203703086347
-0.0483357261612667,0.120405108609798
-0.0496455444136925,0.118814609454111
-0.0509368137551708,0.117265195852626
-0.0522091608445149,0.11575652904005
-0.0534622143862012,0.11428826901869
-0.0546956051320828,0.112860074547948
-0.0559089658831744,0.111471603134185
-0.0571019314915026,0.110122511020943
-0.0582741388620172,0.108812453179534
-0.0594252269545566,0.10754108329997
-0.0605548367858626,0.106308053782233
-0.0616626114316404,0.105113015727888
-0.0627481960286562,0.103955618932015
-0.0638112377768693,0.102835511875467
-0.0648513859415933,0.101752341717438
-0.0658682918556801,0.100705754288341
-0.0668616089217236,0.0996953940829842
-0.0678309926142768,0.0987209042540414
-0.0687761004820781,0.0977819266058109
-0.0696965921502824,0.0968781015882534
-0.0705921293226911,0.0960090682913046
-0.0714623757839778,0.0951744644394563
-0.0723069974019044,0.0943739263865991
-0.0731256621295224,0.0936070891111203
-0.0739180400073568,0.0928735862112516
-0.0746838031655659,0.0921730499006602
-0.0754226258260745,0.0915051110042763
-0.076134184304675,0.0908693989543533
-0.0768181570130923,0.0902655417867526
-0.0774742244610091,0.0896931661374476
-0.0781020692580461,0.0891518972392419
-0.0787013761156937,0.0886413589186955
-0.0792718318491908,0.0881611735932522
-0.0798131253793472,0.0877109622685644
-0.0803249477343043,0.0872903445360078
-0.0808069920512312,0.0868989385703817
-0.0812589535779523,0.0865363611277877
-0.0816805296745002,0.0862022275436835
-0.0820714198145943,0.0858961517311036
-0.0824313255870359,0.0856177461790435
-0.0827599506970206,0.0853666219510006
-0.0830570009673609,0.0851423886836662
-0.0833221843396168,0.0849446545857651
-0.0835552108751307,0.0847730264370335
-0.0837557927559608,0.084627109587334
-0.0839236442857123,0.0845065079558994
-0.08405848189026,0.0844108240307003
-0.0841600241183597,0.0843396588679323
-0.0842279916421452,0.0842926120916158
-0.0842621072575056,0.0842692818933041
-0.0842620958843406,0.0842692650318935
-0.0842276845666897,0.084292156833531
-0.0841586024727314,0.0843375511916127
-0.084054580894649,0.0844050405668691
-0.0839153532483589,0.0844942159875307
-0.0837406550730984,0.0846046670495685
-0.0835302240308691,0.0847359819170049
-0.0832837999057316,0.0848877473222883
-0.0830011246029489,0.0850595485667268
-0.0826819421479744,0.0852509695209743
-0.0823259986852801,0.085461592625566
-0.0819330424770232,0.0856909988914939
-0.0815028239015452,0.0859387679008209
-0.0810350954517018,0.0862044778073244
-0.0805296117330185,0.0864877053371659
-0.0799861294616693,0.0867880257895804
-0.0794044074622738,0.0871050130375796
-0.0787842066655102,0.0874382395286635
-0.0781252901055394,0.0877872762855345
-0.0774274229172369,0.0881516929068082
-0.0766903723332295,0.0885310575677159
-0.0759139076807315,0.0889249370207909
-0.0750978003781781,0.089332896596535
-0.0742418239316512,0.0897545002040584
-0.0733457539310953,0.0901893103316857
-0.072409368046317,0.0906368880475244
-0.0714324460227672,0.0910967929999879
-0.0704147696771005,0.0915685834182672
-0.069356122892508,0.0920518161127461
-0.0682562916138202,0.0925460464753523
-0.0671150638423749,0.0930508284798391
-0.0659322296306483,0.09356571468199
-0.0647075810766424,0.0940902562197422
-0.0634409123180268,0.0946240028132191
-0.0621320195260305,0.0951665027646685
-0.0607807008990786,0.0957173029582973
-0.0593867566561706,0.0962759488599977
-0.0579499890299961,0.0968419845169569
-0.0564702022597827,0.0974149525571439
-0.0549472025838738,0.097994394188667
-0.0533807982320292,0.0985798491989932
-0.0517707994174466,0.0991708559540244
-0.0501170183284984,0.0997669513970219
-0.0484192691201789,0.100367671047371
-0.0466773679052586,0.100972548999183
-0.0448911327451401,0.101581117919717
-0.0430603836404106,0.102192909047626
-0.0411849425210874,0.102807452191012
-0.039264633236551,0.103424275725283
-0.0372992815451604,0.104042906590806
-0.0352887151035465,0.104662870290345
-0.0332327634555783,0.10528369088628
-0.0311312580209968,0.105904890997593
-0.0289840320837112,0.106525991796619
-0.0267909207797524,0.107146513005548
-0.024551761084879,0.107765972892668
-0.0222663918018288,0.108383888268353
-0.0199346535472124,0.108999774480763
-0.0175563887380414,0.109613145411274
-0.0151314415778867,0.110223513469608
-0.012659658042661,0.110830389588661
-0.0101408858660186,0.111433283219025
-0.00757497452436795,0.112031702323179
-0.00496177522148993,0.112625153369358
-0.00230114087275551,0.113213141325073
0.000407073911062594,0.113795169650281
0.00316301284039197,0.114370740290194
0.00596681796388183,0.114939353667707
0.00881862968585084,0.115500508675451
0.0117185867841681,0.116053702667442
0.0146668264285746,0.116598431450324
0.0176634841994515,0.117134189274194
0.0207086941070436,0.117660468822996
0.0238025886111441,0.118176761204467
0.0269452986412498,0.118682555939636
0.0301369536171929,0.119177340951843
0.0333776814702581,0.119660602555284
0.0366676086647935,0.120131825443063
0.0400068602203222,0.120590492674726
0.0433955597341647,0.121036085663286
0.046833829404579,0.121468084161698
0.0503217900544289,0.121885966248799
0.0538595611553873,0.122289208314669
0.057447260852687,0.122677285045421
0.0610850059904245,0.123049669407392
0.0647729121374296,0.123405832630727
0.0685110936137092,0.123745244192328
0.0722996635174749,0.124067371798169
0.076138733752767,0.124371681364947
0.0800284150576818,0.124657637001058
0.0839688170332175,0.124924700986873
0.0879600481727452,0.12517233375431
0.0920022158921206,0.125399993865669
0.096095426560444,0.125607137991723
0.100239785531485,0.125793220889033
0.104435397175778,0.125957695376487
0.10868236491341,0.126100012311017
0.112980791247504,0.126219620562499
0.117330777798414,0.126315966987795
0.121732425338654,0.126388496403934
0.126185833828557,0.126436651560386
0.130691102452701,0.126459873110431
0.135248329657089,0.126457599581585
0.139857613187127,0.126429267345066
0.144519050126395,0.126374310584267
0.149232736936232,0.126292161262222
0.153998769496153,0.126182249088033
0.158817243145121,0.126044001482234
0.163688252723672,0.12587684354106
0.16861189261693,0.125680197999604
0.173588256798524,0.125453485193821
0.178617438875419,0.125196123021361
0.183699532133686,0.124907526901194
0.188834629585231,0.124587109731997
0.194022824015503,0.124234281849278
0.199264208032196,0.123848450981198
0.20455887411497,0.123429022203054
0.209906914666221,0.122975397890407
0.215308422062901,0.122486977670798
0.220763488709437,0.121963158374028
0.226272207091755,0.121403333980969
0.231834669832433,0.120806895570852
0.237450969747026,0.120173231267017
0.24312119990156,0.119501726181056
0.248845453671253,0.118791762355338
0.254623824800467,0.11804271870385
0.260456407463925,0.117253970951319
0.266343296329231,0.11642489157058
0.272284586620708,0.115554849718123
0.278280374184598,0.114643211167796
0.284330755555651,0.113689338242591
0.290435828025122,0.112692589744482
0.29659568971024,0.111652320882259
0.302810439625151,0.110567883197294
0.309080177753391,0.109438624487201
0.315405005121918,0.108263888727321
0.321785023876739,0.107043015989982
0.328220337360182,0.105775342361466
0.334711050189834,0.104460199856639
0.341257268339208,0.103096916331153
0.347859099220159,0.101684815391181
0.354516651767116,0.100223216300611
0.361230036523157,0.0987114338856146
0.367999365727982,0.0971487784365421
0.374824753407831,0.0955345556070548
0.381706315467397,0.0938680663104247
0.388644169783781,0.0921486066129229
0.395638436302554,0.0903754676242157
0.402689237135961,0.0885479353846866
0.409796696663342,0.0866652907495966
0.416960941633818,0.0847268092699969
0.424182101271307,0.0827317610703007
0.431460307381925,0.0806794107224226
0.438795694463845,0.0785690171163849
0.446188399819675,0.0763998333272961
0.45363856367142,0.0741711064785907
0.46114632927811,0.0718820776014335
0.468711843056154,0.0695319814901668
0.476335254702505,0.0671200465536961
0.484016717320703,0.0646454946626924
0.491756387549894,0.0621075409924889
0.499554425696889,0.0595053938615495
0.507410995871362,0.0568382545653764
0.515326266124269,0.0541053172057253
0.523300408589588,0.0513057685149861
0.531333599629465,0.0484387876755907
0.539426019982869,0.045503546134296
0.547577854917868,0.0424992074111866
0.555789294387609,0.0394249269032476
0.564060533190134,0.0362798516823315
0.572391771132129,0.0330631202873607
0.580783213196739,0.0297738625105812
0.589235069715548,0.0264111991776899
0.59774755654487,0.022974241921648
0.606320895246472,0.0194620929499828
0.614955313272867,0.0158738448053776
0.623651044157305,0.0122085801193413
0.632408327708629,0.00846537135873887
0.641227410211122,0.00464328056496099
0.650108544629517,0.000741359085499382
0.659051990819326,-0.00324135270231568
0.668058015742643,-0.00730582567565841
0.677126893689624,-0.0114530422589013
0.686258906505789,-0.0156839967249152
0.695454343825356,-0.019999695505265
0.704713503310788,-0.0244011575095841
0.714036690898766,-0.0288894144544279
0.723424221052777,-0.0334655112019199
0.732876417022559,-0.0381305061085095
0.7423936111106,-0.0428854713841805
0.751976144945945,-0.0477314934624553
0.761624369765546,-0.0526696733815565
0.771338646703401,-0.0577011271771024
0.781119347087756,-0.0628269862867256
0.790966852746625,-0.0680483979670188
0.800881556321931,-0.0733665257232287
0.810863861592538,-0.0787825497521384
0.820914183806503,-0.0842976673985885
0.831032950022843,-0.0899130936261116
0.841220599463171,-0.095630061502175
