0.299909256119536,0.575353381217227
0.339582507948637,0.60152330437243
0.299222278189488,0.576913552900802
0.298733906995197,0.577970423738723
0.254588331778009,0.578286385927652
0.271651295623473,0.538581527245802
0.296164178460378,0.583066104924865
0.29465377901537,0.585811302762675
0.251488146608009,0.590096456930716
0.28954872361404,0.594257332088918
0.292038318729298,0.631107509212082
0.289082740243631,0.602812362602274
0.297076031615801,0.652683565159555
0.223106968874289,0.645815409241739
0.221637990331883,0.669274196996422
0.141316110667349,0.686456859868287
0.0880611183388896,0.804846093605878
-0.0563477019015172,0.805264942239391
-0.40547185484631,0.808331571360732
-0.760969932393753,0.676172683210578
-0.891131737162747,0.369890643889258
-0.577401997228191,0.0945858529813226
-0.226694870211081,0.0639912376085967
0.0044007058769384,0.207017558507241
0.220104763107885,0.293878862431867
0.264487932637856,0.360377158120774
0.290182961402607,0.451637803162126
0.28225943442071,0.489077334225158
0.290568294544435,0.511953499725623
0.295139953131483,0.527331677276672
0.300455245589203,0.501999443774998
0.269284850514536,0.516178768691541
0.300207335968023,0.550881125923408
0.299283302837883,0.592734710627066
0.278642739471676,0.565408334241425
0.351291500112984,0.584034089353551
0.327151196267193,0.58319385168583
0.312550577815568,0.535434694453928
0.267672962362,0.536917473319454
0.327129754729783,0.577953012534296
