0.809155972289958,1.05
0.806198461940167,1.04160274573809
0.803982928379109,1.03284360521635
0.802230373499024,1.02385865490409
0.800836985110237,1.0146985273893
0.799740686580881,1.00539349946834
0.798898252243724,0.995964653707767
0.798276993671337,0.986427933318918
0.797850862271184,0.976796043049256
0.797598334331365,0.967079480714502
0.7975011461838,0.957287154100764
0.797543483010485,0.947426776610165
0.797711430309717,0.93750513479864
0.797992587225085,0.927528276967987
0.798375784665264,0.917501650648029
0.798850874040752,0.907430205636594
0.799408565197772,0.897318473044433
0.80004029960238,0.88717062714746
0.80073814939563,0.87699053462084
0.801494735835235,0.86678179431765
0.802303162531095,0.856547769832084
0.803156960152708,0.846291616467456
0.804050040160186,0.836016303803084
0.804976655724306,0.825724634754863
0.805931368440201,0.815419261810075
0.806909019758984,0.805102700961122
0.807904706297814,0.794777343747611
0.808913758366012,0.784445467729863
0.809931721179154,0.774109245651418
0.810954338336258,0.763770753497744
0.811977537215218,0.753431977619363
0.812997416004389,0.74309482105697
0.814010232137825,0.73276110918194
0.81501239194125,0.722432594746331
0.816000441327647,0.712110962420945
0.816971057407107,0.701797832887478
0.817921040896584,0.691494766540533
0.818847309232429,0.681203266846857
0.819746890302807,0.670924783402249
0.820616916728927,0.660660714720789
0.821454620633852,0.65041241078626
0.822257328845964,0.640181175391576
0.823022458491094,0.62996826828864
0.82374751293329,0.619774907168169
0.824430078029158,0.609602269486569
0.825067818665062,0.599451494154858
0.825658475550109,0.589323683102832
0.82619986224103,0.579219902730126
0.826689862377806,0.569141185254492
0.827126427111239,0.55908852996645
0.827507572705767,0.549062904398482
0.827831378302565,0.539065245416036
0.828095983829609,0.529096460236855
0.828299588046699,0.519157427384482
0.828440446714706,0.509248997581186
0.828516870879325,0.499371994585019
0.828527225260612,0.489527215975303
0.828469926740379,0.47971543389037
0.828343442940302,0.469937395721065
0.828146290884231,0.460193824763186
0.827877035738798,0.450485420831725
0.827534289626962,0.440812860839544
0.827116710509567,0.431176799342874
0.826623001130455,0.42157786905582
0.826051908021035,0.412016681335862
0.825402220560569,0.402493826642186
0.824672770088733,0.393009874968517
0.823862429067312,0.383565376251988
0.822970110288132,0.374160860759456
0.821994766124566,0.364796839452567
0.820935387824169,0.355473804332762
0.81979100484018,0.346192228767326
0.81856068419982,0.336952567797487
0.817243529907458,0.327755258429514
0.815838682380876,0.318600719909666
0.814345317919005,0.309489353983799
0.812762648199611,0.300421545142356
0.811089919805532,0.29139766085144
0.809326413778195,0.282418051770577
0.807471445197187,0.273483051957772
0.805524362784811,0.264592979062384
0.803484548534583,0.255748134506313
0.80135141736274,0.246948803653979
0.79912441678189,0.238195255971487
0.796803026596001,0.229487745175394
0.79438675861599,0.220826509371426
0.791875156395237,0.212211771183473
0.789267794984401,0.20364373787318
0.786564280704967,0.195122601450385
0.783764250941003,0.186648538774697
0.780867373948658,0.178221711648402
0.777873348682967,0.169842266900942
0.774781904641577,0.161510336465127
0.771592801725058,0.153226037445277
0.768305830113476,0.144989472177408
0.764920810158978,0.136800728281635
0.761437592294139,0.128659878706864
0.757856056955885,0.120566981767902
0.754176114524829,0.112522081175047
0.750397705279876,0.104525206056221
0.746520799368024,0.0965763709717078
0.742545396789271,0.0886755759215067
0.738471527396621,0.0808228063453351
0.734299250911169,0.0730180331152696
0.730028656952302,0.0652612125210135
0.725659865083094,0.0575522862477599
0.72119302487097,0.0498911813466014
0.716628315963784,0.0422778101974253
0.711965948181468,0.0347120704642127
0.707206161623453,0.0271938450426463
0.702349226792092,0.019723001999914
0.69739544473235,0.0122993945065752
0.692345147188079,0.00492286076034271
0.687198696775209,-0.00240677609839035
0.681956487172257,-0.00968970807946512
0.676618943328562,-0.016926142444524
0.671186521690745,-0.0241163018174581
0.665659710447889,-0.0312604243039926
0.660039029796026,-0.0383587636206854
0.654325032222548,-0.0454115892336419
0.648518302811218,-0.0524191865072803
0.642619459568521,-0.0593818568635029
0.636629153772152,-0.0662999179516667
0.630548070342525,-0.0731737038297772
0.624376928238213,-0.0800035651573616
0.618116480876378,-0.0867898694005212
0.611767516579254,-0.0935330010497006
0.605330859047911,-0.100233361850754
0.598807367864565,-0.106891371049942
0.592197939024848,-0.113507465653533
0.585503505501539,-0.120082100702755
0.5787250378414,-0.126615749564893
0.571863544796874,-0.133108904241388
0.564920073994589,-0.139562075693886
0.55789571264272,-0.145975794189244
0.55079158827948,-0.152350609664595
0.543608869565193,-0.158687092113664
0.5363487671206,-0.164985831995636
0.529012534414289,-0.171247440667994
0.521601468702419,-0.177472550844839
0.514116912024146,-0.183661817082405
0.506560252256512,-0.189815916293553
0.498932924232883,-0.195935548293276
0.49123641092941,-0.202021436377369
0.483472244724418,-0.20807432793668
0.475642008736093,-0.214094995109541
0.46774733824438,-0.220084235475271
0.459789922203584,-0.226042872791926
0.451771504852835,-0.231971757781771
0.44369388743233,-0.237871768968352
0.435558930014097,-0.243743813569411
0.427368553456958,-0.249588828450396
0.419124741496477,-0.255407781143789
0.41082954298185,-0.26120167094011
0.402485074273097,-0.266971530057111
0.394093521813487,-0.272718424894427
0.385657144893913,-0.278443457381853
0.377178278628012,-0.284147766430409
0.368659337159175,-0.289832529496501
0.360102817123358,-0.295498964270843
0.351511301394727,-0.301148330505342
0.342887463144901,-0.306781931992908
0.334234070250817,-0.312401118717327
0.325553990091266,-0.318007289192679
0.316850194778084,-0.32360189301476
0.308125766874918,-0.32918643365032
0.299383905664816,-0.334762471493962
0.290627934037685,-0.34033162722738
0.281861306080543,-0.345895585521377
0.273087615467666,-0.35145609912801
0.264310604765,-0.357014993418656
0.255534175784191,-0.36257417143401
0.246762401147343,-0.368135619524591
0.237999537255439,-0.37370141367587
0.229250038892903,-0.379273726631386
0.220518575750415,-0.38485483595146
0.211810051210813,-0.390447133175699
0.203129623822988,-0.396053134296505
0.194482731991804,-0.40167549180116
0.185875122546485,-0.407317008605558
0.177312884026919,-0.41298065428902
0.168802485763609,-0.418669584154857
0.160350824146652,-0.424387161797264
0.151965277918339,-0.430136986069318
0.143653774937613,-0.435922923646183
0.13542487373842,-0.441749148803776
0.127287864474535,-0.447620192652845
0.119252895735461,-0.453541004991218
0.111331136612523,-0.45951703334872
0.103534987962133,-0.465554326027149
0.0958783642859916,-0.471659669582438
0.0883770804021049,-0.47784077741671
0.0810493999785518,-0.484106557316075
0.0739168467272329,-0.490467507096253
0.0670054692406843,-0.496936331504711
0.060347955946334,-0.503528973752773
0.0539875325114156,-0.510266516407013
0.0479862755677951,-0.51717923626378
0.0424479973051473,-0.524317765911069
0.0376516958312325,-0.531818181818182
0.809155972289958,1.05
0.804359670816043,1.04249958409289
0.798821392553396,1.0353610544456
0.792820135609775,1.02844833458883
0.786459712174857,1.02171079193459
0.779802198880506,1.01511814968653
0.772890821393958,1.00864932527807
0.765758268142639,1.00228837549789
0.758430587719086,0.996022595598528
0.750929303835199,0.989841487764256
0.743272680159058,0.983736144208967
0.735476531508668,0.977698851530538
0.72755477238573,0.971722823173036
0.719519803646656,0.965802010834663
0.711382794382771,0.959930966985594
0.703153893183577,0.954104741828002
0.694842390202851,0.948318804251136
0.686456843974538,0.942568979979082
0.678005182357582,0.936851402336676
0.669494784094272,0.931162472470838
0.660932545574706,0.925498826787377
0.652324936129387,0.919857309982978
0.643678044298203,0.914234952478323
0.634997616910378,0.908628951357517
0.626289092370776,0.903036654133278
0.617557629228287,0.897455544813204
0.608808130865752,0.891883231857689
0.600045266973848,0.886317437706409
0.591273492337,0.880755989615828
0.582497063356191,0.875196811600475
0.573720052653525,0.869637917309828
0.564946362040648,0.864077403703195
0.556179734083506,0.858513445409198
0.547423762456375,0.85294428967578
0.538681901246273,0.847368251832139
0.529957473343107,0.841783711196578
0.521253678029924,0.836189107374497
0.512573597870374,0.830582936899146
0.50392020497629,0.824963750174727
0.495296366726464,0.81933014868716
0.486704850997833,0.813680782452662
0.478148330962015,0.808014347678319
0.469629389493179,0.802329584612228
0.461150523227277,0.796625275563672
0.452714146307704,0.790900243076245
0.444322593848094,0.785153348238929
0.435978125139341,0.779383489121928
0.427682926624714,0.773589599325607
0.419439114664233,0.767770646632215
0.411248738107094,0.76192563175123
0.40311378068886,0.75605358715017
0.395036163268356,0.750153575963589
0.387017745917607,0.744224690973744
0.37906032987681,0.738266053657089
0.371165659385098,0.732276813291359
0.363335423396773,0.726256146118498
0.355571257191781,0.720203254559187
0.347874743888307,0.714117366475094
0.340247415864678,0.707997734475372
0.332690756097044,0.701843635264224
0.325206199418772,0.695654369026658
0.317795133706902,0.689429258849812
0.310458901000591,0.683167650177455
0.303198798555997,0.676868910295482
0.296016079841711,0.670532427846414
0.288911955478471,0.664157612371063
0.281887594126601,0.657743893875704
0.274944123324317,0.651290722423206
0.268082630279791,0.644797567746711
0.261304162619651,0.638263918884574
0.254609729096343,0.631689283835351
0.248000300256626,0.62507318923176
0.241476809073279,0.618415180032573
0.235040151541936,0.611714819231519
0.228691187244812,0.60497168758234
0.222430739882977,0.59818538333918
0.216259597778666,0.591355522011596
0.210178514349038,0.584481736133485
0.20418820855267,0.577563675045321
0.198289365309972,0.570601004689099
0.192482635898642,0.56359340741546
0.186768638325165,0.556540581802504
0.181147957673302,0.549442242485811
0.175621146430446,0.542298119999276
0.170188724792629,0.535107960626342
0.164851180948934,0.527871526261284
0.159608971345982,0.520588594280209
0.154462520933112,0.513258957421476
0.149412223388841,0.505882423675243
0.144458441329099,0.498458816181904
0.139601506497737,0.490987973139172
0.134841719939723,0.483469747717606
0.130179352157407,0.475904007984393
0.125614643250221,0.468290636835217
0.121147803038097,0.460629531934058
0.116779011168889,0.452920605660805
0.112508417210022,0.445163785066549
0.10833614072457,0.437359011836483
0.10426227133192,0.429506242260312
0.100286868753167,0.421605447210111
0.0964099628413143,0.413656612125597
0.0926315535963614,0.405659737006771
0.0889516111653052,0.397614836413916
0.0853700758270521,0.389521939474955
0.0818868579622128,0.381381089900183
0.0785018380077148,0.37319234600441
0.075214866396133,0.364955780736542
0.0720257634796135,0.356671481716691
0.0689343194382239,0.348339551280877
0.0659402941725326,0.339960106533416
0.063043417180188,0.331533279407121
0.060243387416224,0.323059216731433
0.0575398731367897,0.314538080308639
0.0549325117259535,0.305970046998345
0.0524209095052003,0.297355308810393
0.0500046415251892,0.288694073006425
0.0476832513393006,0.279986562210332
0.0454562507584511,0.271233014527839
0.0433231195866079,0.262433683675505
0.0412833053363796,0.253588839119435
0.0393362229240036,0.244698766224046
0.0374812543429957,0.235763766411242
0.0357177483156583,0.226784157330379
0.0340450199215802,0.217760273039462
0.0324623502021855,0.20869246419802
0.030968985740315,0.199581098272152
0.0295641382137329,0.190426559752305
0.0282469839213704,0.181229250384331
0.0270166632810108,0.171989589414492
0.025872280297022,0.162708013849056
0.0248129019966247,0.153384978729252
0.0238375578330589,0.144020957422363
0.0229452390538786,0.13461644192983
0.0221348980324575,0.125171943213301
0.0214054475606213,0.115687991539633
0.0207557601001555,0.106165136845957
0.020184666990736,0.0966039491259982
0.019690957611624,0.0870050188389441
0.0192733784942291,0.0773689573422743
0.0189306323823931,0.067696397350093
0.0186613772369602,0.0579879934186318
0.0184642251808882,0.0482444224607533
0.0183377413808116,0.0384663842914487
0.0182804428605789,0.0286546022065148
0.0182907972418656,0.0188098235967991
0.0183672214064847,0.00893282060063272
0.0185080800744915,-0.000975609202664041
0.0187116842915819,-0.0109146420550362
0.0189762898186254,-0.0208834272342178
0.0193000954154238,-0.0308810862166643
0.0196812410099515,-0.0409067117846313
0.020117805743385,-0.050959367072673
0.0206078058801602,-0.061038084548308
0.0211491925710815,-0.071141864921014
0.0217398494561283,-0.0812696759730397
0.0223775900920324,-0.0914204513047508
0.0230601551879005,-0.101593088986351
0.0237852096300962,-0.111786450106822
0.0245503392752268,-0.121999357209758
0.0253530474873384,-0.132230592604442
0.0261907513922641,-0.142478896538971
0.027060777818384,-0.152742965220431
0.0279603588887621,-0.163021448665039
0.0288866272246068,-0.173312948358715
0.0298366107140839,-0.18361601470566
0.0308072267935438,-0.193929144239126
0.0317952761799404,-0.204250776564512
0.0327974359833655,-0.214579291000121
0.0338102521168018,-0.224913002875151
0.0348301309059731,-0.235250159437545
0.0358533297849328,-0.245588935315925
0.0368759469420364,-0.255927427469599
0.0378939097551784,-0.266263649548045
0.0389029618233763,-0.276595525565792
0.0398986483622064,-0.286920882779304
0.0408762996809893,-0.297237443628256
0.041831012396885,-0.307542816573045
0.0427576279610046,-0.317834485621266
0.0436507079684828,-0.328109798285637
0.0445045055900961,-0.338365951650266
0.0453129322859559,-0.348599976135831
0.0460695187255604,-0.358808716439021
0.046767368518811,-0.368988808965641
0.0473991029234182,-0.379136654862614
0.0479567940804385,-0.389248387454776
0.0484318834559262,-0.39931983246621
0.0488150808961054,-0.409346458786169
0.0490962378114737,-0.419323316616822
0.0492641851107061,-0.429244958428347
0.0493065219373902,-0.439105335918945
0.0492093337898256,-0.448897662532683
0.0489568058500065,-0.458614224867438
0.0485306744498538,-0.4682461151371
0.0479094158774669,-0.477782835525949
0.0470669815403097,-0.487211681286518
0.0459706830109542,-0.496516709207482
0.0445772946221669,-0.505676836722269
0.0428247397420815,-0.514661787034529
0.0406092061810236,-0.523420927556268
0.0376516958312325,-0.531818181818182
