0.975669853804065,-0.106839021218459
0.974840847599449,-0.106695761428435
0.97237739011748,-0.106162688780021
0.968327773325102,-0.105088467803895
0.962757055810011,-0.103328061839629
0.955746269114321,-0.100744532782969
0.947391430795949,-0.0972107425848489
0.937802376198629,-0.0926109358384989
0.927101423111954,-0.0868421842344552
0.915421885531189,-0.0798156753399765
0.902906454558166,-0.0714578300490738
0.889705466097118,-0.0617112351290557
0.875975076373367,-0.0505353795339671
0.861875367421469,-0.0379071855373074
0.8475684055394,-0.0238213282270276
0.833216276276088,-0.00829033947481084
0.818979119804346,0.00865550489216421
0.805013190526384,0.0269685133571372
0.791468964464813,0.0465841184423863
0.778489317411817,0.067421621358695
0.766207795950131,0.0893851325463289
0.754747002331968,0.112364696700309
0.744217112819786,0.136237588633355
0.734714547472616,0.160869764256109
0.726320807523159,0.186117449071317
0.719101494456392,0.211828844909369
0.713105522694645,0.237845934197289
0.708364535443873,0.264006359869309
0.70489253078957,0.290145358108928
0.702685702578474,0.316097720471019
0.70172249801488,0.341699761575885
0.701963891269591,0.366791268499471
0.703353869777285,0.39121740820607
0.705820127316197,0.414830569879153
0.709274955453796,0.437492119796114
0.713616322534111,0.459074047454289
0.718729127105709,0.479460482975611
0.724486610571707,0.498549067379703
0.730751911910328,0.516252159101137
0.737379745589818,0.532497862114299
0.744218182305995,0.547230863194667
0.751110510922432,0.56041306816209
0.757897159007435,0.572024029391648
0.764417648650593,0.582061159411354
0.770512563813235,0.59053972800249
0.776025505327051,0.597492642846281
0.780805009804889,0.602970016387993
0.784706409165696,0.607038524184493
0.787593608196274,0.609780562532319
0.789340758567346,0.611293215609724
0.789833808978178,0.611687044678277
0.788971912607531,0.611084714049494
0.786668674780663,0.609619470503342
0.782853225701588,0.607433494624227
0.777471105223096,0.604676144074785
0.770484948908566,0.601502110139387
0.761874967051498,0.598069509921971
0.751639210831818,0.594537937363805
0.739793622371729,0.591066496746523
0.726371868076969,0.5878118425583
0.711424957279814,0.58492624952369
0.695020650806218,0.58255573623138
0.677242666639406,0.580838265143417
0.658189692315084,0.57990204084219
0.637974216029375,0.579863927178838
0.616721190641023,0.580828002543386
0.59456654677778,0.582884270800131
0.571655573088444,0.586107543542175
0.548141183294572,0.590556507239252
0.524182091069936,0.596272986608561
0.499940914894496,0.603281413156296
0.475582235879603,0.611588505346942
0.451270632131938,0.621183164288435
0.427168713508345,0.632036586205055
0.403435180608935,0.644102590338313
0.380222931561497,0.657318158300941
0.357677239570048,0.671604178342228
0.335934023341326,0.686866385495451
0.315118231375481,0.702996486200294
0.295342359725046,0.719873453753725
0.276705121206014,0.737364978869036
0.259290282206393,0.755329057739843
0.243165681203112,0.773615698336543
0.228382440892389,0.792068724227427
0.214974383488407,0.810527654032701
0.202957656278888,0.828829633701424
0.192330571973859,0.846811398160046
0.183073665776542,0.86431123852456
0.175149968474536,0.881170951000591
0.168505492227199,0.897237743817898
0.163069923143248,0.912366079055019
0.158757512232397,0.926419426999997
0.155468153906794,0.939271911754661
0.153088638931379,0.950809828109952
0.151494066604681,0.960933011282237
0.150549399018666,0.969556042886471
0.15011113852157,0.976609278509764
0.150029108012099,0.982039684414326
0.150148312445116,0.985811473215492
0.150310858943073,0.987906530820555
0.150357912196072,0.988324629447821
0.15013166140501,0.987083424141797
0.149477274882133,0.984218232828388
0.148244818573151,0.979781602581323
0.146291115202932,0.973842667365978
0.143481521467589,0.966486305057842
0.139691601690505,0.957812103969186
0.134808677616661,0.947933151429707
0.128733235523101,0.936974659126768
0.121380173555366,0.925072441892209
0.112679874139169,0.912371268401536
0.102579088439895,0.899023103805933
0.0910416221240403,0.885185265629175
0.0780488140885949,0.871018515314229
0.0635998023374766,0.856685108585285
0.0477115737678856,0.842346828290744
0.0304187972524813,0.828163023605183
0.0117734420338018,0.814288679390977
-0.00815581394662542,0.800872539154012
-0.0292843786121168,0.788055304377211
-0.0515127335723677,0.775967932088303
-0.0747276032215524,0.764730051325707
-0.098803290931372,0.754448517722966
-0.123603166129103,0.745216123755461
-0.148981284219134,0.737110480303432
-0.174784119693897,0.730193083105667
-0.200852391406129,0.724508575433703
-0.227022957855615,0.720084215934432
-0.253130759493673,0.716929558098345
-0.279010784477868,0.715036345241676
-0.30450003402472,0.714378622274508
-0.329439463513052,0.714913062895258
-0.353675875784885,0.716579508236839
-0.377063743671038,0.719301710422912
-0.399466939627616,0.722988272005152
-0.420760351497097,0.727533769874601
-0.440831364789951,0.732820050000743
-0.459581193502932,0.738717677278208
-0.476926043328664,0.745087522878043
-0.492798093145668,0.751782469831254
-0.507146282883684,0.758649216136983
-0.519936898209467,0.765530153503745
-0.531153944944463,0.772265298913914
-0.540799308678073,0.778694255560327
-0.548892697647591,0.784658179347178
-0.555471369586659,0.790001727079717
-0.560589645866335,0.794574962689401
-0.564318218834785,0.7982351983504
-0.566743260771803,0.800848748133575
-0.567965345282408,0.802292572905577
-0.568098194230428,0.802455796500729
-0.567267265430584,0.801241074755821
-0.565608198250498,0.798565800783819
-0.563265135998709,0.794363131850271
-0.560388945470369,0.788582825381498
-0.557135355270531,0.781191873950493
-0.553663035520813,0.772174931526394
-0.5501316422666,0.761534525807133
-0.546699850330383,0.749291054051345
-0.543523398496943,0.735482562453564
-0.540753170766309,0.720164311734107
-0.538533336972494,0.703408134209994
-0.536999575345284,0.685301590144289
-0.536277398597581,0.66594693360761
-0.536480603863996,0.645459900397737
-0.537709865312932,0.623968332723101
-0.54005148652239,0.601610657337294
-0.543576327770301,0.578534235590579
-0.548338921266865,0.554893605418978
-0.554376785074872,0.530848636603208
-0.561709944052069,0.50656262168239
-0.57034066363655,0.482200325688435
-0.580253399712388,0.457926018366794
-0.591414965169682,0.433901512761731
-0.603774911142707,0.410284233966977
-0.617266118303783,0.387225341476332
-0.631805591040618,0.364867927918088
-0.647295444881962,0.343345316029854
-0.663624075190537,0.322779474537816
-0.680667492941732,0.30327957216098
-0.698290811378208,0.284940687284312
-0.716349865499016,0.26784268895491
-0.734692944729241,0.252049302775726
-0.753162617742201,0.237607373026826
-0.771597627287489,0.224546329962198
-0.789834832028213,0.2128778687395
-0.807711171820044,0.202595843871127
-0.825065632579955,0.193676380468794
-0.841741186897417,0.186078200922188
-0.857586686835081,0.179743163037112
-0.872458685946222,0.174597003091651
-0.886561251648587,0.166091010877984
-0.893123730117691,0.146354061920912
-0.928080771498227,0.165358466926979
-0.919705784174685,0.1639092499915
-0.920175539243177,0.167546714914709
-0.936816837459557,0.151980639585244
-0.933489182295099,0.133649546576748
-0.942966125073113,0.162897893962478
-0.94525064418075,0.152310840834653
-0.944642186122238,0.163039890385935
-0.942990991206396,0.162720962230607
-0.939297156889953,0.186872523372686
-0.926998129202093,0.160121115351194
-0.928606191694387,0.158380808781564
-0.926556316641303,0.148574014984944
-0.910465732490809,0.163402323834737
-0.875570366613278,0.139988704564825
-0.890555442452332,0.1397245431267
-0.886239829014683,0.117314952140319
-0.865562193033203,0.122994487714315
-0.852076693981775,0.112537246748657
-0.857464576112606,0.0827968054580461
-0.833432896797858,0.0908969212716729
-0.823618268744793,0.0452865447600511
-0.816827992498252,0.0528330246149293
-0.77899906049458,0.0338787100945685
-0.767359419243223,0.0196152590819134
-0.790717046956791,0.00317753561627703
-0.743210646497434,-0.0646183189696304
-0.718095908548547,-0.0247400076315901
-0.718539514703012,-0.0679641810606739
-0.708512142009259,-0.0922341172140794
-0.69955477466704,-0.117192561973604
-0.691741074802083,-0.142691509067551
-0.685128386280361,-0.168575819838225
-0.679757047931205,-0.194685068131963
-0.675649913790189,-0.220855449523393
-0.672812086182967,-0.246921731707979
-0.671230864887425,-0.272719222397143
-0.670875912988526,-0.298085730837773
-0.671699637409678,-0.322863499155226
-0.673637779498454,-0.346901080085254
-0.676610208494556,-0.370055138310938
-0.680521908245066,-0.392192153548036
-0.685264145186109,-0.413190004714723
-0.690715803409595,-0.432939415965112
-0.696744870605376,-0.451345247042695
-0.703210056837567,-0.468327612299499
-0.709962526501259,-0.483822814806491
-0.716847722431796,-0.497784084225202
-0.723707260020108,-0.510182109492586
-0.730380868337609,-0.521005359861715
-0.736708354703456,-0.530260190409941
-0.742531568842243,-0.537970730742346
-0.747696342785042,-0.544178558249917
-0.752054382961021,-0.548942159897074
-0.755465091507082,-0.552336189080006
-0.757797294682016,-0.554450526584791
-0.758930857399177,-0.555389157052133
-0.758758164273926,-0.555268874594995
-0.757185449202264,-0.554217833289112
-0.754133957325633,-0.552373960139382
-0.749540925271287,-0.549883249794351
-0.743360367763423,-0.546897961716332
-0.735563661050574,-0.543574741698696
-0.726139916060945,-0.540072690540057
-0.715096136749754,-0.536551403326437
-0.70245716170995,-0.533169003129177
-0.688265389748477,-0.53008019299403
-0.67258029275249,-0.527434349874754
-0.655477721751861,-0.525373683655248
-0.63704901459448,-0.524031483614092
-0.617399916058933,-0.523530473623812
-0.596649323505765,-0.523981296057162
-0.574927873286189,-0.525481142810317
-0.552376385059946,-0.528112550066913
-0.529144182898752,-0.531942371439178
-0.505387313547301,-0.537020941957041
-0.481266683462069,-0.543381443059309
-0.456946137233998,-0.55103947630104
-0.432590500712575,-0.559992850957535
-0.4083636125772,-0.570221588108866
-0.384426368241863,-0.581688141160946
-0.360934799829404,-0.594337830131751
-0.338038215513644,-0.608099484436398
-0.315877420807011,-0.622886286373714
-0.294583043376445,-0.638596805080583
-0.274273981713626,-0.655116208408211
-0.255055996482053,-0.672317638014554
-0.237020461631533,-0.690063730985833
-0.220243290431204,-0.708208269521224
-0.204784049448856,-0.726597938660201
-0.190685271222874,-0.745074170720327
-0.177971973961147,-0.763475054060668
-0.166651394088237,-0.781637283004975
-0.15671293487834,-0.79939812525906
-0.148128331788518,-0.816597382944268
-0.140852032476174,-0.833079323446308
-0.134821786878722,-0.848694556644964
-0.129959440183479,-0.863301835740911
-0.126171919052928,-0.876769759823175
-0.12335239912462,-0.888978357513314
-0.121381639604483,-0.899820532465876
-0.120129468743995,-0.909203353181382
-0.119456402160108,-0.917049171477768
-0.119215374344217,-0.923296556045956
-0.119253562332514,-0.927901029759669
-0.119414279391272,-0.930835601791631
-0.119538915720726,-0.932091088078908
-0.119468902610414,-0.931676216249154
-0.119047676194165,-0.929617513735728
-0.118122616957756,-0.92595898044128
-0.116546941446557,-0.920761549924554
-0.114181523200697,-0.914102345652034
-0.110896620804349,-0.906073741343553
-0.106573492063231,-0.896782236818857
-0.101105874706643,-0.886347162991527
-0.0944013156305711,-0.874899231730441
-0.0863823325368941,-0.862578948191903
-0.0769873938581923,-0.849534904894806
-0.0661717050634321,-0.835921978246557
-0.0539077917900763,-0.821899449411435
-0.0401858727144075,-0.807629072331267
-0.025014017624177,-0.793273112349691
-0.00841808876502234,-0.778992379247911
0.00955853383710504,-0.764944278567563
0.0288554397530398,-0.751280904874153
0.0493958823206319,-0.738147200105303
0.0710876711915373,-0.725679199357815
0.0938242524299402,-0.71400238540604
0.117485963061932,-0.703230171924036
0.141941444856664,-0.693462533821545
0.167049200187485,-0.684784801317918
0.192659271096616,-0.677266632390409
0.218615021191338,-0.670961176067867
0.2447549987514,-0.665904436724121
0.270914858441548,-0.662114847085341
0.296929318311608,-0.659593055131969
0.322634128338238,-0.658321927479332
0.347868026622237,-0.65826676919309
0.372474659505171,-0.659375757368325
0.396304442306973,-0.661580583206138
0.419216338106876,-0.664797294790571
0.441079532984906,-0.668927330332319
0.461774987397825,-0.673858729333539
0.48119684486704,-0.679467506968184
0.499253680887865,-0.685619174990966
0.515869576909042,-0.692170390709203
0.53098500635472,-0.698970713997207
0.54455752194261,-0.705864451021205
0.556562235963917,-0.712692562290101
0.566992087703826,-0.719294611866455
0.575857894764959,-0.725510734072227
0.583188187679376,-0.731183593811412
0.589028829825145,-0.736160316708981
0.593442427269536,-0.740294365631813
0.596507535710855,-0.743447340808063
0.59831767415377,-0.745490681688615
0.598980157298896,-0.746307249886948
0.598614760827896,-0.745792773977075
0.597352235793665,-0.743857138606025
0.595332690156764,-0.74042550226696
0.59270385712181,-0.73543923015876
0.589619271301557,-0.728856630802378
0.586236374855142,-0.720653487466279
0.582714576596874,-0.710823377943876
0.579213287642767,-0.699377778794907
0.575889957446649,-0.686345952778896
0.572898134072907,-0.671774620840449
0.570385572258589,-0.655727422621304
0.568492412237382,-0.638284172040954
0.567349451438937,-0.619539916975081
0.567076530049508,-0.599603814439013
0.567781050037643,-0.578597834922727
0.569556645628462,-0.556655311597761
0.572482021371565,-0.533919351999344
0.576619971913137,-0.51054113145622
0.582016595377056,-0.486678088976127
0.588700709909526,-0.462492047478671
0.596683480475525,-0.438147281185745
0.60595826044306,-0.413808553620804
0.616500649883835,-0.389639150025156
0.628268769888216,-0.365798928066966
0.641203749570089,-0.342442410496643
0.655230419855324,-0.319716942892955
0.670258205637368,-0.297760938854055
0.68618220547543,-0.276702233926048
0.702884445734083,-0.25665656824172
0.720235293945507,-0.237726216279616
0.738095014242687,-0.219998780367739
0.756315445987211,-0.203546162568415
0.774741785219778,-0.188423727415511
0.793214447313204,-0.174669665658443
0.81157098822197,-0.162304566727361
0.829648061010833,-0.151331205100289
0.847283383916736,-0.141734543156413
0.864317696058058,-0.133481950471836
0.880596677055027,-0.126523636886731
0.89597280726313,-0.120793294077865
0.910307146041968,-0.116208937839456
0.923471006476929,-0.112673940838951
0.935347506227686,-0.110078243302134
0.945832975681185,-0.108299726922139
0.954838206318615,-0.107205735305558
0.962289524145429,-0.106654722490045
0.968129675156735,-0.106498009513157
0.972318512091898,-0.106581627700557
0.974833474144155,-0.106748226288982
0.975669853804065,-0.106839021218459
