-0.379738421866192,0.960805019895929
-0.379858573136425,0.95086011088558
-0.379194565739785,0.940828168157302
-0.378041259013604,0.930741918129201
-0.376508366940174,0.920613537948826
-0.374661495249523,0.91045030919176
-0.372546327017062,0.900257302219483
-0.370197409029243,0.890038351377511
-0.367642270758562,0.879796512160153
-0.364903659554378,0.86953430929419
-0.362000877386552,0.859253885103965
-0.358950638156101,0.848957094664234
-0.355767647413481,0.838645570143056
-0.352465011012109,0.828320766158224
-0.349054533013645,0.817983992841752
-0.345546938961711,0.807636440621009
-0.341952047161557,0.797279199229036
-0.338278902705524,0.786913272580026
-0.334535884156655,0.776539590610132
-0.330730789743687,0.766159018844238
-0.326870907921123,0.755772366227421
-0.322963075805243,0.74538039161076
-0.319013728073511,0.734983809178675
-0.315028938266248,0.724583293033
-0.311014453965284,0.714179481097458
-0.306975726986472,0.703772978468725
-0.302917939473255,0.693364360312554
-0.298846026591361,0.68295417438266
-0.294764696382695,0.672542943224298
-0.290678447227492,0.662131166112389
-0.286591583279154,0.651719320764631
-0.282508228169937,0.641307864862692
-0.27843233723317,0.630897237408754
-0.274367708445924,0.620487859940037
-0.27031799226238,0.610080137620206
-0.266286700480965,0.599674460223535
-0.262277214266114,0.589271203025235
-0.258292791427286,0.578870727609363
-0.254336573042868,0.568473382603996
-0.250411589504059,0.558079504352053
-0.246520766043455,0.547689417524902
-0.242666927804276,0.537303435685
-0.238852804498818,0.526921861802933
-0.235081034698463,0.516544988733561
-0.231354169792275,0.506173099655386
-0.227674677646667,0.495806468476736
-0.224044945994735,0.485445360211947
-0.220467285580515,0.475090031330345
-0.216943933080512,0.464740730080505
-0.213477053822374,0.454397696791999
-0.210068744318363,0.444061164156581
-0.206721034629414,0.43373135749058
-0.203435890573896,0.423408494980043
-0.20021521579372,0.41309278791006
-0.197060853689181,0.402784440879505
-0.193974589232768,0.392483652002356
-0.190958150671189,0.3821906130966
-0.18801321112396,0.371905509861658
-0.185141390086142,0.36162852204518
-0.182344254842075,0.351359823599949
-0.179623321796365,0.341099582831612
-0.176980057727793,0.330847962537847
-0.174415880971343,0.320605120139558
-0.171932162533055,0.310371207804614
-0.169530227142049,0.300146372564613
-0.167211354243666,0.289930756425105
-0.164976778937353,0.279724496469697
-0.162827692862628,0.269527724958379
-0.16076524503618,0.259340569420435
-0.158790542642911,0.249163152742245
-0.15690465178352,0.238995593250253
-0.155108598181002,0.228838004789386
-0.153403367848265,0.21869049679715
-0.151789907718893,0.208553174373641
-0.150269126242928,0.198426138347668
-0.148841893949398,0.188309485339189
-0.147509043977186,0.178203307818234
-0.146271372575723,0.168107694160472
-0.145129639576861,0.158022728699592
-0.144084568839197,0.147948491776609
-0.143136848666002,0.137885059786259
-0.142287132197843,0.127832505220568
-0.141536037780888,0.117790896709736
-0.140884149311807,0.107760299060416
-0.140332016560125,0.0977407732914905
-0.139880155468804,0.0877323766674344
-0.139529048433759,0.0777351627293379
-0.139279144562986,0.0677491813236674
-0.139130859915888,0.0577744786288283
-0.139084577723355,0.0478110971795912
-0.1391406485891,0.0378590758894388
-0.139299390672695,0.0279184500708808
-0.139561089854734,0.0179892514537852
-0.139925999884461,0.00807150820176344
-0.140394342510212,-0.00183475507335143
-0.140966307592943,-0.0117295172989046
-0.141642053203087,-0.0216127609306694
-0.142421705700957,-0.0314844719439229
-0.143305359800866,-0.0413446398263301
-0.14429307861909,-0.0511932575726197
-0.145384893705797,-0.0610303216810404
-0.146580805060986,-0.0708558321515927
-0.147880781134491,-0.0806697924860271
-0.149284758810035,-0.0904722096896154
-0.150792643373304,-0.100263094274693
-0.152404308463987,-0.110042460265981
-0.154119596011649,-0.119810325207708
-0.155938316155336,-0.129566710172528
-0.157860247146711,-0.139311639772274
-0.159885135236529,-0.149045142170558
-0.162012694544199,-0.158767249097247
-0.164242606910145,-0.168477995864852
-0.166574521730656,-0.178177421386855
-0.169008055774843,-0.187865568198026
-0.171542792983302,-0.197542482476771
-0.174178284248037,-0.207208214069557
-0.176914047173132,-0.216862816517473
-0.179749565815627,-0.226506347084995
-0.182684290405996,-0.236138866791005
-0.185717637047568,-0.245760440442156
-0.188848987394177,-0.255371136668647
-0.192077688305255,-0.264971027962506
-0.19540305147753,-0.274560190718468
-0.198824353052407,-0.284138705277548
-0.202340833198033,-0.293706655973435
-0.205951695664976,-0.303264131181798
-0.209656107314355,-0.312811223372666
-0.21345319761714,-0.322348029165999
-0.217342058123291,-0.331874649390605
-0.221321741899223,-0.34139118914658
-0.225391262932027,-0.35089775787143
-0.22954959549871,-0.360394469410081
-0.233795673498572,-0.369881442088979
-0.23812838974671,-0.379358798794503
-0.242546595226437,-0.388826667055936
-0.247049098298234,-0.398285179133271
-0.251634663862653,-0.407734472110111
-0.256302012474355,-0.417174687992009
-0.261049819404219,-0.426605973810562
-0.265876713646204,-0.436028481733638
-0.270781276865328,-0.445442369182143
-0.275762042282809,-0.454847798953754
-0.28081749349404,-0.464244939354118
-0.285946063214683,-0.473633964336018
-0.291146131949676,-0.483015053647103
-0.296416026579502,-0.492388392986796
-0.301754018857455,-0.501754174173083
-0.307158323811045,-0.511112595319942
-0.312627098039976,-0.520463861026247
-0.318158437902339,-0.529808182577087
-0.323750377579764,-0.539145778158511
-0.329400887011315,-0.548476873086846
-0.335107869684731,-0.557801700053849
-0.340869160272366,-0.567120499389088
-0.346682522097711,-0.576433519341141
-0.352545644416733,-0.585741016379333
-0.358456139496334,-0.595043255517999
-0.364411539470103,-0.604340510665469
-0.370409292948975,-0.613633065000244
-0.376446761361567,-0.622921211377184
-0.382521214995585,-0.632205252766875
-0.388629828707808,-0.641485502731773
-0.394769677265639,-0.650762285943249
-0.400937730277881,-0.660035938744218
-0.407130846666146,-0.669306809762761
-0.413345768620974,-0.67857526058293
-0.419579114977932,-0.687841666479941
-0.425827373938592,-0.697106417228066
-0.432086895048772,-0.70636991799097
-0.438353880331403,-0.715632590305873
-0.444624374453154,-0.724894873174957
-0.450894253781771,-0.73415722427989
-0.457159214163851,-0.74342012133837
-0.463414757219159,-0.752684063625317
-0.469656174905789,-0.761949573685988
-0.475878532058015,-0.771217199274097
-0.482076646532393,-0.780487515555396
-0.488245066513069,-0.789761127626563
-0.494378044418214,-0.79903867341132
-0.500469506707509,-0.808320827011501
-0.506513018703487,-0.817608302611526
-0.512501743289868,-0.826901859062474
-0.51842839201215,-0.836202305309421
-0.524285166641597,-0.845510506877253
-0.530063688615165,-0.854827393702122
-0.535754912840512,-0.86415396969822
-0.541349021012391,-0.87349132459859
-0.546835287587176,-0.8828406488306
-0.55220190850321,-0.892203252526264
-0.557435777907074,-0.901580590303374
-0.562522190248314,-0.910974294329991
-0.567444431625911,-0.920386219680871
-0.572183200070006,-0.929818508680354
-0.576715748231238,-0.939273686055224
-0.581014546637114,-0.948754807299789
-0.585045048501178,-0.958265706759564
-0.588761570748022,-0.967811454796031
-0.592098507647616,-0.977399332984772
-0.59494614521767,-0.987041518473336
-0.59700962412085,-0.996770737679829
-0.379738421866192,0.960805019895929
-0.381801900769372,0.951075800689436
-0.384649538339426,0.941433615200872
-0.38798647523902,0.931845737012131
-0.391702997485864,0.922299988975664
-0.395733499349928,0.912789089515889
-0.400032297755803,0.903307968271324
-0.404564845917036,0.893852790896454
-0.40930361436113,0.884420501896971
-0.414225855738728,0.875008576546092
-0.419312268079968,0.865614872519474
-0.424546137483832,0.856237534742364
-0.429912758399866,0.846874931046701
-0.435399024974651,0.83752560681469
-0.440993133146529,0.82818825191432
-0.446684357371877,0.818861675918222
-0.452462879345445,0.809544789093354
-0.458319653974891,0.800236587525521
-0.464246302697174,0.790936141278574
-0.470235027283555,0.781642584827626
-0.476278539279533,0.772355109227601
-0.482370001568827,0.763072955627421
-0.488502979473972,0.753795409842664
-0.494671399454649,0.744521797771497
-0.500869513929027,0.735251481490197
-0.507091871081253,0.725983855902088
-0.513333288767883,0.716718345841417
-0.519588831823191,0.70745440355447
-0.52585379220527,0.69819150649599
-0.532123671533888,0.688929155391057
-0.538394165655639,0.679666872521973
-0.54466115093827,0.67040420020707
-0.55092067204845,0.661140699444166
-0.557168931009109,0.651875948696042
-0.563402277366068,0.64260954279903
-0.569617199320896,0.633341091978861
-0.575810315709161,0.624070220960318
-0.581978368721402,0.614796568159349
-0.588118217279234,0.605519784947874
-0.594226830991457,0.596239534982975
-0.600301284625474,0.586955493593285
-0.606338753038067,0.577667347216344
-0.612336506516939,0.56837479288157
-0.618291906490708,0.5590775377341
-0.624202401570309,0.549775298595433
-0.630065523889331,0.540467801557241
-0.635878885714676,0.531154781605189
-0.64164017630231,0.521835982269949
-0.647347158975727,0.512511155302947
-0.652997668407278,0.503180060374611
-0.658589608084703,0.493842464793187
-0.664120947947065,0.484498143242347
-0.669589722175997,0.475146877536042
-0.674994027129587,0.465788456389183
-0.68033201940754,0.456422675202896
-0.685601914037366,0.447049335863203
-0.690801982772359,0.437668246552118
-0.695930552493002,0.428279221570218
-0.700986003704233,0.418882081169854
-0.705966769121714,0.409476651398243
-0.710871332340838,0.400062763949739
-0.715698226582823,0.390640256026662
-0.720446033512687,0.381208970208109
-0.725113382124389,0.371768754326211
-0.729698947688808,0.362319461349371
-0.734201450760605,0.352860949272037
-0.738619656240331,0.343393081010603
-0.74295237248847,0.33391572430508
-0.747198450488332,0.324428751626181
-0.751356783055015,0.31493204008753
-0.755426304087819,0.30542547136268
-0.75940598786375,0.295908931606705
-0.763294848369901,0.286382311382099
-0.767091938672687,0.276845505588767
-0.770796350322066,0.267298413397898
-0.774407212789009,0.257740938189535
-0.777923692934635,0.248172987493649
-0.781344994509512,0.238594472934568
-0.784670357681787,0.229005310178607
-0.787899058592865,0.219405418884747
-0.791030408939474,0.209794722658256
-0.794063755581046,0.200173149007106
-0.796998480171415,0.190540629301096
-0.79983399881391,0.180897098733574
-0.802569761739005,0.171242496285657
-0.80520525300374,0.161576764692872
-0.807739990212199,0.151899850414126
-0.810173524256385,0.142211703602955
-0.812505439076897,0.132512278080953
-0.814735351442843,0.122801531313348
-0.816862910750513,0.113079424386658
-0.81888779884033,0.103345921988375
-0.820809729831706,0.0936009923886285
-0.822628449975392,0.0838446074238085
-0.824343737523055,0.0740767424820814
-0.825955402613737,0.0642973764907929
-0.827463287177007,0.0545064919057158
-0.82886726485255,0.0447040747021276
-0.830167240926056,0.0348901143676931
-0.831363152281245,0.0250646038971408
-0.832454967367952,0.01522753978872
-0.833442686186176,0.00537892204243043
-0.834326340286085,-0.00448124583997667
-0.835105992783955,-0.0143529568532303
-0.835781738394099,-0.0242362004849951
-0.83635370347683,-0.0341309627105481
-0.836822046102581,-0.0440372259856632
-0.837186956132308,-0.0539549692376848
-0.837448655314347,-0.0638841678547803
-0.837607397397942,-0.0738247936733386
-0.837663468263687,-0.0837768149634908
-0.837617186071154,-0.0937401964127279
-0.837468901424056,-0.103714899107567
-0.837218997553283,-0.113700880513237
-0.836867890518238,-0.123698094451334
-0.836416029426916,-0.13370649107539
-0.835863896675235,-0.143726016844316
-0.835212008206154,-0.153756614493636
-0.834460913789199,-0.163798223004467
-0.83361119732104,-0.173850777570158
-0.832663477147845,-0.183914209560509
-0.831618406410181,-0.193988446483492
-0.830476673411319,-0.204073411944372
-0.829239002009856,-0.214169025602133
-0.827906152037644,-0.224275203123089
-0.826478919744114,-0.234391856131567
-0.824958138268149,-0.24451889215754
-0.823344678138777,-0.25465621458105
-0.82163944780604,-0.264803722573285
-0.819843394203522,-0.274961311034153
-0.817957503344131,-0.285128870526144
-0.815982800950862,-0.295306287204335
-0.813920353124414,-0.305493442742278
-0.811771267049689,-0.315690214253597
-0.809536691743376,-0.325896474209005
-0.807217818844993,-0.336112090348512
-0.804815883453987,-0.346336925588514
-0.802332165015699,-0.356570837923457
-0.799767988259249,-0.366813680321746
-0.797124724190677,-0.377065300615512
-0.794403791144967,-0.387325541383849
-0.7916066559009,-0.39759423982908
-0.788734834863082,-0.407871227645558
-0.785789895315853,-0.418156330880499
-0.782773456754273,-0.428449369786256
-0.779687192297861,-0.438750158663405
-0.776532830193322,-0.449058505693959
-0.773312155413146,-0.459374212763943
-0.770027011357628,-0.469697075274479
-0.766679301668679,-0.480026881940481
-0.763270992164668,-0.490363414575899
-0.75980411290653,-0.500706447864405
-0.756280760406527,-0.511055749114244
-0.752703099992307,-0.521411077995847
-0.749073368340375,-0.531772186260636
-0.745393876194767,-0.542138817439286
-0.741667011288579,-0.552510706517461
-0.737895241488224,-0.562887579586833
-0.734081118182766,-0.5732691534689
-0.730227279943587,-0.583655135308801
-0.726336456482983,-0.594045222135952
-0.722411472944174,-0.604439100387896
-0.718455254559756,-0.614836445393262
-0.714470831720928,-0.625236920809135
-0.710461345506077,-0.635640178007434
-0.706430053724662,-0.646045855404106
-0.702380337541118,-0.656453577723937
-0.698315708753871,-0.666862955192654
-0.694239817817105,-0.677273582646592
-0.690156462707888,-0.687685038548531
-0.68606959875955,-0.698096883896288
-0.681983349604347,-0.708508661008197
-0.677902019395681,-0.718919892166559
-0.673830106513787,-0.729330078096454
-0.66977231900057,-0.739738696252624
-0.665733592021758,-0.750145198881358
-0.661719107720793,-0.7605490108169
-0.657734317913531,-0.770949526962575
-0.653784970181799,-0.781346109394659
-0.649877138065919,-0.79173808401132
-0.646017256243355,-0.802124736628137
-0.642212161830387,-0.812505308394031
-0.638469143281518,-0.822878990363926
-0.634795998825485,-0.833244917012935
-0.631201107025331,-0.843602158404908
-0.627693512973397,-0.853949710625652
-0.624283034974932,-0.864286483942124
-0.620980398573561,-0.874611287926956
-0.617797407830941,-0.884922812448134
-0.61474716860049,-0.895219602887865
-0.611844386432664,-0.90550002707809
-0.60910577522848,-0.915762229944052
-0.606550636957799,-0.926004069161411
-0.60420171896998,-0.936223020003383
-0.602086550737518,-0.94641602697566
-0.600239679046868,-0.956579255732726
-0.598706786973438,-0.966707635913101
-0.597553480247257,-0.976793885941201
-0.596889472850617,-0.98682582866948
-0.59700962412085,-0.996770737679829
