-0.301412723941009,0.711325551808684
-0.301481810287137,0.71125935452881
-0.301552188499129,0.711191777032582
-0.301623888512301,0.711122783546503
-0.301696941085609,0.711052337190249
-0.301771377827745,0.710980399936924
-0.30184723122415,0.710906932571679
-0.301924534665011,0.710831894648651
-0.302003322474241,0.710755244446113
-0.302083629939516,0.710676938919777
-0.302165493343388,0.710596933654143
-0.302248949995532,0.710515182811826
-0.302334038266154,0.71043163908075
-0.302420797620629,0.710346253619106
-0.302509268655395,0.710258975997989
-0.302599493135173,0.710169754141582
-0.302691514031554,0.710078534264782
-0.30278537556301,0.709985260808139
-0.30288112323639,0.709889876369989
-0.30297880388996,0.709792321635633
-0.303078465738049,0.709692535303425
-0.30318015841736,0.709590454007622
-0.303283933035031,0.709486012237823
-0.303389842218497,0.709379142254852
-0.303497940167239,0.709269774002883
-0.303720927343027,0.709043250330467
-0.303835933322968,0.708925942368065
-0.30395336169195,0.708805830847665
-0.30407327535749,0.708682832667429
-0.304195739153788,0.708556861791808
-0.304320819909035,0.708427829131625
-0.304448586515316,0.70829564241859
-0.304579110001232,0.708160206073971
-0.304712463607347,0.708021421071115
-0.304848722864576,0.707879184791501
-0.304987965675645,0.707733390873972
-0.305130272399745,0.707583929056801
-0.305275725940513,0.70743068501221
-0.305576418361157,0.707112371550365
-0.30589076062233,0.706777447741301
-0.306053287464904,0.706603422708162
-0.306219517362269,0.706424833768573
-0.306389553803178,0.706241532773677
-0.306563503662574,0.706053365859173
-0.306741477326565,0.705860173190588
-0.306923588822424,0.705661788695698
-0.307109955953805,0.705458039783395
-0.307695828837262,0.704812776536033
-0.307900477118925,0.704585703000015
-0.308110031826825,0.704352293418176
-0.308324636583714,0.704112329320179
-0.308544439900969,0.703865583298514
-0.308769595364195,0.703611818586946
-0.309000261826324,0.703350788616525
-0.309478790709233,0.702805894778008
-0.309726999021602,0.702521484421216
-0.309981410559736,0.702228714760678
-0.310242213694013,0.701927282670832
-0.310509603395863,0.701616872007652
-0.311064956930929,0.700967781396578
-0.311649172888784,0.700278628043368
-0.312264075993981,0.699546343666326
-0.312583641461106,0.699162992785615
-0.312911623685475,0.698767580198493
-0.313248289803931,0.698359638842316
-0.313593916603439,0.697938680292326
-0.314313209899018,0.697055644310564
-0.314687481651391,0.696592472797484
-0.315071925415803,0.696114093339229
-0.315466872117395,0.69561989250356
-0.315872664789194,0.695109227692001
-0.316289659034503,0.694581425552945
-0.316718223505058,0.69403578029821
-0.317158740395089,0.693471551916636
-0.317611605951388,0.692887964277803
-0.318556041485195,0.691659413903972
-0.3190484790334,0.691012699555551
-0.319555001520352,0.690343118035392
-0.320076083662484,0.689649679778683
-0.320612217619085,0.688931344962757
-0.321163913608714,0.688187020601848
-0.321731700538279,0.687415557455429
-0.322316126643503,0.686615746737115
-0.322917760139233,0.685786316610239
-0.323537189877743,0.684925928455096
-0.303090968790113,0.687580104270511
-0.336418837312329,0.636888602793328
-0.310456735921498,0.690360877327212
-0.332254504825537,0.696176256047081
-0.328425597322836,0.677907953430681
-0.358328570556149,0.678096740923636
-0.330021118142055,0.675529792768476
-0.330855909549525,0.674268293322372
-0.323325605572094,0.666291382974008
-0.305547648778475,0.680302548100623
-0.342417755711974,0.638161066304999
-0.336438927804151,0.66552483153812
-0.351686859832842,0.687442774185948
-0.323494433450392,0.64207586037119
-0.337022231467155,0.65211826318365
-0.337701361725641,0.672865901413241
-0.336120190085134,0.652530671039451
-0.353493648567824,0.672559059722157
-0.347909404703217,0.659590404486535
-0.347023493200034,0.647439474270072
-0.374811360027418,0.643628007834223
-0.316937849987229,0.655770607146333
-0.351263265978153,0.639611907964703
-0.384413732618197,0.648280118352411
-0.354315921676445,0.633757156762105
-0.355913779376338,0.630617007573362
-0.337640764085033,0.654783816745024
-0.361007614221004,0.620245069793631
-0.364664564616918,0.612442805330665
-0.356128217669013,0.615995983273626
-0.332904762312853,0.614963793736938
-0.370559592524132,0.599189745226447
-0.372636324273176,0.594308637989839
-0.374769443651438,0.589172511943612
-0.379204443726808,0.578072818831886
-0.383860627023558,0.565755629037314
-0.386268757204835,0.55909344958557
-0.388727736033387,0.552068051685364
-0.391234949169086,0.544657183247999
-0.396380066560199,0.528583010949349
-0.399008872102198,0.519867975490297
-0.401667473187578,0.510663867629484
-0.404348658573538,0.500940794448153
-0.407043880462389,0.49066713916879
-0.412434464683352,0.468332687544971
-0.415104332463807,0.456199613259212
-0.417736779838425,0.443371357203637
-0.420313453135807,0.429807135130347
-0.425211965687307,0.40029861354649
-0.427481987051824,0.384263944507301
-0.431505860636464,0.349396501427204
-0.433183614853585,0.330465175807942
-0.436532695552088,0.243582918970529
-0.436224588033688,0.218826591327851
-0.435311440004745,0.192763812881278
-0.433705939197503,0.165354603527113
-0.431312143650269,0.136564550313881
-0.428025154921147,0.106366433125059
-0.418306170291124,0.0416845224710748
-0.411618650120671,0.00720027826254184
-0.382533424183554,-0.104487471515271
-0.354066682743643,-0.185096417541176
-0.177885715742355,-0.484376549724371
-0.141478520474356,-0.525384987285874
-0.102154643196934,-0.564744382420654
-0.059990753634933,-0.60196416340306
0.0322460815678104,-0.667926215174897
0.240299318924255,-0.75162296395584
0.402753521641489,-0.758713167509163
0.455040936889704,-0.749070617707161
0.553042810918974,-0.711635737042504
0.597558637796738,-0.684177966184674
0.638362406795563,-0.651293066757549
0.674994829767733,-0.613401036492455
0.756547980578696,-0.474998664035126
0.785639802018346,-0.368257952099232
0.794721447070067,-0.255915934391724
0.792231527546799,-0.19916021228166
0.785436404819969,-0.14273986243001
0.774681501084059,-0.0871306509448159
0.760343809001981,-0.0327474157970751
0.742819492690566,0.0200581487517763
0.722512533746619,0.0709973599447924
0.675147307035062,0.166422975632205
0.621295932149811,0.252365734890438
0.504474146172586,0.394715298311555
0.474876977534907,0.42437113884259
0.44552252143798,0.451815308317893
0.416562181542957,0.477150913179398
0.388122584365702,0.500488016629896
0.333200992792001,0.541624641015861
0.306867697469599,0.559655093839154
0.281356872120315,0.576145344493814
0.256703474331489,0.591205470609109
0.1880647441883,0.628840356193275
0.166971955721814,0.639189788601096
0.14676108852689,0.648587607887236
0.0912502337263272,0.671837261495787
0.0743806096123621,0.678167676622805
0.0429377499816826,0.689057657724061
-0.0115535054927892,0.70511346960258
-0.0235942511731245,0.708172902401377
-0.0350582059558921,0.710918576760429
-0.0563628229943077,0.715581653784358
-0.0662549923565823,0.717549366281517
-0.0846411074736015,0.720866463968479
-0.093181048193794,0.722253771634257
-0.101314636973024,0.723482694479519
-0.109062466101685,0.724568158664474
-0.116444178658953,0.72552372773961
-0.123478486523896,0.726361724683764
-0.130183193246414,0.727093343628938
-0.136575220607829,0.727728751992637
-0.142670637893837,0.728277183722637
-0.148484693068056,0.728747024334469
-0.154031845176012,0.7291458883913
-0.169205335845634,0.729982639858621
-0.173814848215346,0.730160663197836
-0.178219078065689,0.73029647568214
-0.190301461871109,0.730491373487377
-0.197506510829676,0.730478641532112
-0.207201819578364,0.730301101640036
-0.210165640237684,0.730208576788346
-0.213006312271947,0.730102502299184
-0.220847584345479,0.729718385769241
-0.233918322111036,0.728760482693319
-0.239375340070226,0.728233385251018
-0.252470216958842,0.726625998498437
-0.254839157754043,0.726278732193198
-0.257046064978657,0.72593826495671
-0.259104153930185,0.725605472054352
-0.260081180851062,0.725442164205562
-0.261025407808027,0.725281003300221
-0.264499932055299,0.724658744313184
-0.26824727245205,0.723933108071748
-0.268927218244766,0.723795014015382
-0.271443411599795,0.72326581236494
-0.272025289637589,0.723139221906031
-0.272589678910374,0.72301487376062
-0.27654640350324,0.722097639933988
-0.278205804447581,0.721687634120927
-0.279689225912098,0.721307330478261
-0.280372070625188,0.721127672652834
-0.281329794678575,0.720870589644687
-0.281927191385162,0.720707108779285
-0.28221434353958,0.72062764982352
-0.283291491398662,0.720324339878892
-0.2837902297586,0.720181003399749
-0.284715887296386,0.719909882095181
-0.286317344539972,0.719424230729102
-0.287175131239364,0.719154797484453
-0.288878776749874,0.718598357478247
-0.289354757569332,0.718437378618092
-0.289896223889761,0.718251067204526
-0.290195362352104,0.718146616585195
