-0.78444580989349,0.0266436288531265
-0.743451452071273,0.0306352992219716
-0.703899831753596,0.0337240439037748
-0.665744378088656,0.0359618111612365
-0.628942065616486,0.0373982322295866
-0.593453033158612,0.0380808438074422
-0.55924024309799,0.0380552847158978
-0.526269176144504,0.0373654698922245
-0.494507557359565,0.0360537444495738
-0.463925109787843,0.0341610201656433
-0.434493332532183,0.0317268964502172
-0.40618530052353,0.0287897675747792
-0.471402991604937,-0.0892522887708191
-0.450934900765711,0.11949798567526
-0.327754381886455,0.0173281370491107
-0.210445318319356,0.121548022651108
-0.280647834915868,0.00782959408001954
-0.14905144432024,-0.106301345784442
-0.237486957625903,-0.00284295693491496
-0.108952801348504,0.096180830374016
-0.289346059490633,0.0982359792697235
-0.0635877355009848,-0.12020488087807
-0.273716899813703,-0.124534282311769
-0.145820544958821,-0.0330191973542946
-0.130121508843317,-0.0394160206900338
-0.217640011006475,0.0658441064849784
0.0117687289944294,-0.147545397098849
0.00778613845331626,0.0338202335555201
0.041334730903115,0.0397862754702247
-0.172594758974414,-0.189448058453788
-0.0528521757883585,-0.0779973488294287
-0.15476861821214,-0.183244136538681
0.0784470233154347,0.0103486241938408
0.0825400418003837,-0.213419180969352
0.0933405387633273,-0.00507559540909024
-0.0086399051911594,-0.107595359389577
-0.106446413384664,-0.229179945995486
0.00446914526822902,-0.11805927041582
0.117467711177857,-0.0144219209930296
-0.102137525987122,-0.0172891954792862
-0.0944662343207928,-0.0367014271555828
-0.0919360175281277,-0.233255522772027
-0.0648815336515481,-0.0260019074794679
0.0301331086932883,-0.142482117410953
0.0326321531023649,-0.145326220617558
0.0346794788114589,-0.147769781403474
0.036296905355985,-0.149795084237651
0.0375065633439144,-0.151384902366867
0.0383308966242429,-0.152522499437906
0.0387926638252852,-0.153191630838171
0.03891493934549,-0.153376544699442
0.0387211138784323,-0.153061982510755
0.038234894553085,-0.152233179287502
0.0374803047703754,-0.150875863244525
0.0364816838174021,-0.148976254921473
0.0352636863415207,-0.146521065708819
0.0338512817678012,-0.143497495722805
0.0322697537451379,-0.139893230977093
0.0305446997085652,-0.135696439798167
0.0287020306481193,-0.130895768430376
0.0267679711779227,-0.125480335775078
0.0247690600030854,-0.119439727206476
0.0227321508865576,-0.112763987404492
0.0206844142232844,-0.105443612142363
0.0186533393349673,-0.0974695389634287
0.0166667376054869,-0.0888331366779487
0.014752746584686,-0.0795261936064804
0.0129398351968219,-0.069540904491477
0.0112568101997025,-0.0588698559931559
0.00973282405142033,-0.047506010679305
0.00839738435385714,-0.0354426894114383
0.00728036505589125,-0.022673552021472
0.00641201961469953,-0.00919257616376323
0.00582299633091359,0.00500596578322354
0.00554435609291216,0.0199275319033196
0.00560759278749159,0.0355773381683616
0.00604465665888308,0.0519603882697767
0.00688798092594551,0.0690815060399617
0.00817051199880307,0.0869453706670354
0.00992574367170949,0.105556554928836
0.012187755709093,0.12491956669732
0.0149912572872438,0.145038893993253
0.0183716358057316,0.165919053903749
0.0223650116413127,0.187564645712408
0.0270082994838558,0.209980408634235
0.0323392769699587,0.23317128459593
0.0383966614168978,0.25714248655757
0.0452201955590916,0.281899572935164
0.0528507433033874,0.307448528756401
0.0613303966506357,0.333795854265723
0.0707025950820145,0.360948661791363
0.081012258882832,0.388914781798454
0.0923059380780715,0.417702879181299
0.104631978887593,0.447322580997457
0.118040709880432,0.477784617020196
0.132584650323967,0.509100974688502
0.148318743593237,0.541285070270572
0.165300618938467,0.574351938334074
0.183590885417159,0.608318441942216
0.203253462395893,0.643203506378516
