-0.556856469544642,-0.673926129986736
-0.556836175453353,-0.673852804755679
-0.556765996826039,-0.673635108946579
-0.556632026952826,-0.673276482293991
-0.556420437152126,-0.672780384352793
-0.556117511131117,-0.672150286119126
-0.555709679110497,-0.67138966169903
-0.555183551636536,-0.670501980043526
-0.554525953004068,-0.669490696768687
-0.553723954214992,-0.66835924607909
-0.552764905397825,-0.667111032812738
-0.551636467615119,-0.665749424625286
-0.550326643986841,-0.664277744331063
-0.548823810059407,-0.66269926241802
-0.547116743351695,-0.661017189753315
-0.545194652011222,-0.659234670495818
-0.543047202515642,-0.657354775231329
-0.540664546356852,-0.655380494345791
-0.538037345647275,-0.653314731651226
-0.535156797590267,-0.651160298278548
-0.532014657759153,-0.648919906850786
-0.528603262132049,-0.646596165949603
-0.524915547832387,-0.644191574887338
-0.520945072527974,-0.641708518796087
-0.516686032444386,-0.639149264044611
-0.512133278951602,-0.63651595399312
-0.507282333685975,-0.633810605095204
-0.502129402172875,-0.631035103355389
-0.496671385918731,-0.628191201149979
-0.490905892944569,-0.625280514418034
-0.484831246736663,-0.622304520228475
-0.478446493593414,-0.619264554728443
-0.471751408351184,-0.616161811477202
-0.464746498475399,-0.61299734016896
-0.457433006506926,-0.609772045747119
-0.44981291085735,-0.606486687911576
-0.441888924950516,-0.603141881019784
-0.433664494711353,-0.599738094381412
-0.425143794406718,-0.596275652945523
-0.416331720846648,-0.592754738378301
-0.407233885958108,-0.589175390528502
-0.397856607746926,-0.585537509276858
-0.388206899667212,-0.581840856764856
-0.378292458421143,-0.57808505999741
-0.368121650215459,-0.5742696138131
-0.357703495504503,-0.570393884214833
-0.347047652252993,-0.566457112052934
-0.336164397755044,-0.562458417051896
-0.325064609049153,-0.558396802171216
-0.313759741972047,-0.554271158290008
-0.302261808897279,-0.550080269204306
-0.290583355207452,-0.545822816925308
-0.278737434551743,-0.541497387266066
-0.266737582943136,-0.537102475703539
-0.254597791752362,-0.532636493502214
-0.242332479658018,-0.528097774084984
-0.229956463614668,-0.523484579636335
-0.217484928902915,-0.51879510792242
-0.204933398327531,-0.514027499312046
-0.192317700631582,-0.509179843982184
-0.179653938196288,-0.504250189291151
-0.166958454097941,-0.499236547302259
-0.154247798594644,-0.49413690244033
-0.14153869511693,-0.488949219263224
-0.128848005837409,-0.483671450330198
-0.116192696895571,-0.478301544148739
-0.103589803354629,-0.472837453181286
-0.0910563939678877,-0.467277141893125
-0.0786095358325949,-0.461618594822642
-0.0662662590094381,-0.455859824655051
-0.0540435211859858,-0.449998880280686
-0.0419581724622483,-0.44403385481899
-0.0300269203362942,-0.437962893589374
-0.0182662949674059,-0.431784202010249
-0.00669261479365707,-0.425496053407662
0.00467804741998645,-0.41909679671518
0.0158298980278969,-0.412584864046876
0.0267474553703086,-0.405958778125562
0.0374155819873901,-0.399217159548714
0.0478195161095605,-0.3923587338749
0.0579449023543489,-0.385382338513887
0.0677778215618564,-0.378286929404073
0.0773048197027902,-0.371071587461311
0.0865129357950998,-0.363735524783724
0.0953897287674443,-0.356278090597633
0.103923303210055,-0.348698776930293
0.112102333956036,-0.34099722399573
0.119916089438732,-0.333173225280611
0.127354453773532,-0.325226732317726
0.134407947515277,-0.31715785913538
0.141067747045426,-0.308966886371666
0.147325702546142,-0.300654265043379
0.153174354521624,-0.292220619960051
0.158606948830228,-0.283666752774409
0.163617450194239,-0.274993644661332
0.168200554157526,-0.266202458618237
0.172351697464789,-0.257294541380637
0.176067066839581,-0.248271424947475
0.179343606141874,-0.239134827711722
0.182179021889542,-0.229886655192574
0.184571787131736,-0.220529000366487
0.186521143665855,-0.211064143595176
0.18802710259342,-0.201494552149593
0.189090443213925,-0.191822879329816
0.189712710259383,-0.182051963181641
0.189896209475997,-0.172184824811623
0.189644001563065,-0.162224666303146
0.188959894482849,-0.15217486823703
0.187848434158808,-0.142038986821047
0.186314893583127,-0.1318207506336
0.184365260358051,-0.121524056987655
0.182006222698981,-0.111152967921897
0.179245153930737,-0.100711705826875
0.17609009551171,-0.0902046487147461
0.172549738623933,-0.079636325142005
0.168633404370239,-0.0690114087953646
0.164351022622831,-0.058334712751706
0.159713109570509,-0.0476111834237435
0.154730744014764,-0.0368458942037538
0.149415542467662,-0.0260440388183895
0.143779633107156,-0.0152109244082466
0.13783562864794,-0.00435196434647156
0.131596598188435,0.00652732918872563
0.125076038096695,0.01742135287223
0.118287842000211,0.028324420104917
0.111246269946539,0.0392307690848621
0.103965916803523,0.0501345710600027
0.0964616799695869,0.0610299387449778
0.0887487264660574,0.0719109348845018
0.0808424594848783,0.0827715809453
0.0727584844662589,0.0936058659183382
0.06451257478184,0.104407755212832
0.0561206370998293,0.115171199623312
0.0475986765092456,0.125890144350844
0.0389627614809447,0.1365585380594
0.0302289887434443,0.147170341948252
0.0214134481517392,0.157719538821273
0.0125321876273084,0.168200142133975
0.00360117824733414,0.17860620499919
-0.00536372043919203,0.188931829132392
-0.0143467947913127,0.199171173717752
-0.02333251107544,0.209318464176215
-0.0323055490085776,0.219368000817099
-0.0412508347708569,0.229314167354948
-0.0501535734140208,0.239151439273688
-0.0589992805938349,0.248874392020446
-0.0677738135559423,0.25847770901178
-0.076463401306351,0.267956189435473
-0.0850546738995713,0.277304755831475
-0.093534690779413,0.286518461436096
-0.101890968109569,0.295592497274039
-0.110111505033384,0.304522198983416
-0.118184808804613,0.313303053359512
-0.126099918733488,0.32193070460363
-0.133846428895102,0.330400960264032
-0.141414509549856,0.33870979685666
-0.148794927228623,0.346853365154003
-0.155979063438269,0.354827995131251
-0.162958931946265,0.362630200559577
-0.169727194606305,0.3702566832372
-0.176277175690102,0.377704336849675
-0.182602874693899,0.384970250451649
-0.188698977591634,0.392051711563179
-0.194560866510177,0.398946208874542
-0.200184627805589,0.405651434554335
-0.20556705852294,0.412165286156528
-0.210705671225832,0.418485868123027
-0.215598697185422,0.424611492879163
-0.220245087922423,0.430540681520476
-0.224644515099225,0.436272164089989
-0.228797368763005,0.441804879446119
-0.232704753944335,0.447137974722269
-0.236368485619536,0.452270804379992
-0.239791082048629,0.457202928858585
-0.242975756504418,0.461934112824794
-0.245926407411806,0.466464323027217
-0.248647606920015,0.470793725760867
-0.251144587933898,0.474922683948183
-0.253423229633944,0.478851753843643
-0.255490041518012,0.482581681369952
-0.257352146001081,0.48611339809457
-0.259017259612564,0.489448016856154
-0.260493672833879,0.492586827051241
-0.261790228621967,0.495531289592228
-0.262916299667447,0.498283031548457
-0.263881764438885,0.500843840482874
-0.264696982067381,0.503215658497395
-0.265372766128302,0.505400576000773
-0.265920357379398,0.507400825213321
-0.266351395516946,0.509218773423454
-0.266677890013706,0.510856916011534
-0.266912190104553,0.512317869256992
-0.26706695398757,0.513604362945194
-0.267155117310121,0.514719232790923
-0.267189861011028,0.515665412695764
-0.26718457859144,0.516445926857003
-0.267152842888243,0.517063881745995
-0.267108372424969,0.517522457974214
-0.267064997416142,0.517824902065427
-0.267036625501744,0.517974518152634
-0.267037207289104,0.517974659618571
-0.267080701779965,0.517828720698668
-0.267181041760706,0.51754012806542
-0.267352099233823,0.517112332413172
-0.26760765096866,0.516548800062274
-0.267961344249129,0.515853004601523
-0.268426662895715,0.515028418587685
-0.269016893638465,0.514078505320764
-0.269745092916874,0.513006710713485
-0.27062405418162,0.511816455273227
-0.27166627577201,0.510511126214399
-0.272883929441691,0.509094069718891
-0.274288829603749,0.507568583361948
-0.275892403364719,0.505937908720368
-0.277705661415252,0.504205224179548
-0.279739169843308,0.502373637955397
-0.28200302293365,0.500446181346678
-0.28450681701524,0.498425802232777
-0.287259625415802,0.496315358831344
-0.290269974580317,0.494117613729663
-0.293545821407664,0.491835228202946
-0.297094531856864,0.489470756832135
-0.300922860871576,0.48702664243307
-0.305036933668536,0.484505211308173
-0.309442228432606,0.481908668831094
-0.314143560457931,0.479239095373955
-0.319145067771511,0.476498442586083
-0.324450198272158,0.473688530032304
-0.330061698414437,0.470811042198051
-0.335981603463742,0.467867525867709
-0.342211229345142,0.464859387881757
-0.348751166105092,0.461787893277422
-0.355601273001482,0.458654163816671
-0.362760675233876,0.455459176904489
-0.370227762322117,0.452203764899509
-0.378000188137821,0.448888614818159
-0.38607487258955,0.445514268432601
-0.394448004958803,0.442081122761836
-0.403115048880245,0.438589430954463
-0.412070748955944,0.435039303560676
-0.42130913898972,0.431430710190213
-0.430823551824101,0.42776348155208
-0.440606630758803,0.424037311871014
-0.450650342526099,0.420251761674776
-0.460945991794995,0.416406260945555
-0.471484237172677,0.412500112627887
-0.482255108668386,0.408532496484722
-0.493248026581577,0.404502473292465
-0.504451821773055,0.400408989365035
-0.515854757274679,0.396250881396248
-0.527444551190234,0.392026881609113
-0.539208400837197,0.387735623199893
-0.55113300807632,0.38337564606416
-0.563204605773328,0.378945402791387
-0.57540898533447,0.374443264914028
-0.587731525255278,0.369867529396453
-0.600157220619608,0.365216425348534
-0.612670713483925,0.360488120948206
-0.62525632407978,0.35568073055679
-0.63789808276564,0.350792322010469
-0.650579762657505,0.345820924070884
-0.663284912866265,0.340764534017425
-0.675996892268343,0.335621125363512
-0.688698903735028,0.330388655678821
-0.701374028744812,0.32506507449919
-0.714005262302222,0.319648331305728
-0.726575548085934,0.314136383554471
-0.739067813748419,0.308527204737814
-0.751465006289062,0.302818792458861
-0.763750127422463,0.297009176499803
-0.775906268863713,0.291096426865411
-0.787916647452508,0.285078661782805
-0.799764640038426,0.278954055638736
-0.811433818050121,0.272720846835721
-0.82290798167194,0.266377345548591
-0.83417119355232,0.259921941363175
-0.845207811969336,0.253353110779122
-0.856002523380013,0.246669424559157
-0.866540374281332,0.239869554907379
-0.876806802312427,0.232952282459604
-0.886787666529121,0.225916503069159
-0.896469276783801,0.218761234371961
-0.905838422145618,0.211485622115233
-0.914882398298117,0.204088946234703
-0.923589033853676,0.196570626665685
-0.931946715526555,0.188930228874039
-0.93994441210885,0.181167469093618
-0.94757169719637,0.173282219257455
-0.954818770614152,0.165274511610619
-0.961676478494302,0.157144542993377
-0.968136331961774,0.148892678784028
-0.974190524386842,0.140519456491508
-0.979831947166179,0.132025588988682
-0.985054203997732,0.123411967377987
-0.989851623617947,0.114679663481941
-0.994219270973287,0.105829931951834
-0.998152956801494,0.0968642119888034
-1.00164924560157,0.0877841286723064
-1.00470546197501,0.0785914938919203
-1.00731969532454,0.0692883068792478
-1.00949080290006,0.0598767543376131
-1.01121841118545,0.0503592101681172
-1.01250291562329,0.040738234791524
-1.01334547867852,0.0310165740663441
-1.01374802624549,0.0211971578043813
-1.01371324240676,0.0112830978859036
-1.01324456255557,0.00127768597749349
-1.01234616489744,-0.0088156091434942
-1.01102296035025,-0.0189931446530446
-1.0092805808654,-0.0292511071274932
-1.00712536619627,-0.039585516366904
-1.00456434914379,-0.0499922295874434
-1.00160523931211,-0.0604669459745572
-0.998256405410749,-0.0710052115879606
-0.994526856142848,-0.0816024246086499
-0.990426219722334,-0.0922538409173985
-0.985964722065709,-0.102954579993447
-0.981153163707267,-0.113699631121396
-0.976002895489297,-0.124483859893603
-0.970525793081563,-0.135302014994738
-0.964734230386971,-0.146148735254518
-0.958641051892771,-0.157018556954045
-0.952259544029015,-0.167905921370587
-0.945603405598164,-0.178805182545127
-0.938686717341821,-0.189710615256498
-0.931523910712448,-0.200616423185454
-0.924129735919721,-0.211516747251601
-0.916519229322745,-0.222405674105736
-0.908707680240832,-0.23327724475976
-0.900710597256789,-0.244125463336068
-0.892543674087824,-0.254944305917993
-0.884222755100089,-0.265727729482695
-0.875763800543693,-0.276469680897676
-0.867182851585603,-0.287164105961959
-0.858495995218298,-0.29780495847286
-0.849719329122316,-0.308386209299234
-0.840868926560891,-0.318901855442029
-0.831960801384837,-0.329345929063037
-0.823010873225524,-0.33971250646276
-0.814034932953411,-0.349995716988447
-0.805048608478938,-0.360189751853499
-0.79606733097187,-0.370288872849592
-0.787106301574154,-0.380287420933178
-0.778180458680331,-0.39017982466821
-0.769304445858173,-0.399960608507309
-0.760492580480837,-0.40962440089393
-0.751758823140211,-0.41916594216844
-0.74311674790934,-0.42858009226152
-0.734579513519977,-0.437861838158679
-0.726159835519156,-0.44700630112027
-0.717869959466605,-0.45600874364182
-0.709721635232348,-0.464864576140181
-0.701726092451506,-0.473569363351486
-0.693894017190612,-0.482118830427636
-0.686235529877095,-0.490508868718617
-0.678760164540739,-0.49873554122871
-0.671476849412991,-0.506795087735313
-0.664393888926924,-0.514683929559873
-0.657518947157571,-0.522398673981187
-0.650859032739072,-0.529936118282091
-0.644420485291795,-0.537293253421407
-0.638208963389211,-0.544467267323781
-0.632229434090833,-0.551455547780964
-0.62648616406407,-0.558255684958852
-0.620982712314223,-0.564865473505559
-0.615721924538309,-0.571282914256595
-0.610705929114749,-0.577506215534156
-0.605936134737263,-0.58353379403842
-0.60141322969769,-0.589364275329604
-0.597137182818702,-0.594996493900497
-0.593107246033751,-0.600429492840016
-0.589321958607836,-0.605662523089292
-0.585779152989073,-0.610695042292644
-0.582475962277332,-0.615526713246701
-0.579408829292659,-0.620157401951839
-0.576573517222557,-0.624587175270924
-0.573965121823713,-0.628816298201255
-0.571578085150251,-0.632845230766439
-0.5694062107772,-0.636674624535737
-0.567442680484494,-0.640305318779278
-0.565680072363582,-0.643738336268304
-0.564110380305508,-0.646974878730386
-0.562725034826275,-0.650016321970335
-0.561514925182263,-0.65286421066821
-0.560470422725634,-0.655520252866597
-0.559581405446836,-0.657986314159929
-0.558837283648712,-0.660264411599346
-0.558227026694123,-0.66235670732716
-0.557739190766665,-0.664265501955579
-0.557361947581729,-0.665993227704937
-0.557083113983058,-0.667542441317148
-0.556890182357971,-0.668915816760612
-0.556770351802575,-0.67011613774326
-0.556710559966626,-0.6711462900508
-0.556697515506162,-0.672009253727637
-0.556717731070665,-0.672708095118245
-0.556757556750341,-0.673245958787086
-0.556803213908032,-0.673626059335398
-0.556840829319439,-0.673851673133415
-0.556856469544642,-0.673926129986736
