0.324409376785972,-0.293063342807363
0.293301664632515,-0.314303127694287
0.33296593795129,-0.311472305632289
0.291200725324098,-0.271205569615816
0.31172948586577,-0.299727845352888
0.314527298178552,-0.283325470191276
0.301747643302583,-0.271054269588859
0.268230731813874,-0.285011996012131
0.315365976031804,-0.281326062395405
0.281659563668214,-0.202317423543939
0.291635838486231,-0.266747066451214
0.275575989116118,-0.265700322560865
0.304461964709797,-0.237888819839004
0.281235676345765,-0.211559912407691
0.29121217164468,-0.190652225765356
0.264488209891788,-0.191839023406624
0.272011939576997,-0.177200496486661
0.241076133049146,-0.164431526031549
0.259182379423299,-0.152218304671542
0.25380029677541,-0.139872844854805
0.245434800654268,-0.11109449504486
0.26574280877293,-0.0676193728225418
0.242144755979126,-0.0597729895230545
0.241119317300377,-0.054968392877952
0.228813754472333,-0.0269067207263799
0.257446591123004,-0.00539659104432085
0.234680051655575,0.0147079543654372
0.245956276631321,0.0242856686446445
0.233948813215053,0.029459853981687
0.266476062711279,0.0908284845843077
0.257918523770278,0.0838542537315062
0.259987131226967,0.149038221772903
0.277722834951192,0.144985838238421
0.285064076974828,0.148166859317456
0.297965873023306,0.148183420154331
0.305323271023368,0.218800741016372
0.310816627278705,0.18364911687062
0.304483772420876,0.204087843781626
0.312174763035191,0.245512992884878
0.338537169167747,0.251925491005574
0.343800470737013,0.291203912043136
0.330187376802358,0.258690122688889
0.369359789889499,0.327023126124085
0.365035093855453,0.333238866906035
0.396753151234867,0.312893717206858
0.405488298225989,0.319732993533747
0.413713322476657,0.325666376278157
0.407005315544333,0.299652044052409
0.428307934421006,0.334961459070208
0.436921548107298,0.356299718641392
0.456324297340593,0.334748187803295
0.457718640056997,0.35007216568896
0.419075917692996,0.351307638481301
0.459503548193886,0.368128192558269
0.452805454700544,0.34631257070017
0.452260551766621,0.346188213702138
0.450615490833386,0.345872884256223
0.447861122597337,0.345454079638279
0.443996862881459,0.345019834531274
0.465855591606876,0.350812324827513
0.437264132298341,0.360484399262934
0.418571989038313,0.326089501092136
0.42133215857331,0.355876026783216
0.40860137501974,0.345634717106429
0.398537062252074,0.346885981758824
0.379369749392903,0.347980604456611
0.34346638329552,0.325321501384273
0.317702065309708,0.380226799365026
0.336304858527648,0.362576646802528
0.330364270260699,0.345803013995225
0.315562382082254,0.342298814448243
0.29351008677127,0.40562247521535
0.244313300118142,0.37007606661804
0.219287287108238,0.392470258967319
0.208215672479989,0.475015835548816
0.239258683020291,0.454117377016016
0.199481748775737,0.441834158528727
0.1827533371576,0.483440005127179
0.155156569918811,0.468906096963774
0.14633765679444,0.470115819859987
0.1211070660538,0.522150512040022
0.0737659972496734,0.546084529081263
0.0939507925600679,0.56245247259785
0.0736781831638872,0.618297520046025
0.0583156672862813,0.609364646391207
0.063886984941985,0.612235632354919
0.0511536991722181,0.647808307376614
0.0399142346918217,0.681072890723678
0.0254167107025607,0.706608701265575
0.0343207431022387,0.714039628934048
0.0990728409099794,0.745799451908046
0.020906296270568,0.75843975751774
0.00170622835019439,0.781839274487945
0.0543608425065748,0.759364749329859
0.024253867271553,0.791774890371604
0.0440681098524765,0.773173424677937
0.0255443687798065,0.81102848618595
0.0265755839351882,0.819110793327277
0.036213262750474,0.856059064706928
0.0141658096174767,0.828763632552949
0.0263318372137491,0.814172762668553
0.0174249448317631,0.837098682570783
0.0327591192523184,0.844825440742211
0.0326620677400832,0.841968128996045
0.0297164288705182,0.839582645830141
0.0319532221336735,0.843354705554631
0.0300704247442661,0.826588261715032
0.0284935162344259,0.837648186047088
0.0336803075594566,0.817503312525827
0.0180049797626767,0.821147716083499
-0.023404079003869,0.872099911348525
0.00210619304934649,0.777472451469095
-0.0187668642844264,0.788138858819776
-0.0436919020802897,0.764454075234862
-0.0401942996333225,0.772331293221418
-0.0523778187873484,0.76439768003747
-0.0540002376983596,0.733420032830679
-0.0767651096283167,0.803596521564636
-0.110294684285612,0.734478692327092
-0.135400274881781,0.753125941480254
-0.162088703907417,0.716133993360621
-0.169213942087014,0.725088159366334
-0.21756612548456,0.703275045441657
-0.219111455612182,0.70322672477467
-0.247366940151206,0.71236871659096
-0.250453605862505,0.687895372140905
-0.257784987830851,0.694029471514123
-0.280729839131518,0.717729320646134
-0.347383143506534,0.692832077042654
-0.339829710313215,0.697703042272136
-0.35400880630389,0.716645922015094
-0.370655217043649,0.705305169979333
-0.426515898164482,0.726546947971986
-0.417373245697912,0.709438724771729
-0.45316975066711,0.719296557926311
-0.486184740660906,0.73124931922943
-0.501493673900193,0.737843183099945
-0.541925867050186,0.718961262281737
-0.551073270847946,0.719814532220593
-0.564272358548072,0.773832055222525
-0.55254962284688,0.774382288211674
-0.611059377934032,0.765992531274821
-0.590113989066974,0.79472562262964
-0.571219900888378,0.787918946510724
-0.635139619098865,0.80817429017338
-0.58931377361372,0.826508929669644
-0.593780340132333,0.807071313571024
-0.614062915194145,0.820796057587762
-0.61630244484683,0.823974984906757
-0.609832857346242,0.814907729947625
-0.626222819792967,0.818439356240058
-0.610867577799965,0.800746992675592
-0.624879514776209,0.827058375303756
-0.61495771236703,0.82261534960969
-0.617004173766137,0.823614087874352
-0.578455409968271,0.818763358082008
-0.61481685943479,0.798555122292689
-0.624596758431556,0.796051930836398
-0.608444166577967,0.78529846851762
-0.607424539136424,0.775208056504417
-0.597617266076766,0.739318590476579
-0.607522920959392,0.753033783181971
-0.601294992769225,0.724326149677235
-0.61726067496302,0.663837367964801
-0.621592806831552,0.647109230085201
-0.618977143518613,0.60367166554666
-0.647205134600249,0.577589083083862
-0.663043373435808,0.57070044325415
-0.651548843364592,0.539561389434471
-0.659276041041653,0.519920436679509
-0.701138135958058,0.537163151326404
-0.70973924562406,0.475470117953106
-0.722573585620202,0.459803102846289
-0.735953193727949,0.444722277641713
-0.76691603891528,0.420647212435524
-0.764068571781908,0.416563422785001
-0.778651693260018,0.403590574999431
-0.804606082936057,0.365552471500768
-0.823502043386461,0.369572802665496
-0.850257993734595,0.358043739998126
-0.873160513600101,0.345748732244016
-0.86812007528605,0.317449127085996
-0.89902089620081,0.326208552152083
-0.923070017251282,0.320450082275258
-0.943837608494406,0.32344948300786
-0.947035761570792,0.313683764017253
-0.968293042073989,0.291564241186639
-0.995268143601272,0.329621897901846
-0.959138540843067,0.336069990293081
-0.992140622533365,0.307078838992638
-1.00003531679513,0.293053048168668
-1.0070545043058,0.307296458232883
-1.01033738181396,0.320531399500221
-1.03211903342692,0.321582010256314
-1.00720986446879,0.306522808852385
-1.01553115186525,0.30810997256204
-0.976101294000627,0.294704581317863
-1.01955985300934,0.352898943400813
-0.963391700705284,0.283831801888828
-0.980056824571259,0.281240556538605
-0.939197044405759,0.271764580040826
-0.85515554956554,0.235533250940978
-0.904081141251027,0.235799571245899
-0.845893065514128,0.0677672376931039
-0.836350464608665,0.0653622429027961
-0.813678210285802,0.0593173615684921
-0.795897856530349,-0.0057756080987081
-0.776249302662978,0.00996728474584576
-0.787274521938693,-0.171945403249832
-0.788002515343384,-0.188345053606918
-0.791822973551347,-0.204868180532802
-0.799168393356205,-0.247583129156428
-0.807556969663919,-0.282923002747626
-0.821838998684508,-0.290467992007076
-0.820838215392862,-0.334698024506307
-0.837260095200478,-0.3088251369934
-0.879036241078038,-0.321244258008376
-0.848671643162748,-0.322346506450757
-0.833958852618255,-0.323430223973035
-0.840865006494157,-0.3291957011508
-0.842927726189334,-0.318885543100522
-0.801160170144373,-0.300842615378851
-0.790516032224158,-0.297715184873231
-0.762350842391824,-0.285927984468719
-0.72718735847851,-0.281997208309728
-0.672453446250462,-0.303220123593323
-0.621198983024456,-0.299800298959089
-0.571082457540657,-0.299831572777778
-0.507986217643092,-0.312823296827422
-0.470653780931136,-0.347625506383447
-0.437442211209228,-0.379027556926876
-0.404656978835447,-0.385336364349813
-0.357613270959183,-0.421240269936955
-0.299897778273999,-0.476122099653223
-0.281175345597182,-0.518580670129524
-0.253354183710429,-0.537868621338207
-0.259160547298802,-0.571744512654839
-0.265928127172281,-0.57032093456271
-0.237039558237715,-0.566621981113959
-0.213748363479471,-0.481363022903845
-0.18660142269348,-0.42212132947427
-0.128423471145728,-0.357046796521593
0.127969776594426,-0.271809376297044
0.179369475636937,-0.262574181346984
0.261328412360244,-0.296951673101436
0.279507606245382,-0.286485180107377
0.283893986219179,-0.275372574787243
0.291811340229687,-0.307151972789603
