-0.451236115571952,-0.709803112121547
-0.397558826508507,-0.762728756119601
-0.401565672664134,-0.689614213117778
-0.408100645746106,-0.709597711020919
-0.419841945714326,-0.749781791665099
-0.348278111416935,-0.729992465277356
-0.35341031451189,-0.679782895294154
-0.38567197124855,-0.647856318572024
-0.344403032030348,-0.638433998777369
-0.377023271026235,-0.642228327972502
-0.373295460813276,-0.62857516566679
-0.377061337793997,-0.658842367575912
-0.367617653862781,-0.608954796053166
-0.364433593642404,-0.598098310414142
-0.361226129506845,-0.587357437713542
-0.407643650601064,-0.625799002569593
-0.308373274971866,-0.531441056251748
-0.375107366191972,-0.536257808862878
-0.300153448917713,-0.556476298839346
-0.380823492141937,-0.571447048681301
-0.346827380421655,-0.492552382777151
-0.320961287247943,-0.515689308498482
-0.348305972841933,-0.497998020536179
-0.370551432223443,-0.496959005036466
-0.328845200339967,-0.467011707324862
-0.324570095102181,-0.47655943328833
-0.370871905927321,-0.504288031207299
-0.306279739762371,-0.465825579672531
-0.285770978624544,-0.493651270409488
-0.310708947715435,-0.439464736216018
-0.307206881294023,-0.430445917059392
-0.303691202695464,-0.421527425464274
-0.34207135470651,-0.459059662601849
-0.295428817369071,-0.390683594175264
-0.328834266292376,-0.374504046721536
-0.275501052748978,-0.364845929903045
-0.28234152630911,-0.370079899395081
-0.302235269530286,-0.398619510298381
-0.228455282516684,-0.354927062992924
-0.265675103125098,-0.324535109668818
-0.249813496730631,-0.303888534386897
-0.256242192669638,-0.291858025982347
-0.249239604393132,-0.350953908697907
-0.249685269178633,-0.299275876611615
-0.293253841946636,-0.261186940382304
-0.286922237388376,-0.253587512387485
-0.231334880552811,-0.263080034587536
-0.206125519842793,-0.210967368153198
-0.209376257483719,-0.240406249911533
-0.204970558410114,-0.236664031521514
-0.218417792552589,-0.221465775614301
-0.205540011930579,-0.215983518558286
-0.242609428824542,-0.218368651698883
-0.232843377565587,-0.140240744979043
-0.183444918540324,-0.17879506487398
-0.180293130077409,-0.191092610111899
-0.172435940579584,-0.161259687225042
-0.190306226403664,-0.140113160889135
-0.180038287796276,-0.139463784363862
-0.161468998111327,-0.144409957593707
-0.195151894564671,-0.105289589414918
-0.151818038790318,-0.172085219278688
-0.12054965842128,-0.153189057277334
-0.146932527596266,-0.122984627754188
-0.13130269086614,-0.117090173955908
-0.143575900598489,-0.104656586268569
-0.157087463897647,-0.0792887503355493
-0.16717789742149,-0.103962363198368
-0.15380472498066,-0.0729444121198278
-0.121808619804607,-0.0882568074094982
-0.108618376188202,-0.125627417190018
-0.114720577665499,-0.0789608295076281
-0.149844299850226,-0.110939220546872
-0.0972098381197391,-0.0568966089005928
-0.0485385051792192,-0.0905298997520385
-0.126732720504077,-0.0225144716716304
-0.0868632074783053,-0.0444440505126962
-0.0834433667040573,-0.0404211857522585
-0.102798825116585,-0.00592036078525708
-0.0976955332874182,-0.0742525009760523
-0.107174188522554,0.00592028251731629
-0.10406087487557,0.0212570244240184
-0.0992180454177732,-0.0648339629976241
-0.0566635448189813,-0.0104707489410169
-0.0533941813126347,-0.00699863635789694
-0.0549972609382067,-0.00838473736245564
-0.0436992705042664,0.00306715355554121
-0.0454005136281791,-0.0431879077398067
-0.0414878091727166,0.00219722579579233
-0.0341818512156373,0.0126172978358718
-0.0279403464122928,0.0187040307068577
-0.0605162740302467,0.0646447785507754
0.0201825111767848,0.0516891030734609
-0.0187403788140755,0.0274237116720896
0.0224401551596965,0.0302361204965976
0.0330089571674708,0.0213214659174599
-0.00974356092835577,0.0356624104945567
-0.00679137564458529,0.038303994354288
-0.00386313453951609,0.040894051117286
-0.000959174439095378,0.0434330588615141
-0.0413804622801278,0.00295367763015148
0.00477456708246543,0.0483598385739162
0.00760368650764111,0.0507485657609341
0.0104072009480526,0.0530881544278486
0.0352678660467208,0.0422806182196151
0.0296319974928978,0.0787362876465236
-0.0181313090242649,0.0497821275390339
0.0336620180706078,0.03610929605418
0.0346759332269049,0.0839919190997786
0.0369637127773372,0.073886424038269
0.0107647439185252,0.0598286652806177
0.0361059293417337,0.0513877486993953
0.075974620916628,0.0387394136282673
0.0583908273199075,0.0888390086307252
0.0288351857432795,0.108979299682456
0.0174931707801864,0.117368940532477
0.0712642771770902,0.0970049388358272
0.116580466138764,0.0553325735044746
0.124211555713823,0.0571450747810535
0.0847656337816854,0.104869969703575
0.0883114113582733,0.106810166159724
0.0557029273036669,0.128233215817032
0.0949745710641438,0.110306559296878
0.0962369219691688,0.0949800673225154
0.0944474473153306,0.126626128520098
0.132131572246191,0.0799394612257358
0.0662266914381435,0.0878861794861183
0.102481043363264,0.113997342849025
0.135722072242654,0.15869411336223
0.106535515231265,0.115872837782617
0.107810810080761,0.116444460057886
0.139413874561936,0.1258962902189
0.0995686610313377,0.109451827761579
0.103463179260692,0.0776336488569966
0.120818985005381,0.121694871241057
0.122853596211177,0.122399191665354
0.0875124268387978,0.097076799937618
0.124003228272561,0.122778097136924
0.156013150243695,0.117480940935389
0.125414287548975,0.123220593194427
0.133909491146852,0.0997429759836663
0.103713073387868,0.14263696309637
0.126704271871178,0.123596937404119
0.121896656375402,0.126373711005254
0.120587069351668,0.103554372494057
0.0901874837535116,0.107125947811195
0.127309862061959,0.123758975557745
0.158081926398978,0.172138948579046
0.135466610801321,0.136579484555926
0.103758293406837,0.12198564011705
0.163609572575751,0.16041265699546
0.12612669459831,0.123509850467965
0.098311086163868,0.0775695441766807
0.104447022475079,0.090734728645399
0.107758297284572,0.113592695290472
0.148140746279242,0.161288877388193
0.0754391438279462,0.0888315475843224
0.0838345908664309,0.0731101663489725
0.113528410126181,0.164169830398504
0.150511929951225,0.143743983415124
0.0619008573622495,0.137327233875612
0.113650201162971,0.107477739497804
0.102304646825904,0.12108911124503
0.0912062139347284,0.0713816134579831
0.099190771146397,0.120979911552368
0.0857043236171647,0.101004100143693
0.0531863227788597,0.104662706665954
0.0537051108187906,0.150345755387354
0.0848831133391272,0.120909252398481
0.104989557651578,0.11394913879321
0.0722036256616463,0.121361832936995
0.0652370559590042,0.121792256408361
0.00771307531437455,0.145342488033428
0.0622393780223788,0.173232053830444
0.0390015704055075,0.124435953226584
0.00196193099983076,0.103222428618087
0.013454460219196,0.0979087422199423
0.0104394080124268,0.0858861035102833
0.0280595684021097,0.139252306865454
0.0511827438807482,0.114446573799349
-0.0163134498198689,0.121682047840923
-0.0377180390492024,0.169375532037574
-0.0123846097447006,0.180444998977765
-0.0125552204991768,0.133653309392003
-0.0140966092847406,0.122347378980779
-0.0604088576063621,0.113171962253085
-0.00505181709915732,0.149797416523699
-0.0163069818446597,0.171539212855467
-0.0269881509664855,0.187352264994085
-0.0466679680623753,0.14227763832997
-0.0506823549253257,0.143413684235684
-0.0925801742660974,0.184112966885205
-0.0821263805211699,0.18565698050498
-0.0977568871764321,0.158528146283609
-0.111441598155538,0.13787065061589
-0.129371173323275,0.215183303075375
-0.120714172941148,0.216145844525974
-0.170380534995404,0.18792931009027
-0.253671411511378,0.189602245663556
-0.256573053552347,0.220662326059661
-0.21819467792662,0.250491854054762
-0.30005039164777,0.268252927420537
-0.275745436391914,0.242763806755757
-0.305866977558487,0.20159357781653
-0.324106154963209,0.220325125149958
-0.311988427008802,0.264825867924636
-0.281254752199678,0.219837785319893
-0.346936733509694,0.322721337999298
-0.468709455247836,0.344645604335825
-0.48303016425741,0.398322717586269
-0.537294621650581,0.428735151562807
-0.535023682452577,0.436073598011728
-0.54237709946545,0.442769377311697
-0.624626947168054,0.530798313103101
-0.589601165256452,0.505919636116164
-0.7084185176581,0.612662715202819
-0.73273194216021,0.648914837443965
-0.728694676433774,0.635747534119331
