-0.706565656565656,0.835343326005409
-0.698353960409865,0.831986024536589
-0.689733502372688,0.829366149022323
-0.680857985094374,0.82720641255949
-0.671784599671203,0.825403639679227
-0.662547544694313,0.823896134489957
-0.653170633583923,0.82264093644439
-0.643671874697298,0.821605557606022
-0.6340656184452,0.820764109148535
-0.624363722439758,0.820095199373383
-0.614576248304784,0.819580676630712
-0.604711908569915,0.81920482310099
-0.594778368862944,0.818953809625603
-0.584782460930464,0.818815311407447
-0.574730337928277,0.818778227859608
-0.564627590808286,0.818832472637855
-0.554479337602205,0.818968812568565
-0.54429029328561,0.819178741610632
-0.534064825389382,0.819454380529775
-0.523806998930954,0.81978839584042
-0.513520613195469,0.820173933450729
-0.503209232196989,0.820604563709139
-0.492876210168499,0.82107423541916
-0.482524713091417,0.821577236999121
-0.472157737033326,0.822108163400025
-0.461778123886562,0.822661887712383
-0.451388574970123,0.823233536627721
-0.44099166285983,0.823818469096402
-0.430589841737661,0.824412257656939
-0.420185456494318,0.825010672014524
-0.40978075077502,0.825609664526037
-0.39937787412392,0.826205357311172
-0.388978888355244,0.826794030758605
-0.378585773257416,0.827372113235472
-0.368200431718949,0.827936171840023
-0.357824694350654,0.828482904062935
-0.347460323667175,0.829009130243618
-0.337109017881364,0.829511786724991
-0.326772414357142,0.829987919624347
-0.31645209276003,0.830434679149651
-0.306149577939052,0.83084931440044
-0.2958663425692,0.831229168600701
-0.285603809579763,0.831571674718047
-0.275363354390598,0.831874351429371
-0.265146306975648,0.832134799398165
-0.254953953770633,0.83235069783296
-0.244787539439818,0.832519801299978
-0.234648268515041,0.832639936766264
-0.224537306918628,0.832709000852262
-0.214455783380567,0.83272495727517
-0.204404790759143,0.832685834466452
-0.194385387273265,0.832589723348663
-0.184398597653828,0.832434775258327
-0.174445414220734,0.832219200002959
-0.164526797891465,0.831941264041529
-0.154643679126581,0.831599288778751
-0.144796958816943,0.831191648964492
-0.134987509117014,0.83071677119045
-0.125216174228198,0.830173132476976
-0.115483771135786,0.829559258943592
-0.10579109030276,0.828873724557327
-0.0961388963234313,0.828115149953533
-0.0865279285395931,0.827282201324306
-0.0769589016216719,0.826373589370066
-0.0674325061171176,0.825388068310238
-0.057949408968102,0.824324434949293
-0.0485102540004156,0.82318152779476
-0.0391156623852987,0.821958226224056
-0.0297662330757986,0.820653449697282
-0.0204625432191218,0.819266157013314
-0.0112051485463285,0.817795345606781
-0.00199458374061343,0.816240050883667
0.00716863721468299,0.814599345593478
0.0162840207072726,0.812872339236076
0.0253510931853553,0.811058177501397
0.0343694008643871,0.809156041740454
0.0433385094503509,0.807165148466101
0.0522580038787593,0.80508474888218
0.0611274880686774,0.80291412843977
0.0699465846911105,0.800652606419345
0.078714934951146,0.798299535537749
0.087432198383291,0.795854301578973
0.0960980526594844,0.793316323047802
0.104712193409308,0.790685050845466
0.113274334051952,0.787959967966499
0.121784205639531,0.785140589216072
0.130241556711377,0.782226460947131
0.138646153158964,0.779217160816716
0.146997778101155,0.776112297560897
0.155296231769475,0.772911510787806
0.163541331403166,0.769614470788309
0.17173291115377,0.766220878363866
0.179870821999037,0.762730464671222
0.187954931665968,0.75914299108357
0.195985124562819,0.755458249067884
0.203961301719926,0.751676060078162
0.211883380739208,0.747796275464333
0.219751295752262,0.743818776396654
0.227564997386938,0.739743473805404
0.235324452742332,0.735570308335784
0.243029645372147,0.73129925031789
0.250680575276385,0.726930299751722
0.258277258901341,0.722463486307183
0.265819729147918,0.717898869339075
0.273308035388267,0.713236537917115
0.280742243490792,0.70847661087105
0.288122435853573,0.703619236850948
0.295448711446273,0.698664594402812
0.302721185860638,0.693612892059668
0.309939991369665,0.688464368448323
0.317105276995605,0.683219292412032
0.324217208586917,0.677877963149334
0.331275968904358,0.672440710369365
0.338281757716402,0.666907894463992
0.345234791904187,0.661279906697145
0.35213530557624,0.655557169411784
0.358983550193228,0.649740136254963
0.365779794703035,0.643829292421511
0.372524325686473,0.637825154916894
0.37921744751396,0.631728272839882
0.385859482513556,0.62553922768569
0.392450771150754,0.619258633670327
0.398991672220468,0.612887138076949
0.405482563051691,0.606425421625082
0.411923839725358,0.599874198863647
0.418315917305958,0.593234218588801
0.424659230087507,0.586506264287692
0.430954231854549,0.579691154609306
0.437201396158884,0.572789743863707
0.4434012166128,0.565802922551034
0.449554207199639,0.558731617921778
0.455660902602593,0.551576794569958
0.461721858552725,0.544339455060944
0.467737652197239,0.53702064059586
0.473708882489184,0.529621431714605
0.4796361705998,0.522142949039762
0.485520160354877,0.514586354063802
0.491361518696588,0.506952849982253
0.497160936172381,0.499243682575693
0.502919127452683,0.491460141143699
0.508636831879289,0.483603559494176
0.514314814046508,0.475675316991772
0.519953864417324,0.467676839669458
0.525554799977027,0.459609601407712
0.53111846492702,0.451475125186182
0.536645731421768,0.443274984413172
0.54213750035213,0.435010804338814
0.547594702178667,0.426684263558395
0.553018297818862,0.418297095612942
0.558409279592615,0.409851090694943
0.563768672230823,0.401348097467873
0.569097533952394,0.392790025009177
0.574396957615612,0.384178844887391
0.579668071950466,0.375516593385317
0.584912042879283,0.366805373882511
0.590130074933899,0.358047359411928
0.595323412778581,0.349244795407346
0.600493342849048,0.340400002660234
0.605641195119242,0.3315153805071
0.610768345009022,0.32259341027105
0.615876215447675,0.313636658984473
0.620966279110194,0.304647783423382
0.626040060845604,0.295629534488238
0.631099140319424,0.286584761971076
0.636145154895577,0.277516419754605
0.641179802786913,0.268427571495905
0.646204846508078,0.259321396855566
0.651222116669882,0.250201198342911
0.656233516160837,0.241070408859689
0.661241024769368,0.231932600038767
0.666246704309702,0.222791491491465
0.67125270432599,0.213650961098093
0.676261268463452,0.204515056501768
0.681274741612791,0.195388007997299
0.686295577955984,0.186274243046172
0.691326350068851,0.177178402698027
0.696369759270392,0.168105360261335
0.701428647452942,0.159060242645585
0.706506010684083,0.150048454899776
0.711605014945234,0.141075708605578
0.716729014469381,0.132148054959481
0.721881573270584,0.123271923613048
0.727066490633988,0.114454168658117
0.732287831577025,0.105702123580263
0.737549963630575,0.0970236676137644
0.742857601770215,0.0884273067997285
0.74821586402766,0.07992227431178
0.753630341354811,0.0715186564941481
0.759107186907472,0.063227553933747
0.764653232432234,0.055061291427681
0.770276143556892,0.0470336981345633
0.775984632811081,0.0391604918739278
0.781788761818614,0.0314598242956263
0.787700388191622,0.0239530870982061
0.793733862340863,0.0166661691079857
0.799907192623604,0.00963155826146772
0.806244192460065,0.00289221510594267
0.812779060441382,-0.00349016446701345
0.819568987663837,-0.00941240498853496
0.826767676767677,-0.0145972195555029
-0.706565656565656,0.835343326005409
-0.699366967461817,0.830158511438441
-0.692577040239362,0.82423627091692
-0.686042172258045,0.817853891343963
-0.679705172421584,0.811114548188439
-0.673531842138842,0.804079937341921
-0.667498367989601,0.7967930193517
-0.661586741616594,0.78928628215428
-0.655782612609061,0.781585614575978
-0.650074123354872,0.773712408315343
-0.644451212230214,0.765684815022225
-0.638905166705451,0.757518552516159
-0.633428321152791,0.749227449955758
-0.62801384382564,0.740823832138126
-0.622655581568195,0.732318799650178
-0.617347943428555,0.723722438836142
-0.612085811375005,0.715043982869644
-0.606864470431967,0.706291937791789
-0.601679553068564,0.697474182836858
-0.596526994267361,0.688598051490426
-0.591402994743214,0.679670397844328
-0.586303990482063,0.67069765155013
-0.581226627250921,0.661685863804321
-0.576167739068372,0.652640746188571
-0.571124329866831,0.643567703751879
-0.566093557753963,0.634471863403734
-0.561072721410771,0.625358098452608
-0.556059248261432,0.616231049948139
-0.55105068412397,0.607095145351813
-0.546044684107681,0.597954614958441
-0.541039004567348,0.58881350641114
-0.536031495958816,0.579675697590217
-0.531020096467862,0.570544908106995
-0.526002826306058,0.56142470959434
-0.520977782584893,0.552318534954001
-0.515943134693557,0.543229686695301
-0.510897120117404,0.53416134447883
-0.505838040643583,0.525116571961669
-0.500764258908174,0.516098323026525
-0.495674195245655,0.507109447465433
-0.490566324807002,0.498152696178856
-0.485439174917222,0.489230725942807
-0.480291322647028,0.480346103789672
-0.475121392576561,0.471501311042561
-0.469928054731879,0.462698747037978
-0.464710022677263,0.453940732567395
-0.459466051748446,0.445229513064589
-0.454194937413592,0.436567261562515
-0.448895513750373,0.427956081440729
-0.443566652028803,0.419398008982033
-0.438207259390595,0.410895015754963
-0.432816277616842,0.402449010836964
-0.427392681976647,0.394061842891512
-0.42193548015011,0.385735302111092
-0.416443711219748,0.377471122036734
-0.410916444725,0.369270981263724
-0.405352779775007,0.361136505042194
-0.399751844215304,0.353069266780449
-0.394112793844488,0.345070789458135
-0.388434811677269,0.337142546955731
-0.382717107250663,0.329285965306207
-0.376958915970361,0.321502423874213
-0.371159498494567,0.313793256467653
-0.365318140152857,0.306159752386104
-0.35943415039778,0.298603157410144
-0.353506862287164,0.291124674735301
-0.347535631995219,0.283725465854046
-0.341519838350704,0.276406651388962
-0.335458882400573,0.269169311879948
-0.329352186997618,0.262014488528128
-0.32319919641078,0.254943183898872
-0.316999375956864,0.247956362586199
-0.310752211652528,0.2410549518406
-0.304457209885487,0.234239842162214
-0.298113897103938,0.227511887861105
-0.291721819523338,0.220871907586259
-0.28528054284967,0.214320684824825
-0.278789652018447,0.207858968372958
-0.272248750948734,0.201487472779579
-0.265657462311536,0.195206878764216
-0.25901542731194,0.189017833610024
-0.252322305484453,0.182920951533013
-0.245577774501015,0.176916814028395
-0.238781529991207,0.171005970194943
-0.23193328537422,0.165188937038122
-0.225032771702167,0.159466199752761
-0.218079737514382,0.153838211985914
-0.211073948702338,0.148305396080541
-0.204015188384896,0.142868143300572
-0.196903256793585,0.137526814037874
-0.189737971167645,0.132281738001583
-0.182519165658617,0.127133214390238
-0.175246691244253,0.122081512047094
-0.167920415651552,0.117126869598959
-0.160540223288772,0.112269495578856
-0.153106015186247,0.107509568532791
-0.145617708945897,0.102847237110831
-0.13807523869932,0.0982826201427228
-0.130478555074365,0.0938158066981845
-0.122827625170127,0.0894468561320165
-0.115122432540311,0.0851757981141226
-0.107362977184918,0.0810026326445024
-0.0995492755502419,0.0769273300532527
-0.0916813605371875,0.0729498309855729
-0.0837592815179052,0.0690700463717447
-0.0757831043607991,0.0652878573820223
-0.0677529114639477,0.0616031153663364
-0.0596688017970169,0.058015641778684
-0.0515308909517499,0.0545252280860398
-0.0433393112011459,0.0511316356615968
-0.0350942115674545,0.0478345956620999
-0.0267957578991344,0.0446338088890098
-0.0184441329569439,0.0415289456331901
-0.0100395365093566,0.0385196455027751
-0.00158218543751067,0.0356055172338343
0.00692768615006838,0.0327861384834072
0.0154898267927123,0.0300610556044401
0.0241039675425357,0.0274297834021044
0.0327698218187293,0.0248918048709335
0.0414870852508743,0.0224465709121572
0.0502554355109097,0.0200935000305609
0.059074532133343,0.017831978010136
0.0679440163232611,0.0156613575677262
0.0768635107516694,0.0135809579838052
0.0858326193376334,0.011590064709452
0.094850927016665,0.00968792894850934
0.103917999494748,0.00787376721383054
0.113033382987337,0.00614676085642801
0.122196603942634,0.00450605556623934
0.131407168748349,0.00295076084312473
0.140664563421142,0.00147994943659191
0.149968253277819,9.26567526243205e-05
0.159317682587319,-0.0012121197741502
0.168712274202436,-0.00243542134485381
0.178151429170122,-0.00357832849938722
0.187634526319138,-0.00464196186033172
0.197160921823692,-0.00562748292015969
0.206729948741613,-0.00653609487439932
0.216340916525452,-0.00736904350362705
0.225993110504781,-0.00812761810742108
0.235685791337806,-0.00881315249368581
0.245418194430219,-0.0094270260270698
0.255189529319034,-0.00997066474054398
0.264998979018963,-0.0104455425145862
0.274845699328601,-0.0108531823288447
0.284728818093485,-0.0111951575916229
0.294647434422754,-0.0114730935530531
0.304600617855849,-0.0116886688084212
0.314587407475285,-0.0118436168987565
0.324606810961164,-0.0119397280165455
0.334657803582587,-0.0119788508252639
0.344739327120648,-0.0119628944023557
0.354850288717061,-0.0118938303163579
0.364989559641838,-0.0117736948500721
0.375155973972653,-0.0116045913830539
0.385348327177669,-0.0113886929482588
0.395565374592618,-0.0111282449794647
0.405805829781783,-0.0108255682681413
0.41606836277122,-0.010483062150795
0.426351598141072,-0.0101032079505335
0.43665411296205,-0.00968857269974488
0.446974434559163,-0.00924181317444117
0.457311038083384,-0.00876568027508506
0.467662343869196,-0.00826302379371147
0.478026714552674,-0.0077367976130287
0.488402451920969,-0.00719006539011657
0.498787793459436,-0.00662600678556557
0.509180908557264,-0.00604792430869883
0.51957989432594,-0.00545925086126542
0.52998277097704,-0.00486355807613043
0.540387476696339,-0.00426456556461752
0.550791861939681,-0.0036661512070329
0.56119368306185,-0.00307236264649574
0.571590595172143,-0.00248743017781483
0.581980144088583,-0.00191578126247666
0.592359757235346,-0.00136205695011909
0.602726733293437,-0.000831130549215131
0.613078230370519,-0.00032812896925366
0.623411252399009,0.000141542740766942
0.633722633397489,0.000572172999176779
0.644009019132974,0.000957710609486573
0.654266845591403,0.0012917259201316
0.66449231348763,0.00156736483927433
0.674681357804225,0.00177729388134074
0.684829611010306,0.00191363381205073
0.694932358130297,0.00196787859029846
0.704984481132484,0.00193079504245891
0.714980389064964,0.00179229682430282
0.724913928771935,0.00154128334891596
0.734778268506804,0.00116542981919382
0.744565742641778,0.000650907076523599
0.75426763864722,-1.8002698629116e-05
0.763873894899318,-0.000859451156115687
0.773372653785943,-0.00189482999448365
0.782749564896333,-0.0031500280400511
0.791986619873223,-0.00465753322932122
0.801060005296394,-0.00646030610958431
0.809935522574708,-0.00862004257241633
0.818555980611885,-0.0112399180866827
0.826767676767677,-0.0145972195555029
