0.789818365217291,1.02150290786654
0.785880898683794,1.0112003089503
0.782740449738849,1.00049743275656
0.780097323833471,0.989544791544864
0.777840007855209,0.978398389305218
0.775901820247191,0.96709171477416
0.774236328806168,0.955648087080619
0.772808420234798,0.944085140785318
0.771590113622191,0.932416928429875
0.770558288599602,0.920655061499894
0.769693326676384,0.908809392771697
0.768978239870834,0.896888453930362
0.768398081485482,0.884899751489491
0.767939530752315,0.872849975390223
0.767590590042338,0.860745151068309
0.767340357930527,0.84859075342517
0.767178855107457,0.836391794258369
0.767096888156043,0.824152890675502
0.76708594111849,0.81187831955132
0.767138087887843,0.799572061526349
0.767245920490847,0.787237837024592
0.76740248969368,0.774879136082448
0.767601255300673,0.762499243309635
0.767836044175361,0.750101258971809
0.76810101448496,0.737688116947665
0.768390625012738,0.725262600140842
0.76869960863656,0.712827353799499
0.769022949262041,0.70038489710092
0.769355861643074,0.687937633286026
0.769693773633337,0.675487858573004
0.770032310498336,0.663037770036094
0.770367280984984,0.650589472601712
0.770694664898941,0.638144985287339
0.771010601982516,0.625706246787254
0.771311381920039,0.613275120492024
0.771593435325322,0.600853399014766
0.771853325588358,0.588442808285898
0.772087741476928,0.57604501126874
0.772293490404092,0.56366161134072
0.772467492285183,0.551294155378495
0.772606773918566,0.538944136580049
0.772708463833286,0.526612997052298
0.772769787554223,0.514302130189018
0.772788063241733,0.502012882860701
0.772760697668136,0.489746557435236
0.772685182498041,0.477504413646006
0.772559090843428,0.465287670321985
0.772380074067833,0.453097506992736
0.772145858816906,0.440935065379726
0.771854244255163,0.428801450784079
0.771503099490965,0.416697733379798
0.771090361173691,0.404624949420513
0.770614031248762,0.392584102366949
0.770072174857648,0.380576163941583
0.769462918371298,0.368602075116289
0.76878444754659,0.356662747038211
0.768035005796393,0.344759061898562
0.76721289256476,0.332891873748638
0.766316461799558,0.321062009266893
0.765344120515542,0.309270268480584
0.764294327441548,0.297517425445184
0.763165591746016,0.285804228884444
0.761956471835586,0.274131402793759
0.760665574221956,0.262499647009259
0.759291552452613,0.250909637744811
0.757833106101402,0.239362028098979
0.75628897981526,0.227857448533764
0.754657962413728,0.216396507326858
0.75293888603812,0.204979790998935
0.751130625347508,0.193607864717453
0.749232096758883,0.182281272678251
0.747242257729069,0.171000538466194
0.745160106076155,0.159766165395951
0.742984679338393,0.148578636833982
0.740715054168643,0.137438416502649
0.738350345762624,0.126345948767364
0.735889707319334,0.115301658907574
0.733332329532153,0.10430595337234
0.730677440109226,0.0933592200212097
0.727924303321858,0.0824618283510208
0.725072219579728,0.0716141297092385
0.722120525031829,0.0608164574943688
0.719068591192128,0.0500691273439616
0.715915824589002,0.039372437310668
0.712661666437603,0.0287266680267867
0.709305592334348,0.018132082857695
0.705847111972815,0.00758892804453308
0.702285768880371,-0.00290256716352598
0.698621140174918,-0.0133421903871105
0.694852836341206,-0.0237297460043089
0.690980501026194,-0.0340650550478979
0.68700381085301,-0.0443479551119084
0.682922475253088,-0.0545783002673214
0.678736236316109,-0.0647559609867069
0.674444868657427,-0.0748808240776405
0.670048179302676,-0.084952792624754
0.665546007589326,-0.0949717859402918
0.660938225084961,-0.10493773952307
0.65622473552211,-0.114850605025747
0.65140547474949,-0.124710350230339
0.646480410699564,-0.134516959031923
0.641449543372332,-0.144270431430499
0.636312904835331,-0.153970783530989
0.631070559239843,-0.163618047551378
0.62572260285334,-0.173212271839007
0.620269164108239,-0.182753520895061
0.61471040366707,-0.192241875407295
0.609046514504196,-0.201677432291077
0.603277722004266,-0.211060304738831
0.597404284077598,-0.220390622277988
0.591426491292758,-0.229668530837566
0.585344667026618,-0.238894192823535
0.579159167632218,-0.248067787203118
0.57287038262481,-0.257189509598226
0.56647873488649,-0.266259572388232
0.559984680889893,-0.275278204822308
0.553388710941441,-0.284245653141593
0.546691349444715,-0.293162180711467
0.539893155184563,-0.302028068164227
0.532994721632609,-0.310843613552525
0.525996677274887,-0.31960913251391
0.518899685962403,-0.328324958446888
0.511704447285477,-0.336991442698925
0.504411696972806,-0.345608954766859
0.497022207316244,-0.354177882510236
0.489536787622411,-0.362698632378118
0.481956284692309,-0.371171629649953
0.474281583330219,-0.379597318691151
0.46651360688328,-0.387976163224076
0.458653317813243,-0.396308646615185
0.450701718302015,-0.404595272179152
0.442659850892775,-0.412836563500836
0.43452879916853,-0.421033064776081
0.42630968847021,-0.429185341172342
0.4180036866565,-0.437293979210295
0.409612004907859,-0.44535958716763
0.40113589857735,-0.45338279550635
0.392576668091127,-0.461364257325017
0.383935659901705,-0.4693046488375
0.375214267497385,-0.477204669879926
0.366413932471527,-0.485065044447694
0.357536145655691,-0.492886521264553
0.34858244832104,-0.500669874385974
0.339554433452821,-0.508415903839218
0.330453747103166,-0.516125436302736
0.321282089828022,-0.523799325827825
0.31204121821452,-0.531438454605699
0.302732946505782,-0.5390437337835
0.293359148330858,-0.546616104333104
0.28392175854828,-0.554156537976986
0.274422775212626,-0.561666038175873
0.264864261674516,-0.569145641183393
0.255248348825591,-0.57659641717355
0.245577237501334,-0.584019471447469
0.235853201056095,-0.591415945726614
0.226078588126337,-0.598787019540552
0.216255825600082,-0.606133911718255
0.20638742181272,-0.613457881993105
0.196475969991931,-0.620760232732992
0.186524151977358,-0.628042310808409
0.176534742244123,-0.63530550961313
0.16651061226318,-0.642551271254073
0.156454735236164,-0.649781088929219
0.146370191247741,-0.656996509515229
0.136260172884854,-0.664199136389528
0.126127991379718,-0.671390632515438
0.115977083342343,-0.678572723823375
0.105811018158916,-0.685747202926458
0.0956335061451067,-0.692915933215252
0.0854484075586068,-0.700080853384037
0.0752597425937547,-0.707243982450294
0.0650717025036402,-0.71440742534044
0.0548886620227544,-0.721573379128713
0.0447151932974214,-0.728744140033301
0.034556081573747,-0.735922111295125
0.0244163429461172,-0.74310981209147
0.014301244536666,-0.750309887670494
0.00421632756212503,-0.757525120935835
-0.00583256614471978,-0.764758445766189
-0.0158392634474046,-0.772012962427212
-0.025797224150261,-0.779291955528623
-0.035699499019466,-0.78659891510682
-0.0455386800817656,-0.793937561585805
-0.0553068412302037,-0.801311875606105
-0.0649954665069866,-0.808726134042471
-0.0745953624950271,-0.8161849540025
-0.0840965498849027,-0.823693347283753
-0.0934881272515879,-0.831256788787653
-0.102758096966089,-0.838881303949949
-0.111893138260391,-0.846573582711781
-0.120878304437025,-0.854341131586752
-0.129696607514288,-0.862192482259938
-0.138328429001533,-0.870137487507663
-0.146750648530015,-0.878187758815529
-0.154935285188844,-0.886357348725155
-0.162847225680679,-0.894663891797264
-0.170440037802269,-0.903130707160785
-0.177647039996743,-0.911791283552261
-0.184356719151651,-0.920701624961688
-0.190269380718005,-0.930012243648607
0.789818365217291,1.02150290786654
0.783905703650936,1.01219228917962
0.777196024496029,1.0032819477702
0.769989022301555,0.994621371378722
0.762396210179965,0.986154556015201
0.75448426968813,0.977848012943092
0.746299633029301,0.969678423033466
0.737877413500819,0.961628151725599
0.729245592013574,0.953683146477875
0.72042728893631,0.945831795804689
0.711442122759676,0.938064246929718
0.702307081465374,0.930371968167886
0.693037111750874,0.92274745300559
0.683645534384188,0.915184011501689
0.674144346994313,0.907675618220437
0.664544451006272,0.900216798260408
0.65485582572949,0.892802539824042
0.645087664581051,0.885428225803742
0.635248483518752,0.878089579324757
0.625346208649547,0.870782619746559
0.61538824794669,0.863503626645149
0.605381550644005,0.856249109984126
0.595332656937161,0.849015785153772
0.58524773996262,0.841800551888431
0.575132641553169,0.834600476309407
0.564992902925539,0.827412775513062
0.554833791201864,0.820234804251238
0.544660322476531,0.81306404334665
0.534477281995646,0.805898089558377
0.524289241905531,0.798734646668231
0.514100576940679,0.791571517601974
0.503915478354179,0.784406597433189
0.49373796634037,0.777237867144394
0.483571901156943,0.770063388041311
0.473420993119568,0.762881296733375
0.463288811614432,0.755689800607465
0.453178793251544,0.748487173733166
0.443094249263122,0.741271753147156
0.433038372236105,0.734041935472009
0.423014242255163,0.726796173831067
0.413024832521927,0.719532975026346
0.403073014507355,0.712250896950929
0.393161562686566,0.704948546211042
0.383293158899204,0.697624575936192
0.373470396372948,0.690277683758489
0.363695783443191,0.682906609944551
0.353971746997952,0.675510135665406
0.344300635673695,0.668087081391487
0.33468472282477,0.66063630540133
0.32512620928666,0.65315670239381
0.315627225951006,0.645647202194923
0.306189836168428,0.638106768551041
0.296816037993504,0.630534398001437
0.287507766284766,0.622929118823636
0.278266894671264,0.615289990045762
0.26909523739612,0.607616100520673
0.259994551046465,0.599906568057155
0.250966536178245,0.592160538603911
0.242012838843595,0.58437718548249
0.233135052027759,0.576555708665631
0.224334717001901,0.568695334097863
0.215613324597581,0.560795313055437
0.206972316408159,0.552854921542954
0.198413085921936,0.544873459724287
0.189936979591427,0.536850251385567
0.181545297842786,0.528784643428232
0.173239296029075,0.520676005390279
0.165020185330755,0.512523728994018
0.156889133606511,0.504327227718773
0.148847266197271,0.496085936397088
0.140895666686043,0.487799310833122
0.133035377616006,0.479466827442013
0.125267401169067,0.471087982909088
0.117592699806977,0.46266229386789
0.110012196876874,0.454189296596055
0.102526777183042,0.445668546728173
0.0951372875264794,0.437099618984796
0.0878445372138083,0.428482106916862
0.080649298536883,0.419815622664825
0.0735523072243986,0.411099796731847
0.0665542628666764,0.402334277770462
0.0596558293147225,0.393518732382164
0.0528576350545713,0.384652844929404
0.046160273557845,0.37573631735953
0.0395643036093923,0.366768869040244
0.0330702496127956,0.357750236606169
0.026678601874476,0.348680173816163
0.0203898168670676,0.339558451421055
0.0142043174726679,0.330384857041472
0.00812249320652814,0.321159195055503
0.00214470042168807,0.311881286495925
-0.00372873750498026,0.302550968956768
-0.00949753000491044,0.293168096509014
-0.0151614191677839,0.283732539625232
-0.0207201796089534,0.274244185112998
-0.0261736183540547,0.264702936056944
-0.0315215747405574,0.255108711769315
-0.0367639203360449,0.245461447748926
-0.0419005588730458,0.235761095648436
-0.0469314262002782,0.22600762324986
-0.0518564902502044,0.216201014448276
-0.0566757510228242,0.206341269243684
-0.0613892405856756,0.196428403741007
-0.0659970230900404,0.186462450158229
-0.0704991948033898,0.176443456842691
-0.0748958841581409,0.166371488295577
-0.0791872518168235,0.156246625204644
-0.0833734907538022,0.146068964485258
-0.0874548263537243,0.135838619329845
-0.0914315165269082,0.125555719265835
-0.0953038518419203,0.115220410222246
-0.0990721556756328,0.104832854605047
-0.102736784381085,0.094393231381463
-0.106298127473529,0.0839017361734037
-0.109756607835062,0.073358581360242
-0.113112681938317,0.0627639961911501
-0.116366840089717,0.0521182269072689
-0.119519606692843,0.0414215368739753
-0.122571540532544,0.0306742067235681
-0.125523235080442,0.0198765345086985
-0.128375318822572,0.00902883586691609
-0.13112845560994,-0.00186855580327279
-0.133783345032867,-0.0128152891544033
-0.136340722820048,-0.0238109946896373
-0.138801361263338,-0.0348552845494275
-0.141166069669357,-0.0459477522847124
-0.143435694839107,-0.0570879726160453
-0.145611121576869,-0.0682755011780142
-0.147693273229783,-0.0795098742482566
-0.149683112259597,-0.0907906084603144
-0.151581640848222,-0.102117200499516
-0.153389901538834,-0.113489126780998
-0.155108977914442,-0.124905843108921
-0.156739995315974,-0.136366784315827
-0.158284121602116,-0.147871363881042
-0.159742567953327,-0.159418973526874
-0.161116589722671,-0.171008982791322
-0.1624074873363,-0.182640738575822
-0.16361660724673,-0.194313564666507
-0.164745342942262,-0.206026761227247
-0.165795136016256,-0.217779604262647
-0.166767477300272,-0.229571345048956
-0.167663908065474,-0.241401209530701
-0.168486021297107,-0.253268397680625
-0.169235463047304,-0.265172082820274
-0.169913933872013,-0.277111410898352
-0.170523190358362,-0.289085499723646
-0.171065046749477,-0.301093438149012
-0.171541376674405,-0.313134285202576
-0.171954114991679,-0.325207069161861
-0.172305259755877,-0.337310786566142
-0.17259687431762,-0.349444401161789
-0.172831089568547,-0.361606842774799
-0.173010106344142,-0.373797006104048
-0.173136197998755,-0.38601374942807
-0.17321171316885,-0.398255893217299
-0.173239078742447,-0.410522218642764
-0.173220803054937,-0.422811465971081
-0.173159479334,-0.435122332834361
-0.17305778941928,-0.447453472362112
-0.172918507785897,-0.459803491160558
-0.172744505904806,-0.472170947122783
-0.172538756977642,-0.484554347050803
-0.172304341089072,-0.496952144067961
-0.172044450826037,-0.509362734796829
-0.171762397420753,-0.521784456274087
-0.17146161748323,-0.534215582569317
-0.171145680399655,-0.546654321069402
-0.170818296485699,-0.559098808383775
-0.170483325999051,-0.571547105818157
-0.170144789134051,-0.583997194355067
-0.169806877143789,-0.596446969068089
-0.169473964762755,-0.608894232882983
-0.169150624137274,-0.621336689581563
-0.168841640513452,-0.633771935922905
-0.168552029985675,-0.646197452729728
-0.168287059676076,-0.658610594753872
-0.168052270801387,-0.671008579091698
-0.167853505194394,-0.683388471864511
-0.167696935991562,-0.695747172806655
-0.167589103388558,-0.708081397308412
-0.167536956619205,-0.720387655333383
-0.167547903656757,-0.732662226457565
-0.167629870608171,-0.744901130040432
-0.167791373431241,-0.757100089207233
-0.168041605543052,-0.769254486850372
-0.168390546253029,-0.781359311172287
-0.168849096986196,-0.793409087271554
-0.169429255371548,-0.805397789712425
-0.170144342177098,-0.81731872855376
-0.171009304100316,-0.829164397281957
-0.172041129122905,-0.840926264211938
-0.173259435735512,-0.852594476567381
-0.174687344306882,-0.864157422862682
-0.176352835747906,-0.875601050556223
-0.178291023355923,-0.886907725087281
-0.180548339334185,-0.898054127326928
-0.183191465239564,-0.909006768538619
-0.186331914184508,-0.91970964473236
-0.190269380718005,-0.930012243648607
