0.212101077741233,0.299719050168423
0.205412181206916,0.305621368939382
0.198501418691823,0.311333102804952
0.191374197766914,0.316846110210052
0.184036219393826,0.322152402373797
0.176493473627342,0.327244153713233
0.168752234951735,0.332113712146705
0.160819057254327,0.336753609264105
0.152700768440069,0.341156570351346
0.144404464691389,0.345315524256546
0.135937504377955,0.349223613085486
0.127307501621471,0.35287420171408
0.11852231952103,0.356260887105715
0.109590063044961,0.359377507421538
0.100519071595552,0.362218150911878
0.0913179112534112,0.364777164577259
0.0819953667086549,0.36704916258762
0.0725604328864971,0.369029034448616
0.0630223062752135,0.370711952904077
0.053390375964834,0.37209338156401
0.0436742144052895,0.373169082247728
0.0338835678931142,0.373935122032022
0.0240283467961546,0.374387879994559
0.0141186155260888,0.374524053642999
0.00416458226889967,0.374340665020632
-0.00582341151622897,0.37383506647969
-0.0158349018188046,0.373004946113794
-0.0258593130086101,0.371848332841367
-0.0358859689655903,0.370363601132216
-0.0459041043963648,0.368549475369828
-0.055902876325424,0.366405033842347
-0.0658713757488011,0.363929712355542
-0.0757986394377708,0.36112330746154
-0.0856736618798924,0.357985979297438
-0.0954854073444938,0.354518254028397
-0.10522282205949,0.350721025890192
-0.114874846486236,0.34659555882665
-0.124430427678944,0.342143487717866
-0.133878531715016,0.337366819195494
-0.143208156182523,0.332267932041904
-0.152408342710902,0.326849577170429
-0.161468189530841,0.321114877184415
-0.170376864049224,0.315067325513216
-0.179123615424897,0.308710785123815
-0.187697787130999,0.302049486807148
-0.19608882948947,0.295088027038764
-0.2042863121634,0.287831365413885
-0.212279936592781,0.280284821657436
-0.220059548359275,0.272454072210098
-0.227615149465592,0.264345146391923
-0.234936910515117,0.255964422145537
-0.242015182777449,0.247318621361446
-0.248840510125599,0.238414804788436
-0.255403640830653,0.22926036653256
-0.261695539199813,0.219863028148675
-0.267707397043815,0.210230832328971
-0.273430644959887,0.200372136193422
-0.278856963416512,0.190295604187557
-0.283978293626449,0.18001020059341
-0.288786848194622,0.169525181659993
-0.293275121527682,0.158850087360072
-0.297435899992264,0.147994732780505
-0.301262271809151,0.136969199153823
-0.304747636670842,0.125783824539196
-0.307885715070219,0.114449194161358
-0.310670557328321,0.102976130416468
-0.313096552309481,0.091375682554343
-0.315158435812397,0.0796591160468575
-0.316851298626016,0.0678379016527537
-0.318170594239415,0.0559237041894546
-0.319112146195232,0.0439283710228784
-0.31967215507652,0.031863920286606
-0.319847205117281,0.0197425288421216
-0.319634270427296,0.00757651999217927
-0.319030720822275,-0.00462164904030123
-0.318034327250725,-0.0168393998551039
-0.316643266809369,-0.0290640458263225
-0.314856127339359,-0.0412828052493863
-0.312671911595949,-0.0534828146699069
-0.310090040984755,-0.065651142380481
-0.307110358858178,-0.0777748020713285
-0.303733133365995,-0.0898407666204093
-0.299959059854653,-0.10183598200844
-0.29578926281021,-0.113747381344022
-0.291225297340401,-0.125561898983899
-0.286269150191791,-0.137266484733196
-0.280923240298443,-0.148848118110316
-0.275190418859081,-0.16029382266104
-0.269073968940204,-0.17159068030624
-0.262577604603138,-0.182725845707521
-0.255705469553525,-0.193686560634985
-0.248462135312276,-0.204460168321269
-0.240852598907534,-0.215034127785931
-0.232882280087748,-0.225396028114202
-0.224557018056439,-0.235533602674152
-0.215883067729832,-0.245434743256237
-0.20686709551902,-0.255087514119282
-0.197516174638875,-0.264480165926917
-0.18783777994645,-0.27360114955859
-0.177839782312168,-0.282439129779298
-0.167530442527589,-0.290982998752292
-0.156918404754115,-0.299221889379103
-0.146012689517486,-0.307145188451341
-0.134822686253483,-0.314742549598887
-0.123358145410722,-0.322003906019223
-0.111629170116995,-0.328919482972825
-0.0996462074160744,-0.33547981002974
-0.0874200390824441,-0.341675733052676
-0.0749617720218897,-0.347498425902131
-0.0622828282663856,-0.352939401849377
-0.0493949345722016,-0.357990524683304
-0.0363101116306241,-0.362644019497483
-0.0230406629011608,-0.366892483144017
-0.00959916307755245,-0.370728894341113
0.00400155380263035,-0.374146623421602
0.0177484065935886,-0.377139441709973
0.0316280796104507,-0.379701530515847
0.0456270355199163,-0.381827489732177
0.0597315285399153,-0.383512346026834
0.0739276179354192,-0.384751560616664
0.0882011817971522,-0.385541036613451
0.102537931089584,-0.385877125931723
0.116923423954232,-0.385756635748687
0.131343080253957,-0.385176834507101
0.145782196343603,-0.384135457452288
0.160225960052033,-0.38263071169502
0.174659465860293,-0.380661280792441
0.189067730260381,-0.378226328839709
0.20343570727881,-0.375325504065541
0.217748304148913,-0.371958941925344
0.231990397115596,-0.368127267686145
0.246146847356048,-0.363831598498065
0.260202516999692,-0.359073544947599
0.274142285230503,-0.353855212088538
0.287951064454626,-0.348179199946888
0.301613816516118,-0.34204860349673
0.315115568943475,-0.335467012104492
0.328441431209517,-0.328438508439714
0.341576610987096,-0.320967666850912
0.354506430383049,-0.313059551205762
0.367216342132723,-0.304719712195383
0.379691945737398,-0.295954184103089
0.391919003526908,-0.286769481038551
0.403883456629758,-0.277172592638911
0.415571440833072,-0.267170979238965
0.426969302314729,-0.256772566513118
0.438063613230128,-0.245985739592402
0.448841187136095,-0.234819336660432
0.459289094234541,-0.223282642032751
0.469394676418601,-0.211385378724601
0.479145562104143,-0.199137700512726
0.488529680829658,-0.186550183497396
0.497535277607755,-0.173633817171393
0.506150927011656,-0.160399995003277
0.514365546980326,-0.146860504542796
0.522168412326076,-0.133027517056868
0.529549167928755,-0.118913576705089
0.536497841600914,-0.104531589264266
0.543004856608595,-0.0898948104120127
0.54906104383273,-0.0750168335799383
0.55465765355644,-0.059911577387497
0.559786366863876,-0.0445932726680454
0.564439306636595,-0.0290764490991549
0.568609048133843,-0.0133759214497007
0.572288629143502,0.00249322454328778
0.575471559690879,0.0185156466545661
0.578151831292918,0.0346757609935326
0.580323925745859,0.0509577571556784
0.581982823434841,0.0673456136879205
0.583124011154366,0.0838231138526796
0.583743489429079,0.1003738616752
0.583837779324759,0.116981298258236
0.583403928739953,0.133628718347854
0.5824395181692,0.150299287133804
0.580942665929302,0.166976057267545
0.578912032840678,0.183641986080742
0.576346826356339,0.200279952986737
0.573246804131635,0.216872777047262
0.569612277028451,0.233403234686361
0.565444111548152,0.24985407753331
0.560743731688128,0.266208050376071
0.555513120217417,0.282447909206634
0.549754819367458,0.298556439339426
0.543471930934676,0.314516473583821
0.536668115792173,0.330310910451617
0.529347592808459,0.345922732380266
0.521515137171752,0.361335023952531
0.513176078119031,0.376530990093156
0.50433629606965,0.39149397422311
0.495002219163948,0.406207476351904
0.485180819207943,0.42065517108848
0.474879607025827,0.434820925551175
0.464106627222629,0.4486888171573
0.452870452360037,0.4622431512729
0.441180176549029,0.47546847870337
0.429045408463581,0.488349613005641
0.416476263780368,0.50087164760283
0.403483357050006,0.513019972682303
0.390077793006,0.524780291858326
0.376271157318209,0.536138638580612
0.36207550679823,0.547081392270272
0.347503359064748,0.557595294164916
0.332567681677482,0.567667462854853
0.317281880748977,0.577285409492637
0.301659789044058,0.586437052658436
0.285715653577388,0.595110732864044
0.269464122720112,0.60329522667863
0.252920232827137,0.610979760459692
0.236099394397196,0.618154023672997
0.219017377778321,0.624808181785715
0.201690298431951,0.630932888717272
0.184134601769373,0.636519298832944
0.166367047574732,0.64155907846555
0.148404694029329,0.646044416951131
0.13026488135241,0.649968037164893
0.111965215074114,0.653323205544214
0.0935235489567093,0.656103741585976
0.0749579675806717,0.658304026806031
0.0562867686125849,0.659919013149084
0.0375284447722527,0.660944230837846
0.018701665516788,0.661375795650861
-0.000174741540179872,0.661210415618956
-0.0190818094556817,0.660445397130857
-0.0380004510121473,0.659078650439099
-0.0569114779805717,0.65710869455795
-0.0757956205726632,0.654534661545703
-0.0946335470622704,0.651356300164282
-0.113405883556121,0.647573978909773
-0.132093233893669,0.643188688408096
-0.150676199655633,0.638202043170728
-0.169135400260628,0.632616282705991
-0.187451493129085,0.626434271982142
-0.205605193893552,0.619659501239118
-0.223577296634293,0.612296085146505
-0.241348694119026,0.604348761305967
-0.258900398025547,0.595822888097055
-0.276213559125903,0.586724441866004
-0.293269487410781,0.577060013457836
-0.310049672132719,0.566836804092758
-0.326535801746764,0.556062620588552
-0.342709783727243,0.544745869931361
-0.358553764239344,0.532895553197941
-0.374050147644278,0.520521258833191
-0.389181615816905,0.507633155287411
-0.403931147254809,0.494241983018496
-0.418282035957944,0.480359045864891
-0.432217910058159,0.465996201795883
-0.445722750178076,0.451165853046447
-0.458780907498998,0.435880935644547
-0.471377121517785,0.420154908339471
-0.483496537472852,0.40400174094044
-0.495124723419741,0.387435902075375
-0.506247686937006,0.370472346380364
-0.516851891443473,0.353126501131017
-0.526924272108269,0.3354142523275
-0.536452251335368,0.317351930245697
-0.545423753804809,0.298956294467501
-0.553827221053106,0.280244518403905
-0.561651625575812,0.261234173325073
-0.568886484435632,0.24194321191219
-0.575521872359941,0.22238995134644
-0.581548434312036,0.202593055950979
-0.58695739752095,0.182571519402333
-0.591740582955166,0.162344646528145
-0.595890416226104,0.141932034708674
-0.599399937907797,0.121353554899981
-0.602262813259728,0.10062933229714
-0.60447334134041,0.0797797266562919
-0.606026463499832,0.0588253122947883
-0.606917771239562,0.0377868577890566
-0.607143513429863,0.0166853053902184
-0.606700602873876,-0.00445824982212197
-0.605586622209501,-0.025622581027183
-0.603799829140345,-0.0467863509703233
-0.601339160987698,-0.0679281334689767
-0.598204238556263,-0.0890264350955568
-0.594395369306977,-0.110059717015369
-0.589913549831036,-0.131006416957377
-0.584760467619893,-0.151844971295413
-0.578938502126742,-0.17255383721726
-0.572450725115726,-0.193111514958824
-0.565300900295841,-0.213496570080494
-0.557493482237217,-0.233687655762647
-0.549033614568256,-0.253663535097168
-0.539927127452797,-0.273403103351734
-0.530180534347257,-0.292885410183641
-0.519801028038453,-0.312089681779817
-0.508796475963556,-0.33099534289974
-0.497175414814371,-0.349582038797976
-0.484947044428931,-0.367829657003072
-0.472121220974097,-0.385718348929633
-0.458708449423661,-0.403228551300511
-0.444719875337163,-0.420341007356112
-0.430167275945399,-0.437036787828013
-0.415063050549341,-0.453297311654225
-0.399420210239935,-0.469104366413613
-0.383252366946946,-0.484440128457257
-0.366573721825816,-0.499287182714687
-0.349399052992141,-0.513628542153272
-0.331743702614149,-0.527447666869285
-0.313623563374247,-0.540728482789473
-0.295055064311385,-0.553455399962321
-0.2760551560567,-0.565613330418532
-0.256641295475563,-0.577187705580624
-0.236831429729815,-0.588164493201967
-0.21664397977464,-0.598530213815974
-0.196097823305154,-0.608271956676627
-0.17521227716841,-0.617377395171986
-0.154007079257151,-0.625834801692789
-0.13250236990222,-0.633633061938786
-0.110718672781107,-0.64076168864597
-0.0886768753607174,-0.647210834718392
-0.0663982088929488,-0.652971305748841
-0.0439042279822074,-0.658034571913237
-0.0212167897445285,-0.66239277922418
0.00164196742158058,-0.666038760129732
0.0246496454319495,-0.668966043444126
0.0477836084601646,-0.671168863597764
0.0710210052060784,-0.672642169194508
0.0943387914675218,-0.673381630864968
0.117713752992918,-0.673383648405183
0.141122528592134,-0.67264535719078
0.164541633482568,-0.671164633857444
0.187947482847129,-0.668940101239236
0.211316415580503,-0.665971132557058
0.234624718199781,-0.662257854850317
0.257848648895301,-0.657801151645581
0.280964461697334,-0.652602664856827
0.303948430734005,-0.64666479591263
0.326776874555726,-0.639990706106442
0.349426180501194,-0.632584316166915
0.371872829079934,-0.624450305045998
0.394093418346252,-0.615594107923361
0.416064688239364,-0.606021913426499
0.437763544864477,-0.595740660066687
0.459167084689498,-0.584758031891768
0.480252618632109,-0.573082453357565
0.500997696011972,-0.56072308342054
0.521380128342841,-0.547689808855125
0.54137801293949,-0.53399323679998
0.560969756314467,-0.519644686538216
0.580134097339773,-0.504656180517489
0.598850130148803,-0.489040434616602
0.617097326754002,-0.472810847666135
0.634855559355964,-0.455981490231354
0.652105122319896,-0.438567092666472
0.668826753795646,-0.420583032450144
0.685001656957832,-0.402045320812778
0.700611520842828,-0.382970588667123
0.715638540759829,-0.363376071854223
0.730065438253457,-0.343279595717714
0.743875480595881,-0.322699559020052
0.757052499786737,-0.301654917215072
0.769580911039646,-0.280165165091947
0.781445730734556,-0.258250318806344
0.792632593815623,-0.23593089731522
0.80312777061487,-0.213227903232413
0.812918183082371,-0.190162803122814
0.821991420404278,-0.166757507253547
0.830335753990577,-0.143034348821212
0.837940151815049,-0.119016062674823
0.844794292090519,-0.0947257635547254
0.85088857626314,-0.0701869238682199
0.856214141310061,-0.0454233510233273
0.860762871325557,-0.0204591643424914
0.864527408381338,0.00468122842137379
0.867501162647473,0.029973154943608
0.86967832176111,0.0553917025380533
0.871053859430879,0.0809117426949848
0.871623543265623,0.106507955922648
0.871383941816878,0.132154856867752
0.870332430825305,0.15782681969009
0.868467198662033,0.18349810366593
0.865787250956729,0.209142878994678
0.862292414404977,0.23473525278289
0.857983339748406,0.26024929517951
0.852861503921811,0.285659065635991
0.846929211362377,0.310938639264673
0.84018959447696,0.336062133268676
0.832646613264222,0.361003733416383
0.824305054089284,0.385737720533449
0.815170527609461,0.410238496985172
0.805249465850433,0.434480613122039
0.794549118433196,0.458438793661084
0.783077547952892,0.482087963975871
0.770843624511592,0.505403276267704
0.757857019407935,0.528360135590909
0.74412819798739,0.550934225704957
0.729668411657872,0.573101534726328
0.714489689076167,0.594838380553218
0.698604826511676,0.616121436036185
0.682027377394672,0.636927753868191
0.66477164105729,0.657234791167538
0.646852650676191,0.677020433727567
0.628286160426792,0.696263019907151
0.609088631859737,0.714941364136369
0.589277219511135,0.733034780012036
0.568869755758927,0.75052310295811
0.547884734938525,0.767386712426393
0.526341296731722,0.783606553613298
