1.05,0.105515782806268
1.03932506365787,0.100770505479664
1.02872815061194,0.0961199275204562
1.01820870892863,0.0915628620249722
1.00776620046706,0.087098138984587
0.997400100483828,0.0827246048352657
0.987109897248995,0.0784411220207332
0.976895091672813,0.0742465685688131
0.966755196942938,0.0701398376804871
0.956689738171714,0.0661198373312621
0.946698252053211,0.0621854898844263
0.936780286529707,0.058335731715808
0.926935400467293,0.0545695128496552
0.917163163340321,0.0508857966052757
0.907463154924384,0.0472835592540847
0.897834964997584,0.0437617896867233
0.888278193049794,0.0403194890899247
0.878792447999683,0.0369556706328133
0.869377347919249,0.0336693591623374
0.860032519765615,0.0304595909075434
0.850757599119875,0.0273254131924115
0.841552229932771,0.0242658841569875
0.832416064276967,0.021280072486543
0.823348762105748,0.0183670571485214
0.814349991017925,0.0155259271370228
0.805419426028763,0.0127557812245957
0.79655674934675,0.0100557277211123
0.787761650156034,0.00742488423950837
0.779033824404348,0.0048623774681778
0.770372974596273,0.00236734294982326
0.761778809591665,-6.10751334371787e-05
0.753251044409106,-0.00242372416889131
0.744789400034225,-0.00472144331616781
0.73639360323275,-0.00695506370445837
0.728063386368147,-0.00912540862419637
0.719798487223724,-0.0112332937133592
0.711598648829056,-0.0132795271385475
0.703463619290629,-0.0152649097710015
0.695393151626557,-0.017190235357696
0.687387003605283,-0.0190562906876603
0.679444937588125,-0.0208638557536618
0.671566720375585,-0.0226137039093855
0.663752123057298,-0.0243066020222414
0.656000920865528,-0.0259433106219207
0.648312893032106,-0.0275245840448278
0.640687822648732,-0.0290511705744998
0.633125496530526,-0.0305238125781303
0.625625705082761,-0.0319432466393084
0.618188242170676,-0.0333102036870732
0.610812904992299,-0.0346254091213956
0.603499493954193,-0.0358895829351788
0.596247812550044,-0.0371034398328801
0.589057667242023,-0.0382676893458441
0.581928867344852,-0.0393830359444392
0.574861224912488,-0.0404501791470849
0.567854554627373,-0.0414698136262565
0.560908673692176,-0.0424426293115459
0.554023401723967,-0.0433693114898634
0.547198560650754,-0.0442505409028537
0.540433974610329,-0.0450869938416049
0.533729469851368,-0.0458793422387199
0.527084874636714,-0.0466282537578234
0.520500019148807,-0.0473343918805731
0.513974735397193,-0.0479984159912397
0.507508857128072,-0.0486209814589218
0.501102219735818,-0.049202739717459
0.49475466017645,-0.0497443383431018
0.488466016882975,-0.0502464211299994
0.482236129682587,-0.0507096281635615
0.476064839715654,-0.0511345958917512
0.469951989356463,-0.051521957194361
0.463897422135685,-0.0518723414503259
0.457900982664502,-0.0521863746031255
0.451962516560376,-0.0524646792243206
0.446081870374414,-0.0527078745752786
0.440258891520286,-0.0529165766671286
0.43449342820467,-0.0530913983189961
0.428785329359185,-0.0532329492145585
0.423134444573779,-0.053341835956966
0.417540624031534,-0.0534186621221696
0.412003718444865,-0.0534640283106967
0.406523578993074,-0.053478532197913
0.401100057261233,-0.0534627685828102
0.395733005180368,-0.0534173294353576
0.390422274968907,-0.0533428039424518
0.385167719075377,-0.0532397785525017
0.379969190122312,-0.0531088370186828
0.374826540851352,-0.0529505604408947
0.369739624069503,-0.0527655273064542
0.364708292596541,-0.0525543135295547
0.359732399213523,-0.0523174924895258
0.354811796612397,-0.0520556350679205
0.349946337346673,-0.0517693096844605
0.345135873783148,-0.0514590823318685
0.340380258054642,-0.0511255166096153
0.335679342013757,-0.0507691737566082
0.331032977187599,-0.0503906126828486
0.326441014733472,-0.049990390000083
0.321903305395518,-0.0495690600514747
0.317419699462275,-0.049127174940318
0.312990046725141,-0.0486652845578217
0.308614196437732,-0.0481839366099839
0.304291997276104,-0.0476836766435804
0.300023297299829,-0.0471650480712902
0.295807943913908,-0.0466285921959795
0.291645783831511,-0.046074848234164
0.287536663037504,-0.0455043533386727
0.283480426752787,-0.0449176426205312
0.279476919399388,-0.0443152491700854
0.275525984566323,-0.0436977040773844
0.271627464976204,-0.0430655364518418
0.267781202452572,-0.0424192734411931
0.26398703788795,-0.0417594402497679
0.2602448112126,-0.0410865601560937
0.256554361363969,-0.0404011545298502
0.252915526256815,-0.0397037428481876
0.249328142753999,-0.0389948427114283
0.245792046637928,-0.0382749698581671
0.242307072582642,-0.037544638179785
0.238873054126532,-0.0368043597343922
0.235489823645672,-0.0360546447602157
0.232157212327768,-0.0352960016884457
0.228875050146692,-0.0345289371555557
0.225643165837615,-0.0337539560151089
0.222461386872705,-0.0329715613490671
0.219329539437401,-0.0321822544786132
0.216247448407235,-0.0313865349745015
0.213214937325207,-0.0305849006669489
0.210231828379691,-0.0297778476550794
0.207297942382876,-0.0289658703159339
0.204413098749717,-0.0281494613130581
0.201577115477408,-0.0273291116046799
0.19878980912534,-0.026505310451488
0.19605099479557,-0.0256785454240237
0.193360486113757,-0.0248493024096962
0.190718095210588,-0.0240180656194326
0.188123632703665,-0.0231853175939746
0.185576907679854,-0.0223515392098304
0.183077727678084,-0.0215172096848939
0.180625898672597,-0.0206828065837404
0.178221225056631,-0.0198488058226092
0.175863509626534,-0.019015681674083
0.173552553566301,-0.0181839067714735
0.171288156432531,-0.0173539521129224
0.169070116139786,-0.016526287065228
0.166898228946359,-0.0157013793674057
0.164772289440437,-0.0148796951339914
0.162692090526649,-0.0140616988580973
0.160657423413,-0.0132478534142278
0.158668077598184,-0.0124386200608655
0.156723840859261,-0.0116344584428339
0.154824499239707,-0.010835826593446
0.152969837037809,-0.0100431809364476
0.151159636795428,-0.00925697628776155
0.149393679287097,-0.00847766585704274
0.147671743509465,-0.00770570124904996
0.145993606671072,-0.00694153246484337
0.144359044182457,-0.00618560790281469
0.142767829646589,-0.00543837435955727
0.141219734849617,-0.00470027703058398
0.139714529751929,-0.00397175951089945
0.138251982479524,-0.00325326379543422
0.136831859315685,-0.00254523027934764
0.135453924692947,-0.00184809775820637
0.134117941185361,-0.00116230342804545
0.132823669501042,-0.000488282885318497
0.131570868475,0.000173529873256129
0.130359295062253,0.000822702450946853
0.129188704331204,0.00145880405135146
0.128058849457291,0.00208140547882428
0.126969481716901,0.00269007913898197
0.12592035048154,0.00328439903928112
0.124911203212254,0.00386394078966201
0.123941785454306,0.00442828160325201
0.123011840832087,0.00497700029712286
0.122121111044279,0.00550967729309563
0.121269335859241,0.00602589461858753
0.120456253110637,0.00652523590749462
0.119681598693279,0.00700728640110478
0.1189451065592,0.00747163294903491
0.118246508713946,0.00791786401018685
0.117585535213068,0.00834556965371635
0.11696191415884,0.00875434156000926
0.116375371697169,0.00914377302165971
0.11582563201471,0.00951345894444436
0.115312417336178,0.00986299584828773
0.114835447921846,0.0101919818682125
0.114394442065238,0.0105000167552699
0.113989116091,0.010786701877445
0.113619184352948,0.0110516402205303
0.113284359232301,0.0112944363889643
0.112984351136071,0.0115146966066279
0.11271886849563,0.0117120287175944
0.112487617765434,0.0118860421868274
0.112290303421907,0.0120363481008224
0.112126627962476,0.0121625591681847
0.111996291904763,0.0122642897201415
0.111898993785913,0.01234115571098
0.111834430162073,0.0123927747184083
0.111802295607999,0.0124187659438342
0.111802282716805,0.0124187502125543
0.111834082099835,0.012392349973852
0.111897382386666,0.0123391893009959
0.11199187022522,0.0122588938911356
0.112117230282009,0.0121510910650894
0.112273145242478,0.012015409767018
0.112459295811468,0.0118514805639805
0.112675360713769,0.0116589356453663
0.112921016694789,0.0114374088221986
0.113195938521307,0.0111865355263047
0.113499798982321,0.0109059528093468
0.113832268889981,0.0105952993417098
0.114193017080613,0.0102542154112392
0.114581710415807,0.00988234292182616
0.114998013783596,0.00947932539183268
0.115441590099687,0.00904480795235248
0.115912100308773,0.00857843734530277
0.116409203385899,0.00807986192134137
0.116932556337881,0.00754873163760388
0.117481814204783,0.00698469805525599
0.11805663006144,0.00638741433685557
0.118656655019025,0.00575653524351916
0.119281538226648,0.00509171713188773
0.119930926872998,0.00439261795088631
0.120604466188009,0.00365889723827224
0.121301799444548,0.00289021611696631
0.12202256796013,0.00208623729116193
0.122766411098644,0.00124662504220633
0.123532966272083,0.000371045224248495
0.124321868942292,-0.000540834740351555
0.125132752622706,-0.0014893458658581
0.125965248880087,-0.00247481760824491
0.126818987336251,-0.00349757787053639
0.127693595669781,-0.00455795300841011
0.128588699617718,-0.00565626783606659
0.129503922977229,-0.00679284563237242
0.130438887607241,-0.00796800814728234
0.131393213430046,-0.00918207560854636
0.132366518432857,-0.0104353667287082
0.133358418669324,-0.0117281987124006
0.13436852826099,-0.0130608872639446
0.135396459398701,-0.014433746595258
0.136441822343939,-0.0158470894340801
0.137504225430094,-0.0173012270325188
0.138583275063663,-0.0187964691759267
0.13967857572536,-0.0203331241921129
0.140789729971143,-0.0219114989608966
0.141916338433154,-0.0235318989240098
0.143057999820545,-0.0251946280953564
0.144214310920216,-0.0268999890716332
0.145384866597426,-0.0286482830433215
0.146569259796296,-0.030439809806055
0.147767081540181,-0.032274867772373
0.148977920931914,-0.0341537539838644
0.150201365153907,-0.036076764123711
0.151436999468115,-0.0380441925296383
0.152684407215836,-0.0400563322072801
0.153943169817365,-0.042113474843966
0.155212866771467,-0.0442159108229392
0.15649307565469,-0.0463639292380128
0.157783372120482,-0.0485578179086735
0.159083329898136,-0.0507978633956397
0.16039252079152,-0.053084351016885
0.161710514677616,-0.0554175648641324
0.163036879504838,-0.0577977878198321
0.164371181291133,-0.0602253015746285
0.165712984121852,-0.0627003866453275
0.167061850147381,-0.0652233223933736
0.168417339580528,-0.0677943870438451
0.169779010693652,-0.0704138577049786
0.171146419815532,-0.0730820103882315
0.172519121327956,-0.0757991200288941
0.173896667662036,-0.0785654605072604
0.175278609294217,-0.0813813046703692
0.176664494742001,-0.0842469243543245
0.178053870559345,-0.0871625904072096
0.179446281331742,-0.0901285727126026
0.180841269670974,-0.0931451402137066
0.182238376209512,-0.0962125609381066
0.183637139594569,-0.0993311020231642
0.185037096481792,-0.102501029742062
0.186437781528565,-0.105722609530515
0.187838727386939,-0.10899610601415
0.189239464696156,-0.11232178303658
0.190639522074757,-0.115699903688185
0.19203842611228,-0.119130730335595
0.19343570136051,-0.122614524651916
0.194830870324285,-0.126151547647697
0.196223453451843,-0.129742059702652
0.19761296912469,-0.133386320598162
0.198998933646983,-0.13708458955056
0.200380861234407,-0.140837125245228
0.201758264002539,-0.144644185871513
0.203130651954678,-0.148506029158475
0.204497532969133,-0.152422912411502
0.205858412785941,-0.156395092549784
0.207212794993018,-0.160422826144685
0.208560181011712,-0.164506369459023
0.209900070081746,-0.168645978487273
0.211231959245537,-0.172841908996717
0.212555343331869,-0.177094416569559
0.213869714938908,-0.181403756646031
0.215174564416535,-0.185770184568496
0.216469379847987,-0.190193955626585
0.217753647030771,-0.194675325103381
0.219026849456857,-0.199214548322671
0.2202884682921,-0.203811880697302
0.221537982354899,-0.20846757777864
0.222774868094049,-0.213181895307181
0.223998599565782,-0.217955089264329
0.225208648409964,-0.222787415925354
0.226404483825426,-0.227679131913583
0.227585572544421,-0.232630494255824
0.228751378806155,-0.237641760439064
0.229901364329394,-0.242713188468473
0.231034988284112,-0.247845036926728
0.232151707262153,-0.253037565034702
0.233250975246875,-0.258291032713541
0.234332243581767,-0.26360570064816
0.235394960937994,-0.268981830352194
0.236438573280848,-0.274419684234434
0.237462523835076,-0.279919525666784
0.238466253049053,-0.285481619053776
0.239449198557772,-0.29110622990367
0.240410795144618,-0.296793624901193
0.241350474701889,-0.302544071981935
0.242267666190036,-0.30835784040846
0.243161795595591,-0.31423520084816
0.244032285887733,-0.320176425452895
0.244878556973471,-0.326181787940472
0.245700025651395,-0.332251563677993
0.24649610556397,-0.33838602976713
0.247266207148317,-0.344585465131362
0.248009737585449,-0.350850150605232
0.24872610074792,-0.357180369025672
0.249414697145846,-0.363576405325441
0.250074923871243,-0.370038546628734
0.250706174540647,-0.376567082349016
0.251307839235966,-0.383162304289135
0.251879304443509,-0.389824506743775
0.252419952991154,-0.396553986604305
0.25292916398359,-0.403351043466082
0.253406312735586,-0.410215979738285
0.253850770703242,-0.417149100756326
0.25426190541314,-0.424150714896922
0.254639080389367,-0.431221133695886
0.254981655078329,-0.438360671968715
0.255288984771297,-0.445569647934046
0.255560420524633,-0.452848383340055
0.255795309077616,-0.460197203593883
0.255992992767808,-0.467616437894158
0.25615280944389,-0.475106419366716
0.256274092375888,-0.482667485203585
0.256356170162729,-0.490299976805344
0.256398366637029,-0.498004239926922
0.256400000767061,-0.505780624826965
0.256360386555793,-0.513629486420834
0.25627883293693,-0.521551184437372
0.256154643667864,-0.529546083579509
0.255987117219451,-0.537614553688837
0.255775546662503,-0.545756969914268
0.255519219550924,-0.553973712884869
0.255217417801366,-0.562265168887018
0.254869417569321,-0.57063173004599
0.254474489121528,-0.579073794512112
0.2540318967046,-0.587591766651599
0.253540898409741,-0.596186057242241
0.253000746033444,-0.604857083674044
0.252410684934055,-0.613605270155006
0.251769953884064,-0.62243104792216
0.251077784917995,-0.631334855458038
0.250333403175776,-0.640317138712738
0.249536026741423,-0.649378351331744
0.248684866476919,-0.658518954889681
0.24777912585112,-0.667739419130181
0.246818000763552,-0.677040222212057
0.245800679362911,-0.686421850961963
0.244726341860134,-0.695884801133758
0.243594160335838,-0.705429577674762
0.242403298541973,-0.715056694999143
0.241152911697486,-0.724766677268639
0.239842146277817,-0.734560058680851
0.238470139798026,-0.744437383765355
0.237036020589336,-0.754399207687878
0.235538907568892,-0.76444609656279
0.233977910002509,-0.774578627774184
0.232352127260175,-0.784797390305835
0.23066064856408,-0.795102985080303
0.228902552728914,-0.805496025307496
0.227076907894186,-0.815977136843001
0.22518277124829,-0.826546958556508
0.223219188744049,-0.837206142710655
0.221185194805444,-0.847955355350648
0.219079812025229,-0.858795276705021
0.216902050853131,-0.869726601597909
0.214650909274298,-0.880750039873221
0.212325372477673,-0.891866316831126
0.209924412513941,-0.903076173677279
0.207446987942687,-0.91438036798521
0.204892043468387,-0.925779674172351
