-0.585501760164637,0.898209366391185
-0.584657908752508,0.888513448418445
-0.583042100674091,0.878808547916661
-0.58094460707053,0.869098042496351
-0.578473434705754,0.859383188929995
-0.57569316844349,0.849664738730521
-0.572648780501849,0.839943215197063
-0.569374280097623,0.830219014062687
-0.565896768327454,0.820492450677202
-0.562238638577678,0.810763785611249
-0.558418892467403,0.801033239968683
-0.554453983818864,0.791301005207061
-0.550358389354932,0.781567249778303
-0.546145010993725,0.771832123809819
-0.541825469118301,0.762095762517006
-0.537410322376099,0.752358288760852
-0.532909236293382,0.742619815009937
-0.528331115215182,0.732880444875695
-0.523684207328847,0.723140274334476
-0.518976189517785,0.713399392714904
-0.514214236823576,0.70365788350615
-0.509405079972684,0.693915825027303
-0.504555053514956,0.684173290987527
-0.499670136482618,0.674430350959158
-0.49475598702152,0.664687070780686
-0.489817972113845,0.654943512902601
-0.484861193265632,0.645199736686301
-0.479890508848336,0.635455798664055
-0.474910553643779,0.625711752766434
-0.469925756034577,0.615967650522332
-0.464940353198807,0.606223541235782
-0.459958404602421,0.596479472142947
-0.454983804031281,0.586735488552125
-0.450020290363553,0.576991633969105
-0.445071457250062,0.567247950209799
-0.44014076184345,0.55750447750182
-0.435231532695111,0.54776125457637
-0.430346976920949,0.538018318751621
-0.425490186722199,0.528275706008592
-0.420664145335274,0.518533451060382
-0.415871732474316,0.508791587415498
-0.411115729321545,0.499050147435925
-0.406398823113221,0.489309162390489
-0.401723611362903,0.479568662503995
-0.397092605758439,0.469828677002577
-0.392508235764695,0.46008923415562
-0.387972851960141,0.45035036131458
-0.383488729132187,0.440612084949004
-0.37905806915325,0.430874430679997
-0.374683003657121,0.421137423311366
-0.370365596533017,0.411401086858634
-0.366107846252853,0.401665444576128
-0.361911688045628,0.391930518982276
-0.357778995931395,0.382196331883275
-0.353711584625982,0.372462904395257
-0.349711211326589,0.362730256965061
-0.345779577387318,0.352998409389734
-0.3419183298929,0.343267380834844
-0.338129063138034,0.333537189851688
-0.334413320019136,0.323807854393491
-0.330772593344602,0.314079391830652
-0.327208327069219,0.304351818965105
-0.323721917457786,0.294625152043864
-0.320314714182631,0.284899406771786
-0.316988021359259,0.27517459832363
-0.313743098524037,0.265450741355428
-0.310581161557491,0.255727850015232
-0.307503383556482,0.246005937953258
-0.304510895658276,0.236285018331481
-0.301604787819287,0.226565103832691
-0.298786109551017,0.216846206669062
-0.296055870615568,0.207128338590238
-0.293415041682869,0.197411510890986
-0.290864554951623,0.187695734418421
-0.28840530473582,0.177981019578828
-0.286038148018511,0.168267376344108
-0.283763904974415,0.158554814257857
-0.281583359462823,0.148843342441104
-0.279497259492126,0.139132969597715
-0.277506317657228,0.129423704019483
-0.27561121155097,0.119715553590913
-0.273812584150642,0.110008525793723
-0.272111044180557,0.100302627711064
-0.270507166451586,0.0905978660314636
-0.269001492178498,0.0808942470525271
-0.267594529275857,0.0711917766843749
-0.266286752633196,0.0614904604528473
-0.265078604370108,0.0517903035024714
-0.263970494071852,0.0420913105992033
-0.262962799006004,0.0323934861329486
-0.262055864320664,0.022696834119869
-0.261250003224641,0.013001358204479
-0.260545497150048,0.00330706166153774
-0.259942595897632,-0.00638605260225996
-0.259441517765186,-0.0160779820467893
-0.259042449659309,-0.0257687244971951
-0.25874554719076,-0.0354582781427821
-0.258550934753607,-0.0451466415360946
-0.258458705588347,-0.0548338135921809
-0.258468921829129,-0.0645197935880449
-0.25858161453518,-0.0742045811622799
-0.258796783706499,-0.0838881763148855
-0.25911439828386,-0.0935705794072688
-0.259534396133114,-0.103251791162426
-0.260056684013764,-0.112931812665308
-0.260681137531742,-0.122610645363372
-0.261407601076289,-0.132288291067312
-0.262235887740806,-0.141964751951985
-0.2631657792275,-0.151640030557513
-0.264197025735624,-0.161314129790592
-0.265329345833065,-0.170987052925983
-0.266562426311014,-0.180658803608198
-0.267895922021371,-0.190329385853399
-0.26932945569656,-0.199998804051493
-0.270862617751322,-0.209667062968435
-0.272494966066065,-0.219334167748752
-0.274226025751253,-0.229000123918285
-0.276055288892325,-0.238664937387154
-0.277982214274511,-0.248328614452964
-0.280006227086941,-0.257991161804245
-0.2821267186053,-0.267652586524145
-0.284343045852299,-0.277312896094381
-0.286654531235096,-0.286972098399462
-0.28906046215879,-0.296630201731179
-0.291560090614987,-0.306287214793398
-0.294152632744397,-0.315943146707147
-0.2968372683723,-0.325598007016024
-0.299613140515647,-0.335251805691929
-0.302479354860448,-0.344904553141147
-0.305434979207998,-0.354556260210792
-0.308479042888369,-0.364206938195632
-0.311610536139459,-0.373856598845312
-0.314828409449766,-0.383505254372005
-0.318131572862876,-0.393152917458501
-0.321518895241523,-0.402799601266774
-0.324989203488846,-0.412445319447042
-0.328541281724319,-0.422090086147355
-0.332173870411575,-0.431733916023747
-0.335885665435109,-0.441376824250975
-0.339675317122594,-0.451018826533898
-0.343541429209228,-0.460659939119529
-0.347482557740228,-0.470300178809802
-0.351497209907194,-0.479939562975115
-0.355583842813714,-0.489578109568694
-0.359740862165085,-0.499215837141837
-0.36396662087658,-0.508852764860111
-0.368259417594093,-0.518488912520562
-0.372617495120428,-0.528124300570031
-0.377039038739753,-0.537758950124649
-0.381522174432019,-0.547392882990613
-0.386064966968224,-0.55702612168635
-0.390665417876454,-0.566658689466188
-0.395321463267492,-0.576290610345651
-0.400030971507547,-0.585921909128545
-0.404791740724202,-0.595552611435974
-0.409601496130047,-0.605182743737487
-0.414457887146612,-0.614812333384539
-0.419358484309032,-0.624441408646515
-0.424300775929456,-0.634069998749548
-0.429282164494328,-0.643698133918445
-0.434299962767387,-0.65332584542203
-0.439351389566413,-0.662953165622289
-0.444433565177264,-0.67258012802773
-0.449543506363528,-0.682206767351451
-0.454678120923967,-0.69183311957447
-0.45983420174268,-0.701459222014961
-0.465008420268273,-0.711085113404125
-0.470197319348102,-0.720710833969574
-0.475397305331343,-0.730336425527222
-0.48060463933983,-0.739961931582856
-0.485815427587701,-0.749587397444776
-0.491025610609004,-0.759212870349144
-0.496230951225662,-0.768838399599992
-0.501427021055059,-0.778464036726216
-0.506609185315372,-0.788089835658385
-0.511772585635149,-0.79771585292877
-0.516912120508348,-0.807342147898767
-0.522022422952787,-0.816968783018869
-0.527097834822616,-0.826595824127562
-0.532132377085609,-0.836223340797185
-0.537119715191919,-0.8458514067369
-0.542053118415082,-0.855480100265799
-0.546925411713518,-0.865109504873049
-0.551728918203819,-0.874739709887277
-0.556455389698637,-0.884370811284831
-0.561095921852941,-0.894002912677146
-0.565640849140465,-0.903636126532804
-0.570079612913773,-0.913270575712789
-0.574400592789807,-0.9229063954325
-0.578590886850446,-0.932543735819347
-0.582636018372823,-0.942182765325252
-0.586519533534699,-0.951823675407768
-0.59022243071697,-0.961466687170753
-0.593722316533297,-0.971112061184846
-0.596992089887039,-0.980760112799858
-0.599997741561404,-0.990411237748854
-0.602694299338281,-1.00006595933097
-0.605017178353943,-1.00972502905913
-0.606858371844461,-1.01938970370581
-0.607927608668691,-1.02906336088154
-0.585501760164637,0.898209366391185
-0.586570996988867,0.888535709215454
-0.588412190479385,0.878871034568769
-0.590735069495047,0.869211964840609
-0.593431627271924,0.859557243258496
-0.596437278946289,0.8499061183095
-0.599707052300031,0.840258066694488
-0.603206938116357,0.830612692680395
-0.606909835298628,0.82096968091741
-0.610793350460505,0.811328770834894
-0.614838481982881,0.801689741328989
-0.619028776043521,0.792052400942142
-0.623349755919555,0.782416581222431
-0.627788519692862,0.772782132042445
-0.632333446980387,0.763148918186788
-0.63697397913469,0.753516816794473
-0.641700450629509,0.743885715396919
-0.646503957119809,0.734255510382691
-0.651376250418246,0.724626105775441
-0.656309653641408,0.714997412246542
-0.661296991747718,0.705369346306827
-0.666331534010712,0.695741829637204
-0.671406945880541,0.686114788528511
-0.67651724832498,0.676488153408409
-0.681656783198178,0.666861858438412
-0.686820183517955,0.657235841168027
-0.692002347778269,0.647610042235858
-0.697198417607666,0.637984405109634
-0.702403758224324,0.628358875858786
-0.707613941245627,0.618733402954418
-0.712824729493498,0.609107937092498
-0.718032063501985,0.599482431036864
-0.723232049485226,0.589856839479216
-0.728420948565055,0.580231118913766
-0.733595167090647,0.570605227524603
-0.738751247909361,0.560979125084112
-0.7438858624698,0.551352772861093
-0.748995803656063,0.541726133537372
-0.754077979266914,0.532099171131931
-0.759129406065941,0.522471850931672
-0.764147204339,0.512844139428086
-0.769128592903872,0.503216004259189
-0.774070884524296,0.493587414156156
-0.778971481686716,0.483958338894181
-0.78382787270328,0.474328749247128
-0.788637628109126,0.464698616945616
-0.793398397325781,0.455067914638187
-0.798107905565836,0.445436615855293
-0.802763950956874,0.43580469497583
-0.807364401865104,0.426172127195992
-0.811907194401309,0.416538888500254
-0.816390330093574,0.406904955634291
-0.8208118737129,0.397270306079673
-0.825169951239234,0.387634918030204
-0.829462747956748,0.377998770369753
-0.833688506668242,0.368361842651479
-0.837845526019614,0.358724115078336
-0.841932158926134,0.349085568484757
-0.8459468110931,0.339446184319443
-0.849887939624099,0.32980594462917
-0.853754051710734,0.32016483204354
-0.857543703398219,0.310522829760617
-0.861255498421752,0.300879921533389
-0.864888087109008,0.291236091656997
-0.868440165344482,0.281591324956683
-0.871910473591805,0.271945606776415
-0.875297795970452,0.262298922968142
-0.878600959383562,0.252651259881646
-0.881818832693868,0.243002604354954
-0.884950325944959,0.233352943705274
-0.88799438962533,0.223702265720434
-0.89095001397288,0.214050558650789
-0.89381622831768,0.20439781120157
-0.896592100461028,0.194744012525666
-0.899276736088931,0.185089152216789
-0.901869278218341,0.17543322030304
-0.904368906674538,0.165776207240821
-0.906774837598231,0.156118103909104
-0.909086322981029,0.146458901604023
-0.911302650228028,0.136798592033786
-0.913423141746387,0.127137167313887
-0.915447154558816,0.117474619962606
-0.917374079941003,0.107810942896796
-0.919203343082074,0.0981461294279268
-0.920934402767263,0.088480173258394
-0.922566751082005,0.0788130684780765
-0.924099913136768,0.0691448095611345
-0.925533446811957,0.0594753913630407
-0.926866942522314,0.0498048091178392
-0.928100023000263,0.0401330584356243
-0.929232343097704,0.0304601353002342
-0.930263589605827,0.0207860360671546
-0.931193481092522,0.0111107574616262
-0.932021767757039,0.00143429657695426
-0.932748231301586,-0.00824334912698604
-0.933372684819564,-0.0179221818250499
-0.933894972700214,-0.0276022033279323
-0.934314970549468,-0.0372834150830895
-0.934632585126829,-0.0469658181754727
-0.934847754298148,-0.0566494133280784
-0.934960447004198,-0.0663342009023133
-0.934970663244981,-0.0760201808981773
-0.93487843407972,-0.0857073529542637
-0.934683821642567,-0.0953957163475761
-0.934386919174018,-0.105085269993163
-0.933987851068142,-0.114776012443569
-0.933486772935696,-0.124467941888098
-0.932883871683279,-0.134161056151896
-0.932179365608686,-0.143855352694837
-0.931373504512664,-0.153550828610227
-0.930466569827323,-0.163247480623307
-0.929458874761476,-0.172945305089562
-0.92835076446322,-0.18264429799283
-0.927142616200132,-0.192344454943205
-0.925834839557471,-0.202045771174733
-0.92442787665483,-0.211748241542885
-0.922922202381742,-0.221451860521822
-0.921318324652771,-0.231156622201422
-0.919616784682686,-0.240862520284082
-0.917818157282358,-0.250569548081271
-0.915923051176099,-0.260277698509841
-0.913932109341201,-0.269986964088074
-0.911846009370505,-0.279697336931462
-0.909665463858913,-0.289408808748215
-0.907391220814817,-0.299121370834466
-0.905024064097508,-0.308835014069186
-0.902564813881705,-0.318549728908779
-0.900014327150459,-0.328265505381344
-0.897373498217759,-0.337982333080596
-0.89464325928231,-0.34770020115942
-0.891824581014041,-0.35741909832305
-0.888918473175051,-0.367139012821839
-0.885925985276846,-0.376859932443616
-0.882848207275836,-0.38658184450559
-0.879686270309291,-0.396304735845787
-0.876441347474069,-0.406028592813988
-0.873114654650696,-0.415753401262144
-0.869707451375541,-0.425479146534222
-0.866221041764109,-0.435205813455464
-0.862656775488725,-0.44493338632101
-0.859016048814192,-0.454661848883849
-0.855300305695293,-0.464391184342046
-0.851511038940428,-0.474121375325202
-0.847649791446009,-0.483852403880093
-0.843718157506739,-0.493584251455419
-0.839717784207345,-0.503316898885615
-0.835650372901933,-0.513050326373634
-0.831517680787699,-0.522784513472634
-0.827321522580475,-0.532519439066486
-0.82306377230031,-0.542255081348992
-0.818746365176206,-0.551991417801724
-0.814371299680078,-0.561728425170356
-0.809940639701141,-0.571466079439362
-0.805456516873187,-0.581204355804938
-0.800921133068633,-0.590943228645978
-0.796336763074889,-0.600682671492936
-0.791705757470425,-0.610422656994353
-0.787030545720106,-0.620163156880847
-0.782313639511783,-0.629904141926283
-0.777557636359012,-0.639645581905856
-0.772765223498054,-0.64938744555074
-0.767939182111129,-0.65912970049895
-0.763082391912379,-0.668872313241979
-0.758197836138217,-0.678615249066728
-0.753288606989878,-0.688358471992178
-0.748357911583266,-0.698101944700157
-0.743409078469774,-0.707845628459464
-0.738445564802046,-0.717589483042484
-0.733470964230907,-0.727333466633305
-0.728489015634521,-0.737077535726141
-0.723503612798751,-0.746821645012691
-0.718518815189549,-0.756565747256792
-0.713538859984991,-0.766309793154414
-0.708568175567696,-0.776053731176659
-0.703611396719483,-0.785797507392959
-0.698673381811807,-0.795541065271044
-0.69375923235071,-0.805284345449516
-0.688874315318372,-0.815027285477885
-0.684024288860644,-0.824769819517661
-0.679215132009751,-0.834511877996508
-0.674453179315543,-0.844253387205263
-0.669745161504481,-0.853994268824834
-0.665098253618146,-0.863734439366053
-0.660520132539946,-0.873473809500295
-0.656019046457229,-0.88321228325121
-0.651603899715027,-0.892949757007364
-0.647284357839603,-0.902686118300177
-0.643070979478396,-0.912421244268661
-0.638975385014463,-0.922154999697419
-0.635010476365925,-0.931887234459042
-0.63119073025565,-0.941617780101607
-0.627532600505874,-0.95134644516756
-0.624055088735704,-0.961073008553045
-0.620780588331479,-0.970797209687421
-0.617736200389838,-0.980518733220879
-0.614955934127574,-0.990237183420353
-0.612484761762798,-0.999952036986709
-0.610387268159237,-1.00966254240702
-0.60877146008082,-1.0193674429088
-0.607927608668691,-1.02906336088154
