-0.814802965298413,-0.12468811550738
-0.773711509418827,-0.10384595437598
-0.733755927549748,-0.0845317660503178
-0.694908833740779,-0.0666724684914382
-0.657145593393385,-0.0501988368050925
-0.620444016689875,-0.0350451163127345
-0.584784083596476,-0.0211486789761043
-0.550147696618349,-0.00844971788004518
-0.516518458014166,0.00310902479251528
-0.483881468626548,0.0135825002418011
-0.452223145865754,0.0230235694122207
-0.421531058708725,0.0314831962096629
-0.391793777852925,0.0390106201694966
-0.363000739401974,0.0456535108424508
-0.335142120664053,0.0514581058844616
-0.308208726819622,0.0564693345945425
-0.282191887366477,0.0607309284358304
-0.257083361381179,0.0642855198942374
-0.232875250749366,0.0671747308724301
-0.209559920616056,0.0694392516806923
-0.187129926392804,0.0711189115676536
-0.165577946733334,0.0722527416304041
-0.144896721954548,0.0728790308530692
-0.125078997436957,0.0730353759436942
-0.106117471588551,0.0727587255697725
-0.0880047480001147,0.0720854195316465
-0.0707332914584827,0.071051223359212
-0.0542953875182569,0.0696913587699116
-0.0386831053623339,0.0680405303841022
-0.0238882637079945,0.0661329490568213
-0.00990239953855443,0.0640023521521556
0.0032832605388787,0.0616820210573103
0.0156778264908358,0.0592047962076466
0.027290768775357,0.0566030898709897
0.0381319401313598,0.0539088969190989
0.0482115953780256,0.0511538037960153
0.0575404093516415,0.0483689958768235
0.0661294930975529,0.0455852633959543
0.0739904084262558,0.0428330061113189
0.0811351809350707,0.0401422368591408
0.087576311590174,0.0375425841441845
0.0933267869579354,0.0350632939010519
0.0984000881694374,0.0327332305542083
0.102810198697655,0.0305808774973206
0.106571611023005,0.0286343371062541
0.109699332259775,0.0269213303946101
0.112208888813254,0.0254691964159349
0.11411633013519,0.0243048915126347
0.115438231643479,0.0234549885081529
0.116191696870624,0.0229456759360657
0.116394358904647,0.0228027573974003
0.116064381185541,0.0230516511356559
0.115220457720245,0.0237173899176954
0.113881812779305,0.0248246213078613
0.112068200138949,0.0263976084223533
0.109799901933241,0.028460231251084
0.107097727182273,0.0310359886349111
0.103983010064006,0.0341480009873468
0.10047760799943,0.0378190138515749
0.096603899623175,0.0420714023859037
0.092384782714562,0.046927176873665
0.0878436721674319,0.0524079893570875
0.0830044980809056,0.0585351414988599
0.0778917040575617,0.0653295937800278
0.0725302458004379,0.0728119761485852
0.0669455901057986,0.0810026002397116
0.0611637143548357,0.089921473296159
0.0552111066144551,0.0995883139258988
0.0491147664651282,0.110022569843922
0.042902206682554,0.121243437756177
0.0366014559096931,0.133269885556177
0.0302410624667197,0.146120677018999
0.0238500994587529,0.159814399193391
0.0174581713550164,0.17436949271083
0.0110954222285542,0.189804285250737
0.00479254586300033,0.206137028424138
-0.00141920204757505,0.223385938364076
-0.00750798935774877,0.241569240340504
-0.0134413903160043,0.260705217750674
-0.0191863654954833,0.280812265873702
-0.0247092384779746,0.301908950820705
-0.0299756689231613,0.324014074160343
-0.0349506216146438,0.347146743754678
-0.0395983310282648,0.371326451402852
-0.0438822609159435,0.39657315796151
-0.0477650583386007,0.422907386692307
-0.0512085015136791,0.450350325679985
-0.0541734407648767,0.478923940271133
-0.0566197317724329,0.508651096606128
-0.058506160219746,0.539555697457386
-0.0597903568140419,0.571662831749142
-0.0604287015225882,0.604998939320984
-0.0603762157084417,0.639591992713817
-0.059586440667118,0.675471698007841
-0.0580113008534168,0.712669717033853
-0.0556009498404763,0.751219913619024
-0.0523035967644584,0.7911586269254
-0.0480653106701736,0.832524975404454
-0.0428297997758861,0.875361195437367
-0.0365381622078158,0.919713019374289
