0.721389263436032,-0.723514886161671
0.746689484826185,-0.668473189055695
0.643262533573617,-0.684347543766976
0.707218868908946,-0.507059850837605
0.65230475103383,-0.420028562392059
0.58746678822694,-0.340861869084671
0.525749943548698,-0.275521705718066
0.479947128370833,-0.226276452154778
0.46035792047118,-0.191584166661983
0.472926049825351,-0.166758946261481
0.518100307520459,-0.145259215864503
0.703274370208713,-0.00951056119643609
0.680386230609773,-0.0865543382992249
0.773949440755871,-0.0412720120360691
0.856890860632574,0.014896456076928
0.916142248983084,0.0780632721464955
0.942159096433834,0.141906591995874
0.930455734478608,0.199057180641812
0.882253881232747,0.242767040102361
0.80414181504275,0.268512425171925
0.706820731624076,0.275191027832144
0.603178440147984,0.265648866405305
0.506048176606027,0.246402258624805
0.4260605453665,0.226579191227046
0.369970816389182,0.216261532077334
0.243949770015843,0.13425569172172
0.332562393613395,0.257613198973002
0.341645576123561,0.317424724688863
0.357820138714576,0.400922612085634
0.371394610031649,0.500308824790675
0.374044291563251,0.604145428585009
0.360319906179427,0.699182100005323
0.328506004118489,0.772583360563022
0.280685680953707,0.814158374290167
0.222027880457498,0.818187767476025
0.0410523584299946,0.682624208693299
0.100065086790626,0.718653122991884
0.0493969710438849,0.630994441942379
0.0103068129604826,0.535056930977337
-0.0177163465711893,0.445270370179706
-0.0384072043101927,0.37457284934896
-0.0578646617332826,0.332282219172562
-0.0831395306256205,0.322609925980813
-0.0183494648393978,0.442224759524736
-0.174149993019931,0.389894843645452
-0.244460046037126,0.449310611928785
-0.328098035840895,0.509522430804645
-0.418055375825888,0.557947029012648
-0.504811924058716,0.584343771022018
-0.692742602532663,0.478135884908705
-0.628478671235237,0.550817863602431
-0.762863219967087,0.400147622758229
-0.640607029946088,0.415636622045527
-0.716922022978531,0.228348755388438
-0.546762765150967,0.242358888720167
-0.481584511035109,0.164664563945838
-0.421187668619628,0.101292586082599
-0.378172088966712,0.0540246420155539
-0.247296610911398,0.114232400208433
-0.379121100836239,-0.00315633154662381
-0.428114425801446,-0.0247301231723233
-0.401979983385438,0.0432470603108385
-0.594446277398064,-0.0856451956006919
-0.683519927963376,-0.161479346530806
-0.783191416872106,-0.2035659172
-0.933405532636688,-0.369506391465026
-0.845066622790642,-0.316757309215492
-0.875162604068046,-0.379421991011434
-0.797171718942574,-0.435537156447177
-0.694955078472824,-0.446260996022294
-0.585489310754859,-0.414603904035246
-0.49271103733818,-0.43079537367693
-0.397208299463175,-0.410940139586123
-0.319931430789776,-0.391755157674821
-0.277589005196252,-0.404712221954891
-0.255686764720215,-0.373770952739803
-0.202309096758459,-0.407822822155978
-0.24575869603332,-0.49387326885866
-0.261384804042025,-0.601177423817472
-0.297712114921021,-0.706931184871245
-0.264349789396453,-0.780772785519676
-0.290834370595269,-0.887078311379425
-0.225600318549084,-0.946876678720659
-0.174828868532524,-0.967868170064112
-0.0937555989040837,-0.991953956003252
0.0374373837810584,-0.849974167089623
0.117873063055968,-0.78350492401275
0.0364303169174386,-0.805110592685388
0.100877666034951,-0.705988385119498
0.089645568270545,-0.59643356839411
0.0307843995347627,-0.627119579840663
0.17014952869584,-0.467242679155957
0.193725418484369,-0.458486175727994
0.222482373919568,-0.527716987213242
0.279778443517729,-0.564019819881302
0.352020738917591,-0.624252491458802
0.436896931202737,-0.683650121481624
0.527009731768996,-0.729812719878695
0.518113192044957,-0.864298422560861
0.683460529441076,-0.747283163473025
