-0.980677570285368,0.504580746657421
-0.968754855457594,0.503809672818516
-0.956947784368742,0.502989872673395
-0.945255293444925,0.502122159208585
-0.933676339628691,0.501207336657074
-0.922209899807138,0.500246200718657
-0.910854970256607,0.49923953877324
-0.89961056610342,0.498188130087346
-0.8884757208001,0.49709274601405
-0.877449485616588,0.495954150186564
-0.866530929145933,0.494773098705681
-0.855719136823999,0.493550340321286
-0.845013210462721,0.492286616608121
-0.834412267796467,0.490982662136012
-0.823915442041093,0.489639204634709
-0.813521881465265,0.48825696515355
-0.803230748973665,0.48683665821609
-0.793041221701708,0.485378991969862
-0.782952490621382,0.483884668331445
-0.77296376015789,0.482354383126963
-0.763074247816721,0.480788826228181
-0.753283183820859,0.479188681684325
-0.743589810757782,0.477554627849771
-0.73399338323597,0.475887337507728
-0.724493167550622,0.474187477990037
-0.71508844135829,0.472455711293217
-0.70577849336018,0.470692694190864
-0.696562622993834,0.46889907834253
-0.687440140132953,0.467075510399171
-0.67841036479511,0.465222632105291
-0.669472626857127,0.463341080397864
-0.66062626577787,0.461431487502153
-0.651870630328266,0.459494481024493
-0.643205078328299,0.457530684042164
-0.634628976390814,0.455540715190405
-0.626141699671903,0.453525188746693
-0.617742631627696,0.451484714712332
-0.609431163777369,0.449419898891464
-0.601206695472185,0.447331342967558
-0.593068633670406,0.445219644577459
-0.585016392717894,0.443085397383076
-0.577049394134257,0.440929191140762
-0.56916706640437,0.43875161176847
-0.561368844775122,0.43655324141075
-0.553654171057252,0.434334658501627
-0.546022493432117,0.43209643782546
-0.538473266263279,0.429839150575802
-0.531005949912746,0.427563364412353
-0.523620010561772,0.42526964351603
-0.516314920036068,0.422958548642234
-0.509090155635318,0.420630637172352
-0.501945199966877,0.418286463163551
-0.494879540783539,0.4159265773969
-0.48789267082527,0.413551527423894
-0.480984087664798,0.411161857611395
-0.474153293556953,0.408758109185061
-0.467399795291666,0.406340820271284
-0.460723104050532,0.403910525937699
-0.454122735266831,0.401467758232292
-0.447598208488927,0.399013046221149
-0.441149047246965,0.396546916024888
-0.434774778922758,0.394069890853804
-0.428474934622807,0.391582491041776
-0.42224904905436,0.389085234078957
-0.416096660404435,0.386578634643286
-0.410017310221731,0.384063204630859
-0.404010543301362,0.381539453185189
-0.398075907572333,0.379007886725383
-0.392212953987696,0.376469008973268
-0.386421236417316,0.3739233209795
-0.380700311543189,0.371371321148675
-0.375049738757236,0.368813505263482
-0.369469080061528,0.366250366507911
-0.363957899970872,0.363682395489557
-0.358515765417709,0.361110080261032
-0.353142245659253,0.358533906340524
-0.347836912186839,0.355954356731507
-0.342599338637409,0.353371911941653
-0.337429100707092,0.350787050000939
-0.332325776066832,0.348200246478996
-0.327288944280005,0.345611974501707
-0.322318186721993,0.343022704767081
-0.317413086501649,0.340432905560421
-0.312573228384637,0.337843042768808
-0.307798198718573,0.335253579894917
-0.303087585359944,0.332664978070193
-0.298440977602767,0.330077696067388
-0.293857966108928,0.327492190312498
-0.289338142840185,0.324908914896102
-0.284881100991788,0.322328321584128
-0.280486434927671,0.319750859828055
-0.276153740117195,0.317176976774578
-0.271882613073402,0.314607117274743
-0.267672651292739,0.31204172389257
-0.263523453196232,0.309481236913182
-0.259434618072065,0.306926094350447
-0.255405746019542,0.304376731954157
-0.2514364378944,0.301833583216752
-0.24752629525544,0.299297079379602
-0.243674920312447,0.296767649438861
-0.239881915875376,0.294245720150916
-0.236146885304777,0.29173171603742
-0.232469432463419,0.289226059389948
-0.228849161669104,0.286729170274271
-0.225285677648639,0.284241466534263
-0.221778585492934,0.28176336379546
-0.218327490613219,0.279295275468274
-0.214931998698332,0.276837612750868
-0.211591715673083,0.274390784631723
-0.208306247657646,0.271955197891886
-0.205075200927974,0.26953125710692
-0.201898181877213,0.267119364648566
-0.19877479697808,0.264719920686117
-0.19570465274621,0.262333323187533
-0.192687355704426,0.259959967920285
-0.18972251234793,0.257600248451951
-0.28717335448938,0.147039440568318
-0.277682364736234,0.135157946629644
-0.079431046525117,0.352764760193728
-0.290368627708199,0.359108952227823
-0.28104049037917,0.126416770702556
-0.289896691511701,0.147785222958645
-0.290392153231754,0.344599557451029
-0.167844842413296,0.23925988367916
-0.0715368420472827,0.144497718249096
-0.0657269154106229,0.336973512442899
-0.0689056835169422,0.326126866115105
-0.158092364766465,0.230487462644149
-0.263473357973494,0.341168149885467
-0.245788701315235,0.342521611977299
-0.267307606619982,0.33903023340523
-0.149097019739715,0.222011826968382
-0.044769982733891,0.118848600003035
-0.240020279579749,0.331583473384186
-0.0418539438632683,0.313734995265821
-0.259183849571123,0.323217216859965
-0.249335681318401,0.093939816995542
-0.0183956892150152,0.30660898625616
-0.135100365040542,0.207962464372674
-0.0164658443957863,0.323480521537231
-0.131493671940667,0.204144981694339
-0.0195176548838502,0.301182283322781
-0.224723371626035,0.0853925399777923
-0.239534708244844,0.312004496106872
-0.12478246175369,0.196789792365351
-0.123206914289961,0.195011211802021
-0.121671455145212,0.193257370655334
-0.120175676155608,0.191528591314332
-0.118719168389169,0.189825193896243
-0.117301522133051,0.188147496242794
-0.115922326881259,0.186495813916507
-0.114581171322802,0.18487046019696
-0.113277643330266,0.183271746077048
-0.112011329948798,0.181699980259217
-0.110781817385498,0.180155469151699
-0.109588690999201,0.178638516864743
-0.108431535290654,0.177149425206843
-0.107309933893063,0.175688493680972
-0.10622346956301,0.17425601948083
-0.105171724171734,0.172852297487095
-0.104154278696765,0.171477620263705
-0.1031707132139,0.170132278054143
-0.102220606889513,0.168816558777766
-0.101303537973203,0.167530748026148
-0.100419083790748,0.166275129059462
-0.0995668207373879,0.165049982802898
-0.098746324271398,0.163855587843117
-0.097957168907971,0.162692220424754
-0.0971989282133829,0.161560154446961
-0.0964711747994434,0.160459661460009
-0.095773480318222,0.159391010661932
-0.0951054154570417,0.158354468895243
-0.0944665499337336,0.157350300643698
-0.0938564524921455,0.15637876802913
-0.0932746908978972,0.155440130808349
-0.0927208319343755,0.154534646370115
-0.0921944413989625,0.153662569732177
-0.0916950840994891,0.152824153538403
-0.0912223238509089,0.152019648055974
-0.0907757234721832,0.151249301172673
-0.0903548447833735,0.150513358394255
-0.0899592486029313,0.149812062841909
-0.0895884947451822,0.14914565524981
-0.0892421420179949,0.148514373962768
-0.0889197482206297,0.147918454933975
-0.0886208701417614,0.147358131722854
-0.0883450635576666,0.14683363549301
-0.0880918832305732,0.146345195010293
-0.0878608829071627,0.145893036640965
-0.0876516153172199,0.145477384349983
-0.0874636321724246,0.145098459699401
-0.0872964841652771,0.14475648184688
-0.087149720968153,0.144451667544336
-0.0870228912324802,0.144184231136692
-0.086915542588032,0.143954384560775
-0.0868272216423296,0.143762337344332
-0.0867574739801495,0.14360829660518
-0.0867058441631268,0.143492467050491
-0.086671875729451,0.143415050976221
-0.0866551111936464,0.143376248266667
-0.0866550920464316,0.143376256394177
-0.0866713587546514,0.143415270419004
-0.0867034507612757,0.143493482989302
-0.0867509064854584,0.143611084341282
-0.086813263322651,0.143768262299512
-0.0868900576447638,0.143965202277385
-0.0869808248003688,0.144202087277731
-0.0870850991149383,0.144479097893602
-0.0872024138911136,0.144796412309217
-0.0873323014089953,0.14515420630107
-0.0874742929264516,0.145552653239215
-0.0876279186794371,0.145991924088712
-0.0877927078823153,0.14647218741126
-0.0879681887281793,0.146993609366991
-0.0881538883891643,0.147556353716461
-0.0883493330167448,0.148160581822808
-0.0885540477420111,0.148806452654102
-0.0887675566759174,0.149494122785881
-0.0889893829094967,0.150223746403878
-0.0892190485140337,0.150995475306935
-0.0894560745411919,0.151809458910117
-0.0896999810230853,0.152665844248022
-0.0899502869722907,0.153564775978294
-0.0902065103817919,0.154506396385328
-0.0904681682248507,0.155490845384197
-0.0907347764547962,0.156518260524773
-0.0910058500047269,0.157588776996064
-0.091280902787118,0.158702527630767
-0.0915594476933271,0.159859642910031
-0.0918409965929913,0.161060250968447
-0.092125060333308,0.162304477599247
-0.0924111487381935,0.163592446259745
-0.0926987706073107,0.164924278076984
-0.0929874337149595,0.166300091853633
-0.0932766448088218,0.167720004074102
-0.0935659096085545,0.169184128910901
-0.0938547328042221,0.170692578231232
-0.0941426180545615,0.172245461603825
-0.0944290679850712,0.173842886306019
-0.0947135841859176,0.175484957331088
-0.094995667209649,0.177171777395815
-0.0952748165687112,0.178903446948327
-0.095550530732755,0.180680064176178
-0.0958223071257279,0.182501725014695
-0.0960896421227418,0.184368523155583
-0.0963520310467075,0.186280550055801
-0.0966089681647288,0.188237894946704
-0.0968599466842458,0.190240644843453
-0.0971044587489194,0.192288884554707
-0.0973419954342481,0.19438269669259
-0.0975720467429079,0.196522161682937
-0.0977941015998056,0.198707357775832
-0.0980076478468366,0.200938361056427
-0.0982121722373372,0.203215245456064
-0.0984071604302228,0.205538082763677
-0.0985920969837999,0.207906942637512
-0.0987664653492443,0.210321892617136
-0.0989297478637344,0.212782998135755
-0.0990814257432279,0.215290322532854
-0.099220979074874,0.217843927067135
-0.0993478868090479,0.220443870929787
-0.0994616267509982,0.22309021125807
-0.0995616755520955,0.225783003149232
-0.099647508700671,0.228522299674753
-0.0997186005124333,0.231308151894924
-0.0997744241204528,0.234140608873767
-0.0998144514646996,0.2370197176943
-0.0998381532811257,0.239945523474147
-0.0998449990902757,0.242918069381504
-0.0998344571854166,0.245937396651459
-0.0998059946201714,0.249003544602679
-0.0997590771956448,0.252116550654461
-0.0996931694470266,0.255276450344156
-0.0996077346296605,0.25848327734497
-0.0995022347045627,0.261737063484148
-0.099376130323377,0.265037838761546
-0.0992288808127524,0.268385631368596
-0.0990599441581268,0.271780467707666
-0.0988687769869037,0.275222372411832
-0.0986548345510046,0.278711368365054
-0.0984175707087822,0.28224747672277
-0.0981564379062786,0.285830716932909
-0.097870887157812,0.28946110675734
-0.0975603680258731,0.293138662293744
-0.0972243286003176,0.296863397997941
-0.0968622154768345,0.300635326706651
-0.0964734737346725,0.304454459660717
-0.0960575469136077,0.30832080652879
-0.0956138769901318,0.312234375431475
-0.0951419043528439,0.316195172965965
-0.0946410677770233,0.320203204231145
-0.0941108043983662,0.324258472853195
-0.0935505496858634,0.328360981011691
-0.0929597374138003,0.332510729466208
-0.0923377996328543,0.336707717583445
-0.0916841666402718,0.340951943364865
-0.0909982669490975,0.345243403474875
-0.0902795272564379,0.349582093269543
-0.0895273724107299,0.353968006825863
-0.0887412253779958,0.358401136971585
-0.0879205072070555,0.362881475315607
-0.0870646369936717,0.367409012278954
-0.0861730318436033,0.371983737126338
-0.0852451068345392,0.37660563799832
-0.0842802749768838,0.381274701944088
-0.0832779471733689,0.385990914954844
-0.0822375321774604,0.390754261997834
-0.0811584365505328,0.395564727051016
-0.080040064617778,0.400422293138383
-0.0788818184228199,0.405326942365959
-0.0776830976810027,0.410278655958471
-0.0764432997313185,0.415277414296711
-0.0751618194869409,0.420323196955614
-0.0738380493843326,0.425415982743046
-0.0724713793308874,0.430555749739333
-0.0710611966510736,0.435742475337532
-0.0696068860310405,0.440976136284471
-0.068107829461648,0.446256708722564
-0.066563406179882,0.451584168232421
-0.0649729926086147,0.456958489876268
-0.0633359622946669,0.462379648242191
-0.0616516858451306,0.46784761748923
-0.0599195308619078,0.473362371393325
-0.0581388618744208,0.478923883394152
-0.0563090402704456,0.484532126642846
-0.0544294242250236,0.490187074050649
-0.0524993686273994,0.495888698338491
-0.0505182250059372,0.501636972087529
-0.0484853414509614,0.507431867790663
-0.0464000625354691,0.513273357905053
-0.0442617292336592,0.519161414905652
-0.0420696788372222,0.525096011339794
-0.0398232448693319,0.53107711988284
-0.0375217569962778,0.537104713394921
-0.0351645409366798,0.543178764978792
-0.0327509183682183,0.549299248038844
-0.0302802068318157,0.555466136341264
-0.0277517196332029,0.561679404075411
-0.0251647657418,0.567939025916405
-0.0225186496868391,0.574244977088976
-0.019812671450658,0.580597233432596
-0.0170461263590879,0.586995771467924
-0.0142183049688544,0.593440568464601
-0.0113284929519156,0.599931602510424
-0.00837597097665128,0.606468852581936
-0.00536001458581785,0.613052298616459
-0.00227989407118183,0.619681921585621
0.000865125655261159,0.626357703570401
0.0040757851935727,0.633079627837736
0.00735283079176315,0.639847678918727
0.0106970144853879,0.646661842688497
0.0141090942409489,0.65352210644772
0.0175898341032118,0.660428459005891
0.0211400043465459,0.667380890766364
0.0247603816304002,0.674379393813212
0.0284517491590363,0.681423961999959
0.0322148968456322,0.688514591040229
0.0360506214808904,0.695651278600369
0.039959726906272,0.70283402439409
0.0439430241919945,0.710062830279201
0.0480013318199289,0.717337700356467
0.0521354758715389,0.724658641070669
0.0563462902210108,0.732025661313925
0.0606346167337221,0.739438772531322
0.0650013054702114,0.746897988828946
0.0694472148958077,0.754403327084352
0.073973212096087,0.761954807059574
0.0785801729983371,0.769552451516711
0.083268982599198,0.777196286336207
0.0880405351986767,0.784886340637858
0.0928957346407189,0.792622646904661
0.0978354945605439,0.800405241109574
0.102860738638944,0.808234162845268
0.107972400863767,0.816109455456976
0.113171425798792,0.824031166178511
0.118458768860246,0.83199934627157
0.12383539660118,0.840014051168412
0.129302287003957,0.848075340618001
0.134860429781115,0.856183278835757
0.140510826684849,0.864337934656977
0.146254491825411,0.872539381694089
0.152092451998682,0.880787698497818
0.15802574702324,0.88908296872241
0.164055430087204,0.897425281295043
0.170182568105183,0.905814730589537
0.176408242085659,0.914251416604526
0.182733547509128,0.922735445146223
0.189159594717379,0.931266928015916
0.195687509314248,0.939845983202375
0.20231843257825,0.948472735079307
0.209053521887472,0.957147314608033
0.215893951157138,0.96586985954556
0.222840911290276,0.974640514658234
0.229895610641926,0.983459431941145
0.237059275497349,0.99232677084349
0.244333150564717,1.00124269850009
0.251718499482772,1.01020738996928
0.25921660534399,1.01922102847737
0.266828771233757,1.02828380566992
0.274556320786141,1.03739592187007
