0.644019742565527,0.532865890900021
0.643692424590851,0.533576464363612
0.643280849121317,0.534443382542249
0.642756813707916,0.535511438975425
0.543361896247791,0.418371202706237
0.641193371689349,0.538517206624507
0.640010491878913,0.540655937805044
0.638402238140039,0.543424439033049
0.636167753221918,0.547064206926771
0.632986237586478,0.551931273051983
0.628328839861059,0.558559938675982
0.621292865211673,0.567764755707141
0.61027847021819,0.580799885367592
0.498751253803592,0.495439887665909
0.561826901406006,0.626951590693366
0.507663631596995,0.666437803019582
0.4082230017918,0.7198769956464
0.225690343679489,0.776437487790296
-0.0791404592536026,0.781143613433328
-0.442140881528656,0.610635092389254
-0.561573117394404,0.244408716757464
-0.164633920471144,0.084533518420953
0.127206902366544,0.0065190667958126
0.386762264261418,0.141736917030118
0.5191178255338,0.265937798258714
0.582315516431228,0.352361628551157
0.713154601157687,0.516470706884024
0.628040610558626,0.444309117934766
0.635984766969086,0.467876307634306
0.640289388804881,0.483694909638207
0.642701376228428,0.494595804812057
0.644090086573805,0.5022998555568
0.74842438708702,0.613754102557496
0.645392045783213,0.511990241232627
0.645682809935029,0.515090637690658
0.759381949841619,0.632857384754013
0.645956722955781,0.519312674095674
0.646012866011057,0.520769535861044
0.646041105447286,0.521933001715653
0.646051933763354,0.522872758629954
