-0.245406369081142,0.880547903275176
-0.248571289379529,0.872221802379574
-0.251081033510884,0.863566659645768
-0.253181960813703,0.854706201383836
-0.254965738943302,0.845686464820598
-0.256487182457692,0.836534978861767
-0.257784460242214,0.827270912642039
-0.258886436648037,0.817908762383416
-0.259816112956701,0.808460079763658
-0.260592494915121,0.798934409827621
-0.261231709604669,0.789339851899983
-0.261747721736911,0.779683419322493
-0.262152818016807,0.769971282710304
-0.262457948578776,0.760208941427616
-0.262672975890963,0.750401348592098
-0.26280686130374,0.740553004763058
-0.262867808156393,0.730668029812336
-0.262863373757389,0.720750219162892
-0.262800558520101,0.710803088554465
-0.262685877980007,0.700829910211958
-0.262525421748669,0.690833742453245
-0.262324902337888,0.680817454209582
-0.26208969601588,0.67078374554435
-0.261824877315436,0.660735164983703
-0.261535248426202,0.650674124277929
-0.26122536442098,0.64060291107057
-0.260899555057281,0.630523699847576
-0.260561943739081,0.620438561460257
-0.260216464105043,0.610349471456202
-0.259866874618402,0.600258317406593
-0.259516771463003,0.590166905382836
-0.259169599994598,0.580076965707627
-0.2588286649527,0.569990158083529
-0.25849713960334,0.559908076184641
-0.258178073954989,0.549832251782789
-0.257874402167189,0.539764158468281
-0.257588949252845,0.529705215015922
-0.257324437159957,0.519656788439378
-0.257083490305985,0.509620196770635
-0.256868640627608,0.499596711596087
-0.256682332199937,0.489587560376389
-0.256526925471926,0.479593928573562
-0.256404701158583,0.469616961605732
-0.256317863825332,0.45965776664727
-0.256268545195481,0.44971741428986
-0.256258807207929,0.439796940078138
-0.256290644849001,0.429897345931893
-0.256365988779524,0.420019601465435
-0.256486707775808,0.410164645213504
-0.256654611001137,0.40033338577205
-0.25687145012252,0.390526702861309
-0.257138921285903,0.380745448317792
-0.257458666961615,0.370990447021102
-0.257832277670634,0.361262497760896
-0.25826129360118,0.351562374048771
-0.258747206124174,0.341890824879355
-0.259291459215306,0.332248575444495
-0.259895450790686,0.32263632780405
-0.260560533962395,0.313054761516448
-0.261288018219687,0.30350453423191
-0.262079170541043,0.293986282250945
-0.262935216441834,0.284500621050504
-0.263857340961922,0.275048145779977
-0.264846689597137,0.265629431728989
-0.265904369178256,0.256245034768852
-0.26703144870079,0.246895491769287
-0.268228960108599,0.237581320991982
-0.269497899034129,0.228303022462343
-0.270839225497822,0.219061078320759
-0.272253864569044,0.209855953154527
-0.273742706990701,0.200688094311547
-0.27530660976953,0.19155793219678
-0.276946396733902,0.182465880552384
-0.278662859060835,0.173412336722392
-0.280456755773781,0.164397681902709
-0.282328814212619,0.155422281377152
-0.284279730477213,0.146486484740211
-0.28631016984574,0.137590626107146
-0.288420767168957,0.128735024311988
-0.290612127241427,0.119919983093986
-0.292884825150717,0.111145791272969
-0.295239406605434,0.102412722914102
-0.297676388242949,0.0937210374824229
-0.300196257917567,0.0850709799875738
-0.302799474969861,0.0764627811190604
-0.305486470477806,0.0678966573723793
-0.308257647490328,0.0593728111663087
-0.311113381243801,0.0508914309516386
-0.314054019362012,0.0424526913115964
-0.317079882040038,0.0340567530541943
-0.320191262212468,0.0257037632967121
-0.323388425706333,0.0173938555425022
-0.326671611379096,0.00912714975029191
-0.330041031242006,0.00090375239613194
-0.333496870569079,-0.00727624347186984
-0.337039287991952,-0.0154127581859111
-0.340668415580808,-0.023505725417852
-0.344384358911561,-0.0315550921454764
-0.348187197119419,-0.0395608186255893
-0.352076982938965,-0.0475228783738872
-0.356053742730831,-0.0554412581515634
-0.360117476495017,-0.0633159579586182
-0.364268157870891,-0.0711469910338578
-0.368505734123869,-0.0789343838615858
-0.372830126118744,-0.0866781761849976
-0.377241228279603,-0.0943784210263088
-0.381738908536262,-0.10203518471366
-0.386323008257083,-0.109648546914852
-0.390993342168051,-0.117218600677994
-0.395749698257918,-0.124745452479137
-0.40059183766922,-0.132229222277007
-0.405519494574925,-0.139670043574958
-0.410532376040446,-0.147068063490268
-0.415630161870705,-0.15442344283095
-0.420812504441915,-0.161736356180232
-0.4260790285177,-0.169006991988904
-0.431429331049139,-0.176235552675743
-0.436862980958252,-0.183422254736246
-0.442379518904469,-0.19056732885992
-0.447978457033484,-0.197671020056405
-0.453659278707925,-0.204733587790741
-0.459421438219186,-0.211755306128091
-0.465264360479702,-0.218736463888286
-0.471187440694906,-0.225677364810574
-0.477190044014044,-0.232578327728985
-0.483271505158937,-0.23943968675878
-0.489431128029723,-0.24626179149445
-0.495668185286521,-0.253045007219811
-0.501981917905881,-0.259789715130767
-0.508371534710784,-0.266496312571352
-0.514836211872858,-0.273165213283725
-0.521375092385367,-0.279796847672845
-0.527987285505406,-0.286391663086614
-0.534671866163608,-0.292950124112328
-0.541427874339531,-0.299472712890375
-0.548254314400729,-0.305959929446163
-0.555150154403341,-0.312412292041378
-0.562114325351858,-0.318830337545743
-0.569145720415501,-0.325214621830568
-0.576243194098441,-0.33156572018548
-0.583405561360817,-0.337884227759867
-0.590631596687257,-0.344170760030681
-0.597920033099279,-0.350425953298432
-0.605269561107631,-0.356650465213339
-0.61267882760023,-0.362844975333833
-0.620146434660969,-0.369010185719769
-0.627670938314154,-0.375146821562996
-0.635250847188866,-0.381255631858143
-0.642884621096886,-0.387337390116805
-0.650570669517235,-0.393392895128641
-0.658307349979583,-0.399422971773253
-0.666092966337986,-0.405428471887151
-0.673925766925433,-0.411410275190572
-0.681803942578643,-0.417369290279467
-0.689725624521302,-0.423306455688575
-0.697688882092586,-0.429222741032204
-0.705691720306168,-0.435119148230147
-0.713732077223151,-0.440996712827038
-0.721807821120226,-0.446856505414561
-0.729916747431968,-0.452699633167086
-0.738056575443371,-0.45852724150274
-0.746224944705479,-0.464340515883545
-0.754419411143182,-0.470140683770155
-0.762637442819802,-0.475929016748963
-0.770876415317878,-0.481706832851957
-0.77913360668941,-0.487475499092801
-0.787406191921492,-0.493236434246302
-0.795691236854584,-0.498991111902766
-0.803985691480213,-0.504741063834021
-0.812286382532349,-0.510487883714164
-0.820590005271481,-0.51623323124576
-0.828893114341853,-0.521978836751503
-0.837192113559623,-0.527726506302801
-0.845483244461555,-0.533478127470835
-0.853762573408985,-0.539235675803193
-0.862025976997939,-0.545001222151186
-0.870269125470904,-0.550776941000764
-0.87848746375508,-0.55656511999547
-0.88667618966082,-0.562368170885591
-0.894830228655332,-0.568188642197281
-0.902944204470402,-0.57402923399392
-0.911012404594227,-0.579892815206766
-0.919028739415247,-0.585782444153691
-0.926986693397983,-0.5917013930596
-0.934879266129061,-0.59765317766423
-0.942698900300016,-0.603641593390543
-0.950437392571561,-0.609670760110377
-0.958085781593323,-0.615745178383042
-0.965634204897159,-0.621869801326206
-0.973071712348648,-0.628050128304067
-0.980386017242831,-0.634292329931782
-0.987563154868143,-0.640603419551097
-0.994586998143211,-0.646991496486692
-1.00143854132112,-0.653466105783421
-1.00809478312033,-0.660038799119046
-1.01452685918967,-0.666724072715568
-1.0206966006438,-0.673541095707682
-1.02654919292472,-0.680517397001102
-1.03199296837709,-0.687699013822649
-1.03678156766244,-0.6952096724824
-0.245406369081142,0.880547903275176
-0.250194968366486,0.873037244615426
-0.255638743818863,0.865855627793879
-0.261491336099776,0.858879326500459
-0.267661077553908,0.852062303508344
-0.27409315362325,0.845377029911822
-0.280749395422459,0.838804336576197
-0.287600938600369,0.832329727279469
-0.294624781875436,0.825941650343873
-0.301801919500748,0.819630560724559
-0.309116224394931,0.813388359096843
-0.316553731846421,0.807208032118982
-0.324102155150256,0.801083409175818
-0.331750544172019,0.795008990903153
-0.339489036443563,0.788979824183319
-0.347308670614519,0.782991408457006
-0.355201243345597,0.777039623852376
-0.363159197328332,0.771120674946467
-0.371175532149352,0.765231045999542
-0.379243732273177,0.759367464786697
-0.387357708088247,0.753526872990057
-0.39551174708276,0.747706401678367
-0.403700472988499,0.741903350788246
-0.411918811272675,0.736115171793541
-0.42016195974564,0.730339452943962
-0.428425363334594,0.724573906595969
-0.436704692282025,0.718816358263611
-0.444995823183956,0.713064737095577
-0.453294822401726,0.707317067544279
-0.461597931472098,0.701571462038536
-0.46990155421123,0.69582611450694
-0.478202245263366,0.690079294626797
-0.486496699888995,0.684329342695542
-0.494781744822087,0.678574665039078
-0.503054330054169,0.672813729885577
-0.511311521425701,0.667045063644733
-0.519550493923777,0.661267247541739
-0.527768525600397,0.655478914562931
-0.5359629920381,0.649678746676321
-0.544131361300209,0.643865472295516
-0.552271189311611,0.638037863959862
-0.560380115623354,0.632194736207337
-0.568455859520429,0.626334943619814
-0.576496216437411,0.620457379022923
-0.584499054650993,0.614560971824981
-0.592462312222277,0.608644686481351
-0.600383994164937,0.602707521072243
-0.608262169818146,0.596748505983348
-0.616094970405593,0.590766702679927
-0.623880586763996,0.584761202566029
-0.631617267226344,0.578731125921417
-0.639303315646693,0.572675620909581
-0.646937089554713,0.566593862650919
-0.654516998429425,0.560485052355772
-0.662041502082611,0.554348416512545
-0.669509109143349,0.548183206126609
-0.676918375635948,0.541988696006116
-0.6842679036443,0.535764184091208
-0.691556340056322,0.529508990823457
-0.698782375382762,0.523222458552643
-0.705944742645138,0.516903950978256
-0.713042216328078,0.510552852623344
-0.720073611391722,0.504168568338519
-0.727037782340239,0.497750522834154
-0.733933622342851,0.491298160238939
-0.740760062404049,0.484810943683151
-0.747516070579972,0.478288354905104
-0.754200651238173,0.47172989387939
-0.760812844358212,0.465135078465621
-0.767351724870721,0.458503444076501
-0.773816402032796,0.451834543364129
-0.780206018837698,0.445127945923544
-0.786519751457058,0.438383238012587
-0.792756808713856,0.431600022287226
-0.798916431584642,0.424777917551557
-0.804997892729536,0.417916558521761
-0.811000496048674,0.41101559560335
-0.816923576263878,0.404074694681062
-0.822766498524393,0.397093536920867
-0.828528658035654,0.390071818583517
-0.834209479710096,0.383009250849181
-0.83980841783911,0.375905559652696
-0.845324955785327,0.368760485529023
-0.850758605694441,0.361573783468519
-0.856108908225879,0.35434522278168
-0.861375432301665,0.347074586973008
-0.866557774872875,0.339761673623727
-0.871655560703133,0.332406294283044
-0.876668442168654,0.325008274367734
-0.88159609907436,0.317567453069783
-0.886438238485661,0.310083683271913
-0.891194594575528,0.302556831470771
-0.895864928486496,0.294986777707628
-0.900449028207317,0.287373415506436
-0.904946708463976,0.279716651819085
-0.909357810624835,0.272016406977774
-0.91368220261971,0.264272614654362
-0.917919778872689,0.256485221826634
-0.922070460248563,0.248654188751394
-0.926134194012748,0.24077948894434
-0.930110953804614,0.232861109166663
-0.93400073962416,0.224899049418366
-0.937803577832018,0.216893322938253
-0.941519521162771,0.208843956210628
-0.945148648751628,0.200750988978687
-0.9486910661745,0.192614474264646
-0.952146905501573,0.184434478396644
-0.955516325364483,0.176211081042484
-0.958799511037247,0.167944375250274
-0.961996674531111,0.159634467496064
-0.965108054703541,0.151281477738582
-0.968133917381568,0.14288553948118
-0.971074555499778,0.134446799841138
-0.973930289253251,0.125965419626468
-0.976701466265773,0.117441573420397
-0.979388461773719,0.108875449673716
-0.981991678826013,0.100267250805202
-0.98451154850063,0.0916171933103534
-0.986948530138145,0.0829255078786743
-0.989303111592862,0.0741924395198069
-0.991575809502153,0.0654182476987906
-0.993767169574623,0.0566032064807879
-0.995877766897839,0.0477476046856307
-0.997908206266367,0.0388517460525653
-0.99985912253096,0.0299159494156246
-1.0017311809698,0.0209405488900673
-1.00352507768274,0.0119258940703841
-1.00524154000968,0.00287235024039276
-1.00688132697405,-0.00621970140400352
-1.00844522975288,-0.0153498635187707
-1.00993407217454,-0.0245177223617506
-1.01134871124576,-0.033722847527983
-1.01269003770945,-0.0429647916695672
-1.01395897663498,-0.0522430901992056
-1.01515648804279,-0.0615572609765109
-1.01628356756532,-0.0709068039760755
-1.01734124714644,-0.0802912009362129
-1.01833059578166,-0.0897099149872004
-1.01925272030175,-0.0991623902577283
-1.02010876620254,-0.108648051458168
-1.02089991852389,-0.118166303439134
-1.02162740278118,-0.127716530723672
-1.02229248595289,-0.137298097011274
-1.02289647752827,-0.146910344651719
-1.02344073061941,-0.156552594086578
-1.0239266431424,-0.166224143255995
-1.02435565907295,-0.17592426696812
-1.02472926978196,-0.185652216228326
-1.02504901545768,-0.195407217525016
-1.02531648662106,-0.205188472068533
-1.02553332574244,-0.214995154979273
-1.02570122896777,-0.224826414420728
-1.02582194796406,-0.234681370672659
-1.02589729189458,-0.244559115139116
-1.02592912953565,-0.254458709285362
-1.0259193915481,-0.264379183497084
-1.02587007291825,-0.274319535854494
-1.025783235585,-0.284278730812956
-1.02566101127165,-0.294255697780785
-1.02550560454364,-0.304249329583613
-1.02531929611597,-0.314258480803311
-1.02510444643759,-0.324281965977859
-1.02486349958362,-0.334318557646601
-1.02459898749073,-0.344366984223146
-1.02431353457639,-0.354425927675505
-1.02400986278859,-0.364494020990013
-1.02369079714024,-0.374569845391865
-1.02335927179088,-0.384651927290753
-1.02301833674898,-0.394738734914851
-1.02267116528058,-0.40482867459006
-1.02232106212518,-0.414920086613816
-1.02197147263854,-0.425011240663426
-1.0216259930045,-0.435100330667481
-1.0212883816863,-0.445185469054799
-1.0209625723226,-0.455264680277794
-1.02065268831738,-0.465335893485153
-1.02036305942814,-0.475396934190927
-1.0200982407277,-0.485445514751574
-1.01986303440569,-0.495479223416806
-1.01966251499491,-0.505495511660469
-1.01950205876357,-0.515491679419182
-1.01938737822348,-0.525464857761689
-1.01932456298619,-0.535411988370116
-1.01932012858719,-0.545329799019559
-1.01938107543984,-0.555214773970282
-1.01951496085262,-0.565063117799321
-1.0197299881648,-0.57487071063484
-1.02003511872677,-0.584633051917527
-1.02044021500667,-0.594345188529717
-1.02095622713891,-0.604001621107207
-1.02159544182846,-0.613596179034845
-1.02237182378688,-0.623121848970882
-1.02330150009554,-0.632570531590639
-1.02440347650137,-0.641932681849263
-1.02570075428589,-0.651196748068991
-1.02722219780028,-0.660348234027822
-1.02900597592988,-0.66936797059106
-1.0311069032327,-0.678228428852992
-1.03361664736405,-0.686883571586798
-1.03678156766244,-0.6952096724824
