0.134215719252537,-0.506407137814374
0.128450183615241,-0.471326929131009
0.133094949464985,-0.370290271403008
0.189333499215335,-0.221906552503154
0.223232276802158,-0.0988335441138593
0.378467362761485,0.0833001238521333
0.505699887763896,0.146863061476286
0.598988776269197,0.182747187657671
0.632962193231318,0.178349908666643
0.609436273848349,0.179086790016538
0.522057315349006,0.239209890442772
0.40651657138635,0.329070321946511
0.22129582822413,0.478285061952719
0.216518586066873,0.598969819826367
0.0908544005920232,0.712676633491515
0.117503068814436,0.820836309313477
0.087991973124171,0.843881491031049
0.137714899560462,0.878893217243285
0.0433659252539489,0.762444449883465
-0.0776132831209593,0.669037940443417
-0.206358931813727,0.546067065917033
-0.40770349465182,0.5636358995769
-0.534703486167413,0.542771292763196
-0.657411945808508,0.593616102722764
-0.716189809737386,0.654214912252678
-0.657302825910407,0.579706284544486
-0.568954147589329,0.523351732920607
-0.558213402539397,0.309623292714066
-0.484923398830606,0.174431719916873
-0.565494686410465,0.0266247030162187
-0.608281788680909,-0.161173210094705
-0.658956487943388,-0.225763533595199
-0.680235521151579,-0.246810408470095
-0.635111578331223,-0.207911730691942
-0.525741573134413,-0.166296949006051
-0.391613479975722,-0.157470057517316
-0.216787144406149,-0.235004659182972
-0.0550669126625595,-0.34179029972511
0.0627862381652809,-0.405595386343335
0.14680541799427,-0.479142372636716
