-1.0348670242186,0.505851009725522
-1.01710225900486,0.48665397079446
-1.02183600203905,0.498340490001374
-0.979426788242503,0.457990420942232
-1.03282455512246,0.501616482824324
-0.97217493965719,0.484593141022036
-0.997816700380354,0.536752793181949
-0.957368808131852,0.5016998079204
-0.947371787410466,0.505224594726338
-0.887915560085524,0.539091971863979
-0.927354451003104,0.512845867716957
-0.96357892574217,0.47008221360494
-0.955618865799902,0.496080946709859
-0.897281350198109,0.525433600587852
-0.8960938717283,0.542254303739462
-0.877208018230281,0.5344291030609
-0.867165393565933,0.539073090789395
-0.845681114392685,0.536646402269773
-0.799784376207306,0.50042829781633
-0.851906398860988,0.569061169697879
-0.855786125695584,0.549973527246508
-0.844823998661942,0.609785198697722
-0.812082349646958,0.56481533734587
-0.796789876442425,0.573474265862114
-0.768002811822609,0.598710548148048
-0.728354275108328,0.614907571097877
-0.766603829454892,0.588833896588464
-0.711005836308496,0.59062210726897
-0.755833092605038,0.578743911686335
-0.736412146700877,0.604331838930795
-0.695364327882132,0.606530507101884
-0.753982969056044,0.57506588376521
-0.706220173690162,0.619836904682743
-0.696156946202011,0.624986521922858
-0.682580221462562,0.621406234115975
-0.676032607469973,0.635233820048969
-0.677695794463016,0.653891617419496
-0.655912088925766,0.645387364050574
-0.645853616354706,0.650420287267133
-0.635796513754583,0.655419588988761
-0.658596091778932,0.698275013663461
-0.641199574272692,0.65765348889838
-0.603869041980292,0.690917841688816
-0.582668286535722,0.642211502222996
-0.604803036947478,0.719348094958473
-0.534861428477458,0.639131523872562
-0.598674698836612,0.695727856108647
-0.584335663932611,0.719985443978832
-0.586936954516472,0.682398070946149
-0.541212757448705,0.745457592284659
-0.541309817525257,0.740940191849174
-0.542147798940564,0.720689897589895
-0.505231774287367,0.716052034230219
-0.49520556290862,0.720293211078901
-0.51514743778378,0.764609404954944
-0.497698796665968,0.764496198389104
-0.466751484917677,0.693013111370315
-0.432573628952337,0.755966631116942
-0.397461715500112,0.755808104088878
-0.467967145396745,0.764629366231557
-0.472285529474649,0.722087878187853
-0.451376366985598,0.708395954821385
-0.44703646884716,0.740793598730569
-0.389727042468322,0.713668161876036
-0.364898734277392,0.771238420671584
-0.358043780722085,0.765497055635049
-0.40785962126775,0.722148291553177
-0.371061186109128,0.789560589203723
-0.335676006199986,0.756382539079232
-0.288351268989301,0.787039970289784
-0.329503842945622,0.748217670346261
-0.315298044538004,0.782785813051631
-0.305338301067452,0.785395750596401
-0.295382582669191,0.787906905791932
-0.300564278866115,0.751492440518909
-0.239119035293869,0.837482575386803
-0.265539968064561,0.794838102158855
-0.20992421251282,0.83404292394748
-0.238927384685248,0.773875200699536
-0.259840163899175,0.780506397892304
-0.225808396137307,0.802642019573029
-0.215886175795436,0.80433107358208
-0.205968281050229,0.805913969845509
-0.196054737511592,0.807390079851199
-0.212750155527142,0.815776806887482
-0.205897310642499,0.835124766612946
-0.157641633585331,0.787051081966093
-0.118236749996834,0.847233091936929
-0.191833625585399,0.783455827507166
-0.108849268047309,0.807967322019669
-0.126783606554944,0.814687677107083
-0.153711279634096,0.851591767962634
-0.107032144273729,0.815783931690428
-0.123571516777591,0.810214174828288
-0.127105013292322,0.833007634755725
-0.111946034285009,0.848379206612593
-0.067583610077137,0.816641605672447
-0.0158504622228738,0.8440501695693
-0.000350935200753605,0.848851543956029
-0.0748740545790553,0.843932893962214
-0.00953391601386373,0.825599839909318
-0.0183754679662741,0.815197538851275
0.0117857601330805,0.823367427079561
0.014686100938684,0.815632171112815
0.00726863143857334,0.796473545635308
0.0347299525416743,0.795761311247287
0.0307186355468608,0.810954764385627
0.0622138491687708,0.830995060937389
0.0346873224001303,0.759188224606922
0.0371307706849681,0.853249162367918
0.053309052656039,0.758258454490553
0.0796993942953375,0.803930310158652
0.0818601002639697,0.758835856144158
0.0511569868666752,0.805232455879883
0.109034060121512,0.798395550633562
0.0991694206414529,0.791974718531372
0.128568378066298,0.794162701506169
0.184235915616006,0.831128190331213
0.108239052367123,0.828441183391431
0.157837104091108,0.787009663347085
0.192514475868184,0.793058887340598
0.196459549750898,0.752395076796876
0.188815271036313,0.75558822131636
0.152387460033291,0.789211427370207
0.206532762506605,0.77298834580147
0.222976525591287,0.815244300111872
0.225981815077116,0.766662934510521
0.203691111035138,0.752575144166058
0.289892932311971,0.724460518799654
0.302699329275407,0.793444171266979
0.217119148692158,0.705734048202015
0.304872546447382,0.716089596186919
0.244694615716137,0.699771297604657
0.295487348740255,0.724100957160763
0.273013092231591,0.699661714087725
0.313306309192493,0.733382448977468
0.322990136218288,0.72922091196395
0.31813662549778,0.768218902972755
0.34234708727625,0.720635167659672
0.343359900752594,0.755398205474973
0.361690165224587,0.711708952859142
0.405658989746409,0.680861547233841
0.356068530727595,0.656268093389243
0.393196060684553,0.672101732556148
0.400336761719401,0.692885665999191
0.415490178484428,0.654253200438087
0.449215208650533,0.714932427666419
0.457728460150388,0.645154927430021
0.415534651132345,0.720932982393967
0.448576750250248,0.66768140851101
0.470968080905798,0.634310924254823
0.467853555591692,0.65712874744381
0.47748819688219,0.651760106027774
0.512137635956058,0.654566960027085
0.489018186112174,0.64513029134561
0.506378224626493,0.635313146391921
0.55271287831457,0.679507573757464
0.525627685417059,0.624089401980109
0.499704302714917,0.626512665778951
0.52604717955812,0.641789833434747
0.518962245811355,0.578479965780836
0.564105268981064,0.601118240708386
0.582162070435805,0.576689959702195
0.626193607780934,0.544523594441806
0.555407780454527,0.622773922227998
0.602561025417412,0.577611403356419
0.612172580217967,0.57167617889592
0.642088977638452,0.543525476665861
0.634471752019596,0.589788343923203
0.607714002616628,0.563626306625019
0.650613892586469,0.547814858729305
0.636974836815573,0.530152190278661
0.63128831985246,0.543458165539135
0.693665247899874,0.50532720071437
0.673726827971545,0.476050930867462
0.656393060986081,0.519801344887749
0.679836692724588,0.501735102358622
0.707324061163686,0.551693888197069
0.686055467562827,0.515955850532731
0.687322419807323,0.499426891499254
0.725552227445518,0.444615642148266
0.795547799260575,0.518472080855159
0.751999246777115,0.48684335079951
0.775624312540356,0.472134539770608
0.82454304322147,0.418686700287588
0.794891148554232,0.461337213880886
0.804530740558706,0.45609007168815
0.841936710878292,0.432808284574752
0.808953093123557,0.442824874426381
0.819938452655041,0.419997971639189
0.803793070341023,0.444016460735496
0.824695006967316,0.382095274594192
0.895482128824089,0.46266448602736
0.872174204313119,0.423441854699439
0.881870609043889,0.419588996675031
0.889525232479198,0.408475926390179
0.901300724912991,0.412798845444705
0.953743951542475,0.363355413721175
0.949274330993173,0.428534554376821
0.897076456589454,0.377890444423151
-1.0269819406183,0.486008891955291
-1.01264742946512,0.456000597436016
-1.04070688657335,0.439406515397503
-1.03675373050963,0.480174740425505
-1.00108150348468,0.491978352318151
-1.00355960945714,0.462287083705775
-0.96856232797397,0.468810829494145
-0.980271890122609,0.425611786877092
-0.974715317257624,0.490492406651882
-0.939530007781134,0.455855976665933
-0.88580703290417,0.433199292492916
-0.940633450269109,0.431937485333446
-0.952718457361309,0.46786452415252
-0.882307945111915,0.396825762891103
-0.891279272215083,0.430915470312698
-0.833365699725628,0.423205237449663
-0.872012436201207,0.420118144422976
-0.825494669648514,0.380359857197677
-0.861954787157511,0.430843214874001
-0.855723685653131,0.409143496318651
-0.872998868432247,0.365518897457832
-0.823899415295235,0.391797878237557
-0.814283458300293,0.385970691365467
-0.846653547391749,0.369816745750469
-0.802876509700688,0.401596279897085
-0.785443918933124,0.368284658206645
-0.77583271814383,0.362340745687525
-0.766222136898004,0.356381628482671
-0.762871179092386,0.350545762921653
-0.754538257186237,0.342119526003779
-0.771169562598874,0.332218284165496
-0.727782011374498,0.332491181053649
-0.71817160460751,0.326527781831417
-0.662431174865786,0.343310580855668
-0.698949149078264,0.314641280837164
-0.665950951019807,0.356710513510748
-0.679723466876528,0.302833968057641
-0.649633149122768,0.272675185351917
-0.621710986161241,0.324674467417036
-0.650876367025195,0.285333482469932
-0.626303026790829,0.304957845471776
-0.626550325380212,0.295246238301971
-0.62201580907791,0.268163282213475
-0.62994806303056,0.254172646929411
-0.584598984887317,0.245837480888104
-0.60665389009984,0.207520099928009
-0.623514974200211,0.266038286395592
-0.529029734175283,0.254434752818986
-0.557081625674702,0.235748090929864
-0.505209905029598,0.234730834766366
-0.565427697231893,0.23585942572566
-0.504768146614838,0.237289728815414
-0.525677439673469,0.214279466411178
-0.470326026989465,0.17863955550456
-0.517830920438147,0.213577365867785
-0.496724885380252,0.199367018194393
-0.491632805410722,0.160658283129263
-0.477407999993171,0.189797991899541
-0.467744782311445,0.185130665355618
-0.458078288885438,0.180543731334442
-0.438096514908858,0.190888519446896
-0.438735210937101,0.171617516533912
-0.429058499872701,0.167281341319383
-0.423422037895893,0.175588123542422
-0.453245248746107,0.158495587972013
-0.376451530924804,0.136227410152797
-0.361026042154724,0.170264098663481
-0.359645924037996,0.129708899299384
-0.326349763640073,0.14675513121956
-0.365133403892506,0.188781532538228
-0.322802750652899,0.135566856570277
-0.311361435881668,0.176084785327271
-0.372826271528157,0.0899420273873184
-0.322369938737967,0.125589749683063
-0.356276485192754,0.112314190736581
-0.314646709509686,0.15336874986002
-0.269135785026608,0.0801254516644049
-0.270498991426515,0.0789041117649529
-0.236874305404843,0.133937500960034
-0.26397283715114,0.107839226300917
-0.210000733817532,0.0715815606209078
-0.20894693083608,0.149302788248467
-0.273551841896467,0.0999994388811522
-0.274361086137805,0.0676262326599378
-0.215191541729297,0.095919591423149
-0.205422183782363,0.0938571335600214
-0.181021619943318,0.0787456776647615
-0.224669208844139,0.040531679013116
-0.176087517956189,0.0883223740349319
-0.166300371180997,0.0866964852863369
-0.183194047287729,0.0379832130489385
-0.146712595956324,0.083775571774205
-0.136911941013436,0.082481197205442
-0.116038657515863,0.114393238525807
-0.0742451247484351,0.120503452882105
-0.107482777502519,0.0792655769712869
-0.0916332792993051,0.0954890871806459
-0.121738490604058,0.0285054870189506
-0.0969506152345972,0.0830872017160366
-0.0681801572838486,0.0765422654485632
-0.0984728318821332,0.123408802494964
0.000958591199841138,0.0620093544729283
-0.0386552692493092,0.0756758932879766
0.0159529392966091,0.114855348140635
-0.0501809821740343,0.0553808777865814
-0.0409799786945472,0.0526437981828458
-0.0340531865849947,0.103023083957256
-0.0288695318500639,0.117275417572463
-0.0183036180370177,0.117073590726248
0.064339067977174,0.0280078230720741
0.0331180737142318,0.077140922822449
0.0501649565374919,0.079103292158093
0.0965112463288369,0.119600222228591
0.0586477992168443,0.110271314539105
0.0450534276330512,0.131618212163667
0.121377726438795,0.0815414596097491
0.120451356890729,0.115342547882285
0.10110762833215,0.0691349906192088
0.119498052134585,0.0879216106115039
0.1354750413705,0.122437159712229
0.147746828792267,0.125586749265816
0.149277579940601,0.0933045460469124
0.159212608226693,0.0953079295208807
0.16915184440371,0.0974145820347287
0.165210830006824,0.0858592800481746
0.157341519782489,0.0904480354432575
0.19899445900834,0.104345778401651
0.229912163127869,0.111226636186463
0.223824027767802,0.151359078370286
0.241393162471342,0.0823713745606153
0.272212363996686,0.118053314135648
0.287134209828617,0.160759714881584
0.209509624210667,0.15844385532791
0.264713514055144,0.144255722165613
0.278750460802631,0.127140861855857
0.32864688593169,0.144215256516607
0.298727420035587,0.133771208011841
0.346305112635925,0.107614293705753
0.318718725411308,0.140753633728842
0.328719611360122,0.144373280010131
0.372571523991106,0.114251732469263
0.348731538687489,0.151861804669635
0.365730296905684,0.119313082755815
0.368756566760379,0.159671844652674
0.412414955910063,0.200304186456627
0.355050296506063,0.184872120932411
0.398817439247769,0.171959473114683
0.365219235348488,0.151495987175949
0.418872689649576,0.180511222173922
0.473451338702202,0.16512392643415
0.432160759279033,0.169552100044437
0.458690298341135,0.201235662891848
0.441403196622271,0.185644540693117
0.425138896681182,0.249529473667959
0.479101432483141,0.207712394632567
0.482985710110202,0.241689225374308
0.527034820256385,0.223422437562534
0.509246563390493,0.222067872829281
0.519298803623127,0.22694784350569
0.529352785766243,0.231870563727256
0.575536280627716,0.258278646086256
0.516297290549923,0.269260845182993
0.581648520137896,0.244848564808513
0.556101045209775,0.247408242281035
0.542742574262632,0.273645707346347
0.609762001382974,0.305423552994776
0.584511106397874,0.262226276545703
0.649138876117414,0.22593889415168
0.619895771479165,0.277577519439435
0.629959820310157,0.282747293876647
0.687697750408417,0.287274913997188
0.650088198804858,0.293093734879556
0.660152158823025,0.298261329693904
0.640388157868329,0.342836372721654
0.680278633221589,0.308561040830602
0.664434735640975,0.289407376274061
0.683547774976371,0.33641948556081
0.752471542813626,0.370504435730454
0.70876637153942,0.316865438813157
0.772236935745199,0.33223600940815
0.740630247276468,0.338777689042451
0.75068209149881,0.343647940930207
0.806505047149272,0.336313091417879
0.770777269905082,0.353179593404189
0.763335522692579,0.343785248847505
0.814398790340824,0.358646494605582
0.800893226537258,0.366819083605732
0.810923032780548,0.37114848474936
0.862385679826564,0.360237020047538
0.794354838328231,0.33168017114612
0.822652645540843,0.352172816905912
0.887329464296103,0.346974791936295
0.880553309630093,0.431253716772079
0.84330406989452,0.417328674347251
0.844131748000376,0.406286521075737
0.87917812093823,0.367261658861624
0.915269735566122,0.364771703148526
0.941202870033494,0.452347155670903
0.888988610819506,0.440618943483078
0.930593816957453,0.406243792238293
