-0.285905878938504,-0.112960446053391
-0.265975715946319,-0.108920890268121
-0.271251769649584,-0.132840298107875
-0.263829951163046,-0.105306582466238
-0.27613239232164,-0.115885048153723
-0.255076963912972,-0.127012051265976
-0.266857379833497,-0.153627292649329
-0.275713418845489,-0.140641076447604
-0.260300711094319,-0.15135991817551
-0.258602816473837,-0.157494286018842
-0.185207761247823,-0.0473004900664776
-0.263693321476445,-0.151714103658382
-0.279307854425766,-0.176583323322976
-0.24952284093684,-0.181886163035946
-0.239840175400539,-0.20456127037672
-0.243599602567498,-0.19387657215556
-0.240291766631031,-0.199790427504157
-0.331831898570844,-0.305005183014029
-0.242561106162794,-0.217611363478783
-0.159035778299539,-0.103749093253294
-0.196926056604264,-0.237586694759185
-0.172137572011922,-0.237598013449782
-0.215009569809274,-0.263239541192878
-0.227679574034497,-0.219751317653579
-0.17193358439726,-0.194279219851265
-0.191785835902746,-0.236180685383824
-0.194811260350911,-0.253885096066627
-0.200202647720867,-0.269719162422209
-0.192572630311108,-0.268643315232496
-0.204450362277959,-0.272680769856717
-0.170667476348659,-0.271761237126544
-0.0417503188413168,-0.170334745999936
-0.148446858601118,-0.237234505896717
-0.255572400608442,-0.40003609105034
-0.143515712971129,-0.286704346217706
-0.156059077576209,-0.274113364374357
-0.257139185298811,-0.42418677349788
-0.0131439385239913,-0.17933998326892
-0.100056541510266,-0.313097366331506
-0.105420260536661,-0.282131470727554
-0.0716110180569693,-0.309215443131531
-0.106868127741002,-0.297951981979994
-0.118474889618313,-0.32130983657005
-0.177377244484833,-0.4257472850558
-0.0650777305406766,-0.308225292085917
-0.0244255404799462,-0.298350578507807
-0.0390138499906234,-0.304427926939846
-0.0307664114279976,-0.309494183958805
-0.0220360709243316,-0.309096700866359
-0.0132638571101445,-0.30840618596253
0.0561236698194258,-0.208600785250557
0.0978059494547007,-0.189750636053402
0.0261473164705185,-0.31182140587517
0.00994367247826101,-0.251264598617781
-0.000591842071606438,-0.325950103093931
0.0484691801535739,-0.295157146754842
0.0572106725810891,-0.292042515947617
0.070023010819183,-0.257653557992956
0.177859589192437,-0.174331545250463
0.0897568659488692,-0.283022537521994
0.175493530131093,-0.190456741456486
0.0999350170931661,-0.27186241644185
0.00977343580855083,-0.340015436577804
0.166991390711808,-0.247130614696866
0.132706942307511,-0.252179944667351
0.106980433868283,-0.254570839572241
0.221519074040819,-0.12513864242989
0.147614115829413,-0.237695052480025
0.169309483453834,-0.216718296674128
0.0872707144810807,-0.314985968012826
0.175505771851777,-0.194846767962964
0.189200464709594,-0.19330600598382
0.21025679857466,-0.207947477946418
0.197784467804602,-0.178794406641638
0.212960218251471,-0.151516778027495
0.210585614429393,-0.18790688830657
0.215406237386955,-0.138323356466839
0.22953275330234,-0.119879442411554
0.231426062827876,-0.120256805547568
0.235436144378188,-0.110176720240143
0.269304986343037,-0.101999007879566
0.219827976351161,-0.0918397743414609
0.19764285260495,-0.0943616555145173
0.232016351349275,-0.0840398844349019
0.250702735992622,-0.0572422796091147
0.252751131812748,-0.0462193158198842
0.255793783666504,-0.0238229397280692
0.287722319125282,-0.0155643845137511
0.257395657388806,-0.00103471226039836
0.357033749733244,0.113083049607574
0.347646366065249,0.115102496105235
0.267523931139589,0.0583336953149144
0.259047613533315,0.101235806416257
0.262348452130006,0.0715707546188061
0.266625121624103,0.0874751794577529
0.237743148139268,0.153691047361423
0.24435379528139,0.112273246529149
0.246949083003254,0.152973543955758
0.198458982961246,0.181448692948695
0.225944826469413,0.161258135762471
0.197807749388188,0.158000311292678
0.113998530872094,0.105868821288014
0.204142466918613,0.199435301146346
0.101735719235482,0.0775092401885754
0.202906270484361,0.209066519236908
0.192499333910367,0.220897273535751
0.134705145137692,0.226007964424973
0.173938452838111,0.247068673615057
0.14836489944899,0.276141413187216
0.0374508737195019,0.183669525603449
0.120907765747729,0.313151819653404
0.0970914700105916,0.284189082102969
-0.016554664478945,0.216866218116361
0.0632232362814136,0.343788113106769
0.0557646545341445,0.348967142286448
0.0105735651439152,0.3351879931243
-0.0213402065463289,0.381853654102191
-0.0903449362621113,0.361604854757514
-0.0188422813249418,0.387955378789662
-0.0757843419964921,0.393028110401393
-0.103727291994351,0.400452795827991
-0.11795175719509,0.402025459216475
-0.149244044934385,0.411111437664575
-0.178426869947656,0.429510098683273
-0.204967547006522,0.401805623085288
-0.208135063642753,0.417502344112034
-0.248873447801487,0.395328432284574
-0.295883821686616,0.35721083547317
-0.272624157104113,0.388939938332794
-0.321612807813607,0.374006987925123
-0.306869891378057,0.376159725695233
-0.34003200437868,0.364119348156311
-0.337367334698781,0.354465941248548
-0.442996580990349,0.308490251536873
-0.479886470044,0.267540321397133
-0.479606480857226,0.278238742787793
-0.4912342903507,0.267309388785002
-0.618127085371577,0.133401215536664
-0.477280128751672,0.303619091339888
-0.524188209075879,0.232101819090381
-0.549830975941775,0.225036263900684
-0.547607067055315,0.217244004600602
-0.57710497829569,0.168924257791687
-0.583605343115751,0.13697335374272
-0.607668743785906,0.111040306562271
-0.62071091488851,0.0758159951958403
-0.724685821546563,-0.0386147952109027
-0.625821357729817,0.0439367227867157
-0.644102697634234,0.0019990905753949
-0.641579437721188,-0.0021474393297896
-0.587372764093541,-0.057583398087221
-0.621973956657959,-0.0298433568516723
-0.648248379117754,-0.1185067900999
-0.655153259811605,-0.137861734355483
-0.61103769210083,-0.156847235723756
-0.630042174275946,-0.158666281487968
-0.664313232022348,-0.193913357747846
-0.63825390771937,-0.214652239037104
-0.598784880457728,-0.242635030536728
-0.630392228707513,-0.249663206539572
-0.625604971126717,-0.267051631204501
-0.620248093899966,-0.284337129329444
-0.582512986407495,-0.307553471370759
-0.590101426339235,-0.347973163549477
-0.667590828441507,-0.49657405991897
-0.557226733227854,-0.416680801317685
-0.546896085352809,-0.432204579359292
-0.673558331973349,-0.576328084260995
-0.658457622048194,-0.529290824060484
-0.531827536140786,-0.486822771771998
-0.500410730375343,-0.491254922192517
-0.493993297664838,-0.522961572026981
-0.446105862215314,-0.544610450111922
-0.42046587844524,-0.548967511317684
-0.447371197883112,-0.556004794267151
-0.413347331404685,-0.58346249700704
-0.339392500625204,-0.6119669276166
-0.148815926451195,-0.544479387837215
-0.262703394721609,-0.653820939037471
-0.254550287707287,-0.674560101414075
-0.225070024521978,-0.666766856883757
-0.20587569636987,-0.67236220031409
-0.166823345785873,-0.681750885490191
-0.266306269331442,-0.79302710092641
-0.106870407603922,-0.691205982753458
-0.0662139915335503,-0.694342559454161
-0.0489184059066077,-0.687202477333264
0.016019597694272,-0.69282595127828
-0.0782814906556753,-0.805852786754621
0.084958765805084,-0.69138669334359
0.0913122446085514,-0.67419122036951
0.0983664453882144,-0.680755887587731
0.276982956572875,-0.615046549895336
0.31302374566589,-0.606735016721535
0.357073098081319,-0.608725293135709
0.384875265791502,-0.542754306866002
0.405822218725526,-0.54474084565206
0.40530224588587,-0.46938016036534
0.548030453445384,-0.39910862669561
0.562659372501657,-0.353291103742552
0.492676158715838,-0.432472887492636
0.534623205198048,-0.352934672053722
0.572898988926483,-0.329872978959582
0.549416238968966,-0.325632013366715
0.706202055721939,-0.183388670850672
0.626984623588468,-0.14702132689257
0.622433002301727,-0.111302152282948
0.640692590262828,-0.11888880448524
0.646081153731045,-0.0663462257596347
0.622410198435341,-0.00683112012284907
0.644538663618176,0.0152401593347635
0.636465556021209,0.118649526022894
0.623463009361487,0.173991065640772
0.718009101360663,0.32159348708732
0.598169464665744,0.272835383509543
0.546576739624078,0.426229997098564
0.532975173358392,0.411545524944711
0.477421992031297,0.483579785075537
0.434621138613576,0.496121002570829
0.288204655438766,0.623737449003273
0.252209655007858,0.666844914792158
0.18385631501113,0.697977261709204
0.152470870178839,0.727939447743165
-0.0783868038072627,0.785511326317882
-0.191057941320867,0.757154362360567
-0.48054807458374,0.741648788821736
-0.746955176953581,0.573768192818983
-0.8175720020658,0.519935062446978
-0.857905125535098,0.435398584774316
-0.916066235046471,0.387633503316061
-1.06439303525555,0.159244617282456
-1.07460929575343,-0.0192379051051604
-1.02665652646819,-0.0528404395077472
-0.996763800694192,-0.0940073557677654
-1.00920797818369,-0.103460019600537
