-0.776250554936039,0.887054506341699
-0.776568371096839,0.886619162587708
-0.776910361067061,0.886146406307684
-0.777278821368588,0.885632175089489
-0.777676308769718,0.885071871487
-0.778105674208335,0.884460279944013
-0.882273969837894,0.780218338398622
-0.779073152484836,0.883058674536923
-0.779618816796202,0.882254163974462
-0.780211571734959,0.881369070776678
-0.780856448909533,0.88039319964276
-0.781559111625478,0.879314791701705
-0.782325943577712,0.878120242128121
-0.783164150572148,0.876793758996797
-0.784081876999125,0.875316949533198
-0.825203140568497,0.871541188234831
-0.786193975020477,0.871822641022428
-0.948598319633262,0.796864060042589
-0.788751688071858,0.867415971888545
-0.741525765213498,0.857516904349787
-0.741912023520421,0.826826025694449
-0.775961212409772,0.907612648270607
-0.943301893283251,0.786124488530725
-0.767836963866955,0.875345481970693
-0.80041902314315,0.844902910183271
-0.80318757631985,0.838964816055673
-0.806271611374592,0.832065687914353
-0.664193073896858,0.916372372034836
-0.830766560411583,0.791981737642719
-0.817783830955689,0.803419383082079
-0.822495248613087,0.790207199312932
-0.754960675599596,0.882360275376217
-0.813951156399583,0.752425927888097
-0.851163652620978,0.726379090642208
-0.835907811018927,0.720134612784018
-0.760334018463879,0.766631926199519
-0.836702183500858,0.657921124312833
-0.86489931358646,0.579345921652832
-0.994177497260559,0.421184630936082
-0.830748043894471,0.397147163714592
-0.874064167778209,0.3893638609977
-0.847132918456565,0.225188362225584
-0.712556960188065,0.212138004211799
-0.78857624498744,-0.0535505484054213
-0.664552834482247,-0.28104118513244
-0.523915449409337,-0.489869304966509
-0.332874430562957,-0.719820054137768
-0.0707797339120823,-0.859784891957626
0.240446348892587,-0.942158703717629
0.520873241725979,-0.925084128382275
0.73015224268796,-0.74490172808831
0.902626909356497,-0.514467484280923
0.954767676858539,-0.188263841388355
0.869961497025656,0.11248152050658
0.719066004214165,0.339480405789429
0.482279474109969,0.560425197164482
0.337102885924485,0.684989593488736
0.191245787957158,0.748442612982374
0.0288464684809947,0.829536340337897
-0.128473234924631,0.90112895679731
-0.205469806765415,0.8896537288296
-0.323445260154089,0.991359014016505
-0.360233915765767,0.998608831203179
-0.488807532570137,0.983281763043931
-0.469603809830338,0.932677039983442
-0.503741680912813,0.923198651737766
-0.582042006418039,0.946038708468342
-0.721587117260711,0.845182192668941
-0.631196262728052,0.939239425473681
-0.649759798629799,0.935809188039528
-0.665313636239701,0.932519908842489
-0.678416344224513,0.9294264061061
-0.589394324307771,1.02702284393347
-0.698958508162026,0.923908229863277
-0.707039135984244,0.921485672787077
-0.713984995948009,0.919275233269344
-0.602808511811726,1.01947383538278
-0.725184717033928,0.915433161781836
-0.729715218690871,0.913770429188514
-0.733676760971051,0.912259466848525
-0.737154014454473,0.910885911760178
-0.63286754378252,1.02446776754968
-0.742925243301515,0.908498856241314
-0.745327014787464,0.907462063967902
-0.747463955729043,0.906516052050474
-0.74937100276303,0.905651812191252
-0.751077790800685,0.904861262892219
-0.867512899067345,0.802953883707108
-0.75398785763193,0.903473049056866
-0.755231198672003,0.902863119935564
-0.650478668370059,1.00591626751709
-0.757374491074757,0.90178566622937
-0.758300091841095,0.901309367895677
-0.759142640762181,0.900869596960513
-0.759911150914034,0.900463027855134
-0.760613498399961,0.900086677068784
-0.761256584584165,0.899737865119634
-0.761846472656499,0.899414182856058
-0.762388502963945,0.899113461632265
-0.862289383096812,0.780272603748942
