0.975063601914664,-0.300672859603754
0.974841633014951,-0.300658725720789
0.974176163670872,-0.300611673466235
0.973068097058766,-0.30052474919407
0.971518665075167,-0.300391035843862
0.969529427082028,-0.300203661537957
0.967102268354487,-0.299955808134154
0.964239398232747,-0.299640719724959
0.960943347979876,-0.299251711074549
0.957216968347653,-0.29878217598466
0.953063426852847,-0.298225595580663
0.948486204766608,-0.297575546509173
0.943489093819924,-0.296825709038654
0.938076192628371,-0.295969875054526
0.932251902839657,-0.295001955940442
0.926020925007729,-0.293915990337476
0.919388254197471,-0.2927061517731
0.912359175324294,-0.291366756151973
0.904939258233163,-0.289892269100663
0.897134352521859,-0.288277313158614
0.88895058211353,-0.286516674807799
0.880394339583821,-0.284605311333659
0.871472280248106,-0.28253835751011
0.862191316014581,-0.280311132101577
0.85255860900921,-0.27791914417517
0.842581564978712,-0.275358099216353
0.832267826478027,-0.272623905041602
0.821625265848865,-0.269712677501808
0.810661977996182,-0.266620745970327
0.799386272969584,-0.263344658609854
0.78780666835689,-0.259881187412485
0.77593188149721,-0.25622733300756
0.763770821521127,-0.252380329232135
0.751332581225685,-0.248337647459141
0.738626428792085,-0.244097000678553
0.725661799354096,-0.239656347327122
0.712448286425387,-0.235013894862496
0.698995633194056,-0.230168103077794
0.685313723692813,-0.22511768715296
0.671412573853354,-0.219861620439503
0.642993221966522,-0.208729733727861
0.613819996573021,-0.196769481919615
0.598976861527784,-0.190478958252136
0.583976838269369,-0.183982167126152
0.56883060765945,-0.177279944080996
0.553548907782835,-0.17037339518839
0.538142524359517,-0.163263897329521
0.522622281130982,-0.155953098186634
0.475486998076824,-0.132833423712289
0.459619976330272,-0.124739295977325
0.443693446695563,-0.116456147088908
0.427718258882409,-0.107987233365971
0.411705233384085,-0.0993360738843586
0.379608748362709,-0.0815023937745773
0.363546698663354,-0.0723282031737877
0.34748961227628,-0.0629884209276265
0.331448022599921,-0.053487840168579
0.315432377937836,-0.0438314989829394
0.299453032490248,-0.0340246765012111
0.283520237455862,-0.0240728887279711
0.267644132252463,-0.0139818841150655
0.251834735864652,-0.00375763888226985
0.236101938326946,0.00659364791019823
0.220455492350357,0.0170655595326743
0.204905005100369,0.0276514669956658
0.189459930134141,0.0383445346929624
0.174129559504545,0.0491377262728755
0.158923016038513,0.0600238107320058
0.143849245796981,0.0709953687257173
0.128917010723533,0.0820447990892689
0.114134881488663,0.0931643255633471
0.0995112305363561,0.10434600371753
0.0850542253395306,0.115581728065007
0.0707718218706141,0.126863239361696
0.056671758293358,0.138182132082693
0.0427615488817486,0.149529862068824
0.00224170889083393,0.183658719584129
-0.0236950750912927,0.206393317718797
-0.0363216040448301,0.217727883285109
-0.0487124084549178,0.229028269773891
-0.07276497824205,0.251489001819377
-0.084416483331971,0.262630445851539
-0.128417094194501,0.306380852283217
-0.138745790990058,0.31706664783904
-0.148798858226736,0.327632497911272
-0.158573274603246,0.338068798092932
-0.168066308111966,0.348365962926312
-0.177275517022099,0.358514435220282
-0.19483414937149,0.378327270647292
-0.203180145510938,0.387972744520065
-0.211235462382856,0.397431765878969
-0.218999114211188,0.406695058274753
-0.226470405292446,0.415753429089606
-0.233648928948799,0.424597778655932
-0.240534566194718,0.43321910931027
-0.253428133983904,0.449757287047709
-0.259437249044546,0.457656729222911
-0.265155842089792,0.465298360181499
-0.270585202708857,0.4726738251951
-0.275726894285955,0.479774924003276
-0.280582750726666,0.486593619166268
-0.285154872919661,0.493122044283356
-0.289445624937726,0.49935251206862
-0.293457629982265,0.505277522276022
-0.297193766075742,0.510889769465884
-0.303851190032648,0.521147772492509
-0.306779465844944,0.525779959004841
-0.309445838302837,0.530072258151156
-0.314009413254384,0.53761254800373
-0.315915439775362,0.540848816111506
-0.318999629224104,0.546226160092918
-0.320187868170219,0.548357032920045
-0.32188327679018,0.55147967156365
-0.32240165529945,0.552462855761592
-0.32280907674193,0.553253613719615
-0.322710332593776,0.553054316072131
-0.322418346369485,0.552454476587442
-0.321280674857639,0.550042696481853
-0.320448326769999,0.548226278692669
-0.319449394750336,0.5460003708737
-0.318290834256267,0.54336350841594
-0.310353552816121,0.523985712315022
-0.306314373839269,0.513342142909827
-0.30413935872311,0.507402975015476
-0.301870774249208,0.501053994316666
-0.299516185446234,0.494296935636727
-0.297083170144654,0.487133855416178
-0.289389350554945,0.463233853448524
-0.281261875880839,0.435784320058767
-0.275702296224031,0.415564367357312
-0.272902212915109,0.404892025721245
-0.26729758260768,0.38244848348723
-0.261734171650085,0.358577721840702
-0.258985244660016,0.346122433076755
-0.256267189627124,0.33332926011603
-0.253586621250789,0.32020508593388
-0.248363750449408,0.292992596712406
-0.245834002620745,0.27891936137342
-0.243366836360707,0.264545272210647
-0.240968148738817,0.249878489951132
-0.236398969479733,0.219700665902227
-0.234239424414771,0.204207101792096
-0.230196424461107,0.172455991842284
-0.228322798990084,0.156217195080147
-0.226553979104059,0.139749063077802
-0.224894375959228,0.123061448325341
-0.220611789321495,0.0717828322017709
-0.218373990061869,0.0366878657139579
-0.217450199428548,0.0188995579315617
-0.216660351971892,0.000965204229568833
-0.215492663625942,-0.0352974377221205
-0.215119303080856,-0.0536033685309297
-0.214888841133289,-0.0720106491777106
-0.21486284390051,-0.109083623399642
-0.215424607793702,-0.146424463684149
-0.216579995976993,-0.183940493158161
-0.217381009719776,-0.202735105883912
-0.218330767631994,-0.221538567390652
-0.219428846187277,-0.240339213127136
-0.222066985850299,-0.277885459364253
-0.223604916637431,-0.296607820497009
-0.229076026195966,-0.35243324883336
-0.233417723838596,-0.389251121600485
-0.235789515700906,-0.40750641389835
-0.240920309458883,-0.443654089714708
-0.249533392182524,-0.49680482277593
-0.252633676153035,-0.514193486827249
-0.255841581661757,-0.531400648590632
-0.259152579265304,-0.548416115108729
-0.262561929200146,-0.565229861478957
-0.266064686444665,-0.581832039097496
-0.269655706011488,-0.598212983734348
-0.277080985656908,-0.630273486219045
-0.284792824016967,-0.66133803805516
-0.288741379914169,-0.676474849808267
-0.292743452921837,-0.691336744087751
-0.305006247613107,-0.734192505880027
-0.30915714050369,-0.747875548860082
-0.317512460443107,-0.774294984466218
-0.325891563069202,-0.799407623850007
-0.330071790404839,-0.811458205463043
-0.33423588476063,-0.823163825189109
-0.34608504122743,-0.910930659350767
-0.338358093538726,-0.924184353876439
-0.367703369550916,-0.921523895752814
-0.411117096032398,-0.926377170864187
-0.39236588508057,-0.959980480642967
-0.397616678806423,-0.970081455929481
-0.404249027767281,-0.982259068553526
-0.408352263176174,-1.01863262806656
-0.410261900226138,-0.972225647897211
-0.40156623774394,-1.02543643820664
-0.401363558466222,-1.03622451557839
-0.402143554481657,-0.963611689678835
-0.386314989648507,-0.993021940405844
-0.405464993652136,-0.958996211933091
-0.398560309454545,-0.950848731129054
-0.349464520201933,-0.906981646241424
-0.368996319191501,-0.942361165736093
-0.309863284036748,-0.880298927640015
-0.179798881070054,-0.765647854498242
-0.158814366299465,-0.764852312776611
-0.149936848650014,-0.678343870386667
-0.0475274720115424,-0.668459495673559
-0.0068820080156983,-0.620923732069106
-0.00766757465289714,-0.592856910683489
0.104379105149322,-0.546691078149693
0.141299084916919,-0.557205295783537
0.205355800664351,-0.519823373147656
0.256021749646939,-0.494885587051991
0.273673957367042,-0.472838888121076
0.319656147763269,-0.434548999923545
0.341121754224901,-0.456274719585824
0.459344682907882,-0.409212510980525
0.492459641667932,-0.397377650414075
0.573051372445279,-0.371041473107982
0.604180258907622,-0.361815317636796
0.61946434302325,-0.357481467032543
0.634547484482345,-0.353332610871229
0.664069527734614,-0.34558487406365
0.746761182214526,-0.326606413309642
0.772111704812785,-0.3216341184776
0.796235188492092,-0.317295646598858
0.819064306507848,-0.31355989506594
0.87916752100432,-0.305610166938177
0.887888098755533,-0.304707880818074
0.904161033302302,-0.303216571954988
0.943255913548375,-0.300818082495939
0.952928115413192,-0.300542317302257
0.967072924791114,-0.300458211115228
0.974175074713532,-0.300630317943978
