1.01458031607804,-0.106391392103074
1.01589653254242,-0.0917750993626013
1.01172007527341,-0.0758206052091052
1.00211532566511,-0.0588109183097086
0.987238299282358,-0.0410414771397103
0.967334477373458,-0.0228127223451402
0.942735009240044,-0.00442268514297531
0.913851347841623,0.0138402422706811
0.88116841060421,0.0317041936049184
0.845236385339159,0.0489202206355477
0.806661326920013,0.0652680505301466
0.766094713412794,0.0805610830791653
0.724222150261182,0.0946505200628029
0.681751427504893,0.107428538723534
0.639400147537465,0.118830442883134
0.597883149342784,0.128835748179163
0.557899959321119,0.137468181709614
0.520122498640353,0.1447946005587
0.485183272525778,0.150922857717241
0.453664258115304,0.155998667297069
0.426086694621786,0.160201543173739
0.402901962805188,0.163739905803392
0.384483720483591,0.166845470509849
0.371121437391241,0.169767046632391
0.363015446571985,0.172763890219769
0.360273601177879,0.176098763167463
0.362909595567873,0.180030858602789
0.370842978544494,0.18480875577542
0.38390085502194,0.190663567630482
0.4018212409906,0.19780244062316
0.424258005931432,0.206402559247148
0.450787307425076,0.216605797336799
0.480915395155343,0.228514144676687
0.514087636348313,0.242186021090654
0.549698592393246,0.257633571323053
0.587102957380227,0.274821013059055
0.625627153918078,0.2936640877947
0.664581370149634,0.314030640433135
0.703271814568358,0.335742328950071
0.74101296218867,0.358577440753871
0.777139566877305,0.382274767984509
0.811018220176375,0.406538470466361
0.842058246619584,0.431043832852109
0.869721739160349,0.45544380214247
0.893532555617584,0.479376173676501
0.913084117654353,0.5024712782523
0.928045877326038,0.524360010597044
0.938168342202294,0.544682030236921
0.94328657796934,0.56309396013376
0.943322136708699,0.579277406397036
0.938283389153019,0.592946624014105
0.928264269553319,0.603855658859147
0.913441471766722,0.611804805157164
0.894070164211143,0.616646229934074
0.870478318875548,0.618288631546313
0.843059775095285,0.61670081785525
0.812266181817445,0.611914110633539
0.778597982158187,0.604023505948623
0.742594620819295,0.593187545103097
0.704824168078245,0.579626876725958
0.665872563360674,0.56362151727929
0.626332686689305,0.54550684403173
0.586793467501333,0.525668380907627
0.547829237440598,0.504535463009176
0.509989526845116,0.482573889504595
0.473789493927197,0.460277696482179
0.439701161319459,0.438160200829067
0.408145617042813,0.416744482792322
0.379486316412406,0.396553488261828
0.354023598361105,0.378099941685176
0.331990504600989,0.361876266659104
0.313549963472456,0.348344713488737
0.298793372786336,0.337927891290608
0.28774058800116,0.330999896543188
0.280341294255275,0.327878220443376
0.2764777136452,0.32881660417135
0.275968573244122,0.333998994436356
0.27857423519625,0.343534731780424
0.284002868274727,0.357455081428052
0.291917520976658,0.375711191418169
0.301943939916714,0.398173535819585
0.313678964276434,0.424632872532535
0.326699317606966,0.454802716066097
0.340570612532818,0.488323296322927
0.354856381951684,0.52476694539504
0.369126952181551,0.56364482625013
0.38296797910484,0.604414890524867
0.395988477558667,0.646490927971422
0.407828186806146,0.689252547921145
0.418164130614341,0.732055913883215
0.426716248916405,0.774245036478879
0.43325199885073,0.815163417652659
0.437589845704477,0.854165830759399
0.43960158846163,0.89063001688325
0.439213489758851,0.923968077705216
0.4364062055614,0.95363734942129
0.43121353525615,0.979150550562701
0.423720037594166,1.00008500894085
0.41405758149241,1.01609078911067
0.402400922639873,1.02689756142096
0.388962416700992,1.03232007653298
0.373985997266747,1.03226213481126
0.357740561222884,1.02671896774078
0.340512915596629,1.01577797797595
0.322600447985817,0.999617815216954
0.304303687215204,0.978505796253406
0.28591892182508,0.952793708616025
0.267731041372893,0.922912067736251
0.250006759389918,0.889362926744172
0.232988367325294,0.852711365472406
0.216888156142442,0.813575810346639
0.20188362668626,0.772617359145507
0.188113591851724,0.730528303670052
0.175675253345768,0.688020058804773
0.164622313879002,0.645810717976565
0.154964162421565,0.604612462397993
0.146666146203029,0.565119054570853
0.139650918939686,0.527993645260883
0.133800830848186,0.493857117555035
0.128961302860524,0.463277181782877
0.124945105583262,0.43675842120917
0.121537443408116,0.414733470749229
0.118501726209616,0.397555489859409
0.115585895641062,0.385492066615254
0.112529160491494,0.378720663271588
0.109068986162935,0.377325684813935
0.104948177271869,0.381297221710406
0.0999218898047859,0.390531486838035
0.0937644102249703,0.404832934985376
0.0862755434224218,0.423918022028069
0.0772864593330241,0.447420530434071
0.0666648592665169,0.474898358761282
0.0543193372463455,0.505841645814348
0.0402028286844467,0.539682075642237
0.0243150581385605,0.575803188047032
0.00670391932555112,0.613551501142393
-0.0125342564545834,0.652248238086168
-0.0332555632727293,0.691201439682055
-0.0552705100632764,0.72971823828868
-0.078347107133617,0.767117066498553
-0.102214995952697,0.802739576378194
-0.126570545243437,0.835962051635497
-0.151082814639275,0.866206105759675
-0.175400267338759,0.892948473742655
-0.199158095731106,0.915729723143586
-0.221986009249648,0.93416173163635
-0.243516322063769,0.94793380235854
-0.263392169905506,0.956817314881281
-0.281275680539308,0.960668837920727
-0.296855921245039,0.959431659459867
-0.309856449243224,0.953135720166209
-0.320042297219609,0.941895966289867
-0.327226235899489,0.925909168020594
-0.331274168803281,0.905449277997083
-0.332109530634993,0.880861431746595
-0.329716579900585,0.852554716771018
-0.324142497949846,0.820993859314687
-0.315498230257289,0.786689997130886
-0.30395803093484,0.750190722450671
-0.289757697697317,0.712069591560606
-0.273191511252391,0.672915305699869
-0.254607919817233,0.633320772254712
-0.234404035629558,0.593872255401797
-0.213019035384145,0.555138821455264
-0.190926579969694,0.517662276309039
-0.168626390217076,0.481947780717335
-0.146635134150571,0.448455313977636
-0.125476797059391,0.4175921381955
-0.105672718235835,0.38970639410428
-0.0877314871813341,0.365081935824852
-0.0721388972553475,0.343934486464142
-0.0593481560021033,0.326409169585813
-0.0497705486821803,0.312579443885106
-0.043766744884382,0.302447440419367
-0.0416389276022383,0.295945674045459
-0.0436239100098745,0.292940073845276
-0.0498873876192392,0.293234251811535
-0.0605194528694094,0.29657490541793
-0.075531475876657,0.302658228370507
-0.094854429504668,0.311137185241283
-0.118338709588277,0.321629490173913
-0.145755472589471,0.333726117713644
-0.176799483736426,0.347000165269252
-0.211093439366553,0.36101588190862
-0.248193698339409,0.375337677191274
-0.287597329574908,0.389538926542117
-0.328750356558863,0.403210396185555
-0.371057055564879,0.415968120727956
-0.413890142853413,0.427460579867362
-0.456601667660399,0.437375037124877
-0.49853441275697,0.445442922574122
-0.539033593060359,0.451444162883545
-0.57745863544438,0.455210385126757
-0.613194819699406,0.456626945269896
-0.645664561609693,0.455633757499187
-0.67433812435127,0.452224926079474
-0.698743553784973,0.446447206705732
-0.718475646564072,0.438397348802287
-0.733203777053628,0.428218393435263
-0.742678429554816,0.416095022957739
-0.746736305860118,0.402248077767887
-0.745303904291928,0.3869283722387
-0.738399494603545,0.370409955639758
-0.726133442911225,0.35298297444421
-0.708706871610244,0.33494629959276
-0.686408670417645,0.316600085936599
-0.659610905680523,0.298238431142914
-0.628762705295119,0.280142297834102
-0.594382725415904,0.262572855734139
-0.55705033203831,0.245765390273863
-0.517395654992752,0.22992391069118
-0.476088693416824,0.21521657444651
-0.433827669958333,0.201772026109769
-0.391326845449702,0.189676728165036
-0.349304016300716,0.178973338866846
-0.308467923174611,0.169660168844555
-0.269505801516059,0.161691724088179
-0.233071302145778,0.154980318772362
-0.199773003466422,0.149398717598749
-0.170163725962896,0.144783744465797
-0.144730844832743,0.140940772794786
-0.12388777803162,0.137648993207593
-0.107966805119168,0.134667336883256
-0.0972133474607635,0.131740918186165
-0.091781813056024,0.128607848373828
-0.0917330800481906,0.125006263609323
-0.0970336623792366,0.120681405308886
-0.107556569679656,0.115392589163566
-0.123083841919886,0.108919901027308
-0.143310708205872,0.101070463229473
-0.167851288969297,0.0916841236416664
-0.196245732258096,0.0806384318287723
-0.227968648418375,0.0678527815966361
-0.262438683675817,0.0532916169051084
-0.299029052422806,0.0369666180796351
-0.337078830785995,0.0189378071126065
-0.375904800609107,-0.000686465858161539
-0.414813623584924,-0.0217506685590304
-0.453114120077171,-0.0440543540529353
-0.49012942627426,-0.0673555140348842
-0.525208806715973,-0.091374958291944
-0.557738906851451,-0.115801637754572
-0.587154241960848,-0.140298807243831
-0.612946734264319,-0.164510904745723
-0.634674129037794,-0.188071007235525
-0.651967142675362,-0.210608709098332
-0.664535220443988,-0.231758258356633
-0.672170808677622,-0.251166778467506
-0.674752074823938,-0.268502399568019
-0.672244038526646,-0.283462122831844
-0.664698107219042,-0.295779245081866
-0.652250039931894,-0.305230177935673
-0.635116392596069,-0.31164050642057
-0.613589526478101,-0.314890145986525
-0.588031287981759,-0.314917473903811
-0.558865492374418,-0.311722330827497
-0.526569365593764,-0.305367810455702
-0.491664116754233,-0.29598077926479
-0.454704828962606,-0.283751093793121
-0.416269867297568,-0.268929509354107
-0.376950010112627,-0.251824300856082
-0.337337513068006,-0.232796643046769
-0.298015314447762,-0.212254823439826
-0.259546585417266,-0.190647385886989
-0.22246482004649,-0.168455325720573
-0.187264647366855,-0.146183478128594
-0.154393531716221,-0.12435125950196
-0.124244508497956,-0.103482936524324
-0.0971500806353221,-0.0840976094340821
-0.073377376892861,-0.0666991039141921
-0.0531246473556254,-0.0517659702701085
-0.0365191442310663,-0.0397417888262949
-0.0236164083146999,-0.0310259767723649
-0.0144009534980243,-0.0259652840657379
-0.00878831415339026,-0.0248461545719827
-0.00662839365206869,-0.0278881135969052
-0.00771002718248051,-0.0352383246090535
-0.0117666489263342,-0.0469674366086645
-0.0184829329696728,-0.0630668196716723
-0.0275022594704297,-0.0834472601412876
-0.0384348429118292,-0.107939159255735
-0.0508663480139221,-0.136294250224894
-0.0643668112549299,-0.168188819461187
-0.0784996820965108,-0.203228388404946
-0.0928307979623255,-0.240953783737592
-0.106937110759714,-0.280848496314002
-0.120414990155531,-0.32234720341434
-0.132887939740926,-0.364845305430258
-0.144013576397323,-0.407709307333371
-0.153489740293707,-0.45028785764695
-0.161059622631763,-0.491923243516692
-0.166515820088357,-0.531963130147874
-0.169703248420576,-0.569772326565484
-0.170520872401265,-0.604744357505036
-0.168922234625219,-0.636312623317135
-0.164914791239266,-0.663960936049065
-0.158558087774476,-0.687233230249818
-0.149960832477222,-0.705742261348495
-0.139276947350571,-0.71917712242061
-0.126700698062382,-0.727309431450329
-0.112461022526102,-0.729998065421512
-0.09681519393853,-0.727192344270164
-0.0800419670463029,-0.718933596399889
-0.0624343661536759,-0.705355067554594
-0.0442922796902883,-0.686680165784141
-0.0259150289134555,-0.663219066436221
-0.00759407748333538,-0.63536373196206
0.0103939557456691,-0.603581431240621
0.0277938262204369,-0.568406871528571
0.0443775920941585,-0.530433082482278
0.0599498123090712,-0.490301215463377
0.0743519019879807,-0.448689442069662
0.0874655519806713,-0.406301153124972
0.0992151405650694,-0.363852672877885
0.109569087942291,-0.32206071263471
0.118540127806109,-0.281629793300244
0.126184494407113,-0.243239867214749
0.132600047656462,-0.207534366235498
0.137923382411033,-0.175108895278513
0.142325990649773,-0.146500778655627
0.146009566311028,-0.122179650739407
0.149200561665022,-0.102539263064664
0.1521441208383,-0.0878906573014391
0.155097530130963,-0.0784568280442483
0.158323335773136,-0.074368971544104
0.162082287517555,-0.0756643868962607
0.166626270792048,-0.0822860653550161
0.17219139094193,-0.094083971967847
0.178991370354945,-0.110817992207099
0.187211413031324,-0.132162485330949
0.197002681563283,-0.157712356417291
0.208477518717001,-0.18699053095247
0.221705530127848,-0.219456690054974
0.236710626350037,-0.254517101361567
0.253469102023353,-0.291535360735125
0.271908807657964,-0.329843843642441
0.291909445957719,-0.368755652599997
0.313304000195885,-0.407576838724054
0.335881277436923,-0.445618671296926
0.359389524883914,-0.482209729439917
0.383541053841382,-0.516707594447881
0.408017783222007,-0.548509929989883
0.432477593674434,-0.577064750034422
0.456561364714885,-0.60187969075691
0.479900551112788,-0.622530122502305
0.502125141562524,-0.638665960710755
0.522871832664336,-0.65001706011656
0.541792244666582,-0.656397103999529
0.558561002447601,-0.657705929263314
0.572883505924625,-0.653930258070786
0.584503218478777,-0.645142837098082
0.593208310013727,-0.631500015588276
0.598837502779393,-0.613237822710635
0.601284982878033,-0.590666632698115
0.600504258145941,-0.564164532309166
0.596510863525143,-0.534169528844468
0.589383837704961,-0.501170757798239
0.57926591927397,-0.465698866848539
0.566362436390468,-0.428315766967346
0.550938890536208,-0.389603951706786
0.533317261726972,-0.350155592015736
0.513871089069487,-0.310561616163779
0.493019406234725,-0.271400982479766
0.471219635734367,-0.233230346714549
0.448959568335854,-0.196574316053913
0.426748574063004,-0.16191646835791
0.405108208578837,-0.12969129837654
0.384562392963368,-0.100277232844237
0.365627355671664,-0.0739908339008346
0.348801532542926,-0.0510822856863518
0.334555623960093,-0.0317322327146839
0.323323007537252,-0.0160500112786539
0.315490700024394,-0.00407328722812852
0.311391053529799,0.0042309144472488
0.311294358812651,0.00896383015199917
0.315402512510884,0.0102912965109443
0.323843886032623,0.00843890030182648
0.33666951181073,0.00368605485095611
0.353850678115763,-0.00364086174211936
0.375277997111044,-0.0131761540911225
0.400761982825303,-0.0245230764046469
0.43003514675633,-0.0372625420828233
0.462755589468218,-0.0509620926602974
0.498512037380309,-0.0651849398207223
0.536830245542925,-0.0794988951152179
0.577180660115361,-0.0934850066905129
0.618987209045414,-0.106745730648996
0.661637066601271,-0.118912476425941
0.704491217387285,-0.129652380513546
0.746895628692427,-0.13867418065842
0.788192826819119,-0.145733082923486
0.827733663698569,-0.150634536303914
0.864889054817835,-0.153236853446582
0.899061468388608,-0.153452640941858
0.929695948819116,-0.151249028113648
0.956290464869393,-0.14664670869912
0.978405384253476,-0.139717834755769
0.995671891698202,-0.130582826046698
1.00779918629886,-0.119406180544465
1.01458031607804,-0.106391392103074
