0.713884696231388,-0.761111454467546
0.723693915129824,-0.74945795839487
0.731322645926337,-0.735757954555312
0.736716227414972,-0.720143374500668
0.739849493512442,-0.702768637697167
0.740727713443421,-0.683807896634527
0.739387079570735,-0.663452025152731
0.73589472977857,-0.641905400249558
0.730348298478461,-0.619382530387308
0.722874997613193,-0.596104585214292
0.713630236368647,-0.572295882630118
0.702795795552742,-0.548180389242473
0.690577579649656,-0.52397828949011
0.677202976294817,-0.499902677059255
0.662917859234514,-0.476156419729831
0.647983276632486,-0.45292924549815
0.632671871771142,-0.430395093790955
0.617264087683328,-0.408709770880589
0.602044210968347,-0.388008943311564
0.587296312931797,-0.36840649734329
0.573300148193859,-0.349993286198097
0.560327071999946,-0.332836280380252
0.548636037619995,-0.316978129607111
0.538469734431823,-0.302437138077483
0.530050925558106,-0.289207648005363
0.523579041288536,-0.277260819679258
0.519227081005706,-0.266545789875957
0.517138871996078,-0.25699118436586
0.517426728429904,-0.248506954592467
0.520169548011863,-0.240986503481127
0.525411377424276,-0.234309060813055
0.533160470802996,-0.228342264760789
0.543388858206836,-0.222944903080677
0.556032433475137,-0.217969765144205
0.570991563130158,-0.213266554497767
0.588132210189657,-0.208684810991169
0.607287559029556,-0.204076791716184
0.628260119895641,-0.199300261041627
0.650824284422588,-0.19422114190049
0.674729296690005,-0.18871598314436
0.699702598033806,-0.182674201184259
0.725453498134758,-0.176000058226969
0.75167711991277,-0.168614344122387
0.778058561542847,-0.160455734081177
0.804277215542375,-0.151481800214981
0.830011182412131,-0.141669660898487
0.854941714784091,-0.131016258252929
0.878757627462167,-0.119538260499263
0.901159609147307,-0.107271592419095
0.921864373010545,-0.0942706035848464
0.940608585596683,-0.0806068902709499
0.957152516772486,-0.066367792931611
0.971283357528053,-0.0516545967287189
0.982818157336245,-0.0365804677231482
0.991606338398499,-0.0212681619188116
0.997531750370443,-0.00584754829547657
1.00051423597219,0.00954700978213435
1.00051068514212,0.0247793678892997
0.997515562979057,0.0397143599998319
0.99156090452011,0.0542205545872084
0.98271577730153,0.068172957822658
0.971085220527239,0.0814556151075718
0.956808677404297,0.0939640637863825
0.94005794467911,0.1056075922951
0.921034670508941,0.116311264171399
0.899967438422775,0.126017669233332
0.87710848116363,0.134688368762512
0.852730073570012,0.142305006630346
0.827120658266742,0.148870063899523
0.800580761726032,0.154407240426065
0.773418761172243,0.15896145328187
0.745946564795854,0.162598448310593
0.718475268785375,0.165404027714258
0.691310854766801,0.167482903135819
0.664749990359997,0.168957190145523
0.639075993736055,0.169964566249792
0.614555020320038,0.170656120417294
0.591432526174156,0.171193927559864
0.569930058175236,0.171748386324864
0.55024241593799,0.172495362867394
0.532535224613398,0.173613186902204
0.516942951301455,0.175279549223608
0.503567390959579,0.177668351976652
0.492476640469335,0.180946564226056
0.483704572057327,0.185271135776684
0.477250809666886,0.190786021739417
0.473081204263369,0.19761936901262
0.471128796544817,0.205880913679011
0.471295248236972,0.215659635331437
0.473452716188949,0.227021710583132
0.477446136959412,0.240008803545075
0.483095883591937,0.254636725933739
0.490200750912742,0.270894493785824
0.498541221024464,0.288743801591237
0.507882956784986,0.308118928108171
0.517980468007253,0.32892708129785
0.528580892937769,0.351049182819362
0.539427836297759,0.374341085468284
0.550265204816884,0.398635209939115
0.560840981755805,0.42374258045315
0.570910883387092,0.449455232230474
0.580241842756082,0.475548957603368
0.588615269232748,0.501786351869184
0.595830036337869,0.527920114856871
0.601705155015094,0.553696559717469
0.606082094847143,0.578859276719354
0.608826721591935,0.603152896896933
0.609830825747042,0.626326898317585
0.609013223535986,0.648139396533364
0.606320418639622,0.668360860495058
0.601726820059172,0.686777695835946
0.595234518581367,0.703195638975991
0.586872631307987,0.717442907934803
0.576696230501107,0.729373059039767
0.564784879474361,0.738867502827107
0.551240804327946,0.745837637297946
0.536186735886022,0.750226562236404
0.519763461163531,0.752010344439207
0.502127127988643,0.751198810353163
0.483446349971762,0.747835849667146
0.463899161788817,0.741999220751024
0.443669876694856,0.73379985636248
0.422945899276734,0.723380675637881
0.4019145466776,0.710914915927715
0.380759930881792,0.696604005413632
0.35965995315139,0.680675004537888
0.338783459383438,0.663377650976306
0.318287602051539,0.644981049087628
0.298315450561166,0.625770050377843
0.27899388735044,0.606041376439142
0.260431821983686,0.586099539981303
0.242718749899111,0.566252622902063
0.225923676478124,0.546807972788334
0.210094420801603,0.528067880761802
0.195257306952549,0.510325304154127
0.181417244122223,0.493859697107339
0.168558190187041,0.478933010847189
0.156643986954323,0.465785923089513
0.145619549032459,0.454634352844588
0.135412382367418,0.445666312828833
0.125934402998995,0.439039146837195
0.117084021616434,0.434877193845549
0.108748455114489,0.433269914384511
0.100806222638793,0.434270507947974
0.0931297806232065,0.437895042974092
0.0855882491096081,0.444122113372832
0.0780501802375569,0.452893027787486
0.0703863192190859,0.464112529886139
0.0624723083809943,0.477650040103128
0.0541912859576587,0.493341401510053
0.0454363332324907,0.510991105008893
0.0361127263230954,0.530374961920398
0.0261399523386241,0.551243185397819
0.0154534537502976,0.573323836030383
0.00400606953908354,0.59632658160526
-0.00823085306054951,0.619946716353269
-0.0212666967022625,0.643869381182666
-0.0350911763866835,0.667773923465268
-0.0496743143699636,0.691338332924077
-0.0649667892100896,0.714243689111749
-0.0809006541563921,0.736178555880223
-0.0973904136745491,0.75684325912407
-0.114334440662424,0.775953985919368
-0.13161671095509,0.79324664594702
-0.149108826139801,0.808480439741196
-0.166672290596745,0.821441082783057
-0.184161004134869,0.831943639697706
-0.201423927680548,0.839834928727244
-0.218307876266809,0.844995463153538
-0.234660391117243,0.847340903330519
-0.250332640964421,0.846823000350065
-0.265182301917422,0.843430019994355
-0.279076365213158,0.837186643404127
-0.291893823054256,0.828153348697254
-0.303528184440871,0.816425285486175
-0.313889775420032,0.802130661748242
-0.322907781465713,0.785428669685865
-0.330531993714686,0.766506983964275
-0.336734225454472,0.745578871932014
-0.341509370516606,0.722879961019059
-0.344876080987173,0.69866471338646
-0.346877047815405,0.673202661996938
-0.34757887438084,0.64677446552811
-0.347071539765901,0.619667841911987
-0.345467455265692,0.59217344172329
-0.342900124440155,0.564580723136424
-0.339522423665387,0.537173889722805
-0.335504526562027,0.51022795097765
-0.331031501763866,0.484004963173462
-0.326300619138831,0.458750504975951
-0.321518404693465,0.434690438279573
-0.316897488895386,0.412027999989839
-0.312653296960053,0.390941265074668
-0.309000632703081,0.37158101521464
-0.306150209804233,0.354069040897726
-0.304305185723303,0.338496897931477
-0.303657754024479,0.324925132193465
-0.304385850491113,0.313382979122038
-0.30665002714828,0.303868537079196
-0.310590546171194,0.296349406411075
-0.316324742672852,0.290763778903121
-0.323944701576858,0.287021955487259
-0.333515289247262,0.285008263612974
-0.345072575334104,0.284583339742305
-0.358622674480326,0.285586737061247
-0.37414103121155,0.287839813798285
-0.391572164592181,0.291148853575195
-0.410829882183698,0.295308366044497
-0.431797965593317,0.300104513737588
-0.454331322566703,0.305318609590071
-0.478257593272017,0.310730629044176
-0.503379191259309,0.316122680956628
-0.529475752672446,0.321282382753623
-0.556306960749832,0.326006087348415
-0.583615706579598,0.330101912233698
-0.611131541571936,0.333392524829586
-0.638574372264602,0.33571764254568
-0.66565834396615,0.336936211028541
-0.692095856432724,0.336928229629895
-0.717601652323492,0.335596199153962
-0.74189691762917,0.332866173324885
-0.764713332645489,0.328688402052809
-0.785797012382859,0.323037561361293
-0.804912276563793,0.315912571659048
-0.821845191545338,0.307336012785034
-0.836406829584815,0.297353150818858
-0.848436194799413,0.286030597922481
-0.857802769896328,0.273454632364187
-0.864408643200095,0.259729211277462
-0.868190181596222,0.244973713540282
-0.869119221653656,0.229320454347985
-0.867203758282552,0.212912016529856
-0.86248811772074,0.195898446371883
-0.855052609309025,0.178434363614664
-0.845012658294961,0.160676036368012
-0.832517429678043,0.142778471908013
-0.817747960757194,0.124892573697558
-0.800914827446478,0.107162413510905
-0.782255376473192,0.0897226652734487
-0.762030562155234,0.0726962441895261
-0.740521432470193,0.0561921909761551
-0.718025314483894,0.040303836613082
-0.694851753818081,0.0251072780339282
-0.67131826663376,0.0106601897033657
-0.64774596552928,-0.002999009857025
-0.624455122754475,-0.0158516237181388
-0.601760735192489,-0.0278987678796419
-0.579968155641994,-0.0391610882875731
-0.55936885404224,-0.0496781099977038
-0.54023637043429,-0.0595072312991305
-0.522822518671437,-0.068722381737309
-0.507353896221885,-0.0774123687736499
-0.494028750902735,-0.0856789431938098
-0.483014250114459,-0.0936346182397876
-0.474444192189469,-0.101400281711203
-0.468417192917607,-0.109102643887733
-0.464995373265297,-0.116871567007529
-0.464203566870877,-0.124837324147373
-0.46602905818975,-0.133127836653783
-0.470421854296736,-0.141865939747928
-0.477295485449304,-0.15116672556244
-0.486528321694521,-0.161135011669946
-0.497965385183479,-0.171862981150239
-0.511420630555469,-0.183428037447468
-0.526679658881073,-0.19589091373568
-0.543502824312518,-0.209294072297485
-0.561628686877145,-0.223660424595031
-0.580777759851367,-0.238992397353403
-0.600656495943096,-0.255271364171267
-0.620961453152805,-0.272457456017159
-0.641383578726692,-0.290489757562864
-0.661612548095094,-0.309286889753119
-0.681341095126515,-0.328747972421121
-0.700269270428416,-0.348753954240582
-0.718108565781606,-0.369169290965196
-0.734585845082291,-0.389843946850364
-0.749447025346784,-0.410615688480678
-0.762460455357204,-0.431312635034811
-0.773419944327795,-0.451756024394264
-0.782147398474663,-0.471763150522301
-0.788495029489834,-0.491150424272347
-0.792347105557624,-0.509736507287862
-0.793621222603308,-0.527345466972703
-0.792269080821146,-0.54380989967348
-0.788276759076509,-0.558973969241272
-0.781664487398046,-0.572696309033141
-0.772485925352955,-0.584852737163876
-0.760826961514514,-0.595338737401501
-0.746804056372465,-0.604071661478494
-0.730562157794261,-0.610992612713971
-0.712272224415901,-0.616067975647479
-0.692128398030069,-0.619290561798604
-0.670344871061199,-0.620680347604181
-0.647152499497028,-0.620284786953831
-0.62279521512134,-0.618178687444631
-0.597526293512853,-0.614463646401185
-0.571604536003952,-0.609267049748313
-0.545290424607931,-0.602740643867931
-0.518842308816405,-0.595058697506621
-0.492512682146164,-0.586415777514657
-0.466544604397736,-0.577024168582355
-0.441168322811123,-0.567110973092114
-0.416598141715713,-0.556914932627191
-0.393029585932091,-0.546683017482119
-0.370636898165599,-0.536666834624963
-0.349570905017959,-0.527118907899614
-0.329957280125721,-0.518288886769788
-0.311895226412256,-0.510419741551356
-0.295456592618907,-0.503744003825328
-0.280685432270286,-0.498480110553631
-0.267598006141,-0.494828909331758
-0.256183222239225,-0.49297038021852
-0.246403500418427,-0.493060626710256
-0.238196042081482,-0.495229184715369
-0.23147447915589,-0.499576693888968
-0.226130870693282,-0.506172970472964
-0.222038010171578,-0.515055514932258
-0.219052001935466,-0.526228481270829
-0.217015061271494,-0.539662128049853
-0.21575848943742,-0.555292763918119
-0.215105772598675,-0.573023193013517
-0.214875752101734,-0.592723658017873
-0.214885812855092,-0.614233271062925
-0.214955036799581,-0.637361915210269
-0.21490726952322,-0.661892591978815
-0.214574049989996,-0.687584183482736
-0.213797356071722,-0.714174591279174
-0.21243212204953,-0.741384208109544
-0.210348488426387,-0.768919673444457
-0.207433749193211,-0.796477859193602
-0.203593967037604,-0.823750028190905
-0.198755232786174,-0.850426105172384
-0.192864551532312,-0.876198997976421
-0.185890344318536,-0.90076890564718
-0.177822560810256,-0.923847550030337
-0.168672405007431,-0.945162268320353
-0.158471682583584,-0.964459905839502
-0.147271784810494,-0.981510451075251
-0.135142330117451,-0.996110358634585
-0.12216949004669,-1.00808551023809
-0.108454031608402,-1.01729376910636
-0.0941091127244471,-1.02362708900845
-0.0792578715033984,-1.02701314575747
-0.064030853445587,-1.02741646595337
-0.0485633232811379,-1.02483903518197
-0.0329925099552407,-1.01932037556867
-0.0174548342643868,-1.01093709043966
-0.00208316879993477,-0.999801881741986
0.0129958208299589,-0.986062053697011
0.0276642060402519,-0.969897523790101
0.0418151514217617,-0.951518369516625
0.0553550549294731,-0.931161946198602
0.0682054338099049,-0.909089617552995
0.0803045223980567,-0.885583146434196
0.091608552913804,-0.860940798202405
0.102092695876297,-0.835473213409927
0.11175164264177,-0.809499109884232
0.120599818757488,-0.783340876768999
0.128671223209706,-0.757320124624611
0.136018895120521,-0.731753256265063
0.14271401590979,-0.706947122610685
0.148844661276523,-0.683194826472778
0.154514223463927,-0.660771734878348
0.159839530051564,-0.639931757327632
0.164948690870652,-0.62090394330338
0.169978709474387,-0.603889447482914
0.175072899833208,-0.589058905516803
0.180378152493311,-0.57655025701808
0.186042097274675,-0.566467045649542
0.19221021164338,-0.558877219007514
0.1990229251356,-0.553812443489573
0.206612770614498,-0.551267941616181
0.215101632696495,-0.551202851470493
0.224598142394905,-0.553541100146201
0.235195264914438,-0.55817277546891
0.246968124621612,-0.564955972898391
0.259972107558264,-0.57371908753896
0.274241277515173,-0.584263514688852
0.289787136708899,-0.596366716444822
0.306597756586108,-0.609785606634052
0.324637298303869,-0.624260201849884
0.343845936097438,-0.639517482687274
0.364140190150658,-0.655275406461842
0.385413668834785,-0.671247010792637
0.407538213388648,-0.68714454645937
0.430365431386731,-0.702683577920622
0.453728598792075,-0.71758699079726
0.477444904124737,-0.731588847466574
0.501318002397267,-0.74443803464506
0.525140841073521,-0.755901650415322
0.54869871548569,-0.765768082515664
0.571772506978145,-0.773849734788778
0.594142053605696,-0.779985364395958
0.615589600558283,-0.784041998654234
0.635903275660219,-0.785916407045428
0.654880534334449,-0.785536110972563
0.672331518350661,-0.782859921088716
0.688082273496679,-0.777877999382422
0.701977773017315,-0.770611450556361
0.713884696231388,-0.761111454467546
