-0.910697887970615,0.876192533452397
-0.90124737358119,0.871679391365366
-0.891322311256839,0.867935608663908
-0.881101140509277,0.864671890836358
-0.870650256758117,0.861780594512094
-0.860009362508756,0.859197352125882
-0.84920610370839,0.856877342770533
-0.838261386975617,0.854786671654697
-0.827191872273369,0.852898328864515
-0.816011325575446,0.851189996357139
-0.804731427821338,0.849642736445212
-0.793362293733417,0.848240150666074
-0.781912822644045,0.846967811004401
-0.770390945799713,0.845812858951119
-0.75880380664386,0.84476371322044
-0.747157895935043,0.843809850689937
-0.735459155399953,0.84294163835342
-0.723713058841371,0.842150201824898
-0.711924676699703,0.841427320668399
-0.700098728215456,0.840765343829711
-0.688239624129948,0.840157120407985
-0.558106871237765,0.736659638439118
-0.761097390110081,0.720490296144448
-0.5455752792322,0.94313410886427
-0.540984311349148,0.721321730030673
-0.628583561506447,0.837700531229921
-0.735259347794938,0.739864366647396
-0.705901324733456,0.930806719218686
-0.502482341780361,0.720473656209181
-0.687076869837589,0.741158955712369
-0.457491431638462,0.943884629895032
-0.556637251108029,0.835334709015639
-0.438921776501605,0.951277241392202
-0.532664414713444,0.834531077399513
-0.520690428898273,0.834109105630028
-0.602857845665176,0.929066329881026
-0.39128271425285,0.726545369309298
-0.576840860695541,0.945803506604901
-0.472926076761045,0.83220787684635
-0.556160797674902,0.940987064441232
-0.35264203012938,0.729797200042206
-0.321719866309019,0.925433376422777
-0.531518743013457,0.925534823915806
-0.306815731141327,0.936334177154931
-0.401878499060176,0.828384986999716
-0.492895494527942,0.918232514012644
-0.468717633531979,0.717768067169555
-0.475116475048518,0.930001252441176
-0.355064976705162,0.824942228344788
-0.458214889200921,0.706115954830492
-0.224215955606174,0.715312956117749
-0.320308724678081,0.8217864166982
-0.308797433646229,0.820614302428869
-0.297325157373471,0.81937893560089
-0.285893011427154,0.81807850760412
-0.27450207601597,0.816711267153526
-0.263153397019971,0.815275518619281
-0.25184798695798,0.813769620458342
-0.240586825897004,0.81219198374008
-0.229370862307777,0.810541070759221
-0.218201013870233,0.808815393729983
-0.207078168232335,0.807013513555828
-0.196003183725393,0.805134038669747
-0.184976890038747,0.803175623940442
-0.17400008885641,0.801136969640161
-0.163073554458092,0.799016820470298
-0.152198034286773,0.796813964641209
-0.141374249484868,0.794527233002968
-0.130602895400803,0.792155498224065
-0.119884642067738,0.789697674015294
-0.109220134655977,0.787152714396276
-0.0986099939005193,0.784519613002297
-0.0880548165050779,0.781797402429288
-0.0775551755238016,0.778985153614968
-0.0671116207218206,0.776081975254302
-0.0567246789156706,0.773087013247598
-0.0463948542945587,0.769999450179646
-0.0361226287233662,0.766818504828486
-0.0259084620282122,0.763543431702429
-0.0157527922653433,0.76017352060413
-0.00565603597405119,0.756708096220536
0.00438141158572396,0.753146517737681
0.0143591762105092,0.749488178479331
0.0242769045445734,0.74573250556859
0.0341342638848495,0.741878959611629
0.0439309419990352,0.737927034402785
0.0536666469564336,0.73387625665031
0.0633411069711408,0.72972618572214
0.0729540702572125,0.725476413411084
0.0825053048954786,0.721126563718899
0.0919945987117009,0.71667629265875
0.101421759165804,0.712125288075631
0.110786613251928,0.70747326948432
0.120089007409085,0.702719987924536
0.129328807442219,0.697865225832958
0.138505898453507,0.692908796931841
0.14762018478374,0.687850546133985
0.156671589963668,0.682690349463853
0.165660056675195,0.677428113994657
0.174585546722353,0.672063777801303
0.183448041011983,0.666597309929063
0.192247539544084,0.661028710377938
0.200984061411818,0.655358010102654
0.20965764481115,0.649585271028307
0.218268347060177,0.643710586081683
0.226816244628149,0.63773407923832
0.235301433174274,0.631655905585419
0.243724027596378,0.625476251400723
0.252084162089514,0.619195334247554
0.26038199021467,0.612813403086194
0.268617684977708,0.606330738401863
0.276791438918702,0.599747652349569
0.28490346421189,0.593064488916145
0.292953992776443,0.586281624099835
0.300943276398304,0.579399466107831
0.308871586863379,0.572418455572195
0.316739216102362,0.565339065784676
0.324546476347558,0.558161802950938
0.332293700302033,0.550887206464808
0.339981241321518,0.543515849203183
0.347609473609485,0.536048337842298
0.355178792425876,0.528485313196118
0.362689614309982,0.520827450577695
0.37014237731805,0.513075460184375
0.377537541276198,0.505230087507847
0.384875588049308,0.497292113770072
0.392157021826587,0.489262356386258
0.39938236942457,0.481141669456099
0.406552180608389,0.472930944284628
0.41366702843219,0.464631109934127
0.42072750959969,0.456243133808666
0.427734244845885,0.447768022272958
0.43468787934108,0.439206821307381
0.441589083118434,0.430560617201142
0.448438551526376,0.421830537285752
0.455237005707318,0.413017750711135
0.461985193104241,0.404123469266936
0.468683887996854,0.395148948251762
0.475333892069172,0.386095487393363
0.481936035010534,0.376964431823038
0.48849117515225,0.367757173107796
0.495000200142283,0.358475150344176
0.501464027660567,0.349119851317959
0.507883606177836,0.339692813734418
0.514259915761097,0.330195626524184
0.520593968929174,0.320629931230298
0.526886811562116,0.310997423482588
0.533139523868618,0.301299854566088
0.539353221416026,0.291539033090939
0.545529056228,0.281716826771974
0.551668217955419,0.271835164327033
0.557771935126724,0.261896037504088
0.563841476484591,0.251901503248315
0.56987815241658,0.24185368602153
0.575883316488318,0.231754780287861
0.58185836708875,0.221607053181098
0.587804749198155,0.211412847371092
0.593723956290952,0.20117458414867
0.599617532386818,0.190894766751004
0.605487074265404,0.180575983952206
0.611334233861944,0.170220913947218
0.617160720863442,0.159832328560854
0.622968305527813,0.149413097818338
0.628758821751624,0.138966194918858
0.634534170415811,0.128494701659808
0.640296323043253,0.118001814366614
0.646047325807341,0.10749085039162
0.651789303937016,0.0969652552557319
0.657524466571276,0.0864286105187859
0.663255112125292,0.0758846424793336
0.668983634241249,0.0653372318224317
0.674712528410495,0.0547904243557871
0.680444399370052,0.0442484430013129
0.686181969396853,0.0337157012421462
0.691928087648418,0.02319681826619
0.697685740730398,0.0126966360987021
0.703458064711516,0.00222023908149277
0.709248358857678,-0.00822702386069551
0.715060101422972,-0.0186395136190805
0.720896967921216,-0.0290112712781439
0.726762852414968,-0.0393359836008971
0.732661892509981,-0.0496069425066885
0.738598498947574,-0.0598169970946692
0.744577390968252,-0.0699584963106271
0.750603639012422,-0.0800232197185893
0.756682716882865,-0.0900022929325669
0.762820566306271,-0.0998860829463667
0.7690236780412,-0.109664066637564
0.775299195531088,-0.119324662720371
0.781655050022427,-0.128855012685713
0.788100140847578,-0.138240688518265
0.794644582728915,-0.147465291755369
0.801300056605927,-0.156509884709666
0.808080328452414,-0.16535214933831
0.815002058231307,-0.173965075727441
0.822086152561206,-0.182314769085708
0.829360257389306,-0.190356408505924
0.836864075221005,-0.198025626422854
0.844664001475914,-0.205214779465876
0.852938475665748,-0.211634573123324
-0.910697887970615,0.876192533452397
-0.902423413780781,0.869772739794948
-0.894623487525872,0.862583586751926
-0.887119669694173,0.854914368834997
-0.879845564866073,0.846872729414781
-0.872761470536174,0.838523036056513
-0.865839740757281,0.829910109667382
-0.859059468910794,0.821067845038739
-0.852403995033782,0.812023252084441
-0.845859553152445,0.802798648847338
-0.839414462327293,0.793412973014785
-0.833058607835955,0.783882623049443
-0.826783090346066,0.774222026966637
-0.820579978611138,0.764444043275439
-0.814442129187731,0.754560253261639
-0.808363051317288,0.744581180047662
-0.802336803273119,0.734516456639699
-0.796357911252441,0.724374957423741
-0.790421304814848,0.714164902835761
-0.784522264719835,0.703893943929969
-0.778656380226083,0.693569231607216
-0.772819513727839,0.683197473948153
-0.767007771162545,0.672784984189768
-0.761217477016382,0.66233772124758
-0.755445153035265,0.65186132423037
-0.749687499953285,0.641361142062882
-0.743941381701719,0.630842259086926
-0.738203811674919,0.620309517327759
-0.732471940715362,0.609767535973285
-0.726743046546116,0.599220728506641
-0.721014524430159,0.588673317849739
-0.715283878876143,0.578129349810286
-0.709548716241882,0.56759270507334
-0.703806738112208,0.557067109937453
-0.69805573534812,0.546556145962458
-0.692293582720678,0.536063258669265
-0.686518234056491,0.525591765410214
-0.68072771783268,0.515144862510734
-0.674920133168308,0.504725631768218
-0.66909364616681,0.494337046381855
-0.663246486570271,0.483981976376866
-0.657376944691685,0.473663193578069
-0.651483368595819,0.463383376180402
-0.645564161503022,0.45314511295798
-0.639617779393617,0.442950907147975
-0.633642728793185,0.432803180041211
-0.627637564721447,0.422704274307542
-0.621600888789458,0.412656457080758
-0.615531347431591,0.402661922824984
-0.609427630260286,0.39272279600204
-0.603288468532867,0.382841133557099
-0.597112633720893,0.373018927238133
-0.590898936173485,0.363258105762985
-0.584646223866983,0.353560536846484
-0.57835338123404,0.343928029098774
-0.572019328065964,0.334362333804889
-0.565643018482703,0.324865146594654
-0.559223439965434,0.315438109011113
-0.55275961244715,0.306082809984896
-0.546250587457117,0.296800787221276
-0.539695447315401,0.287593528506034
-0.533093304374039,0.27846247293571
-0.526443300301721,0.269409012077311
-0.519744605409108,0.260434491062136
-0.515041640659923,0.300313139398187
-0.553628207221719,0.213200088224855
-0.454268103573296,0.244247035578116
-0.492447291645947,0.225351139021692
-0.485493657150752,0.216789938056115
-0.44215300196686,0.204003449447268
-0.429237329651778,0.189577593195825
-0.464311592913256,0.191627016044444
-0.412985811452683,0.172542248875915
-0.473089623646979,0.213177613488781
-0.459332032745569,0.198932044759187
-0.413588957400083,0.155059590006754
-0.422112110949633,0.113177338377186
-0.420449026614849,0.143730509751378
-0.379304698935579,0.114498420882588
-0.444643211436957,0.153986851931158
-0.397740653626384,0.121042111125889
-0.392336542776188,0.154479590754394
-0.382305888652425,0.106396157378134
-0.385339099134556,0.0991588281101198
-0.366630999168245,0.0921395047568771
-0.347554331587799,0.099218588844439
-0.300877526814878,0.109623433453058
-0.342662876516757,0.0714934714129274
-0.334550851223569,0.0648103079795034
-0.325699536847175,0.0474240154267098
-0.32423216078535,0.0247922351780991
-0.309843574394381,0.0453626260815184
-0.300891120170235,0.0413600549677205
-0.277298455496292,0.0817119561459213
-0.311539595466991,0.0552760098972775
-0.276027759365044,0.0208473742473896
-0.29999999362128,0.0132714182681489
-0.265640811307291,0.00253348209483047
-0.238131051083257,-0.00495835484145178
-0.265385355743574,0.0431221333943135
-0.24018556332497,0.0387043093885427
-0.184889055821614,0.0306009049528424
-0.214431002268535,-0.0181323891347805
-0.207010732319066,-0.00574286843745742
-0.181152363778565,-0.0684238556227038
-0.200029008331539,-0.0211278347526128
-0.13212714940905,-0.0781945695555481
-0.153309704338587,-0.0607181534031127
-0.159181171470671,-0.0475673277465582
-0.193863951592518,-0.0171107852333148
-0.140264717200345,-0.0565686033898264
-0.13071348256208,-0.060918453082012
-0.0771314039813807,-0.0929563862428715
-0.1114260592613,-0.0693182963212376
-0.128098745959807,-0.119835869907223
-0.0918936761897164,-0.0773209992825568
-0.0820363168494403,-0.0811745452395174
-0.0721185885153763,-0.0849302181502589
-0.0621408238905908,-0.0885885574086086
-0.0521033763308155,-0.0921501358914634
-0.0420066200395236,-0.0956155602750572
-0.0318509502766546,-0.0989854713733569
-0.0216367835815009,-0.102260544499413
-0.0113645580103082,-0.105441489850574
-0.00103473338919614,-0.108529052918525
0.00935220841695385,-0.11152401492523
0.0197957632189347,-0.114427193285895
0.0302954042002109,-0.117239442100216
0.0408505815956525,-0.119961652673225
0.0514607223511106,-0.122594754067203
0.0621252297628713,-0.125139713686221
0.0728434830959357,-0.127597537894993
0.0836148371800007,-0.129969272673895
0.0944386219819063,-0.132256004312137
0.105314142153225,-0.134458860141226
0.116240676551543,-0.136579009311089
0.12721747773388,-0.13861766361137
0.138243771420526,-0.140576078340674
0.149318755927468,-0.142455553226755
0.160441601565367,-0.14425743340091
0.17161145000291,-0.145983110430148
0.182827413592137,-0.147634023411008
0.194088574653113,-0.14921166012927
0.205393984715104,-0.150717558290209
0.216742663711103,-0.152153306824454
0.228133599122287,-0.153520547275048
0.239565745068604,-0.154820975271817
0.251038021341362,-0.156056342099797
0.262549312373214,-0.157228456369128
0.2740984661405,-0.158339185794642
0.285684292992341,-0.159390459094181
0.297305564400295,-0.160384268015716
0.308961011621689,-0.161322669504422
0.32064932426896,-0.162207788022117
0.332369148776481,-0.163041818032927
0.344119086755309,-0.163827026670644
0.355897693225165,-0.164565756605117
0.367703474711628,-0.165260429127175
0.379534887195021,-0.165913547473988
0.391390333895696,-0.16652770041967
0.403268162878415,-0.167105566159162
0.415166664456178,-0.167649916517278
0.427084068371066,-0.168163621519241
0.439018540726515,-0.168649654364241
0.450968180641587,-0.16911109684967
0.462931016593406,-0.169551145300956
0.474905002408578,-0.169973117070441
0.486888012858163,-0.170380457679033
0.498877838803163,-0.170776748686567
0.510872181828406,-0.171165716391594
0.52286864829171,-0.171551241479172
0.534864742701723,-0.171937369757007
0.546857860321426,-0.172328324147012
0.558845278873886,-0.172728518132325
0.57082414920158,-0.173142570900848
0.58279148469886,-0.17357532447784
0.594744149297002,-0.17403186320511
0.6066788437301,-0.174517536007402
0.618592089744066,-0.175037981993496
0.630480211825082,-0.175599160078912
0.64233931591059,-0.176207383500639
0.654165264394837,-0.176869360339327
0.665953646536504,-0.177592241495826
0.677699743095086,-0.178383678024348
0.689398483630176,-0.179251890360865
0.701044394338993,-0.180205752891367
0.712631533494846,-0.181254898622047
0.724153410339178,-0.182409850675329
0.73560288142855,-0.183682190337002
0.746972015516471,-0.18508477611614
0.75825191327058,-0.186632036028067
0.769432459968502,-0.188340368535443
0.78050197467075,-0.190228711325625
0.791446691403523,-0.192319382441461
0.80224995020389,-0.194639391796809
0.81289084445325,-0.197222634183022
0.82334172820441,-0.200113930507285
0.833562898951972,-0.203377648334835
0.843487961276323,-0.207121431036294
0.852938475665748,-0.211634573123324
