0.428550491193741,-0.616350517445593
0.428385587366851,-0.616248584842834
0.427893120147379,-0.615939389972819
0.427076636856575,-0.615417955754752
0.425939922604353,-0.614679468101533
0.424486995797305,-0.613719282016542
0.422722103436229,-0.612532927534153
0.420649716208026,-0.61111611549778
0.418274523376986,-0.609464743169372
0.415601427480713,-0.607574899664478
0.412635538836112,-0.605442871207126
0.409382169861027,-0.603065146198988
0.405846829217337,-0.600438420097445
0.402035215781448,-0.597559600097371
0.397953212448301,-0.594425809611649
0.393606879775193,-0.591034392545616
0.389002449471821,-0.587382917360852
0.384146317743152,-0.583469180923927
0.379045038491821,-0.579291212135926
0.373705316386928,-0.574847275338807
0.368133999806199,-0.57013587349484
0.362338073658629,-0.565155751135616
0.356324652094805,-0.559905897077345
0.350100971112245,-0.554385546899376
0.343674381063157,-0.548594185183123
0.337052339072136,-0.542531547508795
0.330242401371386,-0.536197622207605
0.323252215561147,-0.529592651867326
0.316089512803044,-0.522717134589345
0.301277851649793,-0.508157734983982
0.293644702342428,-0.500476134231214
0.285870638305471,-0.492528550442119
0.277963689609098,-0.484316769344866
0.269931922076563,-0.475842834431698
0.261783429228842,-0.467109046445074
0.253526324225648,-0.458117962609339
0.245168731810789,-0.448872395608324
0.236718780269892,-0.439375412309498
0.228184593408443,-0.429630332235582
0.219574282558097,-0.419640725784751
0.210895938619173,-0.40941041220081
0.202157624147203,-0.398943457295008
0.193367365491351,-0.388244170921339
0.184533144992475,-0.377317104207495
0.175662893248525,-0.366167046543814
0.166764481454905,-0.354799022332862
0.157845713827343,-0.343218287502486
0.148914320114727,-0.331430325785425
0.139977948209279,-0.319440844768809
0.13104415686131,-0.307255771717086
0.113214062207321,-0.282323630334711
0.10433236673172,-0.269589474230985
0.0779058766633208,-0.230396352622629
0.0691928312393354,-0.217025573426584
0.060538793103819,-0.203513955870021
0.0399256943555897,-0.191314182325038
0.0333827463596258,-0.167597424998026
0.0404623692657305,-0.130659610141402
0.0099516920305215,-0.160809718553551
0.0102037353449596,-0.119928068931786
0.0385900314209804,-0.0842054818504863
-0.0173054415528393,-0.0720104977836515
-0.00605810268071616,-0.0237027254187601
-0.0538491175241697,-0.111148545143576
-0.0532416707334833,-0.0356605388190751
-0.0660342213332853,-0.0305025025123135
-0.0527208074748498,0.0267736081510854
-0.0582064954731522,0.0104831959847442
-0.0814618415867447,0.0112912321428518
-0.0719630855026011,0.039722311414431
-0.0786219100438135,0.0543208127339212
-0.0851304053038208,0.0688925108614654
-0.0955797924773116,0.0962435343118215
-0.0976857152259602,0.0979170119417441
-0.103727753837713,0.112350522622838
-0.121245164069248,0.132018923503991
-0.120887583559385,0.155220208207897
-0.125602266235548,0.163891704851949
-0.131507019565664,0.183344563809678
-0.140312456967672,0.188640994270843
-0.122417840202454,0.212849891846036
-0.159122292976123,0.22584197015028
-0.170362908206446,0.240613391108472
-0.190565246339836,0.289425551783307
-0.199276910567377,0.236624756558829
-0.163409831656162,0.277709946713049
-0.167298614954486,0.290549352229143
-0.171022058565975,0.303201057950276
-0.174581341526203,0.315656194876146
-0.1779778630242,0.327906011794587
-0.181213239792334,0.339941883068051
-0.184289303266513,0.351755316314903
-0.18720809651982,0.363337959978121
-0.189971870972958,0.374681610774116
-0.197358645752727,0.407198950035166
-0.199528898838559,0.417507815391034
-0.201558385151811,0.427539146985225
-0.203450525096592,0.4372857799972
-0.205208918475638,0.446740746077634
-0.206837339561892,0.45589727959065
-0.208339731986667,0.464748823676458
-0.209720203449805,0.473289036128557
-0.21098302025742,0.481511795079814
-0.213173514227694,0.496981599443067
-0.214110465576193,0.504217551208287
-0.214948298603918,0.511113872128308
-0.216346619369391,0.523868103814637
-0.216917411809522,0.529716885348756
-0.217409682213907,0.535207785754889
-0.218180442727802,0.545100540617945
-0.218470058414965,0.549495361004856
-0.218886199040462,0.557166336734145
-0.219024319197812,0.560437097038079
-0.219123641348405,0.563328239833248
-0.219190110052177,0.565837767095792
-0.219229715396693,0.567963964034166
-0.219248485554258,0.569705400597936
-0.219252479298416,0.571060932727828
-0.219247778487637,0.572029703345834
-0.219240480524013,0.572611143084435
-0.219236690794823,0.572804970754237
-0.219264052107257,0.572030106991988
-0.219307385741104,0.571062294611353
-0.219378577683062,0.569708627365475
-0.2194836598215,0.567970262798236
-0.219628626760605,0.565848643937405
-0.220061962334377,0.560462834438345
-0.220725513354014,0.553568394593278
-0.221665140337608,0.545186974049662
-0.22225246487265,0.540446609984739
-0.22292540537685,0.535344596157041
-0.224549347493916,0.524071561910757
-0.225510676807676,0.517909160251143
-0.226578264288638,0.511402338433692
-0.227756965395308,0.504556035043146
-0.230466450192514,0.489865951967859
-0.233675169391853,0.473883208175856
-0.235477340736089,0.46542193707551
-0.237416717980487,0.456655761649195
-0.239497089346616,0.447591219951561
-0.241722068547421,0.438235056292581
-0.244095089795259,0.428594215105317
-0.246619402996919,0.418675834637307
-0.249298069140727,0.408487240471673
-0.252133955880671,0.398035938884231
-0.255129733322254,0.387329610043032
-0.261610629153158,0.365183418879875
-0.265100064996982,0.353759723077881
-0.268758019504686,0.342113318465532
-0.272586119192527,0.33025264761928
-0.276585772218178,0.318186283274703
-0.285104263228435,0.293471369458791
-0.289624802711346,0.280840546352935
-0.294320294324052,0.26803946658105
-0.299191018798087,0.255077236092412
-0.309458133230121,0.228706151180765
-0.314853925090831,0.215315888408679
-0.326166729284153,0.188172846952716
-0.344422202311607,0.146694100525934
-0.350844246086673,0.132702168957889
-0.357431501030456,0.118643316995478
-0.364181678812128,0.104527100750217
-0.38538340670288,0.0619296361796875
-0.40028022259454,0.0334188933258542
-0.407947050657729,0.0191580595683618
-0.439977764292262,-0.0377051716585175
-0.456748847308165,-0.0659012214009284
-0.465306307682681,-0.0799091232836813
-0.473971372189271,-0.0938453274810964
-0.48273854692505,-0.107701271124386
-0.50055633395506,-0.135138771191569
-0.527901152846648,-0.175486715455112
-0.546468899701406,-0.201754877905597
-0.593673274718744,-0.264790201265886
-0.60319123703084,-0.276890828880982
-0.612717502650576,-0.288807722615128
-0.62224440659042,-0.300534901919882
-0.631764191063646,-0.312066601771319
-0.650750950225274,-0.3345216059961
-0.660202011351146,-0.34543449518754
-0.678979228397071,-0.366606738294683
-0.688289115417471,-0.376857073889674
-0.706710463547827,-0.396665426829746
-0.733722655697172,-0.424592256734156
-0.776538849124297,-0.466176852771454
-0.784697370191041,-0.473729249327441
-0.80054457592942,-0.488056903025483
-0.823021026712545,-0.507592409668487
-0.830136606802294,-0.51358093045375
-0.837051072630934,-0.519307812502962
-0.843756877836598,-0.524773442085289
-0.850246587573776,-0.529978452996638
-0.85651288608179,-0.53492372442962
-0.86834662653378,-0.544039778155879
-0.879202236207555,-0.552133448760124
-0.884246427392684,-0.555801620450732
-0.889026224562351,-0.559220331971233
-0.905378563625943,-0.570454201202696
-0.914577254600795,-0.576405073137574
-0.920993014530872,-0.58034638496169
-0.923663686143447,-0.581914583425703
-0.925181961631281,-0.582772929193707
-0.920871497208166,-0.580569456666757
-0.907778186714459,-0.574443999271214
-0.904092331966656,-0.572815361594976
-0.900049850112091,-0.571067029837281
-0.885785748633246,-0.565168936455261
-0.868334935435545,-0.558429602182829
-0.840186566935941,-0.548445827908505
-0.832293962952754,-0.545816137161543
-0.82406520155943,-0.543146227777451
-0.787862584240146,-0.532195556401035
-0.77801085818962,-0.529422485526776
-0.757378907694118,-0.52387828053808
-0.746609066215578,-0.521119535485976
-0.735543980826853,-0.518377807597123
-0.712551525464222,-0.512969152517871
-0.676001169284075,-0.505129346850269
-0.650338180562024,-0.500149119559104
-0.553290123225057,-0.484901830040149
-0.493566367426482,-0.478131327238841
-0.431447232520292,-0.473062757820445
-0.415613542932977,-0.472082867721643
-0.367538150230802,-0.469868188208927
-0.28609413228506,-0.46868523529476
-0.25329009541381,-0.469111394364305
-0.220478527221785,-0.470054485388568
-0.204095340665401,-0.470719109607525
-0.187740750871498,-0.471511594079521
-0.171424875075878,-0.472431015781143
-0.15515779503084,-0.473476229691519
-0.138949548518627,-0.474645869985783
-0.0591380040039088,-0.482297408250382
-0.0125849726126959,-0.488246936968026
0.0326564121401732,-0.495117912656774
0.0905194029099165,-0.505540366012543
0.104488983578706,-0.508343215962617
0.118243711818764,-0.511215791433117
0.158140917269951,-0.520202401284461
0.21964218118735,-0.536091015621342
0.231132441469335,-0.539354588347193
0.263873598587296,-0.549209132351201
0.337608920054042,-0.574834069928332
0.366588930877612,-0.586496248937472
0.384724885529713,-0.594384959248969
0.39007547513951,-0.596815029262587
