0.751156807546897,-0.596488143124108
0.750661561683958,-0.595982664418528
0.749231260349449,-0.594416797188421
0.746954239654518,-0.591722690398171
0.743925091186437,-0.587841377626892
0.740243799777047,-0.582723323665033
0.736014833486672,-0.576328887266563
0.731346193925882,-0.568628695923529
0.726348435391186,-0.559603929314524
0.721133661568862,-0.549246508893249
0.715814508761147,-0.537559191920517
0.710503124709165,-0.524555569095466
0.705310152126144,-0.510259965801562
0.700343726012388,-0.494707247842796
0.695708493700421,-0.477942533397355
0.691504666375889,-0.460020813752637
0.687827110538904,-0.441006486199097
0.684764487514152,-0.420972803243979
0.682398448689371,-0.400001243052406
0.68080289366457,-0.37818080672592
0.680043297933067,-0.355607248681194
0.680176116095093,-0.332382246988346
0.68124826593077,-0.308612521063855
0.683296697937908,-0.284408904582626
0.686348054177539,-0.259885381873214
0.690418419473366,-0.235158096385879
0.695513167187303,-0.210344340072274
0.701626900949583,-0.18556153268576
0.708743492865756,-0.160926200101245
0.716836217862245,-0.13655296076214
0.72586798297436,-0.112553529289487
0.735791649533658,-0.0890357461351808
0.746550445382704,-0.0661026419288548
0.758078463442084,-0.0438515448584579
0.770301242184137,-0.0223732390406557
0.783136422837053,-0.00175118138228253
0.796494477458475,0.0179392160877198
0.810279501385376,0.0366312320205114
0.824390062992637,0.0542674039294499
0.838720103181425,0.0708000136902565
0.85315987657471,0.0861914860350233
0.867596926025143,0.100414696492007
0.881917081743225,0.113453186030959
0.896005476133953,0.125301280506006
0.90974756528992,0.135964113837374
0.923030148029331,0.145457554731962
0.935742373389221,0.153808037603273
0.947776727587004,0.161052299205821
0.959029991646562,0.167237023340232
0.969404161146651,0.172418396805299
0.978807319887171,0.176661580565013
0.987154459679852,0.180040100854926
0.994368238950363,0.182635165666358
1.00037967338462,0.184534912712685
1.00512875245811,0.185833595593113
1.00856497634821,0.186630715420691
1.01064780843946,0.187030105667781
1.01134703938474,0.187138978399526
1.01064305947404,0.187066940410304
1.00852703688053,0.186924988046606
1.00500100019287,0.186824489689916
1.00007782449681,0.186876164983217
0.993781121129037,0.187189069913799
0.986145032085621,0.187869596812767
0.977213930917902,0.189020498198589
0.967042032782522,0.19073994317926
0.955692917122792,0.193120614837246
0.943238967237789,0.196248856655704
0.929760731736858,0.200203875607023
0.915346213573965,0.205057009019192
0.900090093002243,0.210871061766582
0.884092891378454,0.217699719704339
0.867460083274627,0.225587044585414
0.850301164815183,0.234567054972358
0.832728686548218,0.244663396888863
0.814857259475921,0.25588910715542
0.796802543108417,0.268246471526692
0.778680224565603,0.281726978902408
0.760604997831286,0.296311372026566
0.742689552262491,0.311969794228919
0.725043579374136,0.32866203090594
0.707772806756147,0.346337843593279
0.690978067737961,0.364937393655704
0.674754415096378,0.384391751821033
0.659190286709721,0.404623489018731
0.6443667305978,0.425547343258516
0.630356696257318,0.447070956605921
0.617224398610851,0.469095675686436
0.605024760239727,0.491517408583045
0.593802936872661,0.514227530488883
0.58359393035924,0.537113830041728
0.574422292576852,0.560061487904109
0.566301922908372,0.582954078865061
0.559235961093144,0.605674588529709
0.553216776402895,0.628106435532611
0.548226053234895,0.650134490161523
0.544234972354474,0.671646080310123
0.541204486165663,0.69253197579125
0.539085685549899,0.712687342235166
0.53782025499577,0.732012656068586
0.537341011955106,0.750414572417333
0.537572525609312,0.767806738195378
0.538431809521341,0.784110543131861
0.539829081989562,0.799255802041309
0.541668587315729,0.813181362255493
0.543849470655824,0.825835630802896
0.54626669864447,0.837177016637616
0.548812017575201,0.847174283977193
0.551374940583816,0.855806813601806
0.553843755023217,0.863064769788158
0.556106541037973,0.868949171393146
0.558052192246853,0.873471866457325
0.559571429422734,0.876655410558769
0.560557798121648,0.878532850006427
0.560908641355913,0.879147411810905
0.56052603862879,0.878552103202073
0.559317702948181,0.876809224269734
0.557197827811642,0.873989798078486
0.554087876601223,0.870172923343969
0.549917307340337,0.865445055448448
0.544624226341402,0.859899222212773
0.538155964907309,0.853634181423749
0.530469573936093,0.846753527635356
0.521532232010504,0.839364756214736
0.511321563325901,0.831578292985119
0.499825862614121,0.823506498124678
0.487044225050599,0.815262653209868
0.472986579979564,0.806959940442034
0.457673628150109,0.79871042316574
0.441136683016623,0.790624036775616
0.423417417512831,0.782807599015766
0.404567518551909,0.775363848502687
0.384648252328211,0.768390520050753
0.363729944291831,0.761979465050948
0.341891378428373,0.756215824751502
0.319219121196086,0.751177263817077
0.295806776144611,0.746933271005316
0.271754175857943,0.743544533200758
0.247166518423236,0.741062388391588
0.222153456121974,0.739528362470419
0.196828144466186,0.738973793992393
0.171306260056105,0.739419550239181
0.145704996013806,0.740875837122835
0.120142043947354,0.743342104626245
0.0947345715201479,0.746807048624601
0.0695982047393286,0.751248709072368
0.0448460240350324,0.756634663680559
0.0205875830791964,0.762922315357129
-0.00307204091017907,0.770059270846801
-0.0260331569143347,0.777983807192983
-0.0482023217999926,0.786625421860861
-0.0694931462666423,0.795905461614399
-0.0898270378721992,0.805737824537289
-0.10913387451566,0.816029728935316
-0.127352602375739,0.826682542260889
-0.144431752978373,0.83759266266492
-0.160329874787376,0.848652445311681
-0.175015875475036,0.859751165192838
-0.188469271826226,0.870776007851165
-0.200680345053534,0.881613079175359
-0.211650200144717,0.892148425257151
-0.22139072871984,0.902269053212029
-0.229924475736212,0.911863943856193
-0.237284411236924,0.920825047204911
-0.243513609185866,0.929048251910561
-0.248664836260906,0.936434319991028
-0.252800054280121,0.942889778508651
-0.255989840706398,0.948327760243826
-0.258312732406465,0.952668785862264
-0.259854498525033,0.955841480596721
-0.260707348966993,0.957783219048076
-0.260969085555041,0.958440692351739
-0.260742203441397,0.95777039264783
-0.260132950796046,0.955739010531152
-0.259250355166079,0.952323741933168
-0.258205225197971,0.94751250169598
-0.257109136634411,0.941304041930613
-0.256073411637491,0.93370797410114
-0.255208100549598,0.924744694634947
-0.254620975181522,0.914445214719908
-0.254416542614451,0.902850895803879
-0.254695088319465,0.890013093152992
-0.255551757136564,0.875992710645312
-0.257075680317492,0.860859670768166
-0.25934915642565,0.844692304543762
-0.262446893405898,0.827576666821952
-0.266435318591324,0.809605783044613
-0.271371962807964,0.790878834197408
-0.277304924077403,0.771500287215934
-0.284272415707076,0.751578978599792
-0.292302402805217,0.731227159405452
-0.301412330468575,0.710559510133163
-0.311608946073156,0.689692134291689
-0.322888217258746,0.668741539614748
-0.335235346344234,0.647823616013096
-0.348624881050516,0.627052619375249
-0.363020920548519,0.606540170277551
-0.378377414999492,0.58639427653126
-0.394638555920642,0.566718388281536
-0.411739253898853,0.547610494082829
-0.429605699396043,0.529162266009488
-0.448156001648317,0.511458261422945
-0.467300899964435,0.49457518851134
-0.486944541083156,0.478581242148465
-0.506985315659646,0.463535515991581
-0.527316746423633,0.449487496057462
-0.547828420090927,0.436476640289116
-0.568406954719565,0.424532047858499
-0.588936993885556,0.413672221149946
-0.609302218813888,0.403904922542224
-0.629386369440167,0.395227127261374
-0.649074265298554,0.387625072719447
-0.668252817133094,0.381074403893459
-0.686812020212206,0.375540413442099
-0.704645920489235,0.370978374412527
-0.721653544994102,0.36733396256361
-0.737739788160085,0.364543764532429
-0.752816246182746,0.36253586730508
-0.766801991971519,0.361230523727442
-0.779624283784315,0.36054088811321
-0.791219201227025,0.360373815381148
-0.801532202947606,0.360630716586709
-0.810518601052913,0.361208463210106
-0.818143948019201,0.362000332127875
-0.824384332647737,0.362896982832039
-0.829226582428246,0.363787458173266
-0.832668370507684,0.364560199694512
-0.834718226312745,0.365104068491447
-0.835395449733852,0.365309362486626
-0.834729929638565,0.365068821036306
-0.832761868335693,0.364278607901791
-0.829541414450255,0.362839263810137
-0.825128207486372,0.360656620100295
-0.819590838142858,0.357642665297903
-0.813006229197704,0.35371635688177
-0.805458942486138,0.348804370994032
-0.797040418156106,0.342841783399474
-0.787848152989044,0.335772675612811
-0.777984825117296,0.327550660780221
-0.767557372947579,0.318139324617268
-0.756676036508307,0.307512577463033
-0.745453369773684,0.295654914303205
-0.73400323277628,0.282561580435784
-0.722439772499973,0.26823864129479
-0.71087640164514,0.252702955802316
-0.699424784376855,0.235982053479814
-0.688193838104431,0.218113916408059
-0.677288760197547,0.199146667973977
-0.666810088321638,0.179138171174093
-0.656852802775212,0.158155540051093
-0.647505478836966,0.136274568614956
-0.638849496684368,0.113579082336133
-0.630958315931662,0.0901602179890238
-0.62389682125872,0.0661156382630724
-0.617720744967896,0.0415486881408128
-0.612476171619663,0.0165675005615946
-0.608199129165527,-0.00871594065783821
-0.604915270225001,-0.0341867722934325
-0.602639646349173,-0.0597282489153265
-0.601376577283799,-0.0852227569319402
-0.601119616397294,-0.110552836437588
-0.601851612581041,-0.135602201754909
-0.603544868068751,-0.160256751575046
-0.606161390765819,-0.184405559691265
-0.609653238836465,-0.207941837494841
-0.613962954473328,-0.23076385965385
-0.61902408297852,-0.252775844723987
-0.624761772524018,-0.273888782842469
-0.631093449239461,-0.294021203128174
-0.637929561603337,-0.31309987394892
-0.645174387495238,-0.331060429815694
-0.652726896707764,-0.347847919318089
-0.660481661221828,-0.363417269219562
-0.66832980512294,-0.377733660578972
-0.676159985682319,-0.390772813549629
-0.683859396848573,-0.402521178321665
-0.691314786195671,-0.412976030510773
-0.698413476252806,-0.422145470148711
-0.705044381102531,-0.430048324290856
-0.711099009175694,-0.436713954115829
-0.716472443294709,-0.442181968244177
-0.72106428921957,-0.446501844839601
-0.724779584231902,-0.449732465869915
-0.727529657648711,-0.451941567688433
-0.729232935586223,-0.453205112842911
-0.729815682791456,-0.453606588721821
-0.729212674920414,-0.453236239300309
-0.727367795262217,-0.452190236844962
-0.72423455058233,-0.450569800972001
-0.719776501479493,-0.448480272923168
-0.71396760341344,-0.44603015332291
-0.706792455357297,-0.443330112006259
-0.69824645385246,-0.440491978755823
-0.688335851087586,-0.437627723956577
-0.677077716479368,-0.434848438266998
-0.664499802093506,-0.432263320413812
-0.650640313102032,-0.429978682145064
-0.635547585320143,-0.42809697922311
-0.619279672694592,-0.426715877106765
-0.601903848418811,-0.425927359662291
-0.583496024120432,-0.425816888859058
-0.564140092297596,-0.426462622950739
-0.543927197865027,-0.427934700121175
-0.522954945303194,-0.430294593989941
-0.50132654847822,-0.433594546731544
-0.479149930711555,-0.437877084869757
-0.456536783122188,-0.44317462207099
-0.433601589636266,-0.449509152484437
-0.410460627356346,-0.456892037368925
-0.387230951202192,-0.465323886914149
-0.364029371875271,-0.474794538314672
-0.340971436258636,-0.485283130296383
-0.31817041934204,-0.496758273434585
-0.295736336659287,-0.5091783147483
-0.273774986041776,-0.522491694214266
-0.252387027230612,-0.536637390024054
-0.231667107551886,-0.551545448615977
-0.21170304144874,-0.567137594757186
-0.192575051183382,-0.58332791623707
-0.174355075476452,-0.600023617067496
-0.157106152245066,-0.617125832474162
-0.140881880939805,-0.634530498412032
-0.125725969270803,-0.652129267851353
-0.111671868360238,-0.669810465663424
-0.0987424995696591,-0.687460073590871
-0.0869500754327623,-0.704962736518684
-0.0762960162846961,-0.722202781072206
-0.0667709633252682,-0.739065237458142
-0.0583548879931477,-0.755436855435679
-0.0510172966689509,-0.771207105357038
-0.0447175288746945,-0.786269155349878
-0.0394051463030038,-0.80052081592669
-0.0350204091991834,-0.813865443596815
-0.0314948358399912,-0.826212795422282
-0.0287518401116405,-0.837479826896246
-0.0267074414928584,-0.847591426028216
-0.0252710411028812,-0.856481077089286
-0.0243462568849241,-0.864091448097943
-0.0238318104681024,-0.870374896807178
-0.0236224577897653,-0.875293890680547
-0.023609955169814,-0.878821337112019
-0.0236840522122924,-0.880940820944965
-0.0237335026702336,-0.881646747172529
-0.02364708424945,-0.880944387547335
-0.0233146182472377,-0.878849830685564
-0.022627979923401,-0.875389836111196
-0.0214820905836738,-0.870601593543064
-0.0197758825187472,-0.864532389572481
-0.0174132281842375,-0.857239184705291
-0.0143038253259322,-0.848788104541626
-0.0103640301476215,-0.839253849632558
-0.00551763108232992,-0.828719029278086
0.000303443742395521,-0.817273425209368
0.00715849166299462,-0.805013191723413
0.0150974789321972,-0.792039999405246
0.024160567436695,-0.778460130075684
0.0343777289089698,-0.76438353103783
0.0457684500815551,-0.749922837058398
0.0583415314207465,-0.735192368807675
0.0720949812419692,-0.720307116691806
0.0870160061581623,-0.705381719141339
0.103081097953129,-0.690529444469267
0.120256216111689,-0.675861185379877
0.138497064385056,-0.661484475096749
0.157749458931068,-0.647502533885308
0.177949784751927,-0.634013354474036
0.199025536364412,-0.621108834531437
0.220895937886174,-0.608873963935856
0.243472637013122,-0.597386074086504
0.266660466703902,-0.586714155950361
0.290358267783268,-0.57691825292646
0.314459765132868,-0.568048933941476
0.338854489659709,-0.560146851474778
0.363428737824371,-0.553242388453318
0.388066560175758,-0.547355397163939
0.412650770080513,-0.542495032509662
0.437063963654993,-0.538659681094837
0.461189541807687,-0.535836986769113
0.484912725281173,-0.534003972399577
0.508121553645024,-0.533127256781926
0.530707859334278,-0.533163364752737
0.552568208050569,-0.534059127733391
0.573604797143108,-0.535752171129412
0.593726303961421,-0.538171484234088
0.612848676618057,-0.541238067549151
0.630895860113089,-0.544865651744598
0.647800451348839,-0.548961481840587
0.663504277197546,-0.553427159612422
0.677958890470967,-0.558159536700154
0.691125979373348,-0.563051650451966
0.702977686790768,-0.567993694149139
0.713496836574241,-0.572874012953678
0.722677064803456,-0.577580116690066
0.730522854865692,-0.581999700422413
0.737049476042339,-0.586021663718584
0.742282826156182,-0.589537119504579
0.746259179688385,-0.592440383505168
0.749024843617266,-0.594629935439903
0.750635724054111,-0.596009343395517
0.751156807546897,-0.596488143124108
