0.563188688248928,-0.64905563556103
0.562821438533471,-0.648807426497536
0.561741779657497,-0.648032839683523
0.559985566112573,-0.646689076324112
0.55759209136653,-0.644736411045031
0.554603837345659,-0.642138449956856
0.551066204348889,-0.63886236818599
0.547027223069173,-0.634879125397559
0.54253725050814,-0.630163657971811
0.537648651669785,-0.624695046640186
0.532415469007081,-0.6184566585393
0.526893081671216,-0.611436262799536
0.521137856676287,-0.603626118948949
0.515206794142336,-0.595023037581546
0.509157168816274,-0.585628412910905
0.503046170093209,-0.575448227004231
0.496930542769975,-0.564493025667434
0.490866230758068,-0.552777866127428
0.484908025964768,-0.540322236832601
0.479109224519206,-0.527149949865154
0.473521292474547,-0.51328900662866
0.468193543058666,-0.498771437639826
0.463172827474144,-0.483633117413829
0.458503241164345,-0.467913555586945
0.454225847366493,-0.451655665567402
0.450378419665475,-0.434905512144617
0.446995205144321,-0.417712039617341
0.444106709599638,-0.400126782121948
0.441739506153496,-0.382203557952367
0.439916068448246,-0.363998149762355
0.438654629458364,-0.345567972628261
0.437969066794653,-0.326971732025667
0.437868815211898,-0.308269073835744
0.438358806862486,-0.289520228546584
0.43943943966651,-0.270785651850688
0.441106573994595,-0.252125663862168
0.443351557684241,-0.233600089185704
0.446161279234802,-0.215267900064091
0.449518248851614,-0.197186864812066
0.453400706837138,-0.179413203711393
0.457782758657508,-0.162001254495932
0.4626345358475,-0.145003149496005
0.467922381756819,-0.128468506439113
0.473609060986583,-0.112444134819478
0.479653991218085,-0.0969737596523672
0.486013495997065,-0.082097764321489
0.492641076906862,-0.0678529541094192
0.499487703443597,-0.0542723418728712
0.506502118796816,-0.0413849571874235
0.513631159640409,-0.0292156801408893
0.520820087951743,-0.0177851008018034
0.528012932802387,-0.0071094052304117
0.535152840001952,0.00279971126489886
0.542182427427856,0.0119351030916062
0.549044143838549,0.0202942051954855
0.555680628946082,0.0278790355538221
0.562035072516068,0.0346961693272764
0.568051570269034,0.0407566848338761
0.573675474376951,0.0460760816831838
0.578853736382153,0.0506741715811854
0.583535240412767,0.0545749424857584
0.587671124628839,0.057806396957697
0.591215088906228,0.0604003657121369
0.594123686850558,0.062392297528873
0.59635660033056,0.063821026826529
0.597876894828405,0.0647285203439162
0.598651254023433,0.0651596045013578
0.598650192154331,0.0651616751344434
0.597848242842427,0.0647843914018792
0.596224123204584,0.0640793557671418
0.593760872237252,0.0630997820399027
0.590445962612588,0.0619001535371588
0.586271385192272,0.06053587348519
0.581233705733638,0.0590629098315243
0.575334093435002,0.0575374366706958
0.568578321141505,0.0560154745085373
0.56097673720835,0.0545525315969143
0.552544209193888,0.0532032485641484
0.543300039729506,0.0520210485459258
0.533267855085612,0.0510577949873711
0.522475467122193,0.050363459239406
0.510954709477242,0.049985800011791
0.498741249005972,0.0499700566717456
0.485874373637033,0.0503586582912233
0.472396757958033,0.0511909502482957
0.458354207980615,0.0525029400792985
0.443795386664321,0.0543270641590716
0.428771521897638,0.0566919766575374
0.413336098743306,0.059622362082786
0.397544537852412,0.0631387725746613
0.381453862037462,0.0672574909594357
0.365122353067963,0.0719904204165013
0.348609200812583,0.0773450014430747
0.331974146899354,0.0833241566337239
0.315277125099304,0.0899262636191377
0.298577900659178,0.0971451563340369
0.281935710815379,0.104970154608549
0.265408908713921,0.113386121901826
0.249054612940028,0.122373550822272
0.232928364826239,0.131908675906513
0.217083795659632,0.141963612960325
0.201572305847437,0.152506524100077
0.18644275802615,0.163501807473974
0.171741186012854,0.174910310489414
0.157510521399255,0.186689565227068
0.143790339479592,0.198794044584779
0.130616626083751,0.211175437565892
0.118021566757372,0.223782942007925
0.106033359592203,0.23656357293943
0.0946760528634461,0.24946248465594
0.0839694084770382,0.26242330452092
0.073928792069919,0.27538847642487
0.0645650904411265,0.288299611775893
0.0558846568222102,0.301097845848278
0.0478892843229231,0.313724197282429
0.0405762077135528,0.326119928509885
0.0339381335296508,0.338226904871391
0.0279632983094057,0.349987950204034
0.0226355545995759,0.361347196695276
0.0179344841938071,0.372250426837199
0.013835537898419,0.382645405363174
0.0103102009563441,0.392482199111171
0.00732618310091322,0.401713482832713
0.00484763205854633,0.410294829053475
0.00283536917410532,0.418184980190329
0.00124714569556767,0.425346101239506
3.79181266649334e-05,0.431744011470881
-0.000839859062036923,0.437348393693434
-0.00143592518070412,0.442132979795849
-0.00180189143984393,0.446075711413153
-0.00199090743980362,0.449158874724403
-0.00205731810007719,0.451369208546628
-0.00205631315758358,0.452697985055678
-0.00204357140912841,0.453141062634156
-0.00207490190583503,0.452698910519291
-0.00220588432622031,0.451376605098269
-0.00249151075968195,0.449183797874189
-0.00298583112343314,0.446134655301259
-0.00374160441340071,0.442247770862137
-0.00480995795346089,0.437546049932234
-0.00624005675782551,0.432056568144375
-0.00807878505872472,0.425810404131351
-0.010370441976157,0.418842447682612
-0.0131564532188396,0.411191184503623
-0.0164751006061624,0.402898458911345
-0.020361271090517,0.394009215935947
-0.0248462268385371,0.38457122442641
-0.0299573977993018,0.374634782875342
-0.0357181980481965,0.364252409785337
-0.0421478670478192,0.35347852049494
-0.0492613368128992,0.342369092466151
-0.0570691258056902,0.330981321106788
-0.0655772602226577,0.319373268259707
-0.0747872231635462,0.307603505536163
-0.0846959320011291,0.295730754702596
-0.0952957440952051,0.283813527348225
-0.106574490818747,0.271909766065333
-0.118515539688679,0.260076489364632
-0.131097884219588,0.248369442524934
-0.144296260946902,0.236842756539524
-0.158081292897661,0.225548617271414
-0.172419658623171,0.214536946866339
-0.187274285749362,0.203855099396367
-0.202604567848793,0.193547572618758
-0.218366603293672,0.183655737634801
-0.234513454613064,0.174217588122404
-0.250995426750396,0.165267510694876
-0.267760362500201,0.156836077807376
-0.284753953296615,0.148949864492758
-0.301920063430961,0.141631290060841
-0.31920106569254,0.134898485740381
-0.336538186355921,0.12876518908226
-0.353871857380121,0.123240665776513
-0.371142073640299,0.118329659365923
-0.388288752981428,0.114032369165995
-0.405252096865863,0.110344456526317
-0.421972949383032,0.107257079392649
-0.438393152399577,0.104756954953678
-0.454455894652186,0.102826449982324
-0.470106052622825,0.10144369830981
-0.485290521086989,0.100582744702573
-0.499958531289539,0.100213714248433
-0.514061954779325,0.100303006200334
-0.527555591022614,0.100813511074392
-0.54039743701583,0.101704849654834
-0.55254893722961,0.102933632422665
-0.563975212338016,0.104453737798268
-0.57464526531815,0.106216607471553
-0.584532163645631,0.108171556987345
-0.593613196459432,0.11026609965914
-0.601870005724661,0.112446281801721
-0.60928869058293,0.114657027202971
-0.615859884246086,0.116842488697928
-0.621578802959096,0.118946404664072
-0.626445266731003,0.120912458226332
-0.630463691707666,0.122684636943435
-0.633643054235731,0.124207590744252
-0.635996826842633,0.125426985893559
-0.637542886531383,0.126289852791233
-0.63830339596041,0.12674492544706
-0.638304658246713,0.126742970524899
-0.637576946293926,0.126237103914525
-0.636154307704749,0.125183092866737
-0.634074346488414,0.12353964181675
-0.631377982917601,0.121268660121913
-0.628109193024562,0.118335510051839
-0.624314729352319,0.114709233491372
-0.620043824692933,0.110362755948688
-0.615347880650156,0.105273066601416
-0.610280142957827,0.0994213732621153
-0.604895365567326,0.0927932312998511
-0.599249465586999,0.0853786457159187
-0.593399171213058,0.0771721457381279
-0.587401664834855,0.0681728314682923
-0.581314223527291,0.0583843922907284
-0.575193859159236,0.0478150969245141
-0.569096960349187,0.0364777551779459
-0.563078938487877,0.0243896516389525
-0.557193880022323,0.0115724517090948
-0.551494207156914,-0.00194791943986145
-0.546030349074971,-0.016141424240064
-0.54085042571895,-0.0309740855225021
-0.535999946089602,-0.0464081836653628
-0.531521522934375,-0.0624024768775563
-0.527454605593764,-0.0789124432558089
-0.523835232661709,-0.0958905431188151
-0.520695805993367,-0.113286499996319
-0.518064887461213,-0.131047598535412
-0.515967019719447,-0.149118997481509
-0.514422572087843,-0.167444055798098
-0.513447612510512,-0.185964669907918
-0.513053806383379,-0.204621619969337
-0.513248342877699,-0.223354923045729
-0.51403388921645,-0.242104190982936
-0.51540857318722,-0.260808990780716
-0.517365994000179,-0.279409205228671
-0.519895261424054,-0.297845391575472
-0.522981062957711,-0.316059136012412
-0.526603758621242,-0.333993401778239
-0.530739502779203,-0.351592868731769
-0.53536039224114,-0.368804262291603
-0.540434639721632,-0.385576669708222
-0.545926771584924,-0.401861841712153
-0.551797848648666,-0.417614477672557
-0.55800570867836,-0.432792492502753
-0.564505229069649,-0.447357263662256
-0.571248608090456,-0.461273856728295
-0.578185662939897,-0.474511228142472
-0.585264142776672,-0.487042403879736
-0.592430054776803,-0.498844632935954
-0.59962800119981,-0.509899514686434
-0.60680152537416,-0.520193099329621
-0.61389346445749,-0.529715960796958
-0.620846306785083,-0.538463241680499
-0.6276025515916,-0.546434669903235
-0.634105068876281,-0.553634547032155
-0.640297457180947,-0.560071708309802
-0.646124397062941,-0.565759454655247
-0.651531998071835,-0.570715457059136
-0.656468137078886,-0.57496163396845
-0.660882785861784,-0.578524002424005
-0.664728325913736,-0.581432503876313
-0.667959848525056,-0.583720805762309
-0.670535438276634,-0.58542608007562
-0.672416438187388,-0.586588760305612
-0.673567694871424,-0.587252278254408
-0.673957782184461,-0.587462782365796
-0.673559201972298,-0.587268839314425
-0.672348560675939,-0.586721120707417
-0.670306720697552,-0.585872076842747
-0.667418925587758,-0.584775599548898
-0.66367489827692,-0.58348667619795
-0.659068911740089,-0.582061037038914
-0.653599831656009,-0.580554798039486
-0.647271130794077,-0.579024101452211
-0.640090875038289,-0.577524756335096
-0.632071681132903,-0.576111881256993
-0.623230646409716,-0.574839551404479
-0.613589250930431,-0.573760452279668
-0.603173232648461,-0.572925542137534
-0.592012436361634,-0.572383725257108
-0.580140637389674,-0.572181538073775
-0.567595341066818,-0.572362850120176
-0.554417559289831,-0.572968581631393
-0.540651565503739,-0.574036439566857
-0.52634462964121,-0.575600673687223
-0.511546734655663,-0.577691854200174
-0.496310276402199,-0.58033667235544
-0.480689748723601,-0.583557765227066
-0.464741415690259,-0.587373565771058
-0.448522973022476,-0.5917981790899
-0.432093200790549,-0.596841285672987
-0.415511609542081,-0.602508072214853
-0.398838082046639,-0.608799190442135
-0.382132512874987,-0.615710744206641
-0.365454448043545,-0.623234304926683
-0.348862726954232,-0.631356955283168
-0.332415128845642,-0.640061360901804
-0.316168025943495,-0.64932586957933
-0.300176045456752,-0.659124637440962
-0.284491742510971,-0.669427781249357
-0.269165286042642,-0.68020155592326
-0.254244159597942,-0.691408556167807
-0.239772878886925,-0.70300794096896
-0.225792727840355,-0.714955679562864
-0.212341514801678,-0.727204817357791
-0.19945335036187,-0.739705760162661
-0.187158448210734,-0.75240657496266
-0.175482950235617,-0.765253305379873
-0.164448776948213,-0.77819029986584
-0.15407350416317,-0.791160550593981
-0.144370266689541,-0.804106040953506
-0.135347689628699,-0.816968099493061
-0.12700984770127,-0.829687758122372
-0.119356252851939,-0.842206112353679
-0.112381870205746,-0.854464681352115
-0.106077162273791,-0.866405765565259
-0.100428161131219,-0.877972799717092
-0.0954165681170027,-0.889110698980234
-0.0910198804345018,-0.899766196182544
-0.0872115438650605,-0.909888167959708
-0.0839611306451122,-0.919427947833837
-0.0812345414012967,-0.928339624279087
-0.0789942298890349,-0.936580321928267
-0.0771994491386819,-0.944110464178825
-0.0758065174807293,-0.950894015571783
-0.074769102798333,-0.9568987024425
-0.0740385232424975,-0.962096210476699
-0.0735640625432237,-0.966462357948242
-0.0732932979594887,-0.969977243565795
-0.0731724388325888,-0.972625368012758
-0.0731466736416841,-0.974395728427819
-0.0731605234076845,-0.975281885241088
-0.0731581992522796,-0.975282000952013
-0.0730839618931626,-0.974398850609074
-0.0728824808444972,-0.972639803926548
-0.0724991910935001,-0.970016779149323
-0.071880645039648,-0.966546168951742
-0.070974857512371,-0.962248738829699
-0.0697316417259801,-0.957149498615566
-0.0681029340867308,-0.951277547912054
-0.0660431058360104,-0.944665896402624
-0.0635092595951844,-0.9373512601517
-0.0604615089712243,-0.929373835156669
-0.0568632394871685,-0.920777049554515
-0.0526813492172156,-0.911607296018169
-0.0478864676319999,-0.901913646000369
-0.0424531512946122,-0.891747547595189
-0.0363600551913973,-0.88116250888893
-0.029590078632508,-0.870213768761839
-0.0221304848148179,-0.858957957179918
-0.013972993302954,-0.847452747081064
-0.0051138448520685,-0.835756500011881
0.00444616183267183,-0.823927907710144
0.014701661630983,-0.812025631852954
0.025642742892528,-0.800107944201969
0.0372549955522516,-0.78823236937455
0.0495195871811395,-0.776455332453363
0.0624133665044653,-0.764831813616929
0.0759089937493505,-0.753415011930075
0.0899750970172471,-0.742256020376395
0.104576453715606,-0.731403514145199
0.119674195927803,-0.72090345410312
0.13522603845193,-0.710798807286578
0.151186528098689,-0.701129286145606
0.167507312706799,-0.691931108153454
0.184137428212156,-0.683236777270059
0.201023601995121,-0.67507488861203
0.218110570629367,-0.667469957537973
0.235341410066539,-0.660442274206612
0.252657876213794,-0.654007784507326
0.270000753796988,-0.648177998099209
0.28731021135079,-0.642959924126792
0.304526160139106,-0.638356035008993
0.321588614784767,-0.634364258523878
0.338438053376816,-0.630977998236458
0.355015774826966,-0.628186182141032
0.371264251263779,-0.625973339214787
0.387127473283861,-0.624319703406307
0.402551285923584,-0.623201344412653
0.417483713272313,-0.622590324432627
0.431875269718457,-0.622454879922818
0.445679255902491,-0.622759627228106
0.458852037545742,-0.623465790810269
0.471353305429923,-0.624531452658325
0.483146314919022,-0.625911821332912
0.494198103542003,-0.627559518975345
0.504479685290594,-0.629424884500607
0.513966220430706,-0.631456291093228
0.522637159777739,-0.633600476036343
0.530476362544174,-0.635802880827752
0.537472187031606,-0.63800799947304
0.543617553607559,-0.640159732795101
0.548909979579159,-0.642201746562099
0.553351585749778,-0.644077831212206
0.556949074620238,-0.645732260943515
0.559713680371776,-0.647110149941453
0.561661090942804,-0.648157803533686
0.562811342684346,-0.64882306209394
0.563188688248928,-0.64905563556103
