-0.680972869059746,0.558998211939301
-0.681004339437808,0.558922448006422
-0.681036349286945,0.558845155533429
-0.681068909803098,0.558766296123707
-0.681102032448071,0.55868583022795
-0.68113572895634,0.558603717103968
-0.681170011342039,0.558519914774896
-0.681204891906106,0.558434379985739
-0.681240383243622,0.558347068158177
-0.681276498251314,0.558257933343555
-0.681313250135256,0.558166928173967
-0.681350652418738,0.558074003811367
-0.68138871895034,0.557979109894594
-0.681427463912181,0.557882194484233
-0.681466901828366,0.557783204005208
-0.68150704757363,0.557682083186998
-0.681547916382165,0.557578775001375
-0.68158952385666,0.557473220597536
-0.68163188597752,0.55736535923453
-0.681675019112294,0.557255128210818
-0.681718940025296,0.557142462790875
-0.681763665887423,0.557027296128651
-0.681809214286165,0.556909559187774
-0.681855603235814,0.556789180658323
-0.681902851187857,0.556666086870011
-0.681950977041563,0.556540201701608
-0.682000000154747,0.556411446486411
-0.682049940354713,0.556279739913588
-0.682100817949373,0.556144997925178
-0.682152653738522,0.556007133608533
-0.682205469025273,0.555866057083995
-0.682259285627635,0.555721675387554
-0.682314125890224,0.555573892348245
-0.682370012696086,0.555422608460017
-0.682426969478635,0.555267720747803
-0.682485020233665,0.555109122627495
-0.68254418953143,0.554946703759508
-0.682604502528765,0.554780349895616
-0.682665984981224,0.554609942718715
-0.682728663255201,0.554435359675141
-0.682792564340011,0.554256473799165
-0.682857715859877,0.554073153529256
-0.682924146085809,0.553885262515687
-0.682991883947304,0.553692659419022
-0.683131401656034,0.553292725393357
-0.683203242756632,0.553085084885918
-0.68327651402086,0.552872112663592
-0.68335124783648,0.552653639061471
-0.683427477313199,0.552429487995513
-0.683505236291449,0.552199476682099
-0.683584559350395,0.551963415343746
-0.68374803976258,0.55147234664427
-0.683832270027013,0.551216921901059
-0.683918210203283,0.550954611670509
-0.684005898649372,0.550685186251478
-0.684095374486993,0.550408406846837
-0.684186677600429,0.550124025148332
-0.684279848633312,0.549831782900098
-0.684374928983115,0.549531411439609
-0.684471960793079,0.549222631214775
-0.684570986941304,0.548905151275807
-0.684672051026649,0.548578668740416
-0.684775197351126,0.548242868230777
-0.684880470898373,0.547897421280621
-0.684987917307791,0.547541985710718
-0.685097582843878,0.547176204970877
-0.685209514360249,0.546799707446497
-0.685323759257773,0.546412105727562
-0.685440365436217,0.546012995837839
-0.685559381238706,0.545601956421906
-0.685680855388271,0.54517854788747
-0.685804836915657,0.544742311500268
-0.686060519263799,0.543829418735047
-0.686192318893913,0.543351740310238
-0.686326823299346,0.542859187748321
-0.686464081592564,0.542351191157289
-0.686604142520087,0.541827154902114
-0.686747054298377,0.541286456275822
-0.686892864430775,0.540728444094133
-0.687041619503593,0.540152437208866
-0.687193364959255,0.539557722934996
-0.687348144844187,0.538943555385931
-0.687506001528937,0.538309153711186
-0.687666975397717,0.537653700230252
-0.687831104504334,0.536976338456054
-0.688168966667107,0.535552257357628
-0.688342760541562,0.534803611547198
-0.688700195774319,0.533227937038012
-0.689070865764405,0.531540251600738
-0.689261180471962,0.530651380483137
-0.689454809631662,0.529730755654917
-0.689851943774821,0.527788641560005
-0.690055389871826,0.526764171034657
-0.690262030255011,0.525701976006565
-0.690471804759732,0.524600367169705
-0.690684638324838,0.523457567366918
-0.690900439309482,0.522271706477185
-0.691119097637073,0.521040815981766
-0.691340482748651,0.519762823188478
-0.691790794903237,0.517056681847155
-0.692019336921723,0.515623809829555
-0.692249829903791,0.514134374258927
-0.692482002014012,0.51258568135605
-0.692715543396789,0.510974890005093
-0.692950102114028,0.509299002890453
-0.693889734326123,0.501878539095574
-0.694122286675544,0.499826052886746
-0.694352574708065,0.497686635879992
-0.694803057143264,0.493129198776692
-0.69523357968457,0.488168012550086
-0.695438486129118,0.485522852658364
-0.695634694104615,0.482760350797636
-0.695820667221159,0.479874369153452
-0.69599469793197,0.476858414226433
-0.696154889574953,0.473705615656653
-0.696299136530261,0.470408703943696
-0.6964251022963,0.466959987046676
-0.696530195266606,0.463351325858367
-0.69668991287431,0.451477033296343
-0.696679498969234,0.447137342249913
-0.696630386708921,0.44258937046405
-0.696200314933289,0.427578538826759
-0.695943083317578,0.422076850499195
-0.695617502597061,0.416303113026274
-0.695215626269099,0.410242380874382
-0.694728668275161,0.403878907422393
-0.69345963934295,0.390176583471176
-0.692654979612259,0.382802002975264
-0.691719843525256,0.375053184248761
-0.69063977566504,0.366910035649392
-0.689398824305752,0.358351563879907
-0.686362090601191,0.339900228900872
-0.684525541789241,0.329961005107269
-0.682446220255463,0.319513824324039
-0.680098241995427,0.308533587986954
-0.677453156378752,0.296994584738939
-0.674479723073053,0.284870620294953
-0.671143677661482,0.272135182973013
-0.663230101157364,0.244723548264318
-0.658566692177238,0.22999485658121
-0.641150174619164,0.18142036537298
-0.634010235640615,0.163693086305872
-0.62609505319492,0.145167959094609
-0.585161344369775,0.0629219079565939
-0.54229146073347,-0.00711213799358743
-0.525170762986848,-0.031891317808043
-0.50646456618081,-0.0572899626711265
-0.46388870047983,-0.109590468920492
-0.439824028653128,-0.136263832715108
-0.413789149260724,-0.163095914490256
-0.385707790011446,-0.189913444416208
-0.323179463183783,-0.242680332855088
-0.288672176382045,-0.268150193733116
-0.172424761600937,-0.337485827172193
-0.129719308257543,-0.357159520432814
-0.0852909206355338,-0.37453432636101
-0.0393686550720323,-0.389251381221328
0.00776412767763673,-0.400955687408178
0.0557691397391279,-0.409305829356066
0.104254506808035,-0.413984689620598
0.200854916696133,-0.411249784099209
0.247963007720033,-0.403425479069958
0.415723840892468,-0.327510594290452
0.449812750237044,-0.297844447195749
0.505309821901985,-0.227497350977412
0.526035102025005,-0.187628444619427
0.541761200165527,-0.145263083048657
0.552363990180541,-0.100924673130163
0.557813126544917,-0.0551562947225287
0.558170125091641,-0.0085047108990722
0.54427792181081,0.0853330413924903
0.512743597624368,0.176682399884292
0.491253856303189,0.220396397312239
0.40893550959425,0.340107248318091
0.376998644906965,0.375544547618122
0.343518903568044,0.408558436690099
0.308890222073373,0.439108347726234
0.273478481483277,0.467195055866265
0.201608246748412,0.516152243589309
0.0951661965613058,0.572843378781645
0.0608722675532029,0.587733039306737
0.0274221894155072,0.600835292503375
-0.00507606308438802,0.612284230071645
-0.0365390782599029,0.622212933427536
-0.0669052966314309,0.630751419337809
-0.15108011127076,0.649249492056673
-0.176789755178288,0.653419092452221
-0.201333825287373,0.656760710273166
-0.288316526193233,0.663559305037387
-0.307422948965246,0.663983286873795
-0.342733229761953,0.663722670334375
-0.359018469523499,0.663135620481809
-0.389054293703482,0.661254825473104
-0.402885848098661,0.660030661670176
-0.428372343211746,0.657160479673492
-0.471661223584766,0.650353406441881
-0.481079196809365,0.648529447367072
-0.48999696236573,0.646682684788412
-0.514023200598486,0.641099997647016
-0.521207212282161,0.639250162275503
-0.534475664150677,0.635601559651517
-0.540601507364881,0.633811317383827
-0.546414062907805,0.632048315154566
-0.551931164966479,0.630315216171256
-0.56214517125054,0.626946929914649
-0.579703010743427,0.620637763767139
-0.583570194773562,0.619153444269913
-0.587251375805604,0.617706730721458
-0.59075681760454,0.616297523285327
-0.600312346991473,0.61229202335092
-0.608600812661081,0.608609609924314
-0.611116298397983,0.607451056685307
-0.62010708968727,0.603141949111225
-0.624034553750199,0.601171518770003
-0.62587288664575,0.600229546160111
-0.629319469024756,0.598428110333576
-0.630935307233952,0.597567077385565
-0.63539418735791,0.595133524339392
-0.63933352868679,0.592908844012689
-0.642824219365415,0.590874248080788
-0.750991142371674,0.478078306521298
-0.549009954603953,0.694790621684359
-0.64869060177248,0.587307122291159
-0.552253936586196,0.488848226168875
-0.550658876366397,0.484436143075492
-0.658244024322421,0.581027533998033
-0.661547228256921,0.578689988648215
-0.555061856473417,0.464428447585088
-0.551021009011491,0.670566889596265
-0.764758793123725,0.459524632964501
-0.774009118752793,0.68404551803995
-0.547985324562515,0.475528296207172
-0.575672275512892,0.477400090305852
-0.571989988312998,0.667250703186424
-0.668050494719987,0.573756382551998
-0.785596950172975,0.666636498273682
-0.563902385825624,0.66504912582012
-0.669478407233454,0.572599565509303
-0.669661230357526,0.572449131674028
-0.775487436773174,0.678407478817765
-0.776622438654059,0.469330053990745
-0.670506558751671,0.571746190983571
-0.552964559223741,0.479291039535312
-0.772226808906139,0.463674878477608
-0.67214645022159,0.570344633968881
-0.576251675528018,0.47497538562638
-0.764354683677153,0.454446113130895
-0.581154472785904,0.468774677770417
-0.774690058125804,0.47321115192403
-0.793195943285821,0.47407187885563
