-0.104788691366775,0.799414491741235
-0.104850371529648,0.799374777234043
-0.104913225896555,0.799334212939941
-0.104977282230926,0.799292776314417
-0.105042569078,0.799250444100432
-0.105109115790284,0.799207192302321
-0.105176952553937,0.799162996158609
-0.105246110416136,0.799117830113689
-0.105316621313458,0.799071667788313
-0.105388518101306,0.799024481948839
-0.105461834584456,0.798976244475166
-0.105536605548725,0.798926926327317
-0.105612866793854,0.798876497510577
-0.105690655167619,0.798824927039144
-0.105770008601246,0.7987721828982
-0.105850966146166,0.798718232004341
-0.105933568012187,0.798663040164273
-0.106017855607125,0.798606572031708
-0.106103871577961,0.79854879106235
-0.106191659853596,0.79848965946689
-0.106281265689262,0.798429138161912
-0.106372735712673,0.798367186718603
-0.106466117971969,0.798303763309153
-0.10656146198556,0.798238824650737
-0.106658818793924,0.798172325946955
-0.106758241013463,0.798104220826596
-0.106859782892497,0.798034461279597
-0.106963500369497,0.797962997590044
-0.107069451133644,0.79788977826608
-0.10717769468783,0.797814749966537
-0.107288292414198,0.797737857424142
-0.10740130764234,0.797659043365101
-0.107516805720264,0.797578248424895
-0.107634854088269,0.797495411060053
-0.107755522355833,0.797410467455728
-0.107878882381675,0.797323351428818
-0.108005008357117,0.797233994326423
-0.1081339768929,0.797142324919355
-0.108265867109611,0.79704826929047
-0.108400760731888,0.796951750717511
-0.108538742186563,0.79685268955017
-0.108679898704936,0.796751003081064
-0.108824320429367,0.796646605410271
-0.108972100524371,0.796539407303081
-0.109123335292441,0.796429316040578
-0.109278124294806,0.796316235262647
-0.109436570477351,0.796200064802999
-0.109598780301945,0.796080700515726
-0.109764863883425,0.795958034092943
-0.10993493513249,0.795831952872977
-0.110109111904798,0.795702339638573
-0.110287516156537,0.795569072404536
-0.110470274106783,0.7954320241942
-0.110657516406962,0.795291062804052
-0.110849378317745,0.795146050555839
-0.111045999893719,0.794996844035409
-0.111247526176221,0.794843293817479
-0.111454107394688,0.79468524417553
-0.111665899176944,0.79452253277589
-0.111883062768845,0.794354990355083
-0.112105765263702,0.794182440379419
-0.11233417984197,0.794004698685731
-0.112568486021657,0.793821573102118
-0.112808869919979,0.793632863047452
-0.113055524526777,0.793438359108332
-0.113308649990249,0.793237842592079
-0.113568453915574,0.793031085054278
-0.113835151677031,0.792817847799253
-0.114108966744238,0.792597881351762
-0.11439013102317,0.792370924898082
-0.114678885212637,0.792136705694531
-0.114975479176936,0.791894938441306
-0.115280172335421,0.79164532461943
-0.115593234069751,0.791387551788368
-0.115914944149639,0.791121292841769
-0.116245593177912,0.790846205218568
-0.11658548305576,0.790561930066496
-0.11693492746906,0.790268091354847
-0.117294252396707,0.789964294933092
-0.117663796641891,0.789650127531728
-0.118043912387317,0.789325155701447
-0.118434965775372,0.788988924686444
-0.118837337514269,0.788640957227383
-0.11925142351123,0.788280752289178
-0.11967763553379,0.787907783708444
-0.12011640190031,0.787521498755018
-0.1205681682008,0.787121316601614
-0.121033398049182,0.786706626695151
-0.12151257386809,0.786276787022879
-0.122006197707304,0.785831122265857
-0.122514792096929,0.785368921831814
-0.123038900936341,0.784889437758785
-0.123579090419941,0.784391882480278
-0.124135950000647,0.783875426442037
-0.12471009339202,0.783339195559663
-0.12530215960979,0.782782268505577
-0.125912814053438,0.78220367381289
-0.126542749628337,0.78160238678281
-0.127192687908777,0.780977326181165
-0.127863380341941,0.780327350708518
-0.128555609492688,0.779651255227142
-0.129270190328599,0.778947766726837
-0.130007971544447,0.778215540010145
-0.130769836924721,0.777453153076053
-0.131556706742357,0.776659102179621
-0.132369539191191,0.775831796543227
-0.133209331848919,0.774969552693264
-0.134077123166495,0.774070588394069
-0.134973993978953,0.773133016148729
-0.135901069031438,0.772154836234042
-0.136859518512965,0.771133929234447
-0.137850559588858,0.77006804803703
-0.138875457921079,0.76895480924689
-0.139935529163605,0.767791683979053
-0.141032140417677,0.766575987979911
-0.142166711629055,0.765304871027685
-0.143340716906289,0.763975305557756
-0.144555685735499,0.762584074454828
-0.145813204063042,0.761127757949835
-0.147114915212782,0.759602719555201
-0.148462520599352,0.758005090967621
-0.149857780192635,0.7563307558629
-0.151302512681716,0.754575332502629
-0.152798595278591,0.752734155067609
-0.154347963092743,0.750802253628021
-0.155952607997362,0.748774332655471
-0.157614576896101,0.746644747977238
-0.15933596928581,0.74440748206852
-0.161118933995343,0.742056117574257
-0.162965664963157,0.739583808948488
-0.164878395896647,0.73698325209629
-0.166859393633803,0.734246651901499
-0.168910950002452,0.73136568752293
-0.171035371943715,0.728331475343092
-0.173234969634051,0.725134529456977
-0.175512042303888,0.721764719594884
-0.177868861409983,0.718211226383327
-0.180307650772844,0.714462493862521
-0.182830563239307,0.710506179198965
-0.185439653373229,0.706329099558419
-0.188136845613747,0.701917176139536
-0.190923897270302,0.697255375413451
-0.193802355646113,0.692327647671682
-0.196773508496943,0.687116863056262
-0.199838326939454,0.681604745335004
-0.202997399823467,0.675771803794373
-0.206250858475277,0.669597263756658
-0.209598290605602,0.663058996391197
-0.21303864205705,0.656133448686626
-0.216570104944157,0.648795574687978
-0.220189990616877,0.641018769385627
-0.223894585759958,0.632774806979512
-0.227678989831306,0.624033785639745
-0.231536931949467,0.61476408135187
-0.235460565273228,0.604932313980573
-0.239440236887166,0.594503329318405
-0.243464231231294,0.583440201614703
-0.247518485210093,0.571704261912047
-0.251586273310067,0.559255158459266
-0.255647861374871,0.54605095652408
-0.259680128168059,0.532048286093652
-0.263656154537386,0.517202547219394
-0.267544780929896,0.501468184116599
-0.271310135249237,0.484799040540351
-0.274911134657656,0.467148810381469
-0.278300966971733,0.44847159879393
-0.281426559852535,0.428722610386095
-0.284228049115074,0.407858981958564
-0.286638261238636,0.385840777789887
-0.288582229591674,0.362632165352744
-0.289976769006898,0.338202788334471
-0.290730139123634,0.312529351633487
-0.290741833260947,0.285597429255268
-0.289902536313989,0.257403500344855
-0.288094301980203,0.22795721055028
-0.285191006080777,0.197283845099161
-0.281059138235197,0.165426986022979
-0.275558997870395,0.13245130862215
-0.26854636149865,0.0984454514610364
-0.259874685190994,0.0635248701348989
-0.249397897874391,0.0278345583830368
-0.236973826106364,-0.00844850802013269
-0.222468268032826,-0.0451133770026195
-0.20575970230538,-0.0819137730141155
-0.186744576364296,-0.118567613428872
-0.165343068077779,-0.154757614253495
-0.141505156833945,-0.190133206026124
-0.115216777829264,-0.224313957687119
-0.086505771130758,-0.256894661192244
-0.0554472813576308,-0.287452160412655
-0.0221682220848625,-0.315553914236557
0.0131496004635761,-0.340768168472349
0.0502680992977624,-0.362675480335844
0.0888936020382753,-0.380881202796527
0.128679891126033,-0.395028406880929
0.169233725102881,-0.40481061330727
0.210122819924026,-0.409983635991464
0.250886091594314,-0.410375822488142
0.291045779807545,-0.405896019372681
0.330120906072601,-0.396538696465734
0.367641388726716,-0.382385827354727
0.403162058290356,-0.363605331664633
0.436275801305795,-0.340446117151945
0.466625112971797,-0.313229993090762
0.493911453856218,-0.282340936126799
0.517901971098393,-0.248212354333202
0.538433341161884,-0.211313099244565
0.555412697642766,-0.172133011881621
0.56881580236896,-0.131168758532066
0.578682782756319,-0.0889106243533583
0.585111880253231,-0.0458308024011396
0.588251727340454,-0.00237356012943415
0.588292694005316,0.0410524973506416
0.585457824305141,0.0840800021421987
0.579993828732655,0.126386304960059
0.572162519633553,0.167695036657102
0.56223298609954,0.207775997168331
0.550474711579587,0.246443661897207
0.537151749884363,0.283554610742463
0.52251799885353,0.319004177702886
0.506813548875865,0.352722595167552
0.490262036787483,0.384670872393848
0.473068903906194,0.41483660745651
0.45542043847668,0.443229890325163
0.43748347536764,0.469879414833454
0.419405627016401,0.494828881243923
0.401315926958788,0.51813374009133
0.383325778663282,0.539858302482234
0.365530116011951,0.56007322198589
0.348008696225726,0.578853338259414
0.330827460280527,0.59627586198811
0.31403990919657,0.612418873876188
0.297688456573647,0.627360106570127
0.281805728173489,0.641175976858206
0.266415788158623,0.653940835663855
0.251535278837814,0.665726404727612
0.237174466563857,0.676601371037126
0.223338190941623,0.686631112689899
0.210026717910652,0.695877532711553
0.197236499744953,0.704398980222748
0.18496084673091,0.712250241124887
0.173190516393774,0.719482583076704
0.161914226776727,0.726143841912452
0.151119100546854,0.732278538784351
0.140791046703259,0.73792801919177
0.130915086470542,0.743130606694185
0.121475629636811,0.747921765508789
0.112456707187123,0.752334267386211
0.103842165627233,0.756398359160571
0.0956158279162188,0.760141928205203
0.0877616254499044,0.763590663714397
0.0802637050740156,0.766768212294651
0.0731065146662378,0.769696326804808
0.0662748704156336,0.772395007749745
0.0597540085495227,0.774882636821671
0.0535296239132237,0.777176102409448
0.0475878974968804,0.779290917070806
0.041915514724893,0.781241327094199
0.0364996760755123,0.783040414374504
0.0313281013788247,0.784700190896391
0.0263890289483504,0.786231686166685
0.0216712105324034,0.787645027967008
0.0171639029238701,0.788949516814242
0.0128568569388681,0.790153694522073
0.00874030436372158,0.791265407254522
0.00480494337383414,0.792291863454099
0.00104192284554346,0.793239687014548
-0.0025571740887511,0.794114966052537
-0.00600034695247841,0.794923297614969
-0.00929519506577374,0.795669828639818
-0.0124489347212939,0.796359293468972
-0.0154684162382176,0.79699604819215
-0.0183601407692282,0.797584102081752
-0.0211302767618607,0.798127146359857
-0.0237846759979419,0.798628580520673
-0.0263288891535355,0.799091536414611
-0.0287681808373896,0.799518900284039
-0.0311075440787967,0.799913332925503
-0.0333517142464402,0.800277288139023
-0.0355051823885368,0.80061302961177
-0.0375722079916942,0.800922646371104
-0.039556831161641,0.801208066930586
-0.0414628842335653,0.801471072241991
-0.0432940028233971,0.801713307556677
-0.0450536363341638,0.801936293290725
-0.0467450579336523,0.802141434980064
-0.0483713740211525,0.802330032404294
-0.0499355332021317,0.802503287951015
-0.0514403347903751,0.8026623142862
-0.052888436857496,0.802808141390381
-0.0542823638498397,0.802941723015157
-0.055624513792705,0.803063942609752
-0.0569171651015555,0.803175618762971
-0.0581624830195028,0.803277510201901
-0.0593625256998563,0.803370320385085
-0.0605192499519723,0.803454701724576
-0.0616345166680157,0.803531259468252
-0.0627100959475893,0.803600555271048
-0.0637476719365063,0.80366311048122
-0.0647488473952842,0.803719409165526
-0.0657151480122387,0.803769900895069
-0.0666480264753623,0.803815003311722
-0.0675488663164808,0.803855104493283
-0.0684189855405118,0.803890565133966
-0.0692596400519894,0.803921720555392
-0.0700720268903845,0.803948882561952
-0.0708572872851359,0.803972341153218
-0.0716165095407143,0.803992366105004
-0.0723507317614763,0.804009208429692
-0.0730609444255213,0.804023101725535
-0.0737480928162476,0.804034263423836
-0.0744130793198097,0.804042895942143
-0.0750567655962109,0.804049187750943
-0.0756799746313193,0.804053314360676
-0.076283492676674,0.804055439235358
-0.0768680710835489,0.804055714638565
-0.0774344280373616,0.804054282417057
-0.0779832501981622,0.804051274726886
-0.0785151942525947,0.804046814706449
-0.0790308883824089,0.804041017100566
-0.0795309336543009,0.804033988839336
-0.0800159053355747,0.804025829575238
-0.0804863541398572,0.804016632181642
-0.0809428074068408,0.804006483215652
-0.0813857702198002,0.803995463347978
-0.0818157264644012,0.803983647762301
-0.0822331398321173,0.803971106526417
-0.0826384547713675,0.803957904937259
-0.0830320973893105,0.803944103841731
-0.0834144763070535,0.803929759935137
-0.083785983470872,0.803914926038859
-0.0841469949218854,0.803899651358788
-0.0844978715264879,0.803883981725919
-0.0848389596697006,0.803867959820405
-0.0851705919134835,0.803851625380256
-0.0854930876219269,0.803835015395799
-0.0858067535551296,0.803818164290905
-0.0861118844334682,0.803801104091937
-0.0864087634738595,0.803783864585293
-0.0866976628995295,0.803766473464339
-0.0869788444247121,0.803748956466492
-0.0872525597156199,0.803731337501135
-0.0875190508289532,0.803713638769016
-0.0877785506291408,0.803695880873707
-0.0880312831854364,0.803678082925695
-0.0882774641499342,0.803660262639592
-0.0885173011175027,0.803642436424958
-0.0887509939685838,0.803624619471156
-0.0889787351957482,0.803606825826668
-0.0892007102148486,0.803589068473223
-0.0894170976615658,0.803571359395112
-0.0896280696740998,0.803553709644004
-0.0898337921627127,0.803536129399568
-0.0900344250667952,0.803518628026178
-0.0902301226000898,0.803501214125972
-0.0904210334846675,0.803483895588502
-0.0906073011742263,0.803466679637197
-0.0907890640672445,0.80344957287286
-0.0909664557104954,0.80343258131439
-0.0911396049934029,0.803415710436903
-0.0913086363336902,0.80339896520744
-0.0914736698547502,0.803382350118404
-0.0916348215551444,0.803365869218879
-0.0917922034706133,0.80334952614397
-0.0919459238289639,0.803333324142293
-0.0920960871981771,0.803317266101728
-0.0922427946280635,0.803301354573555
-0.092386143785776,0.803285591795069
-0.0925262290854733,0.803269979710777
-0.0926631418124117,0.803254519992264
-0.0927969702417303,0.803239214056814
-0.0929277997521785,0.803224063084866
-0.0930557129350245,0.803209068036374
-0.0931807896983691,0.803194229666148
-0.0933031073670788,0.803179548538232
-0.0934227407785421,0.803165025039386
-0.0935397623744409,0.803150659391723
-0.0936542422887191,0.803136451664553
-0.0937662484319261,0.803122401785497
-0.0938758465720952,0.803108509550894
-0.0939831004123179,0.803094774635561
-0.0940880716651624,0.803081196601948
-0.0941908201240768,0.803067774908705
-0.0942914037319146,0.803054508918726
-0.0943898786467075,0.803041397906681
-0.0944862993048114,0.803028441066073
-0.0945807184815389,0.80301563751585
-0.0946731873493894,0.803002986306608
-0.0947637555339845,0.802990486426387
-0.0948524711678048,0.802978136806114
-0.0949393809418276,0.802965936324688
-0.0950245301551538,0.802953883813753
-0.0951079627627114,0.802941978062149
-0.0951897214211193,0.802930217820099
-0.0952698475327875,0.802918601803104
-0.0953483812883317,0.802907128695603
-0.0954253617073712,0.802895797154389
-0.0955008266777804,0.802884605811799
-0.0955748129934573,0.8028735532787
-0.0956473563906723,0.802862638147275
