0.69136491622591,-0.117009099828378
0.643015128078436,-0.129900030516697
0.648995977722244,-0.112337959707008
0.607762476636026,-0.117838343289282
0.620736925964156,-0.0817669116336933
0.601737765370594,-0.118082094212223
0.612003065066274,-0.11615755259479
0.633988901169262,-0.129033349736463
0.631182804332358,-0.128702166696249
0.581273456857471,-0.101936558666008
0.614734853417659,-0.1496128728081
0.640296083468311,-0.0863185630597947
0.745597321051434,-0.0429252748138672
0.721851819291465,-0.0149342213983437
0.59707608473606,-0.10774254860412
0.594442970811146,-0.107221885916741
0.582351536517772,-0.111729246642526
0.480388180366915,-0.261950421374236
0.583503646845292,-0.120733993123886
0.576858929820804,-0.11935909820025
0.569891665824524,-0.117860176361043
0.447651550366716,-0.208659238958703
0.583426797817111,-0.0745379388237251
0.55950108433109,-0.0740376460700844
0.538909310343818,-0.11054065703867
0.525365367886617,-0.13391490216434
0.500887996192673,-0.0610004205675737
0.474273246046583,-0.0884538998985685
0.503240556913808,-0.10092175045887
0.493640970201975,-0.0981326490573869
0.384480860658669,-0.229722849112442
0.473673042326846,-0.0920733042878661
0.463319707482342,-0.0887981524250044
0.361893031926703,-0.188557992929813
0.441912994753563,-0.0817461294672253
0.430875539961762,-0.0779655732356014
0.419626197873807,-0.0740132150562581
0.408173263366053,-0.0698877436719847
0.396525151223102,-0.0655880652494906
0.50316013372838,0.0572563753307202
0.372677606924849,-0.0564628130713667
0.360495534888557,-0.05163615895515
0.447499720973975,0.053935954052944
0.335658870026522,-0.0414537824156969
0.323022146947469,-0.0360983365906815
0.216543469161313,-0.138880963576186
0.297357092978482,-0.0248613380395758
0.284346997137581,-0.018981438306681
0.271230751790701,-0.0129287576971037
0.258017571744786,-0.00670469896734881
0.244716695977774,-0.000310895170264239
0.231337379433822,0.00625079083883218
0.217888884820301,0.0129782671391887
0.204380474414453,0.0198692137243609
0.177220904154785,0.0341311048664596
0.0564853675967661,-0.0612606413040802
0.14993244828794,0.0490133949429422
0.136262807360986,0.056679008842916
0.122588359643968,0.0644894684084531
0.108918137449568,0.0724409046450499
0.095261108400775,0.0805292369128875
0.0816261676749461,0.0887501760303915
0.0680221303344318,0.0970992276026738
0.0544577237511031,0.105571695571784
0.0409415801319936,0.114162685985473
0.0140880907089185,0.131679692979955
0.000767467782903195,0.140594969090982
-0.126130093565455,0.0497024057079667
-0.0256206459957672,0.158710853349065
-0.038672177747991,0.167899651586018
-0.0516182890771805,0.177167534301223
-0.0644513637422686,0.186508185025599
-0.0771639422507439,0.195915132497271
-0.192475434763414,0.0879071478160269
-0.102198592950638,0.214901293194304
-0.114506583861449,0.22446684230094
-0.126665927355256,0.234071372188662
-0.138670035535893,0.243707726802484
-0.266342545077127,0.138677740891989
-0.173687958041222,0.272734448076049
-0.185009131648853,0.282424281026679
-0.196145086108164,0.292108522940492
-0.207090447741744,0.301779411871059
-0.217840060229216,0.311429109582919
-0.228388988308074,0.321049708890936
-0.238732521248613,0.330633241090339
-0.258785700703403,0.349656966902988
-0.28722049004495,0.377712637236669
-0.305039030196099,0.396001301027482
-0.20129174152725,0.503128170315015
-0.321919185164083,0.413881510027417
-0.330001092070155,0.422648015223403
-0.337841364520674,0.431287930825025
-0.345438171461938,0.439793152301101
-0.35278992989921,0.448155615039913
-0.359895304990902,0.456367302255922
-0.366753209895373,0.464420252872287
-0.373362805370845,0.4723065693714
-0.379723499129213,0.480018425605667
-0.293303935621189,0.579117307703714
-0.391697041518985,0.4948878560638
-0.397309931103139,0.50203020442836
-0.402673997880049,0.508967656029457
-0.407789866107352,0.515692856800237
-0.412658398024251,0.522198569643359
-0.417280691524266,0.528477681749533
-0.302489388658321,0.627423918059773
-0.425792117539427,0.540328317157419
-0.429684599946977,0.545886300703048
-0.43333753747587,0.551190617871584
-0.442882494284634,0.565518553382255
-0.341890206973177,0.665467094936865
-0.450364746151573,0.577343915212121
-0.452415266863418,0.580703510067329
-0.455872650107912,0.586518552394582
-0.457287391013331,0.588964440747459
-0.458498378962922,0.591096561459837
-0.459509987795426,0.59291068292077
-0.46032675507468,0.594402801396831
-0.557927007645317,0.49985921340486
-0.461655714715133,0.596910613148495
-0.461741557255125,0.597079393601485
-0.460440350245526,0.594345774872039
-0.459731729576319,0.592799365132598
-0.457894945409223,0.588659439086194
-0.456778709916899,0.586063696419849
-0.455538665166644,0.583116397242181
-0.452711829616061,0.576165643174857
-0.451137530129098,0.572162126189466
-0.449464389219391,0.567806930287793
-0.447698769648805,0.563100708993153
-0.445847067590454,0.558044390380394
-0.443915705132943,0.552639177082758
-0.441911122773654,0.546886546044432
-0.435522579720855,0.527563018277591
-0.433289628204043,0.520440949046367
-0.431015672875157,0.512982935020877
-0.544698475504686,0.407577439610173
-0.426370291657169,0.497071751701033
-0.424011544396321,0.488625583429908
-0.4216371360034,0.47985746764439
-0.419253281294453,0.470771555170441
-0.416866132396899,0.461372251819421
-0.414481771708398,0.451664215160401
-0.412106204942974,0.44165235105742
-0.409745354271527,0.431341809974843
-0.407405051563765,0.420737983054185
-0.405091031738465,0.409846497966001
-0.400564256570005,0.387224220182023
-0.517317693392061,0.285002472190309
-0.50492021240345,0.270610260308642
-0.394108298552192,0.351287156911418
-0.39008722660526,0.326071951642194
-0.386337664057679,0.299918173987516
-0.384576059990086,0.286508269744396
-0.382895650583614,0.272886823624838
-0.381300537006932,0.259061902057073
-0.379794649806667,0.245041735622644
-0.377065396922056,0.216449370274851
-0.375848999873713,0.201894391325433
-0.374735758505295,0.187178593120078
-0.37283060508156,0.157300445975048
-0.37137169697793,0.126887909846446
-0.370815509582748,0.111504522734461
-0.36979035137203,0.0490121695437127
-0.370319644501904,0.00140751689287576
-0.477965691754732,-0.133451152153778
-0.371985229925453,-0.0465326244393545
-0.372793807607476,-0.062540976803201
-0.373728658269406,-0.0785469319572344
-0.374789202400301,-0.0945405678609111
-0.375974642036574,-0.110511979429375
-0.377283961490484,-0.126451286880235
-0.378715928317823,-0.142348644054436
-0.385638108161745,-0.205323286468329
-0.387657336368847,-0.220864954235431
-0.394368718373333,-0.266853366831017
-0.295247298878769,-0.216688560064881
-0.297736706432844,-0.239131653130858
-0.413432143893939,-0.369277310823893
-0.419617179127283,-0.396972778567977
-0.422810885115173,-0.410518002292238
-0.429376369124412,-0.436964850477039
-0.432737977523382,-0.449851595618198
-0.338428097216159,-0.362042807341432
-0.44307432515521,-0.487079929721332
-0.457232275811532,-0.533130899448615
-0.460799610203994,-0.543962537985434
-0.46792467834652,-0.564769857864831
-0.478493054926282,-0.59376713937465
-0.370012599882369,-0.501363559474895
-0.595604654633381,-0.742081922270053
-0.495354835117271,-0.635910541766941
-0.498554681750692,-0.643379670507672
-0.504728295178507,-0.657335942729595
-0.507688643904478,-0.663818679011023
-0.510555757645033,-0.66996865943256
-0.523260332564331,-0.695683173350708
-0.527458777850051,-0.703606998654253
-0.531075569614545,-0.710181403468892
-0.532650294742397,-0.712964301993278
-0.536367373318625,-0.719310394095901
-0.537251202184722,-0.720763794546746
-0.643184686614281,-0.822561821887294
-0.53845220790153,-0.722690350322054
-0.538758551049347,-0.723168613231815
-0.538861797939302,-0.723327345278668
-0.435352710561265,-0.613819155596246
-0.537903159456411,-0.721919122715078
-0.529870934423436,-0.710973984973458
-0.509288367545495,-0.68566959623739
-0.501063128529759,-0.676214269989186
-0.481395070630174,-0.654669719561568
-0.463803049622904,-0.636425290572042
-0.457396842805782,-0.629984934692054
-0.436558452086839,-0.609691581197256
-0.31989333227437,-0.503168562422656
-0.405038616653183,-0.58065010322576
-0.486947526182833,-0.673571748253683
-0.319214579332762,-0.509445048418447
-0.391723414601548,-0.566759724525729
-0.263364506304235,-0.468013289039867
-0.251564608461908,-0.459680627671989
-0.215007946018231,-0.434721728036268
-0.1638046481653,-0.401795642695163
-0.0826427892479432,-0.35401544350642
-0.0120876751389673,-0.316486149272003
0.109356321915709,-0.210053156156403
0.0166224810241347,-0.302214416324313
0.031046848994858,-0.295255331379747
-0.0535626253130352,-0.401667245163196
0.0599888524725509,-0.281711022625823
0.0744881300078092,-0.275133302692126
0.103496852892312,-0.262383917185578
0.117987582519183,-0.256218485013279
0.0587684987703023,-0.340758382857995
0.175639500315964,-0.233014375065709
0.189927327483423,-0.227588942998831
0.204146102987282,-0.222317442291877
0.244259325569926,-0.269789170205122
0.414638894460958,-0.159402847878268
0.446817709688335,-0.233301754792284
0.589261246180876,-0.131566278250539
0.624359025255317,-0.12980092605227
0.633949263158168,-0.129712008108119
0.636401227833818,-0.129729322136286
0.643204101601165,-0.129912063417059
