0.67132857176175,0.441187304884444
0.58096046129784,0.347429926986796
0.517181439550834,0.25449911056625
0.462654770828061,0.179304955014274
0.41413204191815,0.0919737283686087
0.33549415796534,0.0561293758359176
0.276149052985684,0.00724098852125801
0.205278027920266,-0.00560924865271527
0.152331945199064,-0.0795488926452662
0.209271372014919,-0.198695766483382
-0.00705522997239844,-0.21185025704565
0.0201730269857894,-0.12605786144753
-0.105639865838874,-0.0589266815033859
0.0458627037384225,-0.0622861647196141
0.0440126579139478,-0.252188137300128
0.007507755964428,-0.288607075253504
-0.0245074851232502,-0.0858213698391402
-0.109927650815536,-0.217064605314775
-0.250304911829712,-0.061948452060188
-0.165363234974399,-0.190703728771869
-0.0477727654101401,-0.0714116497803164
-0.0890565501684071,-0.268451543713376
-0.24514142076453,-0.0598687975039749
-0.132352936494238,-0.180402385857122
-0.209967609019772,-0.289794110878219
-0.236072616963439,-0.288601317282135
-0.0505612812976573,-0.181870051220973
0.0645601182453258,-0.314412631190818
-0.119301261584541,-0.153191778902823
0.0159846411979576,-0.267634095297681
-0.00456357656079125,-0.429343623292167
-0.0147338497527547,-0.219097745480645
0.197444894046567,-0.271895118205777
0.306206481420859,-0.513447903116653
0.200508835981855,-0.477556506978865
0.361919232908676,-0.429473491800847
0.278933342497272,-0.632659807471724
0.235706089438637,-0.567571504467626
0.290423562135752,-0.882097583211374
0.55107546369196,-0.999910620118104
