-0.879175209656421,-0.434349840016431
-0.87912892848311,-0.434419035126276
-0.87908165989668,-0.434489545645544
-0.87903337776854,-0.434561402627832
-0.878984055146193,-0.434634637999665
-0.878933664223117,-0.434709284588851
-0.878882176307401,-0.434785376153888
-0.878829561789067,-0.43486294741445
-0.878775790106033,-0.434942034082996
-0.878720829708628,-0.435022672897561
-0.87866464802262,-0.435104901655767
-0.878607211410662,-0.4351887592501
-0.878548485132094,-0.435274285704525
-0.878488433301023,-0.435361522212467
-0.87842701884259,-0.435450511176241
-0.878364203447342,-0.435541296247975
-0.878299947523622,-0.435633922372096
-0.878234210147869,-0.435728435829442
-0.878166949012734,-0.435824884283071
-0.878098120372905,-0.435923316825834
-0.878027678988522,-0.436023784029796
-0.877955578066073,-0.436126337997578
-0.877881769196627,-0.436231032415697
-0.877806202291291,-0.436337922610004
-0.877728825513746,-0.436447065603295
-0.877649585209697,-0.436558520175208
-0.877568425833107,-0.436672346924478
-0.87748528986903,-0.436788608333683
-0.87740011775288,-0.436907368836568
-0.877312847785944,-0.437028694888068
-0.877223416046955,-0.437152655037151
-0.877131756299503,-0.437279320002599
-0.877037799895089,-0.437408762751867
-0.876941475671564,-0.43754105858314
-0.876842709846742,-0.437676285210752
-0.876741425906897,-0.437814522854097
-0.876637544489899,-0.4379558543302
-0.876530983262679,-0.438100365150115
-0.876421656792736,-0.438248143619303
-0.876309476413344,-0.438399280942198
-0.876194350082133,-0.438553871331127
-0.876076182232667,-0.438712012119794
-0.875954873618637,-0.438873803881529
-0.875830321150271,-0.439039350552526
-0.875702417722509,-0.439208759560289
-0.875571052034493,-0.439382141957539
-0.875436108399886,-0.439559612561808
-0.875297466547491,-0.439741290101015
-0.875155001411633,-0.439927297365266
-0.875008582911703,-0.440117761365191
-0.874858075720252,-0.440312813497102
-0.874703339018973,-0.440512589715305
-0.874544226241861,-0.440717230711877
-0.874380584804816,-0.440926882104275
-0.874212255820873,-0.441141694631131
-0.874039073800238,-0.441361824356609
-0.873860866334198,-0.441587432883732
-0.873677453761979,-0.441818687577095
-0.873488648819491,-0.442055761795395
-0.87329425626891,-0.442298835134241
-0.873094072507896,-0.442548093679722
-0.872887885157241,-0.442803730273235
-0.872675472625605,-0.443065944788085
-0.87245660364994,-0.443334944418429
-0.872231036810089,-0.44361094398111
-0.871998520015964,-0.443894166230992
-0.871758789965587,-0.444184842190424
-0.871511571572148,-0.444483211493466
-0.871256577358138,-0.444789522745581
-0.870993506814462,-0.445104033899478
-0.870722045722282,-0.445427012647852
-0.870441865435216,-0.445758736833796
-0.870152622119315,-0.446099494879663
-0.869853955948094,-0.446449586235225
-0.869545490249663,-0.446809321845976
-0.869226830602845,-0.447179024642469
-0.868897563878889,-0.44755903005162
-0.868557257225186,-0.447949686530915
-0.868205456987126,-0.448351356126507
-0.867841687563948,-0.448764415056216
-0.867465450194132,-0.449189254318463
-0.867076221665585,-0.449626280328209
-0.866673452945485,-0.450075915580972
-0.866256567724309,-0.450538599346036
-0.865824960868135,-0.45101478838997
-0.865377996772898,-0.451504957731587
-0.864915007613789,-0.452009601429484
-0.864435291482493,-0.452529233403283
-0.863938110404411,-0.453064388289725
-0.863422688227407,-0.453615622334691
-0.862888208373015,-0.454183514322242
-0.862333811440323,-0.454768666541701
-0.861758592652028,-0.455371705793732
-0.861161599131355,-0.455993284436319
-0.860541826997656,-0.456634081471415
-0.859898218267602,-0.45729480367291
-0.859229657547851,-0.45797618675643
-0.858534968503992,-0.458678996591264
-0.857812910089436,-0.459404030454487
-0.857062172516594,-0.460152118327078
-0.8562813729514,-0.460924124231508
-0.855469050910715,-0.461720947609854
-0.854623663340597,-0.462543524741068
-0.853743579351714,-0.463392830195461
-0.852827074586348,-0.464269878323852
-0.851872325189471,-0.465175724778067
-0.850877401354247,-0.46611146805864
-0.849840260410041,-0.467078251084538
-0.848758739418578,-0.468077262778606
-0.847630547241276,-0.469109739661046
-0.846453256037938,-0.470176967441748
-0.845224292154041,-0.471280282600441
-0.84394092635058,-0.472421073941628
-0.842600263327073,-0.473600784108865
-0.841199230484629,-0.474820911040235
-0.839734565872163,-0.476083009343735
-0.838202805254708,-0.477388691567714
-0.83660026823849,-0.478739629337369
-0.834923043382859,-0.480137554323637
-0.83316697222442,-0.481584259005377
-0.831327632133778,-0.483081597179635
-0.829400317920137,-0.484631484167705
-0.827380022093786,-0.486235896656695
-0.82526141369109,-0.487896872107124
-0.823038815561258,-0.489616507646657
-0.820706180008801,-0.49139695835817
-0.818257062680402,-0.493240434856829
-0.815684594580037,-0.49514920003547
-0.812981452091722,-0.497125564840109
-0.81013982488546,-0.499171882917585
-0.807151381579089,-0.50129054395488
-0.804007233027062,-0.503483965504242
-0.800697893107147,-0.505754583059479
-0.797213236878052,-0.508104838116372
-0.793542455985667,-0.510537163913585
-0.789674011203631,-0.513053968509331
-0.785595582006106,-0.515657614802886
-0.781294013088014,-0.518350397058377
-0.776755257771669,-0.521134513430488
-0.771964318270291,-0.524012033927474
-0.766905182819786,-0.526984863175512
-0.761560759742699,-0.530054697269539
-0.755912808574481,-0.533222973909019
-0.749941868465116,-0.536490814922116
-0.743627184171937,-0.539858960178619
-0.736946630085743,-0.543327691780615
-0.729876632886757,-0.546896747301036
-0.722392093614227,-0.550565220714518
-0.714466310159529,-0.554331449534331
-0.706070901463858,-0.55819288653549
-0.697175735025231,-0.562145954311264
-0.687748859703609,-0.566185880782484
-0.677756446266325,-0.570306513662934
-0.667162738647842,-0.57450011178786
-0.65593001951819,-0.578757111147257
-0.644018594472903,-0.583065863445051
-0.631386799983511,-0.587412345047308
-0.617991041189845,-0.591779834309281
-0.603785866679986,-0.596148555509722
-0.588724088593348,-0.600495288004701
-0.572756957694762,-0.60479293978201
-0.555834404492753,-0.609010085398245
-0.537905358993048,-0.613110469368696
-0.518918163254614,-0.617052477517466
-0.49882109249729,-0.620788580651293
-0.477563002021345,-0.624264757269646
-0.455094118533943,-0.627419904942919
-0.431366995494049,-0.630185253554055
-0.406337652601091,-0.632483797871458
-0.379966919330338,-0.634229771947389
-0.352222001172014,-0.635328193627321
-0.323078284617947,-0.635674513971691
-0.292521392561513,-0.635154413517848
-0.260549495191377,-0.633643794831961
-0.22717587219951,-0.631009028372673
-0.192431709728751,-0.627107515802207
-0.156369099551414,-0.621788640836062
-0.119064188221404,-0.614895181603828
-0.0806204003194164,-0.606265259162503
-0.0411716326867761,-0.59573489291533
-0.00088528645087288,-0.583141223745594
0.0400350279884668,-0.568326448127544
0.0813473089728911,-0.551142479888793
0.122769728346109,-0.531456319575656
0.163980187500822,-0.509156064057699
0.204617118713437,-0.484157431624111
0.2442817791359,-0.456410612234255
0.282542257362915,-0.425907182297643
0.318939360194829,-0.392686753716607
0.352994467568872,-0.356842965063455
0.384219336573821,-0.318528377256849
0.412127704241131,-0.277957816221829
0.436248390591055,-0.235409719597253
0.456139449461993,-0.191225100525359
0.471402769803303,-0.145803842345927
0.48169841150155,-0.0995981820711459
0.486757884826584,-0.0531034203244197
0.486395566273888,-0.0068460973538321
0.480517495898219,0.0386299200635758
0.469126924672857,0.0827788095442539
0.452326168570162,0.125068845078129
0.430314563614644,0.164998267845049
0.403382580392948,0.202110100880295
0.371902420279273,0.236005096415864
0.336315651289011,0.266352139320327
0.297118624908854,0.292895620673767
0.254846529402587,0.315459520690234
0.210056972116386,0.33394817514754
0.163313945132955,0.34834391982407
0.115172925858499,0.358701992606517
0.066167713692057,0.365143208616585
0.0167994259944781,0.367845003034844
-0.0324721085552317,0.3670314596854
-0.081234495651857,0.362962917354714
-0.129126546928844,0.355925680882565
-0.175839882033021,0.346222272956826
-0.221118647650817,0.334162558033279
-0.264757686569714,0.320055963233674
-0.306599505340288,0.304204921421325
-0.346530379353133,0.286899575108758
-0.384475905878232,0.268413709888842
-0.420396275427572,0.24900183382102
-0.454281485540518,0.228897283957921
-0.486146673497296,0.208311221051053
-0.516027699055001,0.187432365830331
-0.543977067411285,0.166427332276043
-0.570060247549788,0.145441422246678
-0.594352412409103,0.124599759244206
-0.616935604846647,0.104008654952317
-0.637896316645204,0.0837571188806359
-0.657323456108463,0.0639184378238193
-0.675306672289019,0.0445517671105963
-0.691934999758161,0.0257036892984877
-0.707295786287557,0.00740970783217684
-0.721473866184845,-0.0103043468261091
-0.734550943731123,-0.0274210128979251
-0.746605153739025,-0.0439300025925394
-0.757710769318046,-0.0598271197168989
-0.767938030221322,-0.0751132884864733
-0.777353068453765,-0.0897936896766662
-0.786017911006293,-0.10387699836005
-0.793990542555004,-0.117374716267257
-0.801325013675438,-0.130300591137696
-0.808071582546311,-0.142670115161768
-0.814276880249963,-0.154500094652453
-0.81998409162747,-0.165808283334364
-0.825233145232773,-0.176613072033835
-0.830060907275176,-0.186933228040467
-0.834501375568221,-0.196787677947768
-0.838585870441085,-0.206195328337521
-0.842343220340895,-0.21517491922693
-0.845799940484156,-0.223744905734062
-0.848980403424023,-0.231923363925072
-0.851907000806434,-0.239727917279925
-0.854600295908993,-0.247175680648348
-0.857079166806513,-0.254283218963313
-0.859360940198825,-0.261066518335857
-0.861461516080665,-0.267540967473902
-0.863395483539021,-0.273721347650952
-0.865176228038038,-0.279621829700833
-0.866816030601606,-0.285255976734507
-0.868326159334426,-0.290636751467457
-0.869716953737871,-0.295776527213776
-0.87099790228087,-0.300687101748673
-0.872177713681251,-0.305379713367026
-0.873264382341604,-0.30986505857419
-0.874265248367805,-0.314153310938649
-0.875187052579141,-0.31825414071607
-0.876035986897813,-0.322176734922749
-0.876817740483177,-0.325929817594659
-0.877537541953244,-0.329521670017857
-0.878200198013169,-0.332960150757925
-0.878810128788023,-0.336252715351526
-0.879371400135519,-0.339406435552982
-0.879887753193504,-0.342428018053739
-0.880362631397344,-0.345323822613482
-0.880799205183607,-0.348099879558991
-0.881200394578981,-0.350761906621201
-0.881568889856988,-0.353315325092758
-0.881907170429814,-0.355765275297953
-0.88221752212849,-0.35811663137483
-0.882502053011555,-0.360374015375449
-0.882762707830339,-0.362541810695359
-0.883001281267873,-0.364624174847166
-0.883219430058291,-0.366625051596104
-0.883418684084198,-0.368548182477732
-0.883600456540979,-0.37039711771949
-0.883766053249134,-0.372175226588916
-0.883916681188625,-0.373885707191981
-0.884053456322631,-0.37553159574533
-0.884177410772186,-0.377115775346193
-0.884289499397717,-0.378640984263597
-0.884390605838529,-0.380109823774055
-0.884481548056784,-0.381524765564467
-0.884563083428414,-0.382888158724274
-0.884635913419611,-0.384202236348249
-0.884700687884198,-0.385469121770531
-0.884758009014009,-0.386690834449694
-0.884808434971629,-0.387869295523851
-0.884852483232243,-0.389006333053926
-0.884890633659016,-0.390103686972413
-0.884923331334284,-0.391163013754113
-0.8849509891669,-0.392185890824511
-0.884973990294325,-0.393173820720674
-0.884992690296413,-0.394128235018778
-0.88500741923641,-0.395050498041606
-0.885018483543339,-0.395941910358668
-0.885026167748713,-0.396803712090875
-0.885030736089443,-0.397637086031048
-0.885032433987768,-0.39844316059091
-0.885031489418135,-0.399223012584602
-0.885028114170104,-0.399977669858189
-0.885022505015604,-0.400708113774086
-0.885014844788157,-0.401415281558798
-0.885005303381043,-0.402100068521896
-0.884994038670823,-0.402763330153681
-0.884981197372082,-0.40340588410854
-0.884966915828774,-0.404028512080615
-0.884951320747125,-0.40463196157796
-0.884934529874619,-0.405216947601066
-0.884916652629243,-0.40578415423122
-0.884897790682813,-0.406334236133875
-0.884878038501916,-0.406867819981898
-0.884857483849676,-0.407385505803262
-0.884836208251354,-0.407887868257478
-0.884814287426492,-0.408375457844818
-0.884791791690139,-0.40884880205213
-0.88476878632547,-0.409308406438823
-0.884745331929944,-0.409754755666387
-0.884721484736962,-0.41018831447461
-0.884697296914845,-0.410609528607481
-0.884672816844811,-0.411018825691574
-0.884648089379487,-0.411416616069549
-0.884623156083377,-0.411803293591261
-0.884598055456625,-0.412179236364807
-0.884572823143254,-0.412544807469711
-0.88454749212503,-0.412900355634319
-0.884522092901973,-0.413246215879363
-0.884496653660481,-0.413582710129517
-0.884471200429942,-0.41391014779468
-0.88444575722867,-0.414228826322634
-0.88442034619991,-0.41453903172458
-0.884394987738611,-0.414841039075038
-0.884369700609639,-0.415135112987446
-0.884344502057997,-0.415421508066765
-0.884319407911647,-0.415700469340294
-0.884294432677414,-0.41597223266785
-0.88426958963049,-0.416237025132381
-0.884244890897935,-0.416495065412044
-0.884220347536644,-0.416746564134702
-0.884195969606099,-0.416991724215759
-0.884171766236324,-0.417230741180179
-0.884147745691314,-0.417463803469507
-0.884123915428296,-0.417691092734656
-0.88410028215306,-0.417912784115189
-0.884076851871664,-0.418129046505765
-0.884053629938728,-0.418340042810414
-0.884030621102561,-0.418545930185238
-0.884007829547336,-0.418746860270128
-0.883985258932491,-0.418942979410023
-0.883962912429567,-0.419134428866263
-0.883940792756631,-0.419321345018485
-0.883918902210457,-0.41950385955756
-0.883897242696603,-0.419682099669989
-0.883875815757533,-0.419856188214177
-0.883854622598906,-0.420026243888988
-0.883833664114154,-0.420192381394943
-0.883812940907455,-0.420354711588419
-0.883792453315215,-0.420513341629182
-0.883772201426155,-0.420668375121578
-0.883752185100079,-0.420819912249668
-0.883732403985432,-0.420968049906612
-0.883712857535703,-0.421112881818558
-0.883693545024765,-0.4212544986633
-0.883674465561211,-0.421392988183945
-0.883655618101749,-0.421528435297822
-0.883637001463726,-0.421660922200861
-0.88361861433683,-0.421790528467627
-0.883600455294014,-0.421917331147245
-0.883582522801716,-0.422041404855362
-0.883564815229392,-0.422162821862359
-0.883547330858424,-0.422281652177967
-0.883530067890435,-0.422397963632447
-0.883513024455055,-0.4225118219545
-0.883496198617157,-0.422623290846043
-0.883479588383624,-0.422732432053989
-0.883463191709648,-0.422839305439173
-0.883447006504605,-0.422943969042544
-0.883431030637538,-0.42304647914874
-0.883415261942254,-0.423146890347168
-0.883399698222084,-0.423245255590691
-0.883384337254304,-0.423341626252026
-0.88336917679425,-0.423436052177963
-0.88335421457915,-0.423528581741476
-0.883339448331683,-0.423619261891842
-0.883324875763278,-0.423708138202835
-0.88331049457719,-0.42379525491908
-0.88329630247134,-0.423880655000654
-0.883282297140955,-0.423964380165994
-0.883268476281009,-0.424046470933196
