0.895053649102098,-0.299323107698044
0.897321888137361,-0.284154180207031
0.897071061990355,-0.268505181217176
0.894334575532587,-0.252497903669497
0.889185332907854,-0.236257409378742
0.881734643859713,-0.219908900777236
0.872130433734073,-0.203574636026554
0.86055478755123,-0.187370957073616
0.847220871077979,-0.171405497310639
0.832369283582461,-0.155774631158637
0.816263907695719,-0.140561222227695
0.799187331326908,-0.125832719837744
0.781435924699636,-0.1116396457593
0.76331466213785,-0.0980145042251062
0.74513178310362,-0.0849711387591934
0.727193390081422,-0.0725045493726618
0.709798082153679,-0.0605911733984482
0.693231722495473,-0.0491896228992592
0.67776243554361,-0.038241861403703
0.663635925313789,-0.0276747929219492
0.651071200331107,-0.017402226972653
0.640256783019144,-0.00732717491384149
0.631347472307362,0.00265557460789212
0.624461717840366,0.0126566596331163
0.619679652704912,0.0227891919335072
0.617041819251712,0.0331657144993984
0.616548609616058,0.043895139128471
0.61816042918287,0.0550797345536829
0.621798577754134,0.066812234807212
0.62734682981792,0.0791731352655515
0.634653682343751,0.092228240102153
0.643535226186315,0.106026519762196
0.653778585703456,0.120598330672529
0.665145860802456,0.135954041839188
0.677378496517198,0.152083104420373
0.69020199755883,0.168953590970996
0.703330899216549,0.186512221030416
0.716473901624351,0.204684879276189
0.729339071832181,0.223377621811383
0.741639017368814,0.242478155514639
0.753095936066925,0.261857764983987
0.763446449810094,0.281373651667394
0.772446134494046,0.300871640505796
0.77987366477379,0.320189201016117
0.785534499966237,0.339158722393366
0.789264046637068,0.357610976072261
0.790930243738007,0.375378694395856
0.790435527470737,0.392300190699939
0.787718145113029,0.408222944316681
0.782752799613972,0.423007073777359
0.775550619602259,0.436528622867463
0.766158462304003,0.448682587141313
0.754657569484955,0.45938561298781
0.741161608672454,0.468578307272993
0.725814143341596,0.4762271028573
0.708785586249738,0.482325633756622
0.690269699474472,0.486895583221611
0.670479712776813,0.489986978362913
0.649644138524165,0.491677915945684
0.628002366446715,0.492073715396073
0.605800124877902,0.49130550667579
0.583284896789341,0.489528272254296
0.560701378852209,0.486918373706338
0.53828706995408,0.483670604254837
0.516268072120073,0.479994818643385
0.494855181710598,0.476112200850424
0.474240342206458,0.472251238157408
0.454593521986387,0.468643476786661
0.436060071418556,0.465519139586822
0.418758603515235,0.463102689948563
0.402779431546231,0.46160842819487
0.388183585593753,0.461236207055522
0.375002418291013,0.462167351484521
0.363237798155958,0.46456086502695
0.352862877247668,0.468550000236302
0.343823408569049,0.474239264366589
0.336039577939803,0.481701923828983
0.329408305178645,0.490978061853231
0.323805960556598,0.502073233599726
0.319091434785201,0.514957751822264
0.315109494431572,0.529566624297625
0.311694349725365,0.545800151845235
0.308673358329981,0.563525183098572
0.305870786849392,0.582577009506502
0.303111551657525,0.602761871585762
0.300224862061196,0.62386003546056
0.297047691799292,0.645629387448702
0.293428009367686,0.667809484110071
0.289227703538674,0.690125985969413
0.284325147584885,0.712295395246787
0.278617353965004,0.734030011535838
0.272021680404702,0.755043014594097
0.264477058215202,0.775053580351475
0.255944724124032,0.793791934970546
0.246408447628394,0.811004252337887
0.235874256696219,0.826457302727299
0.224369675308248,0.839942764515115
0.211942496634925,0.851281116672473
0.198659125361814,0.860325037203124
0.184602531616768,0.866962241600563
0.169869866928276,0.871117705598594
0.154569799495115,0.872755227792728
0.138819631634294,0.871878299902205
0.122742266485847,0.868530265291992
0.106463093806689,0.862793759635759
0.0901068659296316,0.854789441020981
0.0737946346772535,0.84467403011855
0.0576408182154904,0.832637694005812
0.0417504635515326,0.818900819594335
0.0262167656991126,0.803710234133624
0.0111188985544394,0.787334940717327
-0.00347979462200302,0.770061445907121
-0.0175332113846187,0.752188764333711
-0.031013470210491,0.734023191284269
-0.0439114394505525,0.715872938721713
-0.0562368041263462,0.698042732817255
-0.0680176698875255,0.680828471861984
-0.0792997137641416,0.664512042339951
-0.0901449014531324,0.64935638801457
-0.10062980055526,0.635600922157879
-0.110843528221035,0.62345736662882
-0.120885379879217,0.613106093505375
-0.130862192933759,0.604693035549914
-0.140885505370139,0.59832722111839
-0.151068573979327,0.594078977417251
-0.161523320283811,0.591978833491752
-0.172357274160446,0.5920171412363
-0.183670585555681,0.594144419302546
-0.195553173567464,0.598272411301369
-0.208082079544438,0.604275836408452
-0.221319086777933,0.611994797643886
-0.235308663917196,0.621237800948701
-0.250076282533744,0.63178532695657
-0.265627151433682,0.643393887269668
-0.281945401528134,0.655800488284136
-0.298993745503181,0.668727418336912
-0.316713626380111,0.681887268296888
-0.335025858535672,0.694988091802399
-0.353831754079965,0.707738609223556
-0.373014716890378,0.71985335913609
-0.392442276296547,0.731057702632017
-0.411968522621591,0.741092589124766
-0.431436897716991,0.749718997361043
-0.450683285476439,0.756721972023846
-0.469539340253929,0.76191418446515
-0.487835985297423,0.765138955578585
-0.505407008870931,0.766272689423046
-0.522092682776265,0.765226677727149
-0.537743326572612,0.761948247614408
-0.552222740967454,0.756421237550143
-0.565411435623857,0.748665799375542
-0.577209579971501,0.738737537111565
-0.587539610464548,0.726726005736816
-0.596348434009598,0.712752605127487
-0.603609174873058,0.696967915564071
-0.609322421123318,0.679548531444799
-0.613516936398777,0.660693458906191
-0.61624981332638,0.640620150767166
-0.617606056038017,0.6195602584426
-0.617697590721666,0.597755185102782
-0.616661714769772,0.57545152730673
-0.614659006613827,0.552896493563189
-0.611870729527264,0.530333387760951
-0.608495773309369,0.507997243182075
-0.604747187612034,0.486110688923586
-0.600848369534186,0.464880125093706
-0.59702897579971,0.444492276236919
-0.593520636190309,0.425111184225448
-0.590552549787241,0.406875692505463
-0.58834704887675,0.389897463298621
-0.587115217015171,0.374259558344805
-0.587052647686542,0.360015602255138
-0.58833542820661,0.347189535759027
-0.591116430055672,0.335775954312676
-0.595521981715534,0.325741015926037
-0.601648993432842,0.317023890891819
-0.609562595253193,0.309538715584993
-0.619294340317873,0.303177002850946
-0.630841014963781,0.297810452902838
-0.644164085816098,0.293294101269609
-0.65918980203009,0.289469734315341
-0.675809958355535,0.286169498300233
-0.693883312006912,0.283219624954534
-0.713237633672378,0.280444195138893
-0.733672360632785,0.277668862384326
-0.754961808132118,0.274724459926067
-0.776858884076993,0.27145041821901
-0.799099242065564,0.267697924768188
-0.82140579885722,0.26333276431572
-0.843493534873186,0.258237784858898
-0.865074490318112,0.252314943471098
-0.885862865158064,0.245486895275412
-0.905580128573685,0.237698098980875
-0.923960042687548,0.228915422920055
-0.940753506366021,0.21912824630354
-0.955733127706867,0.208348061205925
-0.968697438397703,0.196607591394735
-0.979474669386026,0.183959454288532
-0.987926015124732,0.170474401873415
-0.993948322902648,0.156239185122236
-0.99747615426462,0.141354094169968
-0.998483177072106,0.125930233045392
-0.996982859134205,0.11008659301165
-0.993028447315062,0.0939469924218709
-0.986712229348868,0.0776369533759492
-0.978164089013221,0.0612805863265067
-0.967549378568021,0.0449975531137538
-0.955066145205594,0.0289001767299614
-0.940941760431277,0.0130907624756051
-0.925429012567611,-0.00234080984763121
-0.908801732731962,-0.0173191693468536
-0.891350033480607,-0.0317851671076967
-0.873375246670867,-0.045697181369461
-0.855184652824239,-0.0590319864323501
-0.837086098266328,-0.0717851667004037
-0.819382598495919,-0.0839710674279744
-0.802367026553036,-0.0956222840726644
-0.786316983607421,-0.106788702443646
-0.771489945603686,-0.117536111852394
-0.758118774642038,-0.127944423009928
-0.74640767694284,-0.1381055312676
-0.736528680870358,-0.148120873778504
-0.728618698736796,-0.158098736093185
-0.722777225159403,-0.168151369447639
-0.719064712811575,-0.178391984429767
-0.717501653722407,-0.188931689725931
-0.718068381081808,-0.199876446185143
-0.72070559305296,-0.211324106458587
-0.725315586638508,-0.223361608972254
-0.731764176448707,-0.23606239199792
-0.73988326053093,-0.249484089161303
-0.749473983482094,-0.263666561954869
-0.760310436105657,-0.278630317823735
-0.772143821100096,-0.294375354309733
-0.784707005860447,-0.310880460737243
-0.797719376595539,-0.328102999191003
-0.810891902738349,-0.345979176272723
-0.823932317150161,-0.364424806543586
-0.836550315951801,-0.383336557884915
-0.84846268198249,-0.402593658463171
-0.859398237878769,-0.422060034790327
-0.869102538536859,-0.441586840742417
-0.877342218191915,-0.46101532854248
-0.883908914404127,-0.48018000481948
-0.88862269974159,-0.49891200809261
-0.891334961722479,-0.517042638549322
-0.891930682429741,-0.534406966907732
-0.890330080925114,-0.550847446574092
-0.886489593934931,-0.566217452287562
-0.880402183015517,-0.580384669019453
-0.872096969282153,-0.593234257061995
-0.861638209551955,-0.604671722969006
-0.849123640160407,-0.61462543123218
-0.834682226524406,-0.6230486981956
-0.818471367515268,-0.629921417601823
-0.800673613663947,-0.635251176173225
-0.781492966959971,-0.639073827586135
-0.761150837362177,-0.641453503896357
-0.739881736978353,-0.642482054710316
-0.717928797087948,-0.642277915941527
-0.695539195705118,-0.640984421614955
-0.672959584170543,-0.638767583646889
-0.650431600315903,-0.635813375601545
-0.628187553095289,-0.632324566880961
-0.606446359287423,-0.628517163425784
-0.585409807037666,-0.624616519591221
-0.565259213755936,-0.62085319323392
-0.546152537369735,-0.617458622044669
-0.528221990328665,-0.614660703657997
-0.511572195266906,-0.61267936496165
-0.496278910068396,-0.611722207246975
-0.482388338473375,-0.611980313348823
-0.469917030549585,-0.613624300718029
-0.45885236556447,-0.616800700482522
-0.449153598272202,-0.62162873704978
-0.440753438600282,-0.628197575781638
-0.433560124402821,-0.636564097860753
-0.427459937543689,-0.646751251823345
-0.422320105265135,-0.65874702053717
-0.417992021745931,-0.672504030861069
-0.414314719090581,-0.687939821054607
-0.41111851282218,-0.704937768448519
-0.408228744349497,-0.723348667183077
-0.405469541885079,-0.742992933220314
-0.402667521914103,-0.763663401584658
-0.399655355528651,-0.785128669126737
-0.396275127692351,-0.807136925267941
-0.392381422698005,-0.829420203385043
-0.387844075608994,-0.851698976931226
-0.382550537190476,-0.87368701723567
-0.376407808571505,-0.89509642432465
-0.369343911447193,-0.915642738179612
-0.361308869827553,-0.93505003567601
-0.352275189951542,-0.953055918081403
-0.342237835788315,-0.969416295447408
-0.331213708317183,-0.983909877487517
-0.319240647289361,-0.996342285536074
-0.306375984210656,-1.0065497068431
-0.292694684638016,-1.01440202065324
-0.278287126362307,-1.01980533509232
-0.263256567482061,-1.02270388466235
-0.247716364607328,-1.02308124992149
-0.231787006344188,-1.02096087347648
-0.215593030701529,-1.01640585950198
-0.199259897064985,-1.00951805737402
-0.18291088386223,-1.00043644340792
-0.166664081994766,-0.989334827866261
-0.150629551561408,-0.976418927098018
-0.134906705406703,-0.961922852639457
-0.119581977682203,-0.946105080122114
-0.104726829026749,-0.92924397067867
-0.0903961322962178,-0.911632926024667
-0.0766269741686575,-0.893575265357973
-0.063437898601779,-0.875378917523736
-0.0508286082261031,-0.857351025437343
-0.0387801295295975,-0.839792561472256
-0.0272554373461846,-0.822993052369893
-0.0162005239210905,-0.807225510216933
-0.00554588790851388,-0.792741662199839
0.00479159072750939,-0.779767566260118
0.0149064325899282,-0.768499692544128
0.0249020479184469,-0.759101541806864
0.0348879899190587,-0.751700861857777
0.0449770348460258,-0.746387511922057
0.0552821554119074,-0.743212012648068
0.0659134567519184,-0.742184806654234
0.076975145328006,-0.74327624122278
0.0885626007973385,-0.746417271268191
0.100759618993014,-0.751500867293138
0.113635890807088,-0.758384099950482
0.127244776993868,-0.766890860306739
0.141621432821137,-0.77681516318846
0.156781329212415,-0.787924970310742
0.172719208694086,-0.799966460438453
0.189408505258604,-0.812668665793425
0.206801247369666,-0.82574838744461
0.224828452972332,-0.838915297622573
0.243401014746679,-0.85187713387092
0.2624110631799,-0.864344888737535
0.281733784552773,-0.876037899334261
0.301229660863124,-0.886688743535983
0.32074708925483,-0.896047853794537
0.340125329887798,-0.903887765421418
0.359197723557484,-0.910006923625101
0.377795113917838,-0.914232982423982
0.395749404020777,-0.916425538617151
0.412897173174421,-0.916478255082496
0.429083277928021,-0.91432033956541
0.444164360369555,-0.909917357587517
0.458012187896619,-0.903271370898851
0.47051675118325,-0.894420405769112
0.481589051173619,-0.883437268113672
0.491163511514434,-0.870427734732354
0.499199959787604,-0.855528161567097
0.505685129090655,-0.838902560636105
0.510633640775929,-0.820739206972729
0.514088439319372,-0.801246845305086
0.516120661144907,-0.780650573201178
0.516828930564941,-0.7591874828463
0.516338087584327,-0.737102147418567
0.514797363920612,-0.714642040120701
0.51237803498229,-0.692052974282524
0.50927058648675,-0.669574651573497
0.505681444666054,-0.647436402297638
0.501829328389232,-0.62585319705626
0.49794128982871,-0.605022002861702
0.49424851734067,-0.58511854920087
0.490981979863659,-0.566294560741419
0.488367996243168,-0.548675503529534
0.486623815368593,-0.532358880849551
0.485953293801579,-0.517413103621283
0.48654275665288,-0.503876948530148
0.488557124834738,-0.491759605254762
0.492136387517231,-0.481041302413764
0.497392492723725,-0.471674490433483
0.504406721618145,-0.463585548666851
0.51322760330111,-0.456676973986548
0.523869417006505,-0.450829998929207
0.536311317662837,-0.445907579460012
0.550497109063357,-0.441757685711255
0.566335676601169,-0.438216823750761
0.583702078908132,-0.435113712653171
0.602439285035082,-0.432273038944547
0.622360531274042,-0.429519209901685
0.643252259597397,-0.426680028211989
0.664877588213555,-0.423590213105151
0.686980254141751,-0.420094697189391
0.709288958201495,-0.416051633767336
0.731522034586208,-0.411335056246036
0.753392360412545,-0.405837139242246
0.774612415445874,-0.399470019945759
0.794899398707332,-0.392167148048468
0.813980306944322,-0.383884142868558
0.831596880036455,-0.374599146980041
0.847510320318535,-0.364312676474008
0.86150569650271,-0.353046978703829
0.873395948308858,-0.340844918779257
0.883025414967962,-0.327768425958811
0.890272819317578,-0.313896540242238
0.895053649102098,-0.299323107698044
