0.739258032190254,-0.602352922167682
0.69781451379429,-0.410768694442681
0.535378119232048,-0.217056800981272
0.561849376364219,-0.134102739789045
0.804644848443554,-0.0593968661975225
0.940369900029228,0.0791347574131978
0.772419907306988,0.184169359433465
0.521826114598073,0.205832091656524
0.4850767286336,0.284963590404029
0.604128491886081,0.510695373110865
0.59944248565534,0.702499985223037
0.4050040780052,0.654988804212317
0.213706406478079,0.493724081447629
0.132759419452233,0.527194715876583
0.0565836837900519,0.77193797901044
-0.082745047034625,0.900803890926062
-0.18548689802318,0.726626536096517
-0.206323618820156,0.478674793678017
-0.289020428807997,0.448270131511405
-0.517103910521348,0.567557911085167
-0.704546026982887,0.557437166856342
-0.651054912543092,0.360289002976838
-0.491186519028095,0.17148060145825
-0.531670700075367,0.0924566846890804
-0.778125096570017,0.0147596011179005
-0.899996502091071,-0.125287947105473
-0.719758899179961,-0.225698692762052
-0.474659188488006,-0.245816337732863
-0.450546315409768,-0.332145820926513
-0.569866617645432,-0.562447996035961
-0.554273873927546,-0.745378372733058
-0.354562058088241,-0.686001670267808
-0.168313592273533,-0.527753073408491
-0.0911266612968692,-0.57525702826727
-0.0118600480235285,-0.823183398516612
0.128826272762773,-0.937931941272858
0.226871089163177,-0.751806975074229
0.24637878220252,-0.509765226766445
0.336404094855598,-0.491884164523779
0.568787919523553,-0.611034178790273
