-0.928765315213428,0.669688597626799
-0.914627562849987,0.665085781561868
-0.9006442544825,0.660459843135932
-0.886813857288952,0.65581143490894
-0.873134865880916,0.651141205207299
-0.859605801546137,0.646449798213362
-0.846225211513291,0.64173785405153
-0.832991668238164,0.637006008871108
-0.819903768710537,0.632254894926
-0.806960133781098,0.627485140651368
-0.794159407507706,0.622697370737354
-0.781500256520377,0.617892206199956
-0.768981369404377,0.613070264449164
-0.756601456100827,0.608232159354434
-0.744359247324266,0.603378501307609
-0.7322534939966,0.598509897283346
-0.720282966696943,0.593626950897152
-0.708446455126811,0.588730262461099
-0.696742767590202,0.583820429037297
-0.685170730488083,0.578898044489188
-0.673729187826828,0.57396369953075
-0.662417000740181,0.569017981773666
-0.651233047024302,0.564061475772529
-0.640176220685519,0.559094763068136
-0.629245431500361,0.554118422228958
-0.618439604587526,0.54913302889081
-0.607757679991394,0.544139155794809
-0.597198612276747,0.539137372823659
-0.58676137013436,0.534128247036317
-0.57644493599712,0.529112342701098
-0.566248305666369,0.524090221327266
-0.556170487948172,0.519062441695152
-0.546210504299195,0.51402955988486
-0.536367388481926,0.50899212930359
-0.526640186228962,0.503950700711635
-0.517027954916085,0.498905822247083
-0.50752976324389,0.493858039449274
-0.498144690927695,0.488807895281045
-0.488871828395513,0.483755930149802
-0.479710276493844,0.478702681927457
-0.470659146201065,0.473648685969269
-0.461717558348205,0.468594475131616
-0.45288464334689,0.463540579788735
-0.444159540924262,0.458487527848469
-0.435541399864669,0.453435844767036
-0.427029377757951,0.448386053562871
-0.418622640754116,0.443338674829551
-0.41032036332425,0.438294226747849
-0.402121728027481,0.433253225096927
-0.394025925283824,0.428216183264712
-0.386032153152765,0.423183612257469
-0.378139617117406,0.4181560207086
-0.370347529874035,0.413133914886694
-0.362655111126971,0.408117798702855
-0.355061587388543,0.40310817371732
-0.34756619178406,0.398105539145406
-0.340168163861655,0.393110391862789
-0.332866749406853,0.388123226410156
-0.325661200261756,0.383144534997229
-0.318550774148711,0.378174807506202
-0.311534734498358,0.373214531494591
-0.304612350281933,0.368264192197536
-0.29778289584771,0.363324272529554
-0.291045650761504,0.358395253085767
-0.284399899651092,0.353477612142637
-0.27784493205448,0.348571825658196
-0.271380042271909,0.343678367271816
-0.265004529221508,0.338797708303516
-0.258717696298492,0.333930317752828
-0.252518851237827,0.329076662297238
-0.246407305980278,0.324237206290218
-0.240382376541742,0.319412411758852
-0.23444338288579,0.314602738401086
-0.228589648799352,0.309808643582608
-0.222820501771448,0.305030582333363
-0.217135272874894,0.300269007343731
-0.211533296650932,0.295524368960375
-0.206013910996678,0.290797115181758
-0.20057645705535,0.286087691653362
-0.195220279109191,0.28139654166261
-0.189944724475028,0.276724106133495
-0.184749143402413,0.272070823620946
-0.179632888974259,0.267437130304919
-0.174595317009945,0.262823459984241
-0.169635785970804,0.258230244070213
-0.164753656867954,0.253657911579971
-0.159948293172408,0.249106889129635
-0.155219060727419,0.244577600927231
-0.150565327662993,0.24007046876542
-0.145986464312539,0.235585912014024
-0.141481843131589,0.231124347612366
-0.13705083861855,0.22668619006143
-0.132692827237441,0.222271851415855
-0.128407187342563,0.217881741275762
-0.124193299105065,0.213516266778432
-0.120050544441359,0.20917583258983
-0.115978306943345,0.204860840895997
-0.111975971810397,0.200571691394306
-0.108042925783084,0.196308781284599
-0.104178557078575,0.192072505260203
-0.100382255327691,0.187863255498834
-0.0966534115135786,0.183681421653402
-0.0929914179119547,0.17952739084272
-0.0893956680328944,0.175401547642116
-0.0858655565641277,0.17130427407397
-0.0824004793158119,0.167235949598167
-0.078999833166743,0.163196951102478
-0.0756630160119801,0.159187652892885
-0.0723894267118468,0.15520842668383
-0.0691784650422825,0.151259641588429
-0.0660295316465125,0.147341664108618
-0.0629420279880082,0.143454858125272
-0.0599153563047099,0.13959958488828
-0.0569489195644845,0.135776203006584
-0.0540421214217885,0.131985068438196
-0.051194366175516,0.128226534480194
-0.0484050587279993,0.124500951758692
-0.045673604545142,0.120808668218811
-0.042999409617657,0.117150029114627
-0.0403818804233867,0.11352537699913
-0.0378204238906835,0.109935051714173
-0.0353144473628229,0.106379390380438
-0.0328633585634328,0.102858727387399
-0.0304665655629126,0.0993733943833152
-0.0281234767458225,0.0959237202652278
-0.0258335007792214,0.0925100311689915
-0.0235960465819341,0.0891326504593259
-0.021410523294725,0.0857918987199019
-0.0192763402513623,0.0824880937434601
-0.0171929069505491,0.0792215505219703
-0.0151596330287067,0.0759925812368318
-0.0131759282335891,0.0728014952491208
-0.0112412023987101,0.069648599089887
-0.00935486541856785,0.066534196450504
-0.00751632722464628,0.0634585881730761
-0.00572499776217905,0.0604220722409059
-0.00398028696765714,0.0574249437690248
-0.00228160474706527,0.0544674949947909
-0.000628360954829488,0.0515500152685569
0.000980034626538166,0.0486727910444116
0.00254417230611519,0.0458361058709976
0.00406464250357814,0.0430402403824083
0.00554203576756231,0.0402854722891684
0.00697694279338501,0.0375720763692991
0.00836995444014831,0.034900324459472
0.00972166174723411,0.0322704854462545
0.0110326559502063,0.0296828252574497
0.0123035284961336,0.0271376068535323
0.013534871058346,0.0246350902191852
0.0147272755506391,0.0221755323549377
0.0158813341409379,0.0197591872689094
0.0169976392644349,0.0173863059686611
0.0180767836362126,0.0150571364531563
0.0191193602633654,0.0127719237048349
0.020125962456631,0.0105309096818028
0.0210971838415447,0.00833433331013788
0.0220336183691281,0.00618243047631748
0.0229358603261232,0.00407543401976674
0.023804504344785,0.00201357372553244
0.0246401454122422,-2.92368291650996e-06
0.025443378879438,-0.00197383455075945
0.0262148004696631,-0.00389893829876289
0.0269550062866891,-0.00577801743008605
0.0276645928225164,-0.0076108575369506
0.0283441569647444,-0.00939724730717269
0.0289942960035761,-0.011136978530555
0.0296156076384671,-0.0128298461051372
0.0302086899844289,-0.014475648043302
0.0307741415779974,-0.0160741854777359
0.0313125613828754,-0.0176252626672416
0.0318245487952602,-0.0191286870024011
0.0323107036488655,-0.0205842690110865
0.0327716262196477,-0.021991822363818
0.0332079172302448,-0.0233511638789661
0.0336201778541404,-0.0246621135277966
0.0340090097195581,-0.0259244944393571
0.0343750149130997,-0.0271381329052018
0.0347187959831337,-0.0283028583839554
0.0350409559429439,-0.0294185035057108
0.0353420982736483,-0.0304849040762631
0.0356228269268958,-0.031501899081174
0.0358837463273503,-0.0324693306896689
0.0361254613749715,-0.0333870442583618
0.0363485774471005,-0.0342548883348086
0.0365537004003594,-0.0350727146608861
0.0367414365723735,-0.0358403781759955
0.0369123927833246,-0.0365577370200892
0.0370671763373444,-0.0372246525365187
0.0372063950237561,-0.037840989274702
0.0373306571181735,-0.0384066149926107
0.0374405713834645,-0.0389214006590729
0.0375367470705895,-0.0393852204558922
0.0376197939193218,-0.0397979517797809
0.0376903221588587,-0.0401594752441055
0.0377489425083313,-0.0404696746804442
0.0377962661772225,-0.0407284371399539
0.0378329048657,-0.0409356528945455
0.0378594707648739,-0.0410912154378676
0.037876576556986,-0.041195021486095
0.0378848354155405,-0.0412469709785223
0.0378848610053832,-0.0412469670779609
0.0378772674827372,-0.0411949161709381
0.0378626694952053,-0.0410907278676963
0.0378416821817452,-0.0409343150019931
0.0378149211726265,-0.0407255936306981
0.0377830025893787,-0.0404644830331877
0.0377465430447369,-0.0401509057105356
0.0377061596425948,-0.0397847873844975
0.0376624699779723,-0.03936605699629
0.0376160921370072,-0.0388946467051604
0.0375676446969779,-0.0383704918867489
0.0375177467263667,-0.0377935311312398
0.0374670177849719,-0.0371637062413017
0.0374160779240758,-0.0364809622298148
0.0373655476866793,-0.0357452473173854
0.0373160481078099,-0.0349565129296449
0.0372682007149121,-0.0341147136943329
0.0372226275283288,-0.0332198074381637
0.0371799510618826,-0.0322717551834745
0.0371407943235656,-0.0312705211446539
0.0371057808163454,-0.0302160727243507
0.0370755345390979,-0.0291083805094602
0.0370506799876743,-0.0279474182668894
0.0370318421561119,-0.0267331629390965
0.0370196465379969,-0.0254655946394075
0.0370147191279897,-0.0241446966471057
0.0370176864235197,-0.0227704554022943
0.0370291754266613,-0.0213428605005313
0.0370498136461978,-0.0198619046872348
0.0370802290998844,-0.0183275838518586
0.0371210503169193,-0.0167398970218351
0.0371729063406313,-0.0150988463562874
0.0372364267313951,-0.0134044371395062
0.0373122415697836,-0.0116566777741934
0.037400981459966,-0.00985557977446848
0.0375032775333624,-0.0080011577586393
0.0376197614525657,-0.00609342944173377
0.0377510654155392,-0.0041324156277931
0.0378978221601015,-0.00211814020192431
0.0380606649687083,-5.06301221115668e-05
0.0382402276735427,0.00207008458921513
0.038437144661923,0.0042439708538549
0.0386520508820402,0.00647099254675593
0.0388855818490355,0.00875111050518135
0.0391383736514287,0.0110842825381222
0.0394110629579092,0.013470463435959
0.0397042870245009,0.0159096049803728
0.0400186837021114,0.018401655954507
0.0403548914444795,0.0209465621533812
0.0407135493165306,0.0235442663945583
0.0410952970031527,0.0261947085290661
0.0415007748184066,0.0288978254525748
0.0419306237151803,0.0316535511168314
0.0423854852953023,0.0344618165413525
0.0428660018201253,0.0373225498253767
0.0433728162215945,0.0402356761600785
0.0439065721138118,0.0432011178410438
0.0444679138051122,0.04621879428101
0.0450574863106628,0.0492886220228706
0.045675935365601,0.052410514752947
0.046323907438725,0.0555843833145278
0.0470020497467501,0.0588101357216783
0.0477110102691478,0.0620876771733207
0.0484514377635794,0.0654169100675867
0.0492239817819432,0.0687977340164447
0.0500292926870461,0.072230045860603
0.0508680216699204,0.0757137396846893
0.0517408207677973,0.0792487068327112
0.0526483428827572,0.082834835923795
0.0535912418010703,0.0864720128682098
0.0545701722132469,0.0901601208836735
0.0555857897348135,0.0938990405119466
0.0566387509278328,0.097688649635713
0.0577297133231856,0.101528823495752
0.0588593354436322,0.105419434708399
0.0600282768276744,0.109360353283306
0.0612371980542337,0.113351446641491
0.0624867607681688,0.117392579633691
0.0637776277066497,0.12148361455901
0.0651104627264111,0.125624411183877
0.0664859308319031,0.129814826761299
0.067904698204364,0.134054716050428
0.0693674322318329,0.138343931336437
0.0708748015401292,0.142682322450703
0.0724274760248161,0.147069736791305
0.0740261268841761,0.151506019343848
0.0756714266532199,0.155991012702593
0.0773640492387532,0.160524557091919
0.079104669955527,0.165106490388103
0.0808939655634946,0.169736648141437
0.082732614306206,0.174414863598663
0.08462129595036,0.179140967725755
0.0865606918265466,0.183914789231027
0.088551484871204,0.188736154588591
0.0905943596698215,0.193604888062147
0.0926900025014149,0.19852081172913
0.0948391013843062,0.203483745505205
0.0970423461232369,0.208493507169107
0.0993004283578482,0.213549912387853
0.101614041612557,0.218652774742304
0.103983881347866,0.223801905753097
0.106410645013131,0.228997114906944
0.108895032100838,0.234238209683308
0.111437744202406,0.239524995581453
0.114039485065563,0.244857276147877
0.116700960653334,0.250234853004133
0.119422879204668,0.25565752587504
0.122205951296758,0.261125092617288
0.125050889909085,0.26663734924845
0.127958410489222,0.272194089976393
0.130929231020461,0.277795107229106
0.133964072091281,0.283440191684939
0.137063656966718,0.289129132303271
0.140228711661683,0.294861716355604
0.143459965016261,0.300637729457083
0.14675814877306,0.30645695559847
0.150123997656636,0.312319177178556
0.153558249455069,0.318224175037022
0.157061645103728,0.324171728487776
0.160634928771272,0.330161615352732
0.164278847947967,0.336193611996089
0.16799415353635,0.342267493359072
0.171781599944315,0.348383032995169
0.175641945180667,0.354540003105865
0.179575950953228,0.36073817457688
0.183584382769529,0.366977317014921
0.187668010040179,0.373257198784948
0.191827606184964,0.379577587047988
0.196063948741751,0.385938247799466
0.200377819478261,0.392338945908105
0.204770004506794,0.398779445155374
0.209241294401977,0.405259508275509
0.213792484321606,0.411778896996112
0.218424374130674,0.418337372079341
0.223137768528656,0.424934693363702
0.227933477180143,0.431570619806454
0.232812314848906,0.438244909526638
0.237775101535488,0.444957319848744
0.242822662618407,0.451707607347025
0.247955828999066,0.458495527890479
0.253175437250485,0.465320836688505
0.258482329769922,0.472183288337244
0.263877354935529,0.479082636866638
0.269361367267109,0.486018635788192
0.274935227591121,0.492991038143486
0.280599803210021,0.499999596553428
0.286355968076067,0.507044063268281
0.292204602969712,0.514124190218471
0.298146595682704,0.521239729066195
0.304182841206026,0.52839043125786
0.310314241922807,0.535576048077346
0.316541707806344,0.542796330700143
0.322866156623376,0.550051030248352
0.32928851414275,0.5573398978466
0.335809714349644,0.564662684678867
0.342430699665494,0.572019142046257
0.349152421173779,0.579409021425741
0.355975838851849,0.586832074529888
0.362901921808956,0.594288053367607
0.369931648530663,0.601776710305936
0.377066007129822,0.609297798132895
0.384305995604311,0.616851070121437
0.391652622101717,0.624436280094513
0.399106905191183,0.632053182491303
0.406669874142606,0.639701532434618
0.414342569213434,0.647381085799524
0.422126041943249,0.655091599283209
0.430021355456406,0.662832830476129
0.438029584772935,0.670604537934476
0.446151817127978,0.678406481253997
0.454389152299999,0.68623842114519
0.462742702948054,0.69410011950995
0.471213594958371,0.701991339519669
0.479802967800551,0.709911845694845
0.48851197489366,0.71786140398626
0.49734178398254,0.72583978185774
0.506293577524639,0.733846748370575
0.515368553087695,0.741882074269623
0.524567923758616,0.749945532071164
0.533892918563898,0.758036896152549
0.543344782901958,0.766155942843699
0.552924778987755,0.774302450520514
0.562634186310088,0.78247619970024
0.572474302101983,0.790676973138871
0.582446441824584,0.798904555930626
0.592551939665002,0.807158735609593
0.602792149048547,0.815439302253585
0.613168443165848,0.823746048590287
0.623682215515323,0.832078770105772
0.63433488046152,0.84043726515545
0.645127873809859,0.848821335077544
0.656062653398306,0.857230784309156
0.667140699706567,0.865665420505026
0.678363516483385,0.874125054659061
0.689732631392545,0.882609501228734
0.701249596678239,0.891118578262436
0.71291598985045,0.899652107529897
0.724733414391035,0.90820991465577
0.736703500481238,0.916791829256481
0.748827905751367,0.925397685080468
