0.526495185689588,-0.54566480059702
0.525861957740684,-0.545436769582126
0.523995185793885,-0.544674570398462
0.520953939794728,-0.543265682620876
0.516809624185885,-0.541104877511394
0.511645102601892,-0.538095525688316
0.505553683943544,-0.534150800541664
0.498637982141644,-0.529194762779635
0.491008663452906,-0.523163312933503
0.482783096495908,-0.516005000251276
0.47408392141548,-0.507681678153564
0.465037555545444,-0.498168998287671
0.455772653710345,-0.487456737175052
0.446418541857304,-0.475548951479385
0.43710364303274,-0.462463960002778
0.427953914811496,-0.448234152620904
0.419091317146803,-0.432905628468574
0.410632329240071,-0.416537667759912
0.402686533434393,-0.399202043646729
0.395355283321907,-0.380982182460402
0.388730472232824,-0.361972182523001
0.382893417055288,-0.342275703430128
0.377913870935171,-0.322004739280279
0.373849176840343,-0.301278290734244
0.370743572263924,-0.280220952016117
0.368627653506305,-0.258961430000013
0.367518006038492,-0.237631013350953
0.367417005433249,-0.216362010294678
0.368312791279886,-0.195286173971943
0.370179414398666,-0.174533134483582
0.372977155567026,-0.154228856651424
0.376653011887796,-0.134494142207963
0.381141344894505,-0.115443194588475
0.38636468252549,-0.0971822637392802
0.392234665230626,-0.0798083873846804
0.398653124724824,-0.0634082440241686
0.405513282292143,-0.0480571315753237
0.412701052093076,-0.0338180840526361
0.420096433652859,-0.020741136996981
0.427574976625972,-0.00886275056484315
0.435009300054568,0.00179460272734011
0.442270647676968,0.011222680607011
0.449230460404609,0.0194275410601033
0.455761946877366,0.0264294389139973
0.461741633030323,0.0322625502515726
0.467050871859767,0.0369745280089646
0.471577295059168,0.0406258941588006
0.475216188901413,0.0432892758642635
0.477871777663009,0.0450484948832832
0.479458399008164,0.0459975212834428
0.479901557061988,0.0462393041752292
0.479138840386669,0.0458844936640284
0.477120693714223,0.0450500695416823
0.47381103406452,0.0438578933704118
0.469187703766149,0.042433201541781
0.463242754877317,0.040903057609789
0.455982561550479,0.0393947826914873
0.447427758972792,0.0380343829946742
0.437613009619546,0.0369449935670468
0.426586599653766,0.036245357164201
0.414409870366911,0.0360483567075244
0.401156491557847,0.0364596191524394
0.386911585665826,0.0375762077205665
0.371770713284762,0.0394854183766832
0.355838732368613,0.042263695165898
0.339228544970832,0.0459756775835709
0.322059746725898,0.0506733915477528
0.304457195461467,0.0563955938006855
0.286549516311186,0.063167277703411
0.268467561468942,0.0709993464283649
0.250342843275837,0.0798884575227598
0.232305959654728,0.089817040735276
0.21448503100006,0.100753488895302
0.19700416749149,0.112652519533273
0.179981985430492,0.125455702857986
0.163530190603913,0.139092149687341
0.147752245864777,0.153479350987263
0.132742139098269,0.168524158833109
0.118583266522211,0.184123896891157
0.10534744487123,0.200167586945419
0.0930940644493167,0.216537276586331
0.0818693933253927,0.233109451949804
0.071706041111799,0.249756518362607
0.0626225888283992,0.266348330925684
0.054623389338874,0.282753756460722
0.0476985407751968,0.298842247864469
0.0418240332663716,0.314485411764606
0.0369620671837603,0.329558550452164
0.0330615390332914,0.343942159377628
0.0300586890897664,0.357523362037168
0.027877902905088,0.370197264835325
0.026432656954356,0.381868215481735
0.0256265969340762,0.392450949650374
0.0253547356164538,0.401871611985981
0.025504755712442,0.410068639067516
0.0259584019214922,0.416993493614021
0.0265929452633007,0.422611241023865
0.0272827019093879,0.426900961252104
0.027900588070744,0.429855991029344
0.0283196920600556,0.431483993484797
0.0284148444385102,0.431806854331212
0.0280641671803779,0.430860405874501
0.0271505830432291,0.428693982200805
0.0255632668146533,0.425369810942845
0.0231990208118499,0.42096224901103
0.0199635579298932,0.415556871568716
0.0157726766566708,0.409249425312315
0.0105533137838472,0.402144658763988
0.00424446202776907,0.394355043777435
-0.00320205858597608,0.385999403777706
-0.0118209849455646,0.377201465387955
-0.0216331581658725,0.368088351025916
-0.0326452394940441,0.35878903076931
-0.0448495982639311,0.349432752283697
-0.0582243732672157,0.34014746787244
-0.0727337068040061,0.331058277743271
-0.0883281485796133,0.322285908388991
-0.104945224552527,0.313945244553444
-0.122510163836338,0.306143932603361
-0.140936774839791,0.298981072259769
-0.160128460017641,0.292546012569944
-0.1799793569224,0.286917266735484
-0.200375591713974,0.282161558969127
-0.221196629919111,0.27833301495024
-0.242316708052058,0.275472505705632
-0.263606328726327,0.273607152879878
-0.284933801116731,0.272750001400156
-0.306166808080384,0.272899863508532
-0.327173980921715,0.274041336054339
-0.34782646269378,0.276144990836044
-0.367999441067269,0.27916773568125
-0.387573632168026,0.283053341880882
-0.40643669737903,0.287733131574121
-0.424484575916515,0.293126816738966
-0.441622717012256,0.299143479602904
-0.457767196752678,0.305682682571368
-0.472845706025537,0.31263569419941
-0.48679839758946,0.31988681632325
-0.499578581991686,0.327314796240332
-0.511153263894069,0.334794306794004
-0.521503512304627,0.342197476394544
-0.530624660228027,0.349395450402016
-0.538526331319008,0.356259964915565
-0.545232293222634,0.362664913863119
-0.550780139389029,0.368487890366616
-0.555220803232298,0.373611683670042
-0.558617910538394,0.377925713456866
-0.561046977990104,0.381327384143325
-0.562594467545196,0.383723342705311
-0.563356708153478,0.385030624767455
-0.563438697908789,0.385177675039222
-0.562952801183259,0.38410522970802
-0.562017356565884,0.381767050074814
-0.560755212510121,0.378130498523386
-0.559292208472688,0.373176949828104
-0.557755619987323,0.36690203280373
-0.556272586555013,0.359315699360103
-0.554968541440695,0.350442120119509
-0.553965662443253,0.340319407859716
-0.553381362450968,0.328999172135538
-0.553326838111561,0.316545910480935
-0.553905694240503,0.303036243577243
-0.555212660671788,0.28855800366708
-0.557332417133213,0.273209187274758
-0.560338540416824,0.257096784941082
-0.564292586630663,0.240335502173174
-0.569243319678107,0.223046387130403
-0.575226095336083,0.205355381699459
-0.58226240841453,0.187391813541507
-0.590359608499869,0.16928684741075
-0.599510787738754,0.151171914538063
-0.609694842029958,0.133177139139483
-0.620876704887221,0.11542978114421
-0.633007751139833,0.0980527140397438
-0.646026365575999,0.0811629563054664
-0.659858669631791,0.0648702742553754
-0.674419397309934,0.0492758732437995
-0.689612909701139,0.0344711931152165
-0.705334335798126,0.0205368225138574
-0.721470825759425,0.00754154522587502
-0.737902901414882,-0.00445846987588733
-0.754505887624396,-0.0154203254577416
-0.771151407119794,-0.0253148909572997
-0.787708920689117,-0.0341271304167958
-0.804047294012041,-0.0418562589445238
-0.820036372131589,-0.0485157259116192
-0.835548542454465,-0.0541330250946847
-0.850460267311496,-0.0587493340754653
-0.86465356747907,-0.0624189872814355
-0.878017438657598,-0.0652087890705971
-0.890449183716762,-0.0671971752054907
-0.901855644539643,-0.0684732329018427
-0.912154318516501,-0.0691355913540313
-0.921274346139,-0.0692911962118532
-0.929157357710293,-0.0690539828917998
-0.935758168896367,-0.068543464834118
-0.941045316678819,-0.0678832538494232
-0.945001429206424,-0.067199530523026
-0.947623425059006,-0.0666194832514098
-0.948922539507673,-0.0662697348661107
-0.948924177455432,-0.0662747759509621
-0.94766759484593,-0.0667554238774664
-0.945205412410122,-0.067827326270908
-0.941602967655725,-0.069599527080538
-0.936937512967746,-0.0721731126672625
-0.931297269556217,-0.0756399543510042
-0.924780348737011,-0.080081562689046
-0.917493553641853,-0.0855680674004362
-0.909551075904976,-0.09215733532639
-0.901073103148583,-0.0998942371410834
-0.892184354171936,-0.108810071721628
-0.883012559626358,-0.118922155172273
-0.873686906620023,-0.130233579499225
-0.864336466134169,-0.142733143873168
-0.855088622340845,-0.156395459321591
-0.84606752288913,-0.171181225587873
-0.837392568972113,-0.187037676804176
-0.829176963503899,-0.203899190576091
-0.821526335030404,-0.221688053093332
-0.814537454078308,-0.240315370986904
-0.808297057524291,-0.259682118871818
-0.802880795255367,-0.279680309867426
-0.798352311906551,-0.30019427489466
-0.794762474822309,-0.321102035229041
-0.792148757613164,-0.342276751656364
-0.790534786790001,-0.363588232648054
-0.789930056978929,-0.384904483256821
-0.790329818173118,-0.406093275938891
-0.791715136389599,-0.427023724242979
-0.794053126993979,-0.447567840271306
-0.797297357859984,-0.467602057014974
-0.801388417469004,-0.487008697092362
-0.806254641052593,-0.505677370069782
-0.811812985962292,-0.523506281410528
-0.817970045639624,-0.540403437171158
-0.824623189876565,-0.556287729829296
-0.831661817523675,-0.571089892070127
-0.838968706437998,-0.584753306961532
-0.846421444282357,-0.597234664691043
-0.853893922806119,-0.608504457900266
-0.861257877466821,-0.618547309611644
-0.868384453701539,-0.627362129774454
-0.875145780833278,-0.634962098537264
-0.881416534504863,-0.641374476457317
-0.887075468671965,-0.646640243958038
-0.892006898556272,-0.650813574418509
-0.896102116554994,-0.653961147298209
-0.899260723916586,-0.656161309641989
-0.901391862014949,-0.657503096150724
-0.902415328272984,-0.658085119719802
-0.902262563186482,-0.658014345919925
-0.900877496463865,-0.657404766303456
-0.898217242007338,-0.65637598664755
-0.894252633295766,-0.655051747277877
-0.888968592666774,-0.653558393441075
-0.882364330011713,-0.6520233143004
-0.874453368467721,-0.65057336950982
-0.865263396790998,-0.649333322472531
-0.854835950199221,-0.648424299308681
-0.843225923553007,-0.64796229224492
-0.830500922781446,-0.648056725599132
-0.81674046242012,-0.648809101773803
-0.802035018997886,-0.650311743700214
-0.786484951758436,-0.652646649004798
-0.770199303812873,-0.655884469812767
-0.753294498270919,-0.660083630578968
-0.73589294517303,-0.665289594660402
-0.718121576128385,-0.671534288539233
-0.700110324441164,-0.678835690691362
-0.681990569169148,-0.68719759009699
-0.663893561996382,-0.696609517330311
-0.645948856010163,-0.707046849070473
-0.628282755449432,-0.718471084770796
-0.611016805236974,-0.730830292133366
-0.594266338624836,-0.744059715986969
-0.578139100576857,-0.758082543182745
-0.562733963592803,-0.77281081422801
-0.548139751556371,-0.7881464705974
-0.534434185878003,-0.803982525013446
-0.521682966718867,-0.820204340495937
-0.509939000442593,-0.836691002659002
-0.499241782666257,-0.853316768602863
-0.489616944393282,-0.869952574817336
-0.481075966731239,-0.886467585797766
-0.47361606765109,-0.902730764579748
-0.46722026215598,-0.918612446132868
-0.46185759512266,-0.93398589451884
-0.457483543982556,-0.948728824916432
-0.454040586347804,-0.962724872041906
-0.451458925685286,-0.975864987144315
-0.449657366223186,-0.988048746621848
-0.448544326463008,-0.999185556378159
-0.448018978987481,-1.00919573730304
-0.447972502721645,-1.01801147870471
-0.44828943243934,-1.02557764812376
-0.448849089126835,-1.03185244770195
-0.44952707383377,-1.03680790914179
-0.450196806870928,-1.04043022125157
-0.450731093663799,-1.04271988610315
-0.451003698247339,-1.04369170190958
-0.450890905294499,-1.04337457283323
-0.450273051710251,-1.04181114803579
-0.449036009192231,-1.03905729435388
-0.447072599754279,-1.03518140900388
-0.444283927022859,-1.03026358066096
-0.440580607138708,-1.02439460909782
-0.435883884314692,-1.01767489528554
-0.430126617500926,-1.01021321543093
-0.423254126172775,-1.00212539383393
-0.415224884967388,-0.993532890676253
-0.406011058729141,-0.984561321885245
-0.395598871461597,-0.975338929041278
-0.383988804699701,-0.965995017903132
-0.371195622886488,-0.956658384506833
-0.35724822543857,-0.947455747943998
-0.342189327288325,-0.938510208844599
-0.326074971772826,-0.929939752276889
-0.308973881774584,-0.921855813237961
-0.29096665698259,-0.914361922148519
-0.272144827010012,-0.907552446794183
-0.25260977185461,-0.901511445984772
-0.232471522798205,-0.89631164884681
-0.211847458292838,-0.892013572139346
-0.190860910655988,-0.88866478630764
-0.169639700479861,-0.88629933918366
-0.148314616537223,-0.884937344328626
-0.127017859627869,-0.884584739014127
-0.10588146924751,-0.885233214779096
-0.0850357521694157,-0.886860321404904
-0.0646077320059007,-0.889429743045716
-0.0447196385621468,-0.892891743161328
-0.0254874553117826,-0.897183772850617
-0.00701954261818122,-0.902231235200098
0.0105846465940076,-0.907948396368179
0.0272357431347883,-0.9142394323444
0.0428555155412233,-0.920999598675912
0.0573777889799317,-0.928116508960678
0.0707492179130599,-0.935471506586469
0.0829299031562003,-0.942941113062754
0.0938938458455643,-0.950398535362682
0.103629232811404,-0.957715213976005
0.112138549901106,-0.964762392879406
0.11943852188385,-0.971412692364635
0.125559879673711,-0.977541665629937
0.13054695770419,-0.983029320237341
0.134457126348836,-0.98776158596465
0.137360066284896,-0.991631711231618
0.139336893615496,-0.994541571146668
0.140479146377374,-0.99640287129319
0.140887644743757,-0.997138232639964
0.140671238765068,-0.996682144403087
0.13994545885525,-0.994981773289593
0.13883108541198,-0.991997619296159
0.137452654940574,-0.987704010098803
0.135936920822119,-0.982089428028657
0.134411287416828,-0.975156665660964
0.133002236517264,-0.966922808124739
0.131833765258851,-0.957419042343827
0.131025854455968,-0.946690295520775
0.130692985962518,-0.934794707247616
0.13094272706072,-0.92180294164708
0.13187439906815,-0.907797347889498
0.133577846330722,-0.892870979271014
0.136132320550639,-0.877126482755585
0.139605493998303,-0.860674872455437
0.144052613592581,-0.843634201933471
0.149515806123825,-0.826128151439141
0.15602354305929,-0.808284547221798
0.163590271433379,-0.790233830889965
0.172216215309065,-0.772107497391173
0.181887350226191,-0.754036520567954
0.192575550952507,-0.736149785396129
0.204238910749491,-0.718572545930505
0.216822228283017,-0.7014249276708
0.230257656273814,-0.684820492521437
0.244465504019298,-0.668864883758898
0.259355184050471,-0.653654567449094
0.27482629143788,-0.639275685586334
0.290769802650359,-0.625803034869257
0.307069379418968,-0.613299183503945
0.323602761783846,-0.601813736748906
0.340243233418997,-0.591382760111003
0.35686114145264,-0.582028367187646
0.373325452339052,-0.573758477151975
0.389505324900246,-0.566566744818362
0.405271681447173,-0.560432664130674
0.42049875791345,-0.555321843810524
0.435065614189217,-0.551186451812865
0.44885758632573,-0.547965823187183
0.461767662986876,-0.545587223958876
0.473697769443099,-0.543966761751557
0.484559943525591,-0.543010432089653
0.494277389269781,-0.542615287673692
0.502785395461872,-0.542670716427856
0.510032107941877,-0.543059812798992
0.51597914629171,-0.543660825654286
0.520602057425749,-0.544348665194907
0.523890600580942,-0.54499645058657
0.525848860249992,-0.545477079513609
0.526495185689588,-0.54566480059702
