0.054025812886953,-0.0706119432368498
0.0573010341202416,-0.071475298537464
0.0606642324926773,-0.0722004365421424
0.0641098897927971,-0.0727827072206475
0.0676322833268399,-0.0732176729177009
0.0712254938810488,-0.0735011165830014
0.0748834139983143,-0.0736290497085454
0.0785997565585646,-0.073597719961653
0.0823680636518906,-0.0734036185024822
0.0861817157329871,-0.0730434869752071
0.090033941045107,-0.0725143241624434
0.0939178253013428,-0.0718133922929263
0.0978263216106954,-0.0709382229928814
0.101752260636041,-0.0698866228719762
0.105688360970778,-0.0686566787351991
0.109627239720623,-0.0672467624124859
0.113561423276727,-0.065655535198395
0.117483358266011,-0.063881951894626
0.121385422664335,-0.0619252644486803
0.125259937057911,-0.0597850251824732
0.129099176038092,-0.0574610896052298
0.132895379714512,-0.054953618805524
0.136640765331317,-0.0522630814178594
0.140327538971097,-0.0493902551597307
0.143947907330947,-0.0463362279356578
0.147494089554968,-0.0431023985052348
0.150958329107398,-0.0396904767128014
0.15433290567049,-0.0361024832769028
0.157610147051139,-0.0323407491382745
0.160782441080266,-0.0284079143656587
0.163842247488879,-0.0243069266193274
0.166782109744741,-0.0200410391727651
0.169594666833608,-0.0156138084935347
0.172272664968967,-0.011029091384925
0.17480896921431,-0.00629104169055136
0.177196575002024,-0.00140410656465294
0.179428619533058,0.00362697768860263
0.181498393041641,0.00879719020292681
0.183399349909478,0.0141012305603897
0.185125119613952,0.0195335242195719
0.186669517495072,0.0250882283558332
0.18802655532606,0.0307592381076
0.189190451672717,0.0365401932220258
0.190155642026875,0.0424244850928489
0.190916788699556,0.0484052641827438
0.191468790459662,0.0544754478219422
0.191806791904339,0.0606277283743938
0.19192619254744,0.0668545817622346
0.191822655612844,0.0731482763388408
0.1914921165197,0.0795008821002711
0.190930791047043,0.0859042802244279
0.190135183165574,0.0923501729268191
0.1891020925248,0.0988300936213543
0.187828621584119,0.105335417374183
0.186312182376846,0.111857371638167
0.18455050289662,0.118387047255181
0.182541633096071,0.124915409713039
0.180283950488072,0.131433310643488
0.177776165340397,0.137931499547347
0.175017325455063,0.144400635732523
0.172006820524159,0.150831300450347
0.168744386054444,0.157214009215306
0.165230106853539,0.16353922429304
0.16146442007105,0.169797367341132
0.157448117788518,0.175978832187011
0.153182349152613,0.182073997727041
0.14866862204657,0.188073240930663
0.14390880429543,0.193966949933248
0.138905124401183,0.199745537201169
0.133660171804555,0.205399452752419
0.128176896670699,0.210919197415995
0.122458609196673,0.216295336113126
0.116508978439197,0.221518511143358
0.110332030661719,0.226579455458412
0.103932147200509,0.231469005906695
0.0973140618499989,0.236178116431308
0.0904828577682966,0.240697871204379
0.0834439639043163,0.245019497680569
0.0762031509486343,0.249134379552638
0.0687665268107534,0.253034069591979
0.0611405316260724,0.256710302357147
0.0533319322964566,0.260155006753473
0.0453478165689034,0.263360318426972
0.037195586657393,0.266318591975925
0.0288829524136024,0.269022412963616
0.0204179240527489,0.271464609715939
0.0118088044414083,0.273638264887756
0.00306418095472581,0.275536726782119
-0.00580708308899597,0.277153620406712
-0.0147958574077868,0.278482858252113
-0.0238927541404862,0.279518650776781
-0.0330881376265716,0.280255516583944
-0.0423721345711747,0.280688292275909
-0.0517346445845995,0.280812141971629
-0.061165351085148,0.280622566473726
-0.0706537325535634,0.280115412071557
-0.0801890741269126,0.279286878967262
-0.0897604795192618,0.278133529312195
-0.0993568832560374,0.276652294841509
-0.108967063208523,0.274840484095147
-0.118579653414516,0.272695789213931
-0.128183157170747,0.270216292299907
-0.137765960382272,0.267400471330615
-0.147316345153678,0.264247205617424
-0.156822503606549,0.260755780798611
-0.166272551907319,0.256925893358377
-0.175654544489308,0.252757654663541
-0.184956488452405,0.248251594510201
-0.194166358123603,0.243408664173224
-0.203272109761276,0.238230238951977
-0.212261696385891,0.232718120206343
-0.221123082719554,0.226874536877593
-0.229844260216625,0.220702146489364
-0.238413262167422,0.214204035624529
-0.246818178856854,0.207383719874428
-0.255047172759708,0.200245143257503
-0.263088493754145,0.192792677105044
-0.270930494334877,0.185031118412374
-0.278561644807406,0.176965687654439
-0.285970548444651,0.168602026065427
-0.293145956587224,0.159946192382659
-0.30007678366862,0.151004659055685
-0.306752122146592,0.141784307922128
-0.313161257321976,0.132292425352486
-0.319293682026318,0.122536696866769
-0.325139111159703,0.11252520122646
-0.330687496060278,0.102266404005979
-0.335929038687097,0.091769150648444
-0.340854205598015,0.0810426590111746
-0.345453741704574,0.0700965114070316
-0.349718683785947,0.058940646148307
-0.353640373744246,0.0475853486005128
-0.35721047158373,0.0360412417540396
-0.36042096809666,0.024319276322266
-0.363264197238861,0.0124307203753162
-0.365732848178313,0.000387148519252867
-0.367819977000414,-0.0117995693689163
-0.369519018053878,-0.0241172798394539
-0.370823794921614,-0.036553557989804
-0.371728531001256,-0.0490957199941153
-0.372227859680452,-0.06173083602974
-0.372316834092406,-0.0744457435875476
-0.371990936437585,-0.0872270611523688
-0.371246086857992,-0.100061202239379
-0.370078651850829,-0.112934389771744
-0.368485452208869,-0.125832670784375
-0.366463770475382,-0.138741931438168
-0.36401135790193,-0.151647912328689
-0.361126440897918,-0.164536224072796
-0.357807726961314,-0.177392363156339
-0.354054410080519,-0.190201728025623
-0.349866175597942,-0.202949635405008
-0.345243204526429,-0.21562133682263
-0.340186177310283,-0.228202035325899
-0.334696277023252,-0.240676902368143
-0.32877519199646,-0.253031094847443
-0.322425117869907,-0.265249772278445
-0.315648759061806,-0.277318114077697
-0.308449329650692,-0.289221336942823
-0.300830553665879,-0.300944712305622
-0.292796664782535,-0.312473583839036
-0.284352405418317,-0.323793384997729
-0.275503025229192,-0.334889656571917
-0.266254279002753,-0.34574806423394
-0.256612423948068,-0.35635441605701
-0.246584216381749,-0.366694679985475
-0.23617690781068,-0.376755001235905
-0.225398240412518,-0.386521719608294
-0.214256441915804,-0.395981386686656
-0.202760219882215,-0.405120782908343
-0.190918755394221,-0.413926934481446
-0.178741696152086,-0.422387130129739
-0.166239148984882,-0.430488937644691
-0.153421671780886,-0.438220220224236
-0.140300264843414,-0.445569152578114
-0.126886361678861,-0.452524236779769
-0.113191819224397,-0.459074317845004
-0.099228907523455,-0.465208599017786
-0.0850102988578303,-0.470916656743866
-0.070549056345874,-0.476188455313129
-0.0558586220169394,-0.481014361151872
-0.0409528043728784,-0.48538515674655
-0.0258457654480462,-0.489292054180832
-0.0105520073798932,-0.492726708268184
0.00491364149714486,-0.495681229262582
0.0205360410211401,-0.498148195130338
0.036299754021634,-0.500120663366467
0.0521890615735607,-0.501592182339455
0.0681879786710652,-0.502556802148745
0.0842802703055847,-0.503009084979764
0.100449467932024,-0.502944114941789
0.11667888630633,-0.502357507374501
0.132951640677281,-0.501245417609583
0.149250664314776,-0.499604549174318
0.165558726356483,-0.497432161424676
0.181858449954236,-0.494726076596001
0.198132330701116,-0.491484686260012
0.214362755319775,-0.487706957177435
0.230532020592146,-0.48339243653626
0.246622352510305,-0.478541256566236
0.262615925627934,-0.473154138520893
0.278494882591459,-0.467232396019073
0.294241353829672,-0.460777937738622
0.309837477380334,-0.453793269455614
0.325265418832021,-0.446281495423182
0.340507391359218,-0.438246319084752
0.355545675828461,-0.429692043117218
0.370362640953148,-0.420623568800324
0.384940763474466,-0.411046394709278
0.399262648345738,-0.400966614728358
0.413311048897412,-0.390390915384054
0.427068886959772,-0.379326572497033
0.440519272920446,-0.367781447152997
0.453645525693713,-0.355763980993261
0.466431192578618,-0.343283190826667
0.478860068982895,-0.330348662565215
0.490916217989783,-0.316970544486567
0.502583989744848,-0.303159539827371
0.513848040640026,-0.288926898712098
0.52469335227224,-0.274284409422881
0.535105250154073,-0.259244389016615
0.545069422154152,-0.243819673296315
0.554571936645102,-0.228023606144528
0.563599260337151,-0.21187002822732
0.572138275775712,-0.195373265078119
0.58017629848155,-0.178548114571441
0.587701093712431,-0.161409833797249
0.594700892825492,-0.143974125347435
0.601164409219894,-0.126257123026601
0.607080853839736,-0.108275377000056
0.612439950217547,-0.090045838392608
0.61723194903916,-0.0715858433524223
0.621447642211164,-0.0529130965948856
0.62507837641263,-0.0340456544420633
0.628116066113284,-0.01500190737398
0.630553206040816,0.00419943789143509
0.632382883080547,0.0235393767722697
0.633598787591235,0.0429986256323811
0.634195224121375,0.0625576410083586
0.634167121510932,0.0821966392345284
0.633510042364088,0.101895616446292
0.632220191879186,0.121634368941592
0.630294426022731,0.14139251387977
0.627730259034957,0.161149510296666
0.624525870255175,0.180884680414293
0.620680110255799,0.200577231223027
0.616192506274679,0.220206276313872
0.611063266936093,0.239750857937901
0.605293286251497,0.259189969269696
0.5988841468919,0.278502576851224
0.591838122724477,0.297667643192301
0.584158180606849,0.316664149503496
0.575847981433223,0.335471118537081
0.566911880427403,0.354067637511399
0.557354926678482,0.372432881093799
0.547182861915866,0.390546134417128
0.536402118521077,0.40838681610462
0.525019816774641,0.42593450127786
0.513043761337191,0.443168944522456
0.500482436964762,0.46007010278594
0.487345003459099,0.476618158182399
0.473641289854644,0.492793540678307
0.459381787844734,0.508576950634074
0.444577644450367,0.523949381175814
0.429240653935768,0.538892140371975
0.41338324897582,0.55338687318952
0.397018491081284,0.567415583204488
0.380160060288563,0.58096065404194
0.362822244121623,0.594004870520454
0.345019925834502,0.606531439476551
0.326768571943671,0.6185240102447
0.308084219060354,0.629966694768767
0.288983460033695,0.640844087321121
0.269483429416489,0.651141283805896
0.249601788265994,0.660843900623284
0.229356708293103,0.6699380930721
0.208766855373954,0.678410573268244
0.187851372438814,0.686248627557168
0.166629861753804,0.693440133398849
0.145122366611797,0.699973575704304
0.123349352449503,0.705838062603146
0.101331687408513,0.711023340622249
0.0790906223586889,0.715519809256114
0.0566477704030387,0.71931853491013
0.0340250858838016,0.722411264198502
0.0112448429101257,0.72479043657928
-0.0116703865716457,0.726449196309509
-0.0346977551435079,0.727381403704264
-0.0578141626949802,0.727581645683936
-0.0809962795932356,0.72704524559493
-0.104220570220927,0.725768272289583
-0.127463316857992,0.723747548451915
-0.150700643883186,0.720980658156549
-0.173908542270691,0.717465953648944
-0.197062894356684,0.713202561335862
-0.22013949885035,0.708190386975801
-0.24311409606347,0.702430120059966
-0.265962393332323,0.695923237375184
-0.288660090605353,0.688672005741
-0.311182906169732,0.680679483914089
-0.333506602489695,0.67194952365397
-0.355607012129287,0.662486769944893
-0.377460063731924,0.652296660369686
-0.399041808029026,0.641385423632212
-0.420328443849799,0.629760077226036
-0.441296344104137,0.617428424247798
-0.461922081710509,0.604399049354697
-0.48218245544065,0.590681313866437
-0.502054515652831,0.576285350012914
-0.521515589885482,0.561222054329831
-0.540543308282982,0.545503080205383
-0.559115628825479,0.529140829582075
-0.577210862334697,0.512148443818675
-0.594807697227816,0.494539793718216
-0.611885223991654,0.476329468728917
-0.62842295934957,0.45753276532579
-0.644400870093705,0.438165674581625
-0.659799396555464,0.418244868936972
-0.674599475687361,0.397787688179618
-0.688782563729696,0.376812124644983
-0.702330658435845,0.355336807649733
-0.715226320830334,0.333380987171771
-0.727452696474226,0.310964516790686
-0.738993536212803,0.288107835903532
-0.749833216380968,0.264831951231701
-0.759956758442266,0.241158417635469
-0.769349848037942,0.217109318253591
-0.777998853422974,0.192707243986159
-0.785890843266606,0.16797527233969
-0.793013603795469,0.142936945654164
-0.799355655258009,0.117616248732541
-0.804906267689576,0.0920375858939391
-0.809655475958197,0.0662257574724092
-0.813594094071739,0.0402059357839297
-0.81671372872789,0.0140036405848674
-0.819006792089107,-0.0123552859541403
-0.820466513765452,-0.0388447047343682
-0.82108695198902,-0.0654382056501066
-0.820863003964426,-0.0921091339189841
-0.819790415380698,-0.118830616795248
-0.817865789070698,-0.145575590639267
-0.815086592805103,-0.172316828315935
-0.811451166208802,-0.199026966894327
-0.80695872678851,-0.225678535620367
-0.801609375061244,-0.252243984133991
-0.795404098774282,-0.278695710901854
-0.788344776208128,-0.305006091836224
-0.780434178554948,-0.331147509070541
-0.771675971365932,-0.357092379861628
-0.762074715061965,-0.382813185588493
-0.751635864503002,-0.408282500817242
-0.740365767612508,-0.433473022401588
-0.728271663054325,-0.458357598588168
-0.715361676960338,-0.482909258095809
-0.701644818708297,-0.507101239137763
-0.687130975750189,-0.530907018355876
-0.671830907492549,-0.554300339635627
-0.655756238231124,-0.57725524277096
-0.63891944914332,-0.599746091947878
-0.62133386934289,-0.621747604015834
-0.603013666002306,-0.643234876516086
-0.583973833549337,-0.664183415436218
-0.564230181945273,-0.684569162660362
-0.543799324053353,-0.704368523084678
-0.522698662106859,-0.72355839136803
-0.500946373287383,-0.742116178287987
-0.478561394424793,-0.760019836672574
-0.4555634058313,-0.777247886878598
-0.43197281428314,-0.79377944178765
-0.407810735164196,-0.809594231291383
-0.383098973786977,-0.824672626237978
-0.357860005907164,-0.838995661812309
-0.332116957449,-0.852545060322664
-0.305893583459561,-0.865303253367548
-0.279214246310953,-0.877253403356519
-0.252103893170298,-0.888379424359682
-0.224588032758206,-0.898666002261044
-0.196692711417342,-0.908098614191558
-0.168444488513423,-0.916663547218394
-0.139870411191851,-0.92434791626764
-0.110997988513902,-0.931139681258368
-0.0818551649971975,-0.937027663426755
-0.0524702935858441,-0.942001560819734
-0.022872108076432,-0.946051962938404
0.00691030497338831,-0.949170364512334
0.0368475348261958,-0.951349178386644
0.0669098756079555,-0.952581747504709
0.0970673557843293,-0.952862355970152
0.127289768040857,-0.952186239172745
0.157546699537308,-0.95054959296375
0.187807562505791,-0.947949581867185
0.218041625161968,-0.944384346314478
0.248218042898017,-0.939853008890931
0.278305889725814,-0.934355679583446
0.308274189938228,-0.927893460019968
0.338091949956171,-0.920468446692107
0.367728190328718,-0.912083733153491
0.397151977853264,-0.902743411187408
0.426332457782546,-0.892452570938376
0.455238886084994,-0.881217300003373
