0.468584341127269,-0.797237101142103
0.468466039436295,-0.797044331676257
0.468115255937443,-0.796463662048572
0.46753829928712,-0.795491768869713
0.466741640327128,-0.794125623399933
0.465731904203979,-0.792362495543159
0.464515862350945,-0.790199957567774
0.463100424341137,-0.787635887550174
0.461492629620067,-0.784668472537408
0.459699639126231,-0.781296211425517
0.457728726808375,-0.777517917550435
0.455587271048194,-0.773332720988627
0.453282745997323,-0.768740070564883
0.450822712837528,-0.763739735565012
0.448214810973109,-0.758331807151431
0.445466749164566,-0.752516699479967
0.442586296612648,-0.746295150516451
0.439581274001933,-0.739668222551995
0.43645954451315,-0.732637302416141
0.433229004813441,-0.725204101387331
0.429897576033817,-0.717370654800507
0.426473194743045,-0.709139321351861
0.422963803927204,-0.700512782101138
0.419377343984149,-0.691494039172118
0.415721743742095,-0.682086414152251
0.412004911511494,-0.672293546192673
0.40823472617936,-0.66211938981015
0.404419028355129,-0.65156821239279
0.400565611577103,-0.640644591411618
0.396682213588441,-0.629353411340448
0.392776507691605,-0.617699860286723
0.388856094190076,-0.605689426336319
0.384928491926055,-0.593327893615552
0.381001129922782,-0.580621338073927
0.377081339139983,-0.567576122991437
0.37317634435083,-0.55419889421449
0.369293256148698,-0.54049657512479
0.365439063091836,-0.526476361345797
0.361620623993958,-0.512145715191613
0.357844660368576,-0.497512359863406
0.354117749034774,-0.482584273398734
0.350446314891923,-0.467369682379382
0.34683662387068,-0.451877055403527
0.343294776067441,-0.436115096328327
0.339826699069202,-0.42009273728921
0.33643814147562,-0.403819131502386
0.333134666624832,-0.38730364585731
0.329921646529408,-0.370555853306016
0.326804256028587,-0.353585525056479
0.32378746716272,-0.336402622577294
0.320876043775622,-0.31901728942122
0.318074536350308,-0.301439842875244
0.315387277083338,-0.283680765445043
0.312818375202765,-0.265750696181853
0.310371712534414,-0.247660421859926
0.308050939320994,-0.229420868012891
0.305859470298259,-0.211043089837491
0.303800481032188,-0.192538262973264
0.301876904520891,-0.17391767416691
0.300091428064666,-0.155192711830141
0.298446490407371,-0.136374856499965
0.296944279151989,-0.117475671210421
0.295586728452997,-0.0985067917848826
0.294375516987856,-0.0794799170581139
0.293312066209664,-0.0604067990373525
0.292397538882729,-0.0412992330117273
0.291632837902517,-0.0221690476193907
0.291018605401167,-0.00302809488177673
0.290555222139448,0.0161117597855674
0.290242807185758,0.0352386475761113
0.290081217882469,0.0543407062999396
0.290070050099639,0.0734060903863426
0.290208638775788,0.0924229808719029
0.290496058745198,0.11137959536462
0.290931125850851,0.130264197974614
0.29151239834186,0.149065109202008
0.292238178553958,0.167770715772603
0.29310651487131,0.186369480412029
0.294115203967627,0.204849951549119
0.295261793324299,0.223200772939295
0.296543584022956,0.241410693198871
0.297957633809599,0.259468575241229
0.299500760427167,0.277363405605944
0.301169545213134,0.295084303672037
0.302960336958457,0.312620530746625
0.304869256023925,0.329961499020395
0.306892198709722,0.347096780381424
0.309024841873714,0.364016115079036
0.311262647793767,0.380709420229506
0.313600869269121,0.397166798155596
0.316034554955606,0.413378544552067
0.318558554929268,0.429335156469468
0.321167526472709,0.445027340108699
0.323855940078244,0.460446018419015
0.326618085661743,0.475582338492345
0.329448078980809,0.490427678746979
0.332339868250755,0.504973655893903
0.335287240951602,0.519212131679271
0.338283830819166,0.533135219396696
0.341323125013085,0.54673529016331
0.344398471454466,0.560004978953738
0.34750308632566,0.572937190386387
0.350630061724499,0.585525104256683
0.353772373465176,0.597762180812151
0.356922889017793,0.609642165764459
0.360074375578464,0.621159095033837
0.363219508261719,0.632307299221516
0.366350878406835,0.643081407806115
0.369461001989591,0.653476353060163
0.37254232813085,0.663487373683225
0.375587247693245,0.673110018148375
0.378588101957183,0.682340147759029
0.381537191367275,0.691173939413458
0.38442678434023,0.699607888074556
0.387249126125188,0.707638808942752
0.389996447707413,0.715263839330228
0.392660974746207,0.722480440234908
0.395234936537882,0.72928639761297
0.397710574994581,0.735679823348911
0.400080153629738,0.741659155922543
0.402335966540932,0.747223160772518
0.404470347380916,0.752370930356342
0.406475678307579,0.757101883907094
0.40834439890364,0.761415766887385
0.410069015056884,0.765312650141361
0.411642107791799,0.768792928745887
0.413056342043486,0.771857320562291
0.414304475364816,0.774506864490394
0.415379366557826,0.776742918426797
0.416273984220438,0.778567156929698
0.416981415199655,0.779981568592822
0.4174948729425,0.780988453131275
0.417807705736027,0.781590418182485
0.417913404827862,0.781790375825587
0.417805612418853,0.78159153882297
0.417478129519498,0.780997416587893
0.416924923662002,0.780011810882401
0.416140136459904,0.778638811250006
0.415118091007392,0.776882790187853
0.413853299110577,0.774748398063368
0.412340468343157,0.772240557780592
0.410574508919066,0.769364459201692
0.408550540374892,0.766125553329341
0.406263898055036,0.762529546255905
0.403710139392769,0.758582392885604
0.400885049980541,0.754290290436019
0.397784649423118,0.749659671725549
0.394405196967318,0.744697198253595
0.39074319690236,0.739409753080495
0.386795403725026,0.73380443351438
0.382558827064115,0.727888543612327
0.378030736358877,0.72166958650337
0.373208665286346,0.715155256541084
0.368090415932779,0.708353431293619
0.362674062704617,0.701272163379243
0.356957955974668,0.693919672155555
0.350940725459464,0.686304335270704
0.344621283324008,0.678434680085072
0.337998827010406,0.670319374971977
0.331072841787133,0.661967220506112
0.323843103015978,0.653387140548483
0.316309678133984,0.644588173236758
0.308472928347977,0.635579461889986
0.30033351003957,0.626370245836753
0.29189237587881,0.616969851175887
0.283150775644924,0.6073876814789
0.274110256752914,0.597633208443395
0.264772664485046,0.587715962506726
0.25514014192655,0.577645523429201
0.245215129605175,0.567431510856168
0.23500036483451,0.55708357486834
0.22449888076128,0.546611386529682
0.213714005117139,0.536024628442232
0.202649358675744,0.525332985317172
0.19130885341622,0.514546134571465
0.179696690394395,0.503673736959328
0.167817357323481,0.492725427247785
0.155675625866169,0.481710804945471
0.143276548640397,0.470639425093831
0.130625455941318,0.459520789129746
0.117727952182298,0.448364335828593
0.104589912058048,0.437179432336597
0.0912174764332569,0.42597536530131
0.0776170479603901,0.414761332108874
0.0637952864305694,0.403546432236673
0.0497591038617257,0.392339658729821
0.035515659328475,0.38114988980982
0.0210723535384316,0.369985880623573
0.00643682315991553,0.358856255140812
-0.00838306509372877,0.347769498207817
-0.0233792206177464,0.336733947765166
-0.0385433353018244,0.325757787237083
-0.0538668901422609,0.314849038099749
-0.0693411620742862,0.304015552635802
-0.084957231018169,0.293265006882018
-0.100705987132513,0.282604893776997
-0.116578138267949,0.272042516515445
-0.132564217614211,0.261584982115476
-0.148654591533423,0.251239195205082
-0.164839467572187,0.241011852033752
-0.181108902644923,0.230909434714946
-0.197452811380726,0.220938205704936
-0.213860974625826,0.211104202523246
-0.230323048093599,0.201413232719705
-0.246828571153916,0.191870869092868
-0.263366975753472,0.18248244516431
-0.279927595458619,0.173253050913016
-0.296499674612074,0.164187528773864
-0.313072377594798,0.155290469903902
-0.329634798184179,0.146566210719846
-0.346175968999606,0.138018829709989
-0.362684871026389,0.129652144523374
-0.379150443208929,0.121469709338873
-0.395561592103939,0.113474812516457
-0.411907201584485,0.105670474532727
-0.428176142585526,0.0980594462024392
-0.44435728288162,0.0906442071874894
-0.460439496887407,0.0834269647945319
-0.476411675471446,0.076409653062111
-0.49226273577399,0.0695939321378962
-0.50798163101925,0.0629811879463143
-0.523557360312709,0.056572532146585
-0.538978978414061,0.0503688023808704
-0.554235605476358,0.0443705628119577
-0.569316436741988,0.0385781049495998
-0.584210752186133,0.0329914487643551
-0.598907926098415,0.02761034408747
-0.61339743659348,0.0224342722950654
-0.627668875041349,0.0174624482746003
-0.641711955408427,0.0126938226713028
-0.655516523500149,0.00812708441197303
-0.66907256609634,0.00376066350329403
-0.682370219970453,-0.000407265898504806
-0.695399780783968,-0.00437878215004516
-0.70815171184735,-0.0081562125189487
-0.720616652739097,-0.0117421293216929
-0.732785427774526,-0.0151393458053903
-0.74464905431611,-0.0183509117779597
-0.756198750917315,-0.0213801089914226
-0.767425945292049,-0.0242304462832906
-0.778322282102001,-0.0269056544812675
-0.788879630554333,-0.0294096810767151
-0.799090091802344,-0.031746684672571
-0.808946006141947,-0.033921029211632
-0.818439959996966,-0.035937277991334
-0.827564792686487,-0.0378001874713771
-0.836313602967689,-0.0395147008807501
-0.844679755347807,-0.0410859416309119
-0.852656886159102,-0.0425192065420778
-0.860238909390927,-0.0438199588897519
-0.867420022273239,-0.0449938212788216
-0.874194710606124,-0.0460465683527049
-0.880557753830143,-0.0469841193452104
-0.886504229832598,-0.0478125304829189
-0.892029519485011,-0.0485379872460539
-0.897129310907418,-0.0491667964959456
-0.901799603455333,-0.0497053784773274
-0.906036711425482,-0.0501602587038284
-0.909837267476705,-0.0505380597351464
-0.913198225762703,-0.0508454928544858
-0.916116864773549,-0.0510893496549559
-0.918590789883211,-0.0512764935437057
-0.920617935600591,-0.0514138511726605
-0.922196567521874,-0.0515084038047963
-0.923325283982275,-0.0515671786249492
-0.924003017405576,-0.0515972400042228
-0.924229035350101,-0.0516056807270875
-0.924002941250118,-0.0515996131903166
-0.92332467485191,-0.0515861605829245
-0.922194512344092,-0.051572448056292
-0.920613066182002,-0.0515655938936762
-0.91858128460634,-0.0515727006882981
-0.916100450856491,-0.0516008465391979
-0.913172182079264,-0.0516570762740218
-0.909798427934102,-0.0517483927078875
-0.905981468896093,-0.0518817479474277
-0.901723914258381,-0.0520640347490732
-0.897028699835933,-0.0523020779405801
-0.891899085372834,-0.0526026259147398
-0.886338651655615,-0.0529723422041408
-0.880351297335397,-0.0534177971457675
-0.873941235461897,-0.0539454596441317
-0.867112989732644,-0.0545616890415328
-0.859871390461018,-0.055272727103935
-0.852221570266997,-0.0560846901308332
-0.844168959494757,-0.0570035611973555
-0.835719281361567,-0.0580351825367153
-0.826878546842633,-0.0591852480709856
-0.817653049296842,-0.0604592960980207
-0.808049358838582,-0.0618627021421895
-0.798074316461073,-0.0634006719764235
-0.78773502791687,-0.0650782348229077
-0.777038857361463,-0.0669002367395653
-0.765993420766077,-0.0688713341992966
-0.754606579106057,-0.0709959878687429
-0.742886431331387,-0.0732784565931413
-0.730841307126145,-0.0757227915936335
-0.718479759463856,-0.0783328308831713
-0.705810556965948,-0.0811121939069511
-0.692842676070666,-0.0840642764130718
-0.679585293019999,-0.0871922455588924
-0.66604777567235,-0.090499035258314
-0.652239675148843,-0.0939873417749818
-0.638170717321317,-0.0976596195661463
-0.623850794150209,-0.101518077381672
-0.609289954880685,-0.105564674622429
-0.594498397105488,-0.109801117962041
-0.579486457703113,-0.114228858235686
-0.564264603660045,-0.118849087599404
-0.548843422785891,-0.123662736963061
-0.533233614330342,-0.128670473699864
-0.517445979510987,-0.133872699635048
-0.50149141196112,-0.13926954931604
-0.485380888106676,-0.144860888566179
-0.469125457481606,-0.150646313323721
-0.452736232990947,-0.156625148767619
-0.436224381130982,-0.162796448731257
-0.419601112175847,-0.169158995405032
-0.402877670340033,-0.175711299328381
-0.386065323926209,-0.18245159967157
-0.369175355467816,-0.189377864807251
-0.35221905187588,-0.196487793171524
-0.3352076945995,-0.203778814413929
-0.318152549809412,-0.211248090835505
-0.301064858614037,-0.218892519113776
-0.283955827317375,-0.22670873231321
-0.266836617728055,-0.234693102179439
-0.249718337528789,-0.2428417417152
-0.232612030715453,-0.251150508035717
-0.215528668114877,-0.259615005500934
-0.198479137990423,-0.268230589121726
-0.181474236744276,-0.276992368236957
-0.164524659725299,-0.285895210457964
-0.147640992151214,-0.294933745876772
-0.130833700153692,-0.304102371534107
-0.114113121954902,-0.31339525614296
-0.0974894591838399,-0.322806345063247
-0.0809727683406925,-0.332329365522813
-0.0645729524172842,-0.341957832079816
-0.0482997526815494,-0.351685052321238
-0.0321627406337458,-0.361504132792081
-0.0161713101420318,-0.371407985149513
-0.000334669764748583,-0.381389332536052
0.015338164733327,-0.391440716165621
0.0308383776637925,-0.401554502116095
0.0461573604896609,-0.411722888321771
0.0612867186860133,-0.42193791175893
0.0762182783799169,-0.432191455817558
0.0909440927633884,-0.442475257851985
0.105456448273516,-0.452780916903129
0.119747870533981,-0.463099901584759
0.133811130052551,-0.473423558126108
0.147639247669298,-0.483743118562923
0.161225499750566,-0.494049709068953
0.174563423123972,-0.504334358419694
0.18764681974997,-0.51458800658007
0.200469761125782,-0.524801513407628
0.21302659241775,-0.53496566746267
0.225311936318455,-0.545071194916657
0.237320696625201,-0.555108768550088
0.249048061536768,-0.565069016831014
0.26048950666557,-0.574942533065181
0.271640797762702,-0.584719884608809
0.282497993153578,-0.594391622134848
0.293057445882204,-0.603948288943593
0.303315805562399,-0.613380430308409
0.313270019934533,-0.622678602847296
0.322917336126721,-0.631833383911042
0.332255301619628,-0.640835380978593
0.34128176491438,-0.649675241050364
0.349994875903347,-0.658343660030102
0.358393085943882,-0.666831392086018
0.36647514763536,-0.675129258981829
0.374240114300197,-0.683228159368451
0.381687339169773,-0.691119078027051
0.388816474276525,-0.698793095054257
0.395627469053733,-0.706241394980346
0.402120568644814,-0.713455275811298
0.408296311924242,-0.720426157985684
0.414155529232489,-0.727145593237409
0.41969933982765,-0.733605273355443
0.42492914905672,-0.739797038831753
0.429846645249751,-0.745712887388759
0.434453796340388,-0.75134498237775
0.438752846216573,-0.756685661039809
0.442746310805436,-0.761727442620935
0.446436973896697,-0.766463036333201
0.449827882709125,-0.770885349153891
0.45292234320487,-0.774987493454751
0.455723915156725,-0.77876279445366
0.458236406973628,-0.782204797481136
0.460463870289937,-0.785307275054344
0.462410594324249,-0.788064233751408
0.464081100013764,-0.790469920879041
0.465480133930416,-0.792518830926694
0.466612661985185,-0.794205711800641
0.46748386292725,-0.795525570831629
0.468099121644806,-0.796473680549929
0.46846402227458,-0.797045584221865
0.46858434112727,-0.797237101142103
