0.658208040477156,-0.57879771333561
0.688340526497206,-0.530252087798025
0.696464676931214,-0.565808447952485
0.646001202364719,-0.570187149012013
0.72658751140526,-0.595104623084051
0.710095286566742,-0.597059061656407
0.717530075087766,-0.547689160644146
0.650409236504534,-0.592251808388135
0.685595744700015,-0.5559175714096
0.667717646654546,-0.577278914274505
0.648712793732157,-0.582952837005005
0.645953950529516,-0.571110918527899
0.701800516512668,-0.500252509044786
0.633289425326153,-0.569191653863865
0.626252343416049,-0.487234269105175
0.658057799838248,-0.528262354222196
0.638194654535221,-0.486092199337601
0.655977218361287,-0.529944553503373
0.612536041382082,-0.547241564490737
0.586398176970549,-0.511675697847673
0.613902009628717,-0.515523929121641
0.623614087437639,-0.490051143476677
0.617040381419254,-0.482360219802644
0.610252839213247,-0.474291367804489
0.603260772992397,-0.465845295105889
0.589446169255161,-0.438321467258344
0.588700745545253,-0.447825990969628
0.549239662054406,-0.393024433388501
0.571529379528568,-0.422076222413354
0.565564086070914,-0.41800483201344
0.572176099230717,-0.359872755915009
0.575989210021885,-0.431154102910886
0.516737908926093,-0.347242370037215
0.528795926514899,-0.330340305253427
0.515580485982374,-0.348579660390515
0.472472968823224,-0.290868461592002
0.482976071171807,-0.334527344035439
0.472455025513992,-0.333439266533871
0.464839768372194,-0.257364977335274
0.424879360992411,-0.240214691904979
0.462396549024227,-0.266852850963395
0.483559778805111,-0.249816402024996
0.39961988140749,-0.217204097249248
0.438228198378625,-0.198850755126834
0.426180359963476,-0.206136314656544
0.382644554816043,-0.163896912321527
0.437930936486354,-0.19396101619622
0.399036629489972,-0.157649841856963
0.351693655087589,-0.165806582581003
0.385861703808654,-0.0744494793766234
0.354522747190378,-0.0718902476492359
0.345802021518645,-0.0540787350532265
0.308109010760424,0.00921510405775099
0.320140680963699,0.000496875380252018
0.311777516129852,0.0190343340293803
0.303520960789164,0.0377267126996393
0.287353239248503,0.0755320588387881
0.323686411838692,0.0730907529425889
0.262054462865029,0.0957599526477327
0.2623633595361,0.167397158790712
0.249221999117762,0.171966737229919
0.252109514200778,0.240937650712857
0.234994656882701,0.211062385331213
0.241715585785475,0.26994514556945
0.22421068516317,0.247140304559358
0.172233597978345,0.317810361667297
0.240804477856098,0.328001838859677
0.198371808349231,0.345115811655302
0.238916789822947,0.304753007092081
0.141392492879178,0.39444899897359
0.184765804326353,0.367988975496397
0.155226579940353,0.343924473770498
0.169884196759633,0.418362967450668
0.18481479551451,0.475367117200064
0.171989892633388,0.478181161477015
0.116217329566133,0.472993616606623
0.198769926698903,0.480008585933393
0.168079967237902,0.569567557642622
0.12647093513265,0.540243827812767
0.138429470004576,0.557882808313998
0.13483089998092,0.576056199173489
0.0990261442650818,0.606818065803732
0.125144071231076,0.629347249617189
0.0802316385076258,0.644257758473393
0.146185143474445,0.699401811004808
0.0845471405428814,0.665576870311912
0.133849252019374,0.737458774552878
0.11257266062877,0.713375565688988
0.158997655464843,0.686907761271541
0.108729836143923,0.745051064948079
0.105141364536403,0.79166035152919
0.150068006411014,0.767373811616144
0.104145777261967,0.790227521976653
0.105501562489613,0.84755541987237
0.101825996519607,0.818672184247258
0.123782545573793,0.876809198807031
0.122544940711096,0.884484137076616
0.117692163461429,0.820482283773425
0.138899222317649,0.892479340850662
0.0983121974183646,0.883395295435162
0.115566312612047,0.862308949297379
0.0977033312414021,0.906553857627043
0.0975453664170185,0.917517441948835
0.101551323111251,0.911772865881319
0.110549993078291,0.997914939815323
0.0900929187035819,1.01546924670197
0.0730993477612803,1.00584259348037
0.127183270200151,1.02679765170433
0.0993084436043879,0.996579045100785
0.0741818084888446,1.03811545562279
0.100164188430449,1.00912638726067
0.133918876813765,1.00848128086473
0.0834027480613286,1.07048663598023
0.0957087538676866,1.04724885197906
0.103601831324908,1.0418778015267
0.117750760621595,1.03245509218261
0.109332079405478,1.0884177902108
0.103942885469875,1.044061890808
0.0975094951519391,1.05716447632699
0.0658625216538033,1.03399214521098
0.0574983027295752,1.07803409352024
0.0631078659922159,1.04713013667681
0.0942734029631558,1.02679389971283
0.0985325051134083,1.02021375683559
0.146342700854713,1.06172861929366
0.139320378926041,0.983984965012686
0.0942006695174604,1.0040405033026
0.0751349180053292,1.02858755021247
0.0467583093927046,1.03013609602313
0.0834261638588777,0.968416243546142
0.0843952146483363,0.958995864738532
0.11284188953221,0.926054761394881
0.044626606134587,0.873680883745514
0.109427230400291,0.946806134648019
0.0918155992666087,0.886044486048604
0.0561228278434354,0.84393237018678
0.0509584876657431,0.879455089531184
0.0741789758111705,0.827205896035331
0.0271316614192753,0.836485617625873
0.0239353386739797,0.840994975121294
0.0415522703913696,0.805942735113097
-0.000650022999624453,0.763899951251466
-0.0148733195629179,0.735337696644964
-0.0575587760924412,0.73928463482684
-0.0183918578812204,0.744661964104931
-0.0530950567338198,0.70443469866987
-0.0548447838907955,0.660363832492988
-0.0635880640442482,0.644848316754987
-0.0703215660082619,0.608268348824725
-0.10386792125318,0.518964951887964
-0.144431687443682,0.501912647132216
-0.130236942613855,0.461050123489478
-0.175348571313614,0.467059096915936
-0.198506955117217,0.43403646104359
-0.277952427403783,0.371075212244279
-0.259678951415769,0.351738173102151
-0.305994159023306,0.334997450185925
-0.285320409989261,0.319152304043463
-0.344657138854381,0.297692230284649
-0.311544870539468,0.286884150037269
-0.312440769655413,0.318129645797819
-0.359036817334,0.206572538727932
-0.339579893349778,0.23593245889905
-0.330225361673011,0.256433782884641
-0.350083365750979,0.182708619532722
-0.380776481479092,0.166357450531308
-0.420954682133172,0.162571991619732
-0.434991543157969,0.147721326347875
-0.44907701118922,0.133052328783391
-0.569843927223288,0.0316627372074517
-0.57635568824336,0.0104346578133554
-0.590361727270368,-0.00202303026631655
-0.65757578207403,0.00534388280962328
-0.656332219091359,-0.0493446699231466
-0.647438535524072,-0.0247143466657462
-0.714738976929205,-0.109116693243417
-0.669360265519776,-0.0852404710861585
-0.768601744312901,-0.0950452855113717
-0.710834764569342,-0.151870911174072
-0.774436305365944,-0.147885935948284
-0.744373114501,-0.157056599599206
-0.775754212348275,-0.139640039005144
-0.862748547886843,-0.231965457685859
-0.915756481787905,-0.236877231012501
-0.92348926616152,-0.241088083168005
-0.966893593028238,-0.280069653274345
-0.962017489145733,-0.260783525665812
-0.979690754545893,-0.268947043813124
-0.960335076025537,-0.256703059177682
-0.985975695326058,-0.271667003823138
-0.970154016403779,-0.279484270303511
-1.01838906905874,-0.307833947952606
-1.00608211444631,-0.294364448292082
-0.998167036654318,-0.287720015284285
-0.994161871231436,-0.274978829810129
-1.03995909847887,-0.244700626168341
-1.00653512693722,-0.269026138564744
-1.00651555169263,-0.269927774230971
-0.990209293133945,-0.293146847555326
-0.900997481438571,-0.258523622483518
-0.909325545566098,-0.20708750945722
-0.870874190948333,-0.245745737645368
-0.848829755320074,-0.242100303228097
-0.881415585443873,-0.270970680300905
-0.806262263682315,-0.203465497893172
-0.812648967058392,-0.236850090022281
-0.839781588918074,-0.189532010637525
-0.735688203428885,-0.237388495511715
-0.769431640748203,-0.216540213705663
-0.675260630665644,-0.232745422404643
-0.741579489758385,-0.230293755859857
-0.656860452223103,-0.195755331774148
-0.555991186405261,-0.214349374102614
-0.435528793953762,-0.220369428648891
-0.402385275736305,-0.238125306906439
-0.371250336257009,-0.199412088675692
-0.31463943180739,-0.231895360246899
-0.241414737675201,-0.284186305275516
-0.15446713756788,-0.203048943980219
-0.0598672585458874,-0.245146560894948
0.0116790359047922,-0.284214838052951
0.0108179636343855,-0.257194130306702
0.106707375672451,-0.35571921184459
0.147335476109216,-0.317369844453972
0.167632974923893,-0.324547002035601
0.203566573634489,-0.351385144873205
0.267913993672361,-0.356008648122747
0.289786725256951,-0.316080090721646
0.310740183821408,-0.371312712218373
0.319611026926826,-0.401634054661319
0.376289728392597,-0.392659353920788
0.391337266171717,-0.402316865444632
0.406515633984019,-0.408575526777972
0.415388183226922,-0.416304018362172
0.514178971116081,-0.397213259394132
0.51556528200004,-0.512184847586661
0.547645346306215,-0.480070729327754
0.572050565592942,-0.451618842060504
0.571268562341086,-0.486818772778311
0.590821331907143,-0.497632446370377
0.632526729720394,-0.522186186799819
0.632520540777458,-0.514223376344415
0.644394077636777,-0.519538661937438
0.680881456185578,-0.59462481634899
0.650080556536303,-0.592700121747686
0.697023618691945,-0.566288869661681
