-0.18881381911234,0.415031195122985
-0.18889752429984,0.415019267306172
-0.188982868071714,0.415007014235803
-0.189069890350713,0.414994425653517
-0.18915863222117,0.414981490930725
-0.189249135968207,0.414968199053509
-0.189341445118455,0.414954538606851
-0.189435604482336,0.414940497758129
-0.189531660197977,0.414926064239857
-0.189629659776836,0.414911225331634
-0.189729652151103,0.414895967841255
-0.189831687722959,0.414880278084935
-0.189935818415771,0.41486414186662
-0.190042097727313,0.414847544456321
-0.190150580785096,0.414830470567418
-0.190261324403906,0.414812904332902
-0.190374387145641,0.414794829280472
-0.190489829381561,0.414776228306449
-0.190607713357043,0.414757083648425
-0.190728103258973,0.414737376856605
-0.190851065285876,0.414717088763741
-0.19097666772092,0.414696199453608
-0.191104981007917,0.414674688227937
-0.191236077830472,0.414652533571705
-0.191370033194403,0.414629713116727
-0.191506924513602,0.414606203603414
-0.191646831699491,0.414581980840637
-0.191789837254228,0.414557019663567
-0.191936026367865,0.414531293889379
-0.192085487019614,0.414504776270724
-0.192238310083434,0.414477438446813
-0.192394589438136,0.414449250892005
-0.192554422082224,0.414420182861733
-0.192717908253694,0.414390202335647
-0.192885151555035,0.414359275957784
-0.193056259083671,0.414327368973616
-0.193231341568123,0.414294445163783
-0.193410513510155,0.414260466774332
-0.193593893333204,0.414225394443239
-0.193781603537392,0.414189187123021
-0.193973770861461,0.414151801999184
-0.194170526451947,0.414113194404272
-0.194372006039985,0.414073317727261
-0.194578350126085,0.414032123318008
-0.194789704173319,0.413989560386459
-0.195006218809305,0.413945575896314
-0.195228050037457,0.413900114452791
-0.195455359457955,0.413853118184141
-0.195688314498934,0.413804526616537
-0.195927088658413,0.413754276541908
-0.196171861757515,0.413702301878299
-0.196422820205556,0.413648533522287
-0.196680157277617,0.413592899192946
-0.196944073405244,0.413535323266836
-0.197214776480962,0.413475726603456
-0.197492482177322,0.413414026360528
-0.197777414281245,0.413350135798491
-0.198069805044464,0.413283964073489
-0.198369895550915,0.413215416018122
-0.198677936101983,0.413144391909147
-0.198994186620539,0.413070787221298
-0.199318917074781,0.412994492366292
-0.199652407922938,0.412915392416051
-0.199994950579958,0.412833366809093
-0.200346847907365,0.41274828903895
-0.200708414727534,0.412660026323434
-0.201079978363724,0.412568439253425
-0.201461879207251,0.412473381419807
-0.201854471313303,0.412374699017066
-0.202258123026949,0.412272230421916
-0.202673217641015,0.412165805745266
-0.203100154087569,0.412055246355643
-0.203539347664885,0.4119403643721
-0.20399123080183,0.411820962124451
-0.20445625386177,0.411696831578532
-0.204934885988186,0.411567753724005
-0.20542761599431,0.411433497922019
-0.205934953299259,0.411293821209866
-0.206457428913249,0.411148467559505
-0.206995596474644,0.410997167086614
-0.20755003334174,0.410839635206566
-0.208121341742357,0.410675571733414
-0.208710149984483,0.410504659917701
-0.209317113731389,0.410326565418536
-0.20994291734485,0.410140935205037
-0.210588275300273,0.409947396381855
-0.211253933677784,0.40974555493303
-0.211940671733514,0.409534994378003
-0.212649303555584,0.40931527433308
-0.213380679809493,0.4090859289711
-0.214135689577918,0.408846465371472
-0.214915262300132,0.408596361752077
-0.215720369816571,0.408335065573844
-0.216552028524324,0.408061991508043
-0.217411301649624,0.407776519255475
-0.218299301643691,0.407477991205873
-0.219217192708605,0.407165709924806
-0.220166193460156,0.406838935454318
-0.221147579734945,0.40649688241235
-0.222162687549289,0.406138716874741
-0.223212916217802,0.405763553022184
-0.224299731639787,0.405370449533016
-0.225424669761862,0.404958405701093
-0.226589340225493,0.40452635725615
-0.227795430208324,0.404073171862158
-0.229044708468394,0.40359764426702
-0.230339029600464,0.403098491074628
-0.231680338513784,0.402574345107808
-0.233070675140605,0.402023749327911
-0.234512179384716,0.401445150273813
-0.236007096319062,0.400836890979855
-0.237557781641201,0.400197203328705
-0.23916670739489,0.399524199791276
-0.240836467965417,0.39881586450166
-0.242569786355404,0.398070043610528
-0.244369520746653,0.397284434855484
-0.246238671352122,0.396456576281585
-0.248180387560242,0.395583834039435
-0.250197975371491,0.394663389182057
-0.2522949051243,0.39369222337501
-0.254474819503888,0.392667103426973
-0.256741541823462,0.391584564540239
-0.25909908456217,0.390440892172196
-0.26155165813816,0.389232102389944
-0.264103679887911,0.387953920590678
-0.266759783214488,0.386601758450321
-0.269524826857233,0.385170688952229
-0.272403904223498,0.383655419336498
-0.275402352709001,0.382050261798681
-0.278525762916903,0.380349101754489
-0.281779987666393,0.378545363474565
-0.285171150659072,0.37663197288068
-0.288705654645079,0.374601317282049
-0.292390188900365,0.372445201818002
-0.296231735790952,0.370154802361491
-0.300237576158882,0.367720614627136
-0.304415293216912,0.365132399218353
-0.308772774584069,0.362379122341296
-0.313318212030897,0.359448891909583
-0.31806009843049,0.356328888764399
-0.323007221328101,0.353005292740633
-0.328168652446804,0.349463203323058
-0.333553732338167,0.345686554659077
-0.339172049263482,0.341658024728677
-0.345033411251472,0.337358938520916
-0.351147810120907,0.332769165132968
-0.357525376079804,0.327867008796732
-0.36417632131545,0.322629093954233
-0.37111087077037,0.31703024465245
-0.378339178057767,0.311043358717728
-0.38587122420585,0.304639277407713
-0.393716696634537,0.297786651534202
-0.401884845462263,0.29045180541417
-0.410384313918511,0.282598600450845
-0.419222939304989,0.274188300685787
-0.428407520613462,0.265179443311625
-0.437943548583243,0.255527717909966
-0.447834893682823,0.245185859097264
-0.458083447250225,0.234103558341006
-0.468688710854673,0.222227401966431
-0.479647328885578,0.209500843825764
-0.490952559481097,0.195864222759052
-0.502593679236808,0.181254836843948
-0.514555317757454,0.165607088507005
-0.526816719117893,0.148852716833682
-0.539350928785143,0.130921135831101
-0.552123906638627,0.111739899903707
-0.565093569540803,0.09123532030025
-0.578208770595632,0.0693332586404175
-0.591408226931539,0.0459601256371148
-0.604619413695302,0.0210441145374872
-0.617757449057991,-0.00548330071997122
-0.630724003483939,-0.0336855735077394
-0.64340627629678,-0.0636189722659489
-0.655676093582095,-0.0953301267543868
-0.667389193431666,-0.128853219758474
-0.678384776995863,-0.164206823174566
-0.688485416052022,-0.201390393771819
-0.69749741880121,-0.240380465259255
-0.705211764022616,-0.281126599919675
-0.711405717850381,-0.323547194994866
-0.715845245290228,-0.367525275685172
-0.718288317948412,-0.412904446821752
-0.718489198050649,-0.459485216861125
-0.716203744661185,-0.507021947702042
-0.71119573964248,-0.555220717730858
-0.703244167933366,-0.603738408284944
-0.692151310302501,-0.652183329514309
-0.677751419972753,-0.700117684382274
-0.659919662841853,-0.747062123846541
-0.638580912267919,-0.792502568275104
-0.613717913461288,-0.8358993587694
-0.585378280667838,-0.876698659969501
-0.553679773841581,-0.914345870358672
-0.51881333004904,-0.948300619143841
-0.481043404543162,-0.978052756833666
-0.440705308062912,-1.00313859889039
-0.398199404595134,-1.02315657806813
-0.353982244707851,-1.03778141867095
-0.308554934569509,-1.04677597693632
-0.262449256731825,-1.05
-0.216212241487448,-1.0474152357776
-0.17039001554289,-1.03908656237535
-0.125511812368617,-1.02517907518962
-0.0820750090411805,-1.00595134479734
-0.0405319605914784,-0.981745310521985
-0.00127924695240009,-0.952973478119947
0.0353502511967858,-0.92010422728517
0.0690922498970229,-0.883646096655674
0.0997529496131942,-0.84413190138639
0.127208120493529,-0.802103460327346
0.151399743402888,-0.758097581856386
0.172330667799313,-0.712633798225588
0.190057800415511,-0.666204167034443
0.20468434542119,-0.619265292201911
0.216351585166681,-0.572232568877833
0.225230630921499,-0.525476535869022
0.231514495982096,-0.479321129574887
0.235410759105156,-0.434043575414663
0.237135002705115,-0.389875623581912
0.236905133771406,-0.347005831060521
0.234936629940225,-0.305582605635323
0.231438700537854,-0.265717754474899
0.226611313031443,-0.227490314571518
0.220643008348169,-0.190950480532114
0.213709412388309,-0.156123483536793
0.205972343826548,-0.123013311304151
0.197579417948376,-0.0916061910904032
0.188664050896755,-0.0618737852945103
0.179345776632922,-0.0337760718968528
0.169730798758877,-0.00726389987520565
0.159912710023902,0.0177187766736699
0.149973323042796,0.0412329721755263
0.139983565935725,0.063343030824302
0.130004405908939,0.0841152512185627
0.120087772041795,0.103616748134947
0.110277455656941,0.121914524664314
0.100609972639211,0.139074728515575
0.0911153770016619,0.155162067626275
0.0818180189736309,0.170239362033215
0.072737244021075,0.184367211038499
0.0638880316231389,0.197603756897952
0.0552815744365743,0.210004528445396
0.0469257997882111,0.221622350169223
0.0388258363408746,0.232507304226145
0.0309844293632028,0.242706734681344
0.0234023083697115,0.252265284890486
0.016078511043434,0.261224960384518
0.00901066735819797,0.269625210887776
0.00219524772041205,0.277503026203743
-0.00437222121760711,0.284893041653679
-0.0106969696347389,0.291827649565912
-0.0167848233119183,0.298337114002565
-0.0226420651545323,0.30444968649064
-0.0282753167812163,0.310191721009471
-0.0336914377460627,0.315587786889482
-0.0388974402032754,0.320660778609513
-0.0439004170517613,0.32543202175223
-0.0487074818099978,0.329921374598425
-0.0533257186677366,0.334147325019459
-0.0577621413404142,0.338127082469681
-0.0620236595148114,0.341876664993362
-0.0661170518211579,0.345410981248637
-0.0700489443984086,0.348743907618635
-0.0738257942368196,0.351888360530876
-0.0774538765863476,0.354856364143487
-0.0809392758118695,0.357659113583179
-0.0842878791579039,0.360307033937647
-0.0875053729574435,0.362809835215671
-0.0905972408826927,0.365176563493377
-0.093568763890884,0.367415648465961
-0.0964250215667707,0.369534947621747
-0.099170894605664,0.371541787250543
-0.1018110682177,0.373443000491503
-0.104350036266049,0.375244962617665
-0.106792105979563,0.376953623745451
-0.10914140310448,0.378574539147942
-0.111401877380617,0.38011289734103
-0.113577308245511,0.381573546101797
-0.115671310685512,0.382961016568731
-0.117687341166184,0.384279545563937
-0.119628703585872,0.385533096268303
-0.12149855520617,0.386725377371753
-0.12329991252145,0.387859860812264
-0.12503565703683,0.388939798209355
-0.126708540930119,0.389968236090133
-0.128321192578505,0.390948029998907
-0.129876121935167,0.391881857574637
-0.13137572574476,0.39277223067426
-0.132822292589884,0.393621506614056
-0.13421800776326,0.394431898595809
-0.135564957962588,0.395205485379387
-0.136865135806866,0.395944220258736
-0.138120444174487,0.396649939393849
-0.139332700364634,0.397324369547274
-0.140503640084547,0.397969135269961
-0.141634921265982,0.398585765577798
-0.142728127714875,0.399175700156995
-0.143784772598656,0.399740295133508
-0.144806301776077,0.40028082843899
-0.145794096974654,0.400798504803238
-0.146749478821003,0.401294460400787
-0.147673709729485,0.401769767177165
-0.148567996654585,0.402225436878377
-0.149433493712495,0.40266242480533
-0.150271304677275,0.403081633313302
-0.151082485356959,0.403483915074952
-0.151868045854809,0.403870076124014
-0.152628952720849,0.404240878695471
-0.153366130998646,0.404597043876809
-0.154080466172178,0.404939254083873
-0.154772806017443,0.405268155373781
-0.155443962363338,0.405584359606448
-0.156094712766134,0.40588844646539
-0.156725802101738,0.406180965347688
-0.157337944079723,0.406462437132233
-0.157931822682992,0.406733355834732
-0.158508093536725,0.406994190157302
-0.15906738521013,0.4072453849399
-0.159610300454352,0.407487362520327
-0.160137417379724,0.407720524009028
-0.160649290575417,0.407945250484473
-0.161146452174391,0.408161904114476
-0.161629412866401,0.40837082920843
-0.162098662861692,0.408572353205068
-0.162554672807876,0.408766787600041
-0.162997894662364,0.408954428817289
-0.163428762522616,0.409135559027912
-0.163847693416334,0.409310446919966
-0.164255088053645,0.409479348422389
-0.164651331543193,0.409642507386033
-0.165036794073972,0.409800156224554
-0.165411831564635,0.409952516517748
-0.16577678628193,0.410099799579715
-0.166131987429814,0.410242206994108
-0.166477751710726,0.410379931118511
-0.166814383860439,0.410513155559918
-0.16714217715779,0.410642055623097
-0.167461413910576,0.410766798733539
-0.167772365918801,0.410887544836553
-0.168075294916397,0.411004446773988
-0.168370452992508,0.41111765063993
-0.168658082993349,0.411227296116686
-0.168938418905595,0.411333516792218
-0.169211686222229,0.411436440460163
-0.169478102291703,0.411536189403485
-0.169737876651247,0.411632880662721
-0.169991211345085,0.411726626289751
-0.170238301228316,0.411817533587935
-0.170479334257153,0.411905705339428
-0.170714491766175,0.411991240020417
-0.170943948733238,0.412074232004978
-0.171167874032627,0.412154771758224
-0.171386430677029,0.412232946019345
-0.171599776048849,0.412308837975137
-0.171808062121393,0.412382527424541
-0.172011435670399,0.41245409093472
-0.17221003847636,0.412523601989141
-0.1724040075181,0.41259113112812
-0.172593475158001,0.412656746082232
-0.172778569319267,0.412720511899008
-0.17295941365562,0.412782491063272
-0.173136127713761,0.412842743611477
-0.173308827088945,0.412901327240356
-0.173477623573983,0.41295829741022
-0.173642625301984,0.413013707443169
-0.173803936883103,0.413067608616511
-0.173961659535608,0.413120050251625
-0.174115891211479,0.413171079798537
-0.174266726716832,0.41322074291641
-0.174414257827373,0.413269083550187
-0.174558573399115,0.413316144003576
-0.17469975947458,0.413361965008569
-0.174837899384672,0.413406585791688
-0.174973073846435,0.413450044137109
-0.175105361056857,0.413492376446842
-0.17523483678291,0.41353361779811
-0.175361574447991,0.41357380199807
-0.175485645214917,0.413612961636019
-0.175607118065629,0.413651128133194
-0.175726059877742,0.413688331790318
-0.175842535498095,0.41372460183297
-0.175956607813408,0.413759966454919
-0.176068337818187,0.413794452859497
-0.176177784679995,0.413828087299129
-0.17628500580219,0.4138608951131
-0.176390056884248,0.413892900763643
-0.176492991979776,0.413924127870441
-0.176593863552303,0.413954599243612
-0.176692722528947,0.413984336915245
-0.176789618352053,0.414013362169577
-0.176884599028875,0.414041695571847
-0.176977711179399,0.414069356995922
-0.177069000082366,0.414096365650725
-0.177158509719588,0.414122740105542
-0.177246282818611,0.414148498314246
-0.177332360893803,0.414173657638503
-0.177416784285931,0.414198234869992
-0.177499592200284,0.414222246251702
-0.1775808227434,0.414245707498332
