-0.356082870623,0.656815435421029
-0.356070832383865,0.656743057543978
-0.356058478882694,0.656669264674983
-0.356045800413672,0.656594022386061
-0.356032786926328,0.656517295248975
-0.356019428011659,0.656439046801515
-0.356005712887611,0.656359239512498
-0.355991630383915,0.656277834745417
-0.355977168926226,0.656194792720688
-0.355962316519539,0.656110072476436
-0.355947060730843,0.65602363182775
-0.355931388670977,0.655935427324353
-0.355915286975639,0.655845414206599
-0.35589874178552,0.65575354635974
-0.355881738725494,0.655659776266387
-0.355864262882849,0.655564054957068
-0.355846298784468,0.655466331958819
-0.355827830372945,0.655366555241709
-0.355808840981551,0.655264671163208
-0.355789313308003,0.655160624410306
-0.355769229386973,0.655054357939276
-0.35574857056126,0.654945812912974
-0.355727317451568,0.654834928635573
-0.355705449924798,0.654721642484599
-0.355682947060795,0.654605889840162
-0.355659787117438,0.654487604011235
-0.355635947494015,0.654366716158866
-0.355611404692759,0.654243155216157
-0.35558613427847,0.654116847804877
-0.355560110836088,0.653987718148545
-0.355533307926138,0.653855687981813
-0.355505698037892,0.653720676455986
-0.355477252540151,0.653582600040482
-0.355447941629486,0.653441372420046
-0.355417734275819,0.653296904387516
-0.355386598165168,0.653149103731928
-0.35535449963941,0.652997875121722
-0.355321403632891,0.65284311998284
-0.355287273605679,0.652684736371431
-0.355252071473299,0.652522618840936
-0.355215757532707,0.652356658303247
-0.355178290384317,0.652186741883672
-0.355139626849814,0.652012752769386
-0.355099721885535,0.651834570051043
-0.355058528491123,0.651652068557225
-0.355015997613194,0.651465118681349
-0.354972078043708,0.651273586200665
-0.354926716312709,0.651077332086946
-0.354879856575115,0.650876212308444
-0.35483144049118,0.650670077622673
-0.354781407100226,0.650458773359548
-0.354729692687261,0.650242139194383
-0.354676230641998,0.650020008910237
-0.354620951309837,0.649792210149046
-0.354563781834279,0.649558564150967
-0.354504645990242,0.649318885481313
-0.354443464007688,0.649072981744446
-0.354380152384962,0.648820653283925
-0.354314623691153,0.648561692868204
-0.354246786356794,0.648295885361101
-0.354176544452122,0.648023007376245
-0.354103797452094,0.647742826914641
-0.354028439987291,0.647455102984454
-0.353950361579768,0.647159585202063
-0.353869446362853,0.646856013373373
-0.353785572783832,0.646544117054333
-0.353698613288344,0.646223615089523
-0.353608433985287,0.645894215127629
-0.353514894290872,0.645555613112551
-0.353417846550431,0.645207492748811
-0.353317135636431,0.644849524939861
-0.353212598521061,0.644481367197803
-0.353104063821622,0.644102663022951
-0.352991351316814,0.643713041251583
-0.35287427143189,0.643312115370111
-0.352752624690464,0.642899482793832
-0.352626201130615,0.64247472410829
-0.352494779682728,0.642037402271169
-0.352358127506334,0.641587061772543
-0.35221599928298,0.641123227751151
-0.352068136461945,0.640645405064255
-0.351914266455352,0.640153077308506
-0.351754101778964,0.639645705789073
-0.351587339134662,0.639122728434167
-0.351413658430268,0.63858355865191
-0.351232721732042,0.638027584126352
-0.351044172144804,0.637454165549234
-0.350847632614225,0.636862635283955
-0.350642704645382,0.636252295957965
-0.350428966931192,0.635622418979646
-0.350205973883833,0.634972242975511
-0.349973254061657,0.634300972143351
-0.349730308483532,0.633607774516738
-0.349476608821827,0.632891780136073
-0.34921159546456,0.632152079121109
-0.348934675436424,0.631387719639692
-0.348645220167537,0.630597705767181
-0.348342563097831,0.629780995230783
-0.348025997103967,0.628936497032821
-0.347694771734554,0.628063068946679
-0.347348090238229,0.627159514878977
-0.346985106367854,0.626224582091285
-0.346604920942641,0.625256958274503
-0.34620657814844,0.624255268468826
-0.345789061554759,0.623218071822085
-0.345351289825195,0.622143858179114
-0.344892112095976,0.621031044494721
-0.344410302995093,0.619877971062814
-0.343904557272142,0.618682897554291
-0.343373484006384,0.617443998856406
-0.342815600357725,0.616159360706562
-0.342229324822254,0.61482697511382
-0.341612969950648,0.613444735561916
-0.340964734484141,0.612010431988203
-0.340282694858849,0.61052174553385
-0.339564796025006,0.608976243061687
-0.338808841523041,0.607371371439513
-0.338012482753519,0.605704451588405
-0.337173207372551,0.603972672297695
-0.336288326738556,0.602173083810886
-0.335354962329989,0.600302591189922
-0.334370031047036,0.598357947469018
-0.333330229303072,0.596335746613797
-0.332232015804092,0.594232416306878
-0.331071592906183,0.592044210587512
-0.329844886432512,0.589767202380453
-0.328547523822206,0.587397275958236
-0.327174810473999,0.584930119391619
-0.325721704137598,0.582361217055346
-0.32418278719546,0.57968584227092
-0.322552236667206,0.576899050185088
-0.320823791758344,0.57399567100254
-0.318990718764462,0.570970303714372
-0.317045773131939,0.56781731049069
-0.314981158466661,0.564530811936758
-0.312788482273772,0.561104683448039
-0.31045870820448,0.557532552940976
-0.307982104581115,0.553807800284172
-0.305348188969712,0.549923558809614
-0.302545668571332,0.545872719346648
-0.299562376210322,0.541647937293609
-0.296385201711222,0.537241643324365
-0.293000018477703,0.53264605842079
-0.289391605119092,0.527853214028521
-0.285543562015014,0.522854978253496
-0.281438222769783,0.517643089152096
-0.277056560588907,0.512209196319216
-0.272378089714914,0.506544912147561
-0.267380762193713,0.500641874318517
-0.262040860412047,0.494491821290746
-0.256332886058176,0.48808668277696
-0.250229446420055,0.481418687441425
-0.243701139257094,0.474480490308668
-0.236716437873845,0.467265322644327
-0.229241578498328,0.459767167346825
-0.221240452637289,0.451980963166015
-0.212674507759443,0.443902841331243
-0.203502660460464,0.435530398411736
-0.193681227205089,0.426863009427206
-0.183163878836457,0.417902185350376
-0.171901626303421,0.40865197916293
-0.159842846492051,0.399119444500725
-0.146933358661725,0.38931515060158
-0.133116563774044,0.379253756687089
-0.118333660947155,0.368954647993844
-0.102523957334901,0.358442634331695
-0.0856252898622412,0.34774871018702
-0.0675745793589168,0.336910872896323
-0.0483085395976294,0.325974992170827
-0.0277645653898464,0.314995720135401
-0.00588182499496315,0.304037425941764
0.0173974176336738,0.293175132833913
0.0421262261702556,0.282495428230692
0.0683511387666642,0.272097308957991
0.0961100210791366,0.262092914319087
0.125429615490177,0.252608089476943
0.156322787177844,0.243782711052834
0.188785482135195,0.235770696556289
0.222793430971044,0.228739610145013
0.258298655598657,0.222869770449187
0.295225863697308,0.218352763251354
0.333468847608886,0.215389264416676
0.372887038988339,0.214186088515071
0.413302406177408,0.214952397977655
0.454496915153516,0.217895038076805
0.496210803344414,0.223213005667052
0.538141934093549,0.231091114707543
0.579946503041705,0.241692988003037
0.621241350982467,0.255153579522315
0.66160809625128,0.271571510258947
0.700599230257811,0.291001576025822
0.737746221608282,0.313447849196691
0.772569549940084,0.338857838526669
0.804590446628047,0.367118182144373
0.833343966592583,0.398052320471379
0.858392867869083,0.431420523212621
0.879341650078566,0.466922527391953
0.895850016506943,0.504202887164605
0.907644991992011,0.542858952339232
0.914530960230825,0.582451197963516
0.916396982393973,0.622515442153503
0.913220918677903,0.662576334447996
0.90507008199305,0.70216139075483
0.892098387995237,0.740814806409065
0.874540203800754,0.778110301372964
0.852701314266135,0.813662338068984
0.826947598164546,0.84713519171704
0.797692121651008,0.878249528284894
0.765381405772264,0.906786335977016
0.730481609493694,0.932588242212168
0.693465298179959,0.955558411640037
0.65479935338092,0.975657349076321
0.614934439591722,0.99289801725013
0.574296294022745,1.00733972168657
0.533278961056613,1.01908121751548
0.492239965368444,1.02825346261688
0.451497314033754,1.03501238729138
0.411328141788188,1.03953198199951
0.371968764978695,1.04199793030508
0.333615886146098,1.04260194111337
0.296428688471168,1.04153686784261
0.260531572610589,1.03899264560309
0.226017312800711,1.03515303235163
0.192950440012684,1.03019310652484
0.161370693635574,1.02427745102356
0.131296416736785,1.01755894019682
0.102727801346802,1.01017804092723
0.0756499181468887,1.00226253926843
0.0500354887418063,0.993927608656657
0.0258473781942736,0.985276143054566
0.00304080084239389,0.976399287287073
-0.0184347560089573,0.967377106364352
-0.0386338776433442,0.958279345072416
-0.0576138183109257,0.949166238079215
-0.0754333266763937,0.940089338962414
-0.0921516769799302,0.931092343760193
-0.107827882246413,0.922211890826494
-0.122520066501584,0.913478323955914
-0.136284974210924,0.904916409996088
-0.14917759681114,0.896546005578518
-0.161250898073897,0.888382670276888
-0.172555621991386,0.880438225551646
-0.183140168806813,0.872721260363764
-0.193050526663714,0.865237585433334
-0.202330248074015,0.857990638864266
-0.211020461981938,0.850981846327461
-0.219159913618485,0.844210939253403
-0.22678502559818,0.837676234582584
-0.23392997481132,0.831374879600629
-0.240626780620607,0.825303065278402
-0.246905400692624,0.81945621137254
-0.252793831495208,0.813829126339824
-0.258318211084649,0.808416144895458
-0.26350292230481,0.8032112458129
-0.268370694935924,0.798208152330033
-0.272942705675264,0.793400417299575
-0.277238675115336,0.788781495004976
-0.281276961116813,0.784344801359322
-0.285074648161102,0.780083764015658
-0.288647632418309,0.775991863743305
-0.292010702386422,0.7720626682663
-0.29517761505202,0.768289859616695
-0.298161167596206,0.764667255926426
-0.300973264725454,0.76118882846602
-0.303624981748915,0.757848714635486
-0.30612662355408,0.754641227521448
-0.308487779653777,0.751560862553796
-0.310717375491136,0.748602301723917
-0.312823720196968,0.745760415763955
-0.314814550997213,0.743030264631614
-0.316697074467691,0.740407096596977
-0.31847800483036,0.737886346185836
-0.32016359948012,0.735463631197461
-0.321759691924623,0.733134748982933
-0.323271722311945,0.730895672142545
-0.324704765712661,0.728742543776835
-0.326063558314209,0.72667167240511
-0.327352521676558,0.724679526647423
-0.328575785189354,0.722762729750548
-0.329737206862003,0.720918054025199
-0.330840392569633,0.719142415250352
-0.331888713869693,0.717432867090716
-0.332885324496066,0.715786595565046
-0.333833175630098,0.71420091359582
-0.334735030040855,0.712673255664706
-0.335593475180208,0.711201172593063
-0.336410935312076,0.709782326462347
-0.337189682749248,0.708414485685538
-0.337931848265702,0.707095520237624
-0.338639430747192,0.705823397050537
-0.339314306138115,0.70459617557574
-0.3399582357382,0.703412003515878
-0.340572873898456,0.702269112725376
-0.341159775162011,0.701165815278674
-0.341720400891916,0.70010049970376
-0.342256125424738,0.699071627377919
-0.342768241785749,0.698077729081918
-0.343257966998732,0.697117401708436
-0.34372644702085,0.69618930512013
-0.344174761330653,0.695292159152475
-0.344603927195138,0.694424740756362
-0.345014903639724,0.69358588127528
-0.345408595143182,0.692774463851918
-0.34578585507785,0.691989420958949
-0.346147488913863,0.69122973204887
-0.346494257204722,0.690494421317771
-0.346826878370155,0.689782555578059
-0.347146031291021,0.689093242235234
-0.347452357729867,0.688425627363969
-0.347746464589709,0.687778893878878
-0.348028926022647,0.68715225979552
-0.348300285399063,0.686544976577315
-0.348561057147298,0.685956327564246
-0.348811728472996,0.685385626479357
-0.349052760966596,0.684832216009217
-0.349284592106807,0.68429546645471
-0.34950763666735,0.683774774448636
-0.34972228803366,0.68326956173678
-0.349928919435804,0.682779274019269
-0.350127885103355,0.682303379849157
-0.350319521347578,0.681841369585357
-0.350504147575882,0.681392754397143
-0.350682067243114,0.680957065317606
-0.350853568743982,0.680533852343576
-0.351018926250523,0.680122683579612
-0.351178400498319,0.679723144423839
-0.351332239524836,0.679334836793463
-0.351480679363078,0.678957378387958
-0.351623944693468,0.67859040198798
-0.351762249456704,0.678233554788196
-0.351895797430132,0.677886497762282
-0.352024782769985,0.677548905058453
-0.352149390521692,0.677220463423972
-0.352269797100316,0.676900871657151
-0.352386170742999,0.676589840085456
-0.352498671935217,0.676287090068383
-0.352607453812476,0.675992353523851
-0.352712662539003,0.675705372476927
-0.352814437664862,0.675425898629743
-0.352912912462839,0.675153692951548
-0.353008214246344,0.674888525287887
-0.353100464669499,0.674630173987923
-0.353189780010501,0.674378425549031
-0.353276271439273,0.674133074277769
-0.353360045270359,0.673893921966428
-0.35344120320196,0.673660777584392
-0.353519842541917,0.673433456983554
-0.353596056421449,0.673211782617127
-0.353669933997346,0.672995583271157
-0.353741560643316,0.672784693808138
-0.353811018131117,0.672578954922135
-0.353878384802064,0.672378212904842
-0.353943735729485,0.672182319422058
-0.354007142872631,0.671991131300071
-0.35406867522255,0.671804510321469
-0.354128398940367,0.671622323029933
-0.354186377488421,0.67144444054357
-0.354242671754646,0.671270738376398
-0.35429734017059,0.671101096267567
-0.35435043882342,0.670935398017977
-0.354402021562258,0.670773531333927
-0.354452140099152,0.67061538767747
-0.354500844104984,0.670460862123155
-0.3545481813006,0.67030985322087
-0.354594197543407,0.670162262864483
-0.354638936909699,0.67001799616603
-0.354682441772941,0.66987696133518
-0.354724752878216,0.669739069563749
-0.354765909413061,0.669604234915013
-0.35480594907487,0.669472374217619
-0.354844908135048,0.669343406963872
-0.354882821500098,0.669217255212205
-0.354919722769786,0.669093843493645
-0.354955644292558,0.668973098722088
-0.354990617218326,0.668854950108221
-0.355024671548789,0.668739329076925
-0.355057836185386,0.668626169187998
-0.355090138975032,0.66851540606006
-0.355121606753727,0.6684069772975
-0.355152265388157,0.668300822420318
-0.355182139815392,0.668196882796755
-0.355211254080766,0.668095101578569
-0.355239631374037,0.667995423638862
-0.355267294063919,0.667897795512331
-0.355294263731054,0.667802165337846
-0.355320561199508,0.667708482803258
-0.355346206566863,0.667616699092335
-0.35537121923298,0.667526766833739
-0.355395617927485,0.667438640051958
-0.355419420736047,0.667352274120106
-0.355442645125514,0.667267625714523
-0.355465307967944,0.66718465277108
-0.355487425563605,0.667103314443142
-0.355509013662973,0.6670235710611
-0.355530087487793,0.666945384093418
-0.355550661751234,0.666868716109129
-0.355570750677188,0.666793530741721
-0.355590368018755,0.666719792654352
-0.355609527075943,0.666647467506351
-0.355628240712628,0.666576521920936
