0.349552253708508,0.332837723881657
0.347716331855536,0.333095114855903
0.345854713688347,0.333240710822686
0.343972637359889,0.333273202159892
0.342075396324147,0.333191498808108
0.340168330687167,0.332994732400961
0.338256818480454,0.332682258068044
0.336346266868805,0.332253655907686
0.334442103304728,0.331708732127286
0.332549766641667,0.33104751984936
0.330674698218328,0.330270279581897
0.328822332926448,0.329377499352053
0.326998090274352,0.328369894502664
0.325207365458706,0.327248407151501
0.323455520456822,0.326014205313637
0.321747875151887,0.324668681687739
0.32008969850345,0.323213452107545
0.318486199775439,0.321650353660222
0.316942519833935,0.319981442473765
0.315463722526829,0.318208991175987
0.314054786157422,0.316335486028158
0.312720595063876,0.314363623736707
0.311465931316349,0.31229630794689
0.31029546654346,0.310136645422715
0.309213753899598,0.307887941917848
0.308225220184417,0.305553697742635
0.30733415812567,0.303137603032785
0.30654471883633,0.300643532725641
0.305860904456744,0.298075541250401
0.305286560992327,0.295437856938986
0.304825371357071,0.292734876164657
0.30448084863288,0.289971157215867
0.304256329554485,0.287151413913148
0.304154968229402,0.284280508977235
0.304179730102108,0.281363447156928
0.304333386171311,0.278405368125552
0.30461850746886,0.275411539155175
0.305037459808527,0.272387347578066
0.305592398812547,0.269338293045158
0.306285265223451,0.266269979591578
0.307117780508375,0.26318810751958
0.308091442762655,0.260098465109449
0.309207522919139,0.257006920169235
0.310467061269265,0.253919411434369
0.311870864301545,0.250841939828457
0.313419501862723,0.247780559596741
0.315113304646426,0.244741369323916
0.316952362013732,0.24173050284816
0.318936520149668,0.238754120083411
0.321065380559191,0.235818397762044
0.323338298905788,0.232929520110274
0.325754384195398,0.230093669468688
0.328312498307909,0.227317016870439
0.33101125587803,0.224605712589706
0.333849024526888,0.22196587667309
0.336823925445277,0.2194035894667
0.33993383432898,0.216924882151672
0.343176382666175,0.214535727300939
0.346548959376453,0.21224202947003
0.350048712800531,0.210049615834706
0.353672553039279,0.207964226888182
0.357417154640225,0.205991507210663
0.361278959629255,0.204136996323857
0.365254180884757,0.202406119643048
0.369338805851022,0.20080417953924
0.373528600587258,0.199336346523751
0.377819114148138,0.198007650567533
0.382205683291346,0.196822972567355
0.386683437507176,0.195787035970825
0.391247304364782,0.194904398572059
0.395892015169272,0.194179444489637
0.400612110923414,0.193616376338261
0.405401948587305,0.19321920760534
0.410255707628962,0.192991755243491
0.415167396858395,0.192937632489693
0.420130861537318,0.193060241921591
0.425139790756304,0.193362768761175
0.430187725070796,0.193848174435748
0.435268064387035,0.19451919040585
0.440374076088623,0.195378312269452
0.44549890339408,0.196427794151427
0.450635573935458,0.197669643386981
0.455777008547725,0.199105615507369
0.460916030258346,0.200737209535867
0.466045373466198,0.202565663601602
0.471157693298671,0.204591950878476
0.476245575135528,0.206816775856006
0.481301544287877,0.209240570948536
0.486318075820336,0.211863493448843
0.49128760450426,0.214685422831764
0.496202534889702,0.217705958413024
0.501055251483547,0.220924417368043
0.505838129021128,0.224339833115038
0.510543542818419,0.227950954066303
0.515163879191784,0.231756242751083
0.519691545932103,0.235753875313037
0.524118982819998,0.239941741384774
0.528438672168761,0.244317444341518
0.532643149381515,0.248878301935477
0.536725013509048,0.253621347312009
0.54067693779474,0.258543330408207
0.544491680192927,0.263640719734054
0.548162093847058,0.268909704535809
0.551681137513975,0.274346197340801
0.555041885920675,0.279945836882342
0.558237540039931,0.285703991402968
0.561261437271205,0.291615762333754
0.564107061513346,0.297675988346955
0.56676805311564,0.303879249778758
0.569238218693896,0.310219873418439
0.571511540798333,0.316691937659772
0.573582187420204,0.323289278010038
0.575444521324204,0.330005492951541
0.577093109193885,0.33683395015006
0.5785227305775,0.343767793004225
0.579728386621857,0.350799947529349
0.580705308581995,0.3579231295688
0.581448966094736,0.365129852325575
0.581955075204369,0.372412434206296
0.582219606129023,0.379763006969438
0.582238790756519,0.387173524169172
0.582009129858815,0.394635769885829
0.581527400014421,0.402141367733571
0.580790660228511,0.409681790135482
0.579796258240757,0.417248367855931
0.578541836511274,0.424832299779674
0.577025337875413,0.432424662926838
0.575245010858494,0.440016422692563
0.573199414641969,0.447598443299786
0.570887423672882,0.455161498453302
0.568308231908907,0.462696282182966
0.565461356691632,0.470193419863603
0.562346642241231,0.477643479398915
0.558964262766026,0.485036982556423
0.555314725180964,0.492364416440247
0.551398871429411,0.499616245088273
0.547217880403186,0.506782921180081
0.542773269456175,0.513854897841766
0.538066895507384,0.520822640533655
0.533100955729732,0.527676639006705
0.527877987821402,0.534407419313257
0.52240086985705,0.54100555585768
0.516672819716661,0.547461683472303
0.510697394090368,0.553766509503975
0.504478487058028,0.559910825896473
0.498020328242891,0.565885521253939
0.491327480539172,0.571681592870476
0.484404837413894,0.577290158710997
0.477257619783851,0.582702469328424
0.46989137246908,0.587909919702332
0.46231196022474,0.592904060984161
0.454525563353808,0.597676612134163
0.446538672903537,0.60221947143531
0.438358085449116,0.606524727869471
0.429990897468497,0.610584672341267
0.421444499312864,0.614391808735105
0.412726568777715,0.617938864791067
0.403845064280055,0.621218802785424
0.394808217647661,0.624224830001773
0.385624526526913,0.626950408978921
0.376302746416142,0.629389267521896
0.366851882331944,0.631535408462628
0.357281180116369,0.633383119157143
0.347600117393386,0.634926980706297
0.337818394183455,0.636161876887403
0.327945923185504,0.637083002784352
0.317992819736048,0.637685873104145
0.307969391455608,0.637966330168067
0.297886127593037,0.63792055156606
0.287753688078721,0.637545057463207
0.277582892298082,0.636836717547584
0.267384707597142,0.635792757609134
0.257170237532317,0.634410765739582
0.246950709876963,0.632688698143825
0.23673746439753,0.630624884553637
0.226541940412544,0.628218033234977
0.216375664147923,0.625467235580585
0.206250235902471,0.622371970280048
0.196177317037658,0.618932107059948
0.186168616806096,0.615147909987185
0.176235879033354,0.611020040329061
0.166390868668023,0.606549558964168
0.156645358215147,0.601737928338681
0.147011114068373,0.596587013963102
0.137499882756335,0.591099085445059
0.12812337711899,0.585276817054283
0.118893262429775,0.579123287816397
0.109821142479577,0.572641981132703
0.10091854563866,0.565836783923708
0.0921969109127778,0.558711985294628
0.0836675740097846,0.551272274721736
0.075341753433146,0.54352273975889
0.067230536618765,0.535468863264212
0.059344866131603,0.527116520147394
0.0516955259385609,0.518471973638694
0.0442931277740898,0.509541871081249
0.0371480976149675,0.500333239248882
0.0302706622806316,0.490853479192166
0.0236708361753913,0.481110360616033
0.0173584081887617,0.471112015792823
0.0113429287700469,0.460866933015193
0.00563369719318912,0.450383949593874
0.000239749027746983,0.43967224440582
-0.0048301561682918,0.42874132999883
-0.00956754691833572,0.417601044259283
-0.0139642516443305,0.406261541650155
-0.0180124102161054,0.394733284027014
-0.0217044852180571,0.383027031040233
-0.0250332729185491,0.371153830132159
-0.0279919139276864,0.359125006138498
-0.0305739035294094,0.346952150503683
-0.032773101674156,0.334647110120462
-0.0345837426186741,0.322221975804455
-0.0360004441998986,0.30968907041489
-0.0370182167301704,0.29706093663317
-0.0376324715014455,0.284350324411418
-0.0378390288865352,0.271570178103531
-0.0376341260258189,0.258733623291762
-0.0370144240882959,0.245853953322187
-0.035977015096271,0.232944615562892
-0.0345194283034255,0.220019197399041
-0.0326396361164761,0.207091411979378
-0.0303360595511106,0.19417508372908
-0.0276075732133712,0.181284133644205
-0.0244535097981548,0.168432564383299
-0.0208736640970171,0.155634445172051
-0.016868296507985,0.142903896537162
-0.0124381360406178,0.130255074885867
-0.00758438281009821,0.117702156947812
-0.00230871001469241,0.105259324096222
0.00338673460853006,0.0929407465655085
0.0094993278542429,0.0807605675826899
0.0160259706496397,0.0687328874301396
0.0229630881888074,0.0568717474573822
0.0303066306034827,0.0451911140597745
0.0380520741723752,0.0337048626420359
0.0461944230706431,0.0224267615847076
0.0547282116605018,0.0113704562316911
0.0636475073233342,0.000549452917085302
0.0729459138330645,-0.010022896950414
0.0826165752699362,-0.0203334127272671
0.0926521804732277,-0.0303691002807152
0.103044968030811,-0.0401171676219983
0.113786731802854,-0.0495650404089505
0.124868826976343,-0.0587003772997943
0.13628217664648,-0.0675110851400516
0.14801727892042,-0.075985333964588
0.160064214538169,-0.0841115717969222
0.172412655004886,-0.0918785392280871
0.185051871228201,-0.0992752837574817
0.197970742653596,-0.106291173878348
0.21115776689026,-0.112915912890702
0.224601069819275,-0.119139552424778
0.238288416175407,-0.124952505658292
0.252207220593162,-0.13034556021109
0.266344559107263,-0.13530989070103
0.280687181097102,-0.139837070945264
0.295221521664182,-0.143919085791387
0.309933714431043,-0.147548342563275
0.324809604749614,-0.150717682106806
0.33983476330645,-0.153420389420995
0.354994500111765,-0.155650203860529
0.370273878858731,-0.157401328896041
0.385657731638988,-0.158668441418942
0.401130673999889,-0.159446700578043
0.416677120328514,-0.159731756135676
0.432281299547079,-0.159519756331505
0.447927271103942,-0.158807355242708
0.463598941243988,-0.157591719629713
0.479280079541808,-0.155870535257199
0.494954335680708,-0.153642012680622
0.510605256460227,-0.150904892489051
0.526216303014508,-0.14765844999568
0.54177086822356,-0.143902499367954
0.557252294299138,-0.13963739718982
0.572643890526693,-0.134864045449227
0.587928951144588,-0.129583893944595
0.603090773341531,-0.123798942104598
0.61811267535295,-0.11751174021621
0.632978014636867,-0.110725390056631
0.647670206109592,-0.10344354492531
0.662172740421475,-0.095670409072972
0.676469202252743,-0.0874107365251686
0.690543288609387,-0.0786698292985589
0.704378827098959,-0.069453535008785
0.717959794166054,-0.0597682438694631
0.73127033326721,-0.0496208850824983
0.744294772964953,-0.0390189226205943
0.757017644920669,-0.0279703504035061
0.769423701766057,-0.0164836868702645
0.781497934832894,-0.00456796895027634
0.793225591720979,0.0077672545631276
0.804592193684137,0.0205119302324313
0.815583552814331,0.0336555077840378
0.82618578900403,0.0471869484991408
0.836385346667136,0.0610947341810897
0.846169011198968,0.0753668766923332
0.855523925155978,0.0899909280533378
0.864437604136109,0.104953991095253
0.872897952340929,0.120242730657435
0.880893277800981,0.135843385320294
0.888412307246005,0.151741779663335
0.895444200602079,0.167923337037576
0.901978565097975,0.184373092840991
0.908005468963442,0.201075708284954
0.913515454702435,0.218015484639113
0.918499551924767,0.235176377941518
0.922949289720001,0.252542014160278
0.926856708557879,0.270095704792439
0.930214371700014,0.287820462885253
0.933015376108025,0.305699019464486
0.935253362833816,0.323713840353869
0.936922526878151,0.341847143369323
0.938017626504245,0.360080915871113
0.938533991993601,0.37839693265658
0.938467533831881,0.3967767741757
0.937814750313154,0.41520184505125
0.93657273455149,0.433653392884979
0.934739180889397,0.452112527330753
0.932312390693286,0.470560239415301
0.929291277526709,0.488977421086814
0.925675371692788,0.507344884971317
0.9214648241379,0.525643384316427
0.916660409709323,0.543853633101799
0.911263529760248,0.561956326295318
0.905276214096208,0.579932160233815
0.898701122257706,0.59776185310687
0.891541544134484,0.615426165522068
0.883801399907604,0.632905921129868
0.875485239316224,0.650182027286112
0.86659824024666,0.667235495730046
0.85714620664206,0.684047463255607
0.847135565731745,0.700599212353668
0.836573364580001,0.716872191802833
0.825467265954842,0.732848037186369
0.813825543518018,0.748508591312802
0.801657076338254,0.763835924517757
0.788971342730485,0.778812354824616
0.775778413424557,0.793420467941653
0.762088944067626,0.807643137073355
0.747914167065221,0.821463542523789
0.733265882766686,0.834865191069941
0.718156450001398,0.847831935083176
0.702598775972987,0.860347991377092
0.686606305519382,0.872397959760268
0.670193009747328,0.88396684127265
0.653373374050703,0.895040056084512
0.636162385522608,0.905603461037283
0.618575519772017,0.91564336680575
0.600628727156336,0.925146554661542
0.582338418441999,0.934100292818073
0.563721449905827,0.942492352337554
0.54479510789058,0.950311022581026
0.525577092828744,0.957545126182807
0.506085502749243,0.964184033531162
0.486338816282383,0.970217676737468
0.466355875178932,0.975636563076626
0.446155866359842,0.980431787881957
0.425758303513671,0.98459504687834
0.405183008259365,0.988118647937896
0.384450090892513,0.990995522243055
0.363579930733849,0.993219234842439
0.342593156099118,0.994783994585577
0.32151062391006,0.99568466342306
0.300353398966613,0.995916765059403
0.279142732900956,0.995476492946499
0.257900042834439,0.994360717606198
0.236646889758777,0.992566993271251
0.215404956663391,0.990093563834513
0.194196026431007,0.986939368097008
0.173041959524089,0.983104044306177
0.151964671484893,0.978587933976357
0.130986110272312,0.973392084984251
0.110128233458869,0.967518253932928
0.0894129853115229,0.96096890777863
0.068862273780162,0.953747224715426
0.0484979474178075,0.945857094313536
0.0283417722567981,0.937303116907915
0.00841540866530771,0.928090602234505
-0.0112596117912975,0.918225567312305
-0.0306619094596753,0.907714733570263
-0.0497702796536277,0.896565523218759
-0.0685637156304481,0.884786054866253
-0.0870214314637343,0.872385138382525
-0.105122884788017,0.859372269010668
-0.122847799390474,0.845757620730882
-0.140176187625174,0.831552038879877
-0.15708837262531,0.816767032030506
-0.173565010289011,0.8014147631371
-0.189587111014522,0.78550803995271
-0.205136061160596,0.769060304725334
-0.22019364420829,0.752085623180935
-0.234742061600424,0.73459867280192
-0.248763953235336,0.716614730410449
-0.262242417591765,0.698149659066813
-0.275161031462018,0.6792198942938
-0.287503869270925,0.659842429638803
-0.299255521958381,0.640034801586121
-0.310401115403719,0.61981507383267
-0.320926328370505,0.599201820941054
