-0.982614562405629,-0.764929099572213
-0.976300685172419,-0.753554324164104
-0.969992733234112,-0.742316064837816
-0.963691011173267,-0.73121289606604
-0.957395824516411,-0.720243416591653
-0.951107479684438,-0.709406248762214
-0.944826283943816,-0.698700037884071
-0.93855254535857,-0.688123451595409
-0.932286572743017,-0.677675179257615
-0.926028675615234,-0.667353931364344
-0.91977916415123,-0.657158438967702
-0.913538349139802,-0.647087453120988
-0.907306541938064,-0.637139744337435
-0.901084054427609,-0.627314102064452
-0.894871198971312,-0.617609334172841
-0.888668288370723,-0.608024266460522
-0.882475635824064,-0.598557742170294
-0.876293554884797,-0.589208621521174
-0.87012235942074,-0.579975781252905
-0.863962363573733,-0.570858114183184
-0.857813881719828,-0.561854528777244
-0.756711578422521,-0.449403670478617
-0.845552718431301,-0.544185312556009
-0.839440666568634,-0.535517573200068
-0.725832867464738,-0.430154272111756
-0.827255196993258,-0.518510666546118
-0.915906094126398,-0.61279372097516
-0.81512333939217,-0.501935126478177
-0.803047612963255,-0.485783057970208
-0.797031585770588,-0.477863412339256
-0.881835094916234,-0.583798908847678
-0.785044775704802,-0.462332174750348
-0.779074621100251,-0.454718727136231
-0.773120385191138,-0.44720550793891
-0.767182381407773,-0.439791616000057
-0.856245291426998,-0.548792037512011
-0.737991803672005,-0.437109763939069
-0.749468891799207,-0.418137042953272
-0.705631591453216,-0.373573565366759
-0.687187613192228,-0.353460774682168
-0.696828400982072,-0.39079259368687
-0.720300191718883,-0.383951354390005
-0.706638264390828,-0.365227556101567
-0.703024895054454,-0.364546323672943
-0.717044523252031,-0.382527220898152
-0.691607305133825,-0.352057142464277
-0.659831006207646,-0.342149889284426
-0.705775890572784,-0.368161784546851
-0.70722359104094,-0.321069119183197
-0.631045831106089,-0.319867709452997
-0.686272712593161,-0.299371519557033
-0.81187223880454,-0.406355861415721
-0.693607101013009,-0.333622063882896
-0.684564883863247,-0.333943699666928
-0.635802072418288,-0.294749416728499
-0.623345427158791,-0.321748280546931
-0.505690667800253,-0.224121988454613
-0.50223514864247,-0.174203597289414
-0.577969186504509,-0.233483777669848
-0.608764987063593,-0.269149385329592
-0.647869711256977,-0.280332861539496
-0.658807340479662,-0.334976426048914
-0.600039178234601,-0.257835513389035
-0.557903423271704,-0.261707391277399
-0.580377821660261,-0.198758848633538
-0.581310578490731,-0.193853054337651
-0.578738140663405,-0.193989455267129
-0.561700360437607,-0.227843856152449
-0.456234999371454,-0.104112966740771
-0.551538076427153,-0.219458833904619
-0.54649905269958,-0.215370638001921
-0.54148847591495,-0.211351122100195
-0.517479560015473,-0.1959297456862
-0.520559442979215,-0.184326362269483
-0.5451612168817,-0.195393696826764
-0.48701784636419,-0.147342021621198
-0.505822444144497,-0.168297995493162
-0.476232751586104,-0.213428423987017
-0.483359335686481,-0.152518548544735
-0.497718150793416,-0.17816091140133
-0.53324626530572,-0.207226600666615
-0.445506533334038,-0.145354759788867
-0.434915832714836,-0.195050905667735
-0.463701743794824,-0.12372622354496
-0.465407109328653,-0.155863252030934
-0.456467666306368,-0.150024618922393
-0.36060205024256,-0.0413053906072473
-0.447661757540938,-0.144413658234395
-0.352631490093324,-0.0415647815868504
-0.438991315781823,-0.1390256042737
-0.426243807192672,-0.131351116641941
-0.422064412668431,-0.128899291375127
-0.417920289063828,-0.126499658273898
-0.413811663445321,-0.124151633639505
-0.409738760865782,-0.121854635165106
-0.405701804347251,-0.119608081891173
-0.401701014863878,-0.117411394162123
-0.509589990832139,-0.209488813321175
-0.389917827294575,-0.111114746369991
-0.382247161605163,-0.107155736803486
-0.378467898003391,-0.105246137427889
-0.360140453732839,-0.0963743578752862
-0.356590136715178,-0.0947312639911972
-0.353078665600944,-0.0931306011153016
-0.255578647398366,0.0214230671653243
-0.342779222375288,-0.0885775491039699
-0.228973093632289,0.0317955043382882
-0.225620000001216,0.00638576549856246
-0.32960177517072,-0.0830666365975198
-0.317069178186628,-0.078162597141733
-0.314038062975926,-0.077027215933788
-0.308099418138236,-0.0748613030925596
-0.305192205825763,-0.0738296578447041
-0.30232660769333,-0.0728314784330839
-0.299502776229715,-0.0718662092205862
-0.29672086143537,-0.0709332950078219
-0.293981010811069,-0.0700321810171872
-0.288628079510466,-0.0683231366091767
-0.280917706397425,-0.0659842248150295
-0.275991713256787,-0.0645682697127857
-0.273593382455805,-0.0639016313005607
-0.271238329062311,-0.0632618167350562
-0.268926674995504,-0.0626482746991728
-0.266658539561905,-0.0620604541571399
-0.25597463358943,-0.0594879060805308
-0.253969967946327,-0.0590428573068459
-0.25200958217757,-0.058619679872186
-0.250093574372467,-0.0582178246683415
-0.340807678605757,-0.148585917367783
-0.244612759253267,-0.0571347044161141
-0.242875190305226,-0.0568126510848133
-0.239534618038901,-0.0562237354405381
-0.237931775680984,-0.0559557773772816
-0.347788114357027,-0.165421170518511
-0.233393931972299,-0.0552513312392274
-0.231971781456758,-0.0550478342074704
-0.230594974207237,-0.0548590845672273
-0.229263572818895,-0.054684535473191
-0.227977637113758,-0.0545236402248917
-0.226737224135511,-0.0543758522637518
-0.225542388144471,-0.0542406251703532
-0.224393180612741,-0.0541174126619068
-0.130011740473088,0.0475389809962031
-0.112342974447517,0.0615027503340815
-0.220253566677118,-0.0537337874782567
-0.219333175619386,-0.0536624582814976
-0.217630060810228,-0.0535454734238488
-0.215419992047039,-0.0534260010831404
-0.213623991115666,-0.0533606549796187
-0.212656902493042,-0.0533398985187491
-0.211045409832841,-0.0533360827635908
-0.21063124098997,-0.0533450021972405
-0.210585241453838,-0.0533465818438396
-0.306014274988368,-0.154066097581972
-0.102619394240837,0.047812068713404
-0.211274340753815,-0.0533034059589758
-0.211549766982789,-0.0532823677269081
-0.0948656666963805,0.0489464299909642
-0.212237928871718,-0.0532235434133218
-0.212650577529094,-0.0531846727854946
-0.213108875251361,-0.0531387736715507
-0.101521201989572,0.0633549522594222
-0.0989083926146955,0.0635476523584177
-0.217590523967863,-0.0525751698146209
-0.2201900116372,-0.0521740350820726
-0.222147812428874,-0.0518425927762707
-0.112845711680637,0.0598458925652461
-0.225420064426376,-0.0512385861085298
-0.226599937505238,-0.0510065970354089
-0.32282165374506,-0.167823759711356
-0.230405583563813,-0.0502111052680844
-0.231762470122586,-0.0499109661409362
-0.233163349801148,-0.0495924394434994
-0.234608112950636,-0.0492549853136476
-0.236096647156859,-0.0488980639630872
-0.240823710609439,-0.0477050997240679
-0.244191756668094,-0.046802560940641
-0.247731955264767,-0.0458092036066469
-0.249566281043339,-0.0452771194991133
-0.253362700376492,-0.0441394436925122
-0.25732853165382,-0.0429001623516554
-0.261462603133163,-0.0415549610377234
-0.263592351070421,-0.0408412920901856
-0.265763700276187,-0.0400995251435418
-0.270230565994532,-0.0385295396130597
-0.272525757657283,-0.0377002420816038
-0.279656363596829,-0.0350286553090651
-0.282114337243799,-0.0340750958480862
-0.284612570901422,-0.0330891212839799
-0.289729098180233,-0.0310177663647192
-0.292347025342111,-0.0299313054010316
-0.295004479614849,-0.0288102680885795
-0.297701271386271,-0.0276541136901686
-0.306025737596494,-0.0239695374974265
-0.308877932678171,-0.0226675031205069
-0.211468510257047,0.080956335799813
-0.317663806371346,-0.018532286190797
-0.427631938337173,-0.107085520568293
-0.329905508759025,-0.0124638015190296
-0.44264041748489,-0.129828203762349
-0.336248432701574,-0.00918197511285682
-0.339474638802999,-0.00747725946668592
-0.342737039720093,-0.00572928136957076
-0.346035406529095,-0.0039374945710406
-0.370111296494045,0.00987766192219523
-0.373688868221234,0.0120396539705532
-0.377300240666711,0.0142503986882899
-0.474460565459291,-0.0941119642505567
-0.384623377469262,0.0188203588891604
-0.395855215533362,0.0260547971129181
-0.427206270022128,0.0476794570653824
-0.4436123662792,0.0598318140895132
-0.447786940651751,0.0630156475592361
-0.460481348406683,0.0729261262556725
-0.464768731742046,0.0763512064402152
-0.486611543698353,0.094414749825866
-0.49105915770644,0.0982192039107538
-0.500030972039463,0.106024602034955
-0.621061623023623,0.0100479644140071
-0.518272162218307,0.122438164653535
-0.527536453737374,0.131056026902107
-0.532203397412431,0.135469871545131
-0.546339506615867,0.149138497831829
-0.444975827817828,0.281659654010287
-0.575190668150324,0.178454345625755
-0.589887545625137,0.194136210201396
-0.594824418209749,0.199519555465299
-0.604752954527982,0.210524334828816
-0.609743919917229,0.216147119532564
-0.71252066701713,0.108362544442979
-0.624819383456803,0.233505260285678
-0.629877545829263,0.239456878947799
-0.640041240851324,0.251612687753838
-0.742074734430086,0.169717371633006
-0.676073602997107,0.296885758202378
-0.702197229625595,0.331925898940634
-0.712724650889847,0.346597763752397
-0.822412857014095,0.256457526328925
-0.733896542841653,0.377101372021032
-0.739211677055408,0.384973794196068
-0.792744345091692,0.469363090792207
-0.841292524944681,0.554660244791979
-0.862902009582973,0.595617327798408
-0.889887089887748,0.649604355973438
-0.9006622202866,0.672098957130875
