0.35806365724576,-0.826467301449041
0.372058468784173,-0.81964271043231
0.384972597765325,-0.810338166273813
0.39670526365091,-0.798622824843824
0.407164802936237,-0.78458238168501
0.416269709619581,-0.768318264278039
0.423949587927957,-0.749946699532581
0.430146007837878,-0.729597664962462
0.434813254789752,-0.7074137329801
0.437918965935204,-0.683548818637271
0.439444646269477,-0.658166841938911
0.439386059077092,-0.6314403165573
0.437753486248561,-0.603548877369425
0.434571855198956,-0.574677759725712
0.429880730325153,-0.545016243729363
0.423734168166627,-0.514756077059291
0.416200436673862,-0.48408989000404
0.407361600227544,-0.45320961638812
0.397312973279562,-0.422304933965983
0.38616244669245,-0.391561737633623
0.374029692026254,-0.361160658465604
0.361045250150437,-0.331275641129567
0.347349511632976,-0.302072591665155
0.333091597369627,-0.273708106944972
0.318428148854167,-0.246328296367922
0.303522038346702,-0.220067705476944
0.288541009964081,-0.195048350251609
0.273656263386984,-0.171378869809815
0.259040992446135,-0.149153804171079
0.244868891310129,-0.128453002596391
0.231312641345108,-0.109341166836559
0.218542391948761,-0.091867532403038
0.206724248775413,-0.0760656897332925
0.1960187827642,-0.0619535458679614
0.186579573258153,-0.0495334260006556
0.178551798259423,-0.0387923130143755
0.17207088450667,-0.0297022218923765
0.167261229587927,-0.022220704696774
0.164235007719817,-0.0162914806558841
0.163091070136996,-0.011845184801462
0.163913950249869,-0.00880022755938853
0.166772982850831,-0.00706375673112827
0.1717215456871,-0.00653271241697909
0.178796430680017,-0.00709496463354087
0.188017350965505,-0.00863052267396114
0.199386588767892,-0.0110128046565081
0.212888787909696,-0.0141099552101092
0.228490893513762,-0.0177861988589538
0.246142240182442,-0.0219032163953624
0.265774788652288,-0.0263215313731342
0.287303509633492,-0.0309018938137059
0.310626912262323,-0.0355066482948361
0.335627713333351,-0.0400010737852858
0.362173642247572,-0.0442546828971453
0.3901183754234,-0.0481424686470813
0.419302592780466,-0.0515460873448929
0.449555147831351,-0.0543549668574133
0.480694341913215,-0.0564673302221406
0.512529292168814,-0.0577911254012881
0.544861382052697,-0.0582448528657079
0.577485782400932,-0.0577582836710753
0.610193030468133,-0.0562730617269275
0.642770653809441,-0.0537431850531014
0.675004825472305,-0.0501353619578299
0.706682036666986,-0.0454292392468132
0.737590772908584,-0.0396175007722785
0.767523179568457,-0.0327058358444261
0.796276702840021,-0.0247127782437091
0.823655692312352,-0.0156694177800126
0.849472951653419,-0.00561898753302614
0.873551224330296,0.0053836689338766
0.89572460183301,0.017272744976651
0.915839842516725,0.0299722264144636
0.933757589928557,0.0433967477325917
0.949353480333556,0.0574525405263341
0.962519130092189,0.0720384649100025
0.973162994560681,0.0870471138431247
0.981211091276994,0.102365979647064
0.986607581349538,0.117878671405521
0.989315204172827,0.133466171467084
0.989315561843648,0.149008118901485
0.986609250932044,0.164384107506819
0.981215840562317,0.179474985824997
0.973173697068922,0.194164146598517
0.962539656799208,0.208338793193338
0.949388549927927,0.221891170719547
0.933812579416126,0.234719749901741
0.91592056047824,0.246730352181673
0.895837027105324,0.257837205072892
0.873701213318978,0.267963917426068
0.84966591788983,0.277044364998483
0.823896262237265,0.28502347754539
0.796568352124865,0.291857919556935
0.767867854570919,0.297516657744042
0.737988502098491,0.301981409421172
0.707130537048734,0.305246967033721
0.675499109169294,0.307321395223072
0.64330264006258,0.308226098002605
0.610751168333266,0.307995754822535
0.578054689408419,0.306678125519442
0.545421504016253,0.304333725366691
0.513056589200517,0.301035372653443
0.481160005518203,0.296867612411813
0.449925353720636,0.291926021072856
0.419538293755379,0.286316397952028
0.390175138352894,0.280153850533362
0.362001532782767,0.273561781528878
0.335171231585651,0.266670786626774
0.309824982215815,0.259617472699817
0.286089524573272,0.252543207016419
0.264076714372189,0.245592808673853
0.243882777193119,0.238913194049779
0.225587698910096,0.232651988539206
0.209254756980274,0.226956117204875
0.194930195844053,0.221970387216291
0.182643048418717,0.217836075083824
0.172405104389528,0.21468953170807
0.164211024720444,0.212660818160618
0.158038600533347,0.211872384891295
0.153849153251225,0.212437806720501
0.151588071678132,0.21446058552634
0.151185480507713,0.218033031978582
0.152557033623042,0.223235237009955
0.155604824483317,0.230134142955502
0.160218404896989,0.238782723439424
0.16627590256482,0.249219280153397
0.173645226948143,0.261466863658971
0.182185352284451,0.275532824268289
0.191747665940618,0.29140849792145
0.20217736976908,0.30906903079548
0.21331492171849,0.328473345159469
0.224997504651308,0.349564247743886
0.237060509138796,0.372268680630387
0.249339016940462,0.396498113402833
0.261669271930342,0.42214907404202
0.273890125405976,0.449103814806958
0.285844443005709,0.477231108135558
0.297380460863148,0.506387166428018
0.308353079140478,0.536416678457613
0.318625081700051,0.567153954095956
0.328068271390345,0.598424168052602
0.336564511231673,0.630044692421089
0.344006662681181,0.661826507003223
0.350299413127724,0.693575675658146
0.355359985806166,0.72509487629902
0.35911872641811,0.756184971643745
0.361519561891966,0.786646607421717
0.362520327899294,0.816281824450072
0.362092962955732,0.844895670822784
0.360223568162533,0.872297800406244
0.356912332877792,0.898304043906012
0.352173327833602,0.922737938960995
0.346034168425609,0.945432206031837
0.33853555208388,0.966230157277209
0.329730674777888,0.984987026151424
0.319684532803642,1.0015712061048
0.3084731170375,1.01586538751885
0.296182507809938,1.02776758285523
0.28290787944458,1.03719203093336
0.268752424315376,1.04406997226798
0.25382620699054,1.04835028848691
0.238244959649519,1.05
0.222128830473208,1.04900461729432
0.205601097113475,1.04536834247595
0.188786857642107,1.03911411895566
0.171811711559063,1.0302835284726
0.154800443503867,1.01893653595518
0.137875722261668,1.00515108402132
0.12115682748739,0.989022540208289
0.104758416289332,0.970663001285496
0.0887893414199585,0.9502004602299
0.0733515323203101,0.92777784262277
0.0585389496599944,0.903551920348067
0.0444366233126783,0.877692111526703
0.0311197829138349,0.850379176598237
0.0186530892704891,0.821803821353652
0.00708997393986711,0.792165218521794
-0.00352790672611658,0.761669460210935
-0.0131710978513373,0.730527954099588
-0.0218226485274496,0.6989557767519
-0.029478287597317,0.667169997798642
-0.0361464709903126,0.635387988971541
-0.0418483000766038,0.603825732104607
-0.0466173117194541,0.572696140219863
-0.0504991419106339,0.5422074056966
-0.053551066063255,0.512561389284037
-0.0558414201978618,0.483952063359069
-0.0574489083808295,0.456564022356939
-0.0584618028487743,0.430571072717282
-0.0589770442689427,0.406134913996234
-0.0590992505341279,0.383403922003321
-0.0589396433628568,0.362512043936554
-0.0586149027634078,0.343577814518422
-0.0582459601164122,0.326703501087804
-0.0579567412289302,0.311974384487438
-0.0578728712074555,0.299458181413289
-0.0581203533836779,0.289204612671334
-0.0588242348013902,0.281245120529533
-0.0601072709330543,0.275592737069228
-0.0620886023386398,0.27224210414218
-0.0648824559068924,0.271169644238172
-0.0685968831306709,0.272333880275165
-0.0733325475649841,0.275675901050544
-0.0791815732014588,0.281119967849313
-0.0862264649697624,0.288574256503934
-0.094539111949607,0.297931728051437
-0.104179883151878,0.309071120046404
-0.115196824910584,0.321858049572947
-0.127624968025974,0.336146218063653
-0.141485751821326,0.351778707186767
-0.156786571230295,0.368589354311944
-0.173520451927661,0.386404195416137
-0.191665857363708,0.405042962750229
-0.211186630371633,0.424320624158341
-0.232032070798968,0.444048950629011
-0.254137149379001,0.46403809846322
-0.277422856817623,0.484098192369931
-0.301796685836192,0.504040895845989
-0.327153242692851,0.523680955363174
-0.353374983514472,0.542837705169245
-0.380333069619548,0.561336519909242
-0.407888334909583,0.579010202784379
-0.435892357362595,0.595700297583745
-0.464188625686974,0.611258313643193
-0.492613791295835,0.625546853599492
-0.520998994949427,0.638440634708821
-0.549171256693661,0.649827395478649
-0.576954917102826,0.659608680412231
-0.604173117320071,0.667700496775856
-0.630649304984795,0.674033838460554
-0.656208752845805,0.678555073211805
-0.68068007668557,0.681226190732151
-0.703896739126077,0.682024910411331
-0.7256985259513,0.680944648695599
-0.745932981764857,0.677994347360944
-0.764456792102631,0.673198165192763
-0.781137099536548,0.666595036786302
-0.79585274183381,0.658238103356855
-0.80849540087132,0.648194021576045
-0.818970651742211,0.636542157520436
-0.827198902324136,0.623373673821722
-0.833116214499945,0.60879051903507
-0.836674999222683,0.592904329085531
-0.837844578689675,0.575835251404519
-0.836611610025573,0.557710703022494
-0.832980366061577,0.538664074434559
-0.82697287002729,0.518833391497855
-0.818628882232049,0.498359947949732
-0.808005738092898,0.477386921350831
-0.79517803815555,0.456057985355706
-0.780237192041227,0.434515931194872
-0.763290819524862,0.412901311116364
-0.744462013197629,0.391351116283657
-0.72388846837801,0.369997501262442
-0.701721487099993,0.348966566754853
-0.678124864114145,0.328377211660639
-0.653273663877434,0.308340064866039
-0.627352898471608,0.288956506388884
-0.600556117268958,0.270317786649913
-0.57308391995079,0.252504251703388
-0.545142405170665,0.235584681253364
-0.516941567735525,0.219615745214664
-0.488693657647762,0.204641583459512
-0.460611514706125,0.190693512232068
-0.43290689259957,0.17778985952435
-0.405788786543947,0.165935930499176
-0.379461778505215,0.155124102829577
-0.354124413925065,0.145334050610993
-0.329967623616098,0.136533094303213
-0.307173204126397,0.128676672984629
-0.285912369390354,0.121708934062357
-0.26634438588835,0.115563434488729
-0.248615302837283,0.110163946497359
-0.232856788133145,0.10542535989984
-0.219185079872898,0.101254672086139
-0.207700062303389,0.0975520560558415
-0.198484473988694,0.0942119960811757
-0.191603254863187,0.091124479972678
-0.187103037655617,0.0881762363902543
-0.185011787939924,0.0852520052209988
-0.18533859580207,0.0822358287343236
-0.188073620819964,0.0790123510275421
-0.193188190746832,0.0754681131928575
-0.200635052978596,0.0714928316704953
-0.210348776584368,0.0669806474022082
-0.222246301397458,0.0618313336632232
-0.236227629413478,0.0559514508265635
-0.252176652533131,0.0492554367981309
-0.26996210953069,0.0416666224496619
-0.289438664034983,0.0331181620643208
-0.31044809428753,0.0235538695900929
-0.332820584501199,0.012928952362203
-0.356376106790436,0.00121063489972741
-0.380925881888334,-0.0116213336052003
-0.406273906212945,-0.0255742934137825
-0.432218532300958,-0.0406424141669161
-0.458554089195894,-0.0568065636318102
-0.485072529063858,-0.0740343070953534
-0.511565086115416,-0.0922800380180789
-0.537823933838748,-0.111485239342035
-0.563643826597539,-0.131578873628551
-0.588823711816403,-0.152477898998842
-0.613168299265468,-0.174087906672597
-0.636489574361321,-0.196303874757792
-0.6586082429202,-0.2190110318495
-0.679355095426307,-0.242085822956309
-0.698572279607846,-0.265396969299695
-0.716114470939323,-0.288806612633248
-0.731849931603155,-0.312171533913183
-0.745661449438975,-0.335344435426779
-0.757447149475827,-0.358175274857758
-0.767121171771579,-0.380512639243223
-0.774614210465124,-0.402205146360319
-0.779873910169852,-0.423102860776409
-0.782865117090581,-0.443058711607073
-0.783569983519557,-0.461929898953662
-0.781987925648999,-0.479579276037292
-0.778135435916574,-0.4958766942089
-0.772045752364982,-0.510700298294
-0.76376838873622,-0.52393776012393
-0.753368530224221,-0.535487438609154
-0.740926300965938,-0.545259455320494
-0.726535910450193,-0.553176675255566
-0.710304687056404,-0.559175583274126
-0.692352007892314,-0.563207047580379
-0.672808134972989,-0.565236962604804
-0.651812968564871,-0.565246764684053
-0.629514729201879,-0.563233815045866
-0.606068580459617,-0.559211645766874
-0.581635205043571,-0.553210065574355
-0.556379347104059,-0.545275123597886
-0.530468333931404,-0.535468930432344
-0.504070590307645,-0.523869337138752
-0.47735415879511,-0.510569474072813
-0.450485239127617,-0.495677152681279
-0.423626759638163,-0.479314134632531
-0.39693699331006,-0.461615273838831
-0.370568230579879,-0.442727538073073
-0.344665520454662,-0.422808917972221
-0.319365490837853,-0.402027232243166
-0.294795258194518,-0.380558838835284
-0.271071435833831,-0.358587262709073
-0.248299249152969,-0.336301751603764
-0.226571765180585,-0.313895771882214
-0.205969242688453,-0.291565457101993
-0.186558608017021,-0.269508022422573
-0.168393060594308,-0.247920158305466
-0.151511810928445,-0.226996417193652
-0.135939952633381,-0.206927606966817
-0.121688468815331,-0.187899204958189
-0.108754371916205,-0.170089806187383
-0.0971209748900665,-0.153669619212326
-0.0867582903910562,-0.13879902263428
-0.0776235534867169,-0.125627194806123
-0.0696618622898356,-0.114290828699556
-0.0628069298348688,-0.104912943186849
-0.0569819395212551,-0.0976018011930756
-0.0521004955145157,-0.0924499442824946
-0.0480676586452622,-0.0895333522654159
-0.044781057583748,-0.0889107353581484
-0.0421320644001524,-0.0906229653075078
-0.0400070230543748,-0.0946926507126924
-0.0382885188986893,-0.101123860551362
-0.0368566769263074,-0.109901998654149
-0.0355904762617105,-0.120993830583719
-0.034369068266635,-0.134347663071955
-0.0330730856297903,-0.14989367486348
-0.0315859299187152,-0.167544396516832
-0.0297950252975457,-0.187195335437478
-0.0275930264527015,-0.208725741170965
-0.0248789692164777,-0.231999504780304
-0.0215593529320579,-0.256866184980283
-0.0175491442574873,-0.283162152612354
-0.0127726928545823,-0.310711844027042
-0.00716455024482023,-0.339329113005074
-0.000670184030215732,-0.368818670001995
0.00675341933527824,-0.398977596751342
0.0151372689882429,-0.429596923614926
0.0245000059735495,-0.460463256531286
0.0348476649529315,-0.49136043998946
0.0461735636416224,-0.522071242148699
0.0584583211103418,-0.55237904803818
0.0716700048792497,-0.582069546705993
0.0857644055200748,-0.610932398243819
0.100685436283685,-0.638762866792951
0.116365654093567,-0.665363405936057
0.132726897102092,-0.690545183295871
0.149681032906196,-0.714129531691978
0.167130810472461,-0.735949314846244
0.184970807838065,-0.755850196370144
0.203088466742571,-0.773691801606735
0.221365204514662,-0.789348762829139
0.239677592794953,-0.802711639307639
0.257898592028217,-0.813687704840304
0.275898830111272,-0.822201596487568
0.293547913141872,-0.828195819449649
0.310715755883045,-0.831631104266306
0.327273919339722,-0.832486613790475
0.34309694274228,-0.830759998679534
0.35806365724576,-0.826467301449041
