0.731167593779747,-0.0502768019835483
0.617094101549468,-0.132654886973752
0.602412969167555,-0.143343676403338
0.79075315243443,0.0978158899354854
0.694931030815247,-0.0292069973628087
0.66732363419394,0.0165879823334948
0.632849639513367,-0.0183678310992715
0.609044113113614,0.0379489262544044
0.620974608158512,0.0940382694684578
0.538728004176751,0.0511398331085476
0.469000005350519,0.018365568429387
0.495692585488594,0.0541816563793567
0.414257317318441,0.0678348899049054
0.394892377973197,0.0455583274528504
0.34403302201223,0.0721666749638848
0.275796724824964,0.0652871959231665
0.238788668948445,0.0536635894907542
0.174946179164294,0.0276729665556362
0.190061061198177,0.0644216983062092
0.236363591383635,0.197915818500007
0.14253317958078,0.0480527500375755
0.100366666461951,0.055900525209933
0.0684544831421322,0.0750910563987695
0.168749759918807,0.14571163299777
-0.0752467947143841,-0.101300149120866
-0.0567655510001912,-0.0446484945693008
0.059128534819049,0.0623150158629211
0.0931938365245268,0.0986502716916447
-0.0368290109991505,-0.0309715928411106
0.0905087383810771,0.0887386791798684
0.120536033343573,0.106764541302214
0.272465049674696,0.259278044790309
0.15584150373695,0.136811808900707
0.175021797492872,0.181015450737929
0.212117397478775,0.180716570884073
0.234477811827717,0.190442272635995
0.273309503511299,0.232724056949814
0.342014159220445,0.288233918749912
0.365768383091158,0.281823129519765
0.363827472188733,0.321118932279595
0.431823050182497,0.367065192778275
0.412414901463613,0.352958638840561
0.390186863606537,0.450022653370204
0.458768772876899,0.442401770921106
0.602456226683929,0.612495307043444
0.50071350372766,0.532169081975758
0.479952736546499,0.536686996986882
0.495609623369313,0.535949263798109
0.477363892961002,0.518448399646448
0.495963025579967,0.575564329255187
0.52581431654749,0.543334720374829
0.479177555582317,0.549398351053538
0.578895729505061,0.652276770224027
0.446340131140029,0.63565283429491
0.403905749896097,0.58902075674148
0.431522189539104,0.547388394673656
0.365943217541765,0.575102471012759
0.419551710249979,0.670904700086761
0.2899097008803,0.563474511955866
0.269231971917511,0.46990935404278
0.24174077807824,0.495678151354455
0.251101247153443,0.510600226323916
0.169098844491599,0.488752455495601
0.0980467836161409,0.448289895323624
0.153541313296016,0.397070163382995
0.0884328925509136,0.354448138791244
0.0371863294999541,0.313600622863028
0.0716893104518202,0.29787603503075
0.0161846367754091,0.273151885275889
0.0235097604833796,0.204685254840654
-0.0387739961897518,0.258962199799788
-0.0336326764343158,0.213013549618906
-0.027452365486551,0.159485091423165
-0.00819156168927734,0.222335882176837
-0.0379054508891775,0.229663768425317
-0.107599682402119,0.196808295675483
-0.0658651621200953,0.191152461392514
-0.0659665970303235,0.200673180615936
-0.0939000032918302,0.180656063348252
-0.0477469636387298,0.271882709602992
-0.00977130479930896,0.255304274687686
-0.0491241950639274,0.241043784237579
-0.0388417137007992,0.301111979189743
-0.0449520027018794,0.349810115135786
-0.00847390936843088,0.360608279345736
-0.0372085825406807,0.426392023869035
-0.0267984626690021,0.466892848991543
-0.0556485412154663,0.557370191125276
-0.0763513545936714,0.407713194289532
-0.0201225195775699,0.583144852876324
-0.0247912910486737,0.646694921952611
-0.024287870276129,0.657824063698648
-0.0392781636162737,0.74431503760636
-0.0453287199278194,0.741367275747067
-0.0214429626873647,0.772361593269009
-0.0714983538331943,0.803210806234314
-0.0826792714723128,0.825538266037096
-0.0948786194505881,0.843077691190599
-0.107889982419973,0.855537784696815
-0.257210832971191,0.734237617878695
-0.088178603521317,0.88369071199854
-0.134390404781277,0.829470069318223
-0.163346868218143,0.851763114965208
-0.20779176201664,0.85891932161774
-0.142982370238917,0.853834118570694
-0.21899017324527,0.758795380771596
-0.196345034852933,0.779487071402027
-0.188033954529836,0.729337723390605
-0.3030198332802,0.606008866335529
-0.215752994425569,0.636723127938286
-0.243661021528576,0.6207592405028
-0.343174854592201,0.470907075316274
-0.294335498433676,0.549584707687858
-0.269203792945374,0.464772968116168
-0.252247195512126,0.453051915523853
-0.229824493168721,0.426304102015664
-0.231379568950745,0.397666502382188
-0.217947942520762,0.335650458067614
-0.25243112309778,0.316628088433767
-0.375680380131118,0.112020965527627
-0.27886915087939,0.281994296948976
-0.237674978533279,0.228856975706756
-0.270190502368164,0.197552632185896
-0.225098726504798,0.242064388603101
-0.237914047194199,0.193208568271619
-0.229573510594777,0.182376543369791
-0.141790685521479,0.280869864955166
-0.252320491757821,0.20703715358698
-0.213274076865647,0.216122851572566
-0.274099399656831,0.228182682248575
-0.288280442767339,0.247621034771654
-0.304928458880017,0.270332893074531
-0.230040815806947,0.345124353460203
-0.322446312345577,0.285141660403637
-0.369010491051991,0.352974031054148
-0.40907349720513,0.333520756589106
-0.550810971273753,0.330315332924592
-0.492288681372182,0.411590594624061
-0.43299628299357,0.474014692117273
-0.496681014792569,0.530364282156548
-0.504469147591067,0.488729632045508
-0.580447601786992,0.592402493760741
-0.602658496663354,0.577813753448488
-0.617237612389307,0.61520647183199
-0.785882173313924,0.509686053483979
-0.699816746013185,0.659513957602519
-0.80564408036503,0.523722974507273
-0.620758966489273,0.73588637840205
-0.74674620590474,0.632749359291893
-0.738806745956227,0.577904779441676
-0.805895283892759,0.576367020441691
-0.778490490768602,0.60559088800719
-0.767180937524904,0.552942185835419
-0.827620901010188,0.539662365792874
-0.775341296979703,0.54583483667704
-0.619944043742059,0.57119005663877
-0.757973197689463,0.503220499353269
-0.737675324471572,0.462387349993633
-0.644126680018169,0.551453225697555
-0.59511037289659,0.539324228991543
-0.671517612889091,0.36702683526739
-0.692811395690245,0.314642843955663
-0.616853538223662,0.303051547911051
-0.604892801400737,0.305285653562579
-0.513324726183077,0.205504852705287
-0.586013700203425,0.0789849030897914
-0.501139350847059,0.18924107088005
-0.515530678728406,0.191933482136034
-0.402635146809479,0.157526222501478
-0.433785993638931,0.109183790334411
-0.491781147093423,0.00738381337011745
-0.485022929606258,0.00503416460011816
-0.379486630414479,0.0860204148586254
-0.371589691394865,0.0779170231055751
-0.330118684334312,0.063501019966336
-0.412612926945294,0.0406263278803393
-0.371145188763116,0.0641732749534724
-0.385995955594458,0.0676396788271545
-0.40141057259382,0.0694246110810697
-0.421382133327366,0.0723787086710877
-0.445680059945871,0.076185141030569
-0.457335204319023,0.126971286259635
-0.490879781418458,0.118365788182964
-0.558219482238783,0.137470172053891
-0.574823899286923,0.12861362031019
-0.498445031168291,0.256007183558671
-0.705814080909346,0.0837818676464224
-0.702294141701169,0.100746204328426
-0.738456518042079,0.0694110865598418
-0.789337420987357,0.121597834228533
-0.789889094060486,0.140705226890045
-0.882661129240467,0.117962128979666
-0.902594925901415,0.0860186298095013
-0.947603139591842,0.0812472157406077
-0.947459415709532,0.0514211793603625
-0.970212861034283,0.104025822293134
-0.995519391563747,0.0223920217527046
-1.03932537576676,0.0453356390869946
-1.04003325188911,0.0221352299771985
-1.0156049663223,-0.0331752637088317
-1.04626973358184,-0.00555871791984934
-1.06813089396204,-0.0335869941051041
-1.06001452198065,-0.0460556759659996
-1.05096844898103,-0.0302248352974362
-0.954789439528948,-0.0207016723531643
-1.11066275539229,-0.223146844999443
-0.828501793590511,0.0349563302110527
-1.04605521300042,-0.249816184359625
-0.823416433899516,-0.0644297984723916
-0.852765228717363,-0.150001723806449
-0.797937505445602,-0.138461210061423
-0.75096281460729,-0.115277317225495
-0.727216147855227,-0.130988478977647
-0.557432902614909,0.0198071999902113
-0.625001786580389,-0.118753435414003
-0.584993401262337,-0.117699214595023
-0.665644227740956,-0.226822065445239
-0.470653236396974,-0.0640118408794768
-0.498263286047174,-0.150547468085063
-0.407249403458915,-0.0910850512946784
-0.473198601394306,-0.0639035890989801
-0.406454447773883,-0.103922135491024
-0.390962125286272,-0.103036503328127
-0.485140339146917,-0.205249633738703
-0.386930828181148,-0.0947390090117488
-0.259817055639779,-0.0403525220598192
-0.37717780863033,-0.114134109733761
-0.385532557606057,-0.121764625662287
-0.398219512044723,-0.131696650111368
-0.525516752122481,-0.293360011625509
-0.397534296938371,-0.142376253529458
-0.473874099189277,-0.140234134534973
-0.45071051122878,-0.244646378686309
-0.522020963831976,-0.229947566598602
-0.410591673535533,-0.125586917015121
-0.573391734144592,-0.267886521786494
-0.604391664492571,-0.295582717838203
-0.635117116275167,-0.324626918143806
-0.664978261772782,-0.354666904198898
-0.668496800692543,-0.394580907970859
-0.719874507629198,-0.416157652448913
-0.745209968355274,-0.449139172284421
-0.750389425584694,-0.430649754426299
-0.755370666967746,-0.518340484128917
-0.89238188989485,-0.627451297498281
-0.817813517732497,-0.598408909407903
-0.831264747021383,-0.598849667726278
-0.816024076551424,-0.600458360356236
-0.814071702847466,-0.617256056608452
-0.774317260912349,-0.584915120373432
-0.807286127507117,-0.687653205994678
-0.78337375742365,-0.65879055757989
-0.880125923324859,-0.746085490137128
-0.75955935065939,-0.658528225013716
-0.697889346257404,-0.68345411686014
-0.693306358583092,-0.661785286595372
-0.780930701847077,-0.688646641996815
-0.636922091910554,-0.599749637779339
-0.564995261340565,-0.621483660424748
-0.586782816788769,-0.508880193847771
-0.541139498320276,-0.531654583043374
-0.526363788962564,-0.533751313128093
-0.477452262827833,-0.476293123209454
-0.427818055464388,-0.458920660672908
-0.4179047426339,-0.417831896647154
-0.438585176634234,-0.394156172971311
-0.404391412593391,-0.400470271712058
-0.34774673634617,-0.287353332638911
-0.30674753054693,-0.266796972604324
-0.29933028826547,-0.329978212845862
-0.266908394929192,-0.295432434244794
-0.266720901572843,-0.213480010079069
-0.242689830439524,-0.220517819301744
-0.258475020652332,-0.236924025027219
-0.25336276897396,-0.234626514793832
-0.3059163463012,-0.308457055112409
-0.24456772856441,-0.255202102062642
-0.250159696523217,-0.256034167633697
-0.286274424629718,-0.282504002889577
-0.207693244247307,-0.255366923437166
-0.259432461849256,-0.319017155323045
-0.263851043604486,-0.348277896921739
-0.219926780988488,-0.423671207510061
-0.255681899347457,-0.400315194152231
-0.276677252024687,-0.455264350691804
-0.307187674766268,-0.448812178949024
-0.279088995962835,-0.50826367924984
-0.180395279034616,-0.459970891709507
-0.240144823669702,-0.575353964276131
-0.289325082463377,-0.703223148247117
-0.281241672827413,-0.666202994350263
-0.384279644771172,-0.842333812991888
-0.164738708332416,-0.677983414063541
-0.258556484217842,-0.810392682670572
-0.228627206078353,-0.801668743537115
-0.210557559270888,-0.837342227504301
-0.200101105517221,-0.873144004035122
-0.17464044318255,-0.923181394868553
-0.216495312654577,-0.942528725988374
-0.187149590282461,-0.913095941767758
-0.271677815271138,-1.00354385680169
-0.181924403515045,-0.905207140300057
-0.162709921414781,-0.84646041605877
-0.0959646711264582,-0.922746276496447
-0.140031749818375,-0.87588025154895
-0.0736227554522147,-0.800420500573935
-0.0708847128874969,-0.753822859815113
-0.113617463883464,-0.793808042227137
-0.0419794503860751,-0.769910542259225
-0.111031437615812,-0.668356494324078
-0.161095095987273,-0.785825611975161
-0.0162177949366617,-0.634745975851923
0.0356796594312166,-0.464335872211151
-0.177791754490072,-0.624605716366007
-0.046934036259097,-0.470631448424002
-0.0440112925322969,-0.465757794680978
-0.0857616370715667,-0.38307650516815
-0.0718080711575896,-0.409209057454626
0.0517808987468691,-0.228349697217089
-0.0823802969578043,-0.346834204021159
-0.0770053622247171,-0.287737219601757
-0.091682446509587,-0.290283957989634
-0.09396133672285,-0.231228343086924
-0.0624869902936602,-0.2485689618285
-0.0763572103872179,-0.240323469121191
-0.11436962558921,-0.25735959542114
-0.0565050994509868,-0.210843912361267
-0.0581733308584942,-0.254931039825247
-0.032645146438313,-0.221965527031636
-0.0653772350028177,-0.301082305647299
-0.0192817913011954,-0.307419039506258
0.0484200146175412,-0.325571721627136
0.0188469568776634,-0.358269709381797
-0.0636744895080259,-0.502852984242775
0.0220070227687725,-0.367058088825157
0.0924661228537152,-0.447755894225081
0.120383942693445,-0.454966520507708
0.149857836528337,-0.509307323282366
0.163609427836517,-0.573888188269564
0.207729747265285,-0.582683579984618
0.264126023582,-0.583379610567292
0.321420705902797,-0.652624619586155
0.265432176539631,-0.623869363187078
0.357304754554254,-0.647273947966288
0.356916225393713,-0.666655515640089
0.408202486167724,-0.636401397067148
0.360111574116597,-0.688003586618907
0.381928286774698,-0.652759694019792
0.39376850080457,-0.718717949118699
0.408761281241716,-0.629099719435003
0.512455518329378,-0.521787178440821
0.451447707504407,-0.640029055419737
0.442233714365262,-0.600542570343261
0.462299074682623,-0.572005313243238
0.440901640849487,-0.561111107338441
0.354348260102361,-0.647754912314384
0.34796894944669,-0.591868119231042
0.398646432738408,-0.461782069446957
0.391993588525418,-0.464226876512959
0.396147016837096,-0.411037315841606
0.21207063445575,-0.552156754262257
0.319279071260572,-0.410254150577956
0.181830280856718,-0.43881846760408
0.28543105752665,-0.322524747802096
0.197305586142842,-0.239581565103725
0.174259937502487,-0.228896342371124
0.138395455355689,-0.208079004849885
0.0503611407224796,-0.263638385661731
0.12220689455012,-0.183707496326423
-0.0195964142336388,-0.269944764568424
0.0835096003983688,-0.151806091417857
0.113037454761308,-0.130583427587114
0.0511923210361921,-0.111646555575224
0.0497161226176238,-0.0877990701170749
0.0952076815965315,-0.124615164778249
0.0249428840675379,-0.0782175850570845
0.0673246793751468,-0.0946708748846091
0.119624849354466,-0.143833803547449
0.126149308600228,-0.133896618710757
0.104524957027435,-0.146001928157556
0.143778443373001,-0.127128836219606
0.20181266143292,-0.108746302536617
0.207555157684289,-0.136142816192573
0.251189321041795,-0.162280031101498
0.242380368400149,-0.118478671120127
0.323682603079476,-0.147120793787758
0.353561632352391,-0.177762575398248
0.407925895231242,-0.1497619737782
0.450143460589418,-0.149107287159275
0.466585472552381,-0.134010756001004
0.531410249542484,-0.14329482382949
0.569146596637989,-0.138047231663538
0.57648156226454,-0.0965338861896796
0.596313190586733,-0.0760123786593417
0.711817211301051,-0.0642218412807593
0.691345732277684,-0.121101258416561
0.829470682125869,0.0284190491986532
0.719533051071591,-0.0776271730067038
0.728042786266361,-0.0641547396115144
0.688539610384139,-0.0844196426656657
