0.569622618259806,-0.256900880744715
0.555823670769571,-0.220009464778494
0.564771241529466,-0.234123839513883
0.586412398369821,-0.222722134793183
0.546408084738703,-0.214779764635015
0.552370310378749,-0.221380683949538
0.536772370005163,-0.224974321472408
0.562496229323684,-0.219708700457573
0.570532044855063,-0.214016865128355
0.56170438442621,-0.237274414743796
0.509445028019574,-0.206000066450837
0.523239280543551,-0.179913280168335
0.527287153974727,-0.188396964626111
0.517305576582903,-0.17763550275809
0.486963725027993,-0.163586994246142
0.487874366215708,-0.170579525754306
0.4919364779519,-0.132032188423586
0.498438479726991,-0.138343603873927
0.457775498415556,-0.14528030851127
0.465600641385409,-0.108025911128383
0.475666496330771,-0.128142194085818
0.460935673253428,-0.0675966623998928
0.448943714945739,-0.0195034054826445
0.412875586163424,-0.0413904095109992
0.423762949924171,-0.0257654184263434
0.460112473738219,-0.00994336529371897
0.409493488169231,0.0119166185843312
0.445939531262923,0.0236878911765866
0.397215197484044,0.0517419411229609
0.383156721049882,0.0909950867668921
0.402489912340833,0.0667316336658741
0.354238633641264,0.085906805911046
0.37976630309444,0.135909024722054
0.383583137242461,0.160717196163037
0.374974537309237,0.179201724396547
0.363065993176981,0.21201347102706
0.366747189508253,0.194551034563917
0.392765456679394,0.225612034162629
0.367013343473083,0.253491679014865
0.347952683075815,0.285296947591519
0.376887751659566,0.30727092990926
0.379465330945631,0.327631686835308
0.382624881568995,0.347537284647716
0.384771301477834,0.374709930677029
0.371706751584508,0.365244134275628
0.381328642597604,0.385546320799165
0.400328601660753,0.421448972782969
0.382602746792135,0.418852200898812
0.410473670558518,0.483740564736542
0.430030213998902,0.433046328976697
0.423859011410935,0.483864757432843
0.430235489068362,0.497381697321288
0.452821281274226,0.498877731078864
0.44314617247017,0.521730138992754
0.449550187751373,0.532530277198545
0.480157228155888,0.568694744351407
0.47944211619592,0.53782261001622
0.483933265230363,0.593490252849767
0.487463410249331,0.58414512507995
0.478415441736164,0.572638883634614
0.490392719782856,0.596996654434562
0.506903147623233,0.585182373841658
0.474102338520367,0.590431346617129
0.49387790656941,0.588773084488371
0.484046877985695,0.585433819204652
0.520141531132366,0.591327159160856
0.516214459643863,0.594421692805424
0.507266417967117,0.593418375505313
0.512630305313786,0.592298959334419
0.495991596582322,0.591078688228504
0.496465895357884,0.622894458124879
0.489743889516361,0.587561294820443
0.513145198473247,0.628456716018276
0.479670940866847,0.582684585951111
0.476298526319681,0.565358669535002
0.481111461301527,0.608256772446968
0.457217303542651,0.573944740079308
0.453383667713814,0.583759119140172
0.424597325906763,0.579469992542546
0.426033092150918,0.565059485661427
0.413769778771977,0.562364018734169
0.400614869313754,0.559903835606993
0.386601336765056,0.557737128131713
0.392370744985359,0.544993353709477
0.379670001316177,0.59737849783615
0.339807127400105,0.553538845213393
0.322778356083295,0.553070984766424
0.324970616419282,0.567445907670591
0.286891370988199,0.553789408837066
0.264612119740746,0.575157884673236
0.248959761835661,0.556942717986359
0.25235939929264,0.570866577588718
0.209492231005327,0.562741093837659
0.197871313342919,0.551191187203072
0.183518536808563,0.530557100019009
0.148592436654197,0.576662266265776
0.128117071087773,0.582714560919722
0.116143345614018,0.586214600288616
0.087622677248836,0.576945762761576
0.0415318810715757,0.603216388618344
0.0524540201533674,0.597901729855805
0.0108119226473008,0.61341734423451
0.00209508904834784,0.652055676746053
-0.0106475317651754,0.643592800166568
-0.0452933973025955,0.660079896234246
-0.0731923867090563,0.686027055132883
-0.0797192548714762,0.677737709030872
-0.0808946268768424,0.690229004308751
-0.0969008449869365,0.70278718478241
-0.0985702199874453,0.709160143052266
-0.126771025263907,0.728582520964875
-0.140574631879117,0.741695110562169
-0.153591897291722,0.754864772737849
-0.165805174747769,0.768025071367922
-0.213600715661576,0.749110581334513
-0.229422184802929,0.83653325908772
-0.184573217769363,0.777330506578373
-0.201699421530313,0.852972865263844
-0.233679065475925,0.825332709269408
-0.241741729415172,0.801181073782464
-0.20819690461556,0.881426366242903
-0.246792684122628,0.852987883231063
-0.247518220579103,0.864995563606223
-0.24358619318444,0.884362100636473
-0.284140353587794,0.88808218832998
-0.253709226277962,0.901881740523913
-0.22577353760736,0.933234293932125
-0.254872590864256,0.914408504403333
-0.257012749187527,0.918029459602005
-0.257532068943421,0.891610704741108
-0.258271293208372,0.927759845944008
-0.286776982464762,0.917259642544476
-0.257385981979775,0.894036991127164
-0.277967465055854,0.962903600636435
-0.285364184521188,0.935233027088452
-0.257726187991912,0.919866488182821
-0.258850175688293,0.927700379911219
-0.261962316907304,0.927596421969847
-0.259064583688013,0.919520597261304
-0.29510932053533,0.876644691179348
-0.260138958536461,0.907385522810694
-0.278136033640689,0.895420076716463
-0.283897561977036,0.882475399116957
-0.264405570763909,0.88222341820483
-0.264634485054866,0.867121730383098
-0.265607471645512,0.870133992588965
-0.273137795524344,0.849617546721789
-0.27552140538011,0.822898748024578
-0.264025047602388,0.820017125046014
-0.282783099583419,0.781232044975327
-0.29000567992963,0.795434609470106
-0.300689402773394,0.782448401815932
-0.330332958889161,0.77353039353616
-0.278627152297441,0.747363114769192
-0.326192811820055,0.73713424538763
-0.336260747549625,0.721593142763008
-0.322484660055511,0.702673376714607
-0.358732127969079,0.690267337484777
-0.369921986554045,0.681894547547284
-0.384230998409199,0.659068602601331
-0.393227880938302,0.616774735502822
-0.423237788618413,0.603348109978095
-0.427749735481992,0.613650738784442
-0.387728678685555,0.60681498903556
-0.44597715939246,0.584298678280892
-0.468959573458778,0.572285245871431
-0.506945030195811,0.52587438776405
-0.479508863048687,0.53060016014895
-0.527416087597289,0.544223974043091
-0.552083688698082,0.522866762886883
-0.567019245709343,0.51130628645731
-0.585836523142536,0.501217632649237
-0.570515961219081,0.495612086159083
-0.645179928679797,0.512699683918245
-0.639794924876522,0.471496447332365
-0.65233577126727,0.475953932316132
-0.717710124060528,0.464040057620627
-0.690836025192828,0.459608835816284
-0.716596942502172,0.450705499713013
-0.725189711686237,0.448990697634677
-0.735550075505298,0.456817442492542
-0.763025140657819,0.427023677228986
-0.74206909548408,0.434416681242788
-0.817207507035197,0.446132802949988
-0.778334138108578,0.407933993186565
-0.821852520906815,0.447926515913798
-0.863254418378237,0.471956948486456
-0.885077115688855,0.426769445086608
-0.834839547255061,0.404118174956841
-0.877604212138211,0.434762221275994
-0.887463363938233,0.435811651866915
-0.908023160838842,0.441226784196132
-0.889614432151843,0.406154420829304
-0.894306991089322,0.395360428768618
-0.927782175380846,0.465555025626641
-0.922078965801893,0.442530987082549
-0.89719308410345,0.447638933830656
-0.928911297684008,0.444704726032321
-0.931468599002793,0.418363820887478
-0.963279098658076,0.462442628246553
-0.931791303720054,0.445808961711967
-0.961446971481299,0.475961052361712
-0.918207096128614,0.461798546488572
-0.952084398070048,0.421494634371387
-0.922801653113178,0.428655179468505
-0.918611801504793,0.437954093725044
-0.916885142304039,0.45265052425494
-0.907953297278762,0.430223364506184
-0.920779416940177,0.427649918054206
-0.887325962584045,0.40087640028264
-0.851252593556992,0.42049013949006
-0.879694157587769,0.405209549413167
-0.864371846590748,0.411089924791966
-0.863070575687429,0.387548278822355
-0.872332181184005,0.339120403414242
-0.840810429649094,0.385853572951661
-0.836487971469611,0.354394895052349
-0.827455036133186,0.341581168067834
-0.818446425539696,0.32790733056345
-0.810941714631717,0.337069133474028
-0.755098532947814,0.275336687299999
-0.792205541797108,0.281955659438434
-0.792316101810852,0.269657401408207
-0.777831486221198,0.292287950060591
-0.784186531093343,0.245804618632219
-0.752935197328709,0.199964860776476
-0.733211749248258,0.194137168083369
-0.75014814215373,0.197984205424681
-0.74286455022051,0.150748840274517
-0.744583789498421,0.133742118538286
-0.770474447237356,0.121548614956068
-0.739594207890104,0.0627936154605387
-0.715607699227327,0.0668579897173334
-0.704967558999164,0.053099224320393
-0.701893624106468,0.0316928884076869
-0.69079324905443,0.0433301013462891
-0.710809156781545,0.0210034504963363
-0.73549589013411,-0.049521685632538
-0.722547553318042,-0.0632863258657099
-0.709005391195387,-0.101251161700089
-0.726472698625139,-0.104776155604744
-0.73779109641558,-0.0905911741667049
-0.732783172260585,-0.144572278211675
-0.727354362893109,-0.182381462289734
-0.758830055074734,-0.163824695293697
-0.749311231639509,-0.173260563892607
-0.747281411788994,-0.239725105720841
-0.769061677681637,-0.220435145167105
-0.76724669936073,-0.262243768494288
-0.769089257858711,-0.264051842351304
-0.77540488220545,-0.278004837977149
-0.751570664302464,-0.306863221340815
-0.778172215883608,-0.325188095800827
-0.794730200367707,-0.314517694858418
-0.780127661317177,-0.318618018319247
-0.839273822102082,-0.290925862428461
-0.813251108606479,-0.342737733172466
-0.818937558374984,-0.350290152017689
-0.851806556749428,-0.33703765102925
-0.833193135834212,-0.362620520985372
-0.809682571974017,-0.338736365260575
-0.844991673354902,-0.391493349567253
-0.840836331839977,-0.374744175931042
-0.843492108497805,-0.377154275504074
-0.84544622147595,-0.378819493121725
-0.856751381118434,-0.371512466570099
-0.847061323461069,-0.380093689823467
-0.884174525676599,-0.361780979912561
-0.845345039128766,-0.378959450101117
-0.816332728688165,-0.387408301763527
-0.827181364514464,-0.388229162581517
-0.841021989493462,-0.365056719429388
-0.860951219821945,-0.400660408057008
-0.824913594415397,-0.368584559557309
-0.809522979455833,-0.365734278959711
-0.844266202412847,-0.336969778990302
-0.802912121438813,-0.368512407712096
-0.791067030667325,-0.356683012259202
-0.791982601626029,-0.375598561072114
-0.747280612096038,-0.350607894991132
-0.757453362109831,-0.331244633752831
-0.751433213408179,-0.351096763818323
-0.727655050639759,-0.34405313966615
-0.693664993506861,-0.339878305719036
-0.696439651639777,-0.341233713903856
-0.679745667721676,-0.340511913552729
-0.660026703188254,-0.364431638018282
-0.677054434320909,-0.356937008160943
-0.617831857487694,-0.343918171264494
-0.602627559684151,-0.348469774147895
-0.588597071747767,-0.377928162201247
-0.598176999887777,-0.351726930146846
-0.527129909528028,-0.326939099763496
-0.527577330627651,-0.356179442310712
-0.510311820127878,-0.372274727696627
-0.510293125459436,-0.41562347305737
-0.455927409565941,-0.382926925503385
-0.486431141449775,-0.386577384949885
-0.425574647259186,-0.388144664000941
-0.405498235787051,-0.396576465840877
-0.398336928871986,-0.431615207783269
-0.345742780502309,-0.42516792408971
-0.341763249643647,-0.458130983062434
-0.349616611423426,-0.444563482527979
-0.310313101031011,-0.447562979376165
-0.286605073455304,-0.467660867678689
-0.275731608408728,-0.471332717925842
-0.243562319276494,-0.510006174148863
-0.243728487242144,-0.496434395541448
-0.241534128682519,-0.501052726148202
-0.196844075322073,-0.550150735060685
-0.219878239742168,-0.541203445804134
-0.199794899019109,-0.55020552178913
-0.17676465558313,-0.561852505618058
-0.188367785823016,-0.558457369637915
-0.156580861906426,-0.576460005173953
-0.173074673536733,-0.600069154907991
-0.139764795902114,-0.631457706297598
-0.13909685771766,-0.6176910811491
-0.115510452983805,-0.61364155441188
-0.131497789875278,-0.662888973632658
-0.115648079809566,-0.652117983142125
-0.118886528482484,-0.646445815498831
-0.102856439716235,-0.676076495577322
-0.099471997106816,-0.684402425097977
-0.119045294784602,-0.666365152633763
-0.0884071302935706,-0.665245831074734
-0.131013136404362,-0.7066438452069
-0.0803071833153016,-0.71736193924283
-0.0799878307979205,-0.747711679301214
-0.0898341009883276,-0.716417996218241
-0.0789941248797446,-0.707613023721408
-0.0974198018006791,-0.683281570739927
-0.0788826611992626,-0.742007727690715
-0.0894205658064033,-0.718437699227474
-0.0655910746598277,-0.751319963561717
-0.0719367011980476,-0.735312370913317
-0.0894211008880314,-0.709214182738418
-0.114648456963598,-0.715694712064824
-0.0960814747404111,-0.673834479586792
-0.0877718742279298,-0.691027154691704
-0.0865711404375665,-0.683077177241438
-0.0759860060565921,-0.664872031285198
-0.0828558780682084,-0.664545902214892
-0.0802388447573067,-0.654047114283704
-0.0910259135301958,-0.669592572048345
-0.0977826520436974,-0.62583071892777
-0.06391843832379,-0.614875888785285
-0.0891189381340318,-0.630150947560663
-0.0784396646643654,-0.577403541102562
-0.0591495634569456,-0.545475510025488
-0.0400044141704359,-0.545390532742533
-0.0329691767571193,-0.565462955288051
-0.0105205775087807,-0.585709956792223
-0.0172421528192656,-0.516652805479687
-0.0281415463972484,-0.49486182457838
0.00445449758627639,-0.485379722921814
0.0164576155587537,-0.469706629790815
0.0579862954245437,-0.440299766032699
0.0742478635068805,-0.44473561283403
0.0449851144168999,-0.406934062202837
0.0649952200533477,-0.380584071744871
0.0650038944702376,-0.364868004306847
0.103264730540402,-0.379280658398373
0.12622980918937,-0.370123118593715
0.118175679869185,-0.319975542826793
0.127562232018477,-0.348238470408869
0.172049561372112,-0.343855956163219
0.18903596445365,-0.29603441122865
0.203982855298125,-0.296750279797216
0.228039903806669,-0.293447580100094
0.225075103511453,-0.28696718963473
0.240992643578625,-0.299712044752847
0.284811001873806,-0.266360585908195
0.303689814244352,-0.258777884643167
0.291175306588904,-0.279276221418236
0.340964320816011,-0.245807217798923
0.348209061924495,-0.2305796697189
0.377135854533973,-0.235720787157671
0.411612818430375,-0.216397092160708
0.411668771755708,-0.228395743007166
0.41149847513381,-0.230222487946477
0.458010706270801,-0.238145770848151
0.470011409969773,-0.219742821860669
0.473831601853554,-0.221146451614114
0.483663668739142,-0.229005754338272
0.500581253967623,-0.220602546789282
0.512202004619312,-0.204599965923807
0.537725482564343,-0.224099938057252
0.518865647362871,-0.223608617313278
0.54366478962698,-0.223680505202453
0.608616872471903,-0.246337942236484
0.564669407838052,-0.198993786191221
0.563863806362889,-0.221628572130475
0.571372410499917,-0.229152630001774
0.575791982293194,-0.230418387378181
0.581931560025927,-0.236950905517752
0.605824151215969,-0.242117694018126
0.599601339053611,-0.21015083590368
0.59815861285044,-0.24301405174884
