-0.7496632996633,-0.68199218627478
-0.840673811480406,-0.805490205824952
-0.749100357936322,-0.677953111540013
-0.748821315898827,-0.681564269167542
-0.838679207057825,-0.776557799636267
-0.747237707652481,-0.680942187715345
-0.746108513931652,-0.680579629009229
-0.754060426598791,-0.661619584056917
-0.743125753378333,-0.679832485701683
-0.629956993066921,-0.562192122005531
-0.64444592811225,-0.589096410579648
-0.72198321756007,-0.67820630503915
-0.720527211621799,-0.715718868464699
-0.714453768167632,-0.695682695174891
-0.698559979116975,-0.636240835006192
-0.704444030086344,-0.682303692195391
-0.705725553093475,-0.689199630134661
-0.69989937924834,-0.658210518720427
-0.671611966906969,-0.671684552312084
-0.706482346977121,-0.680202351077297
-0.7012378297715,-0.680987139318512
-0.678329094167664,-0.669036117363451
-0.54304669446398,-0.541003592039391
-0.694987611955433,-0.692496536316259
-0.664483127137895,-0.683077894120891
-0.773530047737279,-0.820067206284246
-0.646487681000229,-0.695781732093826
-0.650711166814164,-0.666775550601748
-0.629709178148845,-0.695662400274197
-0.638037592318989,-0.696860953914731
-0.635462115754478,-0.660981852261898
-0.630125310845123,-0.724418634435472
-0.612128029282224,-0.681866480690272
-0.580339830260565,-0.717985633970907
-0.714451698386576,-0.827427770989697
-0.57947833905923,-0.717509427621341
-0.555489191588903,-0.714474270704271
-0.547210292231619,-0.734044331674462
-0.540482785524593,-0.754153269242138
-0.549571464666686,-0.742872066523508
-0.50818766447504,-0.74474787744365
-0.521622886898427,-0.706957457390758
-0.509713156690557,-0.747416853553452
-0.480188758656044,-0.771493602187431
-0.481161395511419,-0.764933429489874
-0.453977664510834,-0.76975652684284
-0.423328009008591,-0.783168929437239
-0.439320767637279,-0.768066269606767
-0.398937210858818,-0.802683344680444
-0.288284946628317,-0.706348774879059
-0.379784334732337,-0.802599425590506
-0.364176472249424,-0.809538821634733
-0.348338184235703,-0.816570880948245
-0.360080175268228,-0.784009628471303
-0.316018476795335,-0.83085483899083
-0.309071818821802,-0.817739641579089
-0.295128929359291,-0.837629195907841
-0.272245782713848,-0.8822403066201
-0.254695263653909,-0.833380882631886
-0.203480374860285,-0.861772552863673
-0.205952305360006,-0.865870935457496
-0.185221151433636,-0.899526645118643
-0.157332499599658,-0.929478417455183
-0.175873797377064,-0.904962932674002
-0.131858007805158,-0.925740586983547
-0.121426471749496,-0.909562572713962
-0.109668963026627,-0.915891118059582
-0.0919723404454715,-0.922358775997528
-0.050472038611839,-0.888751381243101
-0.0344640446631127,-0.931171180980767
-0.0580035257702729,-0.952825519582381
-0.0212528247000665,-0.946250546833069
-0.00366397399926928,-0.95163864443288
0.0038107483385121,-0.944568182854051
0.0313017692160034,-0.961589468972668
0.0916677842423467,-0.976594936736547
0.0830110471783319,-1.00195336701467
0.21786783339232,-0.892318690629761
0.0929139086507356,-0.93385062398311
0.116817250898236,-0.980869129413185
0.245755919915482,-0.893966954469822
0.149977934404269,-0.98601089098529
0.163847528533924,-1.01218384949419
0.201924964714697,-1.00923832479618
0.198280393443841,-0.990612908160096
0.207569203798421,-0.992197599158183
0.229386903107495,-0.991461325468978
0.244579087446871,-0.991186190389319
0.258346972585604,-0.992619358435767
0.27760416936011,-0.970037643337787
0.261562757845773,-1.00086701205005
0.320294820008575,-1.01336518040331
0.331201620845095,-1.00641442663346
0.349228811347418,-0.955183153644055
0.33930381576341,-0.979603794293658
0.356234726655498,-0.971077626053688
0.354885134202362,-0.984941762123384
0.381126831367901,-0.960862291390925
0.424756898472127,-0.946019047437993
0.296989192050844,-1.06449532627295
0.416015350042048,-0.941557841666877
0.420972196436112,-0.89470067150779
0.451077594241636,-0.918987861546557
0.435282039139088,-0.906534529213674
0.476893994769581,-0.947120694563323
0.453527867239228,-0.934102270508598
0.46736167161828,-0.866635778901276
0.485601007471461,-0.878180147712598
0.527549090774793,-0.860080077196364
0.49573997958654,-0.829135577239835
0.606699441857933,-0.728961669658708
0.550787895169082,-0.84846278800732
0.514501864412928,-0.850242288417169
0.538687332407846,-0.813666965609064
0.53862235624923,-0.790813074904841
0.550427232600696,-0.764367505712709
0.417157784666555,-0.882376573573984
0.556503577905755,-0.746903664760684
0.576973916115277,-0.736341662038597
0.556034981735157,-0.707458035465844
0.607965045661929,-0.689799207713426
0.538389531886084,-0.741710895819228
0.684002478233683,-0.558010295542931
0.56221219496829,-0.642824066263991
0.588040792009302,-0.632300255197286
0.584526744433513,-0.616036976710592
0.715518272737903,-0.516653771215475
0.626155454455618,-0.588282325799047
0.61017742363849,-0.585201144181729
0.640444044489384,-0.559254003508248
0.60535117983764,-0.524310622674487
0.584048621628196,-0.53467442963024
0.609490474966075,-0.487111988752183
0.611298598869442,-0.468381848661968
0.627562077871915,-0.455558752973757
0.522429841394185,-0.545133876219527
0.615798200618337,-0.411923891154794
0.621770625794534,-0.408305355743008
0.639691220907753,-0.366574837073653
0.619123620831195,-0.355510883715436
0.620018137833231,-0.336814656014601
0.620822172163211,-0.318206899708195
0.62154542685351,-0.299707872931686
0.622197440928953,-0.281337516112648
0.62278756535591,-0.263115412767166
0.623324939497057,-0.245060751109943
0.635563776840774,-0.260065141810209
0.624276799046971,-0.209528305241675
0.624708301390244,-0.192086588508908
0.625121044598853,-0.174884378657546
0.616152580007648,-0.148988798339046
0.634360481960292,-0.138532267452675
0.640571309844832,-0.128466543064279
0.507193252600483,-0.220006789725184
0.649297101789918,-0.101106973143681
0.65101561931975,-0.0469267534007612
0.590047441300802,-0.0480152392772006
0.628601840796976,-0.0477551579126799
0.629150082781963,-0.0333801634422918
0.618021008967399,-3.32361687058885e-05
0.601442101089312,-0.0132903218246964
0.631057438437946,0.00745375705386625
0.519889089092151,-0.0821309981045561
0.632578143567445,0.0326832742951435
0.639501836312831,0.0585283023445988
0.634317191319921,0.0562560828345468
0.757736888416398,0.189848006234765
0.640363586255493,0.0847286066025325
0.637348731585125,0.0884307760799254
0.630293743145038,0.0647051411575542
0.639647361540842,0.107728828260481
0.640875765194349,0.116730297445262
0.64215384889684,0.125301227024342
0.643478703822156,0.133443586332855
0.492064208348937,0.0941601485260121
0.648214768995723,0.159061963832047
0.541671177746224,0.0483379673616777
0.549070078521456,0.0430015751825979
0.614466099200235,0.195353060615424
0.644524962456183,0.191648366183554
0.653716794172858,0.178783974610534
0.655253963300929,0.18366961539658
0.656790747175983,0.188181578310579
0.658319799277574,0.19232974856195
0.670356835620773,0.173030271137892
0.644557329963875,0.226739929406483
0.675760340645989,0.223036159338135
0.668789827215135,0.233405972925134
0.782083259736364,0.324214685716655
0.677988273935674,0.223691972518839
0.668117694016988,0.212144325440247
0.788512559341242,0.322170506110156
0.635492403798864,0.165911678270434
0.68203409791022,0.190618790207309
0.672201621607665,0.217386115090508
0.654057296715005,0.204905462184525
0.776575254526324,0.328677080250245
0.674054832220464,0.219143973669834
0.661409930546749,0.241575382065106
0.5713591083639,0.12807415849139
0.674556830831145,0.219523032662218
0.692226160556493,0.196382874052858
0.651045959722958,0.220585650217539
0.658136736858732,0.237781423387674
0.662692723025481,0.210233123599065
0.672502542242974,0.215690676498899
0.689923015304926,0.213121934004423
0.693108755466198,0.210543311402951
0.666618595646482,0.206304654311012
0.740611587579333,0.334586165606299
0.66285671829409,0.216564234038485
0.645293223080422,0.258352309426401
0.5461417722349,0.100763740285565
0.62902975136539,0.199264469873303
0.650867569954453,0.216095958342762
0.660869322680242,0.211617831104365
0.672006905689915,0.203017378517173
0.739467107180547,0.322785410662907
0.662732836347474,0.230523794464968
0.520493959541091,0.119337420461801
0.631141220446376,0.227685345658769
0.617637207710914,0.220039133819237
0.62317742655976,0.209700302176055
0.619245867984293,0.21968010237426
0.613566628234712,0.208908561031522
0.570449190055838,0.234473253429491
0.615201498163508,0.247630538054459
0.58136855255117,0.247862334718935
0.583768723399252,0.245813647483952
0.558576698501282,0.235804905318142
0.586854925608349,0.250576985148064
0.518682064323591,0.239819610472047
0.5301275669359,0.259638222476636
0.520261720599599,0.249101783018174
0.523856765145862,0.230349861496499
0.493809097389,0.278677800321585
0.487723188941266,0.261526281559479
0.476169406710596,0.266125357262772
0.452653297860919,0.313178440071071
0.467737844604728,0.273837819755072
0.463810159773838,0.243364383031697
0.452923959562945,0.281443895861508
0.413318822110144,0.292350664055077
0.484116093167429,0.390046436881745
0.295347590680674,0.177843553354708
0.385567244871165,0.321838727169553
0.390454241319787,0.311778595107672
0.342636900834647,0.323290318926373
0.242525870990051,0.239302691003633
0.443369548680636,0.441249444064265
0.328921589890152,0.327935715327372
0.30373851802576,0.359016352297149
0.265252173335819,0.357661648610576
0.245617351133717,0.379349771112728
0.240407408526422,0.385607860022261
0.24390924167033,0.386647313376025
0.185906210301085,0.40450536256263
0.163854640188916,0.390300780349946
0.0684433200882711,0.316879270637433
0.236614560186865,0.486553721376011
0.0387707349468286,0.321998365453638
0.131079302600969,0.433004884697722
0.094064947244178,0.464260790792464
0.0556502928292286,0.448821968446606
0.0600526343696099,0.471505859312151
0.0434253462776924,0.450140076887188
0.0221441300575594,0.427401881329766
-0.00844401778197695,0.439443250392748
-0.0237355139740729,0.453982930059266
-0.0463939438301268,0.48513370990028
-0.0229242911803162,0.473770659958518
-0.0575656398850778,0.48639249844098
-0.0818487153764507,0.472790646124575
-0.0786994457796344,0.501648995716512
-0.115072708193249,0.50143717486851
-0.132368191138778,0.50580757542057
-0.168793500721178,0.50304401232145
-0.153842600732306,0.509130004894081
-0.190416997971513,0.544468126903422
-0.200256616006336,0.519846966329655
-0.186456396251062,0.531068999370408
-0.233238702931266,0.524588470054496
-0.35449376170456,0.412782699112402
-0.260557624515874,0.564922296452911
-0.2812281927889,0.528541026242808
-0.295883320936455,0.536643251875969
-0.312098326339576,0.52892756734975
-0.427672019757671,0.440101723958292
-0.341333201761205,0.527917737899831
-0.348817422455843,0.501377129147557
-0.355335721148898,0.528442976102707
-0.384750746066023,0.521437958947015
-0.390022472096689,0.557153892711012
-0.326952386495884,0.554693417136979
-0.427616500800872,0.523340870814374
-0.437661909533991,0.506266843404274
-0.467769929008488,0.501897105130147
-0.567630227904234,0.38506718880326
-0.508274330293572,0.509881239663387
-0.486497954904424,0.486938349136277
-0.499011907114847,0.465152030149095
-0.408230023967672,0.558627648362313
-0.479071837754592,0.427564124450927
-0.416800564584714,0.556048196067168
-0.517272792858251,0.439449327393104
-0.572446377062564,0.422342082467914
-0.562551129552068,0.443472826853693
-0.565015951805231,0.410245707731731
-0.568099798100197,0.423475347650865
-0.64088138469639,0.284617929422676
-0.579824003501768,0.363700461299654
-0.460584367392841,0.459136224533332
-0.603703106186344,0.348936753287536
-0.613577721518053,0.306600272582015
-0.617923079455457,0.308371306735313
-0.64266295365068,0.35901054499334
-0.648765085240838,0.318311906457935
-0.634300515581067,0.276794799058482
-0.544728069182565,0.354274369121668
-0.647007478526106,0.245060135473922
-0.649045413707787,0.229046788010636
-0.661728063437989,0.241547650018436
-0.550663858147672,0.305379015564733
-0.658783622807571,0.201384112065131
-0.551067778935387,0.254275015738443
-0.66621967994899,0.108073239852172
-0.671306542126266,0.1256726641359
-0.668065882584055,0.121442167317513
-0.685348114677058,0.0941695307892845
-0.697601556701693,0.071407012345104
-0.615570563490518,0.150478262869128
-0.665920361666254,0.031288977588034
-0.661907355783212,0.0287896743903982
-0.690362625860956,0.0131093086315035
-0.706781960006433,-0.025246228207138
-0.684159141626521,-0.0598024622189019
-0.571274333907896,0.0393664052040707
-0.673823542953824,-0.0791120738551395
-0.693723535390384,-0.0975697621835981
-0.659524875610414,-0.129957928790529
-0.654280320046966,-0.149533508379457
-0.696277471730333,-0.153512987852554
-0.696963924930724,-0.171950150806522
-0.682924610639911,-0.159348143418566
-0.784862240122674,-0.291699616721332
-0.714548812944246,-0.275628880467979
-0.592703686197808,-0.153586475475277
-0.701027337309052,-0.267917532880058
-0.682342228275603,-0.259897149090311
-0.791130646940851,-0.360359824468759
-0.695737121364775,-0.336279807521231
-0.685083144423962,-0.30403315831287
-0.701610863912197,-0.345657625080726
-0.68372076158009,-0.376358865789929
-0.70711722861351,-0.373802735303751
-0.702932226309565,-0.392456138821487
-0.693927408324456,-0.420484185489166
-0.68420472148384,-0.400310814133013
-0.734734174319421,-0.427028935786597
-0.673698071910838,-0.431112839956095
-0.724411756325822,-0.501408054010991
-0.686629369242535,-0.478501467879312
-0.800411114198986,-0.615441725881082
-0.709101129043899,-0.498756564603156
-0.674778146794746,-0.507168541605679
-0.714718314700011,-0.534460489305283
-0.71085359515091,-0.535280894463622
-0.749447537146854,-0.562486808657833
-0.712987216038468,-0.555872738679753
-0.621808017727504,-0.455434786045189
-0.599617934862847,-0.464749041607735
-0.675017921998748,-0.601888386672166
-0.717894806147822,-0.591881349747158
-0.623766347635091,-0.501623771053325
-0.724617907697528,-0.605964922179275
-0.722056132218665,-0.614400718609085
-0.723447868146074,-0.580741945183578
-0.586564684136223,-0.518866358912936
-0.702812293712461,-0.621588537131635
-0.748781308745683,-0.639976771288308
-0.830815986209567,-0.752313275306953
-0.715937295793378,-0.645814706750349
-0.736786831332025,-0.633021199414729
-0.736796330495547,-0.644977639373484
-0.750245567150542,-0.652883463609337
-0.757605788395418,-0.646210795715213
-0.738580356746416,-0.666597102334349
-0.739974354296325,-0.669247812904973
-0.741314199262251,-0.671600278864911
-0.742590521371276,-0.673668195212318
-0.743793718431764,-0.675465718778189
-0.761611465343743,-0.704734221314781
-0.700053639683815,-0.665201876486794
-0.748640899919854,-0.674701365675859
-0.747676404065084,-0.680249131640079
-0.748363472690324,-0.680920622475901
-0.780262041547196,-0.659083092842233
-0.701232015978443,-0.67305201564173
-0.744179949556811,-0.676840345531827
-0.869221918183296,-0.801665601832072
