-0.406104456104983,-0.239104545767795
-0.38409260840562,-0.200625955384378
-0.362185991863392,-0.163976141546462
-0.448833933664869,-0.244924510351623
-0.318755121112419,-0.095874498258624
-0.297264590462578,-0.0642894109558907
-0.27594665681327,-0.0342656898123401
-0.254818392236163,-0.00574569156329396
-0.11935646606763,0.133555176606497
-0.213199218261936,0.0469992719919644
-0.192742413741972,0.0713259592071278
-0.172543425643676,0.0943528800473877
-0.152619099289186,0.116125657854196
-0.132986145607359,0.13668819641644
-0.113661114302793,0.156082856637332
-0.0946603680685075,0.174350615757281
-0.0760000577761236,0.191531210944091
-0.150963979345052,0.0977106029523531
-0.0397641469374141,0.222784422527461
-0.128683522197818,0.138654386356338
-0.00507746606857545,0.250140204570009
0.0116474395966812,0.262446030740436
0.0279407311041392,0.27388351191154
0.0437883628479517,0.284486705317204
0.0591766695959939,0.29428917210414
0.0740923842386181,0.303324034116272
0.0885226548558951,0.3116240249605
0.102455061112547,0.319221535864276
0.115877629987899,0.326148656785924
0.128778850846575,0.332437213194913
0.141147689854324,0.338118798900615
0.152973603742226,0.343224805273808
0.164246552921605,0.347786447174848
0.174957013951183,0.351834785875448
0.185095991357452,0.355400749237142
0.304178383890229,0.458044226308258
0.209300638535821,0.364579058305204
0.210413233370955,0.383638091987949
0.233730722213741,0.369467060275243
0.226942093851062,0.367070115588847
0.215195042098197,0.401469454900678
0.210600184677364,0.350979973817512
0.244737425293594,0.370242312995557
0.249420387620109,0.370843764391397
0.25347308805738,0.371267693346887
0.245889384733367,0.423110424515878
0.259677952177874,0.371703821246587
0.261826792151934,0.371776359005383
0.263338729008362,0.371792054228995
0.285268267727707,0.339964062747751
0.273381682405722,0.380187530725026
0.168632274179021,0.274102284225239
0.257989581499275,0.393481118891213
0.242810579522004,0.352295378246968
0.252303502872822,0.348303791602619
0.154770914929697,0.265574394734923
0.279602906102973,0.402116635867859
0.26019091754611,0.363862994972898
0.279823885247275,0.394361979005925
0.238356538414759,0.37679907959215
0.259878914392667,0.391718873271895
0.338371711697361,0.474850665713362
0.218720503951462,0.382843375309134
0.181380208850334,0.411209938652934
0.264211389488288,0.502110402510857
0.202746881522029,0.370963103895391
0.187280749790982,0.401527283112991
0.174674473022339,0.401149373749879
0.0691688236007587,0.296718664362821
0.153331140859201,0.412048995764986
0.249561631732784,0.521922942198655
0.0375313908311483,0.30698877656139
0.117624039289782,0.432981159033527
0.104790754149651,0.441301757754333
0.0915158324448614,0.450344920974857
0.0778142975615086,0.460141547706804
0.0637016433290858,0.470722805522052
-0.0555389863533153,0.382297614461656
0.0343072327454321,0.494365493695684
0.0190587081538437,0.507491018924294
0.00346550302097387,0.521529478510798
0.0957442029358887,0.629912333654463
-0.0286838967275035,0.55247889035945
-0.0452035862558769,0.569458302538334
-0.0619949712339389,0.587487739845291
-0.0790388763850584,0.606603447994061
-0.2068784335793,0.523626972382903
-0.113805823461288,0.648243750095868
-0.131488827806434,0.670846303695164
-0.149344300064004,0.694691331050158
-0.167351446448402,0.719821400056615
-0.185489181999711,0.746280825789853
-0.203736139987227,0.774115873658877
-0.222070680454194,0.803374985065058
-0.240470897755817,0.834109028335771
-0.258914626923626,0.866371578107304
-0.277379448667171,0.900219226803114
-0.295842692798126,0.935711932406173
-0.314281439831555,0.972913407373171
-0.33267252048338,1.01189155430305
