-0.0585400975483947,-0.965690991162692
-0.0585492789770279,-0.965443194705254
-0.0585716157118021,-0.964699769620333
-0.0585992934416086,-0.963460938970412
-0.0586245016224564,-0.961727294540135
-0.0586394431542178,-0.959499796407299
-0.0586363440413135,-0.956779772178931
-0.0586074630272771,-0.953568915893162
-0.0585451011931676,-0.949869286587933
-0.0584416115098314,-0.945683306537895
-0.0582894083340665,-0.941013759161174
-0.0580809768387947,-0.935863786598006
-0.0578088823674176,-0.930236886963565
-0.0574657797026047,-0.924136911277603
-0.0570444222398531,-0.91756806007386
-0.0565376710562505,-0.910534879692497
-0.0559385038649802,-0.903042258259117
-0.0552400238462233,-0.895095421354233
-0.0544354683452347,-0.886699927377363
-0.0535182174285076,-0.877861662610203
-0.0524818022890791,-0.868586835983643
-0.051319913492187,-0.858881973553649
-0.0500264090526432,-0.848753912691351
-0.0485953223354622,-0.838209795992927
-0.0470208697714615,-0.827257064915145
-0.0452974583797321,-0.815903453142717
-0.0434196930890789,-0.804156979693828
-0.0413823838507268,-0.792025941770521
-0.0391805525348024,-0.779518907360797
-0.0368094396033165,-0.766644707599585
-0.0342645105525997,-0.753412428895932
-0.0315414621183737,-0.739831404834007
-0.0286362282368796,-0.725911207855731
-0.0255449857557337,-0.711661640733029
-0.022264159888426,-0.697092727837953
-0.0187904294066448,-0.682214706219059
-0.0151207315648641,-0.667038016492658
-0.0112522667519072,-0.6515732935577
-0.00718250286447412,-0.635831357143248
-0.00290917939789676,-0.619823202197637
0.00156968875032668,-0.603559989128573
0.00625580776837613,-0.587053033903578
0.0111506017132012,-0.570313798020291
0.016255209592427,-0.553353878356301
0.0215704827483429,-0.536184996908253
0.0270969825469362,-0.518818990430111
0.0328349783746282,-0.501267799980544
0.038784445945057,-0.483543460389464
0.0449450659179394,-0.465658089653866
0.051316222831733,-0.447623878273134
0.0578970043514964,-0.429453078534064
0.0646862008330352,-0.411157993755889
0.071682305204096,-0.392750967505637
0.0788835131630537,-0.374244372794142
0.0862877236952179,-0.355650601263092
0.0938925399065598,-0.336982052373465
0.101695270174344,-0.318251122605715
0.109692929613829,-0.299470194682033
0.117882241859876,-0.280651626821023
0.126259641161999,-0.261807742035044
0.134821274791055,-0.242950817480464
0.143563005755476,-0.224093073870989
0.152480415824613,-0.20524666496418
0.161568808856478,-0.186423667131183
0.170823214426821,-0.167636069019615
0.180238391756219,-0.148895761319455
0.189808833931524,-0.130214526641668
0.199528772417713,-0.111604029519212
0.209392181855924,-0.0930758065398869
0.219392785143125,-0.0746412566204351
0.229524058788616,-0.0563116314310774
0.239779238542261,-0.0380980259795722
0.250151325289071,-0.0200113693637012
0.260633091204511,-0.00206241570091237
0.271217086164593,0.0157382647563139
0.281895644404615,0.0333802943110134
0.292660891420107,0.0508534963100212
0.303504751103309,0.0681479034220196
0.314418953108286,0.0852537656975897
0.325395040437518,0.102161558403728
0.336424377242606,0.118861989625509
0.347498156831499,0.135346007627814
0.358607409874431,0.151604807970285
0.369743012800573,0.167629840368905
0.380895696377182,0.183412815297869
0.392056054462871,0.198945710325657
0.403214552926411,0.2142207761795
0.41436153872233,0.229230542532681
0.425487249114398,0.243967823509423
0.436581821037945,0.258425722902348
0.447635300591792,0.272597639097832
0.458637652650462,0.28647726970483
0.469578770587205,0.30005861588306
0.480448486098234,0.313335986366729
0.491236579118507,0.326304001180296
0.501932787819221,0.338957595043048
0.512526818677181,0.351292020459608
0.523008356606049,0.363302850493781
0.533367075139465,0.374985981223464
0.54359264665594,0.386337633874677
0.55367475263539,0.397354356633059
0.563603093937133,0.408033026131538
0.573367401089145,0.418370848613151
0.582957444578351,0.428365360768372
0.592363045131715,0.43801443024656
0.601574083977907,0.447316255841538
0.610580513079322,0.456269367351566
0.619372365324249,0.464872625114342
0.62793976466904,0.473125219217961
0.636272936220141,0.4810266683891
0.644362216245923,0.488576818559989
0.652198062108298,0.495775841116086
0.659771062104194,0.502624230826645
0.66707194520702,0.509122803460718
0.67409159069837,0.515272693091414
0.680821037680305,0.521075349091556
0.687251494458645,0.526532532824191
0.693374347787874,0.531646314031692
0.699181171968318,0.5364190669275
0.704663737786481,0.540853465994835
0.709814021289477,0.544952481497012
0.714624212384755,0.548719374704265
0.719086723256382,0.552157692842256
0.723194196589405,0.555271263767754
0.726939513593942,0.558064190377188
0.730315801820869,0.560540844754082
0.733316442761166,0.562705862061604
0.735935079221189,0.564564134186744
0.738165622466348,0.566120803142845
0.740002259125905,0.567381254237465
0.741439457851823,0.568351109012796
0.742471975724844,0.569036217966031
0.74309486440121,0.569442653057362
0.7433034759937,0.569576700013424
0.743093468680907,0.569444850434266
0.742460812038942,0.569053793712053
0.741401792090027,0.568410408769961
0.739913016062702,0.567521755629825
0.737991416858664,0.56639506681733
0.735634257221536,0.56503773861365
0.73283913360314,0.563457322162609
0.729603979723172,0.56166151444256
0.725927069818437,0.559658149112339
0.721807021578138,0.557455187240728
0.717242798762006,0.555060707928998
0.712233713498347,0.552482898836219
0.706779428259429,0.549730046617072
0.700879957511932,0.546810527282018
0.694535669040473,0.543732796489734
0.687747284942591,0.540505379781799
0.680515882293851,0.537136862769636
0.672842893482068,0.533635881283811
0.664730106209971,0.530011111495762
0.656179663165959,0.526271260022094
0.647194061362905,0.522425054021578
0.637776151145309,0.518481231294982
0.627929134865414,0.514448530397867
0.617656565229236,0.510335680776454
0.606962343313742,0.506151392936649
0.595850716256798,0.501904348656255
0.584326274621766,0.497603191250379
0.572393949438977,0.493256515899956
0.560059008926629,0.488872860053258
0.547327054893951,0.484460693910181
0.534204018829804,0.480028410998995
0.520696157680186,0.475584318855165
0.506810049318421,0.471136629811745
0.492552587712109,0.466693451910688
0.477930977791202,0.462262779944364
0.462952730021894,0.457852486636358
0.447625654691254,0.453470313970546
0.431957855907863,0.449123864677242
0.415957725323958,0.444820593885081
0.399633935584878,0.440567800947111
0.382995433511875,0.436372621449402
0.366051433024596,0.432242019410267
0.348811407809825,0.42818277967804
0.331285083743293,0.424201500535092
0.313482431071641,0.420304586515613
0.29541365636181,0.416498241444419
0.277089194225418,0.412788461703863
0.258519698825847,0.409181029735642
0.239716035176018,0.405681507784118
0.220689270235022,0.402295231887453
0.201450663811964,0.399027306122663
0.182011659285588,0.395882597110402
0.162383874148411,0.392865728785047
0.142579090384275,0.389981077435344
0.122609244688396,0.387232767020665
0.10248641853913,0.384624664767568
0.082222828130834,0.382160377051137
0.0618308141773343,0.379843245565232
0.0413228315956284,0.377676343785528
0.0207114390795876,0.375662473728896
9.28857351849277e-06,0.373804163012395
-0.0207708853444561,0.372103662214827
-0.0416162761591438,0.370562942543501
-0.062514016185025,0.369183693808558
-0.0834511873928011,0.367967322706872
-0.104414832285475,0.366914951417243
-0.125391964813674,0.366027416508276
-0.146369581319858,0.365305268160032
-0.167334671501035,0.364748769700192
-0.188274229379612,0.3643578974552
-0.209175264271944,0.36413234091648
-0.23002481174422,0.364071503221538
-0.250809944545264,0.364174501949437
-0.271517783505913,0.364440170229781
-0.29213550839461,0.364867058164082
-0.312650368718954,0.365453434558009
-0.333049694462936,0.366197288962737
-0.353320906749706,0.367096334023297
-0.373451528419758,0.368148008131498
-0.393429194514519,0.369349478380709
-0.413241662655402,0.370697643819448
-0.432876823308507,0.372189139000461
-0.452322709925251,0.373820337821646
-0.471567508949332,0.375587357654877
-0.490599569680558,0.377486063758521
-0.509407413986236,0.379512073969115
-0.527979745850919,0.381660763667414
-0.546305460755521,0.383927271013723
-0.564373654876927,0.386306502447166
-0.582173634099444,0.388793138443267
-0.599694922829584,0.391381639523956
-0.616927272605892,0.394066252513862
-0.633860670495722,0.396841017036489
-0.65048534727106,0.399699772243651
-0.666791785355731,0.402636163771273
-0.682770726536536,0.405643650914463
-0.698413179431102,0.408715514014506
-0.71371042670545,0.411844862050255
-0.728654032034575,0.415024640426131
-0.743235846799509,0.418247638948791
-0.757448016514681,0.421506499984303
-0.771282986979578,0.424793726787493
-0.784733510149034,0.428101691994932
-0.797792649716708,0.4314226462729
-0.810453786406627,0.434748727111459
-0.822710622967934,0.438071967755654
-0.834557188868267,0.441384306264692
-0.845987844681519,0.444677594689837
-0.856997286165987,0.447943608361616
-0.867580548029255,0.451174055276824
-0.87773300737644,0.454360585575732
-0.887450386838748,0.457494801099758
-0.896728757379607,0.460568265019828
-0.905564540775935,0.463572511525551
-0.913954511772447,0.466499055565256
-0.921895799907198,0.469339402626919
-0.929385891006904,0.472085058549926
-0.936422628350882,0.474727539357598
-0.943004213502793,0.477258381100379
-0.949129206809683,0.479669149699577
-0.954796527568146,0.481951450781519
-0.960005453857752,0.484096939492016
-0.96475562204223,0.486097330281033
-0.969047025939174,0.48794440664747
-0.972880015659421,0.48963003083404
-0.976255296117517,0.491146153462212
-0.979173925215044,0.492484823097298
-0.981637311698889,0.493638195733796
-0.983647212696837,0.494598544191183
-0.985205730933215,0.49535826741045
-0.986315311627587,0.49590989964173
-0.986978739079851,0.496246119513527
-0.987199132945347,0.496359758974116
-0.98697994420392,0.496243812095836
-0.986324950827181,0.495891443733128
-0.98523825314846,0.495295998025299
-0.983724268940287,0.494451006735158
-0.981787728204487,0.493350197414817
-0.979433667680263,0.491987501390128
-0.976667425075904,0.490357061555401
-0.973494633030046,0.488453239970221
-0.969921212808646,0.486270625250404
-0.965953367744113,0.483804039745294
-0.961597576423253,0.481048546493856
-0.95686058563097,0.477999455952193
-0.951749403056866,0.474652332485378
-0.94627128977212,0.47100300061669
-0.940433752484264,0.467047551027611
-0.934244535577652,0.462782346302167
-0.927711612947669,0.458204026409445
-0.920843179636874,0.453309513918399
-0.913647643281505,0.448096018939289
-0.906133615376921,0.442561043786397
-0.898309902370759,0.436702387356919
-0.890185496592707,0.430518149221217
-0.881769567029993,0.424006733419908
-0.873071449957816,0.417166851963539
-0.864100639434051,0.409997528030915
-0.854866777667761,0.402498098862421
-0.845379645271081,0.39466821834499
-0.835649151404215,0.386507859285689
-0.825685323823353,0.378017315371174
-0.815498298841392,0.369197202810598
-0.805098311211471,0.36004846165986
-0.794495683943347,0.350572356825413
-0.783700818062729,0.340770478746132
-0.772724182323724,0.330644743752112
-0.761576302884599,0.320197394099543
-0.750267752957071,0.309430997681147
-0.738809142439389,0.298348447412002
-0.727211107543431,0.286952960290854
-0.715484300426102,0.275248076137404
-0.703639378835246,0.26323765600631
-0.691686995780292,0.250925880279024
-0.679637789237838,0.238317246434872
-0.667502371902293,0.225416566503109
-0.655291320991678,0.212228964198008
-0.643015168118618,0.198759871739346
-0.63068438923648,0.185015026360971
-0.618309394670517,0.171000466510448
-0.605900519243828,0.156722527743072
-0.593468012507792,0.142187838313863
-0.581022029086559,0.127403314471458
-0.56857261914504,0.112376155458074
-0.556129718989725,0.0971138382200823
-0.543703141811506,0.0816241118339426
-0.531302568579535,0.065914991652595
-0.518937539094998,0.0499947531776481
-0.506617443213516,0.0338719256629941
-0.494351512244705,0.0175552854557431
-0.482148810537252,0.00105384908063837
-0.47001822725767,-0.0156231339256355
-0.457968468370685,-0.0324661884235832
-0.446008048829036,-0.0494656213165587
-0.434145284980198,-0.0666115294257993
-0.422388287197376,-0.0838938075874701
-0.410744952741837,-0.101302156964095
-0.39922295886346,-0.118826093562569
-0.387829756146091,-0.136454956950727
-0.376572562104081,-0.154177919164217
-0.365458355036108,-0.171983993795297
-0.354493868142131,-0.189862045254909
-0.343685583909046,-0.207800798199275
-0.333039728770358,-0.22578884711206
-0.322562268044893,-0.24381466603299
-0.312258901159289,-0.261866618423676
-0.302135057158722,-0.279932967161247
-0.292195890510048,-0.298001884650247
-0.282446277201196,-0.316061463043183
-0.272890811140416,-0.33409972455991
-0.263533800858623,-0.352104631896038
-0.254379266517801,-0.370064098710379
-0.245430937228129,-0.38796600018137
-0.236692248676139,-0.405798183622414
-0.228166341065967,-0.423548479145897
-0.219856057375363,-0.441204710365703
-0.211763941927892,-0.458754705127898
-0.203892239282355,-0.47618630625933
-0.196242893440218,-0.493487382323766
-0.188817547371453,-0.510645838375247
-0.181617542858919,-0.527649626698298
-0.17464392066106,-0.544486757524666
-0.16789742099239,-0.561145309716251
-0.161378484320921,-0.577613441403939
-0.155087252481354,-0.593879400572074
-0.149023570102555,-0.60993153557837
-0.143186986347489,-0.625758305599099
-0.137576756963532,-0.641348290989473
-0.132191846640686,-0.656690203549223
-0.127030931674989,-0.67177289668344
-0.122092402934057,-0.686585375448872
-0.117374369121407,-0.701116806475961
-0.112874660335923,-0.715356527757002
-0.108590831922494,-0.729294058290993
-0.104520168609609,-0.742919107575796
-0.100659688929358,-0.756221584938456
-0.0970061499150486,-0.769191608694612
-0.0935560520713214,-0.781819515128149
-0.0903056446114296,-0.794095867282372
-0.0872509309560237,-0.806011463554186
-0.0843876744875627,-0.817557346082951
-0.0817114045541958,-0.828724808925868
-0.0792174227167095,-0.839505406011966
-0.0769008092319005,-0.84989095886697
-0.0747564297654884,-0.859873564101554
-0.0727789423274549,-0.869445600655699
-0.0709628044224768,-0.878599736792118
-0.0693022804078992,-0.887328936831964
-0.0677914490514891,-0.895626467626263
-0.0664242112810118,-0.90348590475677
-0.065194298117479,-0.91090113846025
-0.0640952787837299,-0.917866379270366
-0.063120568979836,-0.924376163371742
-0.0622634393166512,-0.930425357660936
-0.0615170238986719,-0.936009164509424
-0.0608743290472177,-0.941123126223939
-0.0603282421548103,-0.94576312919981
-0.05987154066149,-0.949925407763274
-0.0594969011436914,-0.953606547698968
-0.0591969085061869,-0.956803489459195
-0.0589640652675011,-0.959513531051792
-0.05879080092911,-0.961734330603801
-0.0586694814186511,-0.963463908598398
-0.0585924185972997,-0.964700649782913
-0.0585518798214011,-0.965443304746041
-0.0585400975483959,-0.965690991162692
