-0.532644628099173,0.0244230523724376
-0.532572209432906,0.0244535880267236
-0.532350844587036,0.0245362013329279
-0.531974410654753,0.0246574196966577
-0.531436850783244,0.0248038210514532
-0.530732189399129,0.0249620670699071
-0.529854547321531,0.0251189361532311
-0.528798156728617,0.0252613561248547
-0.527557375943744,0.0253764365543142
-0.526126704007769,0.0254515006385216
-0.524500795004479,0.025474116568502
-0.522674472106694,0.0254321283108419
-0.520642741311167,0.0253136857344117
-0.518400804831084,0.0251072740143913
-0.515944074115742,0.0248017422472537
-0.513268182467747,0.0243863312121305
-0.510368997229031,0.0238507002158986
-0.507242631507848,0.0231849529613846
-0.503885455419991,0.0223796623802686
-0.500294106818498,0.0214258943745966
-0.496465501487243,0.0203152304132522
-0.492396842775023,0.0190397889323067
-0.488085630647937,0.017592245490846
-0.483529670139174,0.0159658516366635
-0.478727079176639,0.0141544524390932
-0.473676295770224,0.0121525026492519
-0.468376084541945,0.00995508145102358
-0.462825542583626,0.00755790576928633
-0.457024104628274,0.00495734210510451
-0.450971547522839,0.00215041687091516
-0.444667993991579,-0.000865174797907042
-0.43811391568081,-0.00409106177530744
-0.431310135477444,-0.00752819123737569
-0.424257829095287,-0.0111768245289858
-0.416958525924727,-0.0150365346139755
-0.409414109143031,-0.0191062051150434
-0.401626815084159,-0.0233840309459783
-0.393599231868591,-0.0278675205352744
-0.385334297295344,-0.0325534996366137
-0.376835295999964,-0.0374381167181514
-0.368105855883913,-0.0425168499189944
-0.359149943822397,-0.0477845155577591
-0.349971860659259,-0.0532352781746142
-0.34057623549915,-0.0588626620847777
-0.330968019308763,-0.064659564418054
-0.321152477840417,-0.0706182696156613
-0.311135183892817,-0.0767304653523398
-0.300922008925233,-0.0829872598485321
-0.290519114042849,-0.0893792005343094
-0.27993294037234,-0.0958962940236939
-0.26917019884816,-0.10252802735508
-0.258237859431293,-0.109263390450622
-0.247143139783475,-0.116090899744724
-0.235893493421127,-0.122998622929131
-0.224496597374359,-0.129974204759638
-0.212960339377532,-0.137004893867023
-0.201292804618884,-0.144077570512566
-0.189502262077709,-0.151178775226405
-0.177597150478486,-0.158294738264976
-0.165586063892214,-0.165411409821943
-0.153477737015981,-0.172514490925343
-0.141281030162508,-0.179589464952118
-0.129004913992051,-0.18662162968979
-0.116658454019612,-0.193596129873844
-0.104250794930912,-0.20049799012826
-0.091791144740999,-0.207312148235766
-0.0792887588296904,-0.214023488663581
-0.06675292388836,-0.220616876269884
-0.0541929418127341,-0.227077190115786
-0.0416181135764988,-0.233389357307365
-0.0290377231205564,-0.239538386792195
-0.016461021292724,-0.245509403034957
-0.00389720987256397,-0.251287679496884
0.00864457428417299,-0.256858671844309
0.0211552749472647,-0.262208050812097
0.033625932026023,-0.267321734648543
0.0460476968621351,-0.272185921069217
0.0584118472683791,-0.276787118648325
0.0707098022808245,-0.28111217757739
0.0829331365927701,-0.285148319722462
0.095073594639377,-0.288883167912597
0.10712310430274,-0.292304774394077
0.119073790207984,-0.295401648386658
0.130917986581889,-0.298162782680138
0.142648249646511,-0.300577679211663
0.154257369521333,-0.302636373566441
0.165738381608524,-0.304329458346939
0.177084577437097,-0.305648105358116
0.188289514942919,-0.306584086558908
0.199347028162789,-0.307129793732903
0.210251236322137,-0.307278256833976
0.220996552297201,-0.30702316096562
0.231577690433964,-0.306358861955727
0.241989673707565,-0.305280400491698
0.252227840207337,-0.303783514783958
0.262287848934171,-0.301864651729229
0.272165684898397,-0.29952097654823
0.281857663507943,-0.296750380875882
0.291360434238128,-0.293551489285533
0.300670983576012,-0.289923664232177
0.309786637233868,-0.285867009403194
0.318705061627952,-0.281382371468635
0.327424264620384,-0.276471340226673
0.335942595523594,-0.271136247143374
0.344258744368417,-0.265380162289544
0.352371740438579,-0.259206889680948
0.360280950075916,-0.252620961031757
0.367986073762318,-0.245627627934606
0.375487142485976,-0.238232852484145
0.382784513401111,-0.23044329636442
0.389878864791924,-0.222266308423856
0.396771190353062,-0.213709910764934
0.403462792800402,-0.204782783379022
0.409955276827447,-0.195494247359979
0.416250541424068,-0.185854246733376
0.422350771575761,-0.175873328941217
0.428258429362942,-0.165562624025049
0.43397624448114,-0.154933822553222
0.439507204204232,-0.143999152340893
0.444854542814083,-0.132771354013999
0.45002173052117,-0.121263655471038
0.455012461901845,-0.109489745298912
0.459830643878992,-0.0974637452014395
0.464480383273852,-0.0852001815013072
0.468965973957687,-0.0727139557783166
0.473291883632892,-0.0600203147086807
0.477462740273944,-0.0471348191719047
0.481483318259326,-0.034073312693411
0.485358524226264,-0.0208518892925393
0.489093382680702,-0.0074868608068735
0.492693021395462,0.0060052762349973
0.496162656630044,0.019607874119173
0.499507578205839,0.0333041677566471
0.502733134470901,0.0470773087234087
0.505844717188613,0.0609103994553151
0.508847746384755,0.0747865275222805
0.511747655187574,0.0886887999061521
0.514549874695421,0.102600377206641
0.517259818906488,0.11650450769985
0.519882869744995,0.13038456117427
0.52242436221796,0.144224062469627
0.524889569736365,0.158006724644616
0.527283689634184,0.17171648170042
0.529611828918232,0.185337520787869
0.531878990281309,0.198854313827304
0.534090058410482,0.212251648471473
0.536249786621686,0.225514658343298
0.538362783851087,0.238628852481954
0.540433502032811,0.251580143932477
0.542466223891807,0.264354877416045
0.544465051179628,0.276939856020107
0.546433893379938,0.289322366849753
0.548376456909476,0.301490205584024
0.550296234839087,0.313431699883312
0.552196497158259,0.325135731596565
0.554080281605361,0.336591757719706
0.555950385084527,0.34778983005944
0.557809355688757,0.358720613559539
0.559659485347496,0.36937540324967
0.561502803115488,0.379746139779905
0.563341069118287,0.389825423507224
0.565175769168309,0.39960652710353
0.567008110063802,0.409083406658022
0.568839015581569,0.418250711250121
0.570669123172706,0.427103790972552
0.572498781369042,0.435638703387651
0.574328047906357,0.443852218403479
0.576156688568839,0.451741821559804
0.577984176757607,0.459305715717621
0.579809693784513,0.466542821149396
0.581632129890765,0.473452774030807
0.583450085988328,0.480035923338326
0.585261876120366,0.486293326160522
0.58706553063542,0.492226741434531
0.58885880006839,0.497838622122631
0.590639159719766,0.503132105847344
0.592403814923013,0.508111004006928
0.594149706988456,0.512779789396517
0.595873519810453,0.517143582363478
0.597571687123183,0.521208135528847
0.599240400388893,0.524979817109888
0.600875617301003,0.528465592881941
0.602473070883125,0.531673006820762
0.604028279163639,0.534610160469486
0.605536555404222,0.537285691077207
0.606993018859447,0.539708748558892
0.608392606043358,0.541888971328965
0.609730082477802,0.543836461063428
0.611000054896175,0.545561756447752
0.61219698387524,0.547075805970041
0.613315196866667,0.548389939821092
0.614348901599053,0.54951584096496
0.615292199820339,0.550465515445491
0.616139101349751,0.551251261995973
0.61688353840769,0.55188564102062
0.617519380191356,0.552381443017975
0.618040447663325,0.55275165651759
0.618440528519808,0.553009435602387
0.618713392304895,0.553168067090045
0.618852805636751,0.553240937447504
0.618852547511455,0.553241499513259
0.618706424650001,0.553183239102552
0.61840828685383,0.553079641570811
0.617952042334268,0.552944158410778
0.617331672981258,0.552790173958679
0.6165412495369,0.552630972284548
0.615574946639506,0.552479704341377
0.614427057704154,0.552349355447203
0.613092009606076,0.552252713173474
0.611564377133618,0.552202335712127
0.609838897178032,0.552210520792729
0.607910482627919,0.552289275219797
0.605774235936784,0.55245028509903
0.603425462332878,0.552704886819613
0.60085968264129,0.553064038858095
0.598072645689085,0.553538294467446
0.595060340265227,0.554137775312976
0.591819006607967,0.55487214611462
0.588345147393452,0.555750590352866
0.584635538200373,0.556781787093218
0.580687237426657,0.557973888981561
0.576497595635392,0.559334501460197
0.572064264308441,0.560870663251562
0.567385203987509,0.562588828153804
0.56245869178378,0.564494848189473
0.557283328238629,0.566593958145516
0.551858043519352,0.568890761539687
0.546182102935335,0.571389218045258
0.540255111761564,0.574092632402662
0.534077019357941,0.577003644843384
0.527648122574384,0.580124223047993
0.520969068433336,0.58345565565681
0.514040856082822,0.586998547348201
0.506864838014894,0.590752815495996
0.499442720545866,0.594717688413975
0.491776563556405,0.598891705191827
0.483868779491187,0.603272717123414
0.475722131619441,0.607857890724609
0.467339731559384,0.612643712334407
0.458725036071128,0.617625994289479
0.449881843124308,0.622799882658797
0.440814287248265,0.628159866521477
0.431526834174202,0.633699788767513
0.422024274780318,0.63941285839768
0.412311718352464,0.645291664295518
0.402394585174366,0.651328190441002
0.392278598462972,0.657513832532281
0.381969775665916,0.663839415978718
0.371474419139505,0.670295215225367
0.360799106227013,0.676870974366061
0.349950678758403,0.68355592899938
0.338936231993857,0.690338829278996
0.327763103034753,0.697207964107178
0.31643885872689,0.704151186417722
0.304971283081899,0.711155939492087
0.293368364243834,0.718209284250213
0.281638281028953,0.725297927455306
0.269789389067644,0.732408250769823
0.257830206578326,0.739526340597962
0.245769399803974,0.746638018648214
0.233615768142669,0.753728873147895
0.221378229004233,0.760784290640106
0.209065802425633,0.767789488292271
0.196687595478372,0.774729546644216
0.18425278650151,0.781589442722799
0.1717706091944,0.788354083449222
0.159250336603479,0.795008339264515
0.146701265037714,0.801537077898176
0.134132697947447,0.80792519820462
0.121553929801478,0.814157663991899
0.108974229997196,0.820219537767189
0.0964028268385144,0.826096014323702
0.083848891616219,0.831772454093991
0.0713215228250673,0.837234416195175
0.0588297305517224,0.842467691092223
0.0463824210671722,0.847458332806332
0.0339883816568689,0.852192690596383
0.021656265721258,0.856657440042654
0.00939457817878515,0.860839613463266
-0.00278833879722395,0.86472662959534
-0.014884319677145,0.868306322474419
-0.0268853890792613,0.871566969447551
-0.0387837748506259,0.874497318257274
-0.0505719206965643,0.877086613135867
-0.0622424983317998,0.879324619851379
-0.0737884191272653,0.881201649649299
-0.0852028452277671,0.882708582036156
-0.0964792001168685,0.883836886353945
-0.107611178606577,0.884578642096906
-0.11859275623071,0.884926557925027
-0.129418198022131,0.884873989331501
-0.140082066655439,0.884414954924365
-0.150579229938088,0.883544151285641
-0.160904867634367,0.882256966374437
-0.17105447760818,0.88054949144371
-0.181023881272036,0.878418531443713
-0.190809228331259,0.875861613888472
-0.200407000813942,0.872876996165095
-0.209814016378801,0.869463671269151
-0.219027430894668,0.865621371952871
-0.228044740286984,0.861350573276424
-0.236863781648298,0.856652493556118
-0.245482733611397,0.85152909370689
-0.253900115985334,0.845983074980049
-0.262114788656279,0.8400178751008
-0.270125949756726,0.83363766281362
-0.277933133108221,0.826847330847124
-0.285536204944416,0.819652487313537
-0.292935359922806,0.812059445561407
-0.300131116435131,0.804075212503602
-0.307124311227954,0.795707475446045
-0.313916093346465,0.78696458744596
-0.320507917416066,0.777855551231682
-0.32690153627776,0.768390001719276
-0.333098992994796,0.75857818716433
-0.339102612249415,0.748430948990327
-0.34491499114991,0.737959700337931
-0.350538989469491,0.72717640338238
-0.355977719339725,0.716093545468902
-0.361234534422532,0.704724114118709
-0.366313018585844,0.693081570960628
-0.371216974109161,0.681179824645817
-0.375950409446261,0.669033202805259
-0.380517526573301,0.656656423111894
-0.384922707951451,0.64406456351117
-0.389170503134082,0.631273031685718
-0.393265615049258,0.618297533821487
-0.39721288598906,0.605154042744264
-0.40101728333784,0.591858765496895
-0.404683885072148,0.57842811042875
-0.408217865065503,0.564878653870059
-0.411624478231652,0.551227106464674
-0.414909045540288,0.537490279235555
-0.418076938939454,0.523685049457868
-0.421133566219098,0.509828326415004
-0.424084355850311,0.495937017113091
-0.426934741834863,0.482027992029644
-0.429690148599585,0.468118050971921
-0.432355975970044,0.454223889120292
-0.434937584257776,0.440362063331538
-0.437440279495049,0.426548958776351
-0.439869298850802,0.412800755984639
-0.442229796260997,0.399133398371233
-0.444526828306093,0.385562560313584
-0.446765340367812,0.372103615851771
-0.44895015309674,0.358771608079736
-0.451085949221541,0.345581219295163
-0.453177260729864,0.332546741973633
-0.455228456450095,0.31968205063097
-0.457243730062271,0.307000574635548
-0.459227088565436,0.294515272030371
-0.46118234122773,0.282238604422336
-0.463113089044383,0.270182512993813
-0.465022714727642,0.258358395689089
-0.466914373251468,0.246777085625656
-0.468790982972555,0.235448830777556
-0.470655217347964,0.224383274975143
-0.472509497268268,0.213589440262734
-0.474355984023757,0.203075710652524
-0.476196572919789,0.192849817310072
-0.478032887555934,0.182918825203432
-0.479866274782027,0.173289121244778
-0.481697800342765,0.163966403949986
-0.483528245220871,0.154955674638303
-0.485358102687329,0.146261230190749
-0.487187576065549,0.137886657382445
-0.48901657721475,0.129834828800556
-0.490844725736201,0.122107900355955
-0.49267134890433,0.11470731039323
-0.494495482323098,0.107633780399995
-0.496315871306371,0.100887317313007
-0.498130972979405,0.0944672174149187
-0.499938959096924,0.0883720718120538
-0.501737719571668,0.082599773479962
-0.503524866705661,0.0771475258601033
-0.505297740114886,0.0720118529874963
-0.507053412336471,0.0671886111257669
-0.508788695105959,0.0626730018826804
-0.510500146290721,0.0584595867759267
-0.512184077464083,0.0545423032157002
-0.513836562103284,0.0509144818674598
-0.515453444392999,0.0475688653551714
-0.517030348614758,0.0444976282623523
-0.51856268910128,0.0416923983853467
-0.520045680733478,0.0391442791904604
-0.521474349956622,0.0368438734239163
-0.522843546291025,0.0347813078210086
-0.524147954311431,0.0329462588583962
-0.525382106068287,0.0313279794911495
-0.526540393923014,0.0299153268139686
-0.527617083768504,0.0286967905839419
-0.528606328605147,0.0276605225402876
-0.529502182441915,0.0267943664547567
-0.530298614491263,0.0260858888447459
-0.530989523625956,0.0255224102796964
-0.531568753065294,0.0250910372100415
-0.532030105257721,0.0247786942468002
-0.532367356926307,0.0245721568189207
-0.532574274243246,0.0244580841346376
-0.532644628099173,0.0244230523724376
