0.864457528500535,-0.132498081208809
0.83185366855162,-0.114676947050792
0.853937031986455,-0.12069527797717
0.851084741752898,-0.0861132382662547
0.823023642798551,-0.0712393370809862
0.820253754994776,-0.0543350517668011
0.784714419638994,-0.0326727104676018
0.76850677256537,-0.0100391442925702
0.748020251824265,0.000553737429868948
0.7474911820446,0.00676898420671923
0.688799727278827,0.0372217038260736
0.664700597142369,0.0183460822545241
0.590001140754362,0.0197979691099478
0.548029175703415,0.0411399186108629
0.482665322476508,0.0788916790730884
0.459549434903796,0.0765469360832602
0.415394138756738,0.0787547301694215
0.403756171878214,0.122143114285506
0.360254599441285,0.0866666243493588
0.39508920233096,0.0694212637274537
0.333018031583486,0.087544870405332
0.372408165457795,0.111724813986014
0.29879733686591,0.0870345119247049
0.313005821354256,0.0998398828380636
0.360797522587534,0.110900371765672
0.329113620037164,0.129858761739473
0.331811943075096,0.123070029061328
0.333663468999241,0.128047495253497
0.381814051965885,0.158027471594461
0.39253731707441,0.140067871492709
0.402668093505468,0.213941836420626
0.400207414588564,0.192720060184906
0.411587632861167,0.229523153135222
0.465449109983433,0.271436415684701
0.507320251329753,0.262164298285899
0.53469685244302,0.251103716225059
0.554883058990631,0.309346209941042
0.598252073054183,0.329279006387968
0.569990103869973,0.341889796040296
0.630169420944939,0.385318222820043
0.652861830989333,0.412269762468007
0.648390938103711,0.449869508462776
0.697997725481144,0.488880236320539
0.701766575193783,0.472470721251325
0.704579708886306,0.505162969802843
0.693310226626981,0.505231880585976
0.709094149886284,0.536027321443906
0.732504661795204,0.566077743919424
0.698947522921853,0.571742612266908
0.692843319062759,0.600008382440113
0.673823697458219,0.6129133311229
0.624210548227667,0.578059987884224
0.651720591908643,0.587928066941793
0.584092415059086,0.589440592425759
0.532550657660452,0.622828166531799
0.452998141096653,0.561115162392546
0.45567415115944,0.562859393515824
0.44356205570881,0.550004854506063
0.398427934457422,0.511706422217006
0.356944941589222,0.462446956080599
0.351701585866879,0.5223121946002
0.307104639259004,0.454457671419234
0.287565466336102,0.436526060024463
0.246977946468154,0.426043124653578
0.230333878068233,0.400048600251062
0.209664889578595,0.385277580618806
0.174525492804154,0.360533924515606
0.161103817187716,0.352530247045364
0.163567255434278,0.340614579476672
0.176337884339548,0.349614292677838
0.136111392548191,0.348203226913899
0.0988866627249663,0.369620516752457
0.130892004490587,0.36346796261849
0.120731332141791,0.372330050145184
0.123232524981347,0.401235522644369
0.135902276169123,0.414167299416437
0.16331560711391,0.455108372589948
0.181324598577591,0.475616291445652
0.149453476991673,0.494472391318474
0.16790242546744,0.524303852129213
0.163681194388078,0.558397886888288
0.136794790692131,0.608916048864119
0.168951951359281,0.668361491368119
0.171481757288992,0.683945725142527
0.169738557249768,0.740509308120415
0.167929397366173,0.774959079250547
0.118375200120114,0.854396678379156
0.137838320277424,0.914055225034766
0.11544791447366,0.911585964499859
0.123382196866114,0.936571856630525
0.0976526119889037,0.947834493632097
0.0789722934515131,0.963850713810806
0.052416966075237,0.944722115356098
0.0454421556598701,0.931946847417637
0.0332291240389693,0.927804108603449
0.0198077169967361,0.893906155775744
-0.0253928686900653,0.853928324531907
-0.0394822061696616,0.825383623011677
-0.0961819867814175,0.771177317214602
-0.057523333087587,0.736088913941538
-0.0861932259820979,0.691817526152345
-0.112379473777821,0.629163527392943
-0.103036696318483,0.621215431401436
-0.124390544617855,0.579173647147795
-0.133864081407544,0.529866003690998
-0.13195411624354,0.509877288319339
-0.125431984888688,0.495037360361549
-0.129447152873271,0.469597393947533
-0.143171605589447,0.423953530818436
-0.125601722606292,0.414617616632092
-0.18249177486698,0.418503830592334
-0.169282076359814,0.39491509970814
-0.163649904709435,0.381508813914659
-0.17040093340251,0.38370757319975
-0.169411785175496,0.41931331539292
-0.192152663457129,0.423413940997344
-0.183256986886465,0.453706325752643
-0.233513800623324,0.486515464044189
-0.242020926141852,0.496291510184786
-0.270426888452851,0.537472638296949
-0.313399505588872,0.592773274046174
-0.313411888763985,0.619291990970642
-0.380325564048051,0.683014100712101
-0.411692520078417,0.69932655050987
-0.449754875059403,0.709141421009397
-0.482085952462688,0.761332170724392
-0.457382145948282,0.73367182932302
-0.540992753681689,0.751304145164246
-0.532546789488985,0.803788439666037
-0.599749873255419,0.793732953881753
-0.607800251117318,0.791199848142059
-0.620195225027766,0.783020776866084
-0.640249981221824,0.736861249510183
-0.640956927678668,0.715040637164446
-0.638674387490851,0.690514820531905
-0.633485426797125,0.663652659203285
-0.665238998986814,0.601200678621974
-0.620614748106305,0.609000249492665
-0.593366483849201,0.582245042900968
-0.587242358027153,0.541133123993114
-0.51141036072522,0.53636651234085
-0.508729917926379,0.479445518767885
-0.514593484866031,0.415376432780908
-0.496475966624027,0.324032470295215
-0.441636070387527,0.311295785643763
-0.411123782578278,0.276067300352971
-0.403863697589361,0.257397661872076
-0.404612614995179,0.234419295113133
-0.38119176373734,0.231352542948285
-0.425509859380269,0.223236587093431
-0.42002786072137,0.192932549477835
-0.426237365167157,0.217894847488008
-0.444085123784687,0.22000243221591
-0.548767841504751,0.223546082276531
-0.616088629023883,0.208529746657292
-0.629350930373619,0.24407363697934
-0.686509167428265,0.253794030613562
-0.769011735729393,0.236805382254903
-0.829846283674243,0.290214652376831
-0.862388442893228,0.268992240234467
-0.894282159287579,0.242960695396426
-0.939753792769282,0.216913052415873
-0.976356222774443,0.207111120452779
-0.987787095543288,0.194377236055466
-0.994760661179172,0.180591176240176
-0.994973135308557,0.150654222017465
-0.973041101372594,0.175185416996853
-0.977022731170725,0.119001967038938
-0.968357470282901,0.100971598977458
-0.965207227489484,0.0961882568822561
-0.927300918906276,0.0976486298350187
-0.727130524114102,0.0556693814831603
-0.693123455066455,-0.0107536566149127
-0.647411471881376,-0.0138262191914484
-0.591891336642612,-0.0307000850796198
-0.489350398164281,-0.0516976662734651
-0.492275437167777,-0.0175273571760765
-0.447290963141208,-0.0596985617158344
-0.450414195236368,-0.0509416327297044
-0.443880123870515,-0.0778211745039504
-0.45098239493056,-0.0861669231479258
-0.439672261645974,-0.0926134475705512
-0.497063712686362,-0.124153539786143
-0.546835888427796,-0.184084411981451
-0.65531491016563,-0.246956686779302
-0.761989235465842,-0.357287426760569
-0.823019651777104,-0.431122526534091
-0.839346088795834,-0.474526690261976
-0.84281612077425,-0.487853636144579
-0.84042144407022,-0.510314447963619
-0.793327821551072,-0.511847252803495
-0.779429668225689,-0.563028449356016
-0.741041658724256,-0.556590460129693
-0.687630796420418,-0.584272640027666
-0.609528572479297,-0.496934728411903
-0.514657839741905,-0.461621707686372
-0.45362349847878,-0.423269845633903
-0.419703339163432,-0.426780278155394
-0.352339942624408,-0.367057395614983
-0.365292669341851,-0.359734449476367
-0.298869587779054,-0.305967365943274
-0.230709098155025,-0.322223693721086
-0.274419278367042,-0.307983608138815
-0.293060609106153,-0.314923544140945
-0.273042061782678,-0.545203331945436
-0.308328186633339,-0.670587196773219
-0.301109908317859,-0.717060900409511
-0.29851335233587,-0.750675348279157
-0.290954247579766,-0.771614848106759
-0.245985342498624,-0.881683573727261
-0.236629994468533,-0.903480493694592
-0.160621123646122,-0.88707684153572
-0.151128910565231,-0.863302053579584
-0.103507835708722,-0.802833946219896
-0.0731332714398294,-0.737229296465918
-0.0507867339465398,-0.668624934556408
0.0396663209009779,-0.347043499510327
0.0237461576076863,-0.371810449126283
0.0610274833572949,-0.45008826607772
0.126615390899979,-0.486463622932273
0.235925994935435,-0.64371568284342
0.288929530570577,-0.681942242596745
0.369670525439715,-0.72357194293894
0.468534462908995,-0.752986040951762
0.491257910497656,-0.704791833713891
0.428325250889765,-0.544117881851789
0.398496700430933,-0.387555636461161
0.314062281561502,-0.267099308941924
0.333682799720443,-0.260180280734412
0.287994060231121,-0.240593713684897
0.262089627851912,-0.198355251420291
0.252808048675321,-0.193657373769973
0.393734610747661,-0.164327366443595
0.465185637030293,-0.203607381917616
0.494921252487806,-0.192713239975747
0.555802869770017,-0.207425779382883
0.61910889715421,-0.216907413245346
0.713168863655492,-0.211139869285792
0.776893974776741,-0.15800719008469
0.871899347576748,-0.152670251109275
