-0.285612114447699,-0.535700446881476
-0.273263414882247,-0.541732429002072
-0.260507016259231,-0.546917399635391
-0.247377907708244,-0.551241418749527
-0.233912082699805,-0.554693099905796
-0.220146390732398,-0.557263660069961
-0.206118385939241,-0.558946959607198
-0.191866173225821,-0.559739532294581
-0.177428252558751,-0.559640605224032
-0.162843362033534,-0.55865210850836
-0.14815032035336,-0.556778674743095
-0.133387869353071,-0.55402762821703
-0.118594517201937,-0.550408963904705
-0.103808382915835,-0.545935316314189
-0.0890670428038969,-0.540621918303446
-0.0744073794666524,-0.534486550017955
-0.0598654339522009,-0.527549478141155
-0.0454762616640566,-0.519833385687355
-0.031273792599031,-0.511363292603959
-0.0172906964759569,-0.502166467485998
-0.00355825329625468,-0.492272330740947
0.00989377014461144,-0.481712349575429
0.0230372372997604,-0.470519925207562
0.0358457519985641,-0.45873027273934
0.0482947612181793,-0.44638029415226
0.0603616500873701,-0.433508444916506
0.0720258287423026,-0.420154594729089
0.0832688106867494,-0.406359882919453
0.0940742823432967,-0.392166569082014
0.104428163517534,-0.377617879513873
0.114318658533705,-0.362757850052418
0.123736297837766,-0.347631165921681
0.132673969902059,-0.332282999208038
0.141126943304758,-0.316758844595162
0.149092878896654,-0.301104353994916
0.156571832007672,-0.285365170715185
0.163566244685439,-0.269586763807433
0.170080927998279,-0.253814263235969
0.176123034474837,-0.238092296507653
0.181702020792179,-0.222464827394913
0.186829600863304,-0.206974997376697
0.191519689513599,-0.191664970411132
0.195788336973533,-0.176575781640544
0.199653654451774,-0.161747190613894
0.203135731088768,-0.147217539593817
0.206256542625439,-0.133023617495383
0.209039852155013,-0.119200529981405
0.211511103357771,-0.105781576214818
0.21369730664886,-0.092798132742366
0.215626918697763,-0.0802795449556409
0.217329715804822,-0.0682530265456452
0.218836661644945,-0.0567435673354587
0.220179769911428,-0.0457738498425505
0.221391962413437,-0.0353641748878202
0.222506923199155,-0.0255323965327684
0.22355894929274,-0.0162938665894013
0.22458279864708,-0.00766138890972543
0.225613535925743,0.00035481637686835
0.226686376736508,0.00774713854924608
0.227836530945371,0.0145105918138241
0.229099045703906,0.0206428206081956
0.230508648824371,0.026144094680013
0.232099593135866,0.0310172939723079
0.233905502451322,0.0352678833865687
0.23595921976898,0.0389038775347187
0.238292658323497,0.0419357956305368
0.240936656090782,0.0443766067098275
0.243920834337228,0.0462416654066737
0.247273460788277,0.0475486385502061
0.251021317973133,0.0483174228823744
0.255189577282171,0.0485700542320523
0.25980167925118,0.0483306085143196
0.264879220562037,0.0476250949558017
0.27044184822303,0.0464813419773923
0.276507161363726,0.0449288761944055
0.283090621049236,0.0429987950210989
0.290205468487131,0.0407236333914653
0.297862651967053,0.0381372251311068
0.306070762838621,0.035274559535804
0.31483598079745,0.0321716337309702
0.324162028712306,0.0288653014024904
0.334050137188668,0.0253931185033966
0.344499019025392,0.0217931865523881
0.355504853682025,0.0181039941493186
0.367061281834627,0.0143642573393912
0.379159410057978,0.0106127594619317
0.391787825631895,0.00688819112120018
0.404932621429224,0.00322899091576889
0.41857743080306,-0.000326812440462954
0.432703472351057,-0.00374175597851853
0.447289604395464,-0.0069790956972145
0.462312388978927,-0.0100029565409228
0.477746165138261,-0.0127784785378094
0.493563131181511,-0.0152719585198137
0.509733435657803,-0.0174509868636016
0.526225276674879,-0.0192845787119146
0.543005009185955,-0.0207432991570705
0.560037259835789,-0.0217993818927527
0.577285048925689,-0.0224268408665685
0.594709919028769,-0.0226015744940417
0.61227206976019,-0.0223014620246339
0.62993049818251,-0.0215064516819329
0.647643144303662,-0.0201986402331862
0.665367041104677,-0.0183623436777593
0.683058468516023,-0.0159841587797186
0.700673110745523,-0.013053015206455
0.718166216347225,-0.00956021807289936
0.73549276040946,-0.00549948072932457
0.752607608231583,-0.000866947669787649
0.769465679852712,0.00433879252218403
0.786022114792023,0.0101167042341903
0.802232436359051,0.0164633118953351
0.818052714893713,0.0233727170198445
0.833439729299751,0.0308366251475012
0.848351126241604,0.0388443825649063
0.862745576383669,0.0473830226524783
0.876582927062214,0.0564373216636319
0.889824350793962,0.0659898637048787
0.902432489041482,0.0760211146488327
0.914371590673905,0.0865095046764131
0.925607644582088,0.09743151911006
0.936108505930133,0.108761797166662
0.94584401554992,0.120473238227257
0.954786112012109,0.132537115190548
0.96290893593561,0.144923194448972
0.970188926127891,0.157599861999624
0.976604907180383,0.170534255177812
0.982138168176695,0.183692399478588
0.986772532206096,0.197039349911249
0.990494416410734,0.2105393363137
0.993292882332094,0.224155912037774
0.995159676360212,0.237852105403071
0.99608926012789,0.25159057330588
0.996078830731589,0.265333756361078
0.995128330700473,0.279044034948759
0.993240447675296,0.292683885533751
0.990420603799093,0.306216036625017
0.986676934861967,0.319603623743376
0.982020259282386,0.332810342769904
0.976464037047234,0.345800601053806
0.970024318772144,0.358539665667459
0.962719685082391,0.370993808207692
0.954571176552453,0.383130445556109
0.945602214479339,0.39491827602737
0.93583851280063,0.406327410352711
0.92530798150282,0.41732949696656
0.914040621898804,0.427897841086835
0.902068414185114,0.438007517104228
0.889425197719683,0.447635473822463
0.876146544489269,0.456760632120027
0.862269626262258,0.465363974634092
0.847833075947105,0.473428627099169
0.832876843699251,0.48093993100633
0.817442048339669,0.487885507283453
0.801570824666412,0.494255310732788
0.785306167256329,0.50004167499902
0.768691771367656,0.505239347878819
0.751771871565243,0.509845516821412
0.734591078698801,0.513859824508898
0.717194215870701,0.517284374444641
0.699626154033447,0.520123726518004
0.681931647858066,0.522384882553727
0.664155172513164,0.524077261894312
0.646340761990474,0.525212667103592
0.628531849606202,0.525805239919219
0.610771111298521,0.52587140762077
0.593100312330144,0.525429820018583
0.575560157991078,0.524501277305953
0.558190148880503,0.523108649053941
0.541028441328257,0.521276784663564
0.524111713495746,0.519032415624362
0.507475037673291,0.516404049961273
0.491151759266131,0.513421859283087
0.475173382934491,0.510117558875512
0.459569466324539,0.506524281309886
0.444367521796744,0.502676444064695
0.429592926526214,0.498609611681219
0.415268841316208,0.494360352996741
0.401416138431291,0.489966094018705
0.388053338720664,0.485464967020922
0.375196558265212,0.480895656458351
0.362859464743925,0.476297242310045
0.351053243676664,0.471709041470481
0.339786574660997,0.467170447817687
0.329065617681093,0.462720771592267
0.318894009526655,0.45839907872462
0.309272870319715,0.454244030748272
0.300200820107003,0.450293725935401
0.291674005435631,0.446585542286206
0.28368613579026,0.443155982996875
0.276228529730787,0.440040525021528
0.269290170531167,0.437273471331678
0.262857771082302,0.434887807462534
0.25691584778529,0.432915062918893
0.251446803125684,0.43138517799456
0.246431016585104,0.430326376538174
0.241846943513569,0.42976504517516
0.237671221554431,0.429725619470368
0.233878784183999,0.430230477488841
0.230442980899853,0.431299841183214
0.227335703565612,0.432951686005634
0.224527518395724,0.435201659109876
0.221987803041607,0.438063006475633
0.219684888220475,0.441546509251982
0.217586203310354,0.445660429580854
0.215658425319317,0.45041046612408
0.213867630623777,0.455799719479499
0.212179448860002,0.461828667632742
0.210559218344696,0.468495151551839
0.208972142394727,0.475794370991923
0.207383445912794,0.483718890537153
0.205758531605082,0.492258655866661
0.204063135198712,0.501401020191131
0.202263479031101,0.511130780766548
0.200326423390121,0.521430225352001
0.198219614993228,0.53227918843925
0.195911632005418,0.54365511704328
0.193372125009982,0.555533145805406
0.19057195336243,0.567886181123799
0.187483316376676,0.580684993990724
0.184079878813448,0.593898321181486
0.180336890163889,0.60749297440714
0.176231297246336,0.621433957011647
0.171741849661204,0.635684587764406
0.166849197677633,0.65020663127112
0.161535982156032,0.66496043449987
0.155786916142651,0.679905068895122
0.149588857805792,0.694998477530414
0.142930874418065,0.710197626730533
0.135804297125052,0.72545866157641
0.128202766277733,0.740737064690632
0.12012226714394,0.755987817688509
0.111561155852688,0.771165564669157
0.102520175464477,0.786224777112956
0.0930024621002668,0.801119919546243
0.0830135411017162,0.815805615331031
0.0725613132353273,0.83023681193705
0.0616560309930547,0.844368945055464
-0.0495460624219524,0.955311030892144
0.152874611073659,0.780939529265233
0.127910000211529,0.791657355989381
0.118501095215735,0.996407033189109
0.115407023976207,1.00311415086877
-0.105990347624911,0.820890434757459
-0.0260312868216066,0.931352893339789
0.0706740178386568,1.05766949285407
-0.153530655347195,1.04403075803017
-0.187797976356672,0.841850812693317
-0.189007248629441,1.06209170132212
-0.201054113400021,0.861097155886219
-0.00745063709137718,0.875495053036312
-0.127709883340934,0.988349783046565
-0.236936664064458,1.08956945861384
-0.254706339828381,0.906593430453261
-0.290145284564657,1.09326899007556
-0.282396377048111,1.11679079635716
-0.30278164443323,1.09577180179618
-0.217619058268501,1.00627288248743
-0.131430462409628,1.10560419054949
-0.337711621781437,1.09547520328646
-0.159366477992191,1.1003468740797
-0.274684770981654,1.00088128535219
-0.174135491287193,0.883150958112219
-0.301428577709524,0.992969793139609
-0.426190432794971,0.890711267566918
-0.326585880209823,0.981674196715295
-0.338482611166333,0.974793573065553
-0.349880810700669,0.967115276598468
-0.247180399836107,0.842076791961814
-0.371058590973292,0.949452264669664
-0.380780747044605,0.939516358707574
-0.389889763432431,0.928880199845211
-0.398361545990435,0.917573241098546
-0.406174040428766,0.905626749172276
-0.413307327406083,0.893073679561495
-0.419743709401362,0.879948545497406
-0.425467789008422,0.866287281260879
-0.430466538330002,0.852127100409474
-0.434729359183326,0.8375063494833
-0.438248133865412,0.82246435777251
-0.44101726626366,0.807041283744374
-0.443033713135473,0.791277958740647
-0.444297005419511,0.775215728566283
-0.444809259480644,0.758896293598418
-0.444575178230517,0.742361548049945
-0.443602042105737,0.725653419024823
-0.441899689925857,0.708813706002649
-0.439480489693466,0.691883921387797
-0.436359299438532,0.674905132753698
-0.432553418248663,0.657917807405675
-0.428082527665865,0.640961659876002
-0.422968623668614,0.624075502952762
-0.417235939495446,0.607297102829602
-0.410910859602639,0.590663038946604
-0.404021825083805,0.574208569073441
-0.39659923091314,0.557967500164715
-0.388675315406621,0.541972065493981
-0.38028404232641,0.526252808547617
-0.371460976083023,0.510838474132423
-0.362243150517345,0.495755907121734
-0.352668931770175,0.481029959234118
-0.342777875770618,0.466683404206398
-0.33261058089614,0.452736861689024
-0.322208536376468,0.439208730156763
-0.311613967030572,0.426115129091535
-0.300869674940753,0.413469850656981
-0.290018878680238,0.40128432104634
-0.279105050720581,0.3895675716464
-0.268171753652721,0.378326220121004
-0.257262475860432,0.36756446147783
-0.24642046728742,0.357284069142231
-0.235688575939174,0.347484406021832
-0.22510908575812,0.338162445505637
-0.214723556505426,0.329312802301622
-0.204572666275228,0.320927772977476
-0.19469605725687,0.312997386030314
-0.185132185348261,0.305509461273113
-0.175918174208481,0.298449678288346
-0.167089674320525,0.291801653663085
-0.158680727615595,0.285547026684703
-0.150723638188601,0.279665553142522
-0.143248849610815,0.27413520684835
-0.136284829319783,0.268932288458005
-0.129857960538973,0.264031541146759
-0.123992442150118,0.25940627266423
-0.118710196910116,0.255028483268797
-0.114030788371639,0.250868999018067
-0.109971346832497,0.246897609870582
-0.106546504603413,0.243083212034673
-0.103768340847334,0.239393953983427
-0.101646336205853,0.235797385540068
-0.10018733738994,0.232260609425777
-0.0993955318730778,0.228750434652114
-0.0992724327852829,0.225233531132847
-0.0998168740664446,0.221676584885073
-0.101025015897183,0.218046453187148
-0.102890360385089,0.21431031906112
-0.105403777443977,0.210435844449981
-0.108553540763796,0.206391321465273
-0.112325373729249,0.202145821088264
-0.11670250510617,0.197669338718007
-0.121665734276375,0.192932935972218
-0.127193505764301,0.187908878161767
-0.13326199276229,0.182570766876895
-0.139845189326146,0.17689366714269
-0.146915010878605,0.170854228623053
-0.15444140262585,0.164430800376116
-0.162392455461233,0.157603538689757
-0.170734528901062,0.150354507553517
-0.179432380569886,0.142667771352556
-0.188449301727052,0.134529479400357
-0.197747258302851,0.125927941959424
-0.207287036891014,0.11685369743323
-0.217028395125115,0.1072995704479
-0.226930215849393,0.0972607205784771
-0.236950664479837,0.0867346815120257
-0.247047348939111,0.0757213904779632
-0.257177481539003,0.064223207814957
-0.267298042176736,0.052244926583094
-0.277365942206605,0.0397937721698464
-0.287338188346037,0.026879391878342
-0.297172045975387,0.0135138345265371
-0.306825201193449,-0.000288479874184566
-0.316255920995966,-0.0145108002527249
-0.325423210952072,-0.0291340942767858
-0.3342869697639,-0.0441371076299608
-0.34280814010711,-0.0594964325431659
-0.35094885516522,-0.0751865853191555
-0.35867258028782,-0.0911800925526891
-0.365944249222447,-0.107447585714136
-0.37273039439152,-0.123957903730589
-0.378999270709684,-0.140678203166543
-0.384720972462611,-0.157574075575479
-0.389867542796096,-0.174609671564952
-0.394413075393728,-0.191747831090585
-0.398333807952543,-0.208950219469285
-0.401608207098778,-0.226177468578836
-0.404217044419887,-0.243389322689969
-0.406143463324355,-0.260544788358187
-0.40737303647731,-0.277602287786041
-0.40789381359742,-0.294519815052302
-0.407696359438843,-0.311255094592625
-0.406773781820996,-0.327765741306896
-0.405121749608432,-0.344009421661486
-0.402738500582991,-0.359944015150242
-0.399624839190518,-0.375527775476076
-0.395784124184571,-0.390719490815676
-0.391222246229635,-0.405478642533003
-0.385947595566129,-0.419765561712823
-0.379971019878884,-0.433541582893816
-0.373305772549552,-0.446769194391247
-0.365967451511498,-0.45941218461239
-0.357973928962897,-0.471435783783142
-0.349345272229919,-0.482806800522106
-0.340103656106884,-0.493493752718282
-0.330273267033935,-0.503466992190668
-0.319880199505013,-0.512698822632229
-0.308952345129581,-0.52116361036686
-0.29751927480051,-0.52883788747602
-0.285612114447699,-0.535700446881476
