0.204489354608126,0.896189164370983
0.207887307824167,0.886902521406023
0.212061814136943,0.877814300548298
0.216720874055559,0.868849891118206
0.221755837715769,0.859981531285801
0.227101735698795,0.851192620294441
0.232713328010262,0.842471598580391
0.23855640293367,0.833809724486564
0.244603698005411,0.825200032004455
0.250832686503109,0.816636765185447
0.257224253667085,0.808115039893593
0.263761847704772,0.799630626873259
0.270430905695133,0.791179805058246
0.277218448898678,0.782759258166834
0.284112787741571,0.774365999320363
0.291103300707445,0.765997314546449
0.298180264718984,0.757650719438683
0.305334722412372,0.74932392524307
0.312558376488413,0.741014811862995
0.319843504353541,0.732721406048599
0.327182888244115,0.724441863542385
0.33456975735718,0.716174454292672
0.341997739425332,0.707917550080176
0.349460819815636,0.699669614067113
0.35695330669217,0.691429191895653
0.36446980111635,0.683194904048056
0.37200517120644,0.674965439244011
0.379554529662982,0.666739548698004
0.387113214107461,0.658516041095529
0.39467676978952,0.650293778174492
0.402240934301822,0.64207167081961
0.409801624007302,0.63384867559435
0.417354921935486,0.625623791648237
0.424897066945955,0.617396057947942
0.432424443990357,0.609164550789066
0.439933575331262,0.600928381552412
0.447421112598218,0.592686694674176
0.454883829579321,0.584438665804076
0.462318615661565,0.576183500129254
0.469722469845575,0.567920430844937
0.477092495270641,0.559648717755498
0.484425894194663,0.551367645991748
0.491719963380878,0.543076524832168
0.498972089849459,0.53477468661737
0.506179746957313,0.526461485748429
0.513340490773911,0.518136297760838
0.520451956724828,0.509798518466884
0.52751185647798,0.501447563160026
0.534517975050429,0.49308286587564
0.541468168116082,0.484703878703089
0.548360359496792,0.476310071144659
0.555192538821222,0.467900929517358
0.561962759337516,0.459475956394022
0.568669135867221,0.451034670080505
0.575309842889218,0.44257660412609
0.5818831127435,0.434101306864531
0.588387233945659,0.425608340983371
0.594820549603796,0.417097283119437
0.601181455930366,0.408567723478594
0.607468400842148,0.400019265478016
0.613679882642175,0.391451525409391
0.619814448777982,0.382864132121639
0.625870694671043,0.374256726721812
0.631847262612733,0.365628962292991
0.637742840722504,0.356980503628088
0.643556161964381,0.348311026978541
0.649286003218172,0.339620219816995
0.654931184402091,0.330907780613116
0.660490567643787,0.322173418621775
0.665963056496964,0.313416853682884
0.671347595201054,0.304637816032228
0.676643167981571,0.295836046122694
0.681848798388965,0.287011294455337
0.686963548673978,0.278163321419778
0.691986519197643,0.269291897143441
0.696916847874211,0.260396801349218
0.701753709645428,0.251477823221134
0.706496315984703,0.242534761277658
0.711143914429806,0.233567423252295
0.715695788142861,0.224575625981161
0.720151255496461,0.215559195297225
0.724509669684864,0.206517965930968
0.728770418359253,0.197451781417179
0.732932923286183,0.18836049400769
0.736996640028355,0.179243964589802
0.740961057646947,0.17010206261023
0.744825698424812,0.160934666004376
0.74859011760986,0.151741661130753
0.752253903178057,0.142522942710435
0.755816675615476,0.133278413771363
0.759278087718919,0.124007985597399
0.762637824414647,0.114711577682015
0.765895602594828,0.105389117686495
0.769051170971338,0.0960405414025857
0.772104309946581,0.0866657927194832
0.775054831501067,0.0772648235951111
0.777902579097491,0.0678375940316096
0.78064742760111,0.0583840720549907
0.78328928321625,0.0489042336989147
0.785828083438797,0.0393980629925512
0.788263797024592,0.0298655519525025
0.790596423973634,0.0203067005787686
0.792825995530084,0.0107215168547473
0.794952574198054,0.00111001675126841
0.79697625377322,-0.00852777576532755
0.798897159390323,-0.0181918287210529
0.80071544758667,-0.0278821021180477
0.80243130638175,-0.0375985479142355
0.804044955373157,-0.0473411099988134
0.80555664584902,-0.0571097241635266
0.806966660917166,-0.0669043180696605
0.808275315651336,-0.0767248112106855
0.809482957254729,-0.0865711148704652
0.81058996524127,-0.0964431320769401
0.811596751634995,-0.106340757551183
0.812503761187992,-0.116263877651709
0.813311471617411,-0.126212370313918
0.81402039386207,-0.136186104984526
0.81463107235927,-0.146184942550835
0.815144085342457,-0.156208735264675
0.815560045160446,-0.166257326660837
0.815879598618981,-0.1763305514698
0.816103427345467,-0.186428235524535
0.816232248177782,-0.196550195661156
0.816266813578155,-0.20669623961317
0.816207912073176,-0.216866165899044
0.816056368721101,-0.227059763702804
0.815813045607677,-0.237276812747343
0.815478842371873,-0.247517083160084
0.815054696762945,-0.257780335330647
0.814541585230445,-0.268066319760088
0.813940523548857,-0.278374776901294
0.813252567478751,-0.288705436990051
0.812478813466421,-0.29905801986627
0.81162039938422,-0.309432234784821
0.810678505313932,-0.319827780215372
0.809654354375751,-0.330244343630567
0.80854921360565,-0.340681601281843
0.807364394884178,-0.351139217962113
0.806101255919962,-0.361616846754458
0.804761201291524,-0.372114128765931
0.803345683551331,-0.38263069284545
0.801856204396351,-0.393166155284705
0.800294315909804,-0.403720119500869
0.798661621879234,-0.414292175699805
0.796959779196541,-0.424881900518344
0.795190499346134,-0.435488856644027
0.793355549988019,-0.446112592410607
0.791456756643314,-0.456752641367368
0.789496004490474,-0.467408521820166
0.787475240281354,-0.478079736341832
0.78539647438729,-0.488765771249379
0.783261782986431,-0.499466096045091
0.781073310404868,-0.51018016281833
0.778833271625541,-0.520907405604473
0.776543954980532,-0.53164723969698
0.774207725044267,-0.542399060908136
0.771827025747276,-0.553162244773436
0.769404383732651,-0.563936145693953
0.766942411980218,-0.574720096010301
0.764443813726741,-0.585513405000959
0.761911386714321,-0.59631535779674
0.759348027803666,-0.607125214202015
0.756756737994153,-0.617942207412013
0.754140627898787,-0.628765542613875
0.751502923729471,-0.639594395457318
0.748846973856659,-0.650427910378539
0.746176256017779,-0.661265198758342
0.743494385261185,-0.672105336892326
0.740805122727294,-0.682947363747163
0.738112385386581,-0.693790278472379
0.735420256876113,-0.704633037631439
0.732732999603223,-0.715474552109061
0.73005506831827,-0.726313683643152
0.727391125399769,-0.737149240919204
0.72474605814718,-0.747979975151705
0.722124998442235,-0.758804575060342
0.719533345223521,-0.769621661127377
0.716976790326958,-0.780429778994979
0.714461348385483,-0.791227391825363
0.711993391666498,-0.802012871399246
0.709579690972959,-0.812784487664948
0.707227464068508,-0.82354039636497
0.704944433546709,-0.834278624249454
0.70273889670676,-0.844997051221786
0.700619810912475,-0.85569338852797
0.698596899241172,-0.866365151761597
0.696680783209217,-0.877009626950282
0.694883152390445,-0.887623827215366
0.693216985524348,-0.898204436275129
0.691696845531961,-0.908747733063372
0.690339284205852,-0.919249488324462
0.689163416305701,-0.929704817922451
0.688191768553883,-0.940107965908722
0.687451603414005,-0.950451966274768
0.686977132602569,-0.960728077363506
0.686813596113948,-0.970924739611199
0.687025963366921,-0.981025352261204
0.687722884225736,-0.991002153483577
0.689196358181283,-1.00078053259871
0.204489354608126,0.896189164370983
0.205962828563673,0.886410785255845
0.206659749422488,0.876433984033472
0.206872116675461,0.866333371383467
0.20670858018684,0.856136709135774
0.206234109375404,0.845860598047036
0.205493944235526,0.83551659768099
0.204522296483708,0.825113449694719
0.203346428583557,0.81465812009673
0.201988867257448,0.804156364835641
0.200468727265061,0.793613068047397
0.198802560398964,0.783032458987634
0.197004929580192,0.77241825872255
0.195088813548237,0.761773783533865
0.193065901876933,0.751102020300238
0.190946816082649,0.740405682994054
0.1887412792427,0.729687256021722
0.186458248720901,0.718949028137238
0.18410602181645,0.708193119437216
0.181692321122911,0.697421503171514
0.179224364403926,0.686636023597631
0.176708922462451,0.675838410767247
0.174152367565888,0.665030292899645
0.171560714347174,0.65421320683261
0.168939654642229,0.643388606923973
0.16629458738964,0.632557872691472
0.163630644471139,0.62172231541542
0.160952713186186,0.610883183881329
0.158265455913297,0.600041669403707
0.155573327402828,0.589198910244647
0.152880590062115,0.578355995519431
0.150191327528224,0.567513968664594
0.14750945677163,0.55667383053061
0.14483873893275,0.545836542150807
0.142182789059938,0.535003027229586
0.139545084890622,0.524174174386143
0.136928974795256,0.513350839184281
0.134337684985743,0.502533845974283
0.131774326075088,0.491723989569008
0.129241899062668,0.480922036773227
0.126743300809191,0.470128727782568
0.124281329056758,0.459344777466221
0.121858687042133,0.448570876545704
0.119477987745142,0.437807692680404
0.117141757808878,0.427055871469248
0.114852441163868,0.416316037376741
0.112612402384541,0.405588794590598
0.110423929802978,0.394874727817359
0.108289238402119,0.384174403021647
0.106210472508055,0.3734883681141
0.104189708298935,0.362817153592433
0.219909390029732,0.452349866362032
0.10033016280139,0.341521224182875
-0.00153820136077334,0.228365741908934
0.205645258669301,0.227831420538238
-0.010284741050612,0.20660564324939
-0.0039008462170757,0.189694559324198
-0.0248302134722992,0.170780698652985
0.0903400292380778,0.278039324617718
0.195734801452431,0.176676473692175
-0.0297244755382875,0.358343926675847
-0.0181228885918699,0.143089449571618
0.0851364991837585,0.236090233054111
0.185232658805315,0.345296286816826
0.174568636397979,0.101562143785542
0.0820653134051888,0.204840866557089
0.171310585633099,0.0977069333864578
-0.0229987926880076,0.0918886919220387
0.0797451892405518,0.173783408673562
0.0791441275589645,0.163474951532356
-0.0302341412553638,0.26325309708021
0.0782068704175364,0.142925714932352
-0.0226057008544345,0.0130003363247092
-0.032812241523389,0.0199220344933064
-0.0334941326522518,0.00790426622455043
-0.0287339440552585,0.210944657064448
-0.0245299895711715,0.194248753688344
0.180182069854579,-0.0285289499534367
0.175513410326393,0.179567653527425
0.197057269279366,-0.0328779396824389
-0.0126765836276042,0.161495066266985
0.079054640430139,0.0415935743231032
0.0796653189273393,0.0315947367567944
0.0803742411719983,0.0216210020861864
0.0811819516014168,0.0116725094239771
0.0820889611544139,0.00174938932345087
0.0830957475481388,-0.0081482361507919
0.0842027555346802,-0.0180202533572669
0.0854103971380727,-0.0278665570170466
0.0867190518722426,-0.0376870501580716
0.0881290669403894,-0.0474816440642055
0.0896407574162515,-0.0572502582289185
0.0912544064076594,-0.0669928203134964
0.092970265202739,-0.0767092661096842
0.0947885533990858,-0.0863995395066791
0.0967094590161894,-0.0960635924624044
0.0987331385913549,-0.105701384979
0.100859717259325,-0.115312885082479
0.103089288815775,-0.1248980688065
0.105421915764817,-0.134456920180234
0.107857629350612,-0.143989431220283
0.110396429573159,-0.153495601926647
0.113038285188299,-0.162975440282723
0.115783133691918,-0.172428962259342
0.118630881288342,-0.181856191822843
0.121581402842828,-0.191257160947215
0.124634541818071,-0.200631909630318
0.127790110194581,-0.209980485914227
0.131047888374763,-0.219302945909747
0.13440762507049,-0.228599353825131
0.137869037173933,-0.237869781999095
0.141431809611352,-0.247114310938167
0.145095595179549,-0.256333029358485
0.148860014364598,-0.265526034232108
0.152724655142462,-0.274693430837962
0.156689072761054,-0.283835332817534
0.160752789503226,-0.292951862235422
0.164915294430156,-0.302043149644911
0.169176043104545,-0.3111093341587
0.173534457292948,-0.320150563524957
0.177989924646549,-0.329166994208893
0.182541798359603,-0.338158791480027
0.187189396804706,-0.347126129505389
0.191932003143981,-0.356069191448866
0.196768864915198,-0.36498816957695
0.201699193591766,-0.373883265371173
0.206722164115431,-0.38275468964751
0.211836914400444,-0.391602662683069
0.217042544807838,-0.400427414350426
0.222338117588355,-0.40922918425996
0.227722656292445,-0.418008221910616
0.233195145145622,-0.426764786849507
0.238754528387318,-0.435499148840848
0.244399709571237,-0.444211588044727
0.250129550825028,-0.452902395206273
0.255942872066905,-0.46157187185582
0.261838450176676,-0.470220330520723
0.267815018118366,-0.478848094949544
0.273871264011427,-0.487455500349371
0.280005830147234,-0.496042893637123
0.286217311947261,-0.504610633705748
0.292504256859043,-0.513159091706326
0.298865163185613,-0.521688651347169
0.30529847884375,-0.530199709211103
0.311802600045909,-0.538692675092263
0.318375869900191,-0.547167972353822
0.325016576922188,-0.555626038308237
0.331722953451893,-0.564067324621754
0.338493173968187,-0.57249229774509
0.345325353292617,-0.580901439372391
0.352217544673327,-0.589295246930821
0.35916773773898,-0.597674234103372
0.366173856311429,-0.606038931387758
0.373233756064581,-0.614389886694616
0.380345222015498,-0.62272766598857
0.387505965832096,-0.631052853976161
0.39471362293995,-0.639366054845102
0.401965749408531,-0.6476678930599
0.409259818594746,-0.65595901421948
0.416593217518768,-0.66424008598323
0.423963242943834,-0.672511799072669
0.431367097127844,-0.680774868356986
0.438801883210088,-0.689030034031809
0.446264600191191,-0.697278062901908
0.453752137458147,-0.705519749780144
0.461261268799052,-0.713755919016798
0.468788645843453,-0.721987426175674
0.476330790853923,-0.730215159875969
0.483884088782107,-0.738440043822082
0.491444778487587,-0.746663039047342
0.499008942999889,-0.754885146402223
0.506572498681948,-0.763107409323261
0.514131183126427,-0.771330916925737
0.521680541582969,-0.779556807471743
0.529215911673059,-0.787786272275788
0.536732406097239,-0.796020560123385
0.544224892973773,-0.804260982294845
0.551687973364077,-0.812508918307908
0.559115955432228,-0.820765822520404
0.566502824545293,-0.829033231770117
0.573842208435868,-0.837312774276331
0.581127336300996,-0.845606180090727
0.588350990377037,-0.853915293470802
0.595505448070425,-0.862242087666415
0.602582412081964,-0.870588682774181
0.609572925047838,-0.878957367548095
0.616467263890731,-0.887350626394566
0.623254807094276,-0.895771173285978
0.629923865084637,-0.904221995100991
0.636461459122324,-0.912706408121325
0.6428530262863,-0.921228133413179
0.649082014783998,-0.929791400232187
0.655129309855739,-0.938401092714296
0.660972384779147,-0.947062966808122
0.666583977090614,-0.955783988522173
0.67192987507364,-0.964572899513534
0.67696483873385,-0.973441259345938
0.681623898652466,-0.98240566877603
0.685798404965242,-0.991493889633755
0.689196358181283,-1.00078053259871
