0.766087886844862,-0.661271606488885
0.765676536172321,-0.660906669698703
0.771811514982103,-0.645489633313132
0.762571385787511,-0.657805797793144
0.808707270096624,-0.693256907736974
0.733571407628721,-0.633187422269401
0.719406440438221,-0.630843530063134
0.749218336375279,-0.640751645971527
0.71755439869407,-0.655847383342557
0.741215875538491,-0.624919132257523
0.687726200806274,-0.633723509935603
0.758374682187211,-0.64910448709731
0.687825601107244,-0.639752498532614
0.711302744659286,-0.600088579982051
0.724445265520176,-0.587345320917556
0.752827162202974,-0.52276941906905
0.707477453919417,-0.568950951876836
0.702696680397796,-0.556658731627433
0.702117903420738,-0.512694880545496
0.732313201800204,-0.44599663222565
0.697881368475082,-0.47840988460923
0.696723051316334,-0.460399345113941
0.695039902150088,-0.431303809978661
0.696536757807928,-0.42304237653646
0.6940918613793,-0.382411737994854
0.705942541495572,-0.368125603678211
0.701984395254859,-0.364966305184679
0.657660390846125,-0.325132095136388
0.709556410525093,-0.325940345655416
0.714506018008956,-0.306607450197476
0.751438286686992,-0.258384339328555
0.767449762134826,-0.261258948960912
0.730808190594225,-0.232699940308501
0.741441462610734,-0.232508354226333
0.749749778578808,-0.215195234936091
0.758579310224196,-0.198512596062477
0.722734029175984,-0.176301830357704
0.777535389531904,-0.167285645582834
0.749713269073432,-0.174867555626277
0.755624059152269,-0.162277203655785
0.79703256665538,-0.121050258251627
0.818502271370982,-0.114729890170707
0.828894750029396,-0.103845162318284
0.853033826946745,-0.101839417997924
0.853337019203032,-0.0910005510368043
0.859026316674846,-0.0768036169937298
0.902474353378765,-0.101538101766815
0.887105317290025,-0.0878456791339259
0.886394185091652,-0.0534707089419718
0.881028934156754,-0.0782005618745649
0.92227015633862,-0.0415812462345434
0.906855500007049,-0.0465138802351292
0.912306476433453,-0.044110506879295
0.897291327231222,0.00576018864545223
0.901356156174631,-0.0789451323569959
0.888068714281992,-0.0274348007714965
0.966445281109214,-0.0274380884818209
0.963615820414909,-0.00697300239740774
0.924681555288825,-0.0397912954327969
0.964822048693277,-0.0190356816029275
0.931155855372005,-0.0362492751271094
0.916502061564645,-0.0405129421680268
0.91160405262656,-0.0406123409762253
0.905647827632327,-0.0404995078834631
0.891427750108236,-0.059606274225189
0.88138414923865,-0.00542142803800567
0.881757093434712,-0.038082830477992
0.90137442507355,-0.0310467735985105
0.837368559605341,-0.0777016464888436
0.849833309247704,-0.0310211921774188
0.837691478766643,-0.0273428223791259
0.794830891742276,0.00948116160179778
0.811598494436901,-0.0177074617297703
0.812586285643537,-0.0387683583424285
0.803187501871273,0.0149480704241157
0.785010731237285,-0.0271761825834154
0.71742700759046,0.0182445323975879
0.78683244818045,-0.0223773401258271
0.725199720074001,0.013792609342617
0.710188946699308,0.0424779826431594
0.695603815626606,0.0544590101640534
0.701658713704308,0.11335545518846
0.667227253799237,0.0807285998133057
0.615826253518943,0.0461508627052974
0.657207606404066,0.0707906751610871
0.667936255071207,0.149541492830477
0.650618361232727,0.133587199867352
0.609518718471396,0.192077980561474
0.597496577988825,0.146488946569764
0.610045047848194,0.170936325491791
0.538359358702638,0.245155784657286
0.583900499324585,0.251314514120943
0.51136972265503,0.23661695986345
0.526871397064453,0.308514392996657
0.568993765791016,0.252180272576225
0.541082041500012,0.294052463165047
0.560393285998841,0.277483113408321
0.492409518182852,0.347475772746741
0.530599661232892,0.342045179477788
0.551501198987165,0.333715128671053
0.549800569303233,0.40773608272702
0.510312976175846,0.394678240762544
0.526214035827469,0.397374798441663
0.526474670207886,0.409190831397831
0.527144348115116,0.420085406629711
0.528147691736397,0.430013053712627
0.529405541022353,0.438935828493628
0.53083567725107,0.446823639024042
0.542854887675387,0.466195684113582
0.52350255135512,0.484898035068623
0.580547257562303,0.50503755479938
0.53522361662448,0.48048823334876
0.537575027974759,0.470260834913165
0.536503642423265,0.492833395730423
0.538476262233412,0.472265179343122
0.53821200930632,0.47178293601538
0.507359863572897,0.471426181987415
0.527014687744058,0.517969858405699
0.533676384521748,0.464938010931206
0.521909494346282,0.509526137249765
0.494781120331414,0.463608059221593
0.49779730889123,0.478028994158874
0.516640013524988,0.445501363216096
0.544580059273175,0.399236475707101
0.502621165804608,0.432698109473231
0.494148395246624,0.425816801672073
0.467939679153126,0.443916674144821
0.50437770286268,0.380193383087711
0.462819837674728,0.404306476209973
0.437030269819697,0.376906807171948
0.471964102434563,0.43602319504574
0.408147710637836,0.383769987548779
0.446458910569806,0.334767853462216
0.391992242226558,0.37073196223766
0.375376643672859,0.36507817965416
0.3142150426061,0.330565284325123
0.388559540299286,0.402539498222469
0.321696518646226,0.351446851576547
0.302771699261403,0.348187491971449
0.277129907734111,0.355563757914957
0.263864322282965,0.343834763741296
0.244056313369525,0.342794290642323
0.224131893128344,0.342532839816721
0.204182322443079,0.343056376353702
0.146780295121493,0.328466780086072
0.117230247550176,0.30321912424622
0.145093224785408,0.349271290115756
0.145684816060083,0.315075602687702
0.107219527752245,0.357075370748525
0.111524348958479,0.344026868497984
0.0713362305630922,0.367466077625591
0.0094046080076342,0.374342910000673
0.0380320637637754,0.380020938375801
-0.0105316028198173,0.426147752678902
0.0419158596690342,0.376457982110341
-0.00127968721455675,0.416708908224992
-0.0343435373246522,0.420615798601306
-0.0313076676084591,0.454799462692525
-0.0669348641736584,0.44775249688052
-0.0520186407084088,0.432817085808693
-0.0338516036654431,0.474480754468233
-0.0691944689519293,0.44770426584296
-0.076330641472557,0.454678498186461
-0.0526129868502944,0.467683757583288
-0.0894943678680074,0.439862951796213
-0.087368134957162,0.506923746873896
-0.101870609394609,0.47747053232503
-0.0993407632402296,0.466046308814919
-0.12907222378248,0.487973211966333
-0.100921980992579,0.473896289389016
-0.10268632952219,0.488602029627004
-0.109644865642999,0.508327297726149
-0.122950277175726,0.510562528631225
-0.109529685039998,0.461868648771827
-0.135928770955332,0.491909143206553
-0.100188988980614,0.480776358919079
-0.0990021727846344,0.476023271606859
-0.0977867921676152,0.470191273883563
-0.0966292625262166,0.463290199975684
-0.0956148094604631,0.455338236094115
-0.143347334208058,0.486555110651924
-0.103551570335671,0.463759588023672
-0.101011329201085,0.393566014128564
-0.0644999305809456,0.370862392093264
-0.0954919018797387,0.401011094618248
-0.102258227042355,0.355136760723182
-0.109213088422137,0.411822962219635
-0.119547030941748,0.364456277648172
-0.107982539003671,0.336112568060161
-0.139191862491324,0.3450961247351
-0.110325236849382,0.349985980855973
-0.0872918608547685,0.292663115041094
-0.127584575630988,0.278021541081012
-0.0938763540129282,0.281967758645795
-0.118113225467562,0.238336956368753
-0.162991389573092,0.239213134713764
-0.125376864408458,0.199851562779483
-0.137498558999958,0.159716044754172
-0.167058765768066,0.217833787294583
-0.19748660619176,0.162446354438507
-0.192037148227703,0.154479176979139
-0.223752470274669,0.132444550737721
-0.202256079892637,0.108977930686588
-0.252034742442906,0.104852790237431
-0.266752667266819,0.0921014445156541
-0.28601817034357,0.0453851745679476
-0.29957209878954,0.0936342579035675
-0.26282312814289,0.0232048828302351
-0.348561913718658,0.0449970598090826
-0.389591637171726,0.0483546853182512
-0.338059596161179,0.0416798257342482
-0.399646123087085,0.0593275951431806
-0.387284217267163,0.0194221469364898
-0.439267497972886,0.0115725341405521
-0.414946780034565,0.00961961656236926
-0.427932665717296,0.00587094909376651
-0.440250713704232,0.00283447982908083
-0.419778573051752,0.0244051156136096
-0.473921089376874,-0.0057978766560009
-0.472278326984006,-0.000511045494974147
-0.481479898677613,-0.00330223189790327
-0.462224582421508,0.00161039685700189
-0.496485543105453,-0.00370332510426238
-0.525110258362274,-0.00834882372942416
-0.469144658510864,-0.0216853984378337
-0.50911100034128,-0.0243017102664606
-0.513837403651887,-0.00230804072446103
-0.523698443605683,0.042679982784797
-0.515992038471227,-0.00187541088480941
-0.50505612107396,0.039291027639545
-0.555486670037597,-0.0405091133760041
-0.551426884152997,0.0189298175854927
-0.521927675505879,0.0129919028445576
-0.498923158944026,-0.0224771236696641
-0.489771105553974,0.0236030639056232
-0.457053232127248,-0.0282496675179709
-0.494673527469534,-0.0258070537230136
-0.439325784036256,0.00166136432231526
-0.453928306941338,-0.00682333237702247
-0.412699756618532,-0.0177109201987412
-0.451832349875151,-0.042402756063722
-0.442488923454307,-0.0509849955454711
-0.481465238327969,-0.0316077935324167
-0.399819224774667,-0.0600681888306867
-0.377822369174708,-0.0429509618165813
-0.40356830316404,-0.0947419504248148
-0.382357682936664,-0.0929470330774126
-0.411644247812085,-0.146109717403159
-0.407146427923293,-0.088200491508455
-0.366341273282491,-0.152758790606398
-0.36522225196936,-0.16093614292284
-0.320249543481991,-0.172340754286966
-0.353022990890807,-0.241652191946061
-0.351063548706909,-0.184524704183365
-0.343947376870287,-0.238810805706238
-0.360333718826073,-0.284733487421636
-0.34781219999625,-0.31910041201865
-0.315635370239159,-0.299036240143052
-0.320853418520637,-0.309671195465528
-0.333428120625762,-0.29498350116606
-0.314102216596974,-0.354156539508876
-0.307752974443281,-0.377484070171378
-0.307726627541774,-0.396687494856166
-0.322088413955037,-0.39829076771303
-0.326876536076347,-0.387779665590838
-0.299169773947664,-0.498631523654554
-0.305972496629866,-0.507021715089972
-0.31800235351494,-0.48592386702114
-0.290747705242832,-0.484091635775451
-0.353607484226226,-0.484614023555318
-0.331982985636632,-0.502286810902917
-0.297592574588012,-0.520953693244282
-0.300898646981018,-0.537535313067069
-0.383342856821172,-0.520537854727298
-0.398939857994394,-0.616793852053119
-0.315962328325172,-0.582035265839258
-0.362038885713515,-0.597354417193669
-0.367043615645959,-0.604847799135219
-0.333268734838839,-0.617365021367011
-0.42377707735201,-0.612703036169832
-0.417770896868258,-0.645525302912302
-0.383279133307634,-0.624958223730388
-0.418271743274987,-0.610962639345455
-0.369231338823368,-0.602309737331983
-0.389247191074812,-0.630598009017259
-0.389677116435485,-0.630940868202462
-0.396560682613207,-0.646862033546413
-0.387856504681852,-0.629710017835683
-0.406370031440306,-0.604133697755675
-0.382173436819831,-0.626421906462291
-0.363816563104827,-0.625531136048236
-0.369449754978223,-0.631213354520403
-0.365917806044329,-0.619060393362775
-0.317353687924933,-0.6625442493372
-0.394485676571062,-0.650593197019314
-0.386492357826856,-0.641036878676636
-0.335118684939323,-0.589978145554167
-0.363292187727339,-0.646541893268423
-0.305453254438951,-0.604093144032206
-0.272002884603951,-0.561621577360408
-0.272776109047112,-0.584905287625259
-0.245813346937495,-0.556466831721623
-0.24697607970435,-0.600945792899755
-0.225675268997025,-0.578864845318505
-0.217771573695228,-0.620703563740938
-0.196222741535828,-0.605134990788542
-0.20520469101555,-0.646220720158134
-0.161619271775093,-0.631936938519785
-0.159282107495142,-0.658310790218162
-0.12347935223728,-0.621419111788621
-0.104979861899601,-0.62750047562289
-0.0796322549649555,-0.606161992459958
-0.117409428648445,-0.651778603353922
-0.0865882764763974,-0.69550921530392
-0.0797663721018956,-0.707797053680597
-0.0413708389836104,-0.695785013685761
-0.00253328783925248,-0.671623754394181
-0.0292903558086252,-0.642161661277857
0.0320782399403862,-0.680800493561763
0.0943334389274624,-0.700633979824097
0.0181455710639037,-0.711662197757417
0.117788391491499,-0.780821755200273
0.0661798341757509,-0.785460806314536
0.101230802690999,-0.764966278899313
0.100917161812662,-0.776946700935273
0.138798824879533,-0.837184769086111
0.0992376944951956,-0.800373434550228
0.139797641120008,-0.816212085166439
0.190030065952971,-0.798577515330017
0.153754931910738,-0.840271969618745
0.206666779067055,-0.849918043129557
0.178660634171447,-0.908986841077351
0.181032136777829,-0.870990841465832
0.201259508602437,-0.902066727165244
0.193828155080888,-0.905372177025891
0.170065074701649,-0.938266569619083
0.167899073820042,-0.869552859826715
0.143171364940693,-0.872201971950542
0.208612170101552,-0.891053552879059
0.172604015728131,-0.969058678118696
0.223474642436472,-0.943415812105571
0.180902124313366,-0.923849884401047
0.214537924541166,-0.908596892805812
0.134856968693479,-0.876724978105801
0.157806055685347,-0.945568456677714
0.181419304143529,-0.919489575176824
0.182047529500713,-0.915715643270723
0.222353420064067,-0.936438391599161
0.153413083704895,-0.912308392811004
0.152951108629519,-0.861601478145378
0.186589639512361,-0.884916165046993
0.158591490342131,-0.858473160367474
0.23822050108919,-0.859835575002833
0.216532365818804,-0.820830000536395
0.245662945068617,-0.837511560588524
0.212424451379543,-0.841811633681377
0.217425230959485,-0.800976400485179
0.220288222759295,-0.813517592903004
0.236570781698101,-0.806415503151008
0.246423675266346,-0.79412999613413
0.247983133236358,-0.817291970984851
0.274819742344869,-0.813244732909043
0.31902825745908,-0.739460644172782
0.294702118678304,-0.744926364152581
0.301633281042301,-0.735185118465664
0.323792820699104,-0.721489025086313
0.315270841708412,-0.719261097503648
0.308543645850732,-0.724935530678871
0.420913860410194,-0.739408995357841
0.359557305896183,-0.674655147982753
0.39134285205941,-0.625314747107172
0.380403051615666,-0.692229374358595
0.444509886743606,-0.655491713681409
0.43881064168124,-0.695253536203177
0.471144777655464,-0.60294348854103
0.541427520641745,-0.588973116881668
0.521665735367944,-0.678203943766299
0.538020170538128,-0.630003817478916
0.597416706906032,-0.622047102264343
0.574253305656164,-0.625354591898638
0.590060350978655,-0.651194136147424
0.563785433467622,-0.622568443522417
0.629813935324479,-0.634868784963448
0.640885482862871,-0.624615812330534
0.620733205653866,-0.633902857493765
0.713555094771141,-0.652471501050931
0.688916740403133,-0.611303738328046
0.681999638712119,-0.676404514272245
0.713272558446568,-0.639127606745615
0.735451951932009,-0.661690781560918
0.710249601331794,-0.600386052953695
0.735612597762332,-0.645011828917417
0.693736842151375,-0.68462449309374
0.768649815384858,-0.646857313591479
0.721199683998017,-0.624339621996456
0.768443396924083,-0.698725446641519
0.742467952238764,-0.67757425859907
0.764334339003421,-0.659946959460185
0.81360645521696,-0.613929318457263
0.76482711214168,-0.628496446448834
