0.691957967865148,0.515775354709793
0.684491889814474,0.505998459276116
0.677050064203021,0.49634847550573
0.669632580635999,0.486824027941825
0.66223953292788,0.477423763705275
0.654871018964791,0.468146351878799
0.647527140570349,0.458990482909347
0.640208003374814,0.449954868028116
0.632913716687456,0.441038238687584
0.62564439337204,0.432239346015017
0.61840014972531,0.42355696028189
0.611181105358382,0.414989870388701
0.60398738308096,0.406536883364672
0.596819108788275,0.398196823881859
0.589676411350659,0.389968533783185
0.582559422505684,0.381850871623968
0.575468276752767,0.373842712226495
0.568403111250179,0.365942946247229
0.561364065714376,0.358150479756247
0.554351282321581,0.350464233828523
0.547364905611552,0.342883144146677
0.540405082393465,0.335406160614839
0.533471961653845,0.32803224698327
0.526565694466497,0.320760380483413
0.519686433904361,0.313589551473054
0.512834334953243,0.306518763091268
0.506009554427365,0.29954703092287
0.499212250886686,0.292673382672062
0.492442584555922,0.285896857845008
0.485700717245255,0.279216507441066
0.478986812272631,0.272631393652415
0.472301034387653,0.26614058957182
0.465643549696989,0.25974317890831
0.459014525591263,0.253438255710507
0.452414130673396,0.247224924097413
0.445842534688341,0.241102297996401
0.439299908454189,0.235069500888231
0.432786423794597,0.229125665558866
0.426302253472511,0.223269933857893
0.419847571125144,0.217501456463371
0.413422551200177,0.211819392652908
0.407027368893147,0.206222910080789
0.400662200086004,0.200711184560999
0.394327221286786,0.19528339985595
0.388022609570402,0.189938747470767
0.381748542520486,0.184676426452978
0.375505198172293,0.179495643197444
0.369292754956614,0.174395611256393
0.363111391644689,0.169375551154417
0.356961287294083,0.164434690208289
0.350842621195509,0.159572262351469
0.344755572820577,0.154787507963173
0.338700321770433,0.150079673701884
0.332677047725287,0.145448012343172
0.326685930394793,0.14089178262172
0.320727149469268,0.136410249077433
0.314800884571726,0.132002681905531
0.30890731521072,0.127668356810501
0.303046620733953,0.123406554863833
0.297218980282663,0.119216562365411
0.291424572746749,0.11509767070848
0.285663576720627,0.111049176248098
0.279936170459805,0.10707038017296
0.274242531838151,0.103160588380533
0.268582838305847,0.0993191113553967
0.262957266848013,0.0955452640507185
0.257365993943986,0.0918383657727721
0.251809195527237,0.0881977400684308
0.246287046945927,0.0846227146155538
0.240799722924063,0.0811126211161923
0.235347397523272,0.0776667951925474
0.229930244105157,0.0742845762856046
0.224548435294241,0.0709653075563822
0.21920214294147,0.0677083357897256
0.213891538088284,0.0645130113005844
0.208616790931226,0.0613786878427098
0.203378070787097,0.0583047225197126
0.198175546058631,0.0552904756984245
0.193009384200692,0.0523353109245025
0.187879751686978,0.049438594840225
0.182786813977223,0.0465996971044233
0.177730735484892,0.0438179903144969
0.172711679545356,0.041092849930463
0.167729808384546,0.0384236542009888
0.162785283088061,0.0358097840913591
0.157878263570749,0.0332506232133347
0.153008908546729,0.030745557756852
0.14817737549986,0.0282939764235227
0.143383820654643,0.0258952703618897
0.138628398947557,0.023548833104397
0.133911263998818,0.0212540605060321
0.129232568084548,0.0190103506846027
0.124592462109358,0.0168171039626077
0.119991095579341,0.0146737228106647
0.11542861657545,0.0125796117924586
0.110905171727282,0.0105341775111745
0.106420906187238,0.00853682855737865
0.101975963605073,0.00658697545831735
0.097570486102814,0.00468403062859591
0.0932046142500556,0.00282740832220958
0.0888784870396188,0.00101652458589149
0.0845922418635717,-0.000749202786250194
0.0803460144896062,-0.00247035429683796
0.0761399390377668,-0.00414750878810169
0.0719741479575279,-0.00578124348355544
0.0678487720052132,-0.00737213402850067
0.0637639402217554,-0.00892075452938569
0.05971977991079,-0.0104276775920448
0.0557164166170801,-0.0118934743588459
0.05175397410527,-0.0133187145447682
0.0478325743389602,-0.0147039664724394
0.0439523374601036,-0.0160497971061511
0.040113381768718,-0.0173567720848806
0.0363158237029105,-0.0186254557543382
0.032559777819213,-0.0198564111980663
0.028845356773222,-0.021050200267608
0.0251726713005435,-0.02220738361177
0.021541830198036,-0.0233285207049988
0.0179529403053519,-0.0244141698748918
0.0144061064867723,-0.0254648883288623
0.0109014316133327,-0.0264812321799784
0.00743901654523696,-0.0274637564719953
0.00401896011455841,-0.0284130152035991
0.000641359108221301,-0.0293295613518807
-0.00269369174873502,-0.0302139468950574
-0.00598609980961531,-0.0310667228344609
-0.0092357745222523,-0.0318884392158062
-0.0124426274449168,-0.0326796451497624
-0.0156065722619582,-0.0334408888318366
-0.0187275247991759,-0.0341727175615927
-0.0218054030389249,-0.0348756777612155
-0.024840127134958,-0.0355503149934396
-0.0278316194270055,-0.0361971739788564
-0.0307798044550956,-0.0368167986126141
-0.0336846089736176,-0.0374097319805258
-0.0365459619651289,-0.0379765163745995
-0.039363794653909,-0.0385176933080049
-0.0421380405192611,-0.0390338035294892
-0.0448686353085648,-0.0395253870372567
-0.04755551705008,-0.039992983092325
-0.050198626065505,-0.040437130231371
-0.0527979049822907,-0.0408583662790785
-0.0553532987457109,-0.0412572283600013
-0.0578647546306934,-0.0416342529099531
-0.06033222225341,-0.0419899756869368
-0.0627556535826305,-0.0423249317816245
-0.0651350029508394,-0.0426396556274008
-0.0674702270651194,-0.0429346810099795
-0.0697612850178007,-0.0432105410766062
-0.0720081382968802,-0.0434677683448579
-0.0742107507962102,-0.0437068947110486
-0.076369088825459,-0.0439284514582546
-0.0784831211198443,-0.0441329692639675
-0.0805528188496418,-0.0443209782073865
-0.0825781556294695,-0.0444930077763604
-0.084559107527349,-0.0446495868739882
-0.0864956530735461,-0.0447912438248897
-0.0883877732691916,-0.0449185063811548
-0.090235451594683,-0.0450319017279816
-0.09203867401787,-0.0451319564890128
-0.0937974290020229,-0.0452191967313794
-0.0955117075135878,-0.0452941479704611
-0.0971815030297273,-0.0453573351743733
-0.0988068115456503,-0.0454092827681883
-0.10038763158173,-0.0454505146379004
-0.101923964190415,-0.0454815541341437
-0.103415812962927,-0.045502924075671
-0.104863184035756,-0.0455151467526025
-0.106266086096952,-0.0455187439294526
-0.107624530392202,-0.0455142368479432
-0.108938530730718,-0.0455021462296117
-0.110208103490909,-0.0454829922782226
-0.111433267625862,-0.045457294681989
-0.112614044668617,-0.0454255726156145
-0.113750458737249,-0.0453883447421606
-0.114842536539748,-0.0453461292147501
-0.115890307378706,-0.0452994436781125
-0.116893803155805,-0.0452488052699798
-0.117853058376117,-0.0451947306223396
-0.118768110152205,-0.0451377358625546
-0.119638998208038,-0.0450783366143547
-0.120465764882714,-0.0450170479987085
-0.12124845513399,-0.0449543846345842
-0.121987116541629,-0.0448908606396043
-0.12268179931056,-0.044826989630603
-0.123332556273849,-0.0447632847240934
-0.123939442895487,-0.0447002585366512
-0.124502517272997,-0.0446384231852222
-0.125021840139856,-0.0445782902873616
-0.125497474867735,-0.0445203709614098
-0.125929487468567,-0.044465175826615
-0.126317946596423,-0.0444132150032065
-0.126662923549227,-0.0443649981124281
-0.12696449227028,-0.0443210342765364
-0.127222729349616,-0.0442818321187733
-0.12743771402519,-0.0442478997633167
-0.127609528183877,-0.0442197448352193
-0.127738256362319,-0.0441978744603403
-0.127823985747589,-0.0441827952652766
-0.127866806177689,-0.0441750133773028
-0.127866810141885,-0.044175034424324
-0.127824092780868,-0.0441833635348495
-0.127738751886758,-0.0442005053379944
-0.127610887902939,-0.0442269639635151
-0.127440603923734,-0.0442632430418867
-0.127228005693915,-0.0443098457044274
-0.126973201608059,-0.0443672745834785
-0.126676302709744,-0.0444360318126453
-0.126337422690581,-0.0445166190271067
-0.125956677889102,-0.0446095373640001
-0.125534187289482,-0.044715287462888
-0.125070072520116,-0.0448343694663139
-0.12456445785204,-0.0449672830204538
-0.124017470197205,-0.0451145272758698
-0.123429239106599,-0.0452766008883745
-0.122799896768219,-0.045454002020011
-0.122129578004911,-0.0456472283401567
-0.121418420272043,-0.0458567770267576
-0.120666563655057,-0.0460831447677
-0.119874150866864,-0.0463268277623275
-0.119041327245108,-0.0465883217231088
-0.118168240749286,-0.0468681218774653
-0.117255041957735,-0.0471667229697641
-0.116301884064481,-0.0474846192634848
-0.115308922875956,-0.0478223045435669
-0.114276316807581,-0.0481802721189455
-0.113204226880222,-0.0485590148252814
-0.112092816716513,-0.0489590250278956
-0.110942252537052,-0.0493807946249129
-0.109752703156478,-0.0498248150506246
-0.108524339979416,-0.0502915772790761
-0.107257336996303,-0.0507815718278879
-0.105951870779096,-0.0512952887623189
-0.104608120476862,-0.0518332176995772
-0.103226267811243,-0.0523958478133893
-0.101806497071821,-0.0529836678388338
-0.100348995111352,-0.0535971660774484
-0.0988539513409094,-0.0542368304026183
-0.097321557724899,-0.0549031482652547
-0.0957520087759806,-0.0555966066997712
-0.0941455015498782,-0.056317692330367
-0.0925022356400886,-0.0570668913776252
-0.0908224131724892,-0.057844689665436
-0.0891062387998467,-0.0586515726282513
-0.0873539196962288,-0.0594880253186829
-0.0855656655513214,-0.0603545324154501
-0.0837416885646538,-0.0612515782316885
-0.0818822034397322,-0.0621796467236275
-0.079987427378087,-0.0631392214996476
-0.0780575800732331,-0.0641307858297251
-0.076092883704547,-0.0651548226552759
-0.0740935629310633,-0.0662118145994075
-0.0720598448851918,-0.0673022439775884
-0.0699919591663591,-0.0684265928087472
-0.0678901378345758,-0.0695853428268087
-0.0657546154039332,-0.0707789754926811
-0.0635856288360301,-0.0720079720067022
-0.0613834175333351,-0.0732728133215562
-0.0591482233324841,-0.0745739801556737
-0.0568802904975177,-0.0759119530071231
-0.0545798657130605,-0.0772872121680086
-0.0522471980774454,-0.0787002377393825
-0.0498825390957845,-0.0801515096466873
-0.0474861426729922,-0.081641507655737
-0.0450582651067601,-0.0831707113892514
-0.0425991650804891,-0.0847396003439548
-0.040109103656181,-0.0863486539082533
-0.0375883442672923,-0.0879983513805019
-0.0350371527115539,-0.0896891719878766
-0.0324557971437597,-0.091421594905863
-0.029844548068527,-0.093196099278377
-0.0272036783330334,-0.0950131642385299
-0.0245334631197311,-0.096873268930054
-0.0218341799390449,-0.0987768925294018
-0.019106108622055,-0.100724514268534
-0.0163495313131704,-0.102716613458413
-0.0135647324627938,-0.104753669513216
-0.0107519988199851,-0.106836161975279
-0.00791161942512385,-0.108964570540804
-0.00504388560257731,-0.111139375086321
-0.00214909095337662,-0.113361055695945
0.00077246865209496,-0.115630092689432
0.00372049508139682,-0.117946966651053
0.00669468794730527,-0.120312158459311
0.00969474461506264,-0.122726149317511
0.0127203602095974,-0.125189420785207
0.0157712276227103,-0.127702454810542
0.0188470375202217,-0.130265733763504
0.0219474783490771,-0.132879740470116
0.0250722363444039,-0.135544958247582
0.0282209955365162,-0.138261870940404
0.0313934377578622,-0.141030962957508
0.034589242649909,-0.143852719310377
0.03780808766996,-0.146727625652235
0.0410496480978993,-0.149656168318294
0.0443135970428583,-0.152638834367089
0.0475996054497979,-0.15567611162293
0.0509073421060025,-0.15876848871949
0.0542364736474782,-0.16191645514456
0.0575866645652511,-0.165120501285986
0.0609575772115573,-0.168381118478837
0.0643488718059219,-0.171698799053804
0.0677602064411179,-0.17507403638688
0.0711912370889995,-0.178507324950336
0.0746416176062034,-0.181999160365036
0.0781109997397123,-0.185550039454101
0.0815990331322716,-0.189160460297979
0.0851053653276542,-0.192830922290929
0.088629641775766,-0.19656192619897
0.092171505837583,-0.200353974219315
0.0957305987899159,-0.204207570041333
0.0993065598299907,-0.208123218909073
0.10289902607984,-0.212101427685384
0.106507632590496,-0.216142704917667
0.110132012345977,-0.220247560905308
0.113771796267061,-0.22441650776881
0.117426613214831,-0.228650059520695
0.121096089993994,-0.232948732138184
0.124779851355953,-0.237313043637723
0.128477520001632,-0.241743514151393
0.13218871658404,-0.246240666005234
0.135913059710563,-0.250805023799556
0.139650165944977,-0.255437114491259
0.143399649809169,-0.260137467478228
0.147161123784561,-0.264906614685847
0.150934198313219,-0.269745090655681
0.154718481798635,-0.274653432636391
0.158513580606183,-0.279632180676917
0.162319099063221,-0.284681877722008
0.166134639458839,-0.289803069710136
0.169959802043235,-0.29499630567388
0.173794185026706,-0.300262137842801
0.177637384578245,-0.305601121748924
0.181488994823726,-0.311013816334839
0.185348607843665,-0.31650078406453
0.189215813670546,-0.322062591036977
0.19309020028569,-0.327699807102611
0.196971353615661,-0.333413005982694
0.200858857528186,-0.339202765391697
0.204752293827575,-0.345069667162763
0.208651242249631,-0.35101429737632
0.212555280456023,-0.357037246491943
0.216463984028114,-0.363139109483534
0.220376926460217,-0.369320485977927
0.224293679152274,-0.375581980396989
0.228213811401919,-0.38192420210332
0.232136890395934,-0.388347765549656
0.236062481201044,-0.394853290432058
0.239990146754061,-0.401441401847
0.243919447851342,-0.408112730452457
0.247849943137531,-0.414867912633113
0.251781189093582,-0.421707590669786
0.255712740024027,-0.428632412913193
0.259644148043463,-0.435643033962179
0.263574963062246,-0.442740114846532
0.267504732771353,-0.449924323214508
0.271433002626394,-0.457196333525198
0.275359315830747,-0.464556827245882
0.279283213317779,-0.472006493054507
0.283204233732141,-0.479546027047423
0.287121913410088,-0.487176132952547
0.291035786358811,-0.4948975223481
0.294945384234738,-0.502710914887078
0.29885023632077,-0.510617038527622
0.302749869502437,-0.518616629769467
0.306643808242907,-0.52671043389664
0.310531574556847,-0.534899205226594
0.314412687983071,-0.543183707365966
0.318286665555956,-0.551564713473159
0.322153021775571,-0.560043006527953
0.326011268576491,-0.568619379608347
0.329860915295246,-0.577294636174862
0.333701468636364,-0.586069590362525
0.337532432636956,-0.594945067280761
0.341353308629812,-0.603921903321454
0.34516359520494,-0.613000946475405
0.348962788169514,-0.622183056657467
0.352750380506165,-0.631469106040607
0.356525862329573,-0.640859979399199
0.3602887208413,-0.650356574461805
0.364038440282801,-0.659959802273778
0.367774501886562,-0.669670587569963
0.371496383825297,-0.679489869157855
0.375203561159141,-0.689418600311511
0.378895505780773,-0.699457749176591
0.382571686358402,-0.709608299186879
0.38623156827654,-0.719871249492641
0.389874613574489,-0.73024761540124
0.39350028088247,-0.740738428830374
0.397108025355307,-0.751344738774382
0.400697298603587,-0.762067611784037
0.404267548622208,-0.772908132460275
0.407818219716229,-0.783867403962336
0.411348752423926,-0.794946548530798
0.414858583436958,-0.806146708026005
0.418347145517546,-0.817469044482415
0.421813867412552,-0.828914740679422
0.42525817376437,-0.840485000729198
0.428679485018485,-0.852181050682172
0.43207721732762,-0.864004139150726
