0.00848564043799726,-0.702708907254362
0.00848586983854996,-0.702613011588253
0.00849861825479425,-0.702324997451433
0.00854193667107652,-0.701844410941743
0.00863378782938706,-0.701170848256852
0.00879200166920877,-0.700303956961355
0.00903423106977723,-0.69924343723329
0.0093779079946175,-0.697989043087172
0.00984020013732349,-0.6965405835707
0.0104379681664253,-0.694897923932281
0.0111877236658507,-0.693060986756602
0.0121055878659322,-0.691029753065491
0.0132072512581448,-0.688804263381401
0.0145079341847827,-0.686384618750868
0.0160223484926072,-0.683770981725401
0.0177646603371171,-0.680963577297313
0.0197484542215237,-0.677962693788069
0.0219866983517526,-0.674768683686843
0.0244917113858524,-0.671381964437036
0.0272751306530756,-0.667803019168605
0.030347881914612,-0.664032397374169
0.0337201507345088,-0.660070715526936
0.0374013555257151,-0.655918657638624
0.0414001223324423,-0.651576975755644
0.0457242614061532,-0.647046490391945
0.0503807456284832,-0.642328090897023
0.0553756908302706,-0.63742273575773
0.0607143380516317,-0.632331452832651
0.066401037783683,-0.627055339517922
0.0724392362280787,-0.621595562843524
0.0788314636060255,-0.615953359499196
0.085579324543854,-0.610130035789268
0.0926834905575825,-0.604126967515826
0.100143694654221,-0.597945599789794
0.107958728062829,-0.591587446769629
0.116126439103578,-0.585054091327476
0.12464373419829,-0.578347184642779
0.133506581021148,-0.571468445723479
0.142710013783459,-0.564419660855072
0.152248140641619,-0.55720268297793
0.162114153212645,-0.549819430993465
0.172300338176947,-0.542271888999811
0.182798090943342,-0.534562105457859
0.193597931346699,-0.526692192288627
0.204689521344043,-0.518664323903056
0.216061684670509,-0.510480736165476
0.22770242841211,-0.50214372529211
0.239598966448037,-0.493655646686101
0.251737744710992,-0.485018913710693
0.264104468209997,-0.476235996402294
0.276684129756194,-0.467309420125278
0.28946104032831,-0.458241764170499
0.302418861010812,-0.449035660299594
0.315540636434236,-0.439693791237246
0.328808829643841,-0.43021888911371
0.342205358319492,-0.420613733859957
0.355711632266692,-0.410881151557917
0.369308592095809,-0.401024012748371
0.382976749003879,-0.391045230699117
0.396696225570907,-0.380947759636127
0.410446797480294,-0.370734592940456
0.424207936070952,-0.360408761313749
0.437958851626791,-0.349973330915232
0.451678537307612,-0.339431401473131
0.465345813623988,-0.328786104373507
0.478939373357483,-0.318040600729527
0.492437826826554,-0.307198079434223
0.50581974739771,-0.296261755199831
0.519063717140897,-0.285234866586786
0.532148372527798,-0.274120674025501
0.545052450071576,-0.262922457834027
0.557754831806735,-0.251643516234717
0.570234590508092,-0.24028716337299
0.582471034548444,-0.22885672734128
0.594443752295284,-0.217355548211244
0.606132655947935,-0.205786976077255
0.617518024717723,-0.194154369114199
0.628580547255225,-0.182461091652514
0.639301363230327,-0.170710512273411
0.649662103972679,-0.158906001927122
0.659644932082222,-0.14705093207698
0.669232579921739,-0.135148672872066
0.678408386905866,-0.123202591351101
0.687156335503665,-0.111216049680145
0.69546108587471,-0.09919240342664
0.70330800906168,-0.0871349998721883
0.710683218665642,-0.075047176366417
0.717573600933593,-0.0629322587241374
0.72396684319134,-0.0507935596679392
0.72985146055848,-0.0386343773182376
0.735216820886063,-0.0264579937326814
0.740053167861449,-0.0142676734967218
0.744351642228977,-0.00206666236701843
0.748104301079211,0.0101418140307597
0.751304135163851,0.0223545514483044
0.75394508419777,0.0345683682039078
0.756022050114124,0.0467801063133909
0.75753090824301,0.0589866325616823
0.758468516388787,0.0711848395141339
0.758832721785833,0.0833716464668013
0.758622365917239,0.0955440003350535
0.757837287185661,0.107698876480012
0.756478321430383,0.119833279472457
0.754547300289365,0.131944243793991
0.752047047409898,0.144028834475356
0.748981372516237,0.156084147671998
0.745355063347357,0.168107311177033
0.741173875482725,0.180095484871992
0.736444520078644,0.192045861115781
0.731174649542416,0.203955665072486
0.725372841176103,0.215822154978758
0.719048578826227,0.227642622351639
0.712212232580145,0.239414392137853
0.704875036554203,0.251134822805671
0.697049064822989,0.26280130638061
0.688747205543161,0.274411268426337
0.679983133329324,0.285962167972275
0.670771279943301,0.297451497389509
0.66112680336193,0.308876782216702
0.651065555292061,0.320235580937846
0.640604047204942,0.331525484713775
0.629759414965402,0.342744117069435
0.618549382134426,0.353889133539048
0.606992222026594,0.364958221271335
0.595106718606674,0.3759490985971
0.582912126312205,0.386859514561511
0.570428128891276,0.397687248423501
0.557674797346928,0.40843010912479
0.54467254708153,0.419085934731048
0.531442094336309,0.429652591847829
0.518004412022711,0.440127975013883
0.504380685043661,0.450510006074571
0.490592265203879,0.460796633538063
0.476660625809335,0.470985831917099
0.462607316056582,0.481075601059052
0.448453915313175,0.491063965467094
0.434221987390613,0.500948973615244
0.419933034911228,0.510728697260102
0.405608453870243,0.520401230752033
0.391269488493737,0.5299646903486
0.376937186492632,0.53941721353299
0.362632354811857,0.548756958340162
0.348375515972783,0.557982102693433
0.334186865105639,0.567090843754149
0.320086227767099,0.576081397287068
0.306093018636447,0.584951997044039
0.292226201181753,0.593700894168464
0.278504248385325,0.602326356623029
0.264945104615321,0.610826668643063
0.251566148727823,0.619200130217859
0.238384158480946,0.627445056602178
0.225415276339576,0.635559777860102
0.212674976746249,0.643542638443279
0.200178034930384,0.651391996805554
0.187938497324638,0.659106225055837
0.175969653653555,0.666683708650991
0.164284010755947,0.674122846130392
0.152893268198551,0.681422048893719
0.141808295734498,0.688579741023408
0.13103911265603,0.695594359153093
0.120594869086616,0.702464352383227
0.110483829253327,0.709188182244959
0.100713356775874,0.715764322713219
0.0912899020042022,0.722191260269822
0.0822189914319806,0.728467494017285
0.0735052192086442,0.734591535843911
0.0651522407679899,0.740561910640561
0.0571627685865779,0.746377156569399
0.0495385700804275,0.752035825384757
0.0422804676437284,0.757536482806145
0.0353883408284894,0.762877708943266
0.0288611306592646,0.768058098772786
0.0226968460723289,0.773076262666469
0.0168925724639226,0.777930826970123
0.011444482327471,0.782620434632715
0.00634784795502038,0.78714374588484
0.00159705617351569,0.79149943896562
-0.00281437491800136,0.795686210896964
-0.00689377724866318,0.799702778304013
-0.0106493121562965,0.803547878280443
-0.014089947895254,0.807220269297206
-0.0172254353228121,0.810718732153136
-0.0200662818194514,0.814042070965766
-0.0226237235022867,0.817189114200572
-0.0249096957947263,0.820158715736742
-0.0269368024191115,0.82294975596749
-0.0287182828826096,0.82556114293281
-0.0302679785300021,0.827991813482494
-0.0316002972402096,0.830240734467118
-0.0327301768464244,0.832306903954644
-0.0336730473625735,0.834189352470192
-0.0344447921015007,0.835887144256455
-0.0350617077727332,0.837399378552176
-0.0355404636499745,0.838725190886034
-0.0358980599005467,0.839863754383221
-0.0361517851708733,0.840814281081966
-0.0363191735237592,0.841576023257178
-0.0364179608246671,0.842148274748383
-0.0364660406754253,0.842530372289056
-0.0364814199948071,0.842721696834465
-0.036482174346215,0.84272167488508
-0.0364864031132633,0.842529779802627
-0.0365121846243941,0.842145533115821
-0.0365775313277742,0.841568505812859
-0.0367003451176082,0.840798319617705
-0.0368983729126615,0.83983464824726
-0.0371891625872272,0.8386772186465
-0.037590019353978,0.837325812198701
-0.0381179626971376,0.835780265907909
-0.0387896839531737,0.834040473550829
-0.0396215046347694,0.832106386795386
-0.0406293355921657,0.829978016283224
-0.0418286371040992,0.827655432673508
-0.0432343799884794,0.825138767645408
-0.0448610078206728,0.822428214856768
-0.0467224003447832,0.819524030856491
-0.0488318381606549,0.816426535948279
-0.0512019687664706,0.813136115003443
-0.0538447740337901,0.809653218220587
-0.0567715391886708,0.805978361830077
-0.0599928233691498,0.802112128741296
-0.0635184318258392,0.798055169130784
-0.0673573898287196,0.793808200969508
-0.0715179183393974,0.789372010487559
-0.0760074115041531,0.784747452574766
-0.0808324160190325,0.779935451115764
-0.0859986124140507,0.774936999258234
-0.0915107982992904,0.769753159613134
-0.0973728736112914,0.764385064385865
-0.103587827893653,0.758833915437477
-0.110157729641231,0.753100984275117
-0.117083717732694,0.747187611971093
-0.124365994971534,0.741095209010046
-0.132003823750914,0.73482525506386
-0.139995523853001,0.728379298694102
-0.148338472388625,0.721758956981896
-0.157029105878375,0.714965915085303
-0.166062924471388,0.708001925724402
-0.175434498293376,0.700868808594424
-0.185137475910621,0.693568449707414
-0.195164594891957,0.68610280066306
-0.205507694446086,0.678473877849435
-0.216157730106887,0.670683761574573
-0.227104790434847,0.662734595129905
-0.238338115698192,0.654628583786727
-0.249846118492896,0.646367993727006
-0.261616406256391,0.637955150909952
-0.273635805625578,0.629392439875911
-0.285890388585591,0.620682302489261
-0.298365500351782,0.611827236622109
-0.311045788923496,0.602829794780692
-0.323915236244482,0.593692582676523
-0.33695719090116,0.584418257744393
-0.350154402286552,0.575009527609472
-0.363489056154377,0.565469148505846
-0.3769428114847,0.555799923648893
-0.390496838579607,0.546004701564027
-0.404131858304574,0.536086374374394
-0.417828182388685,0.526047876050191
-0.431565754694419,0.515892180622347
-0.445324193365601,0.505622300363375
-0.459082833760102,0.495241283938255
-0.472820772072117,0.484752214528265
-0.486516909547315,0.474158207930741
-0.500149997192784,0.463462410637741
-0.513698680882609,0.45266799789668
-0.527141546758991,0.441778171755995
-0.540457166828173,0.430796159098921
-0.553624144649967,0.419725209668489
-0.566621161019446,0.408568594086859
-0.579427019539406,0.397329601872092
-0.592020691982372,0.386011539455476
-0.604381363341428,0.374617728202499
-0.616488476469804,0.363151502440546
-0.628321776210061,0.351616207496372
-0.639861352914828,0.340015197746374
-0.651087685262412,0.328351834682637
-0.66198168227212,0.316629484997714
-0.672524724425942,0.304851518690994
-0.682698703805196,0.293021307199527
-0.692486063152921,0.281142221556049
-0.701869833775192,0.269217630576921
-0.710833672197101,0.257250899082607
-0.719361895491906,0.245245386153237
-0.727439515204798,0.233204443421722
-0.735052269795863,0.221131413406789
-0.742186655530083,0.209029627888221
-0.748829955745679,0.196902406326474
-0.754970268435717,0.184753054328754
-0.760596532081608,0.172584862163508
-0.765698549681057,0.160401103325203
-0.770267010916987,0.148205033151104
-0.774293512418134,0.135999887491691
-0.777770576066219,0.123788881436209
-0.780691665308962,0.111575208094701
-0.783051199442631,0.0993620374377918
-0.784844565832323,0.0871525151953061
-0.786068130042779,0.0749497618147204
-0.786719243857158,0.0627568714802748
-0.7867962511659,0.0505769111934574
-0.786298491712552,0.0384129199154267
-0.785226302688166,0.0262679077718016
-0.78358101817071,0.0141448553201092
-0.781364966410672,0.00204671288004175
-0.778581464968848,-0.0100236000734681
-0.775234813717109,-0.0220631954544792
-0.771330285717628,-0.0340692170478455
-0.766874116000824,-0.0460388409290032
-0.761873488266929,-0.0579692758222686
-0.756336519540687,-0.0698577633983308
-0.750272242813266,-0.0817015785117414
-0.74369058770993,-0.0934980293793411
-0.736602359226398,-0.105244457700683
-0.72901921458112,-0.116938238721658
-0.720953638234882,-0.128576781242611
-0.712418915133223,-0.14015752757241
-0.703429102231112,-0.151677953429984
-0.693998998363106,-0.16313556779502
-0.684144112525943,-0.174527912709566
-0.673880630644003,-0.185852563032407
-0.663225380891468,-0.197107126148208
-0.652195797648188,-0.208289241633456
-0.640809884169321,-0.219396580881375
-0.629086174051661,-0.230426846688044
-0.617043691582205,-0.241377772802024
-0.604701911057047,-0.2522471234399
-0.592080715160914,-0.263032692770171
-0.579200352499764,-0.273732304368026
-0.56608139438075,-0.284343810643561
-0.552744690935482,-0.294865092246071
-0.539211326684007,-0.305294057447074
-0.525502575638142,-0.315628641504779
-0.5116398560438,-0.325866806012718
-0.497644684862759,-0.336006538235308
-0.483538632094866,-0.346045850433124
-0.469343275042035,-0.355982779180655
-0.45508015261549,-0.365815384679343
-0.440770719787612,-0.375541750068695
-0.426436302289389,-0.385159980738251
-0.412098051653941,-0.39466820364316
-0.39777690070575,-0.404064566626141
-0.383493519594289,-0.4133472377485
-0.369268272469442,-0.42251440463294
-0.355121174894719,-0.431564273820757
-0.341071852092574,-0.440495070146051
-0.327139498114268,-0.449305036129495
-0.313342836024684,-0.457992431394119
-0.299700079190141,-0.466555532105566
-0.286228893754879,-0.474992630439146
-0.272946362389122,-0.483302034075979
-0.259868949388879,-0.4914820657304
-0.247012467204506,-0.499531062710764
-0.234392044471952,-0.507447376515642
-0.222022095617176,-0.515229372467343
-0.209916292100733,-0.522875429384575
-0.198087535365854,-0.53038393929597
-0.18654793154951,-0.537753307196073
-0.175308768012046,-0.54498195084529
-0.164380491736855,-0.55206830061518
-0.153772689647418,-0.55901079938034
-0.143494070884716,-0.565807902458033
-0.133552451083672,-0.572458077596552
-0.123954738682754,-0.57895980501323
-0.114706923296404,-0.585311577482809
-0.105814066175249,-0.591511900476844
-0.0972802927744721,-0.597559292354578
-0.0891087874459525,-0.603452284605672
-0.0813017902650461,-0.609189422145008
-0.0738605959981307,-0.614769263659625
-0.066785555212212,-0.620190382007759
-0.0600760775231491,-0.625451364669779
-0.0537306369742255,-0.630550814250693
-0.0477467795320825,-0.635487349033766
-0.0421211326822519,-0.64025960358464
-0.0368494171018701,-0.644866229405239
-0.031926460382493,-0.649305895636571
-0.0273462127713543,-0.653577289809454
-0.0231017648949047,-0.657679118642021
-0.0191853674240338,-0.661610108882768
-0.0155884526360419,-0.665369008197763
-0.0123016578241881,-0.668954586100518
-0.00931485050151705,-0.67236563492292
-0.00661715534165137,-0.67560097082549
-0.00419698279536712,-0.678659434845133
-0.00204205931800997,-0.681539893978431
-0.000139459139229345,-0.68424124229845
0.00152436249695432,-0.686762402102905
0.00296353469700773,-0.689102325091448
0.00419273496604574,-0.691259993569766
0.00522715202061914,-0.693234421678081
0.00608244745020335,-0.695024656641554
0.00677471631404344,-0.69662978004007
0.00732044676238057,-0.698048909094746
0.00773647877327052,-0.699281197968508
0.00803996209817573,-0.70032583907799
0.00824831351128176,-0.701182064413971
0.00837917345904332,-0.701849146867519
0.00845036220780394,-0.702326401558995
0.00847983558845483,-0.702613187166998
0.00848564043799726,-0.702708907254362
