-0.367109803396899,0.617816935304479
-0.357107177171405,0.614815943101316
-0.347212622191086,0.611796190407552
-0.337425072787684,0.608758160496703
-0.327743482487365,0.605702333221167
-0.318166823480327,0.602629185087439
-0.30869408610593,0.599539189328586
-0.299324278352809,0.596432815974097
-0.290056425373479,0.59331053191717
-0.28088956901295,0.590172800979543
-0.27182276735089,0.587020083973946
-0.262855094256876,0.583852838764246
-0.253985638958322,0.580671520323374
-0.245213505620664,0.5774765807891
-0.236537812939402,0.57426846951773
-0.227957693743614,0.571047633135794
-0.219472294610588,0.567814515589783
-0.211080775491193,0.56456955819402
-0.202782309345677,0.561313199676698
-0.194576081789532,0.558045876224167
-0.186461290749132,0.554768021523514
-0.178437146126827,0.5514800668035
-0.170502869475202,0.548182440873898
-0.162657693680211,0.544875570163291
-0.154900862652924,0.541559878755377
-0.147231631029606,0.538235788423823
-0.139649263879891,0.534903718665726
-0.132153036422786,0.531564086733713
-0.124742233750292,0.528217307666733
-0.117416150558382,0.524863794319577
-0.110174090885146,0.521503957391164
-0.103015367855867,0.518138205451635
-0.0959393034348304,0.514766944968302
-0.0889452281836749,0.511390580330466
-0.0820324810260759,0.508009513873156
-0.0752004090185914,0.504624145899825
-0.0684483671274845,0.501234874704017
-0.061775718011346,0.497842096590058
-0.0551818318093574,0.494446205892789
-0.0486660859350266,0.491047594996377
-0.0422278648752405,0.487646654352225
-0.0358665599944861,0.484243772496015
-0.0295815693440901,0.480839336063911
-0.0233722974763384,0.477433729807949
-0.0172381552633368,0.474027336610627
-0.0111785597204807,0.470620537498743
-0.005192933834408,0.467213711656474
0.000719293604694027,0.463807236437753
0.00655868816654132,0.460401487377937
0.0123258099400874,0.456996838204801
0.0180212136888462,0.453593660848884
0.0236454490023182,0.450192325453194
0.0291990604436209,0.446793200382297
0.0346825876934264,0.443396652230818
0.0400965656903079,0.44000304583136
0.0454415247675876,0.436612744261861
0.0507179907867806,0.433226108852415
0.0559264852677234,0.429843499191563
0.0610675255154784,0.426465273132079
0.0661416247440923,0.423091786796264
0.0711492921972961,0.419723394580757
0.0760910332662225,0.416360449160893
0.0809673496042222,0.413003301494602
0.0857787392388478,0.409652300825889
0.0905256966810824,0.406307794687882
0.0952087130318828,0.402970128905478
0.0998282760861039,0.399639647597601
0.104384870433871,0.396316693179073
0.108878977559464,0.393001606362119
0.11331107593778,0.38969472615752
0.117681641128428,0.386396389875414
0.121991145867517,0.383106933125768
0.126240060157203,0.379826689818534
0.130428851353032,0.376555992163483
0.134557984249151,0.373295170669744
0.138627921161436,0.370044554145055
0.142639122008571,0.366804469694725
0.146592044391155,0.363575242720337
0.150487143668859,0.360357196918177
0.1543248730357,0.357150654277419
0.158105683593465,0.353955935078066
0.161830024423329,0.350773357888651
0.165498342655721,0.347603239563715
0.169111083538465,0.344445895241072
0.172668690503252,0.341301638338855
0.176171605230466,0.338170780552365
0.179620267712416,0.335053631850726
0.183015116315005,0.331950500473352
0.186356587837873,0.328861692926235
0.189645117573051,0.32578751397806
0.192881139362156,0.322728266656154
0.196065085652169,0.319684252242277
0.19919738754982,0.316655770268266
0.202278474874614,0.31364311851152
0.205308776210537,0.31064659299036
0.208288718956453,0.307666487959252
0.21121872937525,0.304703095903894
0.214099232641734,0.301756707536196
0.216930652889316,0.298827611789133
0.219713413255521,0.295916095811498
0.222447935926332,0.293022444962538
0.225134642179406,0.290146942806505
0.227773952426188,0.287289871107105
0.230366286252936,0.284451509821858
0.232912062460694,0.281632137096381
0.235411699104229,0.278832029258585
0.237865613529958,0.276051460812804
0.240274222412883,0.273290704433848
0.242637941792562,0.270550030961003
0.244957187108129,0.267829709391956
0.247232373232396,0.265130006876679
0.249463914505044,0.26245118871125
0.251652224764929,0.259793518331635
0.25379771738152,0.257157257307424
0.255900805285496,0.254542665335526
0.257961900998509,0.251950000233832
0.259981416662133,0.249379517934847
0.261959764066028,0.246831472479297
0.263897354675315,0.244306116009701
0.265794599657206,0.241803698763941
0.267651909906879,0.2393244690688
0.269469696072628,0.236868673333499
0.271248368580309,0.234436556043212
0.272988337657076,0.232028359752591
0.274690013354449,0.229644325079273
0.276353805570709,0.2272846906974
0.277980124072637,0.224949693331131
0.279569378516625,0.222639567748172
0.281121978469152,0.22035454675331
0.282638333426658,0.21809486118196
0.284118852834812,0.21586073989373
0.285563946107201,0.213652409766003
0.286974022643445,0.211470095687542
0.288349491846754,0.20931402055212
0.289690763140931,0.207184405252172
0.29099824598685,0.205081468672488
0.292272349898401,0.203005427683925
0.293513484457929,0.200956497137162
0.294722059331164,0.198934889856495
0.295898484281671,0.196940816633663
0.297043169184814,0.194974486221726
0.298156524041252,0.193036105328981
0.299238958989981,0.191125878612929
0.300290884320922,0.189244008674294
0.301312710487078,0.187390696051086
0.302304848116257,0.185566139212727
0.303267708022383,0.183770534554227
0.304201701216392,0.182004076390422
0.305107238916735,0.180266956950273
0.305984732559487,0.178559366371228
0.306834593808079,0.176881492693642
0.307657234562653,0.175233521855276
0.308453066969059,0.173615637685855
0.309222503427496,0.172028021901703
0.30996595660081,0.170470854100445
0.310683839422445,0.168944311755791
0.311376565104081,0.16744857021239
0.312044547142933,0.165983802680766
0.312688199328757,0.164550180232334
0.313307935750532,0.163147871794497
0.313904170802858,0.161777044145827
0.314477319192061,0.160437861911335
0.315027795942013,0.159130487557818
0.315556016399687,0.157855081389312
0.316062396240431,0.156611801542618
0.316547351472998,0.155400803982931
0.317011298444313,0.15422224249956
0.317454653844003,0.153076268701741
0.317877834708678,0.151963032014552
0.318281258425999,0.150882679674924
0.318665342738499,0.149835356727748
0.319030505747212,0.148821206022089
0.319377165915067,0.147840368207503
0.319705742070102,0.146892981730454
0.32001665340846,0.145979182830842
0.32031031949721,0.14509910553863
0.320587160276977,0.144252881670595
0.320847596064396,0.143440640827168
0.321092047554393,0.142662510389407
0.321320935822307,0.141918615516065
0.321534682325849,0.141209079140783
0.321733708906909,0.140534021969394
0.321918437793217,0.139893562477342
0.32208929159987,0.139287816907226
0.322246693330719,0.138716899266455
0.322391066379628,0.138180921325026
0.322522834531617,0.137679992613425
0.322642421963888,0.137214220420653
0.322750253246738,0.136783709792367
0.322846753344373,0.136388563529157
0.322932347615619,0.136028882184942
0.323007461814551,0.135704764065497
0.323072522091026,0.135416305227107
0.323127954991141,0.13516359947535
0.32317418745762,0.134946738364013
0.323211646830124,0.13476581119414
0.32324076084551,0.134620905013208
0.323261957638023,0.134512104614448
0.323275665739446,0.134439492536284
0.323282314079199,0.134403149061929
0.323282331984401,0.134403152219099
0.3232761491799,0.13443957777988
0.323264195788272,0.134512499260723
0.323246902329803,0.134621987922591
0.323224699722451,0.134768112771233
0.323198019281801,0.134950940557616
0.323167292721011,0.135170535778485
0.323132952150763,0.135426960677084
0.323095430079222,0.135720275244005
0.323055159412008,0.136050537218195
0.32301257345218,0.136417802088107
0.322968105900254,0.136822123093001
0.322922190854249,0.137263551224386
0.322875262809764,0.137742135227627
0.322827756660105,0.138257921603687
0.322780107696458,0.138810954611033
0.322732751608112,0.139401276267686
0.322686124482747,0.140028926353437
0.322640662806791,0.140693942412202
0.322596803465841,0.141396359754545
0.32255498374517,0.142136211460353
0.322515641330314,0.142913528381671
0.322479214307755,0.143728339145689
0.322446141165698,0.144580670157897
0.322416860794946,0.145470545605398
0.3223918124899,0.146397987460374
0.322371435949657,0.14736301548373
0.322356171279244,0.148365647228883
0.322346458990975,0.149405898045732
0.322342740005942,0.150483781084782
0.322345455655657,0.151599307301434
0.322355047683831,0.15275248546045
0.322371958248318,0.153943322140578
0.322396629923214,0.155171821739348
0.322429505701134,0.15643798647804
0.322471028995658,0.157741816406817
0.322521643643959,0.159083309410036
0.322581793909632,0.160462461211726
0.322651924485707,0.161879265381247
0.322732480497876,0.163333713339109
0.322823907507928,0.164825794362986
0.322926651517406,0.166355495593886
0.323041158971489,0.167922802042518
0.323167876763112,0.16952769659582
0.323307252237321,0.171170160023675
0.32345973319589,0.17285017098581
0.323625767902184,0.17456770603887
0.3238058050863,0.176322739643676
0.324000293950473,0.178115244172669
0.324209684174769,0.179945189917537
0.324434425923072,0.181812545097026
0.324674969849366,0.18371727586494
0.324931767104329,0.185659346318329
0.32520526934224,0.187638718505864
0.32549592872822,0.189655352436401
0.325804197945802,0.191709206087743
0.326130530204848,0.193800235415583
0.326475379249819,0.195928394362653
0.326839199368412,0.19809363486806
0.327222445400567,0.200295906876816
0.327625572747859,0.202535158349577
0.328049037383284,0.204811335272563
0.328493295861448,0.207124381667696
0.32895880532917,0.209474239602928
0.329446023536511,0.211860849202771
0.329955408848237,0.214284148659038
0.330487420255731,0.216744074241784
0.33104251738936,0.219240560310456
0.331621160531315,0.22177353932525
0.332223810628931,0.224342941858675
0.332850929308496,0.226948696607339
0.333502978889572,0.229590730403932
0.33418042239983,0.232268968229435
0.334883723590413,0.234983333225544
0.335613346951846,0.237733746707304
0.336369757730501,0.240520128175973
0.337153421945632,0.243342395332096
0.337964806406992,0.246200464088815
0.338804378733045,0.249094248585389
0.3396726073698,0.252023661200955
0.340569961610258,0.254988612568505
0.341496911614509,0.257989011589104
0.342453928430481,0.261024765446332
0.343441484015363,0.264095779620968
0.344460051257718,0.267201957905905
0.345510104000293,0.270343202421309
0.346592117063557,0.273519413630012
0.347706566269973,0.27673049035316
0.348853928469029,0.279976329786091
0.350034681563032,0.28325682751448
0.351249304533709,0.286571877530718
0.352498277469602,0.289921372250554
0.353782081594303,0.29330520252999
0.35510119929553,0.296723257682435
0.356456114155074,0.300175425496123
0.35784731097964,0.303661592251789
0.359275275832587,0.307181642740617
0.360740496066605,0.31073546028246
0.36224346035735,0.314322926744328
0.363784658738044,0.317943922559157
0.36536458263508,0.321598326744853
0.366983724904653,0.325286016923628
0.368642579870425,0.329006869341611
0.370341643362276,0.332760758888759
0.372081412756142,0.336547559119057
0.373862387014979,0.340367142271017
0.375685066730877,0.34421937928848
0.37754995416835,0.348104139841717
0.379457553308836,0.352021292348852
0.38140836989642,0.355970703997589
0.383402911484838,0.359952240767258
0.385441687485756,0.36396576745119
0.387525209218391,0.368011147679414
0.389653989960481,0.372088243941688
0.391828545000649,0.376196917610868
0.394049391692186,0.380337028966623
0.396317049508304,0.384508437219484
0.398632040098872,0.388711000535267
0.400994887348691,0.392944576059834
0.403406117437337,0.397209019944233
0.40586625890061,0.401504187370202
0.408375842693633,0.405829932576049
0.410935402255636,0.410186108882919
0.413545473576478,0.41457256872144
0.416206595264932,0.418989163658784
0.418919308618799,0.423435744426105
0.421684157696879,0.427912160946413
0.424501689392857,0.432418262362845
0.427372453511143,0.436953897067372
0.43029700284473,0.441518912729934
0.433275893255103,0.44611315632802
0.436309683754266,0.45073647417669
0.439398936588936,0.455388711959061
0.442544217326958,0.46006971475726
0.445746094946001,0.464779327083844
0.449005141924597,0.469517392913716
0.452321934335574,0.474283755716529
0.45569705194196,0.479078258489598
0.459131078295406,0.483900743791324
0.462624600837213,0.488751053775149
0.466178211002013,0.493629030224045
0.469792504324195,0.498534514585552
0.473468080547122,0.503467348007375
0.477205543735249,0.50842737137356
0.481005502389181,0.513414425341247
0.484868569563787,0.518428350378025
0.48879536298942,0.523468986799903
0.492786505196359,0.5285361748099
0.496842623642534,0.533629754537279
0.500964350844634,0.538749566077439
0.505152324512706,0.543895449532467
0.509407187688311,0.549067245052393
0.513729588886367,0.554264792877129
0.518120182240757,0.559487933379146
0.522579627653826,0.564736507106878
0.527108590949866,0.570010354828879
0.531707744032704,0.575309317578768
0.536377765047509,0.580633236700955
0.541119338546943,0.585981953897186
0.545933155661776,0.591355311273927
0.55081991427609,0.596753151390598
0.555780319207216,0.602175317308691
0.560815082390529,0.607621652641787
0.565924923069249,0.613092001606502
0.5711105679894,0.618586209074383
0.576372751600062,0.624104120624778
0.581712216259094,0.629645582598715
0.587129712444474,0.635210442153803
0.59262599897143,0.640798547320202
0.598201843215538,0.646409747057677
0.603858021341961,0.652043891313764
0.609595318541024,0.657700831083106
0.615414529270299,0.663380418467952
0.621316457503431,0.669082506739887
0.627301916985873,0.674806950402808
0.633371731497777,0.6805536052572
0.639526735124244,0.686322328465726
0.645767772533163,0.692112978620194
0.652095699260892,0.697925415809928
0.658511382006003,0.703759501691589
0.665015698931369,0.709615099560497
0.671609539974843,0.715492074423477
0.678293807168812,0.72139029307331
0.685069414968906,0.727309624164809
0.691937290592159,0.733249938292582
0.698898374364925,0.739211108070541
0.705953620080875,0.745193008213202
0.713103995369393,0.751195515618834
0.720350482074723,0.757218509454524
0.72769407664622,0.763261871243211
0.735135790540067,0.769325484952761
0.742676650632856,0.775409237087134
0.750317699647407,0.781513016779738
0.758059996591273,0.787636715889013
0.765904617208318,0.793780229096344
0.773852654443855,0.799943454006359
0.78190521892378,0.806126291249712
0.790063439448198,0.812328644588422
0.798328463500036,0.818550421023863
0.806701457769167,0.824791530907488
