0.144521928303232,-1.02157432915009
0.144497734351164,-1.02145572578852
0.144439977651514,-1.02109643290954
0.144370856705328,-1.02049128186121
0.144312473717822,-1.01963518844827
0.144286779837207,-1.01852316587257
0.144315520762103,-1.01715033757085
0.144420182840243,-1.01551194992083
0.144621939780089,-1.01360338478678
0.144941600095578,-1.01142017187615
0.145399555402599,-1.00895800087909
0.146015729683872,-1.00621273336329
0.146809529636736,-1.00318041439709
0.14779979621593,-0.99985728387419
0.149004757480773,-0.996239787514186
0.150441982853224,-0.992324587513704
0.152128338890146,-0.988108572823683
0.154079946669716,-0.98358886902918
0.156312140888292,-0.978762847808915
0.158839430760239,-0.973628135952711
0.161675462809171,-0.968182623915901
0.164832985634836,-0.96242447389083
0.168323816735438,-0.956352127376587
0.172158811460619,-0.949964312229227
0.176347834165527,-0.943260049175865
0.180899731631482,-0.936238657777194
0.185822308813693,-0.928899761824172
0.191122306971245,-0.921243294155907
0.196805384229278,-0.913269500886964
0.202876098617807,-0.904978945033678
0.209337893626117,-0.896372509530335
0.216193086306012,-0.887451399627429
0.223442857951528,-0.878217144665571
0.231087247376922,-0.868671599219971
0.23912514680895,-0.858816943611818
0.247554300403612,-0.848655683784265
0.256371305391629,-0.838190650542112
0.26557161585109,-0.827424998155696
0.275149549099769,-0.816362202330872
0.285098294693804,-0.805006057548386
0.29540992601355,-0.793360673777294
0.306075414411667,-0.781430472568504
0.317084645892736,-0.769220182535819
0.32842644028805,-0.756734834233271
0.340088572883644,-0.743979754438807
0.352057798454106,-0.730960559855724
0.364319877649363,-0.717683150244529
0.376859605676343,-0.704153700999135
0.389660843212274,-0.690378655182535
0.402706549481394,-0.676364715038293
0.415978817421997,-0.662118832995323
0.429458910866036,-0.647648202184554
0.443127303649029,-0.632960246487145
0.45696372056366,-0.618062610134952
0.470947180066327,-0.602963146884909
0.485056038642,-0.587669908789941
0.499268036728972,-0.572191134589915
0.513560346101633,-0.556535237746936
0.527909618606099,-0.540710794150111
0.542292036140491,-0.524726529515599
0.556683361768874,-0.50859130650845
0.571058991855294,-0.49231411161333
0.585394009102063,-0.475904041781783
0.599663236374425,-0.459370290884157
0.61384129119191,-0.442722135994758
0.627902640765228,-0.425968923539152
0.641821657456275,-0.409120055332816
0.655572674537885,-0.392184974540592
0.669130042129253,-0.375173151586547
0.682468183182543,-0.358094070043952
0.695561649396076,-0.340957212535128
0.708385176929606,-0.323772046670854
0.72091374179764,-0.306548011058975
0.733122614817428,-0.289294501411643
0.744987415989247,-0.272020856780418
0.756484168187816,-0.254736345948166
0.76758935004524,-0.237450154006314
0.778279947907593,-0.220171369145623
0.788533506749382,-0.202908969688142
0.798328179932349,-0.185671811387468
0.807642777697697,-0.168468615023829
0.816456814283579,-0.151307954319854
0.824750553562759,-0.134198244202156
0.832505053098634,-0.117147729433093
0.839702206521301,-0.100164473636237
0.846324784129079,-0.0832563487381954
0.85235647162485,-0.0664310248485082
0.857781906900707,-0.0496959605983439
0.862586714788726,-0.0330583939577174
0.866757539700219,-0.0165253335498618
0.87028207608048,-0.000103550480287304
0.873149096610911,0.0162004293030935
0.875348478095425,0.0323803321035782
0.876871224973141,0.0484301430090464
0.877709490404682,0.0643441118523667
0.877856594884772,0.0801167585873869
0.877307042339335,0.0957428780703612
0.876056533670866,0.111217544237991
0.874101977721538,0.126536113674603
0.871441499629254,0.141694228562335
0.868074446557611,0.156687819009609
0.864001390786637,0.171513104754499
0.859224130156971,0.18616659624104
0.853745685866087,0.200645095067908
0.847570297621028,0.214945693810265
0.840703416157988,0.229065775217007
0.833151693144949,0.243003010786997
0.824922968489397,0.256755358729266
0.816026255078891,0.270321061313529
0.806471720987996,0.283698641618717
0.7962706691907,0.296886899688553
0.785435514822988,0.309884908104522
0.773979760045701,0.322692006987886
0.761917966563124,0.33530779844363
0.749265725857977,0.347732140460498
0.736039627208546,0.35996514028245
0.722257223558626,0.37200714726806
0.707936995315712,0.383858745255503
0.693098312157494,0.395520744451853
0.677761392931113,0.406994172866495
0.661947263733894,0.418280267309438
0.645677714268296,0.429380463976266
0.628975252567665,0.440296388642408
0.611863058192971,0.451029846490222
0.594364934004129,0.461582811593238
0.576505256612647,0.471957416082608
0.55830892562529,0.482155939021554
0.539801311791086,0.49218079501421
0.521008204166496,0.502034522575832
0.501955756415679,0.51171977229189
0.482670432364733,0.521239294793978
0.463178950930433,0.530595928580904
0.443508230545363,0.539792587713623
0.423685333202444,0.548832249412953
0.403737408242709,0.557717941589214
0.383691636010702,0.566452730333062
0.363575171502202,0.575039707396853
0.343415088128922,0.58348197769588
0.323238321724621,0.591782646858765
0.303071614916433,0.59994480885615
0.282941461984479,0.607971533736648
0.262874054331639,0.615865855498736
0.24289522668405,0.623630760126982
0.223030404141217,0.631269173820568
0.203304550192717,0.63878395144166
0.183742115816326,0.646177865210634
0.164366989769959,0.653453593674612
0.145202450187118,0.660613710975131
0.12627111758268,0.667660676440059
0.107594909372617,0.674596824524153
0.0891949960079263,0.681424355121827
0.0710917588193953,0.688145324274866
0.0533047496659924,0.694761635296904
0.0358526524756677,0.701275030335529
0.0187532467630955,0.707687082391896
0.0020233732044653,0.713999187816654
-0.0143210986551518,0.720212559299931
-0.0302653004911208,0.726328219371988
-0.0457953930194286,0.732346994429974
-0.0608985914869743,0.73826950930504
-0.0755631887764381,0.744096182382809
-0.0897785760755048,0.749827221288969
-0.10353526106568,0.755462619150449
-0.11682488359147,0.761002151441327
-0.129640228776331,0.766445373421304
-0.141975237557487,0.771791618173213
-0.153825014617504,0.777039995244674
-0.165185833696281,0.782189389897643
-0.176055140273033,0.787238462968183
-0.186431551613643,0.792185651337458
-0.196314854184699,0.797029169013489
-0.205705998441393,0.801767008821872
-0.214607091002308,0.806396944702256
-0.22302138422999,0.810916534605989
-0.230953263241948,0.815323123988986
-0.238408230382513,0.819613849892506
-0.245392887191609,0.82378564560319
-0.251914913912105,0.827835245882397
-0.257983046582912,0.831759192753555
-0.263607051770349,0.835553841835001
-0.268797698995619,0.839215369204512
-0.273566730921336,0.842739778780521
-0.277926831365068,0.846122910203848
-0.281891591212706,0.849360447202597
-0.28547547230915,0.852447926421796
-0.288693769408324,0.855380746698268
-0.291562570268857,0.85815417876021
-0.294098713985903,0.860763375329977
-0.296319747653503,0.863203381607638
-0.29824388145564,0.865469146111995
-0.299889942287597,0.867555531854933
-0.301277326012557,0.869457327824171
-0.302425948461379,0.871169260748818
-0.303356195286326,0.872686007121415
-0.304088870782042,0.874002205449599
-0.304645145789397,0.875112468709934
-0.30504650479985,0.876011396976028
-0.305314692379765,0.876693590192574
-0.305471659035629,0.877153661066657
-0.30553950664235,0.877386248047342
-0.305540433557806,0.877386028364344
-0.305496679547483,0.877147731096414
-0.305430470643482,0.876666150240001
-0.3053639640623,0.875936157748682
-0.305319193305647,0.874952716513934
-0.30531801356817,0.873710893257879
-0.305382047575238,0.872205871308845
-0.305532631972974,0.87043296323078
-0.305790764391509,0.86838762327788
-0.306177051300884,0.866065459646148
-0.306711656777267,0.863462246494011
-0.307414252295123,0.860573935704636
-0.30830396765865,0.857396668363107
-0.309399343183259,0.853926785922263
-0.310718283235079,0.850160841031627
-0.312278011233403,0.846095608004618
-0.31409502621776,0.841728092900002
-0.316185061077746,0.837055543194353
-0.318563042540054,0.832075457023226
-0.321243053003216,0.826785591969624
-0.324238294306404,0.821183973379381
-0.327561053514344,0.815268902184062
-0.331222670795864,0.809038962213095
-0.335233509468913,0.802493026977929
-0.33960292828006,0.795630265912197
-0.344339255981442,0.788450150053023
-0.349449768263055,0.780952457149858
-0.354940667092926,0.773137276188456
-0.360817062512403,0.765005011318913
-0.367082956928246,0.75655638517797
-0.373741231937646,0.747792441597122
-0.380793637716608,0.738714547689421
-0.388240784996445,0.729324395309215
-0.396082139647269,0.719624001880454
-0.4043160198816,0.709615710590578
-0.41293959608531,0.699302189948366
-0.421948893277251,0.688686432705581
-0.431338796193034,0.677771754143579
-0.441103056982565,0.666561789727485
-0.451234305505069,0.655060492131924
-0.461724062199533,0.643272127643655
-0.47256275350276,0.631201271947855
-0.483739729781463,0.618852805306132
-0.495243285739266,0.606231907135686
-0.507060683253891,0.593344050000369
-0.519178176594397,0.580194993025673
-0.531581039962984,0.566790774750933
-0.544253597300697,0.5531377054333
-0.557179254291267,0.539242358819211
-0.570340532492419,0.525111563400261
-0.5837191055192,0.51075239317154
-0.597295837199299,0.496172157911547
-0.611050821615883,0.481378393003881
-0.624963424949267,0.466378848821895
-0.639012329024687,0.451181479698464
-0.653175576469625,0.435794432503923
-0.667430617380523,0.420226034856102
-0.681754357395317,0.404484782987169
-0.696123207065106,0.388579329292766
-0.710513132415297,0.372518469589606
-0.724899706583931,0.356311130108326
-0.73925816242247,0.339966354248998
-0.753563445942117,0.32349328912717
-0.767790270486886,0.306901171938826
-0.781913171512961,0.290199316172967
-0.795906561852507,0.273397097700925
-0.809744787339029,0.256503940771723
-0.823402182670492,0.239529303943021
-0.836853127385919,0.222482665977322
-0.850072101830859,0.205373511733166
-0.863033742987161,0.188211318081042
-0.875712900042744,0.171005539873711
-0.888084689577614,0.153765596000456
-0.900124550243228,0.136500855554618
-0.911808296813405,0.119220624143507
-0.923112173486345,0.101934130369419
-0.93401290631901,0.084650512510172
-0.94448775467698,0.0673788054270356
-0.954514561585121,0.0501279277274874
-0.964071802866799,0.0329066692096098
-0.973138634962068,0.0157236786143275
-0.981694941318185,-0.00141254828901156
-0.989721377248966,-0.0184936802589574
-0.997199413162885,-0.0355115617562316
-1.00411137606346,-0.0524582237128517
-1.01044048922924,-0.069325893873933
-1.01617090998489,-0.0861070066909165
-1.02128776547884,-0.102794212746011
-1.02577718638777,-0.119380387688658
-1.02962633847237,-0.135858640665942
-1.03282345191405,-0.152222322229964
-1.03535784836672,-0.168465031706419
-1.03721996566329,-0.18458062400975
-1.03840138012141,-0.200563215891553
-1.03889482639847,-0.216407191610126
-1.03869421485136,-0.23210720801036
-1.03779464636187,-0.247658199004501
-1.03619242459437,-0.263055379445596
-1.03388506565813,-0.278294248386869
-1.03087130515239,-0.293370591721547
-1.02715110257791,-0.308280484199117
-1.02272564310504,-0.323020290815326
-1.01759733669371,-0.337586667574656
-1.01176981456695,-0.351976561625401
-1.00524792304545,-0.36618721076885
-0.998037714756237,-0.380216142345487
-0.99014643723474,-0.394061171502502
-0.981582518945116,-0.407720398848275
-0.97235555274945,-0.42119220750085
-0.962476276862193,-0.434475259538777
-0.95195655333173,-0.447568491864011
-0.940809344096495,-0.460471111487872
-0.929048684668434,-0.473182590252328
-0.916689655501891,-0.485702659000149
-0.903748351111141,-0.49803130120866
-0.890241847004787,-0.51016874610303
-0.876188164510112,-0.522115461266193
-0.86160623356513,-0.533872144763578
-0.846515853560632,-0.545439716801933
-0.830937652318842,-0.556819310942519
-0.814893043299414,-0.568012264889974
-0.798404181127486,-0.579020110879031
-0.781493915542177,-0.589844565682205
-0.764185743867469,-0.600487520262367
-0.746503762110657,-0.610951029094913
-0.728472614796624,-0.621237299184951
-0.710117443648972,-0.631348678805608
-0.691463835231621,-0.641287645984147
-0.672537767666782,-0.651056796763152
-0.653365556547238,-0.660658833264512
-0.633973800162682,-0.670096551584353
-0.614389324161331,-0.679372829547446
-0.59463912576933,-0.688490614349903
-0.574750317691379,-0.697452910119199
-0.554750071816744,-0.706262765420749
-0.53466556285523,-0.714923260740334
-0.514523912027818,-0.723437495971736
-0.494352130936549,-0.731808577938902
-0.474177065737805,-0.740039607981849
-0.454025341742475,-0.748133669635383
-0.433923308565467,-0.756093816429453
-0.413896985945899,-0.763923059839684
-0.393972010357629,-0.771624357416287
-0.374173582528187,-0.779200601119087
-0.354526415981976,-0.786654605885982
-0.335054686721414,-0.793989098461557
-0.315781984157105,-0.801206706511996
-0.296731263395278,-0.808309948051786
-0.277924798987818,-0.815301221206949
-0.259384140246757,-0.822182794338813
-0.2411300682218,-0.828956796551464
-0.223182554435528,-0.83562520860518
-0.205560721467173,-0.842189854257167
-0.188282805471589,-0.848652392050005
-0.171366120715786,-0.855014307567128
-0.15482702621087,-0.861276906173635
-0.13868089451252,-0.867441306259606
-0.12294208275833,-0.87350843300195
-0.107623906005292,-0.879479012659633
-0.0927386129256126,-0.885353567415921
-0.0782973639137197,-0.891132410780029
-0.0643102116519996,-0.896815643559271
-0.0507860841772344,-0.902403150411545
-0.037732770484204,-0.907894596986627
-0.0251569086971694,-0.913289427663439
-0.01306397683427,-0.91858686388908
-0.0014582861840762,-0.923785903124043
0.00965702269235064,-0.928885318396672
0.0202799813263182,-0.933883658468508
0.0304097920716813,-0.938779248610804
0.0400468242045339,-0.943570191991077
0.0491926074025664,-0.948254371667195
0.0578498226200139,-0.952829453185092
0.0660222903800048,-0.957292887774861
0.0737149565118323,-0.961641916138569
0.0809338753664059,-0.965873572821831
0.0876861905487641,-0.969984691159825
0.0939801132120615,-0.973971908787124
0.099824897962901,-0.977831673699438
0.105230816433204,-0.981560250854098
0.110209128579026,-0.985153729294882
0.114772051771786,-0.988608029785583
0.118932727752331,-0.99191891293556
0.122705187522986,-0.995081987799378
0.126104314257381,-0.998092720931566
0.129145804312241,-1.00094644587647
0.131846126429578,-1.00363837307219
0.134222479221744,-1.00616360014658
0.136292747035646,-1.00851712258256
0.13807545429604,-1.0106938447288
0.139589718431201,-1.01268859113148
0.140855201487431,-1.01449611816166
0.141892060541808,-1.01611112591242
0.142720897025219,-1.01752827033912
0.143362705070186,-1.01874217561556
0.14383881900015,-1.01974744667854
0.144170860078778,-1.02053868193244
0.144380682639526,-1.02111048608554
0.14449031971706,-1.02145748308909
0.144521928303232,-1.02157432915009
