0.827422475736043,-0.258590618914422
0.788286972973707,-0.217594165254819
0.856864842272918,-0.262691685084692
0.783910687705269,-0.210026060217887
0.823515930860138,-0.196117574244839
0.812406465586461,-0.213525069917491
0.818915816305596,-0.208829312434814
0.843806430017592,-0.123401103140408
0.780168407812925,-0.129933434383073
0.802467936025821,-0.137492812944835
0.719648760000653,-0.142008411520315
0.686316759443351,-0.0573666485957874
0.7087951263605,-0.0589665481792445
0.678122318551242,-0.0531850387094868
0.652653741205434,-0.0396208883541744
0.639391949435427,-0.0429801367670948
0.59801577052541,-0.0148780569107873
0.433783063627734,-0.141940031406183
0.537851965248806,0.0167495351965226
0.464781710360042,0.0641620995605621
0.362004184420314,-0.0756100116021236
0.448993648698962,0.0311598149951026
0.418700277969558,0.0375410423271118
0.37612000523696,0.0274569430137857
0.2766784470326,-0.0292047906130598
0.469436749196695,0.147828367423236
0.280472116329042,0.0930114723461469
0.255635219638561,0.0593463724562177
0.238060288884012,0.0700376140903146
0.303707931415504,0.124729129941665
0.20295062745486,0.103450084516209
0.183190581306743,0.0605850687498901
0.208410818727832,0.0341477316222035
0.147222007134569,0.0607767883983748
0.222611543471868,0.155146596099265
0.0862747585703763,0.0800761217942161
0.148104380458866,0.0516578065152506
0.100013250523859,0.0621724176656007
0.126942665194242,0.0562733669526949
-0.00818244252325141,-0.0257103237508221
0.105145787549911,0.0351994515381079
0.0525375569298416,0.116545936107906
0.090169250106045,0.07550926289473
0.0945728570182837,0.0808081735035445
0.0573275905953281,0.0937894734700071
0.101466035742732,0.0807638793589893
0.144216103792329,0.0547376537931171
0.220925745192603,0.231646675033403
0.169633071072693,0.133628643953116
0.158596926959154,0.137726724398824
0.174339023276835,0.151825647480874
0.19112400462466,0.167288390622992
0.208781249113188,0.184101855601888
0.211347042950924,0.208413549005844
0.232659292405577,0.215157156107325
0.291360151623907,0.197414940671185
0.297110910910169,0.281806547547045
0.378037617561153,0.316407768919366
0.356892483240437,0.358298500949854
0.351102766444413,0.356056893004177
0.381444363051106,0.390178030156305
0.45468683058262,0.480342682813747
0.42629824399692,0.497137533238766
0.408473819535351,0.511340540564766
0.419076906811388,0.504159668927894
0.47570088737159,0.55416253253068
0.605455938829488,0.628092692265547
0.461618525672544,0.622781129196236
0.493138331386358,0.649082996228047
0.503721857666141,0.647074862993241
0.484209028080736,0.694660827782627
0.497216110414829,0.726572514488937
0.478343736067501,0.733402889843673
0.424635057910521,0.755767152682654
0.465413618891636,0.765360624454781
0.426051645677288,0.779691925909075
0.442420819365977,0.782270176660501
0.397031710971466,0.829855984431608
0.404666410558734,0.824170690458637
0.405330452299162,0.810037647561669
0.36138733682397,0.798848357644872
0.415787344450103,0.853473220437489
0.384438402383132,0.772268936064847
0.308717571418601,0.844848940106135
0.363360401687956,0.859796066831511
0.274584904484015,0.778700492109649
0.152590582947332,0.673492004710218
0.211544049228704,0.733333307317004
0.240199730908735,0.741031186554592
0.154846338956554,0.698316718785386
0.0384103960680519,0.557500083876048
0.0963723728656616,0.692037040776804
0.156162578318172,0.578470359961619
0.210013819166667,0.700320284102037
0.0914920543073992,0.580741855879387
0.0795295133640198,0.516361394679869
0.0405821495480416,0.521259084625901
0.057813666060249,0.491379733554493
0.00835584440067644,0.471367050826864
-0.065827302946969,0.39833040884848
-0.0389186447705092,0.369576629168378
-0.0142056604275884,0.387529394906959
-0.144349660202804,0.227162606720919
-0.0974846843129345,0.25652784806869
-0.109192246620938,0.231817335075896
-0.0786582976066314,0.24576180180639
-0.0332523795101813,0.210511579693743
-0.0662121982663049,0.178924612439458
-0.0909099606222876,0.210446731602008
-0.207056683798153,0.0835371982324165
-0.106612943130773,0.196029651119592
-0.110024414300407,0.200046604568205
-0.113780563970322,0.206319522771944
-0.117985251280939,0.214793834137382
-0.0944093864319442,0.185416209648389
-0.123924802188027,0.198825665680766
-0.161712351113927,0.24936578627975
-0.106220110180586,0.331881433184896
-0.157713628091616,0.306735025873358
-0.167432882679147,0.327739760876373
-0.178173882103651,0.349957030983241
-0.160832005946701,0.382603363655041
-0.205434856069062,0.402837516736478
-0.231696786087488,0.447297786536099
-0.284797062625215,0.440805457806429
-0.257856601629006,0.539969301452848
-0.341580590695863,0.587169678402229
-0.341410737099209,0.597216124042927
-0.407629970566905,0.65316935168037
-0.383904494668885,0.641984571031349
-0.426674920541438,0.684978095092064
-0.428045482135971,0.68176772665806
-0.450426836987482,0.699404593385793
-0.437095696412121,0.762787872656181
-0.479760533666562,0.709277643617186
-0.596765157857311,0.739154990188967
-0.499548493889613,0.874312734807159
-0.60894203478996,0.742302391640592
-0.636271896762298,0.771141644296323
-0.758093756458466,0.676610957159787
-0.688310415671482,0.728570651691158
-0.706088609910603,0.732817900114146
-0.739475707020388,0.752754010177071
-0.712085671327471,0.723012814804468
-0.610450919659949,0.79878362826963
-0.712115037579696,0.701810677437515
-0.726930922411248,0.673232345050336
-0.679305897874122,0.670766313070688
-0.68351205408272,0.64121948793966
-0.720961111154976,0.569514116425305
-0.71092073233202,0.549364658762115
-0.686154153592242,0.526763491975122
-0.64671741371275,0.44582310628149
-0.670205170403792,0.44291808263493
-0.666164932645676,0.399313990684805
-0.659429471189158,0.400203455839608
-0.585543381617565,0.383742793203328
-0.631779567232034,0.343630762572923
-0.659394855818611,0.201688199909146
-0.54882205568346,0.335628101331748
-0.44899618241259,0.266630129263555
-0.453140540966161,0.160714222007887
-0.273761402549761,0.212372228561295
-0.36443948348068,0.0792313594198136
-0.239036409976535,0.0504522800689016
-0.325888129311818,0.0599780850176607
-0.241183565583738,0.0505133364235611
-0.314150070090807,0.0739758674452145
-0.238893265904464,0.070258151807165
-0.307625393326558,0.015102670168564
-0.279348551004861,0.0160903682790379
-0.190795077635035,0.148241856091668
-0.241186107389378,0.130652342278602
-0.405867962954242,-0.0100064251559826
-0.47239075074536,-0.106102279623637
-0.465454440132917,-0.0131835995657722
-0.471882964243332,0.0733083968566279
-0.47719138920257,0.00713280372023115
-0.539424723370933,0.0130598729366388
-0.69640158942458,-0.0840511325642149
-0.597840830176034,0.00475904575364576
-0.729308917732603,-0.113853626218877
-0.688979525118904,-0.0139707642168985
-0.686399417295582,-0.0292499374342907
-0.752635359480774,-0.1088400252445
-0.944603031053139,-0.178080543448976
-0.947845866216269,-0.208023438527485
-0.97842064151607,-0.208639250400932
-0.949781414670652,-0.299079794297665
-1.00382368201761,-0.323813230058194
-1.02976778091711,-0.339696884432652
-1.03342240236327,-0.505053828681645
-0.943562842109658,-0.386602388298499
-0.892194374789096,-0.427122488379109
-0.865110507778805,-0.411287768224347
-0.84128356064745,-0.413807101840381
-0.669004994440702,-0.31838846074762
-0.716006214404753,-0.356876059035301
-0.60574513306607,-0.383174898131685
-0.586201532696646,-0.372000247977321
-0.645003054242124,-0.512985135274864
-0.443264237629674,-0.356870166966952
-0.427051204978251,-0.327956513683917
-0.356199952643187,-0.249487747965955
-0.259837988317041,-0.195163301060676
-0.234146016523606,-0.146307097184993
-0.226271174513404,-0.171307733314962
-0.189317131850073,-0.12768294608284
-0.185442393874303,-0.151898026762329
-0.229293152369982,-0.180575817236959
-0.212446793078214,-0.202581985484958
-0.168691420142448,-0.186572785135228
-0.220592996758966,-0.190814768214476
-0.19248630955145,-0.226151162699574
-0.278793981333131,-0.406191226938078
-0.226986040647811,-0.446812887029962
-0.273927754918478,-0.560318479518931
-0.20037541954136,-0.54201594161897
-0.21273143044097,-0.539018528482219
-0.229366084256762,-0.573539001198267
-0.254483163646204,-0.623929798955069
-0.207301536214188,-0.652160687836299
-0.207655330610394,-0.723473665507257
-0.206870312658907,-0.836773934214835
-0.17791101300672,-0.86809156262041
-0.261036529601279,-1.02072885880999
-0.110661571441979,-0.927344106702114
-0.103742348222765,-0.945507302064868
-0.043604913306348,-0.955483267581215
-0.0213489556050317,-0.956704276406984
-0.000165721225693874,-0.935894135116981
-0.0962977168773024,-1.07073741764056
0.0700477932545534,-0.833415808575713
0.0785944032491534,-0.80942513578244
0.0546101137836236,-0.719850063415541
0.094321867219651,-0.656127283541544
0.145146622757734,-0.532831033259962
-0.00126450859817294,-0.671288855790373
0.0263768707321436,-0.613499863905511
-0.0452056279600467,-0.578887372645619
0.0965291872618578,-0.452365383261379
0.054702628580336,-0.378034996636779
0.0624600843624405,-0.291472451090118
0.00543027041259623,-0.121998337517689
-0.0687825804315319,-0.263329012740824
-0.0563373148087121,-0.25628005592567
0.12911424261124,-0.206687529765763
0.514525271324221,-0.225997777823486
0.493471275568134,-0.466169052574875
0.700040060896191,-0.356653592317205
0.77682652886677,-0.320242375066498
0.79159868447694,-0.309920906104144
0.824759293806861,-0.229833901153964
