-0.968396082032446,-0.188611998841601
-0.968273109716421,-0.188588400590867
-0.967900768667943,-0.188532982624631
-0.967273979713198,-0.188468768870655
-0.966387749879769,-0.188418682633555
-0.965237185122852,-0.188405489795104
-0.963817502949755,-0.18845174239703
-0.962124044914069,-0.188579722733592
-0.960152288951208,-0.188811388080055
-0.957897861527281,-0.189168316181796
-0.955356549573705,-0.189671651627019
-0.952524312180364,-0.190342053224126
-0.949397292020674,-0.191199642502488
-0.945971826482447,-0.192263953452899
-0.942244458479104,-0.193553883621165
-0.938211946916447,-0.195087646665296
-0.933871276790961,-0.196882726483456
-0.929219668896398,-0.198955833016342
-0.924254589116244,-0.20132285982389
-0.91897375728057,-0.203998843532245
-0.913375155566713,-0.206997925242749
-0.907457036424207,-0.210333313990311
-0.901217930005448,-0.214017252333927
-0.894656651084629,-0.21806098415736
-0.887772305448603,-0.222474724753039
-0.880564295744483,-0.227267633257128
-0.873032326769985,-0.232447787498455
-0.865176410193714,-0.23802216131859
-0.856996868693868,-0.243996604414846
-0.848494339505072,-0.250375824752297
-0.839669777364398,-0.257163373585213
-0.830524456848885,-0.264361633122417
-0.821059974098256,-0.271971806865202
-0.811278247917841,-0.279993912640425
-0.801181520258101,-0.288426778345416
-0.790772356068494,-0.297268040415202
-0.780053642524809,-0.306514145016531
-0.769028587630456,-0.316160351967025
-0.757700718193598,-0.326200741371712
-0.746073877183351,-0.336628222963112
-0.734152220469662,-0.347434548124988
-0.721940212952818,-0.358610324573886
-0.709442624089892,-0.370145033666603
-0.696664522826733,-0.382027050295906
-0.683611271945434,-0.394243665330949
-0.670288521838498,-0.406781110553227
-0.656702203722142,-0.419624586033233
-0.642858522302475,-0.432758289887595
-0.628763947909427,-0.446165450351075
-0.614425208114497,-0.459828360092678
-0.59984927884955,-0.47372841270005
-0.58504337504492,-0.487846141251519
-0.570014940806207,-0.502161258890436
-0.554771639150112,-0.516652701311981
-0.539321341320636,-0.531298671068334
-0.52367211570791,-0.546076683594005
-0.507832216392758,-0.560963614849276
-0.491810071340936,-0.575935750476071
-0.475614270271758,-0.590968836357169
-0.459253552226508,-0.606038130466539
-0.442736792862725,-0.621118455895644
-0.426072991501017,-0.636184254937946
-0.409271257951604,-0.651209644111448
-0.39234079914829,-0.666168469996986
-0.375290905617947,-0.681034365768149
-0.358130937813963,-0.695780808287154
-0.340870312342411,-0.710381175639689
-0.3235184881099,-0.724808804980755
-0.306084952422238,-0.739037050562819
-0.288579207063154,-0.753039341817156
-0.271010754382335,-0.766789241359118
-0.253389083422006,-0.780260502788223
-0.235723656111216,-0.79342712815437
-0.218023893556788,-0.806263424962239
-0.200299162459686,-0.818744062586923
-0.182558761685289,-0.830844127975122
-0.164811909015653,-0.842539180507826
-0.14706772811149,-0.853805305902242
-0.129335235711076,-0.864619169032841
-0.111623329092771,-0.874958065553804
-0.0939407738272751,-0.884799972207782
-0.0762961918450225,-0.894123595708802
-0.05869804984349,-0.902908420090299
-0.0411546480583626,-0.911134752412679
-0.023674109421726,-0.918783766728419
-0.00626436912956782,-0.925837546206619
0.0110668353600355,-0.932279123322951
0.0283119738776457,-0.938092518025303
0.0454637326226985,-0.943262773789861
0.0625150227549062,-0.947775991487082
0.0794589884795708,-0.951619360981864
0.0962890146106837,-0.954781190397262
0.112998733596856,-0.957250932976279
0.129582031996314,-0.959019211481592
0.146033056388438,-0.960077840078576
0.162346218710562,-0.960419843652532
0.178516201010049,-0.960039474516772
0.194537959602941,-0.958932226473992
0.21040672863183,-0.957094846199243
0.226118023016906,-0.954525341918777
0.241667640795513,-0.951222989365049
0.257051664846881,-0.947188334994215
0.272266464000102,-0.94242319645854
0.287308693524748,-0.936930660332255
0.302175295004948,-0.930715077095487
0.316863495599057,-0.923782053386995
0.331370806688481,-0.916138441542506
0.345695021920508,-0.907792326441501
0.359834214651397,-0.898753009691258
0.37378673479728,-0.889030991182891
0.38755120510174,-0.878637948059986
0.401126516830252,-0.867586711146141
0.414511824902907,-0.855891238883422
0.427706542478103,-0.843566588839222
0.440710335001115,-0.830628886844473
0.453523113732598,-0.817095293831377
0.466145028773279,-0.802983970443963
0.478576461602165,-0.788314039499712
0.490818017146688,-0.773105546385286
0.502870515404245,-0.757379417473949
0.51473498263556,-0.741157416656717
0.526412642151254,-0.724462100083404
0.537904904713904,-0.707316769213759
0.549213358578697,-0.689745422282598
0.560339759196611,-0.671772704286385
0.571286018604754,-0.653423855601982
0.582054194529206,-0.634724659351316
0.592646479226325,-0.615701387628516
0.603065188089034,-0.596380746708556
0.613312748045145,-0.576789821358737
0.623391685775176,-0.556956018376271
0.633304615777559,-0.536907009477013
0.643054228309411,-0.516670673661741
0.65264327723133,-0.496275039187581
0.662074567784862,-0.475748225273022
0.671350944331421,-0.45511838366556
0.680475278081507,-0.43441364020126
0.689450454843073,-0.413662036485582
0.698279362817832,-0.392891471824482
0.706964880474157,-0.372129645534262
0.71550986452505,-0.351403999757752
0.723917138039389,-0.330741662913287
0.732189478714359,-0.310169393901501
0.740329607336569,-0.289713527193262
0.748340176458931,-0.26939991892008
0.756223759319878,-0.24925389408609
0.763982839030912,-0.229300195018178
0.771619798057886,-0.209562931168043
0.7791369080207,-0.190065530376973
0.786536319835406,-0.170830691710823
0.793820054221897,-0.151880339969164
0.80098999259952,-0.133235581968845
0.80804786839208,-0.11491666469822
0.814995258762736,-0.0969429354340954
0.821833576798343,-0.0793328039091181
0.828564064161722,-0.0621037066126524
0.835187784229311,-0.0452720733035075
0.84170561573052,-0.0288532958078796
0.848118246903965,-0.0128616991707734
0.85442617018459,0.00268948477607164
0.860629677434476,0.0177881413721594
0.866728855728865,0.0324232945600263
0.872723583707718,0.0465851257444165
0.878613528501776,0.0602649900381543
0.88439814324083,0.0734554298598671
0.890076665150553,0.0861501858546291
0.895648114242925,0.0983442051145785
0.901111292603905,0.110033646682583
0.906464784280675,0.121215884328113
0.911706955769387,0.131889506590556
0.916835957102987,0.142054314091327
0.921849723537338,0.151711314122214
0.926745977832459,0.160862712523484
0.931522233124389,0.169511902871343
0.936175796381813,0.177663453000319
0.940703772440234,0.185323088892117
0.945103068605216,0.192497675968368
0.949370399814847,0.199195197830475
0.953502294350369,0.205424732495471
0.957495100082606,0.211196426182402
0.961344991240641,0.216521464709191
0.965047975687978,0.221412042565295
0.968599902690258,0.225881329730645
0.971996471157485,0.229943436316382
0.975233238342625,0.233613375107785
0.978305628977389,0.236907022094434
0.981208944824998,0.239841075077183
0.9839383746288,0.242433010445763
0.986489004434644,0.244701038224963
0.988855828264101,0.246664055491156
0.99103375911478,0.248341598264608
0.993017640263239,0.249753791986374
0.994802256845271,0.250921300691773
0.996382347687729,0.251865274995312
0.997752617365408,0.252607299004594
0.998907748456036,0.253169336283125
0.999842413965893,0.253573674984059
1.0005512898982,0.253842872278752
1.0010290679361,0.253999698205591
1.00127046821162,0.254067079065813
1.00127025213207,0.254068040494078
1.00102323523482,0.254025650332247
1.00052430004162,0.253962961435267
0.999768408883324,0.253902954538196
0.998750616666243,0.253868481313278
0.99746608355104,0.253882207745525
0.995910087515648,0.253966557954556
0.994078036773642,0.254143658589438
0.991965482019922,0.254435283921989
0.989568128475885,0.254862801762431
0.986881847706673,0.255447120319439
0.983902689183587,0.256208636124515
0.980626891565272,0.25716718313824
0.977050893671898,0.258341983153292
0.973171345127205,0.259751597606228
0.968985116643997,0.261413880906877
0.964489309929435,0.263345935390773
0.959681267187313,0.265564067996454
0.954558580195345,0.268083748765561
0.949119098936437,0.270919571259624
0.943360939763877,0.274085214983097
0.937282493081384,0.277593409897754
0.93088243052002,0.281455903108841
0.924159711595063,0.285683427798551
0.917113589827059,0.290285674477338
0.909743618312475,0.295271264618411
0.902049654730528,0.300647726735427
0.894031865774046,0.306421474957901
0.885690730993444,0.312597790153315
0.877027046044186,0.319180803639156
0.868041925329429,0.326173483522367
0.858736804030851,0.333577623697778
0.849113439522007,0.341393835531157
0.839173912159917,0.349621542246515
0.828920625451965,0.358258976031235
0.81835630559651,0.367303177866522
0.807484000397061,0.376750000084576
0.796307077551163,0.386594111647789
0.784829222316575,0.396829006139158
0.773054434558647,0.407447012447069
0.760987025184185,0.418439308121545
0.748631611968434,0.429795935373108
0.735993114783138,0.441505819679444
0.723076750234942,0.45355679095927
0.709888025724734,0.465935607267026
0.696432732939743,0.478627980956366
0.682716940791489,0.491618607254931
0.668746987813899,0.504891195187442
0.654529474037072,0.518428500778916
0.640071252353324,0.532212362464705
0.625379419393288,0.546223738629093
0.610461305930882,0.560442747189442
0.595324466837016,0.574848707138262
0.579976670602881,0.589420181951231
0.564425888454634,0.604135024764961
0.548680283082148,0.61897042522437
0.532748197005371,0.633902957895777
0.516638140602628,0.648908632138268
0.500358779825915,0.663962943322699
0.483918923628959,0.679040925284568
0.467327511134391,0.694117203894307
0.450593598566997,0.709166051625957
0.433726345980485,0.724161443002996
0.416735003805683,0.739077110798059
0.399628899248419,0.753886602861643
0.38241742256573,0.768563339453398
0.365110013249233,0.783080670948522
0.347716146144737,0.797411935790874
0.330245317537273,0.811530518563884
0.31270703123082,0.825409908050008
0.295110784651961,0.839023755149529
0.277466055006684,0.85234593052975
0.259782285519388,0.865350581876252
0.242068871782963,0.878012190618689
0.224335148248579,0.890305628004827
0.206590374883455,0.902206210397882
0.188843724024554,0.913689753673978
0.171104267455648,0.924732626598506
0.153380963734736,0.935311803062427
0.135682645798209,0.945404913062086
0.118018008867535,0.954990292308872
0.100395598683569,0.964047030358105
0.0828238000928389,0.97255501714982
0.0653108260093847,0.980494987857604
0.0478647067748798,0.987848565945433
0.0304932799388557,0.994598304336417
0.0132041804799473,1.00072772460154
-0.00399516851194903,1.00622135408086
-0.0210975646737215,1.01106476085437
-0.0380960347094878,1.01524458648416
-0.054983842216742,1.01874857645487
-0.07175449498267,1.02156560824435
-0.0884017517362529,1.02368571696155
-0.104919628343024,1.02510011849441
-0.121302403430567,1.02580123011571
-0.13754462343412,1.02578268850087
-0.153641107052947,1.02503936511696
-0.169586949109432,1.02356737894843
-0.18537752380421,1.02136410653095
-0.201008487361968,1.01842818927032
-0.216475780063918,1.01475953803015
-0.231775627664312,1.01035933497726
-0.246904542189724,1.00523003268075
-0.261859322121212,0.999375350465811
-0.276637051960834,0.992800268030413
-0.291235101185375,0.985511016338334
-0.305651122591471,0.977515065808497
-0.319883050037715,0.96882111182641
-0.333929095590621,0.959439057609494
-0.347787746082673,0.949379994463994
-0.361457759091986,0.938656179476908
-0.374938158354378,0.927281010692149
-0.388228228619916,0.915268999825666
-0.401327509967238,0.902635742579786
-0.414235791590126,0.889397886622332
-0.426953105072013,0.875573097301299
-0.439479717165183,0.861180021170861
-0.451816122092595,0.846238247409371
-0.463963033391223,0.830768267214714
-0.475921375316893,0.814791431266819
-0.487692273831521,0.798329905351482
-0.499277047194587,0.781406624243698
-0.510677196181553,0.764045243952572
-0.521894393952743,0.746270092433547
-0.532930475596978,0.728106118877018
-0.543787427374956,0.709578841685655
-0.55446737568805,0.69071429525557
-0.564972575798754,0.671538975679172
-0.575305400329573,0.652079785489945
-0.585468327567641,0.632363977571446
-0.595463929602724,0.612419098354752
-0.605294860326668,0.592272930430074
-0.614963843322612,0.571953434699601
-0.624473659672529,0.551488692199633
-0.633827135711816,0.530906845720742
-0.643027130759759,0.510236041355215
-0.652076524854715,0.489504370101085
-0.660978206522861,0.468739809652005
-0.669735060609226,0.447970166501704
-0.678349956199578,0.427223018491127
-0.686825734661528,0.406525657925278
-0.6951651978329,0.385905035385594
-0.703371096385096,0.365387704361994
-0.711446118388737,0.344999766827032
-0.719392878108422,0.324766819872353
-0.727213905052909,0.304713903525333
-0.734911633306381,0.284865449861152
-0.742488391165906,0.265245233522542
-0.749946391109382,0.245876323756467
-0.757287720117589,0.226781038073392
-0.764514330373101,0.20798089763138
-0.771628030357967,0.189496584443187
-0.778630476371165,0.171347900500627
-0.785523164485836,0.153553728906053
-0.792307422965341,0.136131997096395
-0.798984405156118,0.119099642240488
-0.805555082874208,0.102472578885537
-0.812020240301228,0.0862656689235976
-0.818380468404375,0.0704926939437047
-0.824636159893863,0.0551663300299941
-0.830787504729981,0.0402981250606493
-0.836834486190677,0.0258984785569841
-0.842776877509319,0.0119766241261836
-0.848614239090988,-0.00145938546446986
-0.854345916314314,-0.0144026905500298
-0.859971037924563,-0.0268476341410122
-0.865488515022311,-0.0387897687872628
-0.870897040650697,-0.0502258607187142
-0.876195089982888,-0.061153891255182
-0.881380921110005,-0.0715730554835376
-0.886452576428402,-0.0814837582066143
-0.891407884623827,-0.0908876071743739
-0.896244463248629,-0.0997874036138563
-0.900959721886809,-0.108187130080534
-0.905550865900408,-0.116091935659619
-0.910014900749357,-0.123508118551823
-0.91434863687564,-0.130443106083893
-0.918548695141303,-0.13690543219
-0.922611512808601,-0.142904712415698
-0.926533350049326,-0.14845161650172
-0.930310296969143,-0.153557838610242
-0.933938281131591,-0.158236065261557
-0.937413075565251,-0.16249994105416
-0.9407303072365,-0.166364032246242
-0.943885465969156,-0.169843788281311
-0.946873913791342,-0.172955501345295
-0.949690894688879,-0.175716264046843
-0.952331544743593,-0.178143925316725
-0.954790902634032,-0.180257044626231
-0.957063920475252,-0.182074844628195
-0.959145474973537,-0.183617162327787
-0.961030378871194,-0.184904398893522
-0.962713392655874,-0.185957468221917
-0.964189236508271,-0.186797744372071
-0.965452602461459,-0.187447007988885
-0.96649816674466,-0.18792739183597
-0.967320602283752,-0.188261325561201
-0.967914591330493,-0.188471479819643
-0.968274838192083,-0.188580709879962
-0.968396082032446,-0.188611998841601
