0.900780532598714,0.832285163153445
0.892394622810001,0.828920218229043
0.884221281724299,0.824797343677465
0.876180579259144,0.820201536192691
0.868242774292105,0.815238839973692
0.860390082507925,0.809972666328153
0.852610120198436,0.804447170294815
0.844893522466071,0.798695743117165
0.837232826657531,0.792744993444324
0.829621866451185,0.78661690775779
0.822055409494358,0.780330142402813
0.81452892500468,0.773900852223179
0.80703842662082,0.767343250888703
0.799580361625223,0.760670005879852
0.792151530188334,0.753892526428494
0.784749024843854,0.747021179323422
0.777370184058472,0.740065454460944
0.77001255590042,0.733034094387377
0.762673869119816,0.725935197414239
0.75535200978304,0.718776300930135
0.748045002145406,0.711564449600686
0.740750992810398,0.704306251849944
0.733468237474088,0.697007927124173
0.726195089729132,0.68967534581204
0.718929991528585,0.682314063246587
0.711671465001355,0.674929348887852
0.704418105378795,0.667526211543635
0.69716857484265,0.66010942130509
0.689921597143096,0.652683528736532
0.682675952865118,0.6452528817535
0.675430475244457,0.637821640541327
0.668184046452288,0.630393790802383
0.660935594282041,0.622973155569485
0.653684089183072,0.61556340578254
0.646428541595049,0.608168069793008
0.63916799954426,0.600790541934441
0.631901546469084,0.593434090275926
0.624628299246806,0.586101863657634
0.617347406398016,0.578796898093154
0.610058046448242,0.571522122611226
0.602759426429268,0.5642803645994
0.595450780504976,0.557074354703702
0.588131368708535,0.549906731331266
0.580800475779477,0.542780044796857
0.5734574100906,0.535696761149048
0.566101502655913,0.528659265707479
0.55873210621186,0.521669866338828
0.551348594364978,0.514730796495885
0.543950360799934,0.507844218041376
0.536536818542548,0.501012223875685
0.529107399273027,0.494236840385594
0.521661552685113,0.487520029729263
0.514198745887343,0.480863691971114
0.506718462842962,0.474269667078828
0.499220203845437,0.467739736793471
0.491703485026767,0.461275626382632
0.4841678378961,0.454879006285518
0.476612808906393,0.448551493658078
0.469037959047047,0.442294653825466
0.46144286346068,0.436110001648497
0.453827111082319,0.429999002810106
0.446190304299497,0.423963075027323
0.438532058631826,0.418003589193755
0.430852002428787,0.412121870457159
0.423149776584547,0.406319199236269
0.415425034268742,0.400596812180722
0.407677440672232,0.394955903077569
0.39990667276694,0.389397623707609
0.39211241907893,0.383923084654487
0.384294379473969,0.37853335606928
0.376452264954879,0.373229468393067
0.368585797470015,0.368012413039807
0.360694709732291,0.362883143041619
0.352778745048194,0.357842573658447
0.344837657156276,0.352891582953916
0.336871210074672,0.348031012339045
0.328879177957185,0.343261667085354
0.320861344957564,0.338584316808816
0.312817505101586,0.333999695925941
0.304747462166614,0.329508504083242
0.296651029568297,0.325111406561182
0.288528030254149,0.320809034653667
0.280378296603702,0.316601986024027
0.27220167033501,0.312490825038382
0.263998002417274,0.308476083077218
0.25576715298935,0.304558258825904
0.247508991283988,0.30073781854487
0.239223395557581,0.297015196320062
0.23091025302529,0.293390794294261
0.22256945980139,0.289864982879806
0.214200920844686,0.286438100953193
0.205804549908897,0.283110456031991
0.197380269497888,0.279882324434475
0.188928010825647,0.276753951422323
0.180447713780924,0.273725551326693
0.171939326896462,0.270797307657948
0.163402807322734,0.267969373199282
0.154838120806153,0.265241870084427
0.146245241671686,0.26261488985963
0.137624152809857,0.260088493530015
0.128974845668088,0.25766271159044
0.120297320246378,0.255337544040904
0.111591585097305,0.25311296038655
0.102857657330348,0.250988899622254
0.0940955626205367,0.24896527020177
0.0853053352214602,0.247041949991363
0.0764870179826439,0.245218786207843
0.0676406623713466,0.243495595340843
0.0587663284988165,0.241872163059209
0.0498640851510662,0.24034824410126
0.0409340098242317,0.238923562148722
0.0319761887645929,0.237597809684026
0.0229907170133442,0.236370647830676
0.0139776984562129,0.235241706176334
0.00493724587803626,0.234210582578217
-0.00413051897757921,0.23327684295038
-0.0132254653433814,0.232440021032393
-0.0223474533582292,0.231699618138887
-0.0314963339913202,0.231055102889377
-0.040671948960711,0.230505910917741
-0.0498741306459339,0.230051444560649
-0.0591027019945001,0.229691072524198
-0.0683574764220614,0.229424129527922
-0.077638257705979,0.22924991592531
-0.0869448398720309,0.22916769729985
-0.0962770070739657,0.22917670403557
-0.105634533465587,0.22927613086095
-0.115017183065029,0.229465136364971
-0.124424709610844,0.229742842484009
-0.133856856409519,0.230108333958118
-0.143313356173967,0.230560657755179
-0.152793930852546,0.231098822461236
-0.162298291448074,0.231721797635207
-0.171826137826321,0.232428513126016
-0.18137715851335,0.233217858350018
-0.190951030481084,0.234088681526415
-0.200547418920383,0.235039788868154
-0.210165977000882,0.236069943725599
-0.21980634561675,0.237177865680016
-0.229468153117467,0.238362229583648
-0.239151015022646,0.239621664542889
-0.248854533719818,0.240954752840707
-0.258578298144011,0.242360028794167
-0.268321883437842,0.243835977542456
-0.278084850590714,0.245381033760419
-0.287866746055583,0.246993580292108
-0.297667101341597,0.248671946698314
-0.307485432580756,0.25041440771145
-0.317321240066524,0.252219181590448
-0.327174007762149,0.254084428367627
-0.337043202776166,0.256008247978568
-0.34692827480232,0.257988678265108
-0.356828655520814,0.260023692840466
-0.366743757957471,0.262111198804258
-0.376672975796957,0.264249034293759
-0.386615682645809,0.266434965856176
-0.396571231240471,0.268666685624835
-0.406538952594952,0.270941808280094
-0.41651815508205,0.273257867773378
-0.426508123441297,0.275612313789926
-0.436508117705862,0.278002507922601
-0.446517372039627,0.280425719525377
-0.456535093474375,0.282879121210706
-0.466560460535636,0.285359783949848
-0.476592621743999,0.287864671729212
-0.486630693976749,0.290390635708628
-0.496673760672265,0.292934407819009
-0.506720869856835,0.295492593726803
-0.516771031970126,0.298061665080551
-0.526823217461497,0.300637950940344
-0.536876354124375,0.303217628273366
-0.546929324129936,0.305796711377247
-0.556980960713921,0.308371040066655
-0.567030044461315,0.310936266426049
-0.577075299122293,0.313487839891115
-0.587115386878602,0.316020990370699
-0.597148902961594,0.318530709057001
-0.607174369500177,0.321011726489983
-0.617190228447406,0.323458487336603
-0.627194833395937,0.325865121208195
-0.637186440041842,0.328225408658492
-0.647163194988605,0.330532741263446
-0.65712312249154,0.332780074357433
-0.667064108617026,0.334959870551849
-0.676983882115184,0.337064031535177
-0.686879991054243,0.339083814761098
-0.696749773900893,0.341009730333305
-0.706590323188834,0.342831411463005
-0.716398439088513,0.34453744891833
-0.726170568882375,0.346115175218813
-0.735902726209085,0.347550376694639
-0.745590380286279,0.348826898502022
-0.755228298761278,0.349926084295712
-0.764810315312452,0.350825947594212
-0.774328967286501,0.351499879748399
-0.783774889785861,0.351914489514787
-0.79313569910236,0.352025621854636
-0.802393610920744,0.351769865460259
-0.811518884118581,0.351041176132685
-0.820431588613407,0.349554557177937
0.900780532598714,0.832285163153445
0.891867828103889,0.830798544198698
0.882742554906052,0.830069854871124
0.873484643087668,0.829814098476747
0.864123833771168,0.829925230816596
0.854677911271809,0.830339840582984
0.84515925929776,0.831013772737171
0.835577242746586,0.831913636035671
0.825939324271586,0.83301282182936
0.816251670194393,0.834289343636744
0.806519512867682,0.83572454511257
0.796747383073821,0.837302271413053
0.786939267174142,0.839008308868378
0.7770987178862,0.840829989998078
0.76722893503955,0.842755905570285
0.757332826100491,0.844775688796206
0.747413052602334,0.846879849779534
0.737472066476847,0.84905964597395
0.727512138973913,0.851306979067937
0.717535384027149,0.85361431167289
0.707543777381245,0.855974599123188
0.697539172432714,0.85838123299478
0.687523313485484,0.8608279938414
0.677497846946902,0.863309011274382
0.66746433086391,0.865818729960684
0.6574242431076,0.868351880440268
0.647378988446622,0.870903453905334
0.637329904699228,0.873468680264728
0.627278268115243,0.876043008954136
0.617225298109682,0.878622092058017
0.607172161446805,0.881201769391039
0.597119975955434,0.883778055250832
0.587069813842142,0.886347126604579
0.577022704657573,0.888905312512373
0.566979637962057,0.891449084622755
0.556941565729307,0.893975048602171
0.546909404520944,0.896479936381535
0.536884037459683,0.898960599120676
0.526866316024934,0.901414000806006
0.516857061691169,0.903837212408782
0.506857067426604,0.906227406541457
0.496867099067358,0.908581852558005
0.486887896580259,0.910897912051289
0.476920175225778,0.913173034706548
0.466964626631117,0.915404754475207
0.457021919782265,0.917590686037624
0.447092701942779,0.919728521527125
0.437177599506122,0.921816027490917
0.427277218787627,0.923851042066275
0.417392146761474,0.925831472352815
0.407522951747457,0.927755291963756
0.397670184051831,0.929620538740935
0.387834376566063,0.931425312619933
0.378016045326905,0.933167773633068
0.36821569004089,0.934846140039275
0.358433794576022,0.936458686570963
0.34867082742315,0.938003742788926
0.338927242129319,0.939479691537216
0.329203477705125,0.940884967490676
0.319499959007954,0.942218055788494
0.309817097102775,0.943477490747734
0.300155289602058,0.944661854651367
0.29051492098619,0.945769776605784
0.28089636290569,0.946799931463229
0.271299974466391,0.947751038804968
0.261726102498658,0.948621861981365
0.252175081811629,0.949411207205367
0.242647235433382,0.950117922696176
0.233142874837853,0.950740897870147
0.223662300159275,0.951279062576204
0.214205800394827,0.951731386373265
0.204773653596152,0.952096877847374
0.195366127050336,0.952374583966412
0.185983477450895,0.952563589470433
0.176625951059273,0.952663016295813
0.167293783857339,0.952672023031533
0.157987201691287,0.952589804406073
0.148706420407369,0.952415590803461
0.139451645979808,0.952148647807185
0.130223074631242,0.951788275770733
0.121020892946019,0.951333809413642
0.111845277976628,0.950784617442006
0.102696397343537,0.950140102192496
0.0935744093286891,0.949399699298989
0.084479462962887,0.948562877381003
0.0754116981072714,0.947629137753166
0.0663712455290947,0.946598014155049
0.0573582269719634,0.945469072500707
0.0483727552207147,0.944241910647357
0.039414934161076,0.94291615818266
0.0304848588342414,0.941491476230123
0.0215826154864911,0.939967557272174
0.0127082816139611,0.938344124990539
0.00386192600266375,0.93662093412354
-0.00495639123615252,0.93479777034002
-0.0137466186352291,0.932874450129613
-0.0225087133450402,0.930850820709129
-0.0312426411119978,0.928726759944833
-0.0399483762610705,0.926502176290479
-0.0486259016827805,0.924177008740943
-0.0572752088245498,0.921751226801367
-0.0658962976863788,0.919224830471753
-0.0744891768208449,0.916597850246956
-0.0830538633374263,0.913870347132101
-0.091590382911154,0.911042412673435
-0.100098769795616,0.90811416900469
-0.108579066840339,0.90508576890906
-0.117031325512581,0.901957395896908
-0.125455605923589,0.898729264299392
-0.133851976859378,0.89540161937819
-0.142220515816082,0.891974737451577
-0.150561309039982,0.888448926037122
-0.158874451572273,0.884824524011321
-0.167160047298681,0.881101901786513
-0.175418209004043,0.877281461505479
-0.183649058431966,0.873363637254165
-0.191852726349703,0.869348895293001
-0.200029352618394,0.865237734307356
-0.208179086268842,0.861030685677715
-0.21630208558299,0.856728313770201
-0.224398518181306,0.852331216248141
-0.232468561116279,0.847840024405442
-0.240512400972256,0.843255403522567
-0.248530233971877,0.838578053246029
-0.256522266089364,0.833808707992338
-0.264488713170969,0.828948137377466
-0.272429801062886,0.823997146672936
-0.280345765746983,0.818956577289764
-0.288236853484707,0.813827307291575
-0.296103320969571,0.808610251938316
-0.303945435488661,0.803306364262103
-0.311763475093622,0.797916635676895
-0.319557728781633,0.792442096623774
-0.327328496686924,0.786883817253814
-0.335076090283434,0.781242908150661
-0.34280083259924,0.775520521095113
-0.35050305844348,0.769717849874224
-0.358183114646519,0.763836131137628
-0.365841360314189,0.75787664530406
-0.373478167097012,0.751840717521276
-0.381093919475372,0.745729718682885
-0.388689015061739,0.739545066505916
-0.396263864921085,0.733288226673305
-0.403818893910793,0.726960714045865
-0.411354541041459,0.720564093948751
-0.41887125986013,0.714099983537912
-0.426369518857655,0.707570053252555
-0.433849801902035,0.700976028360269
-0.441312608699806,0.69431969060212
-0.448758455287719,0.687602879945789
-0.456187874557241,0.680827496455698
-0.463601416814627,0.673995502290007
-0.470999650379671,0.667108923835498
-0.478383162226552,0.660169853992555
-0.485752558670605,0.653180454623904
-0.493108466105293,0.646142959182335
-0.50045153179417,0.639059675534526
-0.507782424723228,0.631932989000116
-0.515101836519668,0.624765365627681
-0.522410482443961,0.617559355731983
-0.529709102462934,0.610317597720157
-0.536998462412708,0.603042822238229
-0.544279355261499,0.595737856673749
-0.551552602483777,0.588405630055457
-0.558819055558952,0.581049178396942
-0.566079597609742,0.573671650538375
-0.573335145197765,0.566276314548843
-0.580586650296734,0.558866564761898
-0.587835102466981,0.551445929529
-0.595081531259149,0.544018079790056
-0.60232700887981,0.536586838577883
-0.609572653157788,0.529156191594851
-0.616819630857342,0.521730299026292
-0.624069161393487,0.514313508787747
-0.631322521016048,0.506910371443531
-0.638581047543278,0.499525657084796
-0.645846145743825,0.492164374519343
-0.653119293488781,0.48483179320721
-0.660402048825091,0.477533468481439
-0.667696058160098,0.470275270730697
-0.675003065797733,0.463063419401248
-0.682324925134508,0.455904522917144
-0.689663611915113,0.448805625944006
-0.697021240073165,0.441774265870439
-0.704400080858546,0.434818541007961
-0.711802586203026,0.427947193902889
-0.719231417639915,0.421169714451531
-0.726689482635513,0.41449646944268
-0.734179981019372,0.407938868108204
-0.74170646550905,0.40150957792857
-0.749272922465878,0.395222812573593
-0.756883882672224,0.389094726887059
-0.764544578480763,0.383143977214218
-0.772261176213128,0.377392550036567
-0.780041138522618,0.37186705400323
-0.787893830306797,0.366600880357691
-0.795831635273837,0.361638184138692
-0.803872337738991,0.357042376653918
-0.812045678824693,0.35291950210234
-0.820431588613407,0.349554557177937
