0.752133961664176,-0.530969147527746
0.751615846446123,-0.53071025581354
0.750091197130069,-0.529880536529244
0.747610248006693,-0.528403911238025
0.744230445045111,-0.52620950577702
0.740015924684185,-0.523232303337624
0.735036933270192,-0.519413745430061
0.729369192321904,-0.514702275366086
0.723093215287294,-0.509053819406395
0.71629358188871,-0.502432201275358
0.709058176531651,-0.494809486340081
0.701477397572708,-0.486166252378177
0.693643344502165,-0.476491784513503
0.685648990293643,-0.465784192575538
0.677587346305426,-0.4540504498301
0.669550627184439,-0.441306352730459
0.661629423223786,-0.427576402042461
0.653911887558121,-0.41289360639863
0.646482945448732,-0.397299210028164
0.639423532713035,-0.380842347086149
0.632809870093133,-0.36357962566004
0.62671278003739,-0.3455746451588
0.621197051990551,-0.326897451384308
0.616320861855114,-0.307623934140563
0.61213525080333,-0.287835172748802
0.608683668089708,-0.267616735301325
0.606001581942834,-0.247057937899526
0.604116162007991,-0.226251070478541
0.603046036173629,-0.205290596119046
0.602801123951164,-0.184272330983175
0.603382547894547,-0.163292612184428
0.604782623849826,-0.142447461009044
0.606984930121609,-0.121831748947785
0.609964454939276,-0.10153837397201
0.613687820907207,-0.0816574543965553
0.618113584436469,-0.0622755475150091
0.623192607486443,-0.0434748999720534
0.628868498299732,-0.025332736554382
0.63507811719813,-0.00792059373903675
0.641752142927002,0.0086962960612707
0.648815694495145,0.0244595640685094
0.656189002962136,0.0393182035391986
0.663788127179462,0.0532290025533016
0.671525707099581,0.0661569073369269
0.67931174793184,0.0780753128832773
0.687054428148914,0.0889662782848111
0.694660924134587,0.0988206648611867
0.702038244115165,0.10763819585624
0.709094063933895,0.115427437176874
0.71573755721125,0.12220569935107
0.721880212483942,0.12799886158498
0.727436630031581,0.132841119493945
0.732325291281022,0.136774658763133
0.736469293922993,0.13984925765423
0.739797046181351,0.142121821909293
0.742242914039648,0.143655856205911
0.743747815649222,0.144520876883804
0.74425975761415,0.144791771186821
0.74373430836679,0.144548108741395
0.742135004408745,0.143873411418545
0.739433685790906,0.142854388097729
0.735610757837355,0.141580141163906
0.730655376775792,0.140141351821264
0.724565557615865,0.138629451496039
0.717348203310309,0.137135786724845
0.709019054935909,0.135750784983056
0.699602563335788,0.134563128899306
0.689131683365069,0.133658946227361
0.67764759257227,0.133121022805954
0.665199336822838,0.133028045532113
0.651843406022857,0.133453882105676
0.637643243724423,0.134466903974653
0.622668694983956,0.136129358525637
0.606995397395435,0.138496796124137
0.59070412072742,0.141617557120356
0.573880061051102,0.145532323400931
0.556612095652555,0.150273738491361
0.538992005372104,0.155866099602206
0.521113671304241,0.162325124370372
0.503072253020157,0.169657794380357
0.484963355639737,0.177862276865395
0.466882193179277,0.186927925290924
0.448922755634314,0.196835358819091
0.431176987223623,0.207556619949276
0.413733983120762,0.219055408932153
0.396679211834615,0.231287392869913
0.380093770171473,0.244200586748928
0.364053677420542,0.257735803009408
0.348629215054766,0.271827165645146
0.333884317832804,0.286402684250715
0.319876021729415,0.301384882898653
0.306653973614502,0.316691478240001
0.294260007050179,0.332236100782356
0.282727787985375,0.34792905291438
0.272082533503909,0.363678096917833
0.262340806130223,0.379389265940605
0.253510385522935,0.394967690699341
0.245590218695935,0.41031843453983
0.238570449206236,0.425347329408743
0.232432525043285,0.439961805282033
0.227149384252359,0.454071705653686
0.22268571663117,0.467590081812694
0.21899829916018,0.480433958825337
0.216036402169305,0.492525066392147
0.213742262612674,0.503790528062192
0.212051620224393,0.514163502658729
0.210894311767332,0.523583772196466
0.210194918068673,0.531998271047961
0.209873458065037,0.539361551640651
0.20984612366063,0.545636182532135
0.210026048837752,0.550793075314465
0.210324106153412,0.554811737433004
0.210649723511472,0.55768044866622
0.21091171391888,0.559396359693665
0.211019110818636,0.559965511874355
0.210882001542443,0.559402778060511
0.210412351442671,0.557731724975937
0.209524811346459,0.554984398387949
0.208137501123481,0.551201032990367
0.206172762371989,0.54642968958665
0.203557873503226,0.540725822810678
0.200225720839683,0.534151783242233
0.19611541973508,0.526776258359417
0.191172880169736,0.518673657315714
0.185351311770335,0.509923445030487
0.178611663743418,0.500609431533727
0.170922995792561,0.490819022904962
0.162262776704844,0.480642440488748
0.152617107937437,0.470171915352044
0.141980870204188,0.459500865169587
0.130357791748962,0.448723060879993
0.117760437691093,0.437931790546523
0.104210120532388,0.427219027881256
0.0897367326183972,0.416674612849764
0.074378502042917,0.406385451665502
0.0581816741675887,0.396434743310071
0.041200121592039,0.386901239478821
0.0234948860482804,0.377858544552976
0.0051336563003672,0.369374461842323
-0.0138098132988165,0.361510391929658
-0.0332563384123686,0.354320788483328
-0.0531219888213517,0.347852676391442
-0.0733188149268824,0.342145236515333
-0.0937556101770011,0.337229460765442
-0.114338702622531,0.333127880575419
-0.134972768546241,0.329854371195388
-0.155561660912721,0.327414033548877
-0.17600924525415,0.325803154705924
-0.196220235540748,0.325009247323487
-0.216101022584877,0.325011167699745
-0.235560487594263,0.325779311387538
-0.254510793622322,0.327275884620221
-0.272868147860682,0.32945524912683
-0.290553527979089,0.332264337258713
-0.30749336603854,0.335643133722456
-0.323620183881984,0.339525219619715
-0.338873174339675,0.343838373938626
-0.353198723069646,0.348505227128938
-0.366550866383302,0.35344396092825
-0.378891680977093,0.358569048194138
-0.390191602098698,0.363792026139928
-0.400429667314476,0.369022296073883
-0.409593683708574,0.37416794250501
-0.417680317027093,0.379136564305892
-0.424695101976981,0.3838361105153
-0.430652373592565,0.38817571332187
-0.435575120286782,0.392066510795218
-0.439494759902685,0.395422452022242
-0.442450840767678,0.39816107746323
-0.444490670421857,0.400204267563388
-0.445668875337024,0.401478952938512
-0.446046895558453,0.401917779796227
-0.445692418781988,0.401459724653468
-0.444678758919243,0.400050652863125
-0.44308418469886,0.397643815963969
-0.440991204297392,0.394200283413597
-0.438485812385572,0.389689304849473
-0.435656706310981,0.384088599642738
-0.432594478413336,0.37738457115805
-0.429390791681513,0.369572443804257
-0.426137546109943,0.360656321649449
-0.422926043194923,0.350649168073518
-0.419846156027924,0.339572706635715
-0.416985512392967,0.327457244037429
-0.414428698159094,0.314341416755296
-0.412256488077831,0.300271863600639
-0.410545110851016,0.285302827121885
-0.40936555502857,0.269495687401402
-0.408782921931524,0.252918432401145
-0.408855831376014,0.235645069577515
-0.409635885502904,0.217754984009684
-0.411167195499267,0.199332248762703
-0.413485975436861,0.180464893632774
-0.416620206853944,0.161244138793257
-0.420589377075604,0.141763600173051
-0.425404293609962,0.122118473651086
-0.431066976278823,0.102404705339617
-0.437570628047911,0.0827181553530411
-0.444899684819635,0.0631537625170237
-0.453029943746912,0.0438047174643125
-0.461928768926018,0.024761651488735
-0.471555372636094,0.00611184838828424
-0.481861169618945,-0.0120615136769307
-0.492790201241119,-0.0296800835538824
-0.504279625756783,-0.0466710152630419
-0.51626027030019,-0.0629675969175298
-0.528657239685746,-0.0785098247898602
-0.541390576586901,-0.0932449174104827
-0.554375967206628,-0.10712776511731
-0.567525486146395,-0.120121311051275
-0.58074837383075,-0.132196860204507
-0.593951839554163,-0.143334313769596
-0.607041882988106,-0.153522326704748
-0.619924126821592,-0.16275838711467
-0.632504653109001,-0.171048816744461
-0.644690835865853,-0.178408692587536
-0.656392162486578,-0.184861690312345
-0.667521036657962,-0.190439850910088
-0.677993555606936,-0.195183272650556
-0.687730254750226,-0.199139731099536
-0.696656813104102,-0.202364230592986
-0.704704713162417,-0.204918491174621
-0.711811849357219,-0.206870375579285
-0.717923079674767,-0.208293261379308
-0.722990715506845,-0.209265363900263
-0.72697494536809,-0.209869015951669
-0.729844188699969,-0.210189910803471
-0.73157537660559,-0.210316315166979
-0.732154157011262,-0.210338259206535
-0.731575022424824,-0.21034671081309
-0.729841359151101,-0.210432741511246
-0.72696541752546,-0.210686691445981
-0.72296820343087,-0.21119734090345
-0.71787929206602,-0.212051095762003
-0.711736565625488,-0.213331194145263
-0.704585877231647,-0.215116941359965
-0.696480644115761,-0.217482979948972
-0.687481373676785,-0.220498601376568
-0.677655126645076,-0.224227105491796
-0.667074922139159,-0.228725213489338
-0.655819089922007,-0.23404253961024
-0.643970575634155,-0.240221126300725
-0.631616205200424,-0.247295046981298
-0.61884591497107,-0.25529007997515
-0.605751954463807,-0.26422345651011
-0.592428068817472,-0.274103685047584
-0.578968668248964,-0.284930453510994
-0.565467991921001,-0.296694610291348
-0.552019273677954,-0.309378224204759
-0.538713917090316,-0.322954722872444
-0.525640687165198,-0.337389108294125
-0.512884925931533,-0.352638247697108
-0.500527798895565,-0.368651237071794
-0.488645579086776,-0.385369834155942
-0.477308975078957,-0.402728957010437
-0.4665825089788,-0.42065724374418
-0.456523949928527,-0.439077668400213
-0.447183808173801,-0.457908207514113
-0.438604894207807,-0.477062551403698
-0.430821946921766,-0.496450853849963
-0.423861334076518,-0.515980513486681
-0.417740827764576,-0.535556979933207
-0.412469456862995,-0.555084577484234
-0.408047437790564,-0.574467339013617
-0.404466184184181,-0.593609842658213
-0.401708395405226,-0.612418043822825
-0.399748223083451,-0.630800095089055
-0.398551514209682,-0.648667146718706
-0.398076128605709,-0.665934120615467
-0.398272327936167,-0.682520450845269
-0.399083232788949,-0.698350784114055
-0.400445343743409,-0.713355633958771
-0.402289121774721,-0.72747198282029
-0.404539622813411,-0.740643826631851
-0.407117180795859,-0.752822657069287
-0.409938133108996,-0.763967877165435
-0.412915581954115,-0.774047146585395
-0.415960184834271,-0.783036653486807
-0.41898096710986,-0.790921310544094
-0.421886149370036,-0.797694873392093
-0.424583982235422,-0.80335998043649
-0.426983581141187,-0.807928113679868
-0.428995753649688,-0.811419480916701
-0.430533811908466,-0.813862820351994
-0.43151436300181,-0.815295129390232
-0.431858070141285,-0.815761320017697
-0.431490377900655,-0.815313803855931
-0.430342195021354,-0.814012010591483
-0.42835052869308,-0.811921844081306
-0.425459064646903,-0.809115080989047
-0.421618687881628,-0.805668717320113
-0.41678793937366,-0.801664268688055
-0.410933404691647,-0.797187030557496
-0.404030031044584,-0.792325305065804
-0.396061369930413,-0.787169601323742
-0.387019743215802,-0.781811816331876
-0.376906331160763,-0.776344403822327
-0.365731181598065,-0.770859538443118
-0.353513140180633,-0.765448282743821
-0.340279702314263,-0.760199764396154
-0.326066788091521,-0.755200370991781
-0.310918442229529,-0.750532969602722
-0.294886461683331,-0.746276158068762
-0.278029954251649,-0.742503554693176
-0.260414832107397,-0.739283132685382
-0.242113244765811,-0.736676605289851
-0.223202956543243,-0.734738867088422
-0.203766674054831,-0.733517496461938
-0.1838913297449,-0.733052323651495
-0.163667327836146,-0.733375068274308
-0.143187759418836,-0.734509049529543
-0.122547593676576,-0.736468971680947
-0.10184285245799,-0.739260786731507
-0.0811697755522342,-0.742881635516683
-0.060623984109155,-0.747319867743142
-0.0402996496614362,-0.752555140795596
-0.0202886761560838,-0.758558596431578
-0.000679902286513531,-0.765293113789159
0.0184416687645675,-0.772713636451676
0.0369956053058755,-0.780767570652921
0.0549067422820026,-0.78939525107145
0.0721058293860567,-0.798530470059727
0.0885301263645013,-0.808101065587786
0.104123940209293,-0.818029562657299
0.118839099450825,-0.828233862464808
0.132635361326293,-0.838627973166901
0.145480748196892,-0.849122775728835
0.157351810218403,-0.85962681802514
0.168233811927602,-0.870047130108553
0.178120841085625,-0.880290053374753
0.187015838812958,-0.890262076226311
0.19493055075283,-0.899870668781185
0.201885399704263,-0.909025109179556
0.207909280866578,-0.91763729411764
0.213039281527479,-0.925622526377728
0.217320327700864,-0.932900272328836
0.220804760872145,-0.939394882640126
0.223551848632318,-0.945036269777341
0.225627233571804,-0.949760536237943
0.227102325355786,-0.953510547919954
0.228053641409641,-0.956236447508921
0.228562102101459,-0.957896103302318
0.228712286714554,-0.958455489466655
0.228591656852626,-0.957888994334043
0.228289754210729,-0.956179653986863
0.227897379873857,-0.953319309045564
0.227505762469733,-0.949308683259582
0.22720572260177,-0.944157383198875
0.227086841021363,-0.937883819047305
0.227236637965249,-0.930515047202809
0.227739770984091,-0.922086536086788
0.228677258423422,-0.912641857250031
0.23012573548926,-0.902232304528843
0.232156749539967,-0.890916444646784
0.234836100895991,-0.878759603268872
0.238223235053053,-0.865833291090864
0.242370691725748,-0.852214575081012
0.247323615641539,-0.837985400480948
0.253119333454239,-0.823231869611469
0.259787000556208,-0.808043483914278
0.26734732094492,-0.792512355988597
0.27581234264783,-0.77673239864916
0.285185330535394,-0.760798498236991
0.295460717661717,-0.744805679554779
0.30662413557174,-0.728848269873295
0.318652523309421,-0.713019069463485
0.331514314159213,-0.697408536050657
0.345169698459746,-0.682103990462784
0.359570960149871,-0.667188850555966
0.37466288404954,-0.652741900247621
0.390383230246826,-0.638836600174848
0.406663271363854,-0.625540446123904
0.423428387913296,-0.61291438095062
0.44059871643896,-0.601012265234248
0.458089844662976,-0.589880411383313
0.475813547442766,-0.57955718534587
0.493678556976865,-0.570072679473478
0.511591360393054,-0.561448459453394
0.529457017607986,-0.553697387562672
0.54717999216655,-0.546823523816979
0.564664987653398,-0.540822105892
0.581817782219274,-0.535679607992531
0.598546053781555,-0.531373878140062
0.614760188541509,-0.527874352650034
0.630374065609581,-0.525142345881325
0.64530581074303,-0.523131412668995
0.659478512475757,-0.521787780202871
0.672820894255545,-0.521050845495009
0.685267936596312,-0.520853733993931
0.696761443698822,-0.521123914357998
0.707250549488564,-0.521783863899271
0.716692158559922,-0.522751778757136
0.725051318096295,-0.523942322461919
0.732301517451574,-0.525267406206191
0.738424912723518,-0.526636993858576
0.743412474318684,-0.527959924534094
0.747264056195423,-0.529144745378432
0.749988386170047,-0.530100547132363
0.751602977375379,-0.530737795017681
0.752133961664176,-0.530969147527746
