-0.405503799614656,0.188235346153662
-0.404248964015916,0.181761980443143
-0.402769987124853,0.175288521125286
-0.40106563921023,0.168822706353266
-0.399134956897838,0.162372350960085
-0.396977246758117,0.155945337317197
-0.394592088580965,0.149549606043937
-0.391979338331895,0.143193146578456
-0.389139130784104,0.13688398762104
-0.386071881821368,0.130630187460905
-0.382778290407072,0.124439824197779
-0.379259340215044,0.11832098586972
-0.375516300918282,0.112281760498815
-0.37155072913205,0.106330226066556
-0.367364469008219,0.100474440430809
-0.36295965247814,0.0947224311964372
-0.358338699141766,0.0890821855517523
-0.353504315801124,0.0835616400830415
-0.348459495636709,0.0781686705795316
-0.343207517025746,0.0729110818412015
-0.337751942001738,0.0677965975019111
-0.332096614355118,0.0628328498803598
-0.326245657375279,0.0580273698714064
-0.320203471234668,0.0533875768902966
-0.313974730016094,0.0489207688823349
-0.307564378384796,0.0446341124105215
-0.300977627907297,0.0405346328336358
-0.294219953019462,0.0366292045872024
-0.28729708664665,0.0329245415797053
-0.280215015479244,0.0294271877163408
-0.272979974907305,0.0261435075624992
-0.265598443618508,0.0230796771590617
-0.258077137863931,0.0202416750014685
-0.250423005396706,0.0176352731943772
-0.242643219088957,0.0152660287935783
-0.234745170232829,0.0131392753466616
-0.226736461531869,0.0112601146437498
-0.218624899789367,0.00963340868941476
-0.210418488300694,0.00826377190668309
-0.202125418957045,0.00715556358381331
-0.193754064068381,0.00631288057428708
-0.185312967913725,0.00573955026020867
-0.176810838027339,0.00543912378903855
-0.168256536229672,0.00541486959331383
-0.159659069412292,0.00566976720271634
-0.151027580086365,0.0062065013575473
-0.142371336704582,0.00702745643235525
-0.133699723766721,0.00813471117813708
-0.125022231719367,0.00953003379119688
-0.116348446660586,0.0112148773163993
-0.107688039860647,0.0131903753921956
-0.099050757110133,0.0154573383444352
-0.0904464079070837,0.0180162496355937
-0.0818848544950032,0.020867262675666
-0.0733760007638473,0.0240101980005734
-0.0649297810262967,0.0274445408235327
-0.0565561486818405,0.031169438964418
-0.0482650647813816,0.035183701161733
-0.040066486505259,0.0394857957713774
-0.0319703555677418,0.0440738498559615
-0.0239865865612029,0.0489456486679844
-0.016125055253312,0.054098635529738
-0.00839558685071037,0.0595299121123609
-0.000807944242732894,0.0652362391159975
0.00662818376116808,0.0712140373525677
0.013903194186567,0.0774593892321854
0.0210075816279923,0.0839680406537973
0.0279319499478036,0.0907354033001462
0.0346670239261679,0.0977565573366908
0.0412036608482643,0.105026254513643
0.0475328620148578,0.112538921669809
0.0536457841624043,0.12028866463644
0.0595337507788827,0.128269272538849
0.0651882633016104,0.136474222493033
0.0706010121833603,0.144896684694118
0.0757638878131929,0.153529527892935
0.0806689912785106,0.162365325256588
0.0853086449549667,0.171396360608405
0.0896754029109892,0.180614635042191
0.0937620611138378,0.190011873905265
0.0975616674242681,0.199579534144293
0.101067531367069,0.20930881200748
0.104273233664925,0.21919065109626
0.107172635523282,0.22921575075915
0.109759887654099,0.239374574820057
0.112029439026643,0.249657360632846
0.113976045333708,0.2600541284536
0.115594777161926,0.270554691121591
0.116881027855133,0.281148664039562
0.117830521060031,0.291825475443552
0.118439317943705,0.302574376952107
0.118703824072903,0.313384454384352
0.118620795945288,0.324244638836033
0.118187347163252,0.335143718002298
0.117400954241239,0.346070347735644
0.116259462037884,0.35701306382714
0.114761088804689,0.367960293998696
0.112904430843336,0.378900370093897
0.110688466764141,0.389821540454571
0.108112561338605,0.400711982470044
0.105176468939401,0.411559815285738
0.101880336561614,0.422353112657527
0.0982247064194747,0.433079915938055
0.0942105181132938,0.443728247180976
0.0898391103617669,0.454286122348885
0.0851122222952854,0.464741564610535
0.0800319943063719,0.475082617712735
0.0746009684538466,0.485297359412202
0.0688220884178107,0.495373914952473
0.0626986990030411,0.505300470570875
0.0562345451888823,0.515065287020444
0.0494337707242307,0.524656713091587
0.0423009162667157,0.534063199118219
0.0348409170656899,0.543273310453034
0.0270591001891602,0.552275740896558
0.0189611812953041,0.561059326064578
0.0105532609497368,0.569613056678561
0.0018418204902082,0.577926091763677
-0.0071662825590631,0.585987771739088
-0.016463819520704,0.593787631385182
-0.0260431960419063,0.60131541267253
-0.0358964580127988,0.608561077437408
-0.0460152979212029,0.615514819888827
-0.0563910616389884,0.622167078932151
-0.0670147556347442,0.628508550294478
-0.0778770546069651,0.634530198437162
-0.0889683095314626,0.640223268240983
-0.10027855611621,0.645579296449684
-0.111797523656344,0.650590122857775
-0.123514644281553,0.655247901228749
-0.13541906258762,0.659545109930078
-0.147499645643407,0.663474562271598
-0.159744993364105,0.667029416534197
-0.172143449241136,0.670203185675955
-0.184683111418622,0.672989746703243
-0.197351844105925,0.675383349694545
-0.210137289315331,0.677378626465143
-0.223026878913522,0.678970598861135
-0.236007846975091,0.680154686671598
-0.249067242425971,0.680926715148116
-0.262191941964232,0.681282922121256
-0.275368663245375,0.681219964703976
-0.28858397831887,0.680734925572378
-0.301824327302354,0.679825318814629
-0.31507603227957,0.678489095339326
-0.328325311407817,0.676724647835006
-0.341558293220386,0.674530815272998
-0.35476103110917,0.671906886946254
-0.36791951797235,0.668852606037294
-0.381019701011848,0.665368172708879
-0.394047496664941,0.661454246711548
-0.406988805654271,0.657111949502637
-0.419829528140226,0.65234286587193
-0.432555578959523,0.647149045069624
-0.445152902933623,0.641533001432794
-0.45760749023048,0.635497714507113
-0.469905391762961,0.629046628661111
-0.482032734607189,0.622183652190801
-0.49397573742394,0.61491315591306
-0.505720725866144,0.607239971246721
-0.517254147955503,0.599169387780868
-0.52856258941115,0.590707150330417
-0.539632788913297,0.581859455479612
-0.550451653284772,0.572632947614647
-0.561006272573388,0.563034714447185
-0.571283935018104,0.553072282031119
-0.58127214188198,0.542753609275481
-0.590958622135017,0.532087081956998
-0.600331346970057,0.521081506236317
-0.609378544134999,0.509746101682535
-0.618088712064758,0.498090493811191
-0.626450633796497,0.486124706141465
-0.634453390651851,0.473859151778863
-0.642086375670038,0.461304624530223
-0.649339306775947,0.448472289558435
-0.656202239667512,0.435373673584782
-0.662665580406943,0.422020654647358
-0.668720097700588,0.408425451424545
-0.674356934852533,0.394600612133031
-0.679567621377297,0.380559003010385
-0.684344084257296,0.366313796392687
-0.688678658831083,0.351878458398194
-0.692564099298711,0.337266736228538
-0.695993588830906,0.32249264509938
-0.698960749269139,0.307570454812935
-0.701459650404054,0.292514675985199
-0.703484818820126,0.277340045941186
-0.705031246294824,0.262061514291855
-0.706094397741029,0.246694228206857
-0.706670218681848,0.2312535173976
-0.706755142247481,0.215754878825519
-0.706346095684235,0.200213961150825
-0.705440506366297,0.184646548937292
-0.704036307301344,0.16906854662908
-0.702131942121621,0.15349596231579
-0.699726369552603,0.137944891302364
-0.696819067351913,0.122431499500627
-0.693410035711713,0.106972006659627
-0.689499800118322,0.0915826694520941
-0.685089413663399,0.0762797644346466
-0.680180458801576,0.0610795708995351
-0.674775048550037,0.045998353635934
-0.668875827126084,0.0310523456189642
-0.662485970019373,0.0162577306447791
-0.655609183496047,0.00163062593020052
-0.648249703532651,-0.0128129353045072
-0.640412294178282,-0.027057021251026
-0.632102245344063,-0.0410858189077639
-0.623325370019632,-0.0548836514351901
-0.614088000916981,-0.0684349954528585
-0.604396986542555,-0.081724498259227
-0.594259686699205,-0.0947369949553837
-0.583683967420159,-0.107457525453818
-0.572678195337828,-0.119871351353414
-0.561251231490874,-0.131963972661911
-0.549412424573606,-0.14372114434715
-0.537171603632364,-0.155128892698553
-0.524539070214192,-0.166173531480369
-0.511525589973701,-0.176841677858424
-0.498142383744636,-0.187120268082207
-0.484401118083276,-0.196996572904384
-0.470313895291372,-0.206458212719979
-0.455893242926953,-0.215493172407726
-0.441152102811896,-0.224089815856325
-0.426103819545733,-0.23223690015861
-0.410762128535765,-0.239923589456914
-0.395141143554086,-0.247139468423236
-0.379255343832694,-0.253874555358114
-0.363119560708401,-0.260119314892481
-0.346748963829796,-0.265864670277124
-0.330159046939018,-0.271102015244739
-0.313365613241644,-0.275823225429987
-0.296384760378443,-0.280020669333375
-0.279232865013288,-0.283687218815179
-0.261926567051937,-0.286816259106125
-0.244482753506904,-0.289401698321971
-0.226918542024032,-0.291437976469624
-0.209251264086852,-0.29292007393292
-0.191498447915198,-0.293843519426706
-0.17367780107495,-0.294204397408385
-0.15580719281617,-0.293999354936606
-0.137904636157221,-0.293225607967374
-0.119988269732868,-0.291880947078357
-0.10207633942461,-0.2899637426128
-0.0841871797918616,-0.287472949234995
-0.0663391953228696,-0.284408109889892
-0.0485508415245013,-0.280769359160008
-0.0308406058703347,-0.276557426013438
-0.0132269886266718,-0.271773635937377
0.00427151642366991,-0.266419912452204
0.0216364413397529,-0.260498778001827
0.0388493634428903,-0.254013354216621
0.0558919247786407,-0.246967361545963
0.0727458515999424,-0.239365118258023
0.0893929738507945,-0.231211538805124
0.105815244629816,-0.222512131553685
0.121994759612949,-0.213272995878393
0.137913776414533,-0.203500818620971
0.153554733865941,-0.193202869914549
0.168900271191021,-0.182386998375351
0.183933247057546,-0.171061625664092
0.198636758483982,-0.159235740420126
0.212994159580921,-0.146918891572134
0.226989080106641,-0.134121181029734
0.240605443816343,-0.120853255761155
0.253827486584788,-0.107126299262726
0.266639774282187,-0.0929520224266409
0.2790272203834,-0.0783426538141156
0.29097510329069,-0.063310929341698
0.302469083350511,-0.0478700813891775
0.31349521954507,-0.0320338273381522
0.324039985839634,-0.0158163575509931
0.334090287166888,0.000767677199459638
0.343633475029941,0.0177031788384855
0.352657362705901,0.0349746156247624
0.361150240032308,0.0525660363001568
0.369100887759092,0.0704610847412134
0.376498591449081,0.0886430150989891
0.383333154910554,0.107094707413282
0.389594913145708,0.125798683686758
0.395274744799395,0.144737124403927
0.40036408409294,0.1638918854794
0.404854932228342,0.183244515619332
0.408739868248664,0.202776274079463
0.412012059340928,0.22246814880268
0.414665270568391,0.242300874918562
0.416693874019606,0.262254953586904
0.418092857362264,0.282310671166809
0.418857831790373,0.30244811869248
0.418985039353955,0.322647211636501
0.418471359661021,0.342887709940955
0.417314315942245,0.363149238296444
0.415512080469363,0.383411306648643
0.413063479318988,0.403653330911806
0.409967996474194,0.423854653868249
0.406225777256887,0.443994566232631
0.401837631084648,0.464052327859555
0.396805033546463,0.484007189072801
0.391130127792399,0.503838412094267
0.384815725233035,0.523525292550551
0.377865305545147,0.543047181034883
0.370283015980869,0.562383504702019
0.362073669978277,0.581513788873578
0.353242745072078,0.600417678631181
0.343796380103804,0.619074960374727
0.333741371731666,0.637465583323043
0.323085170240946,0.655569680934155
0.311835874656551,0.673367592222414
0.300002227160108,0.690839882949724
0.287593606814679,0.707967366668191
0.274620022600984,0.724731125591557
0.261092105769677,0.741112531272902
0.247021101515038,0.757093265066191
0.232418859976105,0.772655338349431
0.217297826572062,0.787781112487304
0.201671031679382,0.802453318511409
0.18555207965896,0.816655076496396
0.168955137242193,0.830369914610575
0.151894921285649,0.843581787819782
0.134386685904692,0.856275096223631
0.1164462089971,0.868434703003546
0.0980897781684062,0.880045951962327
0.0793341760713571,0.891094684635338
0.0601966651725567,0.901567256953805
0.0406949719599913,0.911450555441082
0.0208472706057922,0.92073201292319
0.00067216609919768,0.929399623735366
-0.0198113231347019,0.937441958406808
-0.040583783114255,0.94484817780631
-0.0616254226618351,0.951608046731966
-0.0829160922283763,0.957711946928644
-0.104435303164003,0.963150889517477
-0.126162247416341,0.967916526822189
-0.148075817637591,0.972001163577619
-0.170154627680958,0.975397767506441
-0.192377033466525,0.978099979250652
-0.214721154196231,0.980102121645059
-0.237164893897162,0.981399208320616
-0.259685963271937,0.981986951626136
-0.282261901834585,0.981861769857565
-0.30487010030995,0.981020793784697
-0.327487823274228,0.979461872465906
-0.350092232014052,0.977183578342186
-0.372660407581062,0.974185211602504
-0.395169374018749,0.970466803813218
-0.417596121738036,0.966029120805046
-0.439917631017789,0.960873664811823
-0.462110895606353,0.955002675856059
-0.484152946399845,0.948419132377069
-0.506020875172965,0.941126751098215
-0.527691858337758,0.933129986130616
-0.549143180705799,0.924434027311423
-0.570352259229082,0.915044797775587
-0.59129666669487,0.904968950760832
-0.611954155349732,0.894213865646339
-0.632302680427946,0.882787643226457
-0.652320423559508,0.870699100221556
-0.671985816032975,0.857957763028938
-0.691277561888471,0.844573860717538
-0.710174660816261,0.830558317270937
-0.728656430836437,0.815922743083993
-0.746702530735345,0.800679425719249
-0.764292982234646,0.784841319929993
-0.781408191868996,0.768422036957706
-0.798028972548628,0.751435833112357
-0.814136564783344,0.733897597644827
-0.829712657544652,0.715822839921493
-0.844739408743176,0.697227675911748
-0.859199465298668,0.678128814000037
-0.873075982780428,0.658543540134657
-0.886352644596174,0.638489702326394
-0.899013680707939,0.617985694510688
-0.911043885853853,0.597050439787832
-0.922428637255231,0.575703373056316
-0.933153911788766,0.553964423055168
-0.943206302604161,0.531853993831807
-0.952573035168037,0.50939294565253
-0.961241982715467,0.486602575373465
-0.969201681091056,0.463504596290388
-0.976441342962067,0.440121117486427
-0.982950871386661,0.416474622697256
-0.98872087272096,0.392587948713976
-0.993742668849254,0.368484263344358
-0.998008308722339,0.344187042953774
-1.00151057918963,0.319720049607491
-1.0042430151114,0.295107307836657
-1.00619990873811,0.270373081050627
-1.00737631834475,0.245541847618816
-1.00776807610844,0.220638276645675
-1.00737179521877,0.195687203462701
-1.00618487621066,0.170713604861916
-1.0042055125107,0.145742574095416
-1.00143269518837,0.12079929566611
-0.997866216904596,0.0959090199348802
-0.993506675050711,0.0710970375698293
-0.988355474071925,0.0463886538634181
-0.982414826969968,0.021809162943577
-0.975687755980641,-0.00261617809494363
-0.968178092422705,-0.0268621751125709
-0.959890475715464,-0.0509037228736524
