0.143647139133132,-0.229568802010929
0.147527671509005,-0.231710999352594
0.151537414119575,-0.233729893920882
0.155672387167741,-0.235619472939285
0.159928360365803,-0.23737385396776
0.164300857259234,-0.238987294712684
0.168785159919732,-0.240454202691786
0.17337631400264,-0.241769144740569
0.178069134163357,-0.24292685634683
0.182858209826863,-0.243922250800142
0.187737911304003,-0.244750428143292
0.192702396247746,-0.245406683912957
0.197745616442119,-0.245886517657064
0.202861324916123,-0.246185641216603
0.208043083374451,-0.246299986759859
0.213284269936423,-0.24622571455737
0.21857808717412,-0.24595922048617
0.223917570440273,-0.24549714325222
0.229295596476099,-0.244836371320246
0.234704892288837,-0.243974049540537
0.240138044288388,-0.24290758546262
0.2455875076721,-0.241634655326109
0.25104561604636,-0.240153209719366
0.256504591273339,-0.238461478897077
0.261956553530892,-0.236557977748165
0.267393531573318,-0.234441510405961
0.272807473180368,-0.232111174492933
0.278190255781619,-0.229566364992736
0.283533697243069,-0.226806777742777
0.288829566802524,-0.22383241254098
0.294069596140163,-0.220643575860881
0.299245490570392,-0.217240883169653
0.304348940340935,-0.213625260844189
0.309371632024903,-0.209797947680808
0.314305259991421,-0.205760495994704
0.319141537940225,-0.20151477230571
0.323872210485543,-0.197062957607523
0.328489064774403,-0.192407547217987
0.33298394212447,-0.187551350208613
0.337348749666385,-0.182497488411989
0.341575471975548,-0.177249395006303
0.345656182678233,-0.171810812676715
0.34958305601689,-0.166185791353831
0.3533483783595,-0.160378685530106
0.356944559637835,-0.154394151155497
0.360364144699547,-0.148237142114251
0.363599824559006,-0.141912906285235
0.366644447531916,-0.135426981188746
0.369491030238821,-0.128785189223272
0.372132768462689,-0.12199363249622
0.37456304784592,-0.115058687253113
0.376775454412252,-0.10798699791033
0.378763784899188,-0.10078547069693
0.380522056886774,-0.0934612669116555
0.382044518708726,-0.0860217958016852
0.383325659132138,-0.0784747070702191
0.384360216792216,-0.0708278830204762
0.385143189368767,-0.0630894303441555
0.38566984249139,-0.0552676715628999
0.385935718360641,-0.047371136131763
0.385936644072721,-0.0394085512141412
0.385668739635568,-0.0313888321380783
0.385128425664542,-0.0233210725442905
0.384312430746268,-0.015214534236682
0.38321779845954,-0.00707863674654277
0.381841894042588,0.00107705337798641
0.380182410696382,0.00924283354519803
0.378237375514064,0.0174088763434958
0.376005155027013,0.0255652410027484
0.373484460358491,0.0337018850802494
0.370674351976245,0.0418086763578821
0.367574244035902,0.0498754049367683
0.36418390830748,0.057891795515377
0.360503477677788,0.0658475198367808
0.356533449222001,0.0737322092904764
0.35227468683818,0.0815354676539325
0.347728423439027,0.0892468839587913
0.342896262695674,0.0968560454664245
0.337780180328837,0.10435255073735
0.332382524943195,0.111726022778828
0.326706018401392,0.11896612225478
0.320753755734615,0.126062560742051
0.314529204587243,0.133005114016872
0.308036204193634,0.139783635355296
0.30127896388565,0.146388068831292
0.294262061130121,0.152808462596077
0.286990439095997,0.159034982122256
0.279469403751498,0.165057923396281
0.271704620492175,0.170867726042734
0.263702110301345,0.176454986363944
0.255468245444934,0.181810470278483
0.247009744703359,0.186925126142119
0.238333668143631,0.19179009743488
0.229447411435438,0.196396735297973
0.220358699715547,0.200736610904384
0.211075581005412,0.204801527647153
0.201606419187442,0.208583533129412
0.191959886545967,0.212074930940489
0.182144955879435,0.21526829220252
0.172170892190993,0.21815646687225
0.162047243965077,0.220732594782913
0.151783834038222,0.222990116411302
0.141390750072799,0.224922783355447
0.130878334642914,0.226524668508551
0.120257174942208,0.227790175915149
0.109538092123814,0.228714050295779
0.0987321302831844,0.229291386226775
0.0878505450950038,0.229517636962129
0.0769047921158737,0.229388622884768
0.0659065147648851,0.228900539574933
0.0548675319946617,0.228049965483788
0.0437998256658718,0.226833869200762
0.03271552763863,0.225249616303584
0.0216269065946058,0.223294975780402
0.0105463546040464,0.220968126013836
-0.000513626547708701,0.218267660317297
-0.0115404392592902,0.215192592014369
-0.0225214042226634,0.211742359052575
-0.0334437747271993,0.207916828143338
-0.0442947511425536,0.20371629842048
-0.05506149556416,0.199141504610131
-0.0657311466048792,0.194193619705468
-0.0762908343160925,0.188874257140258
-0.0867276952212907,0.183185472455726
-0.0970288874449999,0.17712976445588
-0.107181605919686,0.170710075846944
-0.117173097653104,0.163929793357212
-0.126990677038412,0.156792747334157
-0.13662174118921,0.149303210816277
-0.146053785281578,0.141465898077758
-0.155274417885074,0.133285962644621
-0.164271376264568,0.124768994781661
-0.173032541634776,0.115921018450097
-0.181545954349267,0.106748487736456
-0.189799829005757,0.0972582827538594
-0.197782569449479,0.0874577050174907
-0.205482783656468,0.0773544722966473
-0.212889298478641,0.066956712946408
-0.219991174232626,0.0562729597225685
-0.226777719114406,0.0453121430841137
-0.233238503421928,0.0340835839881249
-0.239363373567995,0.0225969861826231
-0.245142465865895,0.0108624280034719
-0.250566220070424,-0.00110964631793511
-0.255625392657118,-0.0133084358288772
-0.260311069822794,-0.0257227925034694
-0.264614680190671,-0.038341231356276
-0.268528007203656,-0.0511519410122811
-0.272043201189639,-0.0641427947235395
-0.275152791082942,-0.0773013618222843
-0.277849695786398,-0.0906149195996921
-0.280127235158866,-0.104070465598976
-0.281979140613362,-0.117654730310936
-0.283399565311338,-0.131354190259571
-0.284383093939067,-0.145155081464856
-0.284924752052493,-0.159043413269271
-0.285020014977326,-0.173004982514206
-0.284664816251625,-0.187025388051875
-0.283855555598585,-0.201090045577932
-0.282589106417688,-0.215184202769525
-0.280862822782923,-0.229292954713112
-0.27867454593726,-0.243401259605945
-0.276022610273094,-0.257493954714742
-0.272905848788924,-0.27155577257468
-0.269323598013082,-0.285571357411499
-0.265275702385889,-0.299525281769152
-0.260762518092204,-0.313402063325139
-0.25578491633691,-0.327186181875323
-0.250344286056493,-0.340862096469786
-0.244442536060477,-0.354414262680987
-0.238082096597101,-0.367827149985271
-0.231265920338254,-0.381085259238521
-0.223997482779328,-0.394173140226586
-0.216280782050277,-0.407075409270902
-0.208120338134863,-0.419776766869592
-0.199521191495674,-0.432262015354178
-0.190488901103222,-0.444516076541928
-0.181029541868057,-0.456524009363787
-0.171149701475524,-0.468271027447737
-0.160856476623472,-0.479742516637417
-0.15015746866389,-0.490924052425797
-0.13906077865014,-0.501801417283695
-0.12757500179213,-0.512360617862958
-0.115709221322462,-0.52258790205416
-0.103473001777258,-0.53246977587876
-0.090876381696069,-0.541993020195725
-0.0779298657459255,-0.551144707202758
-0.0646444162752938,-0.559912216712407
-0.0510314443043425,-0.56828325218348
-0.037102799958616,-0.576245856488379
-0.0228707623538659,-0.583788427397182
-0.00834802894044692,-0.590899732759501
0.00645229568366817,-0.597568925365446
0.0215167114815482,-0.603785557467222
0.0368313351973072,-0.609539594943267
0.0523819130764919,-0.614821431087082
0.0681538340752756,-0.619621900003284
0.0841321435462774,-0.623932289593755
0.100301557388238,-0.627744354117151
0.116646476646186,-0.631050326305416
0.133151002548172,-0.633842929021386
0.149798951964096,-0.636115386441995
0.166573873271587,-0.637861434752063
0.183459062613397,-0.639075332334112
0.200437580530236,-0.639751869440163
0.217492268952484,-0.639886377331976
0.234605768533753,-0.639474736876724
0.251760536308773,-0.638513386585653
0.268938863657662,-0.636999330083814
0.286122894558212,-0.63493014299958
0.303294644107384,-0.6323039792632
0.320436017292857,-0.629119576804307
0.337528827995071,-0.625376262638877
0.354554818199884,-0.621073957336796
0.371495677401613,-0.616213178861837
0.388333062175937,-0.610795045776495
0.405048615901842,-0.604821279804842
0.421623988611534,-0.598294207747176
0.438040856947008,-0.591216762741016
0.454280944201731,-0.583592484863617
0.470326040425703,-0.575425521071947
0.48615802257201,-0.566720624476754
0.501758874662807,-0.557483152948079
0.51711070795255,-0.547719067050322
0.532195781066224,-0.537434927305662
0.546996520090198,-0.526637890785417
0.561495538593311,-0.515335707029646
0.575675657555772,-0.503536713296037
0.589519925183427,-0.491249829139891
0.603011636585006,-0.478484550327761
0.616134353289985,-0.465250942088019
0.628871922584768,-0.451559631702423
0.641208496645031,-0.437421800443466
0.653128551442139,-0.422849174863053
0.664616905401731,-0.407854017438776
0.675658737792742,-0.39244911658482
0.686239606825302,-0.376647776035242
0.696345467436208,-0.360463803608105
0.70596268874088,-0.343911499359671
0.715078071131009,-0.327005643138564
0.723678862997388,-0.309761481550525
0.73175277705774,-0.292194714345081
0.739288006269689,-0.274321480236124
0.746273239309408,-0.256158342169098
0.752697675596847,-0.237722272048125
0.758551039848865,-0.219030634937089
0.763823596142024,-0.200101172749312
0.768506161467251,-0.180951987441096
0.772590118759069,-0.161601523725013
0.776067429382572,-0.142068551319444
0.778930645061862,-0.122372146751399
0.781172919234186,-0.10253167473029
0.782788017814582,-0.0825667691108085
0.783770329356414,-0.0624973134636354
0.784114874593769,-0.0423434212732109
0.783817315352325,-0.0221254157822803
0.782873962815879,-0.00186380950340902
0.781281785136445,0.0184207165818752
0.779038414376419,0.0387073341152364
0.776142152772049,0.0589750887234833
0.772591978308094,0.0792029216284362
0.768387549594303,0.0993696914824538
0.763529210035032,0.119454196407024
0.758017991284068,0.13943519621149
0.751855615977473,0.159291434768716
0.745044499738006,0.179001662524171
0.737587752445453,0.198544659114715
0.729489178767977,0.217899256073111
0.720753277950365,0.237044359594107
0.711385242855849,0.255958973337744
0.701390958258987,0.274622221245412
0.690776998387865,0.293013370344053
0.679550623714728,0.311111853513797
0.66771977699491,0.328897292194281
0.655293078554819,0.346349519004827
0.642279820830456,0.363448600253675
0.62868996215888,0.380174858311427
0.614534119825745,0.396508893823964
0.599823562372943,0.412431607740113
0.584570201171129,0.427924223129451
0.568786581262795,0.442968306765763
0.552485871482321,0.457545790451807
0.535681853860259,0.471638992061219
0.518388912319928,0.485230636273588
0.500622020675167,0.498303874978973
0.482396729938917,0.510842307328373
0.463729154953076,0.522829999406952
0.444635960350839,0.53425150350713
0.425134345863538,0.545091876978984
0.405242030984708,0.555336700635758
0.384977239004913,0.564972096692672
0.364358680431528,0.57398474621764
0.343405535808487,0.582361906072917
0.322137437951632,0.590091425327182
0.300574453616058,0.597161761118031
0.278737064612494,0.60356199394537
0.256646148390437,0.609281842376731
0.234322958106423,0.614311677146066
0.211789102196415,0.618642534628189
0.189066523471936,0.622266129671589
0.166177477760149,0.625174867772987
0.143144512108671,0.62736185657764
0.119990442576465,0.628820916690035
0.0967383316326837,0.629546591780328
0.0734114651858426,0.629534157972545
0.0500333292662219,0.628779632501291
0.0266275863848317,0.627279781624454
0.00321805159272384,0.625032127780104
-0.0201713317351139,0.6220349559766
-0.0435165163666914,0.618287319405633
-0.0667933759057894,0.613789044268793
-0.0899777296852491,0.608540733808983
-0.113045367835123,0.602543771538881
-0.135972076499772,0.59580032365944
-0.158733663177662,0.588313340662264
-0.181305982157462,0.580086558110562
-0.203664960023738,0.571124496594222
-0.225786621205446,0.561432460855412
-0.247647113540193,0.551016538082009
-0.26922273382715,0.539883595367017
-0.290489953341406,0.528041276333026
-0.311425443282446,0.515497996921644
-0.332006100129438,0.502262940348752
-0.352209070875971,0.488346051227297
-0.372011778116912,0.473758028860251
-0.391391944960113,0.458510319707259
-0.410327619735741,0.442615109029397
-0.428797200476158,0.42608531171734
-0.446779459139351,0.408934562309172
-0.464253565549147,0.391177204204907
-0.481199111025578,0.372828278085722
-0.497596131679031,0.353903509546759
-0.513425131342042,0.334419295953225
-0.528667104112885,0.31439269253041
-0.543303556485425,0.293841397699063
-0.557316529040017,0.27278373766846
-0.570688617670636,0.251238650300303
-0.583402994323782,0.229225668257425
-0.595443427225147,0.206764901452122
-0.606794300570473,0.183877018809686
-0.617440633657528,0.160583229363541
-0.627368099436567,0.136905262699177
-0.636563042457269,0.112865348764748
-0.645012496190604,0.0884861970670818
-0.652704199704719,0.0637909752724494
-0.659626613674524,0.0388032872322052
-0.66576893570526,0.0135471504541469
-0.671121114951041,-0.0119530269590176
-0.675673866009949,-0.0376724698818844
-0.679418682078057,-0.0635860602265932
-0.682347847345384,-0.089668361467647
-0.684454448617576,-0.115893643607452
-0.685732386147851,-0.142235908558022
-0.686176383664517,-0.168668915913832
-0.685781997580175,-0.195166209090276
-0.684545625369527,-0.221701141801669
-0.682464513103544,-0.248246904852339
-0.679536762128592,-0.274776553213824
-0.675761334879977,-0.301263033360875
-0.671138059820239,-0.327679210838527
-0.665667635493429,-0.353997898032187
-0.659351633687489,-0.3801918821123
-0.652192501697772,-0.406233953124987
-0.644193563685682,-0.432096932199593
-0.635359021127304,-0.457753699844067
-0.625693952347886,-0.483177224298718
-0.615204311138967,-0.508340589918773
-0.603896924455867,-0.533217025556095
-0.591779489194293,-0.557779932910146
-0.578860568045695,-0.582002914818384
-0.565149584432069,-0.605859803456057
-0.55065681652178,-0.629324688415504
-0.535393390329052,-0.652371944634924
-0.519371271900669,-0.67497626014677
-0.502603258594461,-0.697112663615895
-0.485102969455099,-0.718756551637719
-0.466884834693684,-0.739883715766867
-0.447964084278638,-0.760470369246828
-0.4283567356463,-0.780493173411446
-0.40807958054063,-0.799929263729269
-0.387150170992388,-0.818756275462044
-0.365586804449063,-0.836952368908968
-0.343408508067777,-0.854496254208606
-0.320635022184358,-0.871367215670756
-0.297286782972602,-0.887545135610975
-0.273384904308761,-0.903010517660803
-0.248951158857081,-0.917744509527297
-0.224007958393154,-0.931728925175882
-0.198578333382731,-0.944946266411032
-0.172685911834385,-0.95737974382993
-0.146354897445407,-0.969013297124681
-0.119610047060947,-0.979831614709383
-0.0924766474674065,-0.989820152648872
-0.064980491541658,-0.998965152866702
-0.0371478537786142,-1.0072536606105
-0.00900546522026763,-1.01467354115365
0.0194195121898959,-1.0212134957128
0.0480995118025286,-1.02686307656174
0.0770065889828771,-1.03161270132261
0.106112448330145,-1.03545366641642
