0.184365918234471,-0.211601418663285
0.143211478509966,-0.19616866668056
0.195757626571593,-0.20769854155232
0.197802614320816,-0.212152849338349
0.20239036059492,-0.212006148485345
0.228271731372481,-0.182335365247309
0.206123155614771,-0.21040301031493
0.216113384928603,-0.191659477545343
0.216731548412189,-0.213062356273845
0.238322177560469,-0.185861666270609
0.252488564682825,-0.215105919579924
0.217987744132546,-0.173866661307641
0.244900501953717,-0.202705373720683
0.265026280621507,-0.210309156560896
0.24201892992164,-0.181270888183203
0.237372562754958,-0.16558625827402
0.263673571260521,-0.19374518557422
0.268272114375752,-0.191031489741817
0.26147900031843,-0.175356021470091
0.277304114010462,-0.185037475014141
0.286433413004203,-0.188247681078287
0.295474194232534,-0.165843619756451
0.278048520150185,-0.161661074277252
0.294500950239659,-0.170811325843747
0.309240144119218,-0.168514883167301
0.267872597137604,-0.1407800287269
0.321336757294018,-0.172641721972915
0.364386110670754,-0.175270665182492
0.304674076386323,-0.151698772550589
0.317249762308979,-0.144107674915894
0.290716612782344,-0.170115512551558
0.330032815896309,-0.090845025920799
0.335489019464164,-0.135974464190911
0.329722052074656,-0.123012551993742
0.332441463062374,-0.117364430991502
0.334988630399895,-0.111576287395696
0.337357425910403,-0.105653423661812
0.307200923320707,-0.111573861448944
0.341536222720869,-0.09342597670118
0.340201835789214,-0.105378870527731
0.344932295809647,-0.0807293591329725
0.346323409799729,-0.0742208967555105
0.342797782642098,-0.0593708010057476
0.348466802209622,-0.0609171643188135
0.330670379648121,-0.0667028501319536
0.350016552946307,-0.0403512413354973
0.382094090368697,-0.0466050954986301
0.349672010211431,-0.0252210860419894
0.367882041248094,-0.0270437157067815
0.34880869131949,-0.0121092376558502
0.373519781290775,0.0344487293579485
0.328436638132148,-0.0366646076755486
0.329986425297016,0.0209854987806552
0.363636688268497,0.0355208730374726
0.337174715601236,0.0380947117766805
0.308212984961815,0.0400914469929326
0.331558306238994,0.0522810904062238
0.30893753119654,0.0740119329462244
0.313653183636382,0.106552837413066
0.308567015928664,0.0933281920075761
0.294728942286461,0.0901616333864694
0.307117261293148,0.109327881689075
0.288225349240363,0.118694082935683
0.282534991222989,0.124701559239316
0.270452568537212,0.136252662446648
0.264068742378248,0.141778617990183
0.27056809865778,0.138281569320492
0.260597422344444,0.147685595857884
0.228881761354246,0.139477200609651
0.229655376005981,0.174202727847299
0.198007428679055,0.158043378418526
0.191634325490847,0.169337365638901
0.219132602345311,0.215197852130403
0.205446389589716,0.1788786470415
0.187002133146554,0.171207891198571
0.148623916389236,0.196285613157341
0.180408883056283,0.189011434283194
0.162802764538618,0.185169169690736
0.186031105373941,0.20677867627621
0.171263443099933,0.181403608362703
0.130605431539736,0.176230507950889
0.17416265364296,0.204581520375427
0.126478795275466,0.202021380374932
0.117091679470396,0.203180261144852
0.0866054496677596,0.186640570277823
0.0980597910575587,0.204587235770071
0.0922310455200438,0.23212265873308
0.0602447528559869,0.210763227613184
0.0592455353865204,0.203644465787078
0.055531329519673,0.214206869579263
0.0396294061706972,0.201241787638363
0.0369795384177951,0.238418215454502
0.0199886742352046,0.197525549341603
0.0283634931186283,0.188876018970771
-0.00932473668445169,0.189462999272799
0.000675492668375369,0.187750921573532
0.00609489110932313,0.135142113806724
-0.0650059453479356,0.151214468367449
-0.0754479718009086,0.159022230068539
-0.0844665276637477,0.153361384193268
-0.126311600585568,0.155864514636811
-0.102068857360055,0.141079805485781
-0.130289491891391,0.0963066910377061
-0.153753059304644,0.119412841318545
-0.135220256986646,0.112783729788838
-0.143016005363345,0.104958816691392
-0.135649453025903,0.0896686260368766
-0.179217259070275,0.0692824034750056
-0.16505072540139,0.0797709374429594
-0.178510191119921,0.0616165185418512
-0.163341992830777,0.0607451303044998
-0.194095349438611,0.0447774227499931
-0.219446055178478,0.0054427538101178
-0.219985323614062,-0.0370849589847728
-0.2287015713274,0.0259598289375631
-0.238495415659094,0.00919466126429702
-0.224692038576729,-0.0317506219710585
-0.250712305373956,-0.0297934357402949
-0.236569244469715,-0.0781598688649072
-0.274541662524948,-0.101447319603591
-0.295970369831735,-0.163685372241487
-0.265042675611975,-0.129272691164614
-0.240432806585186,-0.138932909356297
-0.234639513864599,-0.156688516608157
-0.259889799258273,-0.208671302780061
-0.239559515252769,-0.202331502317494
-0.236376453520959,-0.247944607002538
-0.233622634924192,-0.217767800455158
-0.232046486056597,-0.270907136917447
-0.214642869923574,-0.275166660079537
-0.224204557343787,-0.265722159987798
-0.212610961472437,-0.300723729436376
-0.213431805520145,-0.306431743548089
-0.201749970521637,-0.324740714110354
-0.189263535236528,-0.348213006271714
-0.157917304024979,-0.381804275933746
-0.148132849277542,-0.418320162629919
-0.21073492001702,-0.384511908710508
-0.16098081413907,-0.381636681856865
-0.165321835489404,-0.405373062263652
-0.142349147031456,-0.414266828944017
-0.133203676459345,-0.4244985326661
-0.0823458211197753,-0.44233401559128
-0.10037759029185,-0.473139657101833
-0.122399074483494,-0.454120678785381
-0.0821872682706243,-0.471550593892909
-0.0846130132039767,-0.471538760507029
-0.0654848390325879,-0.480903125644033
-0.0781919206628273,-0.482622958120104
-0.0237150420412233,-0.534529623581158
0.0186503714867673,-0.530450661590198
0.0360197604876552,-0.547601646047829
0.0290427696348086,-0.548995307851248
0.0784560783679707,-0.532012599961644
0.0706042489940683,-0.549465852007914
0.0992486783103158,-0.556752623080413
0.125939789931246,-0.591888208700822
0.128524965472306,-0.562236136171936
0.114853676143741,-0.559788185454821
0.175593497702978,-0.569290680794636
0.237990041575425,-0.601566942015341
0.218982845262067,-0.567396874469911
0.234283624657963,-0.566562373391555
0.249606937275015,-0.565234709073422
0.303571828260317,-0.549634039888436
0.285775609599049,-0.551249107809438
0.355853893120355,-0.522104379375629
0.415628732300709,-0.514292129137533
0.415029536524523,-0.517817382329894
0.390384045818263,-0.500939265326229
0.540677743331638,-0.435665060948444
0.54790964004342,-0.424166021722871
0.55416548961792,-0.411510731562413
0.580706039262322,-0.380030302220006
0.601662417385901,-0.368452076503688
0.570980078694893,-0.379780425107061
0.629563415722251,-0.310523932112104
0.685670654944221,-0.304155192237905
0.655847238032938,-0.27361615991745
0.689733740074435,-0.190846315565386
0.686825752287172,-0.161021599175467
0.725218573472853,-0.0952818036426359
0.714519255839111,-0.0874118025490492
0.716180995176869,-0.0675242956864014
0.714072722763522,-0.0837086317861018
0.725418185164457,0.025603283304407
0.705634651924215,0.0377149198442041
0.665849900936503,0.0822722694249997
0.676170087887274,0.100085205679445
0.680346832998707,0.0822816699311331
0.663749065253841,0.174280328905964
0.667269460558688,0.219294892898525
0.660586334531971,0.239740343453156
0.636408158085638,0.248706540569522
0.602709781880324,0.283598357759029
0.589368738145891,0.259940291924265
0.624565779766515,0.323771222751597
0.571470130309545,0.343166326320433
0.563240207986302,0.348188452935721
0.517933429671855,0.399381581002231
0.503361902949576,0.412434628942684
0.433876462199966,0.462506299163217
0.361623691881499,0.50916050561105
0.353581564174679,0.529790299108927
0.297345437013405,0.531194827798813
0.198601818391268,0.556822173643757
0.117719444320497,0.595028445841744
-0.0936399311453034,0.557562397023931
-0.141718288694886,0.516023727068909
-0.173299935417062,0.519039990154159
-0.173384601488265,0.514526854922181
-0.257609558213126,0.508518784136781
-0.269339460432781,0.451008489167537
-0.42648612858371,0.329833742541283
-0.436776927774493,0.320118478202547
-0.465513033089502,0.223871542521418
-0.502159748046566,0.194822559353012
-0.561410515615832,0.104217528153533
-0.578506826488122,0.0393831936680462
-0.587630937549961,0.0152265021152049
-0.584545573505718,-0.00382432927932973
-0.576737245832343,0.00767871962567277
-0.583796577444862,-0.0606666250761442
-0.601629880510413,-0.152685874575413
-0.59834455290868,-0.157091933008804
-0.619105632765844,-0.229221298761294
-0.588332089149514,-0.261992744542374
-0.542522998401337,-0.452615063225545
-0.403967033567258,-0.653968823022364
-0.461021221608132,-0.642889977143291
-0.375697467822337,-0.687355225988727
-0.331389793972941,-0.730048782555969
-0.242558009832602,-0.793466678677699
-0.169050310270436,-0.844309960443402
-0.187803770106265,-0.874770130460202
0.0298604727973273,-0.924215177753866
0.345725311666548,-0.937060449795032
