0.597240634381178,-0.572242076019168
0.60635678093599,-0.560412837157287
0.613591752120922,-0.547016420458844
0.618892294079109,-0.532149293403942
0.622219164072728,-0.51591754228544
0.623547640900102,-0.498435802636261
0.622867914385896,-0.479826124767662
0.620185349752977,-0.46021678503955
0.615520623770247,-0.439741053921646
0.608909730687149,-0.418535932241564
0.600403857102761,-0.396740867249844
0.590069126065415,-0.374496460260762
0.577986211847413,-0.35194317765043
0.564249827978482,-0.329220076910234
0.54896809224105,-0.306463559265088
0.532261773420242,-0.283806160074081
0.514263425652051,-0.261375387838815
0.49511641721503,-0.239292622155693
0.474973861555163,-0.217672080367251
0.453997459211904,-0.196619861999722
0.432356260117793,-0.176233079325557
0.410225356467408,-0.156599081567494
0.387784516987171,-0.13779477937252
0.36521677397997,-0.119886075237828
0.34270697496272,-0.1029274045753
0.320440311056891,-0.0869613910651968
0.298600834528453,-0.0720186188830943
0.277369978002467,-0.058117523296308
0.256925087897312,-0.0452644000270213
0.237437984534133,-0.0334535326790548
0.219073561178968,-0.0226674364336258
0.20198843396995,-0.0128772151464759
0.186329654272424,-0.00404302793408144
0.172233494494303,0.00388533967023437
0.159824317786857,0.0109678058694994
0.149213541357603,0.0172732308493033
0.140498702338125,0.0228785707415126
0.133762634287199,0.0278679556994851
0.129072761476116,0.0323317011700588
0.126480517106632,0.0363652620544337
0.126020890561217,0.0400681399669979
0.127712107689396,0.043542754223552
0.131555447002534,0.0468932875144543
0.137535193492239,0.0502245174410646
0.145618730614813,0.0536406452135259
0.155756769806084,0.0572441328233438
0.167883715717761,0.0611345599153173
0.18191816420848,0.0654075113909712
0.197763528990067,0.0701535064815402
0.215308791732044,0.075456979635443
0.234429369374791,0.0813953230766741
0.254988091403087,0.0880380003110865
0.276836278895838,0.0954457391924257
0.299814916302738,0.103669812415268
0.323755906112011,0.112751412484491
0.348483395872067,0.122721127328026
0.373815166419964,0.133598521779371
0.399564069656383,0.145391829167391
0.425539503794718,0.158097756222081
0.451548913704517,0.17170140344578
0.477399303769487,0.186176302019334
0.502898750589245,0.201484567221754
0.527857902872758,0.217577167249964
0.552091455999685,0.234394305242233
0.575419588962404,0.251865911244662
0.597669351744288,0.269912239824438
0.618675991635605,0.288444568035848
0.638284207533359,0.307365987494441
0.656349321910532,0.326572283419916
0.672738360867883,0.3459528926775
0.687331033491218,0.365391932088395
0.700020602621697,0.384769287599285
0.710714640098458,0.403961754305257
0.719335660543147,0.422844216815197
0.725821628816011,0.441290859038645
0.730126337373528,0.459176392161935
0.732219650888564,0.476377289372324
0.732087616645674,0.492773015783614
0.729732440386284,0.508247242016789
0.725172328440945,0.522689029994444
0.718441198138277,0.535993979717581
0.709588259612679,0.548065326105939
0.698677473235269,0.558814975395775
0.685786887955281,0.568164471098354
0.67100786685298,0.576045880123924
0.654444207161155,0.582402590364372
0.636211162902142,0.587190011797079
0.616434379103348,0.590376174015847
0.595248747289352,0.591942214004805
0.572797192596439,0.591882748939766
0.549229403410422,0.590206129820069
0.524700514885991,0.586934572793391
0.499369758061762,0.582104166126948
0.47339908653681,0.575764751891186
0.446951792819586,0.567979682546528
0.420191126497781,0.558825453749988
0.393278926307761,0.548391215816309
0.366374278005442,0.536778167367827
0.339632209658781,0.524098835778508
0.313202435598016,0.510476250050992
0.287228159777207,0.496043012751656
0.261844948723772,0.480940278558822
0.237179683587135,0.465316647844779
0.213349600049277,0.449326984505529
0.190461424035769,0.433131167965795
0.168610610273399,0.416892789914359
0.147880689787656,0.400777806860493
0.128342731429064,0.384953160041126
0.110054921470408,0.369585374546382
0.093062264237025,0.354839149765016
0.0773964056290813,0.340875953378789
0.0630755802781344,0.327852631154638
0.0501046819603419,0.315920044695211
0.0384754557754475,0.305221749112535
0.028166809504145,0.295892722287818
0.0191452404864359,0.288058156975093
0.0113653733296934,0.281832326501028
0.00477060276659533,0.27731753421203
-0.000706164951316923,0.274603156127883
-0.00514167961062564,0.273764785484573
-0.00862143183144112,0.274863486994315
-0.011238664113462,0.27794516772563
-0.013093317785555,0.2830400705185
-0.014290926062955,0.290162394807921
-0.0149414638731974,0.299310048642562
-0.0151581654707039,0.31046453456325
-0.0150563211174499,0.323590970858482
-0.0147520642611647,0.338638248551091
-0.0143611606918272,0.355539323301856
-0.0139978111014936,0.374211640252435
-0.0137734783124089,0.394557688681739
-0.0137957501754722,0.416465682226883
-0.0141672487779776,0.439810359331996
-0.014984596139558,0.464453897545015
-0.0163374460226889,0.490246934293371
-0.0183075908441125,0.517029685842799
-0.0209681519520017,0.544633155287755
-0.0243828607372606,0.572880419644347
-0.0286054371833539,0.601587985424489
-0.0336790715353961,0.630567201469057
-0.0396360137943726,0.659625717313511
-0.0464972747252155,0.688568974956383
-0.0542724410173188,0.717201721602562
-0.0629596061625258,0.745329530762299
-0.0725454175284725,0.772760319004911
-0.0830052390143093,0.799305845694086
-0.0943034275912294,0.824783183169249
-0.106393720961776,0.849016145083558
-0.119219732529308,0.871836660961435
-0.132715548861823,0.89308608549432
-0.146806423871689,0.912616431648322
-0.161409563023563,0.93029151730697
-0.176434990035132,0.945988015910593
-0.191786487757026,0.95959640237452
-0.207362604216504,0.971021786464138
-0.223057714190638,0.980184626768021
-0.23876312614442,0.987021319432403
-0.254368223932383,0.991484656892325
-0.269761632322992,0.993544152947352
-0.284832395166236,0.993186231673205
-0.299471154889023,0.990414278824891
-0.313571321971194,0.985248555561835
-0.32703022312772,0.977725975500727
-0.339750217099392,0.967899747267179
-0.351639767233376,0.955838885862519
-0.362614460414082,0.941627597277199
-0.372597962380472,0.925364541857643
-0.381522900033952,0.907161982959475
-0.389331661996327,0.887144828388074
-0.395977109414089,0.865449573028888
-0.401423189816887,0.842223151896974
-0.405645447717216,0.81762171358083
-0.408631426577166,0.791809324713136
-0.410380957758079,0.764956616664995
-0.4109063331013,0.737239386125721
-0.410232358853495,0.708837161593353
-0.408396289738684,0.679931748058648
-0.405447643081385,0.650705762315373
-0.401447893991029,0.62134117137104
-0.39647005371724,0.592017846364565
-0.390598134368524,0.562912144221579
-0.383926504243725,0.534195528995796
-0.376559139046597,0.50603324445885
-0.368608775229693,0.478583049014656
-0.360195972635744,0.451994023432299
-0.351448094464127,0.426405461218907
-0.342498213379324,0.401945850696981
-0.333483953289948,0.378731957016172
-0.324546276954559,0.356868011424909
-0.315828230108277,0.336445014160774
-0.307473653247017,0.317540156298788
-0.29962587254998,0.300216364832799
-0.292426381662452,0.28452197416662
-0.286013526197675,0.270490526068146
-0.280521202847082,0.258140699001391
-0.276077584912052,0.247476366608397
-0.272803885888057,0.238486783975393
-0.270813172444935,0.231146899195549
-0.270209237757545,0.225417786644044
-0.271085545652342,0.221247197319751
-0.273524255451788,0.218570220590915
-0.27759533672483,0.217310050718762
-0.283355782393912,0.217378850631546
-0.290848927813626,0.218678704589891
-0.300103882530446,0.221102650629911
-0.311135080465015,0.224535782999795
-0.323941953236576,0.228856414224427
-0.338508730282357,0.233937285945973
-0.354804368322477,0.239646817300442
-0.372782611592865,0.245850379304373
-0.392382183124808,0.252411583544207
-0.413527106200166,0.259193573385104
-0.43612715396615,0.266060305946457
-0.46007842406307,0.272877813227509
-0.485264034012589,0.279515431007035
-0.511554932042668,0.285846984483559
-0.538810816997995,0.29175192006373
-0.566881160010527,0.297116373242237
-0.595606319692422,0.301834163141905
-0.624818741771337,0.305807704991587
-0.654344233323313,0.308948832605712
-0.684003301078167,0.311179523785505
-0.713612542682521,0.312432522480176
-0.742986079311772,0.312651852518434
-0.77193701762881,0.311793218737507
-0.800278928797769,0.309824292389329
-0.827827332078343,0.306724878781983
-0.854401170451767,0.302486966209164
-0.879824265764453,0.297114656321307
-0.903926741019168,0.29062397718921
-0.926546397695496,0.283042581394515
-0.947530036339032,0.274409332541386
-0.966734709119264,0.264773784610698
-0.984028893615559,0.254195559562614
-0.999293577744164,0.24274362952675
-1.01242324648117,0.230495510792745
-1.0233267618604,0.217536377620118
-1.03192812862411,0.203958104617514
-1.03816713887052,0.189858247091208
-1.04199989006676,0.175338969325308
-1.04339917187047,0.160505931226234
-1.04235471831811,0.14546714413775
-1.03887332308353,0.130331806906577
-1.03297881667669,0.115209133450048
-1.02471190562917,0.100207183144917
-1.01412987488984,0.0854317053195989
-1.00130615582112,0.0709850089913317
-0.98632976333281,0.0569648687462111
-0.969304606806578,0.0434634773160368
-0.950348680540729,0.0305664549646072
-0.929593140471368,0.0183519252615039
-0.907181274894621,0.00688966619840513
-0.883267377815979,-0.00375965510273747
-0.858015534379585,-0.0135451566223354
-0.831598328575057,-0.0224263180004606
-0.804195484075777,-0.0303734537152631
-0.775992449624747,-0.0373680781446807
-0.747178940847308,-0.0434031587836683
-0.717947450730078,-0.0484832549343715
-0.688491741259496,-0.05262454025749
-0.659005328859003,-0.0558547086597839
-0.629679976300068,-0.0582127640853645
-0.600704203688693,-0.0597486958671399
-0.572261830946368,-0.0605230423696165
-0.544530563914458,-0.0606063467054031
-0.517680635816299,-0.0600785093256188
-0.49187351531531,-0.0590280432596801
-0.467260691814754,-0.0575512387037121
-0.443982547960602,-0.0557512445206318
-0.422167328539383,-0.053737075010874
-0.401930214114727,-0.051622551033431
-0.38337250682717,-0.0495251851957554
-0.366580934799652,-0.0475650213821644
-0.351627080554803,-0.0458634393486125
-0.338566937768786,-0.0445419354727444
-0.327440599569491,-0.0437208910086021
-0.318272080444373,-0.0435183393527136
-0.311069272665028,-0.0440487438809655
-0.305824036972074,-0.0454217978629939
-0.302512426105161,-0.0477412578031431
-0.301095038619275,-0.0511038212955744
-0.301517499309824,-0.05559806011805
-0.303711061485266,-0.0613034188273802
-0.307593325286572,-0.0682892885634819
-0.313069065266868,-0.0766141651233205
-0.320031159520625,-0.0863248996363446
-0.328361611797895,-0.0974560493657851
-0.337932657262701,-0.110029335282536
-0.348607941862489,-0.124053212117982
-0.360243764673532,-0.139522555607491
-0.372690372080457,-0.1564184705961
-0.385793292240955,-0.174708222601565
-0.399394697982683,-0.194345294326883
-0.413334786080801,-0.215269567494581
-0.427453160773126,-0.237407629248466
-0.441590209386062,-0.260673201245186
-0.455588458068015,-0.284967688448093
-0.469293895856451,-0.310180843549175
-0.482557255638086,-0.336191541891439
-0.49523524099548,-0.362868660753121
-0.50719168846366,-0.390072055895916
-0.518298655342328,-0.417653627380564
-0.528437423916989,-0.4454584658228
-0.53749941372949,-0.473326069508377
-0.545386994397778,-0.501091622114541
-0.552014192408429,-0.528587320203044
-0.557307286285112,-0.555643739161931
-0.561205285563004,-0.582091225884474
-0.563660290063693,-0.60776130618729
-0.564637727058003,-0.632488094788824
-0.564116465015277,-0.656109695595539
-0.562088803757245,-0.678469580077476
-0.558560341952438,-0.69941793165695
-0.55354972399321,-0.718812944283272
-0.547088269381938,-0.736522063720216
-0.539219488806062,-0.752423160528812
-0.529998492094007,-0.766405624281915
-0.519491294206569,-0.778371369194265
-0.50777402632254,-0.788235742086742
-0.494932059915065,-0.79592832442007
-0.481059052479143,-0.801393621024056
-0.466255924253893,-0.804591629106029
-0.450629775879839,-0.805498282137971
-0.434292757436118,-0.804105764287217
-0.417360899710868,-0.800422692161057
-0.399952918866571,-0.794474161771619
-0.382189005868073,-0.786301659783963
-0.364189612142787,-0.775962839277287
-0.346074242939371,-0.763531161416351
-0.327960269743073,-0.749095405587285
-0.309961772894282,-0.732759051688872
-0.29218842524336,-0.714639539376996
-0.27474442726282,-0.694867410126655
-0.257727503531036,-0.673585338993243
-0.241227969904691,-0.650947063913812
-0.225327880015628,-0.627116221281226
-0.210100258967895,-0.602265097341714
-0.195608431279638,-0.576573305701961
-0.181905449219606,-0.550226401879271
-0.16903362673771,-0.523414446381476
-0.157024183191913,-0.496330528257502
-0.145897000038944,-0.469169261410703
-0.1356604925932,-0.442125266212002
-0.126311597876703,-0.415391649086616
-0.117835878492645,-0.389158492775107
-0.11020774136616,-0.363611369886714
-0.103390769118155,-0.338929892170926
-0.0973381607813239,-0.315286307633606
-0.0919932775414245,-0.292844157219613
-0.0872902882008215,-0.271757002277812
-0.0831549081243239,-0.252167233421563
-0.0795052245478239,-0.234204970703003
-0.0762526003164009,-0.217987064239146
-0.0733026473776615,-0.203616203568637
-0.0705562606950193,-0.191180143087436
-0.0679107026703806,-0.18075104991803
-0.0652607276815741,-0.172384979518583
-0.0624997359513208,-0.166121483244891
-0.0595209456751301,-0.161983350948814
-0.0562185721479697,-0.15997649054171
-0.0524890025456112,-0.160089945280576
-0.0482319550370934,-0.162296048358244
-0.0433516110295808,-0.166550713207388
-0.0377577095750753,-0.172793856771558
-0.0313665932978562,-0.180949951865024
-0.0241021956293795,-0.190928703646774
-0.0158969596598019,-0.202625844182131
-0.0066926795276353,-0.215924038067321
0.00355874403408633,-0.230693891156551
0.0148946416017391,-0.246795053565999
0.0273410131753606,-0.264077407341879
0.040912072353495,-0.282382328477521
0.0556099014533359,-0.301544012352881
0.0714242214486321,-0.321390851154723
0.0883322795477756,-0.341746851420945
0.106298856156314,-0.362433079541835
0.125276391871445,-0.383269122847079
0.145205234050756,-0.404074553811495
0.16601400139367,-0.42467038492573
0.187620063881603,-0.444880501900004
0.209930134351739,-0.464533063098287
0.232840966939271,-0.483461853434869
0.256240156623395,-0.501507581401985
0.280007033162276,-0.518519108431868
0.304013641810664,-0.534354600424807
0.328125802388279,-0.548882591990143
0.35220423751601,-0.56198295474398
0.376105760166307,-0.573547761877742
0.399684510090869,-0.583482042148402
0.422793228197889,-0.591704417435417
0.445284557557209,-0.598147619052424
0.467012359418936,-0.602758879084219
0.487833032441601,-0.605500194131772
0.507606823242374,-0.606348459980155
0.526199116404505,-0.605295476846153
0.543481692206585,-0.602347826003886
0.559333940573139,-0.597526619717845
0.57364402008472,-0.590867127523292
0.586309951325265,-0.58241828297419
0.597240634381178,-0.572242076019168
