1.00843281297827,0.528067569784214
0.991921244848937,0.511787329305274
0.976697676684679,0.493858524048775
1.07637551964189,0.57025836917225
0.94835099034877,0.455312460143899
0.934904117646746,0.435109588397558
0.92181306361511,0.414451289521476
0.909010521376028,0.393423712390725
0.89644207353425,0.372096508095001
0.884062211844875,0.350527924531563
0.871831939404861,0.328767875460137
0.85971722188925,0.306859922830164
0.847687933005108,0.284842626538193
0.835717106108633,0.262750502314306
0.823780385069191,0.2406147245841
0.811855610099976,0.21846365658127
0.799922498103323,0.196323259486947
0.787962391086684,0.174217414442566
0.775958054796267,0.152168180287055
0.763893515177145,0.130196002878349
0.649672200318423,0.0152315364259904
0.739525446211038,0.0865575409632968
0.727195167415269,0.0649254941900873
0.714751012698886,0.0434392019485754
0.702181679310672,0.0221131311006026
0.689476577959834,0.000960835320310938
0.67662578213247,-0.0200049800338955
0.663619983974943,-0.0407724014526386
0.763252474182814,0.0474459964706933
0.637109015697279,-0.0816680773252307
0.623587998600151,-0.101776048573485
0.609880228856606,-0.121644987334667
0.595978997233949,-0.141266306182532
0.581878039937977,-0.160631987826103
0.567571520004196,-0.179734561291518
0.553054010694773,-0.1985670806711
0.538320480673979,-0.217123106148782
0.405568100688165,-0.347052449014354
0.508187132157437,-0.253382346746
0.492779115827857,-0.271075069116722
0.477138663218517,-0.288470286616148
0.461262547908815,-0.305563869614225
0.445147878291151,-0.322352117022001
0.428792091144514,-0.338831748066195
0.412192946047665,-0.354999895138386
0.395348520578802,-0.370854097650877
0.378257206257229,-0.386392296842261
0.360917705190207,-0.401612831485585
0.343329027395126,-0.416514434460893
0.325490488773532,-0.431096230162093
0.307401709719453,-0.445357732715697
0.289062614350074,-0.459298844996132
0.270473430352202,-0.472919858429221
0.251634689443204,-0.486221453582158
0.232547228450353,-0.499204701545008
0.318591707928207,-0.417907827470251
0.0988839885185303,-0.616189547001757
0.1738055102537,-0.536260982699946
0.272790209729994,-0.431949801440381
0.133430038707167,-0.559410903629035
0.112885214700825,-0.5705288119977
0.0921062989167036,-0.581347096554232
0.0710966878710695,-0.591870104641203
0.0498601242474407,-0.602102626675066
0.0284007057215073,-0.612049907441531
0.00672289489778397,-0.621717658813904
-0.134356658770968,-0.74591003205902
-0.0372681602813786,-0.640239843726915
-0.0595705474580096,-0.649108173822718
-0.0820695828776769,-0.657724805645362
-0.104758782488357,-0.666098038402975
-0.246085428026917,-0.771435825891111
-0.15067943804987,-0.682150447453121
-0.173895556678137,-0.689849254623331
-0.197271111817136,-0.697343992365764
-0.220797090161278,-0.704646197185486
-0.244463879674215,-0.71176817192799
-0.268261228351487,-0.718723038560596
-0.292178196965273,-0.725524798656419
-0.316203104628305,-0.732188403069372
-0.340323465715313,-0.738729832671043
-0.364525916285589,-0.745166192525514
-0.388796127621638,-0.751515822554842
-0.413118703780594,-0.75779842866727
-0.327612882036796,-0.65534877081824
-0.461853269911769,-0.770249196430037
-0.486227893747396,-0.776465184554235
-0.510579744330616,-0.782710321112289
-0.534885608816882,-0.789014317190336
-0.559119884861257,-0.795409942295542
-0.583254105207553,-0.80193363285426
-0.607256299032723,-0.808626309653919
-0.526179007282998,-0.719264396958842
-0.654713513967101,-0.822712012392398
-0.678076929639089,-0.830222287944051
-0.701120136882024,-0.838142411595027
-0.723766982597484,-0.846569854866419
-0.745915025644121,-0.855635736439886
-0.767411162110555,-0.865536020385656
-0.787967936677261,-0.876638632734584
1.00843281297827,0.528067569784214
0.988641655357636,0.515985012431694
0.967562497771932,0.505551019856732
0.945716290477952,0.496098806137355
0.923303732607917,0.487371488098687
0.90044787955998,0.479211562013567
0.877236207841654,0.471507063058189
0.962705328922916,0.567399233403141
0.83000174642259,0.457136248821742
0.806078882362003,0.45034203455372
0.894087057738848,0.558311054820074
0.757818420817704,0.437284440592198
0.852869970162153,0.543983857394136
0.709213085098397,0.424668265445135
0.579142899543467,0.312980637195937
0.755675761180417,0.519918423165844
0.636099515853821,0.406007114778112
0.611756897120499,0.399750161991032
0.587458507660954,0.393436598315083
0.563220321530113,0.387045977892328
0.539057187106895,0.380559295664421
0.514982938996296,0.37395884414446
0.491010492042104,0.367228093086209
0.467151921008525,0.36035158749626
0.443418528646777,0.353314860512772
0.324227910406565,0.228977599566215
0.396368974325055,0.338707375984349
0.257616507327335,0.211866114313138
0.242442981224295,0.232854197067532
0.236142180852239,0.203054918617325
0.304195854857526,0.307027253198097
0.281600898851109,0.298533394127818
0.259199404723804,0.289791915144223
0.236997636269814,0.280794798956333
0.215001430453634,0.271534574590287
0.0884235132285652,0.164055376904848
0.171647018283926,0.25219752378463
0.150298492438259,0.242108306859987
0.129174915300545,0.231731168718927
0.108280205880163,0.221061093258188
0.0876179327395408,0.210093512926154
0.0671913222992806,0.19882429809277
0.0470032661669833,0.187249747669086
0.0270563275636579,0.175366580881819
0.00735274691054549,0.16317193012255
-0.0121055533705531,0.15066333480358
-0.0313169647989427,0.137838736163503
-0.0502801894818827,0.124696472975367
-0.0689942374367636,0.111235278119215
-0.0874584245651314,0.0974542759889539
-0.105672371261014,0.0833529807110973
-0.123636001641597,0.0689312951600718
-0.141349543393687,0.0541895107617002
-0.0496260783092793,0.154150729588752
-0.176028792991762,0.0237487582145664
-0.192996481309186,0.00805232495365113
-0.209718045997327,-0.00795913218704894
-0.226195252044995,-0.0242833541248777
-0.242430180320992,-0.0409176774692227
-0.258425231998386,-0.0578590288587092
-0.274183133742006,-0.0751039183215046
-0.289706943707846,-0.0926484315964337
-0.305000058412174,-0.110488221340923
-0.320066220538507,-0.128618497138521
-0.334909527762536,-0.147034014203517
-0.349534442688774,-0.165729060662604
-0.363945804008779,-0.184697443273015
-0.282352649314061,-0.0901950001301889
-0.392149177582866,-0.223426939148171
-0.405952867913161,-0.243173105156988
-0.419566394052442,-0.263162670230836
-0.432996695630061,-0.283386752049195
-0.446251189990854,-0.30383585684361
-0.459337797112549,-0.324499847504861
-0.472264967723512,-0.345367907593889
-0.485041715129331,-0.366428500605628
-0.497677651366357,-0.387669323694584
-0.510183028439046,-0.409077254893438
-0.522568785575222,-0.430638292629076
-0.534846603662152,-0.452337486047584
-0.547028968325107,-0.474158854277373
-0.559129243504792,-0.496085292254363
-0.571161757918705,-0.518098460056495
-0.484950835195669,-0.446345488199715
-0.595086277976985,-0.562304638684589
-0.607012792878459,-0.584453479675683
-0.513222811393215,-0.515431974569898
-0.630891769959537,-0.628717950656351
-0.534071778967381,-0.560670022246904
-0.546416632389055,-0.571346995609154
-0.667125586332486,-0.694583032408762
-0.799283873327787,-0.828157514604029
-0.69189503537628,-0.73770775125205
-0.704574354822823,-0.758893046365005
-0.717513664900798,-0.779745568644813
-0.628227298292492,-0.687549388582342
-0.744429063442326,-0.820123597385366
-0.854376808984894,-0.944129494277898
-0.773390335429179,-0.857883027529051
-0.789136286612435,-0.875143213011583
