-0.105455585468568,0.0501290771010742
-0.116415840124167,0.058235205244445
-0.177086996311657,0.109774911218237
-0.140322250163456,0.0724750248384621
-0.153188761731462,0.0785049135670358
-0.165055522264915,0.0973272903523937
-0.199167504998419,0.118497377298809
-0.179004281412789,0.0452423127755405
-0.209635269406078,0.0942688868669091
-0.191035144042607,0.136381550583724
-0.228558277177415,0.118944346459834
-0.262081868892596,0.11001843583501
-0.271322375336318,0.0948567744761524
-0.244180242506408,0.135730824561539
-0.302840339504056,0.0889217866679151
-0.327727150660729,0.0349422379542552
-0.310492260722888,0.11474892565604
-0.31434939076318,0.0789309732894185
-0.400039827214545,0.0970666050834602
-0.357926379036371,0.0157967430562311
-0.415349913395703,0.0408343832258834
-0.381795001492711,0.080411977986371
-0.421669892519056,0.027422145309105
-0.432318666093719,0.00961458691925257
-0.476583128465691,-0.0387047850767473
-0.463893548901475,-0.0632833062375838
-0.44966270722476,-0.0592954954859412
-0.442372488130751,-0.046730758314684
-0.481953908022643,-0.0678131611162052
-0.492066198830137,-0.112283130686239
-0.470091147963497,-0.0863191871115117
-0.494871544711475,-0.16101110512744
-0.519261336919578,-0.177535678198301
-0.544986085278652,-0.190456159871127
-0.540932500302275,-0.174604363992369
-0.50645755803725,-0.201932147161842
-0.504929254432851,-0.222295369737841
-0.502065321637523,-0.242711119379863
-0.49785331041671,-0.263091264012058
-0.461022846470891,-0.270587143517157
-0.533830587084857,-0.33546935206716
-0.507019087390286,-0.331699050713899
-0.431474739887111,-0.340373388905585
-0.407593608932604,-0.327437457783981
-0.484038593674453,-0.334663336097528
-0.412138953423738,-0.392387367047615
-0.381821162722226,-0.391799964923013
-0.382326662656434,-0.421455068653755
-0.365912303446197,-0.395967593954798
-0.355846392586352,-0.47307416178293
-0.345827778905727,-0.472167038710502
-0.325698223066948,-0.484003951161965
-0.323759313380591,-0.50407198577891
-0.282839099206689,-0.503934645593059
-0.244660432983379,-0.53934362899278
-0.239814999964941,-0.487991648989419
-0.17902323945804,-0.518118693592057
-0.188986587990381,-0.527157326344429
-0.185266831064183,-0.509105234777804
-0.120687745412785,-0.490857848218061
-0.15951348918728,-0.531649274315888
-0.0891863679576323,-0.525814407622481
-0.0640598323567769,-0.521430461288837
-0.039074197026073,-0.515404189510708
-0.00851706479891798,-0.532768291027912
-0.0312261007584832,-0.525807420001487
-0.0122487095084414,-0.522255626978122
0.0478119665909463,-0.468097535886741
0.0765705368840714,-0.428833337080415
0.0943285987181899,-0.439645959942307
0.080933299446188,-0.385471684535629
0.133332566052567,-0.381846957726693
0.204413945445093,-0.434622358404046
0.130216418366046,-0.383326274884609
0.233502703879184,-0.297350977921597
0.240908632614709,-0.32213433736939
0.263027191706954,-0.28268777866778
0.236776512897233,-0.271884101450409
0.247312853675654,-0.245247951150635
0.225925793727198,-0.175278351019321
0.284799567683558,-0.148685750857692
0.293222172852355,-0.161095137650624
0.272319997350601,-0.13172462242295
0.309307665150776,-0.105927949130775
0.273872687874677,-0.0723267167545569
0.286044896133729,-0.00463976120022465
0.262873896559304,0.0162806560099113
0.21877596763185,0.00873304020003424
0.256885619186982,0.0742547480789206
0.244166482018257,0.0761735844164531
0.232450377764807,0.104875277044766
0.216990015487915,0.139293841426419
0.250874719067378,0.112023933508616
0.186119470454151,0.186726908768906
0.199564458111933,0.205725261275769
0.186088445203871,0.209948301131335
0.123959982598868,0.259650197311118
0.0585607681936092,0.277324709759162
0.0745656554468651,0.3017733151042
0.0477221976008873,0.320568781988429
-0.0227500755571147,0.341743932778575
-0.00978651142061876,0.353147076000137
-0.040243954289655,0.366755320551437
-0.0716882782746891,0.378470711972149
-0.119795596081357,0.370209023770358
-0.13705958827616,0.395948473261703
-0.161045837728368,0.413311404534328
-0.250157564781908,0.435263864905367
-0.273812650595541,0.368741141490734
-0.274135641127954,0.405605199740133
-0.279221409131588,0.429186488896843
-0.359934912997268,0.388569287050725
-0.362992097053201,0.415257797765462
-0.362419753515738,0.396148667390345
-0.445978181966822,0.367959875403154
-0.487719320968645,0.324676216272993
-0.475416076557011,0.373753502054847
-0.554483854331515,0.336648924828294
-0.56257599343769,0.285206281802642
-0.601712687218316,0.276083248989076
-0.655504949556773,0.206071934252514
-0.63499901442319,0.247415340917055
-0.680226552524859,0.197421933287673
-0.704353082918848,0.1972210297364
-0.746096691701043,0.136020752471158
-0.776721039130391,0.0869782601838584
-0.781823547146904,0.115988528151671
-0.744030550628433,0.0803608677694437
-0.75667711589441,-0.0495443431108043
-0.799092614993353,-0.0387778665162003
-0.785617943564512,-0.0905343902015996
-0.813201472937786,-0.115382090894573
-0.846246460492136,-0.16626130488403
-0.841279710823879,-0.189445909891622
-0.801837444192579,-0.247577536532435
-0.811883964950891,-0.273205307068484
-0.809136419563435,-0.331363379472085
-0.788868325634662,-0.364794905148289
-0.784397463835925,-0.390605350468426
-0.791550922623733,-0.411682053824192
-0.749957210194149,-0.493336371568854
-0.78113701794935,-0.466563809283832
-0.674086210284021,-0.517036840952645
-0.696166189972438,-0.568489697766356
-0.629842772201409,-0.585248344987782
-0.599797535472497,-0.64319167392123
-0.626780357892827,-0.665437680222014
-0.573067139301673,-0.691721187362242
-0.539154467933968,-0.717189910863883
-0.497864012794119,-0.746851797195045
-0.428498570665475,-0.76053090460684
-0.40267505375732,-0.738176804679665
-0.413604180584104,-0.815069822834367
-0.346701751462084,-0.819608570784167
-0.272610603651317,-0.869991400721658
-0.214795379866143,-0.798827478563105
-0.218097622421304,-0.837182261226293
-0.134832223260452,-0.860294679049187
-0.127706729065276,-0.835807892470197
-0.0818551008861317,-0.813401301545103
-0.0406644260588563,-0.833449384904157
0.00358945837086705,-0.825445308995647
0.0354397981255831,-0.825046841221651
0.0541415772029326,-0.791183035516833
0.105712567598756,-0.773229115104299
0.17425961596695,-0.779578293497822
0.199010423961879,-0.718768426138649
0.30271175105706,-0.68282897101558
0.341703101416912,-0.664792392649957
0.376455507235726,-0.631446920055145
0.350677657501142,-0.608325938455253
0.394598309486288,-0.596737288127642
0.454128840604783,-0.570752565164653
0.452796788655779,-0.522376275347289
0.511897688842568,-0.497825231647061
0.521632633103187,-0.423943319877669
0.511868086623522,-0.422861720462717
0.539907626721361,-0.35258134382574
0.5549336557058,-0.306655654895308
0.567075936776983,-0.259681209844083
0.576261888172476,-0.211839671496282
0.568603372928618,-0.129996118863533
0.5855322215383,-0.114306166640928
0.585530160864993,-0.0649995191841714
0.582399425111387,-0.0155948943024762
0.56269049516412,-0.00705765605732903
0.568146523532492,0.0819581985322268
0.554176343414131,0.131210976685626
0.538535933900098,0.179009176162318
0.560983860248436,0.270417759525438
0.453382985105453,0.284756207260189
0.522309577926641,0.343178286062035
0.409969480278436,0.340743582673234
0.415682236838287,0.420380252762995
0.382636716056014,0.440120156999674
0.372070692081739,0.512142457388729
0.324774321376305,0.487136143158596
0.301387917223512,0.554886726959084
0.2263178270137,0.576350631717626
0.135340015521413,0.60850763085813
