-1.02318640955005,-0.683856483235319
-1.02306727236031,-0.683775529018476
-1.02269923812595,-0.683547347948928
-1.02206645182564,-0.683193944786514
-1.02115319533383,-0.682737257283357
-1.01994392674191,-0.682199101987727
-1.01842331939758,-0.681601120405566
-1.01657630057428,-0.680964725641089
-1.0143880896834,-0.680311049636771
-1.01184423594276,-0.679660891131694
-1.0089306554161,-0.679034664455598
-1.00563366733994,-0.67845234927406
-1.00194002965527,-0.677933441398136
-0.997836973663801,-0.677496904769351
-0.993312237729965,-0.677161124728302
-0.98835409995232,-0.676943862672248
-0.982951409730066,-0.676862212203929
-0.977093618152904,-0.676932556870516
-0.970770807145081,-0.677170529588006
-0.963973717297176,-0.677590973842601
-0.95669377432212,-0.678207906756626
-0.948923114074984,-0.679034484102332
-0.940654606079235,-0.680082967342576
-0.931881875505491,-0.681364692772822
-0.92259932355222,-0.682890042834184
-0.912802146181386,-0.684668419662355
-0.90248635116568,-0.68670822093228
-0.891648773407736,-0.68901681805323
-0.880287088495549,-0.691600536763725
-0.868399824462252,-0.694464640170316
-0.855986371722364,-0.697613314268787
-0.843046991160699,-0.701049655980768
-0.829582820354222,-0.704775663733094
-0.815595877911266,-0.708792230601564
-0.801089065916735,-0.713099140034984
-0.786066170476113,-0.717695064169605
-0.770531860355313,-0.722577564738264
-0.754491683717658,-0.72774309657269
-0.737952062963491,-0.733187013691661
-0.720920287682143,-0.738903577961858
-0.703404505730181,-0.744885970312534
-0.685413712454012,-0.751126304479354
-0.666957738079075,-0.757615643247107
-0.648047233291893,-0.764344017155383
-0.628693653045297,-0.771300445625782
-0.608909238621096,-0.778472960463788
-0.588706997988302,-0.785848631683113
-0.568100684498854,-0.793413595595113
-0.547104773966469,-0.801153085100773
-0.525734440177817,-0.809051462117839
-0.504005528888748,-0.817092252070867
-0.481934530361642,-0.825258180367326
-0.459538550503198,-0.833531210778428
-0.436835280665105,-0.8418925856391
-0.413842966173001,-0.850322867777389
-0.39058037365196,-0.858801984079733
-0.367066757219424,-0.86730927059483
-0.343321823619015,-0.875823519075398
-0.319365696371019,-0.884323024853842
-0.295218879017528,-0.892785635944887
-0.270902217542215,-0.901188803265426
-0.246436862046605,-0.909509631859336
-0.221844227766286,-0.917724933012726
-0.197145955512045,-0.925811277143088
-0.172363871622144,-0.933745047344025
-0.147519947513058,-0.941502493465794
-0.122636258916886,-0.949059786610619
-0.0977349448943409,-0.95639307392082
-0.0728381667127349,-0.963478533537096
-0.0479680666786493,-0.970292429603897
-0.023146727015115,-0.976811167198695
0.00160387112700998,-0.983011347062091
0.0262618884340381,-0.988869820006119
0.0508056678819356,-0.994363740878805
0.0752137747880651,-0.999470621963975
0.0994650363748757,-1.00416838569657
0.123538580759308,-1.00843541657522
0.147413875282954,-1.01225061215553
0.171070764099496,-1.01559343300969
0.194489504937579,-1.01844395154016
0.217650804959146,-1.02078289953776
0.240535855635218,-1.02259171437732
0.263126366563358,-1.02385258374701
0.28540459815336,-1.02454848881066
0.307353393110252,-1.02466324570602
0.328956206646371,-1.02418154528533
0.350197135357088,-1.02308899100885
0.371060944697761,-1.02137213490562
0.391533095002571,-1.01901851152042
0.411599765989177,-1.01601666977017
0.431247879696469,-1.01235620263764
0.450465121806196,-1.00802777463525
0.469239961302852,-1.00302314697658
0.487561668429868,-0.997335200398313
0.505420330903997,-0.990957955580717
0.522806868353607,-0.983886591119818
0.539713044950576,-0.976117459010116
0.5561314802095,-0.967648097602082
0.572055657931989,-0.958477242004349
0.58747993327795,-0.948604831906144
0.602399537949961,-0.938032016801293
0.616810583480965,-0.926761158600865
0.630710062619802,-0.914795831627335
0.644095848813283,-0.902140819988995
0.656966693787756,-0.888802112339121
0.669322223237328,-0.874786894030267
0.681162930630148,-0.860103536679799
0.692490169148285,-0.844761585168583
0.703306141780935,-0.828771742100424
0.713613889594757,-0.812145849755504
0.723417278209206,-0.794896869576643
0.732720982508719,-0.777038859232686
0.741530469627506,-0.758586947308725
0.749851980246555,-0.73955730567811
0.757692508246201,-0.7199671196164
0.765059778761236,-0.699834555722386
0.771962224689133,-0.679178727716227
0.778408961705312,-0.658019660189425
0.784409761842767,-0.636378250385971
0.789975025696488,-0.614276228098309
0.795115753316204,-0.591736113766006
0.799843513853848,-0.568781174868992
0.804170414034919,-0.545435380711018
0.808109065525507,-0.521723355692567
0.811672551269196,-0.49767033117582
0.814874390870324,-0.473302096047379
0.817728505102187,-0.448644946087378
0.820249179620714,-0.423725632256223
0.822451027965865,-0.398571308012642
0.82434895393459,-0.373209475778863
0.825958113410544,-0.347667932670613
0.827293875736962,-0.32197471561129
0.828371784720066,-0.296158045950999
0.829207519351197,-0.270246273712256
0.829816854336443,-0.244267821584968
0.83021562052297,-0.21825112879388
0.830419665311417,-0.192224594961907
0.830444813143769,-0.166216524092824
0.830306826155901,-0.140255068796471
0.83002136508358,-0.1143681748791
0.829603950510149,-0.0885835264206798
0.829069924543299,-0.0629284914598471
0.828434413007359,-0.0374300684058709
0.827712288236358,-0.0121148332953461
0.826918132551736,0.0129911119905625
0.826066202507022,0.0378621904346276
0.825170393980073,0.0624733994065428
0.824244208191525,0.0868003588917575
0.82330071872602,0.110819358320402
0.822352539630506,0.134507401893706
0.821411794661483,0.15784225230864
0.820490087750437,0.180802472785089
0.819598474754008,0.203367467303679
0.818747436552496,0.225517518966338
0.817946853557293,0.24723382639588
0.817205981684644,0.268498538095287
0.81653342984984,0.289294784691887
0.815937139032527,0.309606708996366
0.81542436296026,0.329419493811432
0.815001650453814,0.348719387429932
0.814674829474004,0.367493726767433
0.814448992905945,0.385730958079497
0.814328486112769,0.403420655219306
0.814316896286852,0.420553535396748
0.814417043622534,0.437121472405683
0.814630974330243,0.453117507291705
0.814959955507782,0.46853585643847
0.815404471880353,0.483371917056366
0.815964224416719,0.497622270063149
0.816638130824647,0.511284680351921
0.817424327924579,0.524358094447686
0.818320175896241,0.536842635559547
0.819322264388703,0.54873959604137
0.820426420480179,0.560051427279548
0.821627718469744,0.570781727032239
0.822920491478981,0.580935224250082
0.82429834483753,0.59051776141406
0.825754171222483,0.599536274431671
0.827280167517621,0.607998770138025
0.82886785335464,0.615914301453812
0.830508091294702,0.623292940257294
0.832191108604964,0.630145748032589
0.833906520581163,0.636484744361428
0.835643355363823,0.642322873330405
0.837390080192308,0.647673967930339
0.839134629037708,0.652552712528862
0.840864431552411,0.656974603501631
0.842566443271272,0.660955908111627
0.84422717699645,0.664513621729939
0.845832735295321,0.667665423495094
0.847368844038347,0.670429630511453
0.848820886901454,0.672825150690466
0.85017394075525,0.674871434341562
0.851412811861454,0.676588424622246
0.852522072795023,0.67799650695948
0.853486100008867,0.679116457556731
0.85428911195653,0.679969391103067
0.854915207686972,0.680576707802446
0.855348405824494,0.680960039842868
0.855572683845955,0.681141197426256
0.855572017566749,0.681142114480909
0.855330420746495,0.680984794179063
0.854831984725121,0.680691254382506
0.85406091799991,0.68028347313932
0.853001585654187,0.679783334354723
0.851638548548624,0.679212573758521
0.849956602186648,0.678592725291063
0.847940815166132,0.677945068028566
0.845576567130441,0.677290573767515
0.842849586133013,0.6766498553863
0.839745985330913,0.676043116100533
0.836252298924281,0.675490099726434
0.832355517260262,0.67501004206445
0.828043121021817,0.674621623512689
0.823303114423862,0.674342923017035
0.818124057341351,0.674191373461781
0.812495096296274,0.674183718601363
0.806405994233093,0.674335971630353
0.799847159014779,0.67466337548515
0.792809670574469,0.675180364966938
0.785285306660732,0.675900530771399
0.777266567117547,0.676836585506357
0.768746696643348,0.678000331774113
0.759719705976847,0.679402632390543
0.750180391460857,0.681053382808293
0.740124352938919,0.68296148580642
0.729548009943238,0.685134828503751
0.718448616136229,0.687580261748044
0.706824271971847,0.690303581927674
0.694673935546837,0.693309515247153
0.681997431616027,0.696601704502263
0.668795458749925,0.700182698384984
0.655069594616936,0.704053943342698
0.640822299376733,0.708215778010471
0.6260569171755,0.712667430229391
0.610777675737963,0.717407016658184
0.594989684055381,0.722431544979488
0.578698928172891,0.727736918696369
0.561912265083818,0.733317944508823
0.544637414742778,0.739168342254269
0.52688295021359,0.745280757390229
0.508658285972139,0.751646775991749
0.489973664388457,0.758256942230428
0.470840140416328,0.765100778296382
0.451269564522703,0.77216680671898
0.431274563893147,0.779442575036803
0.410868521953338,0.786914682762025
0.390065556250422,0.794568810579234
0.368880494741655,0.802389751713724
0.3473288505413,0.810361445399407
0.325426795180205,0.81846701237178
0.303191130435754,0.826688792306828
0.280639258793108,0.835008383122386
0.257789152601656,0.843406682054287
0.234659321993547,0.851863928415629
0.211268781633867,0.86035974794373
0.187637016374682,0.868873198635737
0.163783945887572,0.877382817970524
0.139729888351565,0.885866671411401
0.115495523275479,0.894302402081226
0.0911018535356088,0.90266728149892
0.0665701667114317,0.910938261263949
0.0419219958035819,0.919092025573203
0.017179079419706,0.927105044452828
-0.00763667848501139,0.934953627585914
-0.0325032492248437,0.942613978615617
-0.0573985202694704,0.95006224980218
-0.0823003363096903,0.957274596911495
-0.107186540413319,0.964227234212335
-0.132035015181482,0.970896489459068
-0.156823723815546,0.977258858736713
-0.181530751005068,0.983291061045436
-0.206134343547615,0.98897009250217
-0.230612950611853,0.994273280037856
-0.254945263556111,0.999178334469884
-0.279110255215637,1.00366340283071
-0.30308721857291,1.00770711983524
-0.326855804726774,1.01128865837145
-0.350396060077715,1.01438777890088
-0.373688462648344,1.01698487765808
-0.396713957460063,1.01906103354069
-0.419453990889025,1.02059805358465
-0.441890543926735,1.02157851692244
-0.464006164273096,1.02198581712527
-0.4857839971923,1.02180420283396
-0.507207815064733,1.02101881658691
-0.528262045570919,1.01961573175769
-0.548931798446635,1.01758198751875
-0.569202890751455,1.01490562175242
-0.589061870596331,1.01157570183469
-0.608496039279209,1.00758235322205
-0.627493471781269,1.00291678577662
-0.646043035579962,0.997571317769716
-0.664134407738831,0.991539397509254
-0.681758090237887,0.984815622541543
-0.698905423512239,0.977395756383561
-0.715568598170685,0.969276742747175
-0.731740664869975,0.96045671722239
-0.747415542324613,0.950935016392365
-0.762588023436161,0.9407121843586
-0.777253779530219,0.92978997666052
-0.791409362693476,0.918171361579397
-0.805052206207398,0.905860518822441
-0.818180623079419,0.892862835588656
-0.830793802676677,0.879184900023914
-0.842891805471579,0.864834492078489
-0.854475555912675,0.84982057178608
-0.865546833438483,0.834153264989062
-0.876108261656025,0.817843846540421
-0.886163295709932,0.800904721018408
-0.895716207871972,0.783349400995483
-0.90477207138483,0.765192482908572
-0.913336742597814,0.746449620582994
-0.921416841436,0.727137496467603
-0.929019730247968,0.707273790643823
-0.936153491080937,0.686877147676176
-0.942826901435553,0.665967141376712
-0.949049408555973,0.644564237560368
-0.954831102314141,0.622689754872803
-0.960182686750241,0.600365823776477
-0.965115450334331,0.577615343784882
-0.969641235016939,0.5544619390387
-0.97377240413913,0.530929912321372
-0.977521809275052,0.507044197615013
-0.980902756082311,0.482830311300853
-0.983928969237766,0.458314302111407
-0.986614556538285,0.433522699944335
-0.988973972247899,0.408482463650489
-0.991021979774404,0.383220927910931
-0.992773613759981,0.35776574931969
-0.994244141671616,0.332144851790846
-0.995449024978264,0.306386371409971
-0.996403880002558,0.280518600851212
-0.99712443853556,0.254569933482273
-0.997626508303573,0.228568807280199
-0.997925933376325,0.202543648681337
-0.99803855460594,0.176522816488919
-0.997980170186015,0.150534545961645
-0.997766496419822,0.124606893206177
-0.997413128786178,0.0987676799958018
-0.996935503390794,0.0730444391365388
-0.996348858890081,0.0474643605007942
-0.995668198973243,0.0220542378470638
-0.994908255487274,-0.00315958345742885
-0.994083452287969,-0.0281512576964374
-0.993207869898422,-0.0528954889341992
-0.992295211054669,-0.0773675799047273
-0.991358767216091,-0.101543479553741
-0.990411386116042,-0.125399829128939
-0.989465440425796,-0.148914006717738
-0.988532797602396,-0.172064170134891
-0.987624790988318,-0.194829298066246
-0.986752192228046,-0.217189229378655
-0.985925185063657,-0.239124700510256
-0.985153340568453,-0.260617380859533
-0.984445593874379,-0.281649906096103
-0.983810222445662,-0.302205909320776
-0.983254825947574,-0.322270050007223
-0.98278630775566,-0.341828040662576
-0.982410858147069,-0.36086667114932
-0.982133939211847,-0.379373830616117
-0.981960271518168,-0.397338526990443
-0.981893822561554,-0.414750903991476
-0.981937797024104,-0.431602255627067
-0.982094628865684,-0.447885038144364
-0.982365975264924,-0.463592879409245
-0.98275271242369,-0.478720585695471
-0.983254933244514,-0.493264145870291
-0.983871946886266,-0.507220732968943
-0.984602280199109,-0.520588703156419
-0.985443681035564,-0.533367592080587
-0.986393123430294,-0.54555810862666
-0.987446814637003,-0.557162126088715
-0.988600204006688,-0.568182670779802
-0.989847993687321,-0.578623908107808
-0.991184151120953,-0.588491126149947
-0.992601923310193,-0.597790716764285
-0.994093852822016,-0.606530154282215
-0.995651795492967,-0.614717971831163
-0.99726693979599,-0.622363735342106
-0.998929827825362,-0.629478015301613
-1.00063037785259,-0.636072356313164
-1.00235790840256,-0.642159244537359
-1.00410116379586,-0.647752073085356
-1.00584834109983,-0.652865105444446
-1.00758711842773,-0.657513437019011
-1.00930468452243,-0.661712954874344
-1.01098776955807,-0.665480295774793
-1.01262267709045,-0.668832802611453
-1.01419531708418,-0.671788479318258
-1.01569123994237,-0.67436594437864
-1.01709567146232,-0.676584383028077
-1.01839354863833,-0.678463498260723
-1.01956955623135,-0.68002346075099
-1.02060816402286,-0.681284857803334
-1.02149366466921,-0.682268641445661
-1.02221021207119,-0.68299607578365
-1.02274186017229,-0.683488683734939
-1.02307260209831,-0.683768193263458
-1.02318640955005,-0.683856483235319
