0.771639384810349,-0.080877602388094
0.77235875908503,-0.0667270079650525
0.769938407327615,-0.0522039237292244
0.764415046243815,-0.0374559423207483
0.755865006964766,-0.0226312927729839
0.7444032968373,-0.00787587545242761
0.730182109402414,0.00666963701088717
0.713388803172296,0.020872581277985
0.694243377721918,0.0346109179872109
0.672995483096378,0.0477756332193224
0.649921005485387,0.0602728841676344
0.625318278425434,0.0720258509336085
0.599503974361899,0.0829762615024026
0.57280873615256,0.0930855626413512
0.545572611948172,0.102335715612432
0.518140359786362,0.110729602095279
0.49085669013796,0.118291032472092
0.464061515521301,0.12506435551774
0.438085276137087,0.131113675452835
0.413244409277175,0.136521689139821
0.389837028043971,0.141388162818523
0.368138871717721,0.145828074078103
0.348399585976385,0.14996945064178
0.330839386171049,0.153950942900708
0.31564615106612,0.157919171884206
0.302972987957307,0.162025898414986
0.292936302981582,0.166425062501381
0.285614402841189,0.171269744507177
0.281046646194932,0.176709101270282
0.279233154746674,0.182885331084798
0.280135085709195,0.189930721302139
0.283675458969059,0.197964831245624
0.289740524052377,0.207091861184005
0.298181644017733,0.217398255301815
0.308817665802202,0.228950582981527
0.321437739434474,0.241793738330867
0.335804542013108,0.255949492817535
0.351657856525661,0.271415430193505
0.368718450542941,0.288164286692968
0.386692195636693,0.306143712871111
0.405274365099727,0.325276466522121
0.424154045242012,0.345461038985836
0.443018594226359,0.366572709939213
0.461558082109357,0.388465018588422
0.479469646468001,0.410971632147361
0.496461699704757,0.433908585723861
0.512257926803297,0.457076861347247
0.526601015908297,0.480265267965958
0.539256068566039,0.503253578919897
0.550013641715227,0.52581587873841
0.558692379474691,0.547724067210178
0.565141199340913,0.568751465582916
0.569241004478993,0.588676467532938
0.570905901253605,0.607286176237798
0.57008390888382,0.624379968515444
0.566757155995693,0.639772927571718
0.560941566765589,0.653299087420592
0.552686047171787,0.664814434489128
0.542071189480201,0.674199615257757
0.529207520364436,0.681362302967737
0.514233324888703,0.68623918138957
0.497312084859727,0.688797509314033
0.478629575685226,0.689036235714994
0.458390670776802,0.686986642344007
0.436815906631077,0.682712497745478
0.414137864954501,0.676309714215831
0.390597430518317,0.667905506953017
0.366439984808952,0.657657062432783
0.341911595959118,0.645749730782912
0.31725526490479,0.632394764483847
0.292707286226898,0.617826632983857
0.268493779732868,0.602299949663559
0.24482744555541,0.586086053908468
0.221904591451266,0.569469296747498
0.199902476140741,0.552743083497622
0.178977007021264,0.53620573103863
0.159260824506674,0.520156200657903
0.140861798688941,0.504889769797337
0.123861957098284,0.490693707461468
0.108316855164347,0.477843018480568
0.0942553936718853,0.466596321253949
0.0816800801777791,0.457191922031028
0.0705677241304916,0.44984414624107
0.0608705484243715,0.444739983892005
0.0525176934419312,0.44203610167462
0.045417083393847,0.441856269194792
0.0394576190581537,0.444289240790644
0.0345116559370769,0.449387127762782
0.0304377224719493,0.457164288653807
0.0270834293517528,0.467596757567002
0.0242885181743912,0.480622222529599
0.0218879958135695,0.496140557704943
0.0197152998356551,0.514014904965719
0.017605440212987,0.534073292084152
0.0153980633908094,0.556110766701635
0.0129403864676165,0.579892017434161
0.0100899518119974,0.605154446071656
0.00671715581794491,0.631611647953292
0.00270750963672449,0.658957251353462
-0.00203640545372667,0.686869061191613
-0.00759331995285174,0.715013447669301
-0.0140220212840211,0.743049916613515
-0.0213604817962786,0.770635795426438
-0.0296253825693543,0.797430966654124
-0.0388120391080141,0.823102580320378
-0.0488947280664808,0.84732967634223
-0.0598274072302094,0.869807649548539
-0.0715448142152486,0.890252492046319
-0.0839639228368385,0.908404750887519
-0.0969857299564017,0.924033143134309
-0.110497339941302,0.936937775440802
-0.124374308758501,0.94695292108796
-0.138483205256089,0.953949313937646
-0.152684343439603,0.957835925912533
-0.166834636585111,0.958561202252063
-0.180790521897565,0.956113736824704
-0.194410903156478,0.950522378071018
-0.207560058412995,0.941855764584378
-0.220110460319687,0.93022129777804
-0.231945458079088,0.91576356741035
-0.242961772266584,0.898662253817501
-0.2530717568812,0.879129538412697
-0.262205386853768,0.857407061234984
-0.270311933832798,0.83376247096073
-0.277361298299296,0.808485618725855
-0.283344971847137,0.781884452257793
-0.288276609710855,0.754280671105731
-0.292192200225339,0.726005207122019
-0.295149824753487,0.697393596737147
-0.297229008605729,0.668781312950902
-0.298529670484185,0.640499125314433
-0.29917068489839,0.61286855549876
-0.299288078704384,0.586197494347816
-0.299032889303337,0.560776043626818
-0.298568717993117,0.536872642043428
-0.298069017396844,0.514730530597918
-0.297714156704836,0.494564606981343
-0.297688312579059,0.476558712671633
-0.298176236911633,0.460863389671937
-0.299359955143034,0.44759413659839
-0.301415450486505,0.436830186168648
-0.304509390142025,0.42861381818692
-0.308795949399681,0.422950213989382
-0.314413788427114,0.419807850131318
-0.321483234522356,0.419119420990291
-0.330103719720137,0.420783272052742
-0.340351519909229,0.424665318065532
-0.352277837106958,0.430601413085017
-0.365907261313639,0.438400132852611
-0.381236642515449,0.447845923967221
-0.398234397010257,0.458702569100708
-0.416840265397783,0.470716913090181
-0.436965532410812,0.483622791205069
-0.458493711381852,0.497145098278251
-0.481281688656968,0.511003935745076
-0.505161315805359,0.524918772972719
-0.529941430149266,0.538612559590356
-0.555410277072275,0.551815726837967
-0.581338300869279,0.564270018212721
-0.607481264687505,0.575732092866558
-0.633583654476819,0.585976849242214
-0.659382316911886,0.594800421259836
-0.684610277051463,0.60202280490245
-0.709000678131807,0.607490079205113
-0.732290783410072,0.611076192329292
-0.754225978423768,0.612684290492932
-0.774563711443487,0.612247574913552
-0.793077310282655,0.609729679488363
-0.809559614989341,0.605124569560982
-0.823826368264667,0.598455969687862
-0.835719308698978,0.589776335699236
-0.845108916044247,0.579165393433153
-0.851896762689111,0.566728273195803
-0.856017431198067,0.552593275162911
-0.857439964133325,0.536909306489935
-0.856168819300451,0.519843035757839
-0.852244310941965,0.501575814472323
-0.845742525133492,0.48230041859625
-0.836774705596091,0.462217665479772
-0.825486114203207,0.441532963026591
-0.812054378506452,0.420452848479153
-0.796687346505982,0.399181573816319
-0.779620476525609,0.377917793445424
-0.761113797300257,0.356851407662386
-0.741448480130437,0.336160612289042
-0.720923071098462,0.316009201029893
-0.699849436777127,0.296544162487759
-0.678548481506753,0.277893608517542
-0.65734569809643,0.260165064768183
-0.636566616658631,0.243444147962446
-0.616532218165849,0.22779364779718
-0.597554380191641,0.213253024423791
-0.579931422149467,0.19983832540387
-0.563943816170435,0.187542518944775
-0.549850127580253,0.176336233220495
-0.537883245777024,0.166168884789037
-0.528246962220842,0.156970172639717
-0.521112947283566,0.148651908347467
-0.516618171946692,0.141110147274999
-0.514862813863031,0.134227580836971
-0.515908680211515,0.127876145602653
-0.519778172180786,0.121919801533049
-0.526453807931438,0.116217428980525
-0.535878312630012,0.110625792265972
-0.547955275745682,0.105002516718401
-0.562550367381005,0.0992090260283546
-0.579493097099357,0.0931133876284735
-0.598579090640713,0.0865930155562978
-0.619572852207233,0.0795371828457325
-0.642210972768654,0.0718492988905358
-0.6662057381951,0.0634489113685021
-0.691249085073095,0.0542733971392328
-0.717016846890296,0.044279311950983
-0.743173228964483,0.0334433747226855
-0.769375447108553,0.021763068507238
-0.795278462616948,0.00925684688609692
-0.820539744766743,-0.00403605861720434
-0.844823991669224,-0.0180562275993931
-0.867807740990285,-0.0327250269277407
-0.889183803769269,-0.0479459578570295
-0.908665457279218,-0.0636063515199899
-0.925990336544607,-0.0795793840952945
-0.940923968708662,-0.0957263773256618
-0.953262899850539,-0.111899344992563
-0.962837370009488,-0.12794374153856
-0.969513498983783,-0.143701365338038
-0.973194952831796,-0.159013366214859
-0.973824068798095,-0.173723304741295
-0.971382424499054,-0.187680209662855
-0.965890845505907,-0.200741579500452
-0.957408853831342,-0.212776274992371
-0.946033568130709,-0.223667250546276
-0.931898074544052,-0.23331407525438
-0.915169294906999,-0.241635197246322
-0.896045386428598,-0.248569909164516
-0.874752713761024,-0.254079977282454
-0.851542440566832,-0.258150902172821
-0.826686793131423,-0.260792784783249
-0.800475053190665,-0.262040778198002
-0.773209340878001,-0.261955112150374
-0.745200251487728,-0.260620684393803
-0.716762411561842,-0.258146220225345
-0.688210020612863,-0.254663008666754
-0.659852444585717,-0.250323230928124
-0.631989925945405,-0.245297903690547
-0.604909473076489,-0.239774466333938
-0.578880988533575,-0.233954047395205
-0.554153691641376,-0.22804845116827
-0.530952886075104,-0.222276910356834
-0.509477117435616,-0.216862654979174
-0.4898957595595,-0.212029351228347
-0.472347061472174,-0.207997466650245
-0.456936679610876,-0.204980619768466
-0.443736712329278,-0.203181973125589
-0.432785245866409,-0.202790728606613
-0.424086413042514,-0.203978782858363
-0.417610958057313,-0.206897598630278
-0.413297293034653,-0.21167534496374
-0.41105302450184,-0.218414355390232
-0.410756920926971,-0.227188948718479
-0.412261285872139,-0.238043651665715
-0.4153946953545,-0.250991856599103
-0.419965052731454,-0.266014941091513
-0.425762909919727,-0.283061868962412
-0.432565000087672,-0.302049285078551
-0.440137924178903,-0.322862108545341
-0.448241931772464,-0.345354621148106
-0.456634735884188,-0.369352040124586
-0.465075301374753,-0.39465255668893
-0.473327547645861,-0.421029814304136
-0.481163908255507,-0.448235793632623
-0.488368692930309,-0.47600406449607
-0.494741201147051,-0.504053359151958
-0.500098540933371,-0.532091415842557
-0.504278111723091,-0.559819036979675
-0.507139715908342,-0.58693430257077
-0.508567270061941,-0.613136876631799
-0.508470093555194,-0.63813234241836
-0.506783759357738,-0.661636501373458
-0.503470499062036,-0.683379570756729
-0.498519161507913,-0.703110215989557
-0.491944731673356,-0.720599355811182
-0.483787423629404,-0.735643681364804
-0.474111368214576,-0.748068834277183
-0.463002922558613,-0.757732193602961
-0.450568634572907,-0.764525227105086
-0.436932900931385,-0.768375368651832
-0.422235361805346,-0.769247390434311
-0.406628079614939,-0.76714424614164
-0.390272552256772,-0.762107369061188
-0.37333661361277,-0.754216417179669
-0.355991275605318,-0.74358846562324
-0.338407566617621,-0.730376655064925
-0.320753420740635,-0.714768312918299
-0.303190671048243,-0.69698257210148
-0.285872197964642,-0.677267519772415
-0.268939280810295,-0.655896915587397
-0.252519196847277,-0.633166525609281
-0.236723107655736,-0.609390123887739
-0.221644267536967,-0.584895218859594
-0.207356582941583,-0.560018565992722
-0.193913545759291,-0.535101531455241
-0.181347556782643,-0.51048537397978
-0.169669648879753,-0.486506513472351
-0.158869612492897,-0.463491855264307
-0.148916519136148,-0.441754238217033
-0.139759631710726,-0.421588073171852
-0.131329683805149,-0.403265235516906
-0.12354050380864,-0.38703127195919
-0.116290953745333,-0.373101976998615
-0.109467147331624,-0.361660389171332
-0.102944906958906,-0.352854250943854
-0.0965924151882354,-0.346793969291428
-0.0902730129805594,-0.343551106587986
-0.08384809433155,-0.343157423583231
-0.0771800452765957,-0.345604488064703
-0.0701351744074935,-0.350843854423418
-0.0625865821120925,-0.35878781088848
-0.0544169167110209,-0.369310682797598
-0.0455209675064591,-0.38225067205451
-0.0358080474471505,-0.397412205015682
-0.0252041216078692,-0.414568753567628
-0.0136536419236158,-0.433466087215923
-0.00112105353973667,-0.453825907712732
0.0124080563413932,-0.475349812196231
0.0269261902088125,-0.497723526086214
0.0424035692410873,-0.520621343146127
0.0587881694676721,-0.543710707239613
0.0760061680730883,-0.566656868421387
0.0939627958106835,-0.589127545134799
0.112543584516753,-0.610797524452547
0.131615991892161,-0.631353133487949
0.151031379160302,-0.65049651730108
0.170627311026545,-0.667949661790792
0.190230141658368,-0.683458104149091
0.209657845273036,-0.696794278393328
0.228723045447637,-0.707760449206113
0.247236193530626,-0.716191193712734
0.26500884359934,-0.721955397810865
0.281856969325684,-0.724957741128439
0.297604266920427,-0.725139652506426
0.312085388048715,-0.722479725962627
0.3251490472546,-0.716993595265588
0.336660949994155,-0.708733273408206
0.3465064898346,-0.697785971293038
0.354593166694867,-0.684272417702497
0.360852682131886,-0.668344710008639
0.365242672553715,-0.650183731966525
0.367748046790193,-0.629996181228168
0.36838190058798,-0.608011254815831
0.367185987223441,-0.584477045620777
0.36423073043964,-0.559656706974772
0.359614773201663,-0.533824445419454
0.353464063211907,-0.507261403929244
0.345930483614846,-0.480251498998559
0.337190044729314,-0.453077275170462
0.327440659856156,-0.42601583976396
0.316899535103803,-0.399334938768841
0.305800209641824,-0.373289232153054
0.294389288727327,-0.348116823215867
0.282922917153407,-0.324036092181449
0.271663045355026,-0.301242879036426
0.260873544198514,-0.27990805475649
0.250816227412064,-0.260175513637608
0.241746842634604,-0.242160612550491
0.233911093132608,-0.225949075684628
0.227540752336384,-0.211596375856406
0.222849932472397,-0.199127595844519
0.22003156672485,-0.188537765606313
0.219254161571764,-0.179792663741204
0.220658872247222,-0.172830064320442
0.224356949735421,-0.16756140330972
0.230427602370723,-0.163873832380605
0.238916309080447,-0.161632622038079
0.24983361465476,-0.160683870775594
0.263154430261454,-0.160857472485408
0.278817854852203,-0.161970290668691
0.296727525246972,-0.163829485161464
0.316752494655833,-0.166235935159791
0.338728631326481,-0.168987701317068
0.362460521016527,-0.171883469609173
0.387723849206471,-0.174725920515979
0.414268231513749,-0.177324968831855
0.441820453757107,-0.179500822060015
0.470088076664369,-0.18108680881891
0.498763354416962,-0.181931932932747
0.527527411174031,-0.181903113820214
0.556054615497806,-0.180887079351827
0.584017089278448,-0.178791883423846
0.611089285385347,-0.17554802699386
0.636952566891986,-0.171109168132235
0.661299720358252,-0.165452413651901
0.683839336315356,-0.158578191970987
0.704299991778172,-0.150509713922142
0.722434172284137,-0.141292035133223
0.738021874589274,-0.130990740253633
0.750873835686941,-0.119690275580382
0.760834339186426,-0.107491962446037
0.767783556216401,-0.0945117289727561
0.771639384810349,-0.0808776023880943
