0.461380836638126,-0.435735226144794
0.461161448834927,-0.435402899730558
0.460524694350804,-0.434392851835534
0.459503651506034,-0.432687145029517
0.458132573513132,-0.430270122721122
0.456446745127205,-0.42712847681726
0.454482335293334,-0.42325130618492
0.452276246377266,-0.418630165681954
0.449865960579245,-0.413259105560965
0.447289384141936,-0.407134701088536
0.444584689972133,-0.400256072260833
0.441790159302223,-0.392624893535868
0.438944023021135,-0.384245393542255
0.436084303305811,-0.375124344764056
0.433248656183017,-0.365271043241023
0.430474215647582,-0.354697278363127
0.42779743995697,-0.343417292877516
0.425253960713425,-0.33144773326487
0.42287843533384,-0.318807590680256
0.420704403494059,-0.30551813269101
0.41876414811849,-0.291602826080649
0.417088561467899,-0.277087251023222
0.415707016857967,-0.261999006966713
0.414647246518846,-0.24636761059698
0.413935226081571,-0.230224386285088
0.413595066150851,-0.213602349450704
0.413648911395649,-0.196536083302284
0.414116847559092,-0.179061609441035
0.415016816757826,-0.16121625283995
0.41636454140801,-0.143038501731524
0.418173457080917,-0.124567862957899
0.420454654555621,-0.105844713355189
0.423216831299787,-0.0869101477594482
0.426466252572124,-0.0678058242351179
0.430206722301862,-0.048573807137781
0.434439563861834,-0.0292564086316487
0.43916361081243,-0.00989602928829236
0.444375207654147,0.00946500160322442
0.450068220586694,0.028784585383531
0.45623405823292,0.0480210123975506
0.462861702246251,0.0671331187704751
0.469937747681101,0.0860804409654416
0.477446452966957,0.104823367512035
0.485369799288721,0.123323287305988
0.493687559138537,0.14154273389405
0.502377373767933,0.159445525173951
0.511414839233762,0.176996897957548
0.520773600697305,0.194163636865681
0.53042545460314,0.210914197045693
0.540340458333071,0.227218820227133
0.550487046900761,0.243049643657573
0.560832156224701,0.258380801488699
0.571341352491087,0.273188518212834
0.581978967093906,0.287451193781533
0.592708236617461,0.301149480070947
0.603491447306451,0.314266348392929
0.614290083450944,0.326787147786405
0.625064979097983,0.338699653860105
0.635776472488352,0.349994107995227
0.646384562606179,0.360663246754828
0.656849067220627,0.37070232138562
0.667129781792992,0.380109107337121
0.677186638619033,0.388883903762703
0.686979865575401,0.397029523006851
0.696470143840576,0.40455127012262
0.705618763964737,0.41145691250286
0.714387779669513,0.417756639747965
0.722740158767521,0.42346301393164
0.730639930602996,0.428590910464265
0.738052329428573,0.433157449790709
0.744943933149363,0.437181920195824
0.751282796883805,0.440685692026087
0.7570385808113,0.443692123669938
0.762182671799259,0.446226459671996
0.766688298326821,0.448315721387588
0.770530638249073,0.449988590613548
0.773686918973929,0.451275286659155
0.776136509653935,0.452207437347035
0.777861005026838,0.452817944457973
0.778844300571911,0.453140844155566
0.779072658683379,0.453211162946583
0.778534765597929,0.453064769750577
0.777221778849891,0.452738224667728
0.775127365065231,0.452268625046987
0.772247727943786,0.451693449467259
0.768581626318029,0.451050400252669
0.764130382215999,0.450377245148735
0.758897878895645,0.449711658789591
0.752890548857554,0.449091064587216
0.74611735188277,0.448552477671958
0.738589743181932,0.448132349509425
0.730321631781148,0.447866414812184
0.721329329308709,0.447789541355578
0.711631489384799,0.44793558329543
0.701249037853584,0.448337238571506
0.690205094133362,0.449025910964405
0.678524883995637,0.45003157735502
0.66623564411797,0.45138266071513
0.653366518788026,0.453105909334861
0.639948449167364,0.455226282768068
0.62601405555297,0.457766844949964
0.611597513102299,0.460748664912903
0.596734421513464,0.464190725496037
0.581461669176186,0.468109840412857
0.56581729233098,0.472520580007444
0.549840329793866,0.477435205995787
0.533570673821408,0.482863615452858
0.517048917706211,0.488813294269428
0.500316200705894,0.495289280265062
0.483414050919154,0.502294136105349
0.466384226730622,0.509827932132588
0.449268557451862,0.517888239179729
0.432108783789036,0.526470131397808
0.414946398768411,0.535566199087344
0.397822489749055,0.54516657148446
0.380777582147698,0.555258949412999
0.363851485493969,0.565828647674723
0.347083142424888,0.576858647011067
0.330510481215881,0.588329655431881
0.314170272431464,0.600220178669469
0.29809799026243,0.612506599479958
0.28232767909774,0.625163265478959
0.266891825858532,0.638162585164561
0.251821238598785,0.651475131748238
0.237144931852315,0.66506975438321
0.222890019178972,0.678913696350463
0.209081613334347,0.692972719734984
0.195742734457048,0.707211236099016
0.182894226635763,0.721592442635294
0.170554683185081,0.736078463261479
0.158740380924496,0.750630494097375
0.147465223719249,0.765208952749088
0.13674069550497,0.779773630809164
0.126575822980376,0.794283848968955
0.116977148113993,0.808698614129064
0.107948710571856,0.822976777885769
0.0994920401338309,0.837077195765831
0.0916061591265311,0.850958886579088
0.0842875948610826,0.864581191257751
0.0775304020242701,0.877903930553298
0.071326194932128,0.890887560966376
0.0656641895158882,0.903493328292091
0.0605312548715954,0.915683418172494
0.0559119741667485,0.927421103059898
0.0517887146602019,0.93867088500887
0.0481417065554062,0.949398633731253
0.0449491303720169,0.959571719367321
0.0421872124871037,0.969159139447099
0.0398303284647819,0.978131639538881
0.0378511137621812,0.986461827107
0.0362205813704087,0.994124278127765
0.0349082459216411,1.00109563604123
0.0338822537678314,1.00735470264673
0.0331095185128184,1.01288252058221
0.0325558614579985,1.01766244706039
0.0321861564022125,1.02168021856994
0.0319644782192365,1.02492400628512
0.0318542546212712,1.02738446196453
0.0318184205041813,1.02905475415716
0.031819574260001,1.02993059457231
0.031820135434406,1.03001025450896
0.0317825031015217,1.02929457127971
0.0316692143255885,1.02778694460363
0.0314431020786571,1.02549332298277
0.0310674519856467,1.02242218011604
0.0305061572727487,1.01858448144428
0.0297238713022817,1.01399364095903
0.0286861570866844,1.00866546844626
0.0273596331863082,1.00261810737424
0.0257121154100237,0.99587196367173
0.0237127537542994,0.988449625678797
0.0213321640353046,0.980375775587537
0.0185425536896379,0.97167709272372
0.0153178412424201,0.962382149052675
0.0116337689666069,0.952521297323536
0.00746800828439657,0.942126552295161
0.00280025749039091,0.931231465514405
-0.0023876685933615,0.919870994142997
-0.00811175738830801,0.908081364352817
-0.0143857260807616,0.895899929830886
-0.0212209581834169,0.883365025954761
-0.0286264493908765,0.870515820216114
-0.0366087629461666,0.857392159485193
-0.0451719946975013,0.844034414721278
-0.0543177479860951,0.830483323744416
-0.0640451184668308,0.816779832691307
-0.0743506889241752,0.802964936783454
-0.0852285341060769,0.789079521038339
-0.0966702355588395,0.775164201554612
-0.108664906406277,0.76125916799994
-0.121199225977005,0.747404027925395
-0.13425748414464,0.733637653522938
-0.147821635207156,0.719998031432873
-0.161871361093776,0.706522116195988
-0.176384143650771,0.693245687930629
-0.191335345721526,0.680203214798137
-0.206698300701319,0.667427720801099
-0.222444410213618,0.654950659437622
-0.23854324952252,0.642801793711628
-0.254962680265172,0.631009082973911
-0.271668970059052,0.619598577041553
-0.288626918511628,0.608594318014431
-0.305799989134535,0.598018250176966
-0.323150446640976,0.587890138341164
-0.340639499083638,0.578227494953495
-0.358227444271265,0.56904551625338
-0.375873819884952,0.560357027735085
-0.393537556700603,0.552172439127935
-0.41117713431161,0.544499709071962
-0.428750738735879,0.537344319627598
-0.446216421283843,0.530709260719034
-0.463532258059056,0.524595024571392
-0.48065650946045,0.518999610162234
-0.497547779055298,0.51391853766814
-0.514165171194385,0.50934487284746
-0.530468446745865,0.505269261260884
-0.546418176331725,0.501679972192426
-0.561975890460633,0.498562952094939
-0.577104225963247,0.49590188734645
-0.591767068150704,0.493678276066671
-0.605929688133926,0.491871508707065
-0.619558874760563,0.490458957093048
-0.632623060647706,0.489416071563322
-0.645092441811891,0.488716485819243
-0.656939090423281,0.488332129066484
-0.668137060238165,0.488233345002334
-0.678662484292909,0.488389017174785
-0.688493664473174,0.488766700214288
-0.697611152604384,0.489332756415699
-0.705997822743072,0.490052497126771
-0.713638934383547,0.490890328380372
-0.72052218633037,0.491809900190853
-0.726637761024093,0.492774258920351
-0.731978359145562,0.493746002108691
-0.736539224362601,0.494687435150713
-0.740318158121974,0.495560729197525
-0.743315524428957,0.496328079653316
-0.745534244596543,0.49695186463698
-0.746979781986055,0.497394802777913
-0.747660116800586,0.497620109718005
-0.74758571103215,0.497591652696931
-0.746769463702383,0.497274102605447
-0.745226656575162,0.49663308290145
-0.74297489055723,0.495635314795935
-0.740034013039817,0.494248758130839
-0.736426036470168,0.492442747387767
-0.732175048476604,0.490188122285951
-0.727307113904238,0.487457352449208
-0.72185016915051,0.484224655645205
-0.715833909220199,0.48046610912579
-0.709289667948425,0.47615975362455
-0.702250291867217,0.471285689596826
-0.694750008216392,0.465826165318202
-0.686824287622676,0.459765656489773
-0.67850970199213,0.45309093703216
-0.669843778179873,0.445791140785196
-0.660864848017809,0.437857813866272
-0.651611895295487,0.429284957477376
-0.642124400301266,0.420069060988727
-0.632442182540581,0.410209125165494
-0.622605242255337,0.399706675443161
-0.612653601373131,0.388565765196571
-0.60262714451726,0.376792968987377
-0.592565460708198,0.364397365814371
-0.582507686384411,0.351390512430809
-0.572492350365144,0.337786406832251
-0.562557221370068,0.323601442057432
-0.552739158700487,0.308854350483087
-0.543073966674227,0.293566138831357
-0.533596253391431,0.277760014145279
-0.52433929439123,0.261461301023627
-0.515334901739855,0.244697350441101
-0.506613299069171,0.227497440513214
-0.49820300306096,0.20989266959717
-0.4901307118467,0.191915842150466
-0.482421200765098,0.173601347797634
-0.475097225890448,0.154985034082527
-0.468179435713992,0.13610407340859
-0.461686291328108,0.116996824692594
-0.455633995429395,0.0977026902783278
-0.450036430421688,0.0782619686755179
-0.444905105863931,0.0587157037058383
-0.440249115470719,0.0391055306521087
-0.4360751038354,0.019473520018697
-0.432387243007048,-0.000137980479378241
-0.429187219013457,-0.0196865050741311
-0.426474228382875,-0.0391296296199669
-0.424244984677465,-0.0584251311555753
-0.422493735011747,-0.0775311467216341
-0.42121228648965,-0.0964063308065458
-0.420390042454409,-0.11501001079785
-0.420014048406599,-0.133302339824866
-0.420069047407217,-0.15124444638843
-0.420537544745065,-0.168798580186337
-0.421399881610914,-0.185928253558166
-0.422634317485166,-0.202598377990515
-0.424217120911141,-0.218775395143278
-0.426122668292834,-0.234427401879259
-0.428323550324103,-0.249524268803243
-0.430790685625972,-0.264037751842323
-0.433493441140113,-0.277941596426887
-0.436399758799709,-0.291211633860998
-0.439476287974021,-0.303825869501845
-0.442688523160013,-0.315764562400429
-0.446000946373565,-0.327010296089475
-0.449377173674124,-0.337548040239678
-0.452780105240238,-0.347365202941557
-0.456172078399275,-0.356451673407385
-0.459515023002921,-0.364799854925603
-0.462770618530679,-0.3724046879388
-0.465900452296742,-0.379263663155455
-0.468866178131191,-0.385376824645175
-0.471629674904567,-0.390746762906842
-0.474153204265455,-0.395378597938849
-0.47639956696383,-0.399279952380214
-0.478332257138471,-0.402460914830734
-0.479915613954826,-0.404933993497258
-0.481114969990173,-0.406714060351523
-0.481896795775822,-0.407818286022548
-0.482228839921297,-0.408266065683394
-0.482080264262951,-0.408078936227694
-0.481421773499179,-0.407280485065949
-0.480225738796234,-0.405896250904752
-0.478466314872545,-0.403953616903908
-0.476119550095279,-0.401481696636573
-0.473163489150589,-0.398511213306108
-0.469578267878417,-0.395074372700016
-0.465346199893788,-0.391204730386157
-0.460451854649074,-0.386937053679248
-0.454882126625649,-0.382307178926358
-0.448626295378524,-0.37735186467865
-0.441676076193784,-0.372108641332896
-0.434025661155908,-0.366615657840283
-0.425671750460035,-0.3609115260916
-0.416613573842935,-0.355035163597103
-0.406852902045604,-0.349025635086083
-0.396394048259954,-0.342921993655395
-0.385243859551733,-0.33676312209799
-0.3734116982916,-0.330587575041725
-0.360909413665874,-0.324433422525489
-0.347751303377785,-0.318338095633931
-0.333954065689031,-0.312338234803918
-0.319536741989617,-0.30646954140516
-0.304520650121657,-0.300766633184475
-0.288929308719349,-0.295262904147773
-0.272788352863027,-0.289990389436208
-0.256125441379648,-0.284979635733131
-0.238970156155111,-0.280259577716444
-0.221353893855594,-0.27585742104702
-0.203309750485072,-0.271798532357821
-0.18487239923472,-0.268106336680606
-0.166077962106349,-0.264802222717527
-0.146963875816862,-0.261905456333814
-0.127568752513287,-0.259433102615064
-0.107932235848558,-0.257399956798672
-0.0880948529866302,-0.255818484353688
-0.068097863121608,-0.254698770447075
-0.0479831031094344,-0.254048478997076
-0.0277928308221103,-0.25387282147632
-0.00756956684345657,-0.254174535588623
0.0126440648680232,-0.254953873904202
0.0328054967194539,-0.256208602498512
0.0528723769958677,-0.257934009600199
0.0728027285140114,-0.26012292421391
0.0925551057907776,-0.262765744644122
0.112088750105164,-0.265850476806827
0.131363741841025,-0.269362782177063
0.150341149508736,-0.273286035182024
0.168983174856942,-0.27760138981197
0.187253293501204,-0.282287855184581
0.205116390513996,-0.287322379762831
0.222538890440622,-0.292679943892108
0.239488881227611,-0.298333660289271
0.255936231574372,-0.304254882084766
0.271852701244923,-0.310413317988917
0.287212043904442,-0.316777154125207
0.301990102075041,-0.323313182046931
0.316164893836388,-0.329986932428975
0.329716690929566,-0.336762813903982
0.342628087956626,-0.343604256491702
0.354884062403617,-0.350473859052077
0.366472025251245,-0.357333540176611
0.377381861974664,-0.36414469191892
0.38760596377197,-0.370868335754024
0.397139248899769,-0.377465280147115
0.405979174033362,-0.383896279106079
0.414125735608679,-0.390122191088139
0.421581461142823,-0.396104137629526
0.428351390569775,-0.401803661068164
0.434443047667457,-0.407182880732918
0.439866401691605,-0.412204646978994
0.444633819370727,-0.416832692457597
0.448760007454667,-0.421031780018885
0.452261946046722,-0.424767846660584
0.455158812985801,-0.428008142950272
0.457471899580611,-0.430721367367263
0.459224518032136,-0.432877795030154
0.460441900913595,-0.434449400298304
0.461151093108608,-0.435409972759822
0.461380836638126,-0.435735226144794
