1.03450195026921,0.879404663665864
1.02576085497464,0.911228414669707
1.00361784334552,0.903434865986515
1.01079527960824,0.885350754632613
0.997948074555554,0.884654233165878
1.03365023108445,0.855788392739971
0.958127087452887,0.854198401470342
0.978743658289936,0.834629669542186
0.962850534402436,0.84154556192032
0.959591543411622,0.800795513731308
0.951101255830143,0.78729939704278
0.942624494289597,0.773969142935977
0.934161654830823,0.760803107375881
0.909721538805824,0.743577439141894
0.942174417715661,0.745408033390408
0.90557583399516,0.725330528249524
0.8970873850005,0.697373946369589
0.928056333462104,0.686680341878432
0.869469820421309,0.660639209083633
0.880498150083326,0.658408866035
0.889962053214858,0.664776666644281
0.858688380691175,0.64943932640067
0.847974678712753,0.667288004283916
0.851577293941542,0.646899056545166
0.818283797429073,0.632070046997644
0.816022045965258,0.59316729851275
0.801109054027868,0.571170714554399
0.830536548688762,0.568352922720469
0.802073010990778,0.553537402237775
0.792811059155514,0.560625293535625
0.772242038293941,0.549202177938227
0.776545245530059,0.539831415565246
0.761889247787049,0.531540893965274
0.79831184752249,0.517312352522717
0.768533881209953,0.511017935870833
0.750103101893467,0.49636456969511
0.736272257258368,0.490202506934341
0.740970285099672,0.512722984864482
0.735483384236251,0.488689021053292
0.701936253153087,0.454745705576509
0.7044832418751,0.452843265877121
0.691522509030838,0.491966770329604
0.705997521025906,0.429358477782433
0.672688670255123,0.414004184267144
0.680730884491974,0.360609423259766
0.662665156708528,0.446896140312339
0.657575634089114,0.40053897802675
0.649853351563706,0.392243182948785
0.649008887869182,0.38648418529114
0.649158195435262,0.384065119301213
0.603109083477988,0.336961760199918
0.609174140474094,0.394837300334761
0.6041296392775,0.344901816962437
0.623898074444946,0.339506706389224
0.588987991466776,0.351160985502756
0.574256874383665,0.315583835006341
0.547763394227368,0.317557561555068
0.559512736446873,0.301573952183287
0.559579174213321,0.291506305437217
0.544900863652774,0.287986527367185
0.552296589481883,0.298146981932489
0.565383576670718,0.283205217123017
0.504930610398914,0.28028838974446
0.487447760420762,0.28106655269691
0.507593584411752,0.247548439275812
0.506679740451578,0.255855268306313
0.494844722951947,0.24364901010014
0.494971719765936,0.264682125480858
0.480865448725496,0.231870404286686
0.473931407531262,0.226124804397174
0.468243187152621,0.232217900451649
0.426163682856593,0.226332078954784
0.453356039835707,0.209452205884916
0.437498720108383,0.228870894418565
0.454980083863978,0.183294775964226
0.426464747601463,0.188505976132236
0.449664807902293,0.14007356382141
0.425965379484799,0.177233474991647
0.430451720357116,0.179500535927558
0.400214269454109,0.168976657759554
0.393754389064973,0.164309368503633
0.3570043446235,0.152096985906865
0.416955008044714,0.179433291467811
0.368336070195118,0.146475326693438
0.355884330843411,0.138047817614795
0.33488212654014,0.12299227304768
0.349227850848762,0.162913940498211
0.346963704541968,0.135551134019557
0.335586209400842,0.0934700509632773
0.319590308093909,0.114645046910607
0.313699429359889,0.111010249709231
0.307854568386801,0.107449223734881
0.296304133791091,0.100545310162626
0.290599170888326,0.0972008405387494
0.284941447135993,0.0939269779522793
0.327667100091508,0.0758825605365968
0.27075354128502,0.0496086547736796
0.237365944158214,0.0755869224754247
0.260762829363336,0.0823842140027702
0.241353888160084,0.0879070426341197
0.242614511410288,0.0716494444771996
0.257777870540264,0.0509454225090165
0.19379036526696,0.113474404007946
0.231026814950096,0.0648998337892575
0.225457465792727,0.0392283171684956
0.211042912985453,0.0948222979658221
0.205941193691547,0.0527620302768947
0.215278865857986,0.0592378157197429
0.169959968006363,0.0440498395506353
0.180734826920702,0.0355834285792608
0.171956944489261,0.0675242688454897
0.148419401135073,0.00841175203678254
0.144150523056048,0.0316852095827062
0.164530599336237,0.0519589314917718
0.146842990751502,0.0277824864876589
0.138559978710078,0.0247074536377565
0.148762089471858,-0.0197982653956066
0.134957600239817,0.0523753656005466
0.0944007965482854,0.0307172570832193
0.125543232904981,-0.0187590503818272
0.0966077036072415,-0.00227104550635721
0.116719297127655,0.0206979552623539
0.0810469626479211,0.0373597319784491
0.118325346229299,0.00209069552801497
0.0997878256107281,-0.00349641682635121
0.107297351620094,0.0110175754500459
0.102382701338168,0.00564341640839997
0.0741336352509762,0.00476995840291602
0.0878304336278677,0.00174338502657256
0.0496676457491248,0.0178116229047457
0.0793277275235185,0.0182998885900296
0.0541367757983033,0.000195094306388642
0.0528892722309019,0.00270297663282569
0.0489558016021905,-0.000844737588032032
0.0483460576839703,0.0218212725716691
0.0685508549345069,0.00705520844267336
0.0643273565867594,-0.0252456342788965
0.00227445308528879,0.017689612124053
0.0286049307678022,-0.0042717844636067
0.0211563167138564,-0.0109295050236813
0.0229073214689975,-0.00502025938218436
0.0240852999820131,0.00447757194928001
0.0139277463247715,-0.0184079742697937
0.0235661196637881,0.0114267256118379
0.0428683121675785,-0.004311631345092
0.0220161340249967,-0.00787329313140631
-0.00683204624019629,0.0043679583680484
-0.00366620031222046,0.0288722059819375
0.00230101339216139,-0.0197409732195041
0.0045573563752032,-0.00662067092303997
0.0043005791286871,0.021933319520278
0.0438264171706758,0.0134793242183828
-0.0106915527563203,0.00705543560076233
-0.00403868331247941,-0.00493089327912949
-0.0174414902684224,-0.00114196913267547
0.00668154783082269,-0.0110498879491277
-0.0275078626981123,-0.018897160668146
0.00232611291921411,-0.0321192316642608
-0.0055742056591905,-0.0130393487808446
-0.00361003597501802,-0.00673413360897475
-0.0191800638383193,-0.0223825241320227
-0.00448882979571846,0.00410038474852754
-0.00379398227933918,-0.00672639858025232
0.00704505141109964,-0.0159645754961252
0.00271583208551232,-0.0232723793614693
-0.00342657048474457,-0.00675082504268337
-0.00287591364471402,-0.0067946228429565
-0.0297755305278098,-0.0326353057235685
-0.00208118899914014,-0.0068671789917978
-0.00159245541970899,-0.00691604783425482
0.0413505344092957,0.0095807947171889
0.0225877989234823,-0.00769315205342377
0.00900943704180442,-0.0200305845065176
0.00814713841040411,-0.0372495015731064
-0.0450749913310889,-0.00513110572222519
0.00778028686227732,-0.00822990285563604
-0.011773260287901,-0.00850620128459675
-0.000163106344751812,-0.0295177525354372
0.0144413684969935,-0.00946098491975064
-0.0103454963258632,0.0294448607626752
0.0175212001537722,-0.0100945839626281
0.052734585820299,-0.00157614127931423
0.0622541437871791,-0.00585857643788166
0.0298114562354176,-0.0142034715090066
0.0301499114306241,-0.013053100072687
0.0364337287802324,-0.0147169455721796
0.038643335385972,-0.0153296121226002
0.00584911037816262,0.00798309277176946
0.0480520333623357,-0.0180896629067292
0.0491261017897135,0.00651941223227951
0.0303095288920298,0.0244361612230087
0.0950945646294921,0.00985683510467567
0.0638549780303104,-0.0232367607342324
0.0666833780869365,-0.0242212951625018
0.0750830216786884,-0.0262925207166435
0.0816947559235591,-0.0192574942313268
0.084801570609082,-0.0309538308420419
0.119921446475461,-0.0593026958724048
0.0945881759035907,-0.0348829243508034
0.100547438419747,-0.0154103904461233
0.109437187889504,-0.0481783400991997
0.102087503661532,-0.0621297990114187
0.134326068655577,-0.0567024851042749
0.119264006989309,-0.0456438714576432
0.122995653788549,-0.0473737434839618
0.13578412530675,-0.0604964665904562
0.132780222004401,-0.0277315522138106
0.163060443190706,-0.0675580241182746
0.180026422518281,-0.0990097707385871
0.153892213892036,-0.0990272186318824
0.192289314352179,-0.10540456327432
0.219058347870374,-0.111283804266835
0.239882094950906,-0.106084085585945
0.226104060283759,-0.123818994697781
0.236987267854641,-0.11211980138655
0.272772785064709,-0.138043873342341
0.30792767607356,-0.181023811287187
0.294170796075295,-0.156874850059112
0.310648335398569,-0.165545378328918
0.316201930134639,-0.169934664337209
0.302298013973322,-0.144719826947051
0.356086706711092,-0.202955732976072
0.386672835842129,-0.204578264019904
0.364988279139131,-0.194447331540221
0.357480187252486,-0.248205502313258
0.391604857616774,-0.234599113078618
0.403700406732199,-0.245863523600241
0.388208643843668,-0.276174807216033
0.440706778718163,-0.281896985989369
0.47941547717023,-0.293362358699764
0.459592754555501,-0.301214617131477
0.44142974989494,-0.323999875367159
0.517140989710788,-0.311425871329408
0.488069790458836,-0.311825731328321
0.501931729918209,-0.3378281160539
0.497077977435794,-0.407077955399382
0.555001500999792,-0.397939386731626
0.564044214638816,-0.419973649753918
0.558139699709715,-0.437971233239825
0.603791273414067,-0.487515831023893
0.645667302307871,-0.528014951188243
0.673330702981648,-0.567977052761272
0.757223784679981,-0.70068597005243
0.781239369638695,-0.766048642707147
0.879430838450457,-0.913123125122871
0.897986961229166,-0.969460913690548
0.902818795715147,-0.969695054415748
0.934531687295016,-0.996742161743177
0.932933415499678,-1.04707565998701
