0.83360424023277,-0.583532532439858
0.83306028895388,-0.58305559354122
0.831481119262031,-0.58157009870135
0.828951526622687,-0.579000047220444
0.825563370637467,-0.575278010922683
0.821414738419656,-0.57034575806052
0.816609052771617,-0.564154795449249
0.811254133123849,-0.556666823990069
0.805461217616752,-0.547854103512431
0.799343955052693,-0.537699723675306
0.793017375714647,-0.526197778504959
0.786596850236141,-0.513353443006387
0.780197045813688,-0.499182951159056
0.773930889076543,-0.48371347548725
0.767908544869116,-0.466982909273273
0.76223642005933,-0.449039553350203
0.757016201262878,-0.429941710262018
0.752343935070678,-0.409757189405238
0.748309158987577,-0.388562727560222
0.744994090837885,-0.366443329975042
0.742472883871653,-0.343491537873482
0.740810954219428,-0.319806628915022
0.740064386697727,-0.295493757732736
0.740279424268424,-0.270663044209511
0.741492045708916,-0.24542861761919
0.743727635262927,-0.219907625152867
0.747000747221189,-0.194219213668287
0.751314967534304,-0.168483493739078
0.756662873694404,-0.142820495238445
0.763026093245501,-0.117349123767418
0.770375460402496,-0.0921861272301924
0.778671269383508,-0.0674450817685442
0.78786362219736,-0.0432354060945894
0.797892867785334,-0.0196614130077954
0.808690128601278,0.00317859344957543
0.82017790993404,0.0251931671515549
0.832270786537983,0.0462985077939785
0.844876160447583,0.0664191805247463
0.857895083217023,0.085488760886232
0.871223135250857,0.103450399323518
0.884751354382423,0.120257300229661
0.898367205417283,0.135873111261596
0.91195558199338,0.150272219460714
0.925399831821259,0.163439951543551
0.938582796158978,0.175372676582845
0.951387854249291,0.186077810169998
0.963699963402249,0.195573720028804
0.975406685445171,0.203889533929427
0.986399190383369,0.211064851623156
0.996573228318251,0.217149363374632
1.00583006095243,0.222202378501476
1.01407734437191,0.226292268134007
1.02122995522992,0.229495827172933
1.0272107529617,0.231897561143718
1.03195127123028,0.233588904316253
1.0353923324341,0.234667376071631
1.03748457979395,0.23523568304864
1.03818892227168,0.235400775086315
1.03747688835042,0.23527286339096
1.03533088551929,0.234964409693086
1.03174436314647,0.234589095418425
1.0267218772861,0.23426078007547
1.0202790568395,0.234092458158151
1.01244247137073,0.234195223875485
1.00324940175397,0.234677252950181
0.992747515696656,0.235642810575895
0.98099445103107,0.237191294389438
0.96805731048935,0.239416321001871
0.954012072466762,0.242404864243799
0.938942923027172,0.24623645281882
0.922941515107222,0.250982434529114
0.906106161525006,0.256705313643226
0.888540968989448,0.263458167323603
0.870354920832812,0.271284146326147
0.851660916646043,0.280216064432221
0.832574777381045,0.290276080281995
0.813214224791924,0.301475474453657
0.793697844316042,0.313814523783344
0.77414404064336,0.327282474053139
0.754669995287679,0.341857611296946
0.735390635455424,0.357507431094236
0.716417623406744,0.374188904347547
0.697858375320812,0.391848837178816
0.679815118413892,0.410424321740014
0.662383994717456,0.429843273922465
0.645654219507251,0.450025053173976
0.629707301886661,0.470881158900421
0.614616334473126,0.492315997245142
0.600445358519865,0.514227711411699
0.587248810132151,0.536509068128541
0.575071052513851,0.559048392353327
0.563945998412455,0.581730541884209
0.553896826126095,0.604437913189322
0.544935791601331,0.627051469487192
0.537064138293232,0.649451781912169
0.530272105587101,0.671520074482249
0.524539035701861,0.693139263552594
0.519833578116559,0.71419498248721
0.516113989691384,0.734576582413022
0.513328527800863,0.754178100133857
0.51141593296712,0.772899184574714
0.510305996682601,0.790645973496582
0.509920209351657,0.807331912665545
0.510172482565605,0.822878510173245
0.510969939262709,0.837216019184098
0.51221376471889,0.850284043023103
0.513800110772263,0.862032057210752
0.515621045209632,0.872419843792317
0.517565537840185,0.881417834091115
0.519520474454238,0.889007356832168
0.521371689616115,0.895180789426715
0.523005009072155,0.899941611071826
0.524307292468997,0.903304357195136
0.525167467074499,0.905294475654672
0.525477543273821,0.90594808598006
0.52513360277574,0.905311643806238
0.524036750707654,0.903441513496427
0.52209402309981,0.900403452770035
0.51921924165719,0.896272013936021
0.515333808187677,0.891129867076102
0.510367431593377,0.885067051218309
0.504258780933484,0.878180160183674
0.496956058726548,0.870571470371515
0.488417489371449,0.862348018266564
0.478611718323543,0.853620635899651
0.467518118458525,0.84450295286859
0.455127000884439,0.835110373824147
0.441439728314644,0.825559040544694
0.426468729983675,0.815964787860555
0.410237417966251,0.806442102743803
0.392780005639154,0.797103095850912
0.374141229898643,0.788056494694481
0.354375979604581,0.779406667427208
0.33354883355894,0.771252685948083
0.311733512133358,0.763687436689905
0.289012247430653,0.756796787021762
0.265475077591951,0.750658814703885
0.241219071537701,0.745343107269736
0.21634749105142,0.740910137586251
0.190968897673919,0.737410721163541
0.165196212368094,0.734885560055944
0.139145736335647,0.733364877423816
0.112936141713642,0.732868146016546
0.0866874411475072,0.733403912999371
0.0605199454254694,0.734969722686994
0.0345532184659705,0.737552137873529
0.00890503897316855,0.741126859568629
-0.0163096219838418,0.745658944071718
-0.0409795983544793,0.751103115447827
-0.0649984925625751,0.757404170617364
-0.0882655964471069,0.7644974734459
-0.11068676147944,0.772309533425977
-0.132175210501208,0.780758663788251
-0.152652283748624,0.789755713170597
-0.172048112515219,0.799204864317527
-0.190302214450495,0.80900449268421
-0.207364005191005,0.81904807728488
-0.223193221766737,0.829225155659264
-0.237760254012678,0.839422314437017
-0.251046381036049,0.849524206662432
-0.26304391063665,0.859414586802934
-0.273756220443435,0.868977354206959
-0.283197700407191,0.878097595701363
-0.291393597169079,0.886662618026069
-0.298379761700152,0.894562960894206
-0.304202302469755,0.901693381638723
-0.308917147243476,0.907953802659841
-0.31258951742631,0.913250213219381
-0.315293319646855,0.917495517535235
-0.317110460016545,0.920610321608106
-0.318130087187702,0.922523651759119
-0.31844777096928,0.923173598465981
-0.318164623834016,0.922507879751635
-0.317386373160087,0.920484319096881
-0.316222392489824,0.917071233610876
-0.314784700453548,0.912247728993809
-0.313186936295031,0.906003898657491
-0.311543321143737,0.898340925224392
-0.309967614306094,0.889271083496482
-0.308572073892446,0.878817644863993
-0.307466431057596,0.86701468400343
-0.306756887011337,0.853906789585611
-0.30654514175223,0.83954868157079
-0.30692746319479,0.824004738501045
-0.307993804999897,0.807348439002965
-0.309826980983687,0.789661722478821
-0.312501903475432,0.77103427468523
-0.316084892424371,0.751562744568274
-0.320633061424282,0.731349899337163
-0.326193786138351,0.71050372530942
-0.332804259871789,0.689136482544199
-0.340491140262149,0.667363721692527
-0.349270290244406,0.645303271830194
-0.35914661560682,0.623074208297813
-0.370114000591861,0.600795809750809
-0.382155342121791,0.578586513718295
-0.395242682348643,0.556562879982992
-0.409337438351116,0.53483857102452
-0.424390726934273,0.513523358616078
-0.440343781639409,0.492722165431175
-0.457128458248877,0.472534150204658
-0.474667824281087,0.453051844603705
-0.492876827221622,0.434360349503088
-0.511663035533916,0.416536597829003
-0.530927445843658,0.399648690541893
-0.550565349100639,0.383755311676161
-0.570467247995623,0.368905227649358
-0.590519817452446,0.355136875301665
-0.610606899631251,0.342478042334862
-0.630610524570786,0.330945642995687
-0.650411947368901,0.320545590998766
-0.669892692652741,0.311272770816816
-0.688935597025035,0.303111107588269
-0.707425840190825,0.296033735012679
-0.725251955569845,0.290003259730114
-0.742306811382709,0.284972119819973
-0.758488553462309,0.280883034215054
-0.773701501383203,0.277669539015572
-0.787856989918071,0.275256605912633
-0.800874148317963,0.273561337198127
-0.812680610467584,0.272493731154771
-0.823213149583416,0.271957510992147
-0.832418231795478,0.271851009927687
-0.840252483677053,0.272068104510651
-0.846683069554225,0.272499187856765
-0.85168797523177,0.273032174105098
-0.855256195606708,0.273553525130233
-0.857387824498039,0.273949290344188
-0.858094045893421,0.274106150305762
-0.857397026692814,0.273912454820981
-0.85532971190776,0.273259246267429
-0.851935524144976,0.272041259007028
-0.847267970056692,0.270157885965123
-0.841390157269958,0.267514103746579
-0.834374226105634,0.264021348029471
-0.826300701157761,0.259598331420456
-0.817257768518844,0.25417179646919
-0.807340485099689,0.247677197117542
-0.79664992709816,0.240059302497754
-0.785292285213851,0.23127271768636
-0.773377914680702,0.221282316761485
-0.761020348592466,0.210063584293423
-0.748335283323308,0.197602862215221
-0.735439545094615,0.183897499864053
-0.72245004690719,0.16895590584793
-0.709482745143829,0.152797501268069
-0.696651605150097,0.135452574707201
-0.684067585020964,0.116962040270416
-0.671837646658377,0.0973771008299403
-0.660063802921523,0.0767588194709228
-0.648842209369429,0.0551776029541799
-0.638262308697642,0.0327126017967258
-0.628406035500581,0.00945103231474241
-0.619347088452874,-0.0145125733302128
-0.611150276401507,-0.0390771823986881
-0.603870944201129,-0.0641361348887925
-0.597554483413419,-0.0895780671160831
-0.592235932234284,-0.115287877325912
-0.587939668216547,-0.141147724731313
-0.584679196527926,-0.167038053071303
-0.582457035631744,-0.192838629565712
-0.581264701408626,-0.218429590005299
-0.581082789859221,-0.243692480661131
-0.581881157648417,-0.268511287725581
-0.58361919887867,-0.292773445108486
-0.586246215621503,-0.316370811605033
-0.58970187889975,-0.339200608725182
-0.593916776006171,-0.361166310825289
-0.598813039273738,-0.382178479608052
-0.604305050686255,-0.402155535553144
-0.610300216041261,-0.421024459403483
-0.616699801756682,-0.438721417455949
-0.623399826853725,-0.455192305085096
-0.630292002156232,-0.470393203657701
-0.637264708325402,-0.484290746768601
-0.644204004002253,-0.496862392537125
-0.650994655061522,-0.508096599541338
-0.657521175792273,-0.517992904826915
-0.663668872713999,-0.526561903300945
-0.669324881713379,-0.533825128700619
-0.674379189246369,-0.539814837204702
-0.678725628492321,-0.544573695624136
-0.682262841570205,-0.548154376959258
-0.684895199229631,-0.550619066937407
-0.686533669808659,-0.552038885938757
-0.687096629702831,-0.552493231472898
-0.686510608111539,-0.552069047077406
-0.684710959414042,-0.550860024165906
-0.681642457172926,-0.548965743951207
-0.677259804461864,-0.546490767103587
-0.671528055960854,-0.543543679270464
-0.66442294804915,-0.540236100977367
-0.655931133946692,-0.536681670747802
-0.646050321801818,-0.532995010518403
-0.634789314488698,-0.529290682583661
-0.622167950754691,-0.525682147379987
-0.608216948237737,-0.522280731411308
-0.592977649749208,-0.519194614527842
-0.57650167508048,-0.516527845596998
-0.558850481434225,-0.514379395351963
-0.54009483639642,-0.512842254871836
-0.520314208145238,-0.512002587740013
-0.499596078331166,-0.511938943448604
-0.478035183752471,-0.51272153907024
-0.455732693585234,-0.514411615609526
-0.432795329502005,-0.517060874780169
-0.409334436522534,-0.520711001236239
-0.385465012879452,-0.525393274523646
-0.361304707547337,-0.531128274217476
-0.336972794372003,-0.537925680879452
-0.312589131945505,-0.545784174614938
-0.288273118499471,-0.554691432138147
-0.264142651133759,-0.56462422237539
-0.240313098658668,-0.575548599757081
-0.216896297207491,-0.587420193477668
-0.193999577572976,-0.600184590146498
-0.171724832938234,-0.613777806419396
-0.150167635312221,-0.628126847397992
-0.129416408545437,-0.643150345818587
-0.109551665296667,-0.65875927633162
-0.090645314751076,-0.674857738502786
-0.0727600472587997,-0.691343801553759
-0.0559488013769315,-0.708110403309596
-0.0402543180626857,-0.725046295336255
-0.0257087859880447,-0.742037025839501
-0.0123335811332936,-0.758965951559524
-0.000139102975791311,-0.77571526963683
0.0108752912713924,-0.792167060246711
0.0207212537910411,-0.808204330703415
0.0294213149634977,-0.823712051721943
0.037008655015627,-0.838578176595238
0.0435267805608508,-0.852694634196833
0.0490291089225207,-0.865958286952406
0.0535784639555417,-0.878271845236094
0.0572464878706768,-0.889544730036013
0.0601129743152798,-0.899693876194791
0.062265128666672,-0.908644469060927
0.0637967621436939,-0.916330607980696
0.0648074269323654,-0.922695890712823
0.0654015000477871,-0.927693913553464
0.0656872241117309,-0.931288682710839
0.0657757136097234,-0.933454933260448
0.0657799354993616,-0.934178352836135
0.0658136732704334,-0.93345570806196
0.0659904837050157,-0.93129487259734
0.0664226556508642,-0.927714756545485
0.0672201801034517,-0.922745137854925
0.0684897407911155,-0.916426397218112
0.0703337342748982,-0.908809158831814
0.0728493283113507,-0.899953840223695
0.0761275668852545,-0.889930115160531
0.0802525299028744,-0.878816294428779
0.0853005550487511,-0.866698630010713
0.0913395287544938,-0.853670548862617
0.0984282526115036,-0.839831823129371
0.106615890886537,-0.82528768419672
0.115941504075526,-0.810147888483358
0.12643367266354,-0.794525743305423
0.138110214454059,-0.778537101502004
0.150977997996015,-0.762299333788864
0.16503285377982,-0.745930288006135
0.18025958400134,-0.729547244542561
0.196632070813581,-0.713265877252838
0.214113482107126,-0.697199229135528
0.232656572990446,-0.681456711907214
0.252204080287395,-0.666143138395291
0.272689206539397,-0.651357796378967
0.294036189201467,-0.637193572138103
0.316160949961021,-0.62373613152613
0.338971818393857,-0.611063165869871
0.3623703235083,-0.599243709420862
0.386252046123085,-0.588337534444224
0.410507524481624,-0.578394629338612
0.435023205030542,-0.569454764439847
0.459682429887306,-0.561547149378652
0.484366452194483,-0.554690185046029
0.508955470309379,-0.548891312375794
0.533329671609659,-0.544146959290005
0.557370276609812,-0.540442586277263
0.580960574080414,-0.537752830193898
0.603986937942411,-0.536041745001754
0.626339816871126,-0.535263137291456
0.647914687788111,-0.53536099359441
0.668612964741011,-0.536269995667895
0.688342855069559,-0.537916119152708
0.707020155225949,-0.540217310259051
0.724568979156138,-0.543084234440149
0.74092241275012,-0.546421090370863
0.756023088528653,-0.550126481965893
0.769823675445462,-0.554094340654358
0.782287279440978,-0.55821488967909
0.793387751179851,-0.56237564181407
0.803109898232329,-0.566462421595183
0.811449599811947,-0.57036040294076
0.818413823051154,-0.573955152900968
0.824020540674776,-0.577133672220391
0.828298550810707,-0.579785423426463
0.831287200550162,-0.581803337267633
0.83303601572833,-0.583084788518187
0.83360424023277,-0.583532532439858
