0.969722011322092,-0.25189024983521
0.968977508072428,-0.25180580523189
0.966759597887657,-0.251459411369038
0.963103381091335,-0.250714012315033
0.958059191700059,-0.249437284260457
0.951691984960622,-0.247503276806357
0.944080547957461,-0.244793976906842
0.935316542872752,-0.241200776473162
0.925503394512802,-0.236625825815844
0.91475503560459,-0.230983256487238
0.903194525092691,-0.22420025867211
0.89095255620826,-0.216218000039538
0.878165872419646,-0.206992374893788
0.864975610492257,-0.196494574521836
0.85152559076995,-0.184711471805595
0.837960575430757,-0.171645815421534
0.824424515858354,-0.157316231261719
0.811058810402675,-0.141757031050407
0.798000593676825,-0.125017830470711
0.785381078154492,-0.107162981428183
0.773323968197096,-0.0882708253342987
0.761943965760527,-0.0684327764654423
0.751345385918389,-0.0477522465156472
0.732850414647898,-0.00432991904774493
0.725100121224583,0.0181566971810891
0.712851670473336,0.0639926595627703
0.708411033681283,0.0870535201296107
0.705104953278857,0.11001395680386
0.702922742769449,0.132727317818129
0.701838000242356,0.155049133983348
0.701808941971772,0.176838839804932
0.702778923241001,0.197961447423956
0.704677140066439,0.218289153071964
0.707419503299813,0.23770285654719
0.710909674494649,0.256093575275726
0.7150402509592,0.273363735800691
0.719694085607004,0.289428327030265
0.724745725579897,0.30421590125344
0.730062952176401,0.31766941078019
0.735508403388628,0.32974687005796
0.746218970215725,0.349683695355509
0.751199005540879,0.357537771662976
0.755740603843718,0.364005223807442
0.759706501184651,0.369122764108625
0.762964617729756,0.372942183346815
0.765389681835728,0.375529693846122
0.766864771934829,0.376965097830985
0.76728275749818,0.377340791157881
0.766547621580657,0.376760614522429
0.76457564888802,0.375338566093435
0.761296464939143,0.373197391207404
0.756653913703636,0.370467066249314
0.750606763055721,0.367283195129762
0.734211315620425,0.360115291306678
0.723858956669291,0.356415343641023
0.712093973646002,0.35282652261244
0.698953834293538,0.349486859980881
0.684491224388335,0.346529692542109
0.668773434694267,0.34408202058823
0.651881570990943,0.342262943704761
0.633909596758835,0.341182192897114
0.614963220135004,0.340938776870007
0.595158638643436,0.34161975889751
0.553483694276354,0.346037135468038
0.531885199994963,0.349879034035929
0.509968995945569,0.354855018573468
0.487881066272937,0.360979585461792
0.465768315126375,0.368251389190394
0.443776813500056,0.37665324058813
0.422050056468019,0.386152297850365
0.400727251961154,0.396700448047803
0.379941661850487,0.408234874490258
0.35981901546613,0.420678803062481
0.340476014801883,0.433942418476525
0.322018949542521,0.447923939322503
0.304542438717593,0.462510838871809
0.288128314248461,0.477581196817589
0.272844659932846,0.493005165547637
0.258745017524291,0.508646533154573
0.245867769535593,0.524364364213726
0.23423570625003,0.540014698415037
0.223855782188104,0.555452286432913
0.21471906497776,0.570532341965781
0.200061129762566,0.599053480860325
0.186292645536045,0.635751683069163
0.180351020080845,0.662423136440669
0.179241951525082,0.673495625974824
0.179152615374719,0.676855365087513
0.179188645367739,0.678726536450596
0.179208829934489,0.679100712214856
0.178638489995299,0.675404036216778
0.177772442610377,0.671395524458498
0.176342918554822,0.66601393605487
0.174225808595169,0.659327764934491
0.1713053175017,0.651419112947492
0.167475404732432,0.642382693027008
0.15671972461622,0.621361421751065
0.149641863324972,0.609618030117099
0.131810733197847,0.584325918136988
0.120992219599732,0.57105716688846
0.108887599112169,0.55756482853217
0.080862786448025,0.530487037322071
0.0298565937782366,0.49173479087087
0.0107189062038775,0.479836587479313
-0.0302136011959241,0.458254331659551
-0.0517855199565616,0.44876137467588
-0.0739299140426541,0.440240287640334
-0.0965134657022135,0.43275369788869
-0.119396867030192,0.426349546978495
-0.142436477544532,0.421060519390359
-0.188398395366246,0.413880163681066
-0.233229067667207,0.411159089944312
-0.254864400273705,0.4113856684488
-0.295909948050712,0.414712515826141
-0.315077697847773,0.417651316318876
-0.333196952404125,0.421312062002362
-0.365924662146601,0.4303501239204
-0.38038348998816,0.435480785246437
-0.393496322764367,0.440843109961389
-0.405225022664889,0.446298711569058
-0.415547084215743,0.451706174518577
-0.424455877741915,0.456922789443222
-0.446378901265778,0.473079065024846
-0.448670393494331,0.475277238338246
-0.449958310879442,0.476635928743358
-0.449156612302756,0.475598927373688
-0.447542965772158,0.473306207775128
-0.442385462357247,0.464700442868926
-0.439109893903234,0.458297501354389
-0.424640187765083,0.418361418859377
-0.418542451319034,0.390101872367354
-0.416241104238215,0.37408244064806
-0.414596718245749,0.356911261294513
-0.413716465851381,0.338685344099584
-0.416559641646235,0.278813063487821
-0.419569914553934,0.257547116822077
-0.423693114736847,0.23585562513053
-0.451604004976559,0.147740141569452
-0.483941125049295,0.0842694864511166
-0.510051957927699,0.0452001486128178
-0.538915293513762,0.00976176887609137
-0.55408650335279,-0.00637556510150114
-0.56957780473786,-0.0213676529758391
-0.58525164845283,-0.0351646920260279
-0.616576958464438,-0.0590512238043366
-0.631938680477113,-0.0691188897983682
-0.675100477262338,-0.0920204397535753
-0.711071855704511,-0.105038550735758
-0.720911381787067,-0.107548592070633
-0.729511734530034,-0.109315512329944
-0.736793283062507,-0.110457176509422
-0.742690208222014,-0.111099412072193
-0.750153500208466,-0.111577870602903
-0.747211084846662,-0.112106891587716
-0.742853659704252,-0.1131017753474
-0.737138957228818,-0.114691859770375
-0.730138957968274,-0.116999316483263
-0.721939016176865,-0.120137632771291
-0.702341224260639,-0.129309018057676
-0.653714844702114,-0.161348191982431
-0.64037662641614,-0.172487992575642
-0.626851023228458,-0.184913710268051
-0.586585509541393,-0.229720633493347
-0.573730674926719,-0.247026596178629
-0.561377427970905,-0.265410731881263
-0.538643521550051,-0.305060957585109
-0.528471177529176,-0.326120529731971
-0.519214540161947,-0.347847677895829
-0.503726881386664,-0.392786393856692
-0.497599053040106,-0.415722445757197
-0.49259208587587,-0.438778319323807
-0.488719073058828,-0.461807367731908
-0.484348046341921,-0.507197945529873
-0.483797312083819,-0.529270967147444
-0.484275757640466,-0.55074358506931
-0.48571955994776,-0.571484207665486
-0.488051152794248,-0.591369199186606
-0.49118018325828,-0.61028434876228
-0.499412026903101,-0.644803401374621
-0.514880992155963,-0.687134047832423
-0.525711039239638,-0.7084813238934
-0.530857658944771,-0.717037632592738
-0.535635892470077,-0.724194770892343
-0.543534641778548,-0.734442809469723
-0.546391404223689,-0.737637126953997
-0.548355517049268,-0.739637796614817
-0.545205912608406,-0.737601776789725
-0.541251146228435,-0.735149389623194
-0.51131605058523,-0.721512070662831
-0.473986568536901,-0.711204239366288
-0.425126854306608,-0.704875702973807
-0.387263172070647,-0.704410653602576
-0.367075965321861,-0.705582451504481
-0.346221463261662,-0.707784530278611
-0.303060331927156,-0.71547586937169
-0.258921226053967,-0.727724666798403
-0.193432275087857,-0.754550705437574
-0.172361854628792,-0.765600737715699
-0.113233141374955,-0.804102116827048
-0.0342544027631779,-0.879756717377311
-0.010992015622279,-0.911021046031306
0.0299254804753229,-0.993508823651764
0.0330645921086634,-1.00421770058556
0.0353782948857096,-1.0137556194497
0.0379822477194126,-1.02897421713628
0.0387336334183637,-1.04122980195145
0.0387285983398507,-1.04198003624415
0.023019591148054,-0.959541587714487
0.0722459737033906,-0.966746786011006
0.0913353593844645,-0.940980416788047
0.132724494402771,-0.89704373471367
0.178847406336474,-0.861165161973459
0.237579349975356,-0.826593735553216
0.223557645654777,-0.796210981540807
0.332270288810413,-0.784330843739717
0.407416291528549,-0.782932518738861
0.440087795914702,-0.774685565645986
0.478681653545348,-0.776357086270523
0.575170947644013,-0.749492468925568
0.652775449942545,-0.826705584422842
0.616000420805618,-0.840645710679709
0.665568805740052,-0.837545306233899
0.651668833453982,-0.803787885620029
0.615247420083817,-0.840432059164301
0.610917058719069,-0.782489387716083
0.634142739867224,-0.73157333500076
0.633356826773325,-0.652494324233731
0.664861333578191,-0.485198381168485
0.749388518938871,-0.381492177103098
0.80331275230967,-0.280268213896845
0.897511567810548,-0.241422541983538
0.839979654210588,-0.236301093596856
0.971967700975838,-0.262799939884857
0.982921961787232,-0.245059036745837
