0.621685230665046,-0.719986577257664
0.621324076754346,-0.719578840325129
0.62027606949846,-0.718326730557685
0.618596971906844,-0.716190278867624
0.616345699730055,-0.713134225868874
0.613583944372898,-0.709128252379364
0.610375778799771,-0.704147179500524
0.606787248877032,-0.698171137031168
0.602885952687456,-0.69118569916915
0.598740610426265,-0.683181986656813
0.594420627546589,-0.674156734734167
0.589995653863926,-0.664112326475519
0.585535141354224,-0.653056791299754
0.581107903388204,-0.641003768660198
0.576781678135601,-0.62797243713571
0.572622698847137,-0.61398740935902
0.568695273679322,-0.599078593429931
0.565061377668045,-0.583281021668664
0.561780259381544,-0.566634647766938
0.558908064692368,-0.549184113590172
0.556497480001776,-0.530978487072197
0.554597397129466,-0.512070972822943
0.553252601947199,-0.492518597238639
0.552503488687719,-0.472381870061982
0.552385801701213,-0.451724424485649
0.552930406261422,-0.430612638025427
0.554163089843471,-0.409115236508379
0.556104395106588,-0.387302883626041
0.558769485618413,-0.365247758592073
0.562168045154605,-0.343023124517451
0.566304211199414,-0.320702890173807
0.571176543060859,-0.298361167856415
0.576778024799635,-0.276071830082534
0.583096102955082,-0.253908067867935
0.590112758835892,-0.231941953314705
0.597804614928973,-0.210244009216638
0.606143074768436,-0.188882788345041
0.615094495399284,-0.16792446501778
0.62462039136833,-0.147432441478254
0.634677668979491,-0.127466971519209
0.645218889362975,-0.10808480367942
0.656192558729311,-0.0893388462200017
0.667543444010649,-0.0712778559521053
0.679212911934364,-0.0539461528399861
0.691139289428789,-0.0373833621436863
0.703258243128609,-0.0216241856949299
0.715503175629063,-0.00669820371929337
0.727805636034247,0.00737029157156126
0.74009574225618,0.0205624295906697
0.752302612448414,0.0328648613658751
0.764354802901297,0.0442698252938957
0.776180749685906,0.0547751782551277
0.787709211310379,0.0643843919006006
0.798869709645993,0.0731065141383004
0.809592966391058,0.0809560960617243
0.819811332368219,0.0879530847776481
0.829459206995118,0.0941226828013937
0.838473445329218,0.0994951748950383
0.846793750164463,0.104105723425735
0.854363046750057,0.107994133516373
0.86112783780922,0.111204589447965
0.867038536657804,0.113785363951302
0.872049776358264,0.115788502193362
0.876120692992926,0.117269482420772
0.879215181300766,0.118286855367253
0.881302121093117,0.118901864663542
0.882355573044699,0.119178050605991
0.882354942646061,0.119180839743159
0.881285111300757,0.118977122827556
0.879136533754063,0.1186348237518
0.875905301248621,0.118222462144264
0.871593170014688,0.117808712338608
0.866207554917385,0.117461961454
0.85976148829921,0.117249869328347
0.85227354427162,0.117238933035356
0.84376772892357,0.117494058687803
0.834273337125971,0.118078143184261
0.823824776817973,0.119051668494852
0.812461361862406,0.120472311003923
0.800227074752394,0.122394568334184
0.787170300637905,0.124869405968526
0.773343534318666,0.127943925863039
0.758803062017288,0.131661059108452
0.743608619902689,0.136059284548171
0.727823031477864,0.141172375100276
0.711511826076992,0.14702917335907
0.694742840833838,0.153653397870398
0.677585808585769,0.161063481284814
0.660111934264799,0.169272441395124
0.642393462398354,0.178287785861057
0.624503238397465,0.188111451215037
0.606514266348559,0.198739776530576
0.588499266046605,0.210163511920007
0.57053023201203,0.222367861812413
0.55267799722146,0.235332562747077
0.535011804253097,0.249031995203864
0.517598886501529,0.263435328781015
0.50050406205433,0.278506699824149
0.483789342744302,0.294205420409168
0.467513560797125,0.310486217387433
0.451732015385097,0.327299500015265
0.43649614127426,0.344591654512677
0.421853201615268,0.362305363729302
0.407846006778679,0.380379949939926
0.39451266097395,0.398751738648623
0.381886338219209,0.417354441150275
0.369995089046945,0.436119553482029
0.358861679140288,0.454976769295573
0.348503460896641,0.47385440409487
0.33893227871136,0.492679828213469
0.330154408565187,0.511379905851354
0.322170532286567,0.529881437453637
0.314975746645038,0.548111602692724
0.308559607216076,0.565998401311691
0.302906206742229,0.583471089099918
0.297994287501632,0.600460606302029
0.293797386984191,0.616899995808115
0.290284015969359,0.6327248085364
0.287417867898553,0.64787349349888
0.285158058241388,0.662287770135258
0.283459392368945,0.675912980610372
0.282272660270688,0.688698419894355
0.281544956285226,0.700597641582403
0.281220021860116,0.711568737561294
0.281238609213182,0.721574589791776
0.28153886363826,0.730583092648675
0.282056722082752,0.73856734444295
0.282726325523487,0.745505806940801
0.283480442581889,0.7513824318932
0.28425090174976,0.75618675379354
0.284969029543628,0.759913948290319
0.285566091868824,0.762564855894512
0.285973735854564,0.764145970836256
0.286124429418349,0.764669395141387
0.285951895832063,0.764152758213776
0.285391540593073,0.762619102423107
0.284380867951329,0.760096735408304
0.282859884507495,0.756619050012996
0.280771487377271,0.752224312969906
0.278061834512657,0.746955423644611
0.27468069488147,0.740859644334601
0.270581776331193,0.733988303795731
0.265723029101517,0.726396475833991
0.260066923100789,0.718142634954954
0.253580697224149,0.709288291205366
0.246236579164355,0.699897606470184
0.238011974349121,0.690036994603233
0.228889622830078,0.679774707869741
0.218857723147066,0.669180412263773
0.207910022396037,0.658324754332439
0.19604587193831,0.647278922191328
0.183270248401772,0.636114203451533
0.169593739839673,0.62490154279771
0.15503249712859,0.613711101958695
0.139608150902474,0.602611824797352
0.123347694533266,0.59167101021447
0.106283333878945,0.58095389551312
0.0884523047257991,0.570523252804945
0.0698966590518696,0.560439000958992
0.0506630214317278,0.55075783549735
0.030802317087754,0.541532878730541
0.0103694732687829,0.532813352300182
-0.0105769041977482,0.524644274157487
-0.0319748771801709,0.51706618185474
-0.053759542202053,0.510114883863724
-0.075863415817154,0.503821240461398
-0.0982168360161581,0.498210975539811
-0.120748377182099,0.493304520505591
-0.14338527602746,0.48911689123542
-0.166053865877845,0.485657598849033
-0.188680016615405,0.482930594851676
-0.211189577560106,0.480934250984916
-0.233508820548715,0.479661373909571
-0.255564880470127,0.479099254628663
-0.277286190531414,0.479229752342933
-0.298602909561585,0.480029412218066
-0.319447338709388,0.481469616332591
-0.339754324957161,0.483516766869736
-0.359461648954415,0.48613250041669
-0.378510394771972,0.48927393204189
-0.396845299289466,0.492893927636404
-0.414415079055211,0.496941402830254
-0.431172732596981,0.501361646629825
-0.447075816314332,0.506096667769259
-0.462086692246786,0.511085561627918
-0.476172746186394,0.516264895438528
-0.489306574786962,0.521569109397214
-0.501466140514268,0.526930931188032
-0.512634893480831,0.532281801351458
-0.522801859413982,0.537552306859007
-0.53196169321576,0.542672620205283
-0.540114697786347,0.547572941294487
-0.547266807997968,0.552183939381071
-0.553429539922039,0.556437192323804
-0.55861990562766,0.560265620429128
-0.562860294082805,0.56360391219315
-0.566178318899576,0.566388939301751
-0.568606633870272,0.568560158314814
-0.570182717440597,0.570059996543014
-0.570948627458717,0.570834219723526
-0.57095072772304,0.570832279213707
-0.570239388026296,0.57000763654871
-0.568868659557652,0.56831806334915
-0.566895927677259,0.565725914717672
-0.564381544217783,0.562198374427461
-0.561388441594277,0.557707670380497
-0.557981731116431,0.552231258997496
-0.554228287995083,0.545751977393983
-0.550196325617234,0.538258162396448
-0.545954961730323,0.529743735658016
-0.541573779226523,0.52020825434302
-0.537122384251292,0.50965692706322
-0.532669964376902,0.498100594963627
-0.528284849581239,0.485555678071833
-0.52403407875471,0.472044087239924
-0.519982974423799,0.457593102221201
-0.516194728328868,0.442235216633767
-0.512730000426429,0.42600795076813
-0.509646533802949,0.408953633395232
-0.506998787888553,0.391119153923309
-0.504837592245565,0.372555686435724
-0.503209823079261,0.353318387316074
-0.502158104477404,0.333466068330526
-0.501720536231783,0.313060847189372
-0.501930449930273,0.292167777749282
-0.502816194832655,0.27085446214389
-0.504400954858864,0.249190647242278
-0.506702597825466,0.227247807931988
-0.509733557866291,0.205098719804834
-0.513500751767501,0.182817023889391
-0.518005529737117,0.160476786123314
-0.523243660915643,0.138152054291194
-0.529205353719089,0.115916415169351
-0.535875310889785,0.09384255461764
-0.543232818915291,0.0720018233400881
-0.551251871262642,0.0504638110010065
-0.559901324665641,0.0292959313314494
-0.569145087497967,0.00856302079276365
-0.578942339066072,-0.0116730467200493
-0.589247778464108,-0.0313537267518379
-0.600011901449954,-0.0504241504685202
-0.611181303627687,-0.0688334480051103
-0.622699008058769,-0.0865350469811132
-0.634504815272832,-0.103486944337761
-0.64653567351002,-0.119651949816861
-0.658726066901492,-0.134997899576751
-0.671008419183414,-0.14949783862594
-0.683313510443489,-0.163130170948171
-0.695570904318251,-0.175878776392921
-0.707709382994508,-0.187733093611223
-0.719657387319919,-0.198688168527131
-0.731343459295951,-0.208744668048697
-0.742696684211648,-0.217908858937708
-0.753647129678785,-0.226192551973343
-0.76412627884813,-0.233613011759911
-0.774067455122511,-0.24019283274178
-0.783406235735033,-0.245959782197935
-0.792080851629676,-0.250946611193231
-0.800032571166355,-0.255190834661965
-0.807206065272655,-0.258734481990608
-0.813549751779367,-0.261623819649395
-0.819016116805858,-0.263909047595592
-0.823562011203446,-0.265643971333807
-0.827148920219437,-0.266885651669543
-0.829743204710351,-0.267694034330377
-0.831316312409075,-0.268131561753898
-0.831844957936169,-0.268262769452039
-0.831311270439182,-0.268153869456964
-0.829702907944306,-0.267872323433738
-0.827013137710947,-0.267486408108996
-0.823240882090323,-0.267064775712438
-0.818390729602943,-0.266676012158858
-0.812472911165201,-0.266388195712403
-0.805503241611275,-0.266268458871749
-0.797503026871421,-0.266382556194897
-0.788498937380555,-0.266794440745494
-0.778522848500151,-0.267565851789103
-0.767611648940848,-0.268755916298163
-0.755807018371353,-0.270420766738746
-0.743155175590098,-0.272613177511351
-0.729706598818453,-0.275382222302348
-0.715515719846977,-0.278772954473069
-0.700640593928133,-0.282826112470824
-0.685142547459128,-0.28757785209098
-0.669085805636088,-0.293059507252912
-0.652537102384813,-0.299297380775853
-0.635565274983139,-0.306312566454814
-0.618240845884714,-0.314120803542725
-0.600635594333238,-0.322732364544147
-0.582822120419437,-0.332151977019454
-0.564873404279785,-0.342378779887612
-0.546862363166065,-0.353406314501881
-0.528861409127972,-0.365222550557287
-0.510942010047115,-0.377809946672815
-0.493174256739968,-0.391145545276425
-0.475626438809629,-0.405201101208352
-0.458364631872015,-0.419943243249249
-0.441452298711579,-0.435333667575625
-0.424949906835254,-0.45132936194718
-0.408914564791697,-0.467882859240192
-0.393399679506567,-0.484942518759202
-0.378454636754286,-0.502452833587097
-0.364124506743364,-0.520354762072307
-0.350449776636652,-0.538586081402212
-0.337466111660998,-0.557081761074977
-0.325204146283549,-0.575774353958678
-0.31368930674562,-0.59459440251756
-0.30294166605067,-0.613470857691247
-0.292975832301837,-0.632331507834276
-0.283800871077749,-0.651103415060921
-0.275420262324402,-0.669713356294366
-0.267831892026967,-0.688088266290076
-0.261028078709864,-0.706155679890913
-0.254995634597554,-0.723844170776282
-0.249715961053742,-0.741083783989239
-0.245165177704206,-0.757806459564016
-0.241314284439737,-0.773946444631471
-0.238129355291893,-0.789440691451362
-0.235571762976757,-0.804229238907445
-0.233598432711803,-0.818255575103831
-0.232162123729564,-0.831466978818072
-0.231211736740161,-0.843814837697422
-0.230692645433908,-0.855254941228716
-0.230547049966231,-0.865747746668637
-0.230714350230889,-0.875258616288538
-0.231131536604862,-0.88375802446576
-0.231733595739954,-0.891221733340085
-0.232453928882917,-0.897630935948747
-0.233224780128232,-0.902972365954828
-0.233977671946123,-0.907238373290839
-0.234643845283267,-0.910426965250383
-0.235154701505293,-0.912541812774872
-0.235442243438755,-0.913592221897833
-0.235439512775794,-0.913593070525182
-0.235081021127234,-0.912564710944583
-0.234303172049184,-0.910532838669267
-0.233044671424135,-0.907528328430252
-0.231246923649678,-0.903587038334385
-0.228854411175881,-0.898749583402812
-0.225815055035552,-0.893061079894159
-0.22208055412931,-0.886570861997655
-0.217606701159109,-0.879332172652568
-0.21235367324842,-0.871401830410593
-0.206286295444222,-0.862839874406188
-0.199374275463888,-0.853709189635459
-0.191592408228265,-0.844075114866127
-0.182920748909439,-0.834005035608675
-0.173344753416729,-0.82356796467128
-0.162855385446262,-0.812834112897969
-0.151449189426594,-0.801874452750254
-0.139128328904209,-0.790760277436723
-0.125900590126817,-0.779562758322618
-0.111779350798058,-0.768352503362025
-0.0967835141929772,-0.757199119288856
-0.0809374090383104,-0.746170780279514
-0.0642706557737229,-0.735333805759899
-0.046818000018455,-0.724752249972725
-0.0286191142710598,-0.714487505848174
-0.00971836906672304,-0.704597925632213
0.00983542499406046,-0.695138460623007
0.0299893027512332,-0.68616032224738
0.0506864557604197,-0.677710666577014
0.0718665674131997,-0.669832304238723
0.0934661698300155,-0.662563437515779
0.115419020318568,-0.655937426268679
0.137656495069191,-0.649982584125099
0.160107997651915,-0.644722006201222
0.182701379788258,-0.640173429421081
0.2053633717946,-0.636349126298624
0.228020020034189,-0.633255832839692
0.250597128671243,-0.630894711009702
0.27302070299409,-0.629261345998541
0.295217391564389,-0.628345778298507
0.317114924456892,-0.628132570395369
0.338642544878273,-0.628600907658075
0.359731431494637,-0.629724732800672
0.380315108854872,-0.631472913081908
0.40032984337068,-0.633809439205093
0.419715022403681,-0.636693654684288
0.438413514114565,-0.640080514254068
0.456372005848487,-0.643920869720063
0.473541318963846,-0.648161781477423
0.489876698157545,-0.652746853765207
0.505338073497786,-0.657616591577584
0.519890293544624,-0.6627087770185
0.533503328117488,-0.667958862765866
0.546152439457067,-0.673300380205346
0.557818320724669,-0.67866535970276
0.568487200984511,-0.683984760408939
0.578150916022143,-0.689188906931676
0.586806944563721,-0.69420793016686
0.594458409675322,-0.698972209555026
0.601114045337129,-0.703412814020658
0.606788128403106,-0.707461938859722
0.611500376371196,-0.711053335865924
0.615275811600912,-0.714122734028049
0.618144592823036,-0.716608248189092
0.620141814988754,-0.718450773132451
0.621307278701737,-0.719594360650674
0.621685230665046,-0.719986577257664
