-0.0211620193766561,-0.11136658134807
-0.0369085251115857,-0.13014027879266
-0.0102590321435969,-0.146168594110394
0.00186897178575031,-0.0986620115452216
-0.020873866902921,-0.111451739559204
-0.0304957862136522,-0.0588768348976628
0.000868204317841598,-0.108122034965961
-0.00237698537167242,-0.109027753061518
-0.00676900656183606,-0.0935270579522012
-0.020479387586322,-0.111566212972841
-0.0236168251371647,-0.114392298620314
-0.0221320563974414,-0.133394738103849
-0.0201332004504949,-0.111664758032187
-0.0315309253750057,-0.102457130654012
-0.0222157702554842,-0.144463675279046
-0.0239870468945737,-0.104762282785782
0.015383317694172,-0.0995864110189987
0.0141327011248387,-0.0830830107490973
-0.0114944082205966,-0.13980861732891
-0.0365269052895868,-0.0793193580327672
-0.00259238775964351,-0.117917550400421
-0.0356621507676634,-0.118018761441999
0.0217423491191375,-0.0988848697467949
-0.0188982115584728,-0.112002863479189
-0.0110474292271356,-0.124150961937067
0.0175596552743973,-0.122029449636267
-0.0139512320862858,-0.108876182144172
-0.0206992051632462,-0.133689304462826
-0.0182786090028949,-0.112165201660324
0.0223748299522728,-0.129255252584517
-0.0178713035594156,-0.112269458743835
-0.00109067649200097,-0.0798324759854758
0.0182399811770726,-0.119674603038157
-0.00599720745078839,-0.137694158907466
-0.0305425705962137,-0.13383895085181
-0.00228735742668313,-0.10409501816719
-0.0158415965826582,-0.0766695949391466
-0.0168011573382527,-0.112534652025643
-0.0251977144634448,-0.107319573259327
-0.0354264112544992,-0.0933861832497546
-0.0162842151029666,-0.112658468016936
-0.0195440252308009,-0.118847746630001
-0.0157274694488533,-0.112788860954562
-0.0155323900210161,-0.112833846013268
0.00315019625962352,-0.104238054642923
-0.00371137483925383,-0.0947329240648739
-0.0149165154991937,-0.112973543451979
-0.0246935872293477,-0.111949819071375
-0.00150403413094641,-0.113964633425079
-0.0142511588534665,-0.11312062567109
-0.0327070258724582,-0.127035284909693
0.0199599950316093,-0.0937354620631964
-0.0135313353722909,-0.113275439494846
-0.00861573052050654,-0.0970217418231322
-0.0130184613734344,-0.113383111720686
-0.0127514567665597,-0.113438323246631
0.00331363338931483,-0.0971073159864391
0.00692289741338669,-0.15539930332004
0.00593105344989125,-0.126115458721889
-0.0113008011070054,-0.113728588283635
-0.0109856380379535,-0.113789555193059
-0.0106614429496275,-0.113851514869905
-0.00545458983619187,-0.139717836445172
-0.00524406678331851,-0.12373856394469
-0.00926774802018338,-0.114109422831719
-0.0514885869102023,-0.129448220618346
-0.000401747348635012,-0.123106844297627
0.0350547941959162,-0.116722703714951
-0.0110845481630173,-0.0991333001290919
0.0164721691724834,-0.129241383618489
-0.00593552539666015,-0.11467417392904
0.0255281242664204,-0.0879775001396319
-0.00266580019299868,-0.12713833995281
0.0297470398145748,-0.147638245292135
-0.00393812368843133,-0.114980433081722
-0.00284096864805783,-0.115139085090903
-0.0198897045224504,-0.13152631079875
-0.00578824086032607,-0.112846894210726
-0.0225261291781156,-0.15123070082083
-0.0144455644764043,-0.102981031766617
-0.00833100480622308,-0.0908761012124207
0.0214465997677005,-0.113509407276318
-0.0088206795686751,-0.115775369788435
0.00312725794096151,-0.123147745093967
-0.0346793696590779,-0.113420428692561
-0.0253170591531417,-0.0688637616964036
0.00328674470157105,-0.132634471978777
0.0114943454244212,-0.127407001102647
-0.0102446655933907,-0.121703317609527
0.00913558028883954,-0.116484685186737
0.0331876744538492,-0.117412386418477
0.0236076728747909,-0.135628740704719
0.0452696993147466,-0.12395418161033
0.0133357679978685,-0.116809261357628
0.0144861077179727,-0.116886226400145
0.0267229521310245,-0.11358578391472
0.0182081493257312,-0.117101773517007
0.0204165534211196,-0.117932686452607
0.00444921769881935,-0.090583946948854
0.0223825702120773,-0.117285282877269
0.0381710421322497,-0.164259685122253
0.0254495894476985,-0.117382769240334
0.0538673004098243,-0.0883642667812141
0.0346482103843523,-0.0881387015935273
0.051407330857931,-0.115293516554301
-0.012706509502853,-0.130248100944251
0.0487319102227375,-0.0957809795335866
-0.0045748758636141,-0.147379040841588
0.043015511366911,-0.151806975648936
0.0475959893611893,-0.117244337893885
0.0501645315040394,-0.117140593156981
0.0386559297544176,-0.103807293494465
0.0611092340123902,-0.132295132676975
0.0616372512405381,-0.116474996527377
0.0384324220483508,-0.125984841294688
0.0753490811973473,-0.115270508760993
0.0645663913880701,-0.152706150234219
0.100633873341823,-0.0928743861873117
0.0874065012901495,-0.113867251611337
0.0918129011015676,-0.113277738985185
0.108581237738878,-0.0972059899307837
0.10321981916813,-0.1209634147391
0.111664315371041,-0.110135929076414
0.108811454666435,-0.108411616758142
0.126379542901977,-0.130176762504082
0.117730635234103,-0.107008080809291
0.109397578383137,-0.0932136125692638
0.149545770686264,-0.102064602558497
0.179298195286562,-0.103795506917652
0.164816789150064,-0.0980817461913825
0.180705439135964,-0.0780716368031459
0.186977559892355,-0.0821432727240812
0.20425896832476,-0.0840441205570033
0.210127134361205,-0.0839112464789429
0.232177335431454,-0.111368660082979
0.240063519160614,-0.0559135832956954
0.245451021072809,-0.0260258999824175
0.255014200855803,-0.0664810769513938
0.303696028125919,-0.0663289812784394
0.294541009263374,-0.0483407101902343
0.309348800878478,-0.0249051078687259
0.346195857367493,-0.0333500137717529
0.358855759767,-0.00755477496699021
0.372767210870439,-0.00442353104835974
0.425759129541144,0.0252137605224377
0.446558773759685,0.0477671802302944
0.484854681352747,0.097930670254634
0.46477204232168,0.121812175858193
0.504254656175435,0.123605661940131
0.515236253744755,0.127518292564041
0.549712889400046,0.142661291544197
0.562268529004644,0.173389292203622
0.651510689214607,0.320643390417452
0.673602606114283,0.312288468804619
0.737821652102832,0.388054819625292
0.756167971870505,0.383145308730649
0.737519572983857,0.461076049654042
0.749134237687066,0.49237582629013
0.757494534367027,0.543929531518163
0.793120119240232,0.606916137539628
0.786537786508813,0.697219372932993
0.754621373668893,0.75833569619667
0.746514622759535,0.803378297563176
0.728221583000777,0.838416799099308
0.663447425233809,0.941652530523038
0.620127200129318,1.00644264710758
0.600123809481456,1.03245141941306
0.526722022888256,1.02502357414438
0.420635923173478,1.02699428342824
0.324485674848465,1.0137730617239
0.152380399875906,0.951004886181236
0.135865179008016,0.90161375590409
0.111112774638426,0.89135987915007
0.00709638859454041,0.785884718479559
-0.0244854387741286,0.747455318549146
-0.0453964011479224,0.71979790654389
-0.0857721668305086,0.644019377404481
-0.144744279547097,0.566593565252124
-0.0930567778030826,0.537385921545728
-0.116311428713398,0.506605928957833
-0.136922046478862,0.452451593159245
-0.141648779166936,0.424813933040928
-0.14817343959276,0.372923988185242
-0.150180396332719,0.348683064942221
-0.151477612828561,0.325567836375472
-0.152151175284168,0.303559928483548
-0.152653666505779,0.264242147399992
-0.151935248650542,0.262761350512603
-0.147027770137339,0.193077345833934
-0.159795124593158,0.182312408984442
-0.142409217219289,0.157764859730661
-0.136314841370067,0.125080285870338
-0.121194594316796,0.110812635665764
-0.114716678757096,0.0977202129876441
-0.157621812556677,0.0713006975479902
-0.123875993644084,0.0738084799521039
-0.118882281556264,0.0570245052939196
-0.131613382280464,0.0860982424818606
-0.108722431865031,0.0362581844169091
-0.10925354301984,0.0285916809094045
-0.0787994077283638,0.0258753873365104
-0.111963759376374,-0.0471410171197411
-0.0961974053226424,-0.00391762117974132
-0.113111942725839,-0.0351705999594426
-0.0922707506496065,-0.0126340353884019
-0.116091211581657,-0.0311571884067096
-0.0530965195748246,-0.0408520970122748
-0.0817695175563564,-0.0339698520907157
-0.0771990904107733,-0.0424515727972294
-0.0641922187305005,-0.0185094391179659
-0.0988297521997599,-0.0150518170219141
-0.0449806741411759,-0.0472597037031472
-0.068088592101604,-0.0580613039950484
-0.108215560864644,-0.0604809828436499
-0.0857962753389764,-0.0781327102826836
-0.0608181300690578,-0.0693675893845976
-0.0645875142438244,-0.0616812482535589
-0.0573412262130253,-0.0744316421899562
-0.0606021144708401,-0.0911989064463134
-0.0905725333842068,-0.0961244733322279
-0.0470214405211553,-0.0911229661660677
-0.0477364974730415,-0.0745784648195663
-0.0503755267128725,-0.119630789939049
-0.0716364934226597,-0.0928238758404378
-0.0465790388605266,-0.0887344875547081
-0.0208545553537436,-0.114797111992845
-0.0507715988677915,-0.108356856008563
-0.0410408452538115,-0.101667143284128
-0.0239053541582006,-0.0944524059904268
-0.0644629370350339,-0.0879549209229933
-0.0315364002555243,-0.0568681450493994
-0.0403748408840465,-0.096023590287824
-0.0553713082517845,-0.0819252035763599
-0.0384125359830151,-0.0981751485318635
-0.0411985121326944,-0.109640477570247
-0.0357766591763637,-0.100940565670095
-0.0233965708248215,-0.115482478181267
-0.0201884672584793,-0.117815658287973
-0.0344073984305026,-0.102317330225452
-0.0555674715219391,-0.107012503360802
-0.0552001094056571,-0.118094882336535
-0.0111218162709068,-0.131167769629056
-0.032021488966912,-0.0858751677513084
-0.0252657167841273,-0.0861060756007286
-0.0210668992852214,-0.115446678648238
-0.0228421457352152,-0.113118583019928
-0.030220108667192,-0.106240687126542
-0.0609794331191014,-0.106725830679637
-0.0726003851302637,-0.136136484550976
-0.0520242807389031,-0.0960678653434042
