0.460834161659934,0.1401420331045
0.460240681363936,0.140313755874174
0.458485805452177,0.140902408525493
0.455617041701528,0.142014537598714
0.451693625457714,0.143750733900053
0.446785794544821,0.146204383174155
0.440973931065874,0.149460504144425
0.434347580513242,0.153594688032888
0.427004360096828,0.158672152439424
0.41904876954263,0.164746921072088
0.410590918798012,0.171861139292556
0.401745188088584,0.180044533792187
0.392628836592601,0.189314022964605
0.383360576622415,0.199673482711495
0.374059130621094,0.21111367053157
0.364841788490818,0.223612308821306
0.355822982765488,0.237134326383472
0.347112898923326,0.251632255219021
0.338816137708514,0.267046777793005
0.331030445699543,0.283307418138624
0.323845529533364,0.300333368417509
0.317341968178889,0.318034440910099
0.311590236463055,0.336312133887394
0.306649851702129,0.355060798433019
0.302568653796465,0.374168892059108
0.299382227526757,0.393520303905957
0.297113474063577,0.41299573544646
0.295772336890649,0.432474119942552
0.295355685467788,0.451834063430513
0.295847358044611,0.47095528975059
0.297218363104125,0.489720072087336
0.299427236989627,0.508014633650733
0.302420553372403,0.525730500502779
0.306133578374444,0.54276579011507
0.31049106339225,0.559026420022995
0.315408165996156,0.574427221912109
0.320791487724866,0.588892947620086
0.326540216175806,0.602359154849676
0.332547357525788,0.61477296184816
0.338701044518683,0.626093661899361
0.344885904040608,0.636293190175908
0.350984467679729,0.645356437291562
0.356878608145882,0.653281405754226
0.362450984111234,0.660079207427201
0.367586475930845,0.665773902036135
0.37217359481263,0.670402178688586
0.376105848328374,0.674012884278659
0.379283045687328,0.676666404507768
0.381612526925011,0.678433905041531
0.383010301083305,0.679396442020554
0.383402079562543,0.67964395272864
0.382724192098685,0.679274138676653
0.380924374243326,0.678391254666137
0.377962416783966,0.677104818538005
0.373810669217756,0.675528257274337
0.368454391163407,0.673777505893851
0.361891947441677,0.671969576154584
0.354134844452439,0.670221112443726
0.34520760740264,0.668646952390048
0.335147499871261,0.667358709676971
0.324004089111101,0.666463396264739
0.31183866235964,0.666062100751765
0.298723501239741,0.66624873892365
0.284741023053413,0.667108891662088
0.269982799387546,0.66871874432532
0.254548463939684,0.671144140480042
0.238544522816544,0.674439761476498
0.222083081741768,0.678648441830853
0.205280505617896,0.683800628730361
0.18825602670862,0.689913992227281
0.171130318330964,0.696993190858288
0.154024051365631,0.705029795539358
0.137056451102226,0.714002372664806
0.120343871931956,0.723876725406524
0.103998407183646,0.734606290289049
0.0881265509722939,0.746132684231183
0.0728279282979066,0.758386395418323
0.0581941088038562,0.77128760962366
0.0443075185884018,0.784747161952162
0.0312404632727181,0.798667602458702
0.0190542741782115,0.8129443627093
0.00779858797145047,0.827467009129081
-0.00248923148513119,0.842120567926946
-0.0117845220648572,0.856786905518043
-0.0200755978902114,0.871346147691339
-0.0273638661019623,0.885678120299206
-0.0336637844728079,0.899663793984566
-0.0390026603863315,0.913186715412046
-0.0434202936277206,0.926134407633325
-0.0469684673286639,0.938399722591387
-0.0497102932521036,0.949882129349319
-0.0517194193706746,0.960488922409353
-0.0530791093642899,0.970136335457781
-0.0538812052170952,0.978750547019258
-0.0542249855130827,0.98626856581597
-0.0542159332957698,0.992638985087279
-0.0539644284551616,0.997822596715975
-0.0535843805213893,1.00179285770893
-0.0531918184678404,1.00453620337204
-0.0529034546484749,1.0060522033802
-0.0528352403080356,1.00635355884996
-0.0531009302061851,1.00546594045235
-0.0538106737860028,1.00342766953299
-0.0550696499950919,1.00028924611196
-0.0569767623376896,0.996112729494677
-0.0596234100050787,0.990970979013712
-0.0630923500081337,0.984946764119644
-0.0674566641312127,0.978131754624389
-0.0727788432542444,0.97062540335545
-0.0791100001651771,0.962533734785256
-0.0864892204252837,0.953968054341018
-0.0949430591740547,0.945043594063254
-0.104485189988912,0.935878111053656
-0.115116210069258,0.926590455725939
-0.126823604116799,0.917299127239738
-0.13958186735777,0.908120833653107
-0.153352786220871,0.899169074271766
-0.168085873271072,0.89055276140369
-0.183718951126915,0.882374898249224
-0.200178878280553,0.874731328975328
-0.21738240801721,0.867709576146295
-0.235237170015125,0.86138777962272
-0.253642762717839,0.855833749808746
-0.272491943226083,0.851104146739428
-0.291671900272738,0.847243794972454
-0.31106559483581,0.844285142599824
-0.330553152123345,0.842247870945606
-0.350013288040575,0.841138659686598
-0.369324752831032,0.840951110246028
-0.388367774374867,0.841665828389079
-0.407025483631752,0.843250665016417
-0.42518530493248,0.845661112231478
-0.44274029425002,0.848840849872357
-0.459590409212248,0.852722435872594
-0.475643695447087,0.857228132069123
-0.490817374866384,0.862270855431455
-0.505038822685172,0.867755243163551
-0.518246421323494,0.873578818747516
-0.530390280832458,0.879633244772806
-0.541432817106339,0.885805647341117
-0.551349180868822,0.891979995968132
-0.560127532232805,0.898038522229585
-0.56776915750772,0.903863159928662
-0.574288426843139,0.909336989300433
-0.579712593229455,0.914345667719891
-0.584081435302094,0.918778829543886
-0.587446748291654,0.922531438091843
-0.589871689305655,0.925505073350987
-0.591429984895738,0.927609139771936
-0.592205010535762,0.928761979490405
-0.592288753191039,0.928891877458667
-0.591780669577994,0.927937946282385
-0.590786453979674,0.925850880018552
-0.589416730580324,0.922593567780792
-0.587785686198455,0.918141559699958
-0.586009660021205,0.912483379580042
-0.584205707464739,0.905620680450252
-0.582490155599382,0.897568241121036
-0.580977167680564,0.888353803781724
-0.579777334216024,0.878017754606942
-0.578996307677539,0.866612651244473
-0.578733497435616,0.854202602915848
-0.579080840764464,0.840862510649914
-0.580121664841105,0.826677176867341
-0.581929653557887,0.811740295119856
-0.584567931695254,0.796153332242656
-0.588088277577015,0.780024316484322
-0.592530473770608,0.763466546319796
-0.597921803719157,0.746597235614681
-0.604276700420583,0.729536111581671
-0.611596551423336,0.712403982542861
-0.619869662510741,0.695321292878141
-0.629071380519607,0.678406682695326
-0.639164373806992,0.661775569700306
-0.650099066965311,0.645538770475933
-0.66181422451348,0.629801177899911
-0.674237676483389,0.614660510750466
-0.68728717709845,0.6002061506722
-0.700871386125324,0.586518080614066
-0.714890960990787,0.573665937619568
-0.729239746411009,0.561708191461177
-0.743806047096819,0.550691459083276
-0.758473968089945,0.540649963169382
-0.773124806464232,0.53160514139985
-0.787638477502198,0.523565411136999
-0.801894958038734,0.51652609238792
-0.815775729455259,0.510469489973835
-0.829165202811788,0.505365133902302
-0.841952108821104,0.501170175018134
-0.854030835795862,0.497829931123959
-0.865302699330938,0.495278576934836
-0.875677128311822,0.493439969485288
-0.885072752855496,0.492228598962915
-0.893418380980491,0.491550653420152
-0.900653852153413,0.491305184433393
-0.906730757353692,0.491385359553276
-0.911613016918457,0.491679786336377
-0.915277309155706,0.492073891879595
-0.917713344525323,0.492451341104778
-0.918923982061944,0.492695476570693
-0.918925186628572,0.49269076232812
-0.917745827521815,0.492324214284745
-0.915427320875291,0.491486799710212
-0.912023120203714,0.490074788886317
-0.907598061273438,0.487991042488139
-0.902227569253386,0.485146219062056
-0.895996737771941,0.481459887936469
-0.888999291060119,0.476861534048948
-0.881336441780441,0.471291442485507
-0.873115658407005,0.464701451987792
-0.86444935712012,0.457055568274535
-0.855453534094998,0.448330429725262
-0.846246354787447,0.43851561976635
-0.836946717341405,0.427613822160342
-0.827672807557124,0.415640817306375
-0.818540662961204,0.402625319589462
-0.809662763409019,0.38860865774582
-0.801146665327947,0.373644302117004
-0.793093696179931,0.357797244524176
-0.785597724990806,0.341143238282807
-0.7787440238704,0.323767907575846
-0.772608234342746,0.305765736989174
-0.767255451033417,0.287238953467861
-0.762739433836324,0.268296314257599
-0.759101958122602,0.249051815536899
-0.756372310878507,0.229623337408387
-0.754566938887702,0.21013124169002
-0.753689253227622,0.190696939520032
-0.75372959245204,0.171441446155844
-0.754665344905601,0.152483940502638
-0.756461228684355,0.133940346849892
-0.75906972584257,0.115921956024651
-0.762431665573697,0.0985341026918188
-0.766476949284848,0.0818749148502713
-0.771125408761698,0.0660341506972424
-0.776287787005041,0.0510921369729157
-0.781866829831059,0.0371188216653803
-0.787758474982743,0.0241729525679357
-0.793853124316139,0.012301391653099
-0.800036983616555,0.00153857357906628
-0.80619345377885,-0.00809388510515346
-0.812204556462296,-0.0165874213189585
-0.817952376911955,-0.0239466025234855
-0.823320506430005,-0.0301890445801553
-0.828195466984604,-0.0353451713981353
-0.832468100660611,-0.0394578192948492
-0.836034907083126,-0.0425816908785961
-0.838799312576292,-0.0447826650888813
-0.840672855648284,-0.0461369717760704
-0.841576274409055,-0.0467302408462356
-0.841440482717663,-0.0466564375196148
-0.840207423206614,-0.046016696633484
-0.837830786825076,-0.0449180701456425
-0.834276590163015,-0.043472203048291
-0.829523603544559,-0.0417939537710153
-0.823563624690243,-0.039999975825364
-0.81640159462229,-0.0382072779139119
-0.808055554401954,-0.0365317799880601
-0.798556443219913,-0.0350868827879282
-0.787947740286395,-0.0339820682339758
-0.776284954863679,-0.0333215476654285
-0.763634970626862,-0.0332029743397146
-0.750075252306969,-0.0337162358270064
-0.735692924242083,-0.0349423409640773
-0.720583732016958,-0.0369524148837819
-0.704850899790641,-0.0398068143245051
-0.688603897177763,-0.0435543739638149
-0.671957130646928,-0.0482317929300176
-0.65502857531587,-0.0538631689436697
-0.637938363746434,-0.0604596857489867
-0.620807348864297,-0.06801945763429
-0.603755658442441,-0.076527532933682
-0.586901258689612,-0.085956056472263
-0.570358544374497,-0.0962645889877418
-0.5542369725941,-0.107400579655731
-0.538639756764986,-0.119299985987471
-0.52366263668495,-0.13188803357971
-0.509392739589207,-0.145080106498799
-0.495907546020585,-0.158782757495212
-0.483273973060838,-0.172894825790059
-0.471547586045517,-0.187308648869277
-0.460771948325158,-0.201911353579962
-0.450978116959804,-0.216586210860598
-0.442184290462364,-0.231214037664409
-0.434395612860597,-0.245674629062112
-0.427604136449946,-0.259848203143897
-0.421788943683117,-0.273616841185022
-0.416916426710512,-0.286865905596778
-0.412940721171927,-0.299485418454157
-0.409804288967467,-0.311371383869993
-0.407438642927161,-0.322427038166865
-0.40576520457627,-0.332564012674403
-0.40469628457763,-0.341703395040124
-0.404136173943188,-0.349776676173747
-0.403982332762249,-0.356726571333082
-0.404126662010224,-0.362507705387226
-0.404456842993097,-0.367087153941398
-0.404857728161818,-0.37044483375731
-0.405212766407226,-0.372573737732156
-0.405405445527507,-0.373480011586113
-0.405320734351719,-0.373182871329512
-0.404846507007076,-0.371714362513511
-0.403874932034361,-0.369118964188478
-0.402303809482548,-0.365453042379259
-0.400037839745124,-0.360784159713023
-0.396989808729154,-0.355190249581408
-0.393081674963693,-0.348758664862935
-0.388245545444496,-0.341585112754216
-0.38242452836248,-0.333772488640858
-0.375573452357922,-0.325429623164389
-0.367659443562473,-0.316669957695057
-0.358662353417383,-0.307610164289374
-0.348575032067665,-0.29836872688495
-0.337403444006396,-0.289064500955667
-0.32516662455827,-0.279815269111529
-0.311896477723437,-0.270736310176658
-0.297637417828388,-0.261938999115211
-0.282445859326564,-0.253529454800373
-0.266389560934669,-0.245607252040778
-0.249546832058784,-0.238264213498562
-0.232005611136045,-0.23158329616336
-0.21386242707238,-0.225637585898706
-0.195221256375892,-0.220489412265265
-0.17619228985158,-0.216189594365284
-0.156890623820896,-0.212776826862058
-0.137434891745843,-0.210277213626607
-0.117945852860688,-0.208703954671613
-0.0985449549363047,-0.208057190171879
-0.0793528886161259,-0.208324003463647
-0.0604881508650336,-0.209478582985186
-0.042065634961918,-0.211482541191636
-0.0241952641444386,-0.214285386571542
-0.00698068548467703,-0.217825143033912
0.00948196015672675,-0.222029109145695
0.0251051771738416,-0.226814748001827
0.0398111494365935,-0.232090696924215
0.0535326571426723,-0.237757884731326
0.0662138651777293,-0.243710743014218
0.0778109734210827,-0.249838496713584
0.0882927211099074,-0.256026518329714
0.0976407391463964,-0.262157729324718
0.105849746078069,-0.268114031703411
0.112927585379021,-0.273777752392836
0.118895103586187,-0.279033082884916
0.123785870776519,-0.283767496664146
0.127645746784652,-0.287873127211774
0.130532298433116,-0.291248089856364
0.132514074855596,-0.293797731422178
0.133669749716257,-0.29543579250313
0.134087140743798,-0.296085468250584
0.133862118488081,-0.295680354795064
0.133097417551816,-0.294165269810103
0.131901364733536,-0.291496937254094
0.130386539526655,-0.287644527974614
0.128668383240389,-0.28259004960922
0.126863773632004,-0.276328581045969
0.12508958235835,-0.268868348593639
0.1234612327632,-0.260230642932973
0.12209127551272,-0.250449577852889
0.12108799937472,-0.239571693695999
0.120554094010627,-0.227655410322722
0.120585381017732,-0.214770336229844
0.121269628630686,-0.200996442205333
0.122685464475666,-0.18642310954554
0.124901399580333,-0.17114806438341
0.127974975492094,-0.155276211058743
0.131952044862806,-0.138918378686957
0.136866194237806,-0.122189996136316
0.142738316060966,-0.105209711492625
0.149576335096074,-0.0880979727640653
0.157375092590355,-0.0709755870493348
0.16611638959114,-0.0539622756535326
0.175769188894611,-0.0371752426854317
0.186289973179985,-0.0207277745059566
0.197623254986463,-0.0047278870232127
0.209702232347055,0.0107229627515077
0.222449582125211,0.0255310852524154
0.235778381428582,0.0396116723481594
0.249593145919446,0.0528898032544712
0.263790972422306,0.0653013301659356
0.278262771963014,0.0767936328624226
0.292894578275976,0.0873262331362415
0.307568915899849,0.0968712615877485
0.322166211258657,0.105413771129202
0.336566229603452,0.112951893397539
0.350649520375552,0.119496836183593
0.364298853450148,0.125072721915275
0.377400628829608,0.129716269161574
0.389846242678004,0.133476321029896
0.401533393118296,0.136413226187762
0.412367309944614,0.138598080028885
0.422261893325646,0.140111835201383
0.431140747679663,0.141044292301649
0.438938098174176,0.14149298299211
0.445599578727817,0.141561959106966
0.451082881951759,0.141360502451206
0.455358263143759,0.141001770960939
0.45840889221936,0.140601397665583
0.460231049310584,0.140276059465427
0.460834161659934,0.1401420331045
