0.747582756784839,-0.741984213982253
0.757026677655023,-0.729712281413148
0.764038217179421,-0.715325729438551
0.768552889549448,-0.698959970889912
0.770531349721798,-0.680768271684648
0.769960248841075,-0.660919632958125
0.766852795242667,-0.639596514637673
0.761249011638614,-0.616992429620863
0.753215682664389,-0.593309439082158
0.74284599062701,-0.56875558041533
0.730258841001073,-0.543542259912909
0.71559788292447,-0.517881642482683
0.699030233605197,-0.491984070503847
0.680744919120674,-0.466055543335709
0.660951047528033,-0.440295288018479
0.639875733466401,-0.414893450361841
0.617761796480454,-0.39002893392064
0.594865258091366,-0.365867412330014
0.571452665152373,-0.34255953814079
0.547798269220699,-0.320239368689638
0.524181093528285,-0.299023026690319
0.500881920617615,-0.279007610178303
0.478180234807105,-0.260270363219376
0.456351154348902,-0.242868115443958
0.43566238843111,-0.226836995034469
0.41637125405187,-0.212192416315934
0.398721787254798,-0.198929339623427
0.382941982269419,-0.187022797686768
0.36924119075661,-0.176428679425871
0.357807711632744,-0.16708475883033
0.348806599856809,-0.158911953544102
0.342377720136199,-0.15181579492796
0.338634068767281,-0.145688088763661
0.337660383807924,-0.14040874342648
0.339512060516215,-0.135847740315426
0.344214385520703,-0.13186721961775
0.351762099553258,-0.128323653117088
0.362119294818831,-0.12507007474909
0.37521964924105,-0.121958338976535
0.390966995953963,-0.118841376805065
0.409236222553838,-0.115575419393136
0.429874490826368,-0.112022159723488
0.452702763968577,-0.108050823691318
0.477517624774997,-0.103540123214751
0.504093364896182,-0.0983800655701104
0.53218432214405,-0.0924735950774369
0.561527439950044,-0.0857380454862462
0.591845020512548,-0.0781063839094889
0.622847640929817,-0.0695282298935294
0.654237199730396,-0.0599706361591093
0.685710059706833,-0.0494186206656033
0.716960251848398,-0.0378754428991746
0.747682704467362,-0.0253626206238403
0.777576461329714,-0.0119196867209906
0.806347852738089,0.00239631086499723
0.833713584070536,0.0175115597023931
0.859403707246958,0.0333364743206045
0.883164441964014,0.0497669157278834
0.904760815292661,0.0666856231995893
0.923979090349599,0.0839638397413144
0.940628957209352,0.101463110067449
0.954545461988566,0.119037227637769
0.965590653075399,0.136534305291551
0.973654926758639,0.153798942336031
0.97865805799445,0.170674459605325
0.980549905692208,0.187005173024532
0.979310785661581,0.202638675604483
0.97495150819642,0.217428097563859
0.967513081131756,0.231234314430594
0.957066083052859,0.243928073512572
0.943709715114411,0.255392010042482
0.927570543599065,0.265522525582871
0.908800948864751,0.274231502909559
0.887577299657848,0.281447833555228
0.864097874865769,0.28711873646638
0.838580557611554,0.291210848778453
0.811260329121797,0.293711072514624
0.78238659199844,0.294627164029472
0.752220354369403,0.293988056212326
0.721031307861644,0.291843906797548
0.68909483341663,0.288265869559212
0.656688969640623,0.283345588653338
0.624091378643667,0.277194419868975
0.591576344169799,0.269942386016648
0.559411836259732,0.261736877076014
0.527856675723921,0.252741109001723
0.497157830351225,0.243132358206634
0.467547873053519,0.23309999166558
0.439242630071479,0.222843315274103
0.412439044966996,0.212569265521006
0.387313281433192,0.202489971660415
0.364019084996838,0.192820217371093
0.342686420506428,0.183774832344722
0.323420398931066,0.175566045331613
0.306300503481696,0.168400830877268
0.291380121449718,0.162478282296222
0.278686384482463,0.157987043345538
0.268220316324777,0.155102830578667
0.259957283395471,0.153986077485531
0.253847739980739,0.154779730266013
0.249818256356706,0.15760722345517
0.247772814841542,0.162570661638258
0.247594355663517,0.169749231184467
0.249146551651945,0.179197863317269
0.252275788147039,0.190946166956828
0.256813322213175,0.204997646650095
0.262577593254627,0.221329217583842
0.269376655496572,0.239891026194432
0.277010701525677,0.26060658128711
0.285274645197824,0.283373196899994
0.293960731725111,0.308062744437873
0.302861142654646,0.33452270790295
0.31177056374766,0.362577532408305
0.32048868445414,0.392030252619145
0.328822598745533,0.422664384369566
0.336589078501912,0.454246059490026
0.343616692431257,0.486526380891892
0.349747745604198,0.519243972226951
0.354840017090728,0.552127694005068
0.35876827585539,0.584899495942228
0.361425557970536,0.617277373550177
0.362724191306913,0.648978395589922
0.362596557118126,0.679721768011947
0.36099558130979,0.709231899409239
0.357894951633269,0.737241432823285
0.353289060524972,0.763494208971327
0.347192676781953,0.787748126603791
0.339640352680131,0.809777866747271
0.330685576460498,0.829377449029314
0.320399683290372,0.846362590100402
0.308870540811743,0.86057283634513
0.296201028180288,0.871873445583683
0.282507330042344,0.880156995277313
0.267917069161954,0.885344697834815
0.252567303368487,0.887387406935172
0.236602414123423,0.886266302295642
0.220171915283085,0.881993243983529
0.203428211547147,0.874610791150528
0.186524336619799,0.864191883916437
0.169611701265591,0.850839190998908
0.152837881213757,0.834684129532083
0.136344474256764,0.815885567294094
0.120265054909047,0.794628221226887
0.104723253653161,0.771120769638381
0.0898309861200933,0.74559369878511
0.0756868555497208,0.718296907604209
0.0623747495816601,0.689497097160356
0.0499626498652862,0.659474973863267
0.0385016701826457,0.62852229766484
0.0280253357847234,0.596938808236721
0.018549113487699,0.565029063537732
0.0100701988011156,0.533099226189488
0.00256756300548184,0.501453833675907
-0.0039977402950998,0.470392588560977
-0.00968201300649723,0.440207204677163
-0.0145581019646564,0.411178344577064
-0.0187143503920175,0.383572682471296
-0.0222533249588667,0.357640125408794
-0.0252903349672184,0.333611223609286
-0.027951762916735,0.311694798653518
-0.030373228212417,0.292075815701086
-0.0326976080006454,0.27491352306859
-0.0350729410453961,0.260339879395913
-0.0376502421554859,0.248458285292536
-0.040581255926043,0.239342632828542
-0.0440161794467938,0.233036682557998
-0.0481013841444651,0.229553773979321
-0.0529771670595235,0.22887687149277
-0.0587755616062447,0.230958944054669
-0.0656182372320945,0.235723672897031
-0.0736145163847712,0.243066477924974
-0.0828595358247787,0.252855849766918
-0.0934325776043624,0.264934970976767
-0.105395592990708,0.279123606613788
-0.118791940267131,0.295220241393094
-0.133645354729059,0.313004437842692
-0.149959166333839,0.332239387454144
-0.167715777399683,0.352674624701143
-0.186876409516976,0.374048872048083
-0.207381125474394,0.396092982698717
-0.229149128554203,0.418532946858748
-0.252079338058234,0.44109292671601
-0.276051236431581,0.463498285183686
-0.300925979898303,0.485478573706278
-0.326547761155212,0.506770445090804
-0.352745409428173,0.527120458387722
-0.379334210120613,0.54628774429365
-0.406117923414784,0.564046501362536
-0.432890978558715,0.580188295470876
-0.459440818219016,0.594524137458904
-0.48555036523164,0.606886316632817
-0.511000582365658,0.617129970829185
-0.535573094351349,0.625134376974547
-0.559052840431349,0.630803949481655
-0.581230725085947,0.634068937367182
-0.601906234369528,0.634885814611141
-0.620889985478786,0.633237361961658
-0.638006177753903,0.629132442075691
-0.653094914285739,0.622605473532436
-0.666014364654793,0.6137156128176
-0.67664274104632,0.602545656810938
-0.684880062050738,0.589200681575373
-0.690649680845801,0.573806436304772
-0.693899557138851,0.55650751410283
-0.694603255192588,0.537465323804312
-0.692760653431326,0.516855889282313
-0.688398354489132,0.494867504585291
-0.681569788076545,0.471698274793528
-0.672355002666832,0.447553573658914
-0.660860145692623,0.422643449881504
-0.647216635654994,0.397180014273059
-0.631580033235069,0.371374840058287
-0.614128622118483,0.345436408170143
-0.59506171375189,0.319567628612617
-0.574597693605644,0.293963467803954
-0.552971829676942,0.268808710290597
-0.530433866894789,0.244275881357464
-0.507245433746186,0.220523354877437
-0.483677289799391,0.197693668270074
-0.460006444825862,0.175912063708013
-0.436513181892379,0.155285271753755
-0.413478018087944,0.135900550466755
-0.391178637449775,0.117824989730323
-0.369886831147392,0.101105087150864
-0.349865480066309,0.0857665984208968
-0.331365614601255,0.0718146615549772
-0.314623585725967,0.0592341909474093
-0.299858380260256,0.0479905338052942
-0.287269111717932,0.0380303782219547
-0.277032716208547,0.0292828990146962
-0.269301880603674,0.0216611244958368
-0.264203227590611,0.0150635046133176
-0.261835779352926,0.0093756584203951
-0.262269718471747,0.0044722766432711
-0.265545461270833,0.000219153237639116
-0.271673055271671,-0.00352468171717304
-0.280631908723905,-0.00690475662594339
-0.292370856374683,-0.0100689101465221
-0.306808561782882,-0.0131650302213439
-0.32383425261594,-0.0163388105320218
-0.343308781533868,-0.0197315542138807
-0.365066001512176,-0.0234780539653552
-0.388914440827203,-0.0277045766162745
-0.414639259466593,-0.0325269787931131
-0.442004465475325,-0.038048978556554
-0.470755366742185,-0.0443606058096682
-0.500621231008567,-0.0515368519100169
-0.531318124473007,-0.0596365362959193
-0.562551897299582,-0.0687014050891478
-0.594021282640596,-0.0787554735992785
-0.625421074473865,-0.0898046214670876
-0.65644534864796,-0.101836445885844
-0.686790691035664,-0.114820374971588
-0.716159396622344,-0.128708039958824
-0.744262603702883,-0.143433901519193
-0.770823328123968,-0.158916122180086
-0.795579363678872,-0.175057673599596
-0.818286016325324,-0.191747664374214
-0.838718641835246,-0.208862871155085
-0.856674958774746,-0.226269453163989
-0.871977111326858,-0.24382482776552
-0.884473459376854,-0.261379682597948
-0.894040076446216,-0.278780097919435
-0.900581939448868,-0.295869751312143
-0.904033797811969,-0.312492175723827
-0.904360713211191,-0.328493041029856
-0.901558264973071,-0.343722428878868
-0.895652420049789,-0.35803707054833
-0.886699070329122,-0.371302517883396
-0.874783243858811,-0.383395218119922
-0.860018000295223,-0.394204464492184
-0.842543024487153,-0.403634195984617
-0.822522935534536,-0.41160462138754
-0.800145331878648,-0.418053644937525
-0.775618595947431,-0.422938073238241
-0.749169484562335,-0.426234585837863
-0.721040533680512,-0.427940454751777
-0.691487308070841,-0.428074001328732
-0.660775528181196,-0.426674782126668
-0.629178107728613,-0.423803498850953
-0.596972136419599,-0.419541630871094
-0.564435842675327,-0.413990792329304
-0.531845571291458,-0.407271819342387
-0.499472810605343,-0.399523596234023
-0.467581302979767,-0.390901633075003
-0.436424271252459,-0.381576410012574
-0.406241792259464,-0.371731506896962
-0.377258346637397,-0.361561539525164
-0.349680571868727,-0.351269926383994
-0.323695242983161,-0.341066512053643
-0.29946750249852,-0.331165075400631
-0.277139358110929,-0.321780752319657
-0.256828463364341,-0.313127404056396
-0.23862719308328,-0.305414963040623
-0.222602021782242,-0.298846788669024
-0.208793209613625,-0.293617065591888
-0.197214796727601,-0.289908276774739
-0.187854903236433,-0.287888782926887
-0.180676328346765,-0.287710538820642
-0.175617438689737,-0.289506975579146
-0.17259333248297,-0.293391076203649
-0.171497262940736,-0.299453669463225
-0.172202301347441,-0.307761964806248
-0.174563217460337,-0.318358348202189
-0.17841855244255,-0.331259455816689
-0.183592857375878,-0.346455539198007
-0.189899068589407,-0.363910132246958
-0.197140989585514,-0.383560026695911
-0.205115848265795,-0.405315559177679
-0.213616897467436,-0.429061209265697
-0.222436026522777,-0.454656504157336
-0.231366351653353,-0.481937221996951
-0.240204753501929,-0.510716882238776
-0.248754330984623,-0.540788507975564
-0.256826741897862,-0.571926641848785
-0.264244402325092,-0.603889594050884
-0.270842518834808,-0.636421898066982
-0.276470929719464,-0.669256947217936
-0.280995734065466,-0.702119782790189
-0.284300690235379,-0.734730002598966
-0.286288368349584,-0.766804757253838
-0.2868810445381,-0.798061800199575
-0.28602132805422,-0.828222556805813
-0.283672515758653,-0.857015177387006
-0.279818671953281,-0.884177539055079
-0.274464435024528,-0.909460161742166
-0.267634555804281,-0.932629004575408
-0.259373175928896,-0.953468110031256
-0.249742857732148,-0.971782064928998
-0.238823380306131,-0.987398249323994
-0.226710319266825,-1.00016884670732
-0.213513430432747,-1.00997259158327
-0.199354860033066,-1.01671623344839
-0.184367206176379,-1.0203356994011
-0.168691458107297,-1.02079694103227
-0.152474841233336,-1.01809645484365
-0.135868597001838,-1.01226146917162
-0.119025727432755,-1.00334979441349
-0.102098734459703,-0.991449337218177
-0.0852373841949948,-0.976677283166825
-0.0685865258155015,-0.959178956286213
-0.0522839939710007,-0.939126367463675
-0.0364586224554523,-0.916716467422434
-0.0212283953697233,-0.892169123328835
-0.00669876016061193,-0.86572484129692
0.00703887523056102,-0.837642259993995
0.0199084413089814,-0.808195443198135
0.0318502849387432,-0.777671001483596
0.0428220120069959,-0.746365075185879
0.0527990836987107,-0.714580212400416
0.0617751584601752,-0.682622176979756
0.0697621750491912,-0.650796722298103
0.0767901754483583,-0.619406366940953
0.0829068698125815,-0.58874720844564
0.0881769489901865,-0.559105810767162
0.0926811534565006,-0.530756200277633
0.0965151106879221,-0.503957003837583
0.0997879560431933,-0.478948760818295
0.10262075506855,-0.455951438926004
0.105144747768622,-0.435162181305327
0.107499437752281,-0.416753309708867
0.109830551241936,-0.400870605544482
0.112287892699806,-0.38763188738654
0.115023125252619,-0.377125900100808
0.118187505168862,-0.369411527125155
0.121929600345909,-0.364517333712713
0.126393023088763,-0.362441445124746
0.131714207403013,-0.363151759902202
0.138020260581876,-0.366586494493599
0.145426918045682,-0.372655051717631
0.154036629201366,-0.38123920183661
0.163936800543428,-0.392194561455056
0.175198220335035,-0.405352352078125
0.187873687011018,-0.420521417006856
0.201996860960222,-0.437490472348061
0.217581356603101,-0.456030565310026
0.234620088715204,-0.475897710671066
0.253084883794401,-0.496835674372702
0.272926363968246,-0.518578871624943
0.294074107528148,-0.540855345735434
0.316437086701196,-0.563389793099951
0.339904379771392,-0.585906599427183
0.364346151183062,-0.608132852318918
0.389614889843389,-0.629801295786167
0.415546892530954,-0.650653193145528
0.441963976153997,-0.670441065996946
0.468675399625529,-0.688931278617657
0.495479973369692,-0.705906439097035
0.522168331979562,-0.721167590858165
0.548525343342804,-0.734536170835948
0.574332625665776,-0.745855713475375
0.599371142283996,-0.754993282842547
0.623423842966515,-0.761840618466107
0.646278319620449,-0.766314984008055
0.667729443890077,-0.76835971145767
0.687581954129565,-0.767944437207272
0.705652959610848,-0.765065030059292
0.721774330605403,-0.759743214886162
0.735794944142569,-0.752025899273762
0.747582756784839,-0.741984213982253
