-0.137421025220266,-0.940268597647197
-0.137409158952312,-0.940033704720907
-0.137368636805216,-0.93932942388511
-0.137292093875979,-0.93815661367847
-0.137172199386658,-0.936516480716499
-0.137001665791927,-0.934410578484036
-0.136773257843703,-0.931840805812618
-0.136479801603387,-0.92880940504424
-0.136114193392321,-0.925318959883317
-0.135669408671148,-0.921372392938961
-0.135138510838786,-0.916972962959986
-0.134514659941859,-0.912124261765336
-0.133791121285479,-0.906830210872968
-0.132961273936391,-0.901095057830458
-0.132018619109589,-0.894923372250928
-0.130956788429649,-0.888320041558169
-0.129769552058112,-0.881290266445096
-0.128450826678425,-0.87383955604998
-0.126994683330071,-0.865973722855149
-0.125395355083657,-0.857698877313124
-0.123647244548921,-0.849021422205437
-0.121744931207757,-0.83994804673961
-0.119683178564544,-0.83048572039004
-0.11745694110625,-0.820641686488787
-0.115061371064968,-0.810423455572492
-0.112491824975745,-0.799838798491897
-0.109743870022755,-0.788895739290649
-0.106813290167106,-0.77760254786033
-0.103696092049754,-0.765967732378821
-0.100388510663265,-0.754000031539355
-0.0968870147863586,-0.741708406577802
-0.0931883121754226,-0.729102033105905
-0.089289354507443,-0.716190292758416
-0.0851873420690172,-0.702982764662201
-0.0808797281863927,-0.68948921673561
-0.0763642233917285,-0.675719596826518
-0.0716387993210365,-0.661684023697644
-0.0667016923395365,-0.647392777867868
-0.0615514068904281,-0.632856292318403
-0.0561867185633596,-0.618085143072837
-0.0506066768791608,-0.603090039660142
-0.0448106077876842,-0.587881815469874
-0.0387981158758965,-0.572471418008895
-0.0325690862836434,-0.556869899069031
-0.0261236863248131,-0.541088404815152
-0.019462366811917,-0.525138165803263
-0.012585863082401,-0.509030486938225
-0.00549519572530852,-0.492776737380805
0.00180832899279067,-0.476388340413779
0.00932311900338138,-0.459876763276862
0.0170472966135724,-0.443253506980256
0.0249786989858228,-0.426530096106625
0.0331148789196948,-0.409718068611312
0.0414531059351939,-0.39282896563061
0.0499903676569559,-0.375874321307883
0.0587233714982376,-0.358865652647312
0.0676485466433602,-0.341814449405016
0.0767620463269629,-0.324732164027237
0.0860597504081139,-0.307630201645244
0.0955372682370375,-0.290519910136541
0.105189941811914,-0.273412570261908
0.115012849222918,-0.256319385887687
0.125000808380375,-0.23925147430269
0.135148381023621,-0.222219856638954
0.145449877006867,-0.205235448405506
0.155899358858095,-0.188309050144143
0.166490646606743,-0.171451338216147
0.177217322875632,-0.154672855728684
0.188072738232356,-0.137984003609531
0.199050016795089,-0.121395031838575
0.210142062087463,-0.104916030844426
0.221341563136983,-0.0885569230742744
0.232641000811143,-0.0723274547449641
0.244032654385194,-0.0562371877830679
0.255508608335261,-0.0402954919615667
0.267060759350303,-0.0245115372405216
0.278680823556151,-0.00889428631893635
0.290360343944671,0.00654751259521385
0.302090698000878,0.0218053327900257
0.313863105520622,0.0368708758232529
0.325668636611271,0.0517360780581291
0.337498219867647,0.0663931169553697
0.349342650715249,0.0808344171155307
0.361192599912676,0.0950526560661614
0.373038622204953,0.109040769788436
0.384871165119341,0.122791957978219
0.396680577895033,0.136299689036765
0.408457120538037,0.149557704786558
0.420190972992362,0.162560024908035
0.431872244418565,0.175300951093233
0.443490982570546,0.187775070912692
0.455037183261412,0.199977261392207
0.466500799909114,0.211902692296335
0.477871753152493,0.223546829115848
0.489139940528265,0.234905435756599
0.500295246199451,0.24597457692761
0.511327550725654,0.256750620226439
0.522226740865574,0.267230237920217
0.532982719402081,0.27741040842105
0.543585414980168,0.287288417454752
0.554024791948057,0.296861858922234
0.564290860191742,0.306128635453116
0.574373684953241,0.315086958651492
0.584263396622846,0.323735349034053
0.593950200495663,0.332072635661072
0.603424386482786,0.340097955461091
0.612676338767468,0.347810752250425
0.621696545396702,0.355210775448909
0.630475607798693,0.362298078493623
0.639004250216758,0.369073016952623
0.647273329050259,0.375536246340997
0.655273842093293,0.381688719641872
0.662996937661903,0.387531684535287
0.67043392360074,0.393066680338121
0.677576276160157,0.398295534658577
0.684415648734893,0.403220359768985
0.690943880455585,0.407843548700968
0.697153004624532,0.412167771067303
0.703035256987241,0.416195968615052
0.708583083831468,0.419931350514842
0.713789149905624,0.423377388391387
0.718646346148583,0.426537811100645
0.723147797223107,0.429416599259215
0.727286868845312,0.432017979531849
0.731057174902764,0.434346418683181
0.734452584354019,0.436406617400004
0.737467227902617,0.43820350389066
0.74009550443878,0.439742227268322
0.742332087242244,0.441028150725153
0.744171929939939,0.442066844504552
0.745610272212426,0.442864078678864
0.74664264524326,0.443425815740149
0.747264876905693,0.443758203011781
0.747473096681388,0.443867564888801
0.747263740306075,0.443760394915153
0.746633554137328,0.443443347706055
0.745579599239942,0.442923230723934
0.744099255184629,0.442206995916475
0.742190223556065,0.441301731225479
0.739850531166554,0.440214651975358
0.737078532971929,0.438953092150182
0.73387291468652,0.437524495568336
0.730232695094386,0.435936406963909
0.726157228054241,0.434196462984061
0.721646204195851,0.432312383111648
0.716699652305943,0.43029196052251
0.711317940401993,0.428143052886828
0.705501776492549,0.425873573124073
0.69925220902306,0.423491480121039
0.692570627006478,0.421004769422551
0.685458759838224,0.418421463904417
0.677918676795393,0.415749604438228
0.669952786220399,0.4129972405576
0.661563834389576,0.410172421135461
0.652754904067513,0.407283185081954
0.64352941274828,0.404337552072511
0.633891110584932,0.401343513315624
0.623844078009045,0.398309022369772
0.61339272304229,0.395241986018936
0.602541778302398,0.392150255216056
0.591296297706116,0.389041616103708
0.579661652872109,0.385923781121209
0.567643529226996,0.38280438020726
0.555247921818046,0.379690952107131
0.542481130836321,0.376590935793297
0.529349756854337,0.373511662008303
0.515860695782605,0.370460344938512
0.502021133549682,0.367444074027264
0.487838540510621,0.364469805935807
0.473320665588996,0.361544356660245
0.458475530157931,0.358674393812537
0.443311421665794,0.355866429073473
0.427836887012509,0.353126810825318
0.412060725682641,0.350461716971663
0.395991982641682,0.347877147951837
0.379639941002165,0.345378919957004
0.363014114466492,0.342972658354889
0.346124239553539,0.340663791329847
0.328980267616362,0.338457543744795
0.311592356658479,0.336358931231256
0.293970862956457,0.334372754513573
0.27612633249666,0.332503593973102
0.258069492234248,0.33075580445792
0.239811241182672,0.329133510343386
0.221362641342058,0.327640600848575
0.202734908475058,0.326280725613413
0.183939402738889,0.325057290541006
0.164987619182396,0.323973453909444
0.145891178117148,0.323032122757056
0.126661815371668,0.32223594954481
0.107311372438014,0.321587329099302
0.0878517865200661,0.321088395839452
0.0682950804929109,0.320741021289769
0.048653352782866,0.320546811882733
0.0289387671777177,0.320507107052575
0.00916354257683454,0.320622977622396
-0.0106600573091277,0.320895224486327
-0.0305197342991617,0.321324377588077
-0.0504031661136894,0.321910695196944
-0.0702980167673383,0.322654163482066
-0.0901919469728766,0.323554496385364
-0.110072624546428,0.324611135793343
-0.129927734804105,0.325823252007609
-0.149744990940214,0.327189744513658
-0.169512144377172,0.328709243047177
-0.18921699507735,0.330380108956824
-0.208847401807051,0.332200436862116
-0.228391292342909,0.334168056604784
-0.247836673611039,0.336280535491642
-0.267171641749332,0.338535180826719
-0.286384392083376,0.340929042730121
-0.305463229006563,0.343458917240776
-0.324396575755016,0.346121349699963
-0.343172984068137,0.348912638412195
-0.361781143725592,0.351828838579779
-0.380209891951769,0.35486576650709
-0.398448222678806,0.358019004070302
-0.41648529565946,0.361283903448073
-0.434310445421226,0.364655592108411
-0.451913190053262,0.368128978046664
-0.469283239817859,0.37169875526936
-0.486410505578358,0.375359409518325
-0.503285107035583,0.379105224229319
-0.519897380765076,0.382930286719125
-0.536237888047585,0.38682849459485
-0.552297422485488,0.390793562378943
-0.568067017398016,0.394819028343197
-0.583537952988387,0.398898261544843
-0.598701763276152,0.403024469057565
-0.61355024278832,0.407190703390128
-0.628075453003042,0.411389870085087
-0.642269728539873,0.415614735489846
-0.656125683090915,0.419857934692211
-0.669636215087343,0.424111979612345
-0.682794513096122,0.42836926724292
-0.695594060941977,0.432622088029097
-0.708028642549922,0.436862634379797
-0.720092346503961,0.441083009301625
-0.731779570317833,0.445275235146642
-0.743085024413965,0.449431262465111
-0.754003735807062,0.453542978954171
-0.7645310514891,0.457602218493347
-0.774662641512702,0.461600770257685
-0.784394501770271,0.465530387899206
-0.793722956466451,0.469382798787344
-0.802644660281874,0.473149713298908
-0.811156600226387,0.476822834148111
-0.819256097180298,0.480393865747124
-0.826940807122475,0.483854523587588
-0.834208722044414,0.487196543633507
-0.841058170549746,0.4904116917159
-0.847487818138913,0.493491772919602
-0.853496667179081,0.496428640952604
-0.859084056559651,0.499214207488332
-0.864249661034045,0.501840451471271
-0.868993490248742,0.504299428376416
-0.87331588746085,0.506583279413012
-0.877217527945796,0.508684240663143
-0.880699417097036,0.510594652145767
-0.88376288821996,0.51230696679688
-0.886409600022493,0.513813759356537
-0.888641533805164,0.515107735153588
-0.890460990353723,0.51618173877906
-0.891870586537686,0.517028762639215
-0.892873251618423,0.517641955379457
-0.893472223270767,0.518014630170346
-0.89367104332232,0.518140272847159
-0.893473553214961,0.518012549894518
-0.89288388919331,0.517625316267818
-0.891906477225161,0.516972623043299
-0.89054602765917,0.516048724888787
-0.888807529625336,0.51484808734732
-0.886696245184049,0.513365393926023
-0.88421770322974,0.511595552982821
-0.881377693155397,0.509533704403744
-0.878182258284436,0.507175226063815
-0.874637689076653,0.504515740064688
-0.87075051611519,0.50155111874245
-0.866527502881662,0.498277490439222
-0.861975638326801,0.494691245032393
-0.857102129244159,0.490789039215618
-0.851914392454609,0.486567801525893
-0.846420046809565,0.482024737111308
-0.840626905020998,0.477157332234326
-0.83454296532652,0.471963358505683
-0.828176402997941,0.466440876844286
-0.821535561701853,0.460588241158739
-0.814628944720954,0.45440410174642
-0.807465206044934,0.447887408406292
-0.800053141339881,0.441037413261926
-0.792401678805275,0.433853673291484
-0.784519869927744,0.426336052561723
-0.776416880140841,0.418484724163355
-0.768101979400209,0.410300171845385
-0.759584532683553,0.401783191346374
-0.750873990424928,0.392934891420858
-0.741979878892885,0.383756694559433
-0.732911790522096,0.37425033740137
-0.723679374208092,0.364417870838875
-0.714292325574787,0.354261659812452
-0.704760377224488,0.343784382797109
-0.695093288980091,0.332989030979473
-0.685300838129158,0.321878907126163
-0.675392809679593,0.310457624144094
-0.665378986636565,0.298729103333692
-0.655269140310348,0.286697572336282
-0.645073020664679,0.274367562777242
-0.634800346715196,0.2617439076068
-0.624460796987467,0.248831738140654
-0.614064000044047,0.235636480802906
-0.603619525089925,0.222163853574068
-0.593136872665643,0.20841986214723
-0.582625465437277,0.194410795795732
-0.572094639092347,0.180143222955995
-0.561553633350649,0.16562398652944
-0.551011583098827,0.150860198907704
-0.540477509657443,0.135859236725633
-0.529960312189078,0.120628735346812
-0.519468759255951,0.105176583086662
-0.509011480535281,0.0895109151783669
-0.498596958700551,0.0736401074872006
-0.488233521476585,0.0575727699790183
-0.477929333876227,0.0413177399489691
-0.467692390626176,0.0248840750166985
-0.45753050878938,0.00828104589455465
-0.447451320591148,-0.00848187106446419
-0.437462266455979,-0.0253950015320621
-0.427570588261834,-0.0424484810761254
-0.417783322818408,-0.0596322632309436
-0.408107295575693,-0.0769361277586105
-0.398549114568904,-0.094349689093808
-0.389115164605605,-0.111862404964038
-0.379811601700604,-0.129463585177157
-0.370644347763954,-0.147142400567917
-0.361619085547128,-0.164887892095049
-0.352741253852183,-0.182688980080272
-0.344016043008448,-0.200534473580469
-0.33544839062101,-0.218413079884139
-0.327042977594992,-0.236313414123098
-0.318804224439342,-0.254224008990284
-0.310736287853551,-0.272133324554454
-0.302843057600464,-0.290029758162356
-0.295128153668019,-0.30790165441902
-0.287594923722493,-0.325737315236573
-0.280246440855515,-0.343525009942039
-0.273085501626804,-0.361252985434454
-0.266114624404333,-0.37890947638156
-0.259336048003254,-0.396482715446386
-0.25275173062468,-0.413960943533857
-0.246363349095069,-0.4313324200477
-0.240172298406692,-0.448585433147746
-0.234179691559314,-0.465708309997866
-0.228386359702971,-0.482689426994666
-0.222792852581378,-0.499517219967154
-0.217399439275204,-0.516180194337598
-0.212206109244181,-0.532666935233789
-0.20721257366667,-0.548966117543053
-0.202418267075026,-0.565066515898294
-0.197822349284826,-0.580957014586516
-0.193423707615676,-0.596626617370282
-0.189220959401077,-0.61206445721268
-0.185212454784497,-0.627259805896412
-0.181396279798532,-0.642202083527805
-0.177770259723731,-0.656880867916542
-0.174331962723407,-0.671285903822133
-0.171078703750452,-0.685407112058201
-0.168007548721914,-0.699234598445815
-0.165115318956819,-0.712758662607272
-0.162398595872464,-0.725969806591825
-0.159853725934123,-0.738858743325087
-0.157476825852901,-0.751416404873933
-0.155263788026152,-0.76363395051897
-0.153210286214702,-0.775502774626773
-0.151311781450838,-0.787014514314316
-0.149563528170793,-0.798161056898207
-0.147960580565255,-0.808934547121545
-0.146497799141188,-0.81932739415144
-0.145169857488041,-0.829332278340453
-0.143971249241228,-0.838942157745432
-0.142896295235552,-0.848150274397469
-0.141939150841058,-0.856950160316938
-0.141093813473617,-0.865335643267809
-0.140354130272371,-0.873300852245712
-0.139713805935986,-0.880840222694439
-0.139166410709527,-0.887948501445891
-0.138705388513586,-0.894620751378684
-0.138324065207173,-0.900852355790956
-0.138015656975737,-0.906639022483153
-0.137773278835564,-0.911976787546869
-0.137589953245662,-0.916862018856099
-0.137458618818168,-0.92129141925756
-0.137372139118183,-0.925262029457008
-0.137323311543857,-0.928771230598778
-0.137304876277486,-0.931816746536096
-0.13730952529828,-0.934396645789978
-0.137329911447415,-0.936509343194849
-0.13735865753594,-0.938153601229316
-0.137388365486036,-0.939328531030843
-0.137411625496125,-0.940033593093364
-0.137421025220268,-0.940268597647197
