0.616605622322348,-0.549251597649367
0.63317459986878,-0.523931188950707
0.646950549859881,-0.496868561186637
0.657851141964835,-0.468306927880219
0.665841969774177,-0.438508559312795
0.67093784247104,-0.40774816519008
0.673202931762463,-0.376306053579336
0.672749763464949,-0.344461239930242
0.669737071270176,-0.312484680509962
0.664366557983325,-0.280632800748615
0.65687863624401,-0.249141480906415
0.647547245749957,-0.218220649345218
0.636673866689356,-0.18804961782242
0.624580868889313,-0.158773274023982
0.611604352615554,-0.130499224498463
0.598086649606049,-0.103295956798544
0.584368661474642,-0.0771920635907144
0.570782216867161,-0.0521765444095158
0.557642628584448,-0.028200173287278
0.54524162730585,-0.00517789336980131
0.533840839662692,0.0170078264893388
0.523665965440114,0.0385027626256862
0.514901791943632,0.0594759466178133
0.507688163463138,0.0801140455389123
0.502117000793642,0.100615259516088
0.498230440491309,0.121182896069272
0.496020136574502,0.142018789046472
0.495427739383148,0.163316734090156
0.496346537971697,0.185256112356605
0.498624224425189,0.207995869669544
0.502066711539795,0.231669009532574
0.506442910057991,0.256377745668195
0.511490348711827,0.282189443310547
0.51692150026572,0.309133458762295
0.522430660052114,0.337198964222978
0.52770121056542,0.366333820165914
0.532413096834908,0.396444531198436
0.536250332748243,0.427397294041406
0.538908358350493,0.459020118688471
0.540101072396694,0.491105976640555
0.539567372979096,0.523416904034287
0.537077051666798,0.55568896314557
0.53243590296951,0.587637943759723
0.52548993065981,0.618965666808476
0.516128555068662,0.649366736960779
0.504286750346196,0.678535578914937
0.48994606723658,0.706173584276801
0.47313452449437,0.731996192324537
0.453925379987346,0.755739728751132
0.432434820097282,0.777167831629057
0.408818632564517,0.796077303237255
0.383267952769876,0.812303239803591
0.356004195996256,0.825723308321025
0.327273307907271,0.836261059976594
0.29733948183836,0.843888192890714
0.266478504116273,0.848625702233257
0.234970897198687,0.850543882740046
0.20309503475016,0.849761176536711
0.171120402742568,0.846441887300794
0.139301176294842,0.840792809465419
0.107870273362968,0.833058847707292
0.0770340337768682,0.823517726714078
0.0469676558152688,0.812473913580794
0.0178115029238158,0.800251894589779
-0.0103316291923186,0.787188964104437
-0.0373982194711837,0.773627695457836
-0.0633646629739174,0.759908271741855
-0.0882468346903394,0.746360858100747
-0.112098590861214,0.733298196411094
-0.135009250039974,0.721008598103054
-0.15710012206257,0.709749501469034
-0.178520177305677,0.699741746344078
-0.199440970485899,0.691164701855878
-0.22005095223913,0.684152362451486
-0.240549317345371,0.678790504113897
-0.261139550338992,0.675114967155059
-0.282022837070221,0.673111104837771
-0.303391514363873,0.672714409002001
-0.325422729164995,0.673812295539181
-0.348272473485263,0.676247004664919
-0.37207015219328,0.679819544169133
-0.396913827455405,0.68429457882803
-0.422866266759525,0.689406146555642
-0.449951901360831,0.694864062205959
-0.478154779175297,0.700360853689475
-0.507417571180207,0.705579062635316
-0.537641663882682,0.710198733512853
-0.568688343046263,0.713904911124407
-0.600381046303877,0.716394966786094
-0.632508635219894,0.717385578311646
-0.664829611469733,0.716619197980151
-0.697077177729169,0.713869855774249
-0.72896502220934,0.708948161992025
-0.760193687079821,0.701705393444121
-0.790457365760816,0.692036570347068
-0.819450962621024,0.67988245614574
-0.846877241280914,0.665230439219042
-0.8724538846807,0.648114283081526
-0.895920291411189,0.628612759605084
-0.917043938498012,0.606847207259146
-0.935626150742059,0.582978082726474
-0.951507130613192,0.557200598844429
-0.964570120233432,0.529739564042595
-0.974744587742619,0.500843557750489
-0.982008353806606,0.470778592159906
-0.986388599630458,0.439821422856273
-0.987961724948994,0.408252678886867
-0.986852052418136,0.376349986617564
-0.983229402935849,0.344381261155887
-0.977305593989127,0.312598334207519
-0.969329939474555,0.281231078114175
-0.959583853924903,0.250482172725519
-0.94837468608888,0.220522645018044
-0.936028925812077,0.19148829141101
-0.922884943684437,0.163477070045155
-0.909285434569187,0.136547525452828
-0.895569743620729,0.110718281680345
-0.882066256547615,0.0859686126846667
-0.869085034601089,0.0622400713980163
-0.856910869098477,0.0394391319213793
-0.845796920360656,0.0174407735440581
-0.835959091995522,-0.00390708866476748
-0.82757127383517,-0.0247784434867108
-0.820761565964333,-0.0453634287921607
-0.815609572672158,-0.0658621329473936
-0.812144829396723,-0.0864781143354784
-0.810346398442743,-0.107411808239367
-0.810143641106195,-0.128853993376484
-0.811418145524614,-0.150979489074712
-0.814006761781959,-0.17394124847046
-0.817705669212528,-0.197865003328474
-0.822275376119986,-0.222844602371941
-0.82744652985951,-0.248938167710142
-0.832926395967221,-0.276165173488794
-0.838405849230943,-0.304504527773432
-0.84356670766362,-0.333893713483439
-0.848089232554108,-0.364229017550213
-0.851659614315845,-0.39536685004062
-0.85397726481147,-0.427126127449699
-0.854761742171776,-0.459291667410902
-0.853759143713035,-0.491618516370509
-0.850747816146128,-0.523837107967253
-0.845543249523782,-0.555659128544043
-0.838002041858296,-0.586783947930055
-0.828024844551763,-0.616905458828023
-0.815558224137655,-0.645719157196696
-0.800595402707821,-0.672929289210413
-0.783175867126878,-0.698255887882478
-0.763383865030419,-0.721441524325649
-0.741345832974977,-0.742257604852419
-0.717226828280458,-0.760510055542924
-0.691226060434027,-0.776044250278525
-0.663571639809305,-0.788749056205605
-0.634514680357745,-0.798559891718916
-0.604322908386769,-0.805460715820505
-0.57327394117357,-0.809484893536344
-0.541648406691812,-0.810714909324831
-0.509723078970012,-0.809280928419588
-0.47776420248116,-0.805358234124809
-0.446021173517194,-0.799163596533695
-0.414720736870865,-0.79095065429309
-0.38406184257673,-0.781004415245451
-0.354211290295517,-0.769635003445642
-0.325300268594172,-0.757170798639459
-0.297421873388106,-0.743951129343859
-0.270629664748762,-0.730318691812532
-0.244937294766288,-0.716611874128185
-0.220319211857131,-0.703157167260576
-0.196712419502475,-0.690261843100523
-0.174019240580535,-0.678207073266831
-0.152111012884061,-0.667241652035607
-0.130832617732972,-0.65757647231391
-0.11000772239243,-0.649379885524455
-0.0894445988188311,-0.64277405502655
-0.0689423665347721,-0.637832388790495
-0.0482974965475083,-0.634578111053778
-0.0273104064466631,-0.632984005254074
-0.00579197431651227,-0.632973332328358
0.0164301990597698,-0.634421900180306
0.039505944086158,-0.637161232442165
0.0635572464247219,-0.640982758270177
0.0886736811657403,-0.645642920459724
0.114908679289614,-0.650869077245548
0.142276727790222,-0.656366054298758
0.170751581422224,-0.661823188105226
0.200265538625453,-0.666921690481832
0.230709807400051,-0.671342156733897
0.261935959422981,-0.67477203705227
0.293758443194625,-0.676912892257806
0.325958100168927,-0.677487260881616
0.358286602321613,-0.676244974670906
0.390471706085418,-0.67296877367811
0.422223196617456,-0.667479089773291
0.453239378487471,-0.659637888275686
0.483213954536001,-0.649351480911036
0.511843124210589,-0.636572248883296
0.538832726411768,-0.621299241868078
0.563905249931445,-0.603577646521684
0.58680653700019,-0.583497145966232
0.607312012223918,-0.561189218969609
