0.195878922448767,-0.104497404897675
0.19664914505471,-0.107161304304662
0.197545550417095,-0.109829840291034
0.198569152142585,-0.112497678179312
0.199720752095143,-0.115159425402728
0.201000937798456,-0.117809639577831
0.202410080137619,-0.120442836681907
0.203948331364072,-0.123053499324334
0.20561562340736,-0.125636085100877
0.207411666496945,-0.128185035019763
0.209335948096842,-0.130694781988286
0.211387732155502,-0.133159759348564
0.213566058672909,-0.135574409451003
0.2158697435865,-0.137933192253931
0.21829737897706,-0.140230593937814
0.220847333595354,-0.142461135522409
0.223517753709841,-0.1446193814752
0.226306564275381,-0.14669994829941
0.229211470422459,-0.148697513089918
0.232229959265992,-0.150606822045396
0.235359302032408,-0.152422698925014
0.23859655650323,-0.154140053438124
0.241938569773025,-0.155753889555344
0.245381981319115,-0.157259313729587
0.248923226380091,-0.158651543015638
0.252558539639707,-0.15992591307697
0.256283959212373,-0.161077886068645
0.260095330926035,-0.162103058385237
0.263988312897844,-0.162997168262866
0.267958380397636,-0.16375610322462
0.272000830993822,-0.164375907358755
0.27611078997596,-0.164852788419312
0.280283216047857,-0.165183124738933
0.284512907284716,-0.165363471943911
0.288794507347459,-0.165390569461706
0.29312251194703,-0.165261346811411
0.297491275551111,-0.164972929667898
0.301895018325372,-0.164522645690631
0.30632783330103,-0.163908030108416
0.310783693760194,-0.163126831051636
0.315256460830151,-0.162177014623819
0.319739891277462,-0.161056769704695
0.324227645492435,-0.159764512477208
0.328713295654297,-0.158298890671302
0.333190334067087,-0.156658787517598
0.337652181656062,-0.154843325404466
0.342092196614175,-0.152851869232333
0.346503683187927,-0.150684029459428
0.350879900591716,-0.148339664833563
0.355214072039571,-0.145818884804894
0.359499393883002,-0.143122051615036
0.36372904484349,-0.140249782058262
0.367896195328011,-0.137202948910952
0.371994016815816,-0.133982682025829
0.376015691304563,-0.130590369087982
0.379954420803792,-0.127027656030035
0.383803436863609,-0.123296447104292
0.387556010126363,-0.119398904610091
0.391205459889036,-0.115337448275033
0.394745163663992,-0.111114754289187
0.398168566725685,-0.106733753991806
0.401469191630923,-0.102197632210529
0.404640647700226,-0.0975098252534771
0.407676640447861,-0.0926740185550951
0.410570980948126,-0.0876941439770268
0.413317595125502,-0.0825743767657537
0.415910532956319,-0.0773191321691646
0.418343977569681,-0.0719330617146593
0.420612254235424,-0.0664210491518262
0.422709839227022,-0.060788206063167
0.424631368547427,-0.0550398671467706
0.42637164650598,-0.0491815851752648
0.427925654134645,-0.0432191256357993
0.429288557431989,-0.0371584610562274
0.430455715423492,-0.0310057650230731
0.431422688026948,-0.0247674058972712
0.432185243711926,-0.0184499402340751
0.432739366942467,-0.0120601059139197
0.4330812653924,-0.00560481499141641
0.433207376922941,0.000908853729964951
0.433114376312437,0.00747366238959524
0.432799181728432,0.0140822220194735
0.43225896093247,0.0207270007434523
0.43149113720837,0.027400332216906
0.430493395005,0.034094424297509
0.429263685284876,0.0408013679374671
0.42780023057028,0.0475131462872253
0.426101529678877,0.054221644000378
0.424166362141199,0.0609186567292056
0.421993792292712,0.0675959007999878
0.419583173033543,0.0742450230569719
0.416934149249332,0.0808576108636158
0.414046660887053,0.0874252022494865
0.410920945680074,0.0939392961909591
0.407557541517075,0.10039136301365
0.403957288449922,0.106772854904308
0.400121330335973,0.11307521651971
0.396051116110722,0.119289895679913
0.391748400687149,0.125408354133083
0.387215245478559,0.131422078378939
0.38245401854214,0.137322590537769
0.377467394340936,0.143101459251802
0.37225835312238,0.148750310605676
0.366830179911972,0.154260839052621
0.361186463121191,0.15962481833292
0.355331092769153,0.164834112371175
0.349268258318012,0.169880686138824
0.343002446122584,0.174756616468404
0.336538436495125,0.179454102805977
0.329881300386667,0.183965477888206
0.323036395686798,0.188283218330566
0.31600936314424,0.192399955113233
0.308806121911042,0.196308483951246
0.301432864713677,0.20000177553563
0.293896052654802,0.203472985632239
0.286202409649903,0.20671546502521
0.278358916503499,0.209722769292042
0.270372804630041,0.212488668397431
0.262251549425103,0.215007156093191
0.254002863292892,0.217272459111731
0.245634688336559,0.219279046140762
0.237155188718215,0.221021636567115
0.228572742696016,0.222495208977757
0.21989593434605,0.223695009406352
0.211133544977235,0.224616559313927
0.202294544247792,0.225255663292511
0.193388080992294,0.225608416480857
0.184423473768643,0.225671211681662
0.175410201134747,0.225440746170027
0.166357891665004,0.224914028183171
0.157276313717082,0.224088383081805
0.148175364959811,0.222961459173859
0.139065061673363,0.221531233191664
0.129955527833199,0.219796015414023
0.120856983989594,0.217754454425005
0.111779735954823,0.21540554150169
0.102734163310408,0.212748614623474
0.0937307077470926,0.209783362096001
0.0847798612504348,0.206509825783153
0.0758921541452147,0.202928403941017
0.0670781430120299,0.199039853648156
0.0583483984896981,0.194845292826976
0.0497134929772749,0.190346201851423
0.0411839882496862,0.18554442473674
0.0327704230011364,0.180442169907454
0.0244833003306176,0.175042010540256
0.0163330751839739,0.169346884478929
0.00833014176709843,0.163360093718951
0.000484820944950226,0.157085303459921
-0.00719265235884245,0.150526540724418
-0.014692141746948,0.14368819254245
-0.0220036219029698,0.136575003701111
-0.0291171911008275,0.129192074059611
-0.036023083653925,0.121544855430335
-0.0427116822891546,0.113639148027086
-0.0491735304307955,0.105481096482219
-0.0553993443794024,0.0970771854348384
-0.0613800253708247,0.0884342346927797
-0.0671066715005739,0.0795593939715852
-0.0725705894988292,0.0704601372142085
-0.0777633063414851,0.0611442564956743
-0.0826765806827601,0.0516198555174381
-0.0873024140950205,0.0418953426966832
-0.0916330621016341,0.0319794238562914
-0.0956610449888335,0.021881094521717
-0.0993791583827627,0.0116096318314815
-0.102780483578083,0.00117458606848238
-0.105858397604735,-0.00941422818020358
-0.108606583019699,-0.020146741226891
-0.111019037410835,-0.0310126378416201
-0.113090082600182,-0.0420013671562032
-0.114814373534345,-0.0531021529044883
-0.116186906849932,-0.0643040039888981
-0.117203029102309,-0.0755957253628912
-0.117858444646266,-0.0869659292185681
-0.118149223157542,-0.0984030464682423
-0.118071806784511,-0.109895338508403
-0.11762301691972,-0.12143090925412
-0.116800060581333,-0.132997717431553
-0.115600536394951,-0.144583589115905
-0.114022440166704,-0.156176230501764
-0.112064170038903,-0.167763240892513
-0.109724531220009,-0.179332125895105
-0.107002740281106,-0.19087031080624
-0.103898429011536,-0.202365154175684
-0.100411647826813,-0.213803961532195
-0.0965428687224183,-0.225173999257252
-0.0922929877675775,-0.236462508591575
-0.087663327133592,-0.247656719759155
-0.0826556366518343,-0.258743866193349
-0.0772720948970085,-0.269711198849366
-0.0715153097918093,-0.280546000587324
-0.0653883187296318,-0.291235600609877
-0.0588945882125309,-0.301767388938293
-0.0520380130021534,-0.312128830910726
-0.044822914781921,-0.32230748168633
-0.0372540403292851,-0.332291000738771
-0.0293365591974287,-0.342067166322631
-0.0210760609063423,-0.351623889896153
-0.0124785516437642,-0.36094923048373
-0.00355045047702587,-0.370031408961542
0.00570141492258711,-0.378858822249758
0.0152698130407931,-0.387420057394729
0.0251471137638676,-0.39570390552465
0.0353252941014967,-0.403699375662254
0.0457959443850918,-0.41139570837813
0.0565502749371581,-0.418782389268433
0.0675791232067619,-0.425849162240806
0.0788729613655874,-0.432586042592516
0.0904219043585311,-0.438983329864942
0.102215718402235,-0.445031620458758
0.114243829924425,-0.450721819994295
0.126495334936388,-0.45604515540185
0.138959008830397,-0.460993186726884
0.151623316593386,-0.465557818635323
0.164476423427638,-0.469731311604449
0.177506205768776,-0.473506292785149
0.19070026269085,-0.476875766521567
0.204045927687811,-0.479833124514576
0.217530280820199,-0.482372155615763
0.231140161215424,-0.484487055239016
0.244862179909546,-0.486172434377151
0.25868273301802,-0.487423328211394
0.272588015222459,-0.488235204301959
0.286564033560048,-0.488603970348335
0.300596621501829,-0.488525981508372
0.314671453305688,-0.487998047265654
0.328774058629534,-0.487017437835127
0.342889837389749,-0.485581890097425
0.357004074849678,-0.483689613052789
0.371101956922602,-0.481339292786
0.385168585673298,-0.478530096934238
0.399188995002014,-0.475261678650289
0.413148166494411,-0.471534180054064
0.42703104542074,-0.467348235165925
0.440822556867306,-0.462704972315856
0.454507621983009,-0.457606016023072
0.468071174323592,-0.452053488341244
0.481498176275979,-0.446050009665054
0.494773635544968,-0.439598698994402
0.507882621684346,-0.432703173653165
0.520810282654406,-0.425367548459995
0.533541861387689,-0.417596434349235
0.546062712344707,-0.409394936440661
0.558358318041329,-0.400768651557316
0.570414305529444,-0.391723665191361
0.582216462812498,-0.382266547918443
0.593750755177469,-0.372404351261712
0.605003341424881,-0.362144603007222
0.615960589978449,-0.351495301973081
0.62660909485604,-0.340464912235308
0.636935691483643,-0.329062356813998
0.646927472334207,-0.317297010823978
0.65657180237324,-0.305178694094775
0.665856334293257,-0.292717663265301
0.674769023519256,-0.279924603359293
0.683298142967635,-0.266810618848109
0.691432297541092,-0.253387224208117
0.699160438342318,-0.239666333980471
0.706471876589471,-0.225660252341667
0.713356297216725,-0.211381662193856
0.719803772143399,-0.196843613784437
0.725804773195524,-0.182059512865036
0.731350184663952,-0.167043108400534
0.736431315483492,-0.151808479839299
0.741039911017874,-0.136370023956401
0.745168164435703,-0.120742441282015
0.748808727662974,-0.10494072212779
0.751954721898089,-0.0889801322244436
0.754599747675757,-0.0728761979843183
0.756737894466566,-0.0566446914031141
0.758363749799496,-0.0403016146154867
0.759472407895079,-0.0238631841196206
0.760059477797416,-0.00734581468632935
0.760121090993731,0.00923389703133935
0.759653908510684,0.0258591891716507
0.758655127477158,0.0425131516041079
0.757122487143797,0.0591787431186596
0.755054274350101,0.0758388088467203
0.752449328430465,0.0924760978962115
0.749307045551116,0.109073281182516
0.745627382470476,0.125612969436946
0.7414108597161,0.142077731374054
0.736658564171924,0.15845011199884
0.731372151070167,0.174712651034708
0.725553845382892,0.190847901452775
0.719206442608808,0.206838448082954
0.712333308951591,0.222666926287054
0.704938380886597,0.238316040674001
0.697026164113531,0.253768583837119
0.688601731893268,0.269007455093326
0.6796707227677,0.284015679204006
0.670239337662132,0.298776425057228
0.660314336370442,0.313273024290969
0.649903033423856,0.327488989836942
0.639013293344911,0.341408034364647
0.627653525288797,0.355014088605282
0.615832677074994,0.368291319535181
0.603560228612751,0.381224148398518
0.590846184724668,0.393797268549103
0.577701067373268,0.405995663091202
0.564135907296158,0.417804622299448
0.550162235056004,0.429209760798061
0.535792071512233,0.440197034479756
0.521037917722018,0.450752757144953
0.505912744278751,0.460863616842076
0.490429980096861,0.470516691890003
0.474603500652447,0.479699466563975
0.458447615689879,0.488399846426563
0.441977056405057,0.496606173285587
0.42520696211671,0.504307239761223
0.408152866437671,0.511492303444858
0.390830682958667,0.518151100632645
0.373256690457732,0.524273859617076
0.355447517648952,0.529851313520298
0.337420127484753,0.53487471265334
0.319191801026542,0.53933583638584
0.300780120898974,0.543227004511344
0.282202954343706,0.546541088093705
0.263478435888922,0.54927151978064
0.244624949651455,0.551412303570976
0.225661111288758,0.552958024022697
0.20660574961845,0.553903854889403
0.187477887923578,0.554245567173387
0.168296724962158,0.553979536584102
0.149081615699957,0.553102750391384
0.129852051785845,0.551612813663391
0.1106276417894,0.549507954879872
0.0914280912208167,0.546787030911957
0.0722731823534298,0.543449531360356
0.053182753869522,0.539495582244475
0.0341766803503164,0.534925949035635
0.0152748516313257,0.529742039028255
-0.0035028479555364,0.523945903043541
-0.0221365604314842,0.517540236460911
-0.0406064750902136,0.51052837957311
-0.0588928494651325,0.502914317261641
-0.0769760303223572,0.494702677989872
-0.0948364746572585,0.485898732111909
-0.112454770672229,0.476508389496028
-0.129811658713312,0.466538196462185
-0.146888052143206,0.455995332033894
-0.163665058128255,0.444887603505432
-0.18012399831689,0.433223441326134
-0.19624642938716,0.421011893304229
-0.212014163440917,0.408262618133413
-0.227409288222355,0.394985878246132
-0.242414187138714,0.381192531998205
-0.257011559061013,0.366894025190244
-0.271184437882905,0.352102381931954
-0.284916211815836,0.336830194856232
-0.298190642398965,0.321090614690598
-0.310991883202442,0.304897339194297
-0.323304498202932,0.288264601470047
-0.335113479810527,0.271207157660173
-0.346404266526462,0.253740274037513
-0.357162760211376,0.235879713502191
-0.367375342944193,0.217641721496026
-0.377028893452035,0.199043011347021
-0.386110803091985,0.180100749057009
-0.394608991365914,0.160832537546185
-0.402511920949959,0.141256400368927
-0.409808612220783,0.121390764915834
-0.416488657261091,0.10125444511764
-0.422542233327464,0.0808666236671193
-0.427960115764022,0.0602468337757853
-0.432733690345939,0.0394149404827002
-0.436854965037444,0.0183911215332151
-0.440316581149412,-0.00280415215390521
-0.443111823882314,-0.0241501364121492
-0.445234632240815,-0.0456258341262548
-0.446679608306993,-0.0672100158847492
-0.447442025859715,-0.088881240965647
-0.447517838328407,-0.110617878634629
-0.446903686070075,-0.132398129734498
-0.445596902959126,-0.154200048544376
-0.443595522280227,-0.176001564886752
-0.440898281915128,-0.197780506460071
-0.437504628815096,-0.219514621374314
-0.433414722751342,-0.241181600866654
-0.42862943933652,-0.262759102174031
-0.423150372311178,-0.28422477153921
-0.416979835089734,-0.305556267326683
-0.410120861561374,-0.326731283224512
-0.40257720614197,-0.347727571508128
-0.394353343073973,-0.368522966341809
-0.385454464971937,-0.389095407093567
-0.375886480612181,-0.409422961638964
-0.365656011965869,-0.429483849629319
-0.354770390475554,-0.449256465699783
-0.343237652576091,-0.468719402592588
-0.331066534461565,-0.487851474170945
-0.318266466100729,-0.506631738298915
-0.304847564504213,-0.52503951956277
-0.290820626247597,-0.543054431809345
-0.276197119255215,-0.560656400477011
-0.260989173850373,-0.57782568469504
-0.245209573078464,-0.594542899127259
-0.228871742310214,-0.610789035536094
-0.211989738133139,-0.626545484043285
