0.239946923012097,0.00894175163225275
0.237960873242221,0.00973327786309664
0.235905775540453,0.0104317808646648
0.233785563321013,0.0110337269794065
0.2316043230981,0.0115357394025533
0.229366288465337,0.011934604288411
0.227075833843503,0.0122272766317041
0.22473746800477,0.0124108859154659
0.222355827382009,0.0124827415172686
0.219935669171988,0.0124403378658907
0.217481864241583,0.0122813593408415
0.214999389846405,0.0120036849074863
0.212493322171476,0.0116053924808584
0.209968828703872,0.0110847630115856
0.207431160447466,0.0104402842877183
0.204885643990117,0.00967065444660852
0.202337673433895,0.00877478519136055
0.199792702199103,0.00775180470675448
0.197256234713035,0.00660106026992788
0.194733817994611,0.00532212055149555
0.19223103314616,0.00391477760318404
0.189753486763767,0.00237904852846305
0.187306802277734,0.000715176833063776
0.184896611234829,-0.00107636654731119
0.182528544534065,-0.00299488254436477
0.180208223627871,-0.0050394435815262
0.177941251700559,-0.00720889352664845
0.17573320483606,-0.0095018479740888
0.173589623186943,-0.0119166948567502
0.171516002156732,-0.0144515953882313
0.169517783607583,-0.0171044853348019
0.167600347105348,-0.0198730766164896
0.165769001214025,-0.0227548592361329
0.164028974851603,-0.0257471035348235
0.162385408719191,-0.0288468627717348
0.160843346815314,-0.0320509760259026
0.159407728047146,-0.0353560714171023
0.158083377950351,-0.038758569642541
0.1568750005291,-0.0422546878256681
0.15578717022772,-0.045840443672989
0.15482432404525,-0.0495116599343584
0.153990753804056,-0.0532639691618225
0.153290598583483,-0.05709281876168
0.152727837329322,-0.0609934763340359
0.152306281649683,-0.0649610352937358
0.152029568807653,-0.0689904207661852
0.151901154920884,-0.0730763957511853
0.151924308378033,-0.0772135675475512
0.152102103481699,-0.0813963944309194
0.152437414327266,-0.0856191925768037
0.152932908926763,-0.089876143220617
0.153591043586565,-0.0941613000460488
0.154414057547483,-0.0984685967928645
0.155403967895426,-0.102791855074887
0.156562564750567,-0.107124792398617
0.157891406742536,-0.111461030372669
0.159391816778875,-0.115794103097909
0.161064878113618,-0.120117465727937
0.162911430722475,-0.124424503189285
0.164932067990766,-0.128708539050475
0.16712713371983,-0.132962844528849
0.169496719457278,-0.137180647623875
0.172040662156042,-0.141355142365428
0.174758542166772,-0.145479498165366
0.177649681567723,-0.14954686926054
0.180713142835864,-0.153550404235235
0.183947727862508,-0.157483255610874
0.187351977316337,-0.161338589490715
0.19092417035626,-0.165109595247137
0.194662324696125,-0.168789495239029
0.236741226208839,-0.20943352433589
0.237723337160335,-0.197794208985792
0.250682194580669,-0.159214385780966
0.211225792100917,-0.182464184456631
0.171611972192579,-0.195970461201097
0.231222236859296,-0.158692006566915
0.209128476399378,-0.216453984831712
0.230218674046372,-0.194154160750616
0.196762694286739,-0.173216075034227
0.240550606096005,-0.199129642705382
0.264728090208285,-0.169948838171476
0.251391400812587,-0.203462426352588
0.243373291603257,-0.245623259425754
0.224109814777409,-0.177701137349008
0.268516500181655,-0.208660135042228
0.274432843921267,-0.210024944755921
0.280443223937602,-0.211197779971174
0.252849056661151,-0.238966177181828
0.270681259752292,-0.172370100458903
0.298974859860637,-0.213519842072401
0.305296721002708,-0.213881245871265
0.287341209549458,-0.228369132539093
0.314248363998567,-0.166751939025382
0.282648525160242,-0.166137917914414
0.325823714570203,-0.189107836852123
0.337672037665566,-0.212433030562171
0.305606052349776,-0.241786229857536
0.313808998989902,-0.24674285299974
0.39322506153326,-0.212084835566932
0.364037109647258,-0.207202254839543
0.370626940041994,-0.205311981588748
0.375686881237824,-0.25225037208695
0.344468671272347,-0.181227665703749
0.413804489694918,-0.2042559746228
0.401152487698299,-0.206355239880914
0.391726338490488,-0.207842432598818
0.424138430372748,-0.139752486036612
0.372771462065114,-0.23497642651292
0.391102916278988,-0.230274258398285
0.451915887846576,-0.212852210927346
0.434197257478773,-0.173421878930561
0.440133929868201,-0.168946746492837
0.43709779390913,-0.196626971640291
0.416387442237662,-0.12606139248866
0.423551345193029,-0.106864092289594
0.439932297138952,-0.138844436419205
0.464678718073105,-0.140523004860624
0.473136114471251,-0.137417775981403
0.470500628379838,-0.132985922934366
0.444858873218919,-0.144192483263334
0.487582369038679,-0.118803086293777
0.492040018274018,-0.112204783529103
0.496306004704593,-0.105418350527743
0.500372883155743,-0.0984493642149004
0.504233371187133,-0.0913036843584592
0.507880359537951,-0.0839874488007755
0.511306922431618,-0.0765070683126876
0.514506327726538,-0.0688692210739044
0.517472046899595,-0.0610808467844216
0.520197764849189,-0.0531491404120725
0.522677389504811,-0.0450815455817928
0.524905061230288,-0.0368857476126322
0.526875162008046,-0.0285696662090056
0.528582324391942,-0.020141447813117
0.530021440216422,-0.0116094576259412
0.531187669050017,-0.00298227130457327
0.532076446381429,0.00573133365581389
0.532683491526731,0.0145223868467419
0.533004815246484,0.0233817341688616
0.533036727061884,0.0323000473425825
0.532775842259328,0.0412678336970322
0.532219088573159,0.0502754462271069
0.531363712536646,0.0593130939080015
0.530207285491633,0.0683708522562465
0.528747709247637,0.0774386741259382
0.526983221381566,0.0865064007285037
0.524912400169604,0.0955637728640288
0.52253416914321,0.104600442351863
0.519847801261603,0.113605983647915
0.516852922693501,0.122569905635782
0.513549516201342,0.131481663578569
0.509937924121627,0.140330671218021
0.506018850935501,0.149106313007329
0.501793365424135,0.157797956463766
0.497262902403932,0.166394964627094
0.492429264037075,0.17488670860948
0.487294620713394,0.183262580222497
0.481861511500042,0.191512004666616
0.476132844155945,0.199624453268449
0.470111894708497,0.207589456250891
0.463802306590492,0.21539661552117
0.457208089335765,0.223035617461754
0.450333616832566,0.230496245708954
0.44318362513416,0.237768393904043
0.435763209826723,0.24484207840162
0.428077822955077,0.25170745091997
0.420133269507352,0.258354811118152
0.411935703460193,0.264774619084529
0.403491623386636,0.270957507721537
0.394807867629323,0.276894295011499
0.385891609042226,0.282575996148358
0.376750349304591,0.287993835520318
0.367391912811327,0.293139258528441
0.357824440144568,0.298003943226401
0.348056381131681,0.302579811766718
0.338096487495457,0.306859041638953
0.327953805102778,0.310834076685517
0.317637665818507,0.314497637880935
0.307157678971873,0.317842733860624
0.296523722443092,0.320862671185452
0.285745933378458,0.323551064328598
0.274834698542599,0.325901845371482
0.263800644317069,0.327909273395826
0.252654626354891,0.329567943559165
0.241407718901133,0.330872795841471
0.230071203790004,0.331819123450848
0.218656559129409,0.332402580876597
0.207175447684327,0.332619191578321
0.195639704970735,0.332465355300075
0.184061327072243,0.331937854998979
0.172452458191962,0.331033863378081
0.160825377952489,0.329750949013683
0.149192488457265,0.328087082067747
0.137566301126886,0.32604063957646
0.125959423324274,0.323610410306439
0.114384544782951,0.320795599170559
0.102854423852907,0.317595831195833
0.0913818735788893,0.314011155036241
0.0799797476261585,0.310042046023931
0.0686609260690379,0.305689408752673
0.0574383010577947,0.300954579187981
0.0463247623796186,0.295839326298829
0.0353331829296584,0.29034585320641
0.0244764041082509,0.284476797845907
0.0137672211606538,0.278235233137823
0.00321836847572537,0.271624666665899
-0.00715749513987107,0.26464903985927
-0.0173478011952555,0.257312726677008
-0.0273400862399366,0.249620531793797
-0.0371220065625923,0.241577688286024
-0.0466813528471283,0.233189854818165
-0.0560060647690804,0.224463112329886
-0.0650842455154235,0.215403960224871
-0.0739041762108448,0.20601931206295
-0.0824543302335689,0.196316490757692
-0.0907233874038641,0.186303223282161
-0.0987002480284255,0.175987634886169
-0.106374046783911,0.165378242828863
-0.113734166423007,0.154483949631108
-0.120770251286529,0.14331403585266
-0.127472220605189,0.131878152399705
-0.133830281574848,0.120186312368891
-0.139834942189206,0.108248882434533
-0.14547702381414,0.0960765737862439
-0.150747673488054,0.0836804326247447
-0.155638375932893,0.0710718302241872
-0.160140965260692,0.0582624525698331
-0.16424763636082,0.0452642895804535
-0.167950955953356,0.0320896239253373
-0.171243873294364,0.0187510194462953
-0.174119730519125,0.00526130919553989
-0.176572272609764,-0.00836641689918057
-0.178595656974027,-0.0221188247303609
-0.180184462622384,-0.0359823490551137
-0.18133369893098,-0.0499432068753871
-0.182038813978403,-0.0639874111408288
-0.182295702444621,-0.0781007847606679
-0.182100713060916,-0.0922689749105852
-0.181450655600062,-0.106477467620135
-0.180342807396482,-0.1207116026259
-0.178774919386581,-0.1349565884752
-0.176745221659956,-0.149197517864805
-0.174252428512681,-0.163419383198789
-0.171295742994386,-0.177607092349313
-0.167874860941378,-0.191745484603857
-0.163989974488576,-0.205819346782084
-0.159641775053609,-0.219813429505315
-0.154831455786956,-0.23371246360128
-0.149560713482592,-0.247501176626613
-0.143831749944178,-0.261164309489343
-0.137647272802408,-0.274686633153424
-0.131010495779743,-0.288052965407181
-0.123925138399319,-0.30124818767739
-0.116395425135463,-0.31425726187058
-0.108426084003843,-0.327065247223004
-0.100022344589878,-0.339657317140674
-0.0911899355146834,-0.352018776010729
-0.0819350813384296,-0.364135075965387
-0.0722644989016142,-0.37599183357968
-0.0621853931053923,-0.387574846484159
-0.0517054521327215,-0.398870109873763
-0.0408328421127151,-0.409863832894083
-0.0295762012312241,-0.420542454886284
-0.017944633291301,-0.430892661472031
-0.00594770072781292,-0.440901400459854
0.00640458291888446,-0.450555897554492
0.0191017610646963,-0.459843671850897
0.0321329426728178,-0.468752551094734
0.0454868113672893,-0.477270686691367
0.0591516350617075,-0.485386568445556
0.0731152760951372,-0.49308903901426
0.0873652018666436,-0.500367308055219
0.101888495959299,-0.507210966054204
0.116671869743928,-0.513609997814139
0.131701674452265,-0.51955479558957
0.146963913708677,-0.525036171850281
0.16244425650898,-0.530045371658179
0.178128050634411,-0.534574084641958
0.194000336488209,-0.538614456554372
0.210045861341809,-0.542159100397391
0.226249093977067,-0.545201107100882
0.242594239710509,-0.547734055740908
0.259065255785055,-0.549752023284166
0.275645867114238,-0.551249593845554
0.292319582363461,-0.552221867446331
0.309069710352408,-0.552664468260817
0.325879376762297,-0.552573552340113
0.342731541131232,-0.551945814801791
0.359609014120579,-0.550778496475117
0.376494475034841,-0.549069389991832
0.39337048957721,-0.546816845313165
0.410219527822607,-0.544019774684245
0.427023982389711,-0.540677657007746
0.443766186793169,-0.536790541629125
0.460428433956911,-0.532359051526484
0.47699299486921,-0.527384385898664
0.493442137359932,-0.521868322145827
0.509758144980128,-0.515813217237426
0.525923335963987,-0.509222008463083
0.541920082252967,-0.502098213562592
0.557730828561739,-0.494445930231873
0.573338111465485,-0.48626983500242
0.588724578487947,-0.477575181492414
0.603873007169547,-0.468367798028389
0.618766324094818,-0.458654084636983
0.633387623858347,-0.448441009407024
0.647720187948407,-0.43773610422286
0.661747503527444,-0.426547459870544
0.675453282088613,-0.414883720519178
0.688821477967603,-0.402754077580396
0.701836306689042,-0.390168262949673
0.714482263126896,-0.377136541633811
0.726744139458331,-0.363669703769672
0.738607042890713,-0.349779056039871
0.750056413141522,-0.33547641249186
0.761078039651148,-0.320774084767481
0.771658078508776,-0.305684871750761
0.781783069071738,-0.290222048642351
0.791439950258992,-0.274399355469709
0.800616076499656,-0.258230985042763
0.809299233317801,-0.241731570365408
0.817477652535024,-0.224916171513864
0.825140027072676,-0.20780026199353
0.832275525335941,-0.190399714586572
0.838873805162366,-0.172730786703095
0.844925027317826,-0.154810105249367
0.850419868523329,-0.136654651027081
0.855349533996494,-0.11828174267828
0.859705769491996,-0.0997090201910686
0.863480872825755,-0.0809544279817922
0.866667704868114,-0.0620361975699064
0.86925969999179,-0.0429728298622352
0.871250875960884,-0.0237830770638317
0.872635843247803,-0.00448592423312762
0.873409813765487,0.0148994295004997
0.873568609002932,0.0343535900381436
0.873108667552569,0.0538569877127764
0.872027052018689,0.0733898969712386
0.870321455296707,0.0929324563170178
0.867990206213697,0.112464688493656
0.865032274521285,0.131966520888309
0.861447275232638,0.151417806134594
0.857235472295954,0.170798342893662
0.852397781597549,0.190087896792018
0.846935773288327,0.209266221494503
0.840851673428111,0.228313079890496
0.834148364943034,0.247208265371221
0.826829387891892,0.265931623175904
0.818898939038115,0.284463071784256
0.810361870724689,0.302782624332737
0.801223689050175,0.320870410031805
0.791490551344623,0.338706695561388
0.781169262945015,0.35627190642165
0.770267273270546,0.373546648216115
0.758792671198846,0.390511727844197
0.746754179744988,0.407148174580166
0.734161150045872,0.423437261015627
0.721023554653344,0.439360523842618
0.707351980140157,0.454899784454535
0.693157619023621,0.470037169342172
0.678452261012552,0.48475513026232
0.663248283583889,0.499036464156458
0.647558641896037,0.512864332797346
0.631396858046817,0.526222282141409
0.614777009684544,0.539094261365136
0.597713717981541,0.551464641563902
0.580222134980111,0.563318234091886
0.562317930321645,0.57464030852213
0.544017277370343,0.585416610206005
0.52533683874359,0.595633377411777
0.506293751261856,0.60527735802227
0.486905610331503,0.614335825772075
0.467190453774697,0.622796596005096
0.447166745121129,0.630648040933723
0.42685335637698,0.637879104381333
0.40626955028715,0.644479315990324
0.385434962107333,0.650438804878362
0.3643695809032,0.655748312726066
0.343093730394429,0.660399206279867
0.321628049361939,0.664383489254359
0.299993471637184,0.667693813619008
0.278211205692928,0.67032349025472
0.256302713855341,0.672266498966332
0.23428969115786,0.673517497837763
0.212194043857568,0.674071831917182
0.190037867635444,0.673925541220222
0.167843425502118,0.673075368039939
0.145633125431239,0.671518763552922
0.123429497742958,0.669253893711637
0.101255172260277,0.666279644413845
0.0791328552614954,0.662595625940622
0.0570853062521275,0.658202176655295
0.0351353145801134,0.653100365956319
0.013305675918247,0.647291996477923
-0.00838083136189127,0.640779605533093
-0.0299014699000854,0.63356646579427
-0.0512335671170837,0.625656585207901
-0.07235453901886,0.61705470613981
-0.0932419140106369,0.607766303749125
-0.113873356695625,0.597797583589337
