-0.372276977469516,-0.887620837438772
-0.372270739991449,-0.877000730369441
-0.37221470501943,-0.866480437418863
-0.372109654188773,-0.856059061338287
-0.371956360203525,-0.845735722580858
-0.371755587064426,-0.835509558806841
-0.371508090289701,-0.825379724403153
-0.371214617128894,-0.815345390016735
-0.370875906770002,-0.805405742101295
-0.370492690540121,-0.795559982476979
-0.370065692099818,-0.785807327902544
-0.369595627631447,-0.776147009659625
-0.369083206021603,-0.766578273148685
-0.368529129037905,-0.75710037749629
-0.367934091500292,-0.747712595173326
-0.367298781447023,-0.738414211623814
-0.366623880295533,-0.729204524903969
-0.365910062998327,-0.720082845331199
-0.365157998194067,-0.711048495142715
-0.364368348353996,-0.702100808163433
-0.36354176992387,-0.693239129482918
-0.362678913461507,-0.684462815141042
-0.36178042377013,-0.675771231822111
-0.3608469400276,-0.667163756557198
-0.359879095911698,-0.658639776434411
-0.358877519721555,-0.650198688316882
-0.357842834495366,-0.64183989856821
-0.35677565812449,-0.633562822785155
-0.355676603464069,-0.625366885537356
-0.354546278440236,-0.61725152011386
-0.35338528615406,-0.60921616827626
-0.352194224982287,-0.601260280018244
-0.350973688675008,-0.593383313331378
-0.349724266450319,-0.585584733976908
-0.348446543086085,-0.577864015263448
-0.34714109900888,-0.57022063783034
-0.345808510380194,-0.562654089436556
-0.344449349179993,-0.555163864754952
-0.343064183287694,-0.547749465171749
-0.341653576560656,-0.540410398591064
-0.340218088910232,-0.533146179244374
-0.338758276375482,-0.525956327504748
-0.337274691194593,-0.518840369705731
-0.335767881874083,-0.511797837964741
-0.334238393255855,-0.504828270010859
-0.332686766582154,-0.497931209016877
-0.331113539558506,-0.491106203435506
-0.32951924641467,-0.484352806839612
-0.327904417963684,-0.477670577766378
-0.326269581659054,-0.471059079565287
-0.324615261650126,-0.464517880249817
-0.322941978835712,-0.458046552352746
-0.321250250916002,-0.451644672784984
-0.319540592442829,-0.445311822697819
-0.317813514868312,-0.439047587348497
-0.316069526591945,-0.432851555969052
-0.314309133006157,-0.426723321638287
-0.3125328365404,-0.420662481156835
-0.310741136703794,-0.414668634925211
-0.308934530126384,-0.408741386824792
-0.307113510599028,-0.402880344101627
-0.30527856911198,-0.397085117253025
-0.303430193892176,-0.391355319916838
-0.301568870439282,-0.385690568763375
-0.299695081560525,-0.380090483389879
-0.297809307404346,-0.374554686217501
-0.29591202549291,-0.369082802390715
-0.294003710753494,-0.363674459679099
-0.292084835548795,-0.358329288381444
-0.290155869706191,-0.353046921232111
-0.288217280545957,-0.347826993309594
-0.286269532908512,-0.342669141947238
-0.284313089180669,-0.337573006646045
-0.282348409320962,-0.33253822898953
-0.280375950884047,-0.327564452560577
-0.278396169044211,-0.322651322860232
-0.276409516618021,-0.31779848722841
-0.27441644408612,-0.313005594766453
-0.27241739961421,-0.308272296261497
-0.270412829073237,-0.303598244112614
-0.268403176058791,-0.298983092258679
-0.266388881909769,-0.294426496107925
-0.264370385726287,-0.289928112469144
-0.262348124386888,-0.285487599484501
-0.260322532565057,-0.281104616563922
-0.258294042745058,-0.276778824321009
-0.256263085237113,-0.272509884510472
-0.254230088191953,-0.26829745996701
-0.252195477614738,-0.264141214545643
-0.250159677378382,-0.260040813063433
-0.248123109236287,-0.255995921242579
-0.246086192834514,-0.252006205654857
-0.244049345723396,-0.248071333667356
-0.242012983368611,-0.24419097338951
-0.239977519161738,-0.240364793621369
-0.237943364430303,-0.236592463803102
-0.235910928447329,-0.232873653965695
-0.233880618440413,-0.229208034682821
-0.231852839600329,-0.225595277023852
-0.229827995089184,-0.222035052508
-0.227806486048137,-0.218527033059548
-0.225788711604686,-0.215070890964156
-0.223775068879546,-0.211666298826218
-0.221765952993121,-0.208312929527246
-0.219761757071591,-0.205010456185261
-0.217762872252616,-0.201758552115167
-0.215769687690679,-0.198556890790089
-0.213782590562064,-0.195405145803658
-0.211801966069501,-0.192302990833211
-0.209828197446466,-0.189250099603906
-0.207861665961163,-0.186246145853716
-0.205902750920189,-0.183290803299289
-0.203951829671898,-0.180383745602663
-0.202009277609467,-0.177524646338807
-0.200075468173677,-0.174713178963978
-0.198150772855422,-0.171949016784879
-0.19623556119795,-0.16923183292859
-0.19433020079884,-0.166561300313274
-0.192435057311738,-0.163937091619627
-0.190550494447849,-0.161358879263063
-0.188676873977193,-0.15882633536662
-0.18681455572964,-0.15633913173457
-0.184963897595729,-0.153896939826717
-0.183125255527277,-0.151499430733379
-0.181298983537783,-0.149146275151025
-0.179485433702647,-0.146837143358564
-0.17768495615919,-0.144571705194276
-0.175897899106508,-0.142349630033359
-0.174124608805146,-0.140170586766089
-0.172365429576603,-0.138034243776585
-0.17062070380269,-0.135940268922154
-0.168890771924721,-0.133888329513213
-0.167175972442573,-0.131878092293778
-0.165476641913594,-0.129909223422501
-0.163793114951387,-0.127981388454249
-0.16212572422446,-0.126094252322219
-0.16047480045476,-0.124247479320565
-0.15884067241609,-0.122440733087536
-0.157223666932413,-0.120673676589121
-0.155624108876059,-0.118945972103172
-0.154042321165829,-0.117257281204014
-0.152478624765007,-0.115607264747521
-0.150933338679284,-0.113995582856653
-0.149406779954603,-0.112421894907443
-0.147899263674923,-0.110885859515429
-0.14641110295991,-0.109387134522513
-0.144942608962571,-0.107925376984249
-0.143494090866811,-0.106500243157541
-0.142065855884945,-0.105111388488753
-0.140658209255153,-0.103758467602213
-0.139271454238882,-0.102441134289108
-0.13790589211822,-0.10115904149676
-0.13656182219321,-0.0999118413182794
-0.135239541779151,-0.0986991849825763
-0.133939346203851,-0.0975207228447394
-0.13266152880487,-0.0963761043767577
-0.13140638092673,-0.0952649781585891
-0.130174191918113,-0.0941869918695626
-0.128965249129047,-0.0931417922801095
-0.127779837908078,-0.0921290252438147
-0.126618241599446,-0.0911483356897827
-0.125480741540249,-0.0901993676153097
-0.124367617057619,-0.0892817640788551
-0.123279145465897,-0.0883951671933072
-0.122215602063828,-0.0875392181195339
-0.121177260131761,-0.0867135570602135
-0.12016439092887,-0.0859178232539383
-0.119177263690401,-0.0851516549695849
-0.118216145624936,-0.0844146895009439
-0.117281301911692,-0.0837065631616038
-0.116372995697852,-0.0830269112800818
-0.115491488095923,-0.082375368195196
-0.114637038181147,-0.0817515672516722
-0.113809902988944,-0.0811551407959797
-0.113010337512401,-0.0805857201723895
-0.112238594699817,-0.0800429357192499
-0.111494925452293,-0.0795264167654722
-0.11077957862138,-0.0790357916272214
-0.110092801006787,-0.0785706876048065
-0.10943483735415,-0.0781307309797633
-0.108805930352865,-0.0777155470121249
-0.108206320633989,-0.0773247599378746
-0.107636246768213,-0.0769579929665736
-0.107095945263908,-0.0766148682791607
-0.106585650565251,-0.0762950070259151
-0.106105595050425,-0.0759980293245803
-0.105656009029911,-0.0757235542586401
-0.105237120744857,-0.0754711998757438
-0.104849156365538,-0.0752405831862736
-0.104492339989917,-0.0750313201620497
-0.104166893642285,-0.0748430257351667
-0.103873037272011,-0.0746753137969566
-0.103610988752385,-0.074527797197073
-0.103380963879571,-0.0744000877426901
-0.103183176371658,-0.0742917961978132
-0.103017837867826,-0.0742025322826927
-0.102885157927617,-0.0741319046733384
-0.10278534403033,-0.0740795210011275
-0.102718601574521,-0.074044987852502
-0.102685133877632,-0.0740279107687486
-0.10268514217574,-0.074027894245858
-0.102718825623424,-0.0740445417344557
-0.102786381293774,-0.0740774556398013
-0.102888004178512,-0.0741262373218491
-0.103023887188266,-0.0741904870953665
-0.103194221152963,-0.0742698042301028
-0.10339919482237,-0.0743637869510048
-0.103638994866771,-0.0744720324384729
-0.103913805877791,-0.0745941368286524
-0.104223810369367,-0.0747296952137552
-0.104569188778864,-0.0748783016424054
-0.104950119468342,-0.075039549120005
-0.105366778725987,-0.0752130296091118
-0.105819340767686,-0.0753983340298272
-0.106307977738769,-0.0755950522601855
-0.106832859715913,-0.0758027731365407
-0.107394154709208,-0.0760210844539453
-0.107992028664395,-0.0762495729665147
-0.108626645465265,-0.0764878243877722
-0.109298166936246,-0.076735423390969
-0.110006752845148,-0.0769919536093731
-0.110752560906101,-0.0772569976365216
-0.111535746782667,-0.0775301370264309
-0.112356464091134,-0.0778109522937584
-0.113214864404001,-0.0780990229139108
-0.11411109725365,-0.0783939273230914
-0.115045310136212,-0.0786952429182829
-0.116017648515619,-0.0790025460571574
-0.11702825582787,-0.0793154120579089
-0.118077273485479,-0.0796334151990018
-0.11916484088214,-0.0799561287188292
-0.120291095397588,-0.0802831248152751
-0.121456172402678,-0.0806139746451732
-0.122660205264666,-0.0809482483236577
-0.123903325352716,-0.0812855149233981
-0.125185662043611,-0.0816253424737118
-0.126507342727696,-0.0819672979595491
-0.12786849281504,-0.0823109473203422
-0.129269235741821,-0.082655855448713
-0.130709692976952,-0.0830015861890318
-0.132189984028924,-0.0833477023358208
-0.133710226452896,-0.0836937656319948
-0.135270535858022,-0.0840393367669328
-0.13687102591502,-0.0843839753743724
-0.13851180836398,-0.0847272400301203
-0.140192993022432,-0.0850686882495718
-0.141914687793659,-0.0854078764850313
-0.143676998675264,-0.0857443601228264
-0.145480029768001,-0.0860776934802079
-0.147323883284864,-0.0864074298020285
-0.149208659560448,-0.0867331212571912
-0.151134457060566,-0.08705431893486
-0.153101372392159,-0.0873705728404254
-0.155109500313461,-0.0876814318912149
-0.157158933744462,-0.0879864439119414
-0.159249763777646,-0.0882851556298804
-0.161382079689016,-0.0885771126697674
-0.163555968949418,-0.0888618595484067
-0.165771517236155,-0.0891389396689826
-0.168028808444901,-0.0894078953150638
-0.170327924701924,-0.0896682676442917
-0.172668946376609,-0.0899195966817436
-0.175051952094305,-0.0901614213129604
-0.177477018749475,-0.0903932792766296
-0.179944221519178,-0.0906147071569134
-0.182453633876876,-0.0908252403754117
-0.185005327606559,-0.09102441318275
-0.187599372817227,-0.091211758649781
-0.190235837957688,-0.0913868086583901
-0.192914789831717,-0.0915490938918927
-0.195636293613559,-0.0916981438250132
-0.19840041286379,-0.0918334867134339
-0.201207209545525,-0.0919546495829019
-0.204056744041014,-0.0920611582178828
-0.206949075168585,-0.0921525371497483
-0.209884260199978,-0.0922283096444867
-0.212862354878058,-0.092287997689922
-0.215883413434908,-0.0923311219824303
-0.218947488610325,-0.0923572019131394
-0.222054631670708,-0.0923657555535993
-0.225204892428358,-0.0923562996409083
-0.228398319261181,-0.0923283495622822
-0.231634959132816,-0.0922814193390527
-0.234914857613189,-0.0922150216100775
-0.238238058899487,-0.0921286676145516
-0.241604605837585,-0.0920218671742014
-0.245014539943907,-0.0918941286748464
-0.248467901427746,-0.0917449590473143
-0.251964729214039,-0.091573863747691
-0.255505060966613,-0.0913803467368917
-0.259088933111907,-0.0911639104595323
-0.26271638086317,-0.0909240558220875
-0.266387438245157,-0.0906602821703151
-0.270102138119323,-0.0903720872659303
-0.273860512209525,-0.0900589672625092
-0.277662591128237,-0.0897204166806048
-0.281508404403296,-0.0893559283820534
-0.28539798050518,-0.0889649935434541
-0.289331346874829,-0.0885471016287979
-0.293308529952024,-0.0881017403612289
-0.29732955520433,-0.0876283956939131
-0.301394447156602,-0.0871265517799935
-0.305503229421094,-0.0865956909416098
-0.309655924728147,-0.0860352936379598
-0.313852554957495,-0.0854448384323764
-0.318093141170178,-0.0848238019583984
-0.322377703641092,-0.0841716588848091
-0.326706261892178,-0.0834878818796177
-0.331078834726264,-0.0827719415729551
-0.335495440261571,-0.0820233065188608
-0.339956095966903,-0.0812414431559301
-0.344460818697522,-0.0804258157667953
-0.349009624731736,-0.0795758864364096
-0.3536025298082,-0.0786911150091072
-0.35823954916396,-0.0777709590444049
-0.362920697573234,-0.0768148737715176
-0.367645989386969,-0.0758223120425522
-0.372415438573171,-0.0747927242843488
-0.377229058758033,-0.0737255584489341
-0.382086863267877,-0.0726202599625527
-0.386988865171922,-0.0714762716732393
-0.391935077325904,-0.0702930337968957
-0.396925512416559,-0.0690699838618346
-0.401960183006987,-0.0678065566517501
-0.407039101582926,-0.0665021841470766
-0.412162280599942,-0.0651562954646929
-0.417329732531564,-0.0637683167959298
-0.422541469918389,-0.0623376713428388
-0.427797505418158,-0.0608637792526742
-0.433097851856856,-0.0593460575505462
-0.438442522280832,-0.0577839200701924
-0.443831530009972,-0.056176777382825
-0.44926488869196,-0.0545240367239983
-0.454742612357631,-0.0528251019184462
-0.460264715477454,-0.0510793733028385
-0.465831213019179,-0.049286247646398
-0.471442120506656,-0.0474451180693233
-0.477097454079868,-0.0455553739589599
-0.482797230556206,-0.0436164008836587
-0.488541467493009,-0.0416275805042591
-0.494330183251407,-0.0395882904831356
-0.500163397061493,-0.0374979043907413
-0.506041129088868,-0.0353557916095787
-0.511963400502568,-0.0331613172355317
-0.517930233544444,-0.030913841976485
-0.523941651599996,-0.0286127220481565
-0.529997679270723,-0.0262573090670681
-0.536098342448012,-0.0238469499405741
-0.542243668388616,-0.0213809867538689
-0.548433685791756,-0.0188587566538875
-0.554668424877885,-0.0162795917300135
-0.560947917469175,-0.0136428188915063
-0.567272197071751,-0.0109477597415547
-0.573641298959725,-0.00819373044786176
-0.580055260261096,-0.00538004160966388
-0.58651412004553,-0.0025059981210816
-0.593017919414109,0.00042910096929949
-0.59956670159107,0.00342596260273043
-0.606160512017619,0.00648529985858931
-0.612799398447844,0.00960783210677907
-0.619483411046818,0.0127942851643503
-0.626212602490923,0.0160453914564707
-0.632987028070484,0.0193618901818726
-0.639806745794754,0.0227445274829021
-0.646671816499337,0.026194056620315
-0.653582303956103,0.0297112381529513
-0.660538274985679,0.0332968401224374
-0.667539799572577,0.0369516382430685
-0.674586950983049,0.0406764160970193
-0.681679805885739,0.0444719653350514
-0.688818444475216,0.0483390858828776
-0.696002950598483,0.0522785861533583
-0.703233411884529,0.0562912832647086
-0.710509919877038,0.0603780032648958
-0.717832570170339,0.0645395813624248
-0.725201462548687,0.0687768621637027
-0.732616701128996,0.073090699917192
-0.740078394507115,0.0774819587645616
-0.747586655907755,0.0819515129990563
-0.755141603338189,0.0865002473313122
-0.762743359745839,0.0911290571628557
-0.770392053179868,0.0958388488675253
-0.778087816956904,0.100630540081079
-0.785830789831034,0.105505059999239
-0.793621116168193,0.110463349684458
-0.801458946125093,0.11550636238168
-0.809344435832849,0.120635063843394
-0.817277747585428,0.125850432664288
-0.825259050033108,0.131153460625812
-0.83328851838109,0.136545153050984
-0.841366334593443,0.142026529169779
-0.849492687602551,0.147598622495452
-0.857667773524256,0.153262481212165
-0.865891795878871,0.159019168574298
-0.874164965818283,0.164869763317848
-0.88248750235933,0.170815360084309
-0.890859632623678,0.176857069857488
-0.899281592084423,0.182996020413682
-0.907753624819636,0.189233356785688
-0.916275983773107,0.195570241741121
