-0.532570326900425,0.717843971158985
-0.532591734317859,0.717681939486454
-0.532613640206348,0.717513372679295
-0.532636050969176,0.717337940975145
-0.532658972227411,0.717155294634754
-0.532682408678355,0.716965062530258
-0.532706363935193,0.716766850619526
-0.532730840345432,0.716560240296276
-0.532755838785392,0.716344786604587
-0.532781358427624,0.716120016305312
-0.532807396477748,0.715885425780599
-0.532833947876688,0.715640478761318
-0.532861004963757,0.715384603860613
-0.532888557095417,0.715117191895033
-0.532916590213816,0.714837592972747
-0.532945086358388,0.714545113326149
-0.532974023112857,0.714239011863723
-0.533003372978901,0.713918496413327
-0.533033102666499,0.713582719625985
-0.533063172289521,0.713230774505871
-0.53309353445351,0.712861689528364
-0.533124133220649,0.712474423303749
-0.533154902934746,0.712067858739352
-0.533185766886484,0.711640796647485
-0.533216635796259,0.711191948740535
-0.533247406088481,0.710719929947696
-0.53327795792725,0.710223249980186
-0.533308152978705,0.709700304063129
-0.533337831859938,0.709149362742562
-0.533366811228134,0.708568560665026
-0.533394880456253,0.707955884214789
-0.533421797833022,0.707309157879768
-0.533447286215036,0.706626029201337
-0.533471028046996,0.705903952145357
-0.533492659652402,0.705140168711461
-0.533511764680828,0.704331688574728
-0.53352786657891,0.703475266527918
-0.533540419929758,0.702567377463036
-0.533548800479059,0.701604188597729
-0.533552293634893,0.700581528614288
-0.533550081191284,0.699494853336375
-0.533541225981687,0.69833920752027
-0.533524654116562,0.697109182282801
-0.533499134397337,0.695798867626384
-0.533463254425463,0.694401799451919
-0.53341539283747,0.692910900371817
-0.533353686992205,0.691318413547181
-0.533275995311231,0.689615828674271
-0.533179853323516,0.68779379913497
-0.533062422286006,0.685842049203166
-0.532920429036303,0.683749270063384
-0.53275009547502,0.681503003249302
-0.532547055764526,0.679089509948482
-0.532306258956791,0.676493624446987
-0.532021854312946,0.673698589806181
-0.531687056035095,0.670685873678479
-0.531293983478137,0.667434961986458
-0.530833472123265,0.6639231280218
-0.530294849648819,0.660125174383792
-0.529665670296834,0.656013145095979
-0.528931399368588,0.651556005249222
-0.528075038047916,0.646719285669546
-0.527076676800495,0.641464690469784
-0.525912963280092,0.635749666012372
-0.524556467937165,0.629526930921321
-0.522974927322446,0.622743968518901
-0.521130341371049,0.615342485678723
-0.518977896728542,0.607257845922145
-0.516464683473012,0.598418490096978
-0.51352816750998,0.588745365775202
-0.510094375715001,0.578151397392261
-0.506075746025987,0.566541044167206
-0.501368590921486,0.55381001332363
-0.495850121330437,0.539845223741217
-0.489374980998054,0.524525151923025
-0.481771251730081,0.507720740392664
-0.472835912294167,0.489297110829323
-0.462329774662664,0.469116402708417
-0.449971990037229,0.447042154355461
-0.435434326400322,0.422945756412273
-0.41833558579655,0.396715632777272
-0.39823677358943,0.368269928547847
-0.374637976382608,0.337573583260648
-0.346978371230057,0.304660696381739
-0.314641386768715,0.269662978554114
-0.276967750896789,0.232844718914044
-0.233279920376984,0.194643938814012
-0.182922034702582,0.155718068154029
-0.125319771317386,0.116990400129438
-0.0600638256415786,0.0796906678187034
0.0129814553654767,0.0453794861486904
0.0935472193141875,0.0159426953930063
0.180817212795567,-0.00646094207176989
0.273292840276964,-0.0195147371098199
0.368696936288318,-0.0209318087622441
0.463955126026498,-0.00871219160679304
0.555293767780676,0.0185547086186034
0.638480138027077,0.0613902105018505
0.709201452487566,0.119195534040863
0.763539059149575,0.190159225307121
0.798455385494146,0.271350894071281
0.812191084586352,0.359005973412799
0.804481255421929,0.448953869058046
0.776542667479092,0.537100945914337
0.730843515759362,0.619867368206657
0.670720292637703,0.694497001478997
0.599934033122243,0.759201752155466
0.522254800568601,0.81314737757484
0.44113668475398,0.856320858767659
0.359510356365123,0.88933285603928
0.279689483015741,0.913204809469593
0.203368031343721,0.929176235088774
0.131678291098179,0.938551339844577
0.0652811501382926,0.94259034019451
0.00446648536011918,0.942441863982652
-0.0507509494530958,0.939108372090161
-0.100548135287782,0.933435436143214
-0.145226003679521,0.926116564123282
-0.185157240375271,0.917706969686073
-0.220747971911942,0.908641524003739
-0.252410937777878,0.899253744693845
-0.280547667548217,0.8897939319863
-0.305537420214837,0.880445456445541
-0.327731012906157,0.871338793272647
-0.347448057687548,0.862563259538505
-0.364976481654073,0.854176611341632
-0.380573504271461,0.846212753003025
-0.394467483026492,0.838687840538253
-0.406860219404314,0.831605054687709
-0.417929451157723,0.824958292914893
-0.427831353474172,0.818734996212726
-0.436702939770807,0.812918291788061
-0.444664299785734,0.807488600179099
-0.451820644187699,0.802424826677148
-0.458264145528753,0.797705232552467
-0.46407557831233,0.793308061404333
-0.469325768644415,0.789211979555828
-0.474076868097624,0.785396376270749
-0.478383468259383,0.781841559148789
-0.482293572797948,0.778528871861029
-0.485849443340152,0.775440754987948
-0.48908833440033,0.772560765751259
-0.492043131286947,0.769873568587713
-0.494742903506854,0.767364905553878
-0.497213384789336,0.765021553280781
-0.499477389523715,0.762831271461981
-0.50155517417785,0.760782746536717
-0.503464751155124,0.758865533226554
-0.505222161557588,0.757069995825691
-0.506841712449136,0.755387250574567
-0.508336183447379,0.753809110019598
-0.509717006806688,0.752328029944586
-0.510994424577482,0.75093705922545
-0.512177625928032,0.749629792789322
-0.513274867285286,0.748400327736251
-0.514293577581495,0.747243222595017
-0.515240450575835,0.74615345962479
-0.516121525947583,0.745126410034754
-0.516942260623472,0.744157801969094
-0.517707591601148,0.743243691090874
-0.518421991358484,0.742380433592484
-0.519089516790658,0.741564661459949
-0.519713852490047,0.740793259822102
-0.520298349074907,0.740063346221839
-0.520846057179067,0.739372251654679
-0.521359757634161,0.738717503228812
-0.521841988306442,0.738096808310311
-0.522295067990269,0.73750804002677
-0.52272111770868,0.736949224012124
-0.523122079726732,0.736418526284589
-0.523499734544677,0.73591424215842
-0.523855716104546,0.735434786098484
-0.524191525414715,0.734978682434368
-0.524508542771813,0.734544556858014
-0.524808038737473,0.734131128635507
-0.525091184008363,0.733737203469822
-0.525359058301349,0.733361666957017
-0.525612658361163,0.733003478583491
-0.525852905185329,0.732661666216724
-0.526080650550049,0.732335321046187
-0.52629668291105,0.732023592935082
-0.52650173274498,0.731725686147128
-0.526696477389424,0.731440855415899
-0.526881545433156,0.731168402327121
-0.527057520702436,0.730907671987083
-0.527224945884142,0.730658049952701
-0.527384325822029,0.730418959401015
-0.527536130518519,0.73018985851787
-0.527680797870888,0.729970238087393
-0.527818736167693,0.729759619265467
-0.527950326368516,0.729557551521959
-0.528075924187723,0.729363610737754
-0.528195862000747,0.729177397443916
-0.528310450589546,0.728998535191403
-0.528419980742164,0.728826669040754
-0.52852472471981,0.728661464162116
-0.528624937603566,0.728502604536789
-0.528720858531569,0.728349791752234
-0.528812711836517,0.728202743883176
-0.528900708092322,0.728061194452064
