0.597977210026693,0.648241295723345
0.597600096912784,0.648454344106303
0.597190868292172,0.648683196349118
0.596746067559384,0.648929306414934
0.596261786799894,0.649194286066686
0.595733597319285,0.649479924192381
0.595156467829015,0.649788208662475
0.594524667799025,0.650121351041048
0.556434845578493,0.635897069304532
0.62768947449724,0.646884029213753
0.597468867350408,0.603117857066757
0.554945832112317,0.694439566422023
0.577567077727812,0.608101363713338
0.589142755941084,0.652802084548163
0.587878444505869,0.653396786849462
0.569173575796392,0.655758147956808
0.612837474929698,0.687162665624944
0.586631781057116,0.631838157637016
0.581136732512512,0.656386866461494
0.595797552579959,0.674865268775641
0.620402783932076,0.663760672384448
0.554041186883411,0.671779073817618
0.570176715063129,0.660724475063396
0.516890866252469,0.636185337411973
0.540993365135676,0.636010261192592
0.599457399351734,0.642083790112036
0.515232943334559,0.647886326868716
0.536433583603527,0.694600036184461
0.536640760848357,0.671234588578116
0.51494495094343,0.655622739662513
0.516365578514994,0.676116158003281
0.61399590676478,0.749152684285497
0.577076574132769,0.82339880115927
0.485019865412241,0.734095583019362
0.418363551154202,0.735071200516236
0.418786412246446,0.689148789256082
0.39613081228525,0.722561855539047
0.301404821445525,0.70800515524797
0.293634371266324,0.687511934400272
0.23161391822789,0.680535962738649
0.127545660471361,0.660062589908883
0.0480917521202165,0.644896696412891
-0.0766658046059127,0.599357370493013
-0.177837255947174,0.54236511126737
-0.323904146379494,0.450120685094184
-0.621297798389423,0.214233653121845
-0.621571396800391,0.141467979528196
-0.769392898932007,-0.108358405592496
-0.80045086480582,-0.361897453300986
-0.727352118559434,-0.556094961454993
-0.608779187944346,-0.731124674042126
-0.22858474007726,-0.665391784941426
-0.142377490461956,-0.869489218430039
0.0966789545187363,-0.735934273433763
0.275036971411051,-0.569028016170047
0.542338295856717,-0.310146103859547
0.518010905402488,-0.257369003354635
0.567347234178429,-0.0910340798755458
0.647411826198825,0.0229768647077773
0.669641028559645,0.132538613769547
0.680142703579693,0.222522521998968
0.683341979468983,0.29566363220116
0.682198711307099,0.354845106455786
0.678625147155638,0.402699852873051
0.559547684927755,0.350547365726693
0.668526586329969,0.472991296101549
0.66317225248975,0.498738654036285
0.658006742116488,0.519879935463483
0.653159937687148,0.537336234226386
0.648690362207184,0.551832493769026
0.644614062437892,0.563939748684383
0.640922682600923,0.574108927766487
0.536212295712774,0.491408223298621
0.634602059757364,0.589989623848422
0.631914691704356,0.596213081899625
0.731669526962143,0.700487359842462
0.72991381671179,0.698670925578065
0.625391170698773,0.610131126661696
0.623641434951324,0.613591977463471
0.722862695297064,0.731698563087121
0.620645234640556,0.619260069185208
0.619362216352597,0.621588424767564
0.507347095466476,0.507467286157187
0.617150081117569,0.625463843885881
0.616195680115745,0.627081165125169
0.615327991059124,0.628522627738002
0.614537799187593,0.62981113055772
0.613816974025517,0.63096613860502
0.723635118148601,0.741564600750167
0.731652661108054,0.73279616186285
0.724809244737756,0.724910248375493
0.611495636172943,0.634549846927482
0.611029136067113,0.635244170669606
0.610599537684194,0.635875615183496
0.610203345941123,0.636451063908503
0.726758141792941,0.736925770101126
0.609499051937527,0.637457255932086
0.609185678795824,0.637897872020201
0.608895096332293,0.638302433020454
0.608625304696168,0.638674519986824
