0.755341981768157,0.897995102540557
0.7518782725737,0.889959563027421
0.748992099564138,0.881608268258149
0.746466297586604,0.873059948522308
0.744220061827684,0.864358782081318
0.742205073388887,0.855531186234336
0.740387686491364,0.846595556073816
0.738742457280329,0.837565802469927
0.737249110182499,0.828453010648154
0.735890891678566,0.819266340228133
0.734653585785841,0.81001356348695
0.733524882645315,0.800701410570326
0.732493951556692,0.791335802926364
0.731551140003328,0.781922017857066
0.730687754243734,0.772464808475125
0.729895894869529,0.762968493609009
0.729168330657244,0.753437026771725
0.728498399857995,0.743874050128526
0.727879931624556,0.734282937454937
0.727307182528378,0.724666828844689
0.7267747845918,0.715028659121964
0.726277702249676,0.705371181371683
0.725811196334754,0.695696986629713
0.725370793658821,0.686008520513709
0.724952261103476,0.676308097388415
0.724551583383214,0.666597912523213
0.724164943827404,0.656880052599151
0.723788707665552,0.647156504847366
0.723419407404818,0.6374291650436
0.723053729969078,0.627699844539638
0.72268850533109,0.617970276478427
0.722320696418203,0.608242121312898
0.721947390110641,0.598516971727469
0.721565789182177,0.588796357044295
0.721173205057821,0.579081747182849
0.720767051283133,0.569374556230432
0.720344837616162,0.559676145672272
0.71990416466642,0.549987827322552
0.719442719016349,0.540310865991637
0.718958268769976,0.530646481919755
0.718448659481083,0.520995853003173
0.717911810419702,0.511360116835416
0.717345711141149,0.50174037258307
0.716748418326405,0.492137682713232
0.7161180528666,0.482553074587509
0.715452797167653,0.472987541935643
0.714750892654007,0.463442046220294
0.714010637452878,0.453917517903119
0.71323038424253,0.444414857621188
0.712408538249964,0.434934937281699
0.711543555385006,0.425478601082126
0.710633940499163,0.416046666462151
0.709678245758869,0.406639924993056
0.708675069123778,0.397259143209684
0.707623052921752,0.387905063389531
0.706520882512982,0.378578404283112
0.705367285036436,0.369279861799309
0.70416102823249,0.360010109649075
0.702900919336163,0.350769799950531
0.701585804035888,0.341559563798237
0.700214565493241,0.332380011799134
0.698786123419425,0.323231734577453
0.697299433204709,0.31411530325068
0.695753485097328,0.305031269878469
0.694147303428664,0.295980167886262
0.692479945881795,0.286962512465191
0.690750502800741,0.277978800949736
0.688958096537939,0.269029513174471
0.687101880837724,0.260115111811142
0.685181040253718,0.251236042687191
0.683194789598234,0.242392735086783
0.681142373421934,0.233585602035294
0.679023065522128,0.224815040568134
0.676836168478216,0.216081431984737
0.674581013212885,0.207385142088464
0.672256958577815,0.198726521413114
0.669863390962683,0.190105905436687
0.667399723926405,0.181523614782998
0.6648653978496,0.172979955411683
0.662259879607339,0.164475218797117
0.659582662261342,0.156009682096698
0.656833264770812,0.147583608308943
0.654011231721173,0.139197246421795
0.651116133070051,0.130850831551499
0.648147563909855,0.12254458507241
0.645105144246409,0.114278714738018
0.641988518793073,0.106053414793511
0.638797356779902,0.0978688660801089
0.635531351777381,0.0897252361314353
0.632190221534335,0.0816226792621372
0.628773707829641,0.0735613366489557
0.625281576337423,0.0655413364044297
0.621713616505414,0.0575627936433994
0.618069641446217,0.0496258105424536
0.614349487841241,0.0417304763924538
0.610553015857088,0.0338768676442473
0.606680109074214,0.0260650479476695
0.602730674427711,0.0182950681839193
0.598704642160087,0.0105669664913778
0.594601965785935,0.00288076828492193
0.590422622068424,-0.00476351373121944
0.586166611007554,-0.0123658795570463
0.581833955840156,-0.0199263418967872
0.577424703051638,-0.0274449261653197
0.57293892239949,-0.0349216705010246
0.568376706948621,-0.0423566257851006
0.563738173118574,-0.0497498556673835
0.55902346074275,-0.0571014365987204
0.554232733139737,-0.0644114578699725
0.549366177196933,-0.0716800216577292
0.544424003466605,-0.0789072430768304
0.53940644627463,-0.086093250239815
0.534313763842128,-0.0932381843234239
0.529146238420277,-0.100342199642304
0.523904176438592,-0.10740546373008
0.518587908667016,-0.114428157427971
0.513197790392189,-0.121410474981164
0.50773420160829,-0.128352624143151
0.502197547222908,-0.135254826288285
0.496588257278416,-0.142117316532813
0.49090678718939,-0.148940343864677
0.485153617996629,-0.155724171282393
0.479329256638413,-0.162469075943361
0.473434236239669,-0.169175349321954
0.467469116419779,-0.17584329737781
0.461434483619827,-0.182473240734743
0.455330951450136,-0.189065514870753
0.449159161059027,-0.195620470319638
0.44291978152381,-0.202138472884761
0.436613510265088,-0.208619903865554
0.430241073485551,-0.215065160297429
0.423803226634535,-0.221474655205761
0.417300754899728,-0.227848817874715
0.410734473727508,-0.234188094131732
0.404105229373541,-0.240492946648559
0.397413899485387,-0.246763855259771
0.390661393719029,-0.253001317299847
0.383848654391389,-0.259205847959919
0.376976657171083,-0.265377980665428
0.370046411809876,-0.27151826747603
0.363058962917502,-0.277627279509209
0.356015390782755,-0.283705607389198
0.34891681224406,-0.289753861722937
0.341764381612984,-0.295772673604985
0.334559291654509,-0.301762695153465
0.327302774628257,-0.307724600079328
0.31999610339526,-0.313659084291458
0.312640592595329,-0.319566866540368
0.305237599900602,-0.325448689103557
0.297788527351423,-0.331305318515864
0.290294822781359,-0.337137546348573
0.282757981338903,-0.342946190041367
0.27517954711423,-0.348732093791719
0.267561114880336,-0.354496129506827
0.25990433195896,-0.36023919782376
0.252210900222886,-0.365962229204177
0.244482578247668,-0.371666185110736
0.236721183627391,-0.377352059273181
0.228928595470922,-0.383020879053117
0.221106757097281,-0.388673706917643
0.213257678951152,-0.394311642033344
0.205383441762504,-0.399935821993744
0.197486199977552,-0.405547424695112
0.189568185492273,-0.411147670377675
0.181631711724222,-0.416737823851797
0.173679178063889,-0.422319196931663
0.165713074753222,-0.4278931511025
0.157735988246664,-0.433461100451608
0.149750607119205,-0.439024514898462
0.141759728597069,-0.444584923765216
0.133766265800036,-0.450143919736287
0.125773255800754,-0.455703163264608
0.117783868626465,-0.461264387493124
0.109801417353296,-0.466829403773622
0.101829369474084,-0.472400107881843
0.0938713597593241,-0.477978487048923
0.0859312048796471,-0.483566627955912
0.0780129201205582,-0.48916672587219
0.0701207386004589,-0.494781095162503
0.0622591335075611,-0.500412181444505
0.0544328440091168,-0.506062575754062
0.0466469056702725,-0.511735031176097
0.0389066864686894,-0.517432482534791
0.0312179298329169,-0.523158069923874
0.0235868066101806,-0.528915167118872
0.0160199785493635,-0.534707416285039
0.00852467687393538,-0.540538770935381
0.00110880099227723,-0.546413549898366
-0.00621895535412148,-0.552336506286687
-0.0134489396486179,-0.558312917402345
-0.0205703211909137,-0.564348704693444
-0.0275707901220025,-0.570450598305706
-0.0344361304591944,-0.576626370516216
-0.0411495886831819,-0.582885180944609
-0.0476908892206808,-0.589238114816372
-0.054034588216905,-0.595699083001672
-0.0601470398930075,-0.602286480592965
-0.065979925350495,-0.609026724889407
-0.0714524397759547,-0.615963994152418
-0.0763474180165197,-0.623217018671564
0.755341981768157,0.897995102540557
0.750447003527592,0.890742078021411
0.744974489102133,0.8838048087584
0.739141603644645,0.877064564461958
0.733029151968543,0.870477166870665
0.726685452972318,0.864016198685365
0.72014415243482,0.857663264813602
0.713430694210832,0.851404454385209
0.70656535387364,0.845228682174699
0.699564884942551,0.839126788562437
0.692443503400255,0.833091001271338
0.685213519105759,0.82711459015568
0.67788576275936,0.821191633767359
0.670469886877702,0.815316854804374
0.662974585202274,0.809485500154032
0.655407757141457,0.803693250987866
0.647776633918721,0.797936153792867
0.640087877282948,0.792210566403784
0.632347658081365,0.78651311504509
0.624561719742521,0.780840659623055
0.616735430244076,0.775190265313498
0.608873825151179,0.769559179031496
0.600981643631079,0.763944809741183
0.59306335887199,0.758344711824904
0.585123203992313,0.752756570917916
0.577165194277553,0.747178191750836
0.569193146398341,0.741607487642615
0.561210695125172,0.736042471362117
0.553221307950884,0.730481247133601
0.545228297951602,0.72492200360528
0.537234835154568,0.719363007634209
0.529243956632433,0.713802598767455
0.521258575504974,0.708239184320601
0.513281488998415,0.702671234971493
0.505315385687749,0.697097280800656
0.497362852027416,0.691515907720791
0.489426378259365,0.685925754246668
0.481508363774085,0.680325508564105
0.473611121989134,0.674713905862737
0.465736884800485,0.669089725902337
0.457887806654357,0.663451790786636
0.450065968280715,0.65779896292211
0.442273380124247,0.652130143142174
0.434511985503969,0.646444268979729
0.426783663528752,0.64074031307317
0.419090231792677,0.635017281692753
0.411433448871301,0.62927421337582
0.403815016637408,0.623510177660712
0.396236582412734,0.61772427391036
0.388699740970278,0.611915630217567
0.381206036400215,0.606083402384857
0.373756963851035,0.60022677297255
0.366353971156308,0.594344950409362
0.358998460356377,0.588437168160451
0.351691789123381,0.582502683948321
0.344435272097129,0.576540779022458
0.337230182138654,0.570550757473978
0.330077751507577,0.56453194559193
0.322979172968883,0.558483691258191
0.315935600834136,0.552405363378202
0.308948151941761,0.546296351345023
0.302017906580555,0.540156064534421
0.295145909360249,0.533983931828912
0.288333170032608,0.52777940116884
0.281580664266251,0.521541939128764
0.274889334378097,0.515271030517552
0.26826009002413,0.508966178000725
0.26169380885191,0.502626901743708
0.255191337117103,0.496252739074754
0.248753490266087,0.489843244166423
0.242381053486549,0.483397987734547
0.236074782227827,0.476916556753754
0.229835402692611,0.470398554188632
0.223663612301502,0.463843598739746
0.217560080131811,0.457251324603736
0.211525447331859,0.450621381246803
0.205560327511969,0.443953433190947
0.199665307113224,0.437247159812354
0.193840945755008,0.430502255151386
0.188087776562248,0.42371842773367
0.182406306473222,0.416895400401806
0.17679701652873,0.410032910157278
0.171260362143347,0.403130708012144
0.165796773359448,0.396188558850157
0.160406655084621,0.389206241296964
0.155090387313046,0.382183547599073
0.14984832533136,0.375120283511297
0.144680799909509,0.368016268192417
0.139588117477008,0.360871334108808
0.134570560285033,0.353685326945823
0.129628386554705,0.346458105526722
0.1247618306119,0.339189541738966
0.119971103008888,0.331879520467714
0.115256390633063,0.324527939536377
0.110617856803017,0.317134709654094
0.106055641352148,0.309699754370018
0.1015698607,0.302223010034313
0.0971606079114813,0.29470442576578
0.0928279527440838,0.287143963426039
0.0885719416832137,0.279541597600213
0.0843925979657028,0.271897315584071
0.0802899215915509,0.264211117377615
0.0762638893239266,0.256483015685074
0.0723144546774234,0.248713035921324
0.0684415478945491,0.240901216224746
0.0646450759103965,0.233047607476539
0.060924922305421,0.22515227332654
0.157396426012429,0.112426470193561
0.149031028100004,0.323173763594012
0.143871997653093,0.0999150625462137
-0.0475576366786855,0.0943201722026591
0.14279504720509,0.07576274998124
0.0401972069717357,0.176909217788884
0.0370060449585649,0.168724669075482
-0.0718599970113383,0.0616402380178128
0.14545359667423,0.0617565487271337
0.118956433483619,0.0290115589753495
0.131628121300554,0.24034250709218
0.0221612989808251,0.12719447556005
-0.0887023493367699,0.235937490015037
0.016734684144299,0.110302865071876
0.12988562201991,0.217605188171961
0.12342444488465,-0.00974317940759371
0.110106891025619,0.202632796102142
0.119298041412989,-0.0280729392726106
0.0044135505387527,0.0673929417805289
-0.0929781560752974,0.15724610871755
-0.107729040379397,0.163189919526872
-0.108391751526724,0.14430504625834
-0.107095372817716,-0.0659091472275516
-0.111083357485477,-0.0792092393669767
0.0847661707909245,0.134324943676053
0.0995796948684828,-0.0966771253073875
-0.125875284658191,-0.121047151666266
-0.0134853821301579,-0.0121844285961984
-0.0151527396770261,-0.0212020840172693
-0.130091761650002,0.0603080029556069
-0.0183048694530717,-0.0393372193816868
-0.0197915596677874,-0.0484536507084602
-0.021220001741603,-0.0576019279301413
-0.0225912402842502,-0.0667814799292442
-0.0239063555845251,-0.075991716081538
-0.0251664644808525,-0.0852320257800817
-0.0263727212847982,-0.0945017779303162
-0.0275263187613447,-0.103800320414119
-0.0286284891701148,-0.113126979520538
-0.02968050537214,-0.122481059340691
-0.030683682007231,-0.131861841124063
-0.0316393767475258,-0.141268582593158
-0.0325489916333684,-0.150700517213133
-0.0334139744983268,-0.160156853412706
-0.0342358204908925,-0.169636773752195
-0.0350160737012405,-0.179139434034126
-0.0357563289023692,-0.188663962351301
-0.036458233416015,-0.19820945806665
-0.0371234891149625,-0.207774990718515
-0.0129550307016118,-0.224185139392201
-0.04919280190538,-0.225578832484734
-0.062885574851934,-0.248854190700307
-0.039454095729445,-0.24621776913418
-0.0399637050183383,-0.255868398050762
-0.0413807352188192,-0.251396360081574
-0.0409096009147822,-0.275209743453559
-0.0535799848250174,-0.302609521663837
-0.0381955960672668,-0.313495623870174
-0.0683248605252826,-0.315327388809011
-0.0425712254305394,-0.314018273175302
-0.0025054225588704,-0.270389948740293
-0.0409823110805751,-0.343824013685582
-0.0618199813004539,-0.346374636665364
-0.0581439267139957,-0.369386514445292
-0.0162104680921128,-0.351780049893159
-0.0635019214842053,-0.361381800686067
-0.0186740394429432,-0.385424145940486
-0.0724025728105546,-0.400149708266094
-0.0459576973518385,-0.401530013519422
-0.0271076991055739,-0.401595962711445
-0.0468166325831164,-0.42091890276072
-0.0403288472067608,-0.406365768322723
-0.0477802208401629,-0.440250575252971
-0.0557091527411618,-0.407584009359816
-0.0488853678729182,-0.459504853585944
-0.0338462457671856,-0.458191229692509
-0.0608030106481291,-0.490449335169869
-0.0509013311178917,-0.488190409740016
-0.0516931904920966,-0.497686724606132
-0.06061847649929,-0.542507899441245
-0.0534993878050541,-0.516557719057371
-0.0545303188936773,-0.525923326701333
-0.0556590220342029,-0.535235479617957
-0.0568963279269287,-0.54448825635914
-0.0582545464308618,-0.553674926779161
-0.0597478935286919,-0.562787718600934
-0.0613931227397262,-0.571817472204823
-0.0632105096372493,-0.580753102365343
-0.0652254980760469,-0.589580698212326
-0.0674717338349662,-0.598281864653315
-0.0699975358125006,-0.606830184389156
-0.0728837088220628,-0.615181479158428
-0.0763474180165197,-0.623217018671564
