0.521444161874085,-0.770308857205143
0.332493347591578,-0.776516155966175
0.431415097182549,-0.28652799291505
0.10420802702017,-0.144127744011371
0.117552864772537,0.0545229892224206
0.135885654436788,-0.0865389280036191
0.552356019276119,0.0062432686864551
0.76730347701879,0.00649165246256307
0.991513808339115,0.280450779317284
0.821411740737401,0.350893334916334
0.276561950470681,0.10385571825918
-0.0145832856348042,-0.0131456027431124
-0.128207193582289,-0.0655362291697189
-0.0637672685722776,0.260189568392383
0.151603354886897,0.454960912825473
0.272057979879336,0.679349982339355
0.0376847114841611,0.924855362376329
0.00814113076393641,0.687031880825165
-0.275715755704729,0.37123886865487
-0.137618786796779,0.154293927607696
-0.011524771373403,0.144429357261475
-0.206628205213544,0.14276693452743
-0.467351750031995,0.332062639676871
-0.775655477703091,0.432438279694865
-0.944174621292598,0.362638458919328
-0.855563981440509,0.182750251435645
-0.56246766655691,0.0228483649588482
-0.259802374373288,-0.0397102888479963
-0.146017305263807,-0.0464151623406741
-0.279422565879647,-0.111018732629017
-0.540623653684733,-0.3029303753593
-0.7281331824444,-0.565181662328646
-0.709392535927321,-0.743769894539035
-0.508458323374832,-0.710396446187605
-0.26654255246574,-0.478308233127402
-0.115989508104279,-0.211196676248241
-0.0760111403034776,-0.109801752327544
-0.0549988275666162,-0.261350004277318
0.0489470645038785,-0.570309632718709
0.241422182280002,-0.82655820264039
