-0.14027628914214,0.984955616773799
-0.141566016190126,0.976642208842695
-0.106801075235534,0.960329130134611
-0.124264759011579,0.958918948180826
-0.0824382966891282,0.9930446930382
-0.144120628939438,0.979539219726285
-0.0954073062580364,0.92339301355544
-0.0983924969293061,0.926154661318936
-0.051595656864723,0.929657744610161
-0.0843444573712674,0.910252148404087
-0.0771130162675926,0.902390364772423
-0.0824529436774351,0.881993857341934
-0.0602011763542863,0.878736152370614
-0.0348688298341485,0.902922951748625
-0.00937604729983084,0.846806256181236
-0.0393833550722673,0.863759737783216
-0.0793240746992682,0.903910042422232
0.00228321275727318,0.81398571305219
-0.0158226115268872,0.84097948198971
-0.00785981689880616,0.833433173474054
-0.0338090667074304,0.84875117538054
-0.00855361803289636,0.847687492317598
0.0162731682534464,0.810899758614909
0.0243816118635123,0.803416276937376
0.0325141238298941,0.795943177335334
0.0273167573004654,0.823815751382753
0.059017897807093,0.7414600920771
0.0155936976141316,0.777216421704525
0.097041526971919,0.743590455676508
0.0992339802455156,0.804883527533147
0.0388549930337359,0.751541873828276
0.0814351791638079,0.701953287824807
0.130779703829196,0.69476139107872
0.156806080821886,0.733722576447815
0.111908387783082,0.705965059547378
0.170176155540449,0.695862283931656
0.0979058367713252,0.737340746140431
0.190838028455274,0.65177206068987
0.170262707452768,0.701533265720782
0.170848928577053,0.668935899152524
0.178819041417183,0.661392747405405
0.180024106107359,0.609353204337746
0.182266124819413,0.654655574614064
0.216577747123146,0.649956913426854
0.210335859696403,0.631063284416816
0.220661900495515,0.659764563436237
0.220829719585911,0.610694372427475
0.282260047583823,0.602704672138284
0.269499425804012,0.555769966457628
0.296337777318957,0.534843971754201
0.271236478542256,0.569484264411414
0.282030384114663,0.587510166911103
0.294611648732553,0.519629540874072
0.330772676696446,0.56811655688346
0.305276592691081,0.50106566407667
0.307557969306437,0.53024621199073
0.274983658503539,0.484882875099177
0.297597545003452,0.477496097135382
0.342337364059683,0.490342964282527
0.351605196646559,0.446053674666127
0.35662967189115,0.43500879688123
0.375189482792534,0.507817524006084
0.419017184600172,0.484858210097835
0.371709986635947,0.416243468552672
0.38817705493493,0.433248416943294
0.394437841190499,0.424967933680615
0.375973787222655,0.43920396053979
0.368534449389853,0.373650022468647
0.412770988909619,0.399932713161161
0.418729948729211,0.391522034682726
0.433353973105612,0.398253712469748
0.441788321390809,0.357543954406573
0.467403500777558,0.327432532656019
0.458250131987555,0.331701517847173
0.476765396603352,0.335215611714909
0.468821184596678,0.314299179164808
0.473440389083095,0.261555147056049
0.509583425182892,0.331345381756296
0.484064437344308,0.287931108057978
0.488980591987396,0.279070607334824
0.479062485436734,0.234035640200976
0.498563761911838,0.261242137658143
0.489567304531195,0.282622140583531
0.50618592027077,0.287103813598219
0.551794750642801,0.203336756097546
0.493332366700953,0.233320856609278
0.497425341026071,0.183683345014326
0.525304872168014,0.206890389642204
0.529467283094764,0.197704755617006
0.53354534617085,0.188482737480586
0.489526791788067,0.226090496360454
0.534984795117286,0.170296017752344
0.549013992119263,0.151230768673908
0.514790653368398,0.189265444425143
0.538699702023736,0.166170495383485
0.563135632393627,0.113397758336555
0.566456486012503,0.103849111923408
0.561367662842799,0.0498831561899153
0.575232713215179,0.0427814330678309
0.557694036734944,0.116486806682554
0.608558196167252,0.0932574753121881
0.616782205085775,0.0851660693579719
0.590041890535904,0.026173879656218
0.568085489200269,0.0175236296981101
0.554460641082022,0.0464611962485235
0.597542217857039,-0.00353416345546471
0.599882797615399,-0.0135056587365614
0.57581938722849,-0.0653879669385786
0.562308061569905,-0.0438527460577156
0.570583026726942,-0.0530708060629366
0.622933271848189,-0.0750997743401671
0.610413701440136,-0.0638686844227378
0.653043468243072,-0.109816299557384
0.575336808289861,-0.100357677189074
0.617470342980743,-0.104749237734522
0.589560350460053,-0.109596985103473
0.622187577637345,-0.141798063266365
0.621995738541011,-0.135740541145166
0.623362572025932,-0.146132069567999
0.622232128486105,-0.181627832883035
0.615065168746022,-0.15378143230477
0.679138131612178,-0.199336118111484
0.629860019346062,-0.22389575815526
0.631888399679941,-0.230303369197091
0.592802224132016,-0.231113816404646
0.634055017144578,-0.262312150159322
0.626669497536552,-0.268968477807691
0.615920959534046,-0.293033068912933
0.635712537280537,-0.294540534273058
0.636290040237991,-0.352118615447001
0.61005270162863,-0.360956897498107
0.605959983385115,-0.324728269851701
0.637451725208422,-0.348695936012557
0.687318061344742,-0.35033587067896
0.64736075910935,-0.364929282341575
0.592444794689559,-0.401579840500174
0.638095694191574,-0.425286014761942
0.615746717704803,-0.388137424930001
0.661972124141486,-0.429389834233727
0.601059039947196,-0.476113519296703
0.637100227334452,-0.51356439993887
0.63690532259152,-0.524629596474544
0.6367043678932,-0.535697402706232
0.636500569166252,-0.54676643573212
0.636297268749204,-0.557835253808098
0.635906274899248,-0.579966157764246
0.635726043571964,-0.59102502480625
0.643485870046539,-0.591142577045476
0.635295064465386,-0.624154299554727
0.600198640404756,-0.632378958901055
0.642924946916155,-0.648171436706985
0.635355235525226,-0.690015081310548
0.588711898223124,-0.683391254232907
0.685271129438563,-0.687594430218466
0.592915878234814,-0.79440667921166
0.59670891246267,-0.821796036915417
0.609523211171673,-0.823712363996935
-0.189460298677771,0.945401604452606
-0.130459402520474,0.945265716966919
-0.0798834595452544,0.881931947057699
-0.176088487554092,0.884282936997135
-0.124484950643349,0.890586180405969
-0.168753917898487,0.902949749699284
-0.139542451768079,0.813815496292858
-0.122154559638052,0.846974123484267
-0.114237329881679,0.859240029687302
-0.121032038441871,0.806577688010019
-0.118037453117725,0.776495576029376
-0.121564065334202,0.79028152900763
-0.111655604087621,0.733614493996059
-0.142773235939562,0.689492439328881
-0.149946537468676,0.7103949048698
-0.161250275951128,0.66217810545593
-0.161521490815404,0.629975362558859
-0.147437992590373,0.551721336566556
-0.17223278717505,0.59840736697783
-0.142083212140096,0.548045789845511
-0.153548149737732,0.498724904319244
-0.104670885503472,0.507318960488421
-0.0858783069247455,0.546454995651195
-0.123762101240687,0.508909737292201
-0.127728845365866,0.525566961884524
-0.0771578522415965,0.487073919700334
-0.123260062549632,0.476182927135912
-0.0981497406081326,0.382229366209461
-0.129557676414445,0.448559276779526
-0.165070386526754,0.403438817147742
-0.118477770229819,0.368434578316708
-0.0782868977465544,0.336936563137129
-0.114985549596187,0.326016483909401
-0.147245990258574,0.325846020341368
-0.116966717967999,0.310914979002494
-0.111381744005601,0.287838315383127
-0.130945854750506,0.212402695231687
-0.117585184837044,0.224666617808937
-0.101625702496014,0.221968131055347
-0.0998991094456231,0.211731787760997
-0.121809708596569,0.155204809153633
-0.0787976260280148,0.153515576064882
-0.0922416997604927,0.171110380530777
-0.0901361349360887,0.161037509702726
-0.041526683361639,0.181360620765551
-0.0784305888870298,0.111181175212558
-0.0758502278771132,0.101313111467137
-0.100247903954203,0.0654443510076639
-0.109824395875368,0.0939574938549321
-0.0899639297018016,0.0782072328838897
-0.000832693395774714,0.0208655400193443
-0.0202425183044396,0.0240044749837912
-0.0384787812229987,-0.0143398940458584
-0.0465506147252353,-0.0287295597754574
-0.0651797693585083,-0.0850881843186412
-0.015275620435974,-0.0702177644936508
-0.0039429316388222,-0.128334067417632
-0.0171621528467907,-0.0572094907275376
0.00903571294421268,-0.138963265618185
0.0208108228344214,-0.171301394723589
0.0351260562761584,-0.169268954575113
0.0128000801968004,-0.197319910577994
0.0237173874362943,-0.216561580667291
0.0342080873319073,-0.239362998221314
0.121304136971172,-0.293315164421033
0.109742615687831,-0.255417899189341
0.095393617096581,-0.214128855016716
0.0571451518282907,-0.322000068194552
0.0892763078533445,-0.265747329648542
0.147023327673212,-0.274036754024948
0.154074366637224,-0.290491471563797
0.151785751561496,-0.338569330834874
0.252591813202536,-0.458571824036595
0.266330832791126,-0.446965504608703
0.254759067585502,-0.484677617066415
0.274369878306489,-0.524865879057281
0.359377317991087,-0.556494509356432
0.383630718378117,-0.578975982153505
0.397152672503655,-0.638222220859058
0.434860205454919,-0.588365817509565
0.491174481596592,-0.619412675506201
0.457178707042057,-0.646080582186632
0.456250274007553,-0.645373386777021
0.425433865804459,-0.643156832865828
0.457011484802622,-0.683219391985043
0.632335321198755,-0.823091219229213
0.632650988500657,-0.784221051050994
0.665913555147008,-0.862220734633706
