0.268245296301396,-0.612684311385892
0.258442553523796,-0.567682119468433
0.279410105160717,-0.603857483996777
0.268329651453384,-0.590850477819674
0.259659083488444,-0.567844537645863
0.3041009216184,-0.544459768072596
0.26065880150442,-0.5679658213581
0.261228387915215,-0.568030404752603
0.253342010064272,-0.588417469043276
0.276104153469531,-0.591593733703892
0.263286127472702,-0.568238838662633
0.216548514283662,-0.542459673282795
0.265025344576622,-0.568387427226723
0.28451693269704,-0.592799108356405
0.245405094616777,-0.592550804825833
0.268396790534622,-0.568612503370777
0.256452888350269,-0.596044929766821
0.281282297894066,-0.592645211235895
0.248965790632178,-0.556994589037378
0.264934041982989,-0.566924118682683
0.277215561066272,-0.568876938252666
0.326494573649003,-0.543358635982802
0.242996081908127,-0.563104765885804
0.25645713932124,-0.584265440555625
0.337766581230251,-0.550223026372061
0.328279383764578,-0.569653179507583
0.251852420591398,-0.524646630779623
0.353922829576113,-0.559143281067797
0.310665473750275,-0.566913855299691
0.31829807208571,-0.565960927206468
0.327247999299868,-0.564643475070082
0.337790727919956,-0.562832334495445
0.355539705507471,-0.556006479836998
0.364323609926479,-0.548900072252786
0.377748761513899,-0.506111951716257
0.447616307273981,-0.546370780820158
0.404773211615075,-0.523348448158194
0.46015793619994,-0.524946739211954
0.497083917036438,-0.508132042488474
0.541412205271474,-0.484808905489507
0.594261543026645,-0.452438339578929
0.656447408332101,-0.407600864479248
0.7279722387987,-0.345878015630465
0.807166806058569,-0.261968440477571
0.889430505993234,-0.150361607095804
0.965762805537747,-0.00705079719547559
1.02184257934536,0.167289688920296
1.03920760511733,0.362979393362332
1.00030631381855,0.557986215359628
0.897254910450362,0.71965633161134
0.73971514067891,0.814549597262207
0.554636538109527,0.822986022058305
0.375565367280674,0.74829171778142
0.228720788468081,0.613508353982628
0.125547481349667,0.449139698449612
0.0642873155261849,0.281520484258667
0.0360680039049191,0.127525786981215
0.030468960668849,-0.00504575485266971
0.03858429907366,-0.114633104489236
0.0539549170544918,-0.203029177894932
0.0723766369353172,-0.273365233306583
0.0913398834041327,-0.32897792663177
0.109473731736705,-0.372886829705468
0.126117357549418,-0.407618561300547
0.141027058003952,-0.435199750951076
0.154189744387574,-0.457218350766949
0.165709956006329,-0.474903179854486
0.175744175109284,-0.489199743251353
0.184464235588169,-0.500834551105906
0.192038048151687,-0.510366641294554
0.198620341123266,-0.518227591239422
0.204349018407294,-0.524752065253722
0.209344542315078,-0.530200929937327
0.213710844016363,-0.534778679386296
0.217536916299923,-0.538646564077854
0.220898625713798,-0.541932498978355
0.223860502222388,-0.544738564088703
0.226477390156155,-0.547146705437483
0.228795913982985,-0.549223088558431
0.230855749797117,-0.551021439844616
0.232690712262784,-0.552585624713364
0.234329675186001,-0.553951647707752
0.235797346640402,-0.555149212629963
0.237114919359528,-0.556202946112493
0.23830061546991,-0.557133362392682
0.239370142432572,-0.557957628045704
0.240337074743143,-0.558690171283949
0.241213173743722,-0.559343169858513
0.242008655925786,-0.559926943662435
0.242732418385958,-0.560450272150239
0.243392228631907,-0.560920652152995
0.243994884703228,-0.561344508214738
0.244546350544147,-0.561727364933873
0.245051870712268,-0.562073988761834
0.245516067803157,-0.562388505142171
0.245943025389698,-0.562674495655504
0.246336358796917,-0.562935078886376
0.246699275639147,-0.563172977984549
0.247034627722157,-0.563390577308451
0.247344955645605,-0.563589970076435
